EMG_S1/DS0159.CSV

Memory Length,4000,
Trigger Level,0.00000e+00,
Source,CH1,
Probe,1.0X,
Vertical Units,V,
Vertical Scale,1.00000e+00,
Vertical Position,4.00000e-02,
Horizontal Units,S,
Horizontal Scale,1.00000e-01,
Horizontal Position,0.0000000e+00,
Horizontal Mode,Roll Mode,
Waveform Last Dot Address,4000,
Sampling Period,4.00000e-04,
Firmware,V1.14,
Time, ,
Mode,Fast,
Waveform Data,
2,
2,
0,
0,
2,
2,
22,
22,
15,
0,
3,
3,
5,
5,
1,
1,
7,
7,
6,
6,
13,
13,
18,
18,
11,
11,
4,
4,
11,
11,
8,
8,
4,
4,
0,
0,
0,
0,
4,
4,
5,
5,
0,
0,
2,
2,
8,
8,
6,
6,
6,
6,
11,
11,
7,
7,
3,
3,
10,
10,
8,
8,
9,
9,
14,
14,
7,
7,
3,
3,
3,
3,
1,
14,
14,
14,
14,
3,
3,
3,
9,
28,
27,
27,
23,
2,
3,
14,
12,
12,
21,
21,
25,
9,
10,
10,
11,
11,
8,
8,
12,
12,
6,
6,
0,
0,
10,
10,
9,
9,
9,
9,
12,
0,
1,
1,
7,
7,
14,
25,
24,
24,
17,
2,
5,
5,
12,
12,
9,
9,
4,
4,
9,
9,
15,
15,
11,
0,
1,
1,
2,
2,
1,
1,
0,
12,
12,
12,
14,
14,
19,
4,
7,
34,
34,
34,
36,
12,
12,
1,
5,
5,
7,
7,
7,
7,
3,
3,
10,
10,
12,
12,
11,
11,
12,
12,
12,
12,
9,
31,
30,
30,
24,
7,
7,
7,
2,
2,
1,
1,
8,
8,
6,
6,
6,
19,
19,
19,
14,
0,
2,
2,
4,
4,
6,
6,
4,
4,
13,
13,
7,
7,
3,
3,
7,
7,
7,
7,
2,
14,
14,
14,
13,
2,
3,
3,
1,
1,
3,
3,
8,
8,
2,
2,
10,
23,
22,
22,
24,
24,
18,
18,
10,
-1,
0,
0,
7,
7,
3,
3,
8,
21,
20,
20,
22,
6,
6,
6,
9,
9,
19,
19,
26,
26,
26,
6,
7,
7,
10,
10,
2,
2,
6,
6,
10,
23,
22,
22,
18,
18,
14,
2,
3,
25,
24,
24,
18,
-1,
1,
1,
2,
2,
10,
10,
7,
7,
16,
16,
10,
10,
2,
2,
5,
5,
4,
4,
14,
14,
8,
8,
5,
5,
12,
12,
14,
14,
9,
9,
1,
1,
5,
5,
5,
5,
5,
5,
5,
5,
8,
8,
4,
4,
0,
0,
0,
0,
-1,
-1,
2,
2,
1,
1,
3,
3,
1,
1,
8,
8,
14,
14,
18,
2,
2,
14,
13,
13,
17,
17,
23,
23,
28,
28,
19,
19,
14,
14,
6,
6,
9,
34,
33,
46,
46,
32,
33,
33,
25,
5,
5,
5,
12,
0,
1,
1,
6,
6,
6,
6,
13,
13,
9,
9,
5,
5,
7,
7,
14,
1,
2,
14,
13,
0,
3,
3,
11,
11,
11,
11,
2,
2,
0,
0,
3,
14,
14,
27,
27,
27,
17,
4,
4,
4,
2,
2,
0,
0,
7,
7,
13,
0,
2,
2,
7,
7,
10,
10,
11,
11,
11,
0,
2,
2,
5,
5,
0,
0,
6,
6,
15,
3,
12,
35,
34,
34,
27,
5,
6,
6,
0,
0,
0,
0,
4,
4,
1,
1,
0,
0,
7,
7,
13,
13,
9,
9,
5,
5,
7,
7,
15,
15,
11,
0,
4,
4,
10,
10,
7,
22,
22,
22,
30,
18,
18,
18,
19,
19,
14,
1,
2,
2,
3,
3,
8,
22,
21,
36,
35,
35,
26,
6,
7,
7,
1,
1,
10,
10,
11,
0,
1,
1,
0,
0,
2,
2,
2,
31,
30,
45,
44,
22,
22,
2,
4,
4,
12,
12,
19,
19,
13,
-1,
0,
0,
4,
4,
8,
8,
2,
2,
2,
2,
-1,
-1,
1,
1,
1,
1,
4,
4,
2,
2,
3,
26,
25,
25,
32,
20,
20,
2,
7,
18,
17,
17,
14,
2,
2,
2,
5,
5,
2,
2,
7,
7,
12,
-1,
1,
1,
0,
0,
0,
0,
1,
1,
6,
6,
0,
0,
3,
3,
4,
4,
2,
2,
6,
6,
13,
13,
7,
7,
3,
31,
30,
61,
61,
31,
31,
4,
7,
18,
18,
18,
15,
15,
15,
15,
6,
6,
9,
9,
12,
12,
8,
8,
7,
7,
0,
0,
5,
26,
25,
40,
40,
22,
22,
1,
2,
2,
8,
8,
15,
15,
22,
22,
14,
0,
1,
1,
6,
6,
1,
1,
0,
0,
0,
0,
2,
2,
3,
3,
6,
23,
23,
23,
17,
17,
11,
11,
15,
15,
10,
10,
9,
9,
1,
1,
8,
8,
15,
15,
14,
14,
11,
11,
7,
7,
-1,
-1,
0,
0,
7,
7,
4,
4,
6,
6,
0,
0,
10,
10,
16,
16,
16,
16,
8,
8,
8,
8,
6,
6,
-1,
10,
8,
8,
3,
15,
14,
14,
12,
12,
4,
4,
2,
2,
7,
7,
2,
2,
10,
10,
4,
4,
0,
0,
0,
0,
5,
5,
6,
22,
21,
21,
27,
10,
10,
10,
15,
15,
17,
1,
3,
3,
4,
4,
6,
6,
0,
0,
7,
7,
10,
10,
5,
5,
0,
11,
10,
10,
10,
10,
8,
8,
2,
2,
4,
4,
5,
5,
4,
4,
12,
12,
21,
8,
9,
9,
6,
6,
13,
13,
18,
18,
17,
17,
14,
14,
11,
11,
7,
7,
0,
18,
18,
18,
26,
26,
18,
18,
12,
12,
8,
8,
0,
0,
6,
6,
12,
12,
16,
16,
16,
16,
6,
6,
4,
4,
12,
12,
16,
16,
9,
9,
0,
0,
4,
4,
8,
8,
4,
4,
4,
4,
7,
7,
8,
8,
0,
0,
2,
2,
11,
11,
14,
14,
10,
10,
0,
0,
8,
8,
12,
12,
11,
11,
12,
12,
9,
9,
6,
6,
3,
17,
15,
15,
12,
12,
3,
3,
2,
2,
8,
8,
4,
4,
3,
3,
4,
4,
8,
8,
9,
9,
0,
0,
6,
6,
10,
21,
21,
21,
17,
17,
23,
5,
6,
41,
40,
40,
33,
8,
8,
8,
0,
0,
3,
3,
1,
1,
6,
6,
10,
10,
5,
5,
2,
2,
3,
3,
2,
2,
6,
6,
10,
10,
2,
2,
6,
6,
11,
11,
7,
7,
-1,
-1,
7,
7,
8,
8,
17,
40,
39,
39,
30,
5,
6,
6,
15,
15,
20,
20,
18,
18,
15,
15,
5,
5,
-1,
-1,
0,
0,
5,
5,
8,
8,
2,
2,
-2,
-2,
1,
1,
6,
6,
7,
7,
4,
4,
7,
7,
7,
7,
7,
7,
10,
10,
3,
3,
6,
6,
4,
4,
7,
7,
10,
10,
6,
6,
6,
6,
10,
10,
6,
6,
5,
5,
12,
12,
15,
15,
8,
8,
3,
3,
5,
5,
0,
0,
5,
5,
0,
0,
6,
6,
13,
2,
3,
29,
27,
47,
45,
31,
32,
2,
3,
3,
10,
10,
13,
13,
9,
9,
7,
7,
8,
8,
2,
2,
0,
0,
2,
2,
7,
7,
7,
7,
7,
7,
0,
14,
12,
12,
10,
10,
2,
2,
5,
5,
5,
5,
4,
4,
2,
18,
18,
18,
27,
27,
22,
7,
7,
7,
1,
20,
19,
19,
27,
11,
12,
12,
6,
6,
0,
18,
18,
18,
22,
5,
6,
6,
6,
6,
6,
6,
10,
22,
21,
21,
21,
21,
12,
12,
9,
9,
15,
15,
9,
9,
5,
5,
7,
23,
23,
23,
17,
0,
2,
2,
10,
10,
12,
12,
12,
12,
5,
5,
1,
1,
3,
3,
8,
8,
12,
12,
8,
8,
0,
0,
3,
3,
4,
4,
3,
3,
1,
1,
0,
0,
2,
2,
0,
0,
0,
0,
-1,
-1,
2,
2,
5,
20,
19,
19,
26,
26,
27,
8,
9,
9,
7,
7,
13,
13,
15,
15,
11,
11,
10,
10,
2,
2,
1,
1,
6,
6,
2,
2,
4,
4,
10,
25,
25,
25,
15,
0,
0,
11,
10,
10,
6,
6,
4,
4,
8,
8,
3,
3,
2,
2,
2,
2,
9,
9,
7,
7,
0,
0,
3,
3,
10,
10,
11,
11,
11,
11,
8,
8,
7,
7,
2,
18,
17,
17,
18,
6,
6,
6,
0,
0,
1,
1,
0,
0,
-1,
-1,
6,
6,
4,
4,
3,
14,
14,
14,
14,
1,
5,
5,
8,
8,
2,
2,
8,
8,
7,
7,
4,
4,
8,
8,
4,
4,
11,
11,
13,
13,
21,
21,
18,
6,
7,
7,
2,
2,
0,
0,
9,
9,
16,
16,
18,
18,
10,
10,
6,
6,
9,
9,
9,
9,
1,
1,
0,
16,
15,
15,
17,
6,
6,
6,
7,
7,
11,
11,
8,
8,
7,
7,
10,
10,
9,
9,
8,
8,
0,
11,
10,
10,
19,
19,
15,
15,
8,
8,
6,
19,
19,
7,
7,
7,
8,
8,
4,
4,
2,
2,
8,
8,
9,
9,
1,
1,
4,
4,
2,
2,
-1,
-1,
7,
7,
15,
15,
7,
7,
5,
5,
10,
10,
10,
10,
9,
9,
6,
6,
0,
0,
6,
6,
5,
5,
6,
6,
6,
21,
20,
20,
13,
-1,
1,
1,
5,
5,
2,
2,
2,
2,
6,
6,
-1,
-1,
-1,
-1,
-1,
-1,
0,
0,
1,
1,
6,
6,
4,
4,
2,
2,
-1,
-1,
4,
4,
13,
13,
13,
-1,
1,
1,
8,
8,
8,
8,
0,
0,
3,
3,
6,
6,
0,
0,
2,
2,
2,
2,
12,
12,
11,
11,
13,
13,
10,
10,
14,
14,
6,
6,
6,
6,
0,
14,
13,
13,
15,
15,
12,
12,
12,
12,
7,
7,
3,
3,
10,
10,
18,
18,
10,
10,
1,
1,
6,
6,
12,
12,
10,
-1,
1,
1,
10,
10,
13,
13,
17,
17,
10,
-1,
0,
0,
1,
1,
2,
2,
0,
15,
14,
14,
19,
19,
13,
13,
8,
8,
13,
27,
27,
27,
26,
10,
11,
11,
3,
3,
2,
2,
6,
6,
3,
20,
20,
20,
29,
29,
21,
3,
4,
18,
18,
18,
22,
22,
25,
25,
19,
6,
6,
6,
0,
0,
7,
7,
16,
16,
22,
22,
18,
18,
11,
0,
1,
1,
0,
0,
5,
5,
7,
7,
4,
4,
0,
0,
5,
5,
10,
10,
14,
14,
16,
16,
10,
-1,
0,
0,
4,
4,
0,
0,
1,
1,
2,
2,
2,
2,
2,
2,
-1,
-1,
6,
6,
4,
4,
5,
5,
2,
2,
0,
0,
0,
0,
3,
3,
5,
5,
2,
2,
0,
0,
7,
7,
14,
14,
6,
6,
11,
11,
6,
17,
16,
32,
31,
16,
16,
3,
16,
16,
16,
0,
2,
2,
-1,
-1,
3,
3,
1,
1,
4,
4,
1,
1,
0,
11,
11,
11,
10,
10,
4,
4,
6,
6,
2,
2,
0,
0,
1,
1,
0,
0,
-2,
-2,
1,
1,
1,
1,
3,
3,
0,
15,
15,
15,
22,
10,
11,
0,
2,
2,
5,
5,
10,
10,
3,
3,
6,
6,
11,
11,
10,
10,
10,
10,
3,
3,
2,
18,
16,
16,
15,
2,
2,
2,
5,
5,
5,
5,
0,
0,
0,
0,
-1,
-1,
0,
0,
2,
2,
1,
1,
3,
3,
0,
0,
-1,
-1,
-1,
-1,
0,
0,
2,
2,
0,
0,
7,
7,
13,
13,
8,
8,
4,
4,
2,
2,
3,
3,
5,
5,
7,
7,
2,
2,
9,
9,
3,
3,
4,
4,
7,
7,
2,
2,
7,
7,
15,
15,
6,
6,
3,
3,
6,
6,
-1,
-1,
7,
7,
8,
8,
1,
1,
10,
10,
2,
2,
1,
1,
6,
6,
2,
2,
0,
0,
3,
3,
2,
2,
7,
7,
0,
15,
14,
14,
21,
21,
15,
15,
11,
11,
6,
6,
11,
11,
16,
3,
4,
4,
11,
22,
21,
21,
25,
25,
32,
18,
18,
0,
0,
17,
17,
35,
34,
34,
38,
24,
24,
9,
10,
10,
6,
17,
16,
16,
21,
21,
16,
16,
14,
14,
4,
4,
3,
3,
0,
0,
0,
0,
4,
4,
7,
7,
9,
9,
9,
9,
5,
5,
2,
2,
2,
2,
-1,
-1,
-2,
-2,
2,
2,
9,
9,
12,
0,
4,
4,
2,
2,
10,
10,
7,
7,
3,
3,
11,
11,
11,
11,
6,
6,
6,
6,
6,
6,
1,
1,
0,
0,
0,
13,
12,
12,
21,
21,
14,
14,
8,
8,
4,
4,
-1,
-1,
8,
8,
13,
13,
14,
14,
16,
16,
12,
1,
6,
30,
29,
29,
34,
15,
16,
0,
3,
3,
8,
8,
8,
8,
3,
3,
6,
6,
6,
6,
2,
2,
8,
8,
4,
4,
5,
5,
10,
10,
6,
6,
2,
13,
13,
13,
19,
19,
15,
15,
6,
6,
0,
0,
4,
4,
2,
2,
8,
8,
7,
7,
3,
3,
6,
6,
6,
6,
1,
1,
7,
18,
17,
17,
13,
13,
5,
5,
3,
3,
4,
4,
0,
0,
0,
0,
0,
0,
0,
0,
0,
0,
5,
5,
11,
11,
8,
8,
3,
3,
7,
7,
14,
14,
5,
5,
9,
9,
7,
7,
2,
14,
12,
23,
22,
5,
6,
6,
4,
4,
0,
0,
2,
2,
-1,
-1,
2,
2,
2,
2,
0,
0,
0,
0,
1,
1,
7,
7,
5,
16,
16,
16,
10,
10,
0,
0,
2,
2,
6,
6,
5,
5,
0,
0,
0,
0,
0,
0,
4,
4,
8,
8,
2,
2,
8,
8,
6,
6,
3,
3,
8,
8,
13,
13,
14,
0,
2,
2,
7,
7,
12,
12,
3,
3,
3,
3,
0,
0,
7,
7,
5,
5,
9,
9,
11,
11,
14,
14,
11,
11,
9,
9,
3,
3,
0,
0,
2,
2,
5,
5,
11,
11,
16,
16,
13,
13,
4,
4,
0,
0,
3,
3,
0,
0,
0,
0,
0,
0,
3,
3,
11,
11,
10,
10,
3,
14,
13,
13,
19,
19,
13,
13,
5,
5,
6,
6,
13,
13,
13,
13,
10,
10,
2,
2,
6,
6,
-1,
-1,
2,
2,
0,
0,
-1,
-1,
1,
1,
2,
2,
4,
4,
3,
3,
2,
2,
2,
2,
-1,
-1,
-1,
-1,
-1,
-1,
-1,
-1,
5,
5,
2,
2,
2,
2,
5,
5,
7,
7,
14,
14,
10,
-1,
-1,
-1,
-2,
-2,
3,
3,
11,
11,
6,
6,
1,
1,
0,
0,
2,
2,
3,
3,
2,
2,
2,
2,
3,
3,
0,
0,
8,
8,
6,
6,
14,
14,
7,
7,
5,
5,
10,
10,
9,
9,
8,
8,
4,
4,
2,
13,
13,
13,
15,
15,
12,
12,
4,
4,
-1,
-1,
2,
2,
2,
2,
11,
11,
11,
11,
4,
4,
0,
0,
2,
2,
2,
13,
12,
12,
15,
15,
10,
10,
7,
7,
5,
5,
0,
0,
0,
0,
0,
0,
7,
7,
12,
12,
14,
14,
11,
11,
11,
11,
7,
7,
2,
2,
6,
6,
6,
6,
2,
2,
7,
7,
2,
2,
1,
1,
4,
4,
8,
8,
10,
10,
4,
4,
5,
5,
7,
7,
3,
3,
3,
3,
-1,
-1,
8,
8,
15,
15,
10,
-1,
0,
0,
8,
8,
12,
12,
6,
6,
8,
8,
8,
8,
1,
1,
5,
5,
10,
10,
10,
-1,
0,
0,
0,
0,
3,
3,
3,
3,
5,
5,
0,
0,
1,
1,
0,
0,
0,
0,
2,
2,
0,
0,
1,
15,
14,
14,
19,
7,
8,
8,
8,
8,
4,
21,
21,
21,
22,
10,
11,
0,
7,
22,
21,
21,
23,
23,
18,
2,
3,
3,
2,
14,
14,
14,
12,
0,
1,
1,
5,
5,
5,
5,
7,
7,
8,
8,
2,
2,
0,
0,
1,
1,
5,
5,
2,
2,
10,
10,
13,
13,
10,
10,
4,
4,
5,
5,
7,
7,
7,
7,
0,
0,
2,
2,
2,
2,
2,
2,
3,
3,
3,
3,
6,
6,
0,
0,
0,
0,
-1,
-1,
4,
4,
7,
7,
7,
20,
19,
19,
11,
-1,
1,
15,
14,
14,
8,
8,
2,
2,
2,
2,
-1,
-1,
0,
0,
0,
0,
1,
1,
-1,
-1,
0,
0,
0,
0,
2,
2,
3,
3,
6,
6,
2,
2,
0,
0,
0,
0,
-1,
-1,
7,
7,
16,
16,
13,
13,
6,
6,
0,
0,
1,
1,
2,
2,
4,
4,
0,
0,
0,
0,
3,
3,
4,
4,
10,
10,
11,
0,
2,
2,
8,
8,
1,
1,
2,
2,
6,
18,
17,
17,
22,
10,
11,
0,
1,
1,
3,
3,
12,
12,
18,
6,
7,
7,
0,
0,
-1,
-1,
5,
5,
6,
6,
0,
0,
5,
5,
3,
3,
1,
1,
3,
3,
4,
4,
6,
6,
2,
2,
-1,
-1,
2,
2,
6,
6,
9,
9,
11,
11,
6,
6,
4,
4,
6,
6,
1,
1,
4,
4,
0,
0,
9,
9,
14,
14,
11,
11,
3,
3,
1,
1,
9,
9,
13,
13,
12,
12,
9,
9,
4,
4,
8,
8,
14,
14,
9,
9,
1,
16,
15,
15,
12,
12,
4,
4,
1,
1,
6,
6,
4,
4,
2,
2,
8,
8,
6,
6,
3,
3,
-1,
-1,
4,
4,
10,
10,
6,
6,
0,
0,
1,
1,
3,
3,
4,
4,
1,
1,
6,
6,
13,
13,
16,
16,
9,
9,
1,
1,
6,
18,
17,
6,
7,
7,
15,
15,
21,
21,
20,
20,
14,
0,
2,
2,
9,
9,
15,
15,
12,
12,
8,
8,
3,
3,
3,
3,
4,
4,
13,
13,
9,
9,
8,
8,
12,
12,
4,
4,
2,
2,
7,
7,
6,
6,
3,
3,
6,
6,
6,
6,
0,
0,
-1,
-1,
4,
4,
4,
4,
1,
1,
0,
0,
0,
0,
0,
0,
1,
1,
8,
8,
7,
7,
0,
0,
7,
7,
6,
6,
11,
11,
12,
12,
10,
10,
5,
5,
1,
1,
3,
3,
2,
2,
5,
5,
8,
8,
10,
10,
7,
7,
2,
2,
0,
0,
3,
3,
7,
7,
14,
14,
11,
-1,
0,
0,
3,
3,
3,
3,
6,
6,
3,
3,
0,
0,
3,
3,
7,
7,
8,
8,
4,
4,
3,
3,
11,
11,
5,
5,
0,
0,
6,
6,
2,
2,
1,
1,
-1,
-1,
2,
2,
8,
8,
8,
8,
0,
0,
3,
3,
2,
2,
2,
2,
2,
2,
1,
1,
-1,
-1,
0,
0,
0,
0,
3,
3,
8,
8,
7,
7,
6,
6,
0,
0,
6,
6,
13,
13,
17,
2,
8,
19,
18,
18,
12,
12,
16,
16,
10,
10,
16,
34,
34,
16,
16,
2,
6,
22,
22,
22,
27,
27,
26,
26,
20,
20,
13,
13,
6,
6,
1,
1,
2,
2,
1,
1,
2,
2,
5,
5,
7,
7,
7,
7,
7,
7,
9,
9,
8,
8,
6,
6,
7,
7,
4,
4,
0,
0,
1,
1,
3,
3,
1,
1,
1,
1,
7,
7,
15,
15,
9,
9,
0,
0,
4,
4,
2,
2,
1,
1,
9,
9,
12,
0,
0,
12,
11,
11,
14,
1,
6,
17,
16,
16,
21,
21,
12,
1,
6,
6,
15,
15,
22,
22,
31,
18,
19,
0,
2,
2,
10,
10,
9,
9,
12,
12,
13,
13,
6,
6,
0,
0,
0,
0,
0,
0,
0,
0,
3,
3,
8,
8,
14,
14,
15,
15,
8,
8,
0,
0,
9,
9,
17,
17,
10,
10,
0,
20,
20,
20,
26,
3,
3,
3,
6,
6,
4,
4,
1,
1,
3,
3,
10,
10,
8,
8,
7,
7,
2,
16,
15,
26,
24,
12,
13,
-1,
0,
0,
2,
13,
12,
12,
13,
0,
1,
1,
3,
3,
2,
2,
0,
0,
3,
3,
3,
3,
12,
12,
6,
6,
1,
1,
-2,
-2,
2,
2,
0,
0,
6,
6,
2,
2,
1,
1,
5,
5,
6,
6,
2,
2,
1,
1,
2,
2,
7,
7,
2,
2,
1,
1,
1,
1,
-1,
-1,
8,
8,
11,
11,
5,
5,
1,
1,
6,
6,
4,
4,
3,
3,
1,
1,
-1,
-1,
-1,
-1,
1,
1,
3,
3,
3,
3,
3,
3,
3,
3,
2,
2,
-1,
-1,
3,
3,
4,
4,
11,
11,
6,
6,
1,
1,
0,
0,
0,
0,
2,
2,
0,
0,
-1,
-1,
6,
6,
11,
11,
7,
7,
2,
2,
5,
5,
8,
8,
7,
7,
1,
1,
0,
0,
1,
1,
3,
3,
1,
1,
7,
7,
0,
0,
2,
2,
5,
5,
5,
5,
8,
23,
22,
22,
14,
2,
3,
3,
10,
10,
8,
8,
0,
0,
7,
7,
8,
8,
6,
6,
4,
4,
3,
3,
0,
0,
1,
1,
0,
0,
3,
3,
2,
2,
-1,
-1,
5,
5,
5,
5,
3,
3,
5,
5,
3,
3,
3,
3,
4,
4,
2,
2,
4,
4,
5,
5,
8,
8,
4,
4,
0,
14,
12,
12,
15,
2,
6,
6,
14,
14,
11,
11,
6,
6,
0,
0,
-1,
-1,
3,
3,
7,
7,
7,
7,
1,
13,
11,
11,
16,
16,
13,
13,
6,
6,
8,
8,
10,
10,
1,
1,
1,
1,
1,
1,
1,
1,
-1,
-1,
6,
6,
10,
10,
2,
2,
0,
0,
-1,
-1,
6,
6,
8,
8,
4,
4,
0,
0,
0,
0,
3,
3,
7,
7,
7,
7,
9,
9,
5,
5,
9,
9,
15,
15,
12,
-1,
0,
0,
9,
9,
13,
13,
11,
11,
10,
10,
2,
2,
3,
3,
2,
2,
7,
19,
18,
37,
37,
37,
32,
3,
4,
4,
12,
12,
15,
15,
9,
9,
4,
4,
3,
3,
8,
8,
10,
10,
9,
9,
7,
7,
5,
5,
3,
3,
0,
0,
9,
9,
13,
13,
13,
13,
10,
10,
7,
7,
5,
5,
0,
0,
3,
3,
7,
7,
7,
7,
3,
15,
15,
26,
25,
25,
31,
11,
12,
1,
7,
7,
14,
14,
22,
22,
24,
13,
14,
0,
1,
1,
4,
4,
8,
8,
6,
6,
2,
2,
2,
2,
0,
0,
4,
4,
0,
0,
2,
2,
0,
0,
3,
3,
3,
14,
14,
14,
12,
12,
4,
4,
0,
0,
0,
0,
1,
1,
0,
0,
2,
2,
-1,
-1,
-1,
-1,
2,
2,
1,
1,
2,
2,
2,
2,
3,
3,
3,
3,
-1,
-1,
1,
1,
1,
1,
8,
8,
5,
5,
3,
3,
7,
7,
10,
10,
8,
8,
0,
0,
4,
4,
7,
7,
7,
7,
2,
2,
0,
0,
0,
0,
7,
7,
8,
8,
7,
7,
4,
4,
2,
2,
1,
1,
0,
0,
6,
6,
4,
4,
2,
2,
8,
21,
20,
48,
47,
47,
48,
32,
32,
5,
8,
30,
30,
30,
28,
17,
18,
18,
11,
11,
12,
12,
7,
7,
1,
1,
3,
3,
1,
1,
7,
7,
11,
11,
11,
11,
4,
4,
-1,
-1,
0,
0,
1,
1,
2,
2,
1,
1,
0,
0,
4,
4,
9,
9,
12,
12,
7,
7,
4,
4,
6,
6,
1,
1,
4,
4,
7,
7,
7,
7,
11,
11,
11,
0,
4,
15,
14,
14,
12,
0,
1,
1,
3,
3,
3,
3,
1,
1,
5,
5,
4,
4,
10,
10,
4,
4,
0,
0,
3,
3,
2,
2,
-1,
-1,
3,
3,
6,
6,
8,
8,
4,
4,
2,
2,
1,
1,
0,
16,
15,
15,
22,
22,
14,
3,
3,
3,
5,
5,
14,
14,
14,
14,
10,
10,
7,
7,
2,
2,
6,
6,
13,
13,
11,
11,
4,
4,
2,
2,
0,
0,
-1,
-1,
-1,
-1,
0,
0,
-1,
-1,
0,
0,
0,
0,
1,
1,
8,
8,
14,
14,
12,
12,
10,
10,
3,
3,
-1,
-1,
4,
4,
2,
2,
5,
5,
1,
1,
7,
7,
2,
2,
8,
8,
0,
0,
0,
0,
3,
3,
8,
8,
5,
5,
4,
4,
5,
5,
0,
0,
6,
20,
20,
20,
23,
11,
12,
12,
8,
8,
4,
4,
2,
2,
2,
2,
6,
6,
6,
6,
2,
2,
-1,
-1,
-1,
-1,
0,
0,
3,
3,
5,
5,
1,
1,
0,
0,
1,
1,
5,
5,
7,
7,
1,
1,
9,
9,
1,
1,
5,
5,
14,
14,
22,
11,
11,
0,
0,
0,
9,
9,
14,
1,
3,
15,
14,
14,
16,
16,
10,
10,
0,
0,
3,
3,
2,
2,
8,
8,
13,
13,
18,
18,
18,
18,
18,
18,
14,
2,
11,
33,
33,
33,
37,
26,
26,
10,
11,
0,
3,
3,
9,
9,
10,
10,
9,
9,
10,
10,
10,
10,
8,
8,
3,
3,
10,
10,
6,
6,
2,
2,
3,
3,
3,
3,
0,
0,
2,
2,
11,
25,
23,
23,
20,
6,
6,
6,
4,
4,
10,
10,
11,
11,
10,
10,
10,
10,
10,
10,
11,
-1,
1,
1,
6,
6,
6,
6,
8,
8,
10,
10,
3,
3,
-1,
-1,
2,
2,
5,
5,
3,
3,
2,
2,
6,
6,
2,
2,
8,
8,
15,
15,
12,
12,
9,
9,
10,
10,
15,
15,
11,
0,
3,
3,
10,
10,
11,
11,
8,
8,
6,
6,
8,
8,
3,
3,
0,
0,
