EMG_S1/DS0174.CSV

Memory Length,4000,
Trigger Level,0.00000e+00,
Source,CH1,
Probe,1.0X,
Vertical Units,V,
Vertical Scale,1.00000e+00,
Vertical Position,4.00000e-02,
Horizontal Units,S,
Horizontal Scale,1.00000e-01,
Horizontal Position,0.0000000e+00,
Horizontal Mode,Roll Mode,
Waveform Last Dot Address,4000,
Sampling Period,4.00000e-04,
Firmware,V1.14,
Time, ,
Mode,Fast,
Waveform Data,
21,
21,
18,
2,
2,
2,
5,
5,
9,
9,
6,
6,
3,
3,
0,
0,
6,
6,
5,
5,
-1,
-1,
1,
1,
9,
9,
18,
18,
15,
1,
3,
20,
19,
32,
32,
32,
34,
34,
31,
31,
29,
14,
14,
0,
4,
16,
16,
16,
19,
19,
23,
23,
22,
22,
14,
14,
6,
6,
6,
6,
6,
6,
3,
3,
3,
3,
2,
2,
2,
2,
0,
0,
4,
24,
23,
37,
36,
36,
31,
14,
14,
0,
3,
3,
10,
10,
9,
9,
10,
10,
5,
5,
7,
7,
10,
10,
4,
4,
1,
1,
8,
8,
18,
18,
12,
0,
2,
2,
2,
2,
4,
4,
3,
3,
0,
0,
0,
0,
2,
2,
0,
0,
0,
0,
8,
26,
24,
24,
14,
2,
7,
7,
10,
10,
9,
9,
10,
10,
17,
0,
2,
2,
8,
8,
16,
16,
19,
19,
16,
5,
6,
6,
2,
2,
8,
8,
3,
3,
2,
2,
0,
0,
1,
1,
2,
2,
7,
7,
10,
10,
7,
7,
1,
1,
9,
9,
15,
15,
12,
12,
8,
8,
5,
5,
4,
4,
2,
2,
6,
6,
1,
1,
5,
5,
6,
6,
2,
2,
7,
7,
9,
9,
1,
12,
11,
11,
11,
11,
12,
12,
7,
7,
4,
4,
10,
10,
7,
7,
0,
0,
0,
0,
0,
0,
2,
2,
9,
9,
8,
8,
2,
2,
-1,
-1,
1,
1,
7,
7,
10,
10,
18,
18,
26,
26,
18,
5,
6,
6,
3,
3,
7,
7,
9,
9,
7,
7,
11,
11,
5,
5,
0,
0,
4,
4,
3,
3,
8,
8,
7,
7,
8,
8,
9,
9,
5,
5,
4,
4,
3,
3,
0,
0,
3,
3,
6,
6,
8,
8,
4,
4,
3,
3,
6,
17,
16,
3,
4,
24,
24,
38,
37,
24,
24,
24,
15,
15,
14,
14,
5,
5,
9,
20,
19,
19,
25,
25,
20,
8,
8,
8,
0,
0,
8,
8,
6,
6,
4,
4,
4,
4,
0,
0,
1,
1,
4,
4,
4,
4,
3,
3,
2,
2,
3,
3,
6,
6,
7,
7,
5,
5,
0,
0,
1,
1,
2,
2,
10,
10,
18,
18,
8,
8,
3,
3,
4,
4,
6,
6,
5,
5,
9,
9,
6,
6,
3,
3,
4,
4,
7,
19,
18,
18,
14,
-1,
0,
0,
8,
8,
14,
14,
7,
7,
0,
0,
0,
0,
4,
15,
14,
14,
4,
4,
5,
5,
7,
7,
2,
2,
5,
5,
3,
3,
3,
3,
2,
2,
2,
2,
0,
0,
0,
0,
6,
6,
15,
15,
14,
0,
2,
2,
5,
5,
5,
5,
8,
8,
4,
4,
6,
6,
15,
4,
4,
4,
1,
1,
-1,
-1,
-1,
-1,
0,
0,
6,
6,
4,
4,
-1,
-1,
2,
2,
5,
5,
7,
7,
5,
5,
8,
8,
4,
4,
1,
1,
9,
9,
13,
13,
9,
9,
8,
8,
3,
3,
0,
0,
0,
0,
4,
4,
-1,
-1,
6,
6,
10,
10,
13,
0,
1,
1,
3,
3,
3,
3,
11,
11,
11,
11,
6,
6,
0,
0,
3,
3,
0,
0,
5,
5,
6,
6,
16,
31,
30,
30,
28,
6,
6,
6,
6,
6,
6,
6,
11,
11,
14,
14,
13,
13,
10,
10,
1,
1,
6,
6,
1,
1,
3,
3,
6,
6,
4,
4,
-1,
-1,
2,
2,
2,
2,
6,
6,
15,
15,
17,
17,
11,
11,
3,
3,
-1,
-1,
0,
0,
5,
5,
7,
7,
3,
3,
2,
2,
-1,
-1,
7,
7,
7,
7,
4,
4,
3,
3,
1,
1,
2,
2,
3,
3,
3,
3,
8,
8,
4,
4,
0,
0,
7,
7,
7,
7,
6,
6,
2,
2,
-1,
-1,
6,
6,
14,
14,
46,
61,
59,
30,
30,
4,
8,
26,
26,
26,
21,
8,
8,
8,
5,
5,
10,
10,
6,
6,
7,
7,
12,
12,
13,
13,
5,
5,
2,
2,
0,
0,
7,
7,
6,
6,
11,
11,
6,
6,
6,
6,
14,
14,
14,
14,
6,
6,
-1,
-1,
-1,
-1,
4,
4,
1,
1,
2,
2,
3,
3,
1,
1,
2,
2,
2,
2,
4,
4,
1,
1,
3,
3,
2,
18,
18,
2,
2,
2,
7,
7,
7,
7,
6,
6,
9,
9,
13,
13,
4,
4,
2,
2,
3,
3,
9,
9,
14,
3,
4,
4,
0,
0,
8,
8,
11,
0,
1,
14,
13,
13,
22,
38,
38,
38,
45,
19,
19,
3,
11,
22,
21,
21,
25,
25,
26,
26,
25,
9,
10,
10,
7,
7,
4,
4,
3,
3,
-1,
-1,
4,
4,
0,
11,
11,
29,
28,
28,
28,
15,
16,
2,
10,
10,
16,
4,
5,
5,
5,
5,
10,
10,
6,
6,
-1,
-1,
1,
1,
0,
0,
-1,
-1,
5,
5,
3,
3,
2,
19,
18,
18,
28,
28,
26,
14,
14,
14,
12,
12,
10,
10,
6,
6,
4,
19,
19,
19,
26,
26,
28,
28,
23,
23,
16,
16,
6,
6,
7,
7,
11,
11,
3,
3,
0,
0,
1,
14,
14,
25,
23,
23,
16,
16,
10,
10,
3,
3,
4,
4,
14,
14,
15,
3,
4,
4,
12,
12,
15,
15,
19,
19,
15,
1,
2,
2,
7,
7,
6,
18,
18,
18,
19,
19,
13,
2,
10,
30,
29,
18,
18,
-1,
0,
0,
8,
24,
24,
24,
19,
2,
4,
18,
18,
18,
24,
24,
26,
26,
16,
16,
11,
11,
6,
6,
0,
0,
2,
2,
1,
1,
9,
9,
15,
15,
18,
18,
11,
11,
5,
5,
-1,
-1,
5,
5,
12,
12,
2,
2,
3,
3,
4,
17,
16,
16,
13,
0,
2,
2,
6,
6,
11,
22,
22,
22,
19,
1,
2,
2,
-1,
-1,
2,
21,
20,
20,
16,
0,
1,
1,
1,
1,
4,
4,
5,
5,
-1,
-1,
-1,
-1,
0,
0,
-1,
-1,
2,
2,
5,
5,
3,
14,
13,
13,
14,
14,
10,
10,
5,
5,
4,
4,
1,
15,
15,
15,
23,
23,
20,
8,
8,
40,
39,
57,
56,
44,
44,
19,
19,
5,
22,
43,
43,
43,
46,
34,
35,
11,
11,
11,
11,
11,
17,
17,
25,
25,
28,
16,
16,
0,
2,
2,
7,
7,
14,
14,
12,
12,
9,
9,
3,
3,
4,
4,
7,
7,
2,
2,
6,
27,
27,
27,
20,
0,
2,
2,
5,
5,
9,
9,
1,
15,
14,
14,
17,
1,
1,
1,
2,
2,
1,
1,
7,
7,
8,
8,
6,
20,
20,
8,
10,
10,
13,
13,
22,
22,
20,
20,
15,
15,
7,
7,
-1,
-1,
4,
15,
15,
15,
8,
8,
7,
7,
11,
11,
13,
28,
27,
27,
26,
2,
4,
4,
8,
8,
2,
14,
13,
13,
16,
2,
2,
14,
14,
14,
22,
22,
24,
11,
12,
12,
11,
33,
32,
32,
28,
15,
16,
0,
1,
1,
7,
7,
8,
8,
12,
12,
12,
12,
14,
14,
12,
12,
4,
4,
-1,
-1,
2,
2,
5,
5,
0,
0,
3,
21,
20,
43,
42,
42,
39,
9,
10,
10,
8,
8,
8,
8,
7,
7,
5,
5,
7,
7,
8,
8,
7,
7,
4,
4,
10,
10,
7,
7,
6,
6,
14,
14,
14,
0,
1,
1,
8,
8,
0,
15,
14,
14,
13,
0,
3,
3,
4,
4,
6,
6,
16,
16,
11,
0,
7,
20,
19,
19,
29,
16,
17,
-1,
0,
0,
9,
9,
7,
7,
4,
4,
7,
7,
15,
15,
10,
10,
3,
15,
14,
29,
28,
13,
14,
2,
3,
3,
1,
1,
3,
3,
10,
10,
10,
10,
7,
7,
5,
5,
3,
3,
6,
6,
0,
0,
5,
5,
11,
11,
13,
13,
8,
8,
4,
4,
-1,
-1,
2,
2,
6,
6,
8,
8,
2,
2,
6,
6,
8,
22,
21,
4,
5,
25,
23,
8,
8,
8,
10,
10,
11,
11,
16,
27,
26,
26,
18,
5,
5,
5,
0,
0,
7,
7,
16,
29,
29,
29,
30,
30,
34,
14,
14,
44,
44,
66,
64,
36,
37,
6,
7,
7,
1,
1,
3,
3,
8,
8,
16,
16,
17,
17,
14,
14,
16,
16,
11,
11,
7,
7,
0,
0,
7,
7,
16,
16,
24,
24,
16,
16,
8,
8,
9,
9,
13,
-1,
0,
0,
5,
5,
0,
0,
7,
7,
2,
2,
0,
0,
2,
2,
0,
0,
0,
0,
6,
6,
4,
4,
1,
1,
0,
0,
0,
0,
5,
5,
8,
8,
7,
7,
5,
5,
8,
22,
21,
21,
16,
16,
14,
14,
11,
11,
6,
6,
2,
2,
6,
6,
11,
11,
14,
14,
12,
12,
6,
6,
8,
23,
23,
23,
15,
0,
2,
2,
6,
6,
1,
1,
-1,
-1,
0,
0,
-1,
-1,
1,
1,
-1,
-1,
0,
0,
2,
2,
1,
1,
-1,
-1,
3,
3,
10,
10,
6,
6,
6,
6,
2,
2,
0,
0,
0,
0,
8,
8,
10,
10,
2,
2,
9,
9,
6,
6,
9,
9,
2,
26,
26,
26,
27,
3,
4,
20,
20,
20,
27,
16,
18,
1,
3,
3,
5,
5,
0,
17,
16,
16,
23,
11,
11,
11,
3,
3,
1,
1,
2,
2,
6,
6,
9,
9,
8,
8,
5,
5,
6,
6,
3,
3,
6,
6,
10,
10,
1,
1,
10,
10,
17,
17,
15,
15,
16,
16,
16,
16,
10,
10,
2,
2,
0,
0,
4,
4,
1,
1,
-1,
-1,
1,
1,
2,
2,
8,
8,
6,
6,
5,
5,
6,
6,
6,
6,
6,
6,
4,
19,
19,
19,
13,
13,
19,
19,
17,
1,
2,
13,
12,
12,
13,
2,
2,
2,
5,
5,
7,
7,
3,
3,
2,
2,
8,
8,
3,
3,
12,
12,
10,
10,
11,
11,
5,
5,
0,
0,
1,
1,
7,
7,
8,
8,
4,
4,
-1,
-1,
-1,
-1,
3,
3,
10,
25,
24,
24,
20,
8,
9,
9,
-1,
-1,
3,
3,
9,
9,
13,
13,
8,
8,
4,
4,
1,
1,
0,
0,
0,
0,
-1,
-1,
4,
4,
6,
6,
2,
2,
-1,
-1,
1,
1,
4,
4,
12,
12,
4,
4,
1,
12,
12,
12,
6,
22,
21,
21,
15,
15,
6,
6,
8,
8,
7,
7,
5,
5,
13,
13,
17,
17,
7,
7,
0,
0,
0,
0,
0,
0,
1,
1,
1,
1,
1,
12,
10,
10,
8,
8,
4,
19,
18,
42,
42,
55,
54,
35,
36,
3,
3,
21,
21,
33,
32,
32,
31,
31,
26,
14,
15,
0,
3,
3,
6,
6,
6,
6,
0,
0,
0,
0,
5,
5,
13,
13,
17,
17,
8,
8,
2,
2,
7,
7,
2,
2,
3,
3,
10,
23,
23,
5,
6,
49,
48,
48,
45,
6,
7,
7,
0,
0,
7,
7,
8,
8,
13,
13,
10,
10,
7,
7,
3,
3,
1,
1,
8,
8,
10,
10,
3,
3,
7,
7,
14,
14,
13,
13,
4,
4,
-1,
-1,
7,
7,
7,
7,
0,
0,
1,
1,
3,
3,
0,
0,
0,
0,
0,
0,
-1,
-1,
1,
1,
3,
3,
2,
2,
4,
4,
9,
9,
2,
2,
7,
7,
0,
0,
0,
20,
20,
20,
27,
6,
6,
6,
3,
3,
1,
1,
-1,
-1,
5,
5,
11,
11,
11,
11,
8,
8,
6,
6,
7,
7,
3,
16,
16,
16,
8,
8,
1,
1,
2,
2,
1,
1,
2,
2,
-1,
-1,
5,
5,
4,
4,
10,
10,
13,
25,
22,
5,
6,
6,
3,
3,
6,
6,
6,
6,
0,
0,
1,
13,
12,
12,
20,
20,
19,
19,
10,
10,
2,
14,
14,
14,
15,
15,
6,
6,
-1,
-1,
2,
2,
11,
11,
12,
12,
4,
4,
-1,
-1,
0,
0,
2,
2,
7,
7,
4,
4,
0,
0,
4,
4,
-1,
-1,
-1,
-1,
2,
2,
8,
8,
4,
4,
6,
6,
3,
3,
-1,
-1,
6,
6,
1,
1,
2,
2,
-1,
-1,
5,
5,
5,
5,
3,
3,
1,
1,
0,
0,
1,
1,
-1,
-1,
6,
6,
7,
7,
7,
7,
6,
6,
5,
5,
5,
5,
6,
6,
8,
8,
2,
24,
23,
23,
27,
5,
6,
18,
17,
17,
18,
18,
11,
-1,
0,
0,
3,
3,
12,
35,
34,
17,
17,
3,
13,
27,
26,
26,
21,
21,
18,
4,
5,
18,
18,
31,
30,
19,
19,
1,
1,
1,
10,
10,
9,
9,
3,
3,
3,
3,
2,
2,
1,
1,
3,
3,
10,
21,
20,
8,
8,
8,
0,
0,
-1,
-1,
0,
0,
7,
7,
9,
9,
11,
11,
11,
11,
6,
6,
2,
2,
11,
11,
15,
15,
16,
16,
18,
18,
8,
8,
1,
1,
5,
20,
19,
19,
20,
20,
13,
13,
7,
7,
5,
5,
11,
0,
0,
0,
1,
1,
5,
5,
14,
14,
12,
12,
3,
3,
5,
5,
2,
2,
0,
0,
5,
5,
4,
4,
7,
45,
45,
66,
66,
66,
67,
32,
32,
4,
8,
26,
26,
38,
37,
37,
42,
30,
31,
31,
30,
30,
32,
32,
27,
8,
9,
9,
-1,
-1,
8,
19,
18,
18,
20,
20,
18,
18,
17,
17,
16,
16,
13,
13,
8,
8,
6,
6,
7,
7,
7,
7,
6,
6,
4,
4,
5,
5,
3,
3,
9,
9,
7,
7,
5,
5,
13,
13,
17,
17,
11,
0,
5,
5,
5,
5,
0,
0,
-1,
-1,
0,
0,
2,
2,
5,
5,
1,
1,
6,
6,
12,
12,
6,
6,
0,
0,
3,
3,
8,
8,
2,
14,
12,
12,
17,
17,
22,
22,
17,
4,
6,
6,
9,
9,
12,
12,
10,
10,
14,
14,
16,
16,
7,
7,
9,
9,
7,
7,
3,
3,
2,
2,
3,
3,
5,
5,
6,
6,
5,
5,
1,
1,
0,
0,
0,
0,
-1,
-1,
6,
6,
2,
2,
1,
1,
1,
1,
10,
10,
13,
24,
24,
9,
10,
-1,
0,
0,
1,
37,
36,
65,
64,
64,
55,
22,
22,
4,
12,
12,
19,
19,
14,
14,
15,
28,
27,
27,
32,
21,
22,
22,
16,
16,
12,
12,
2,
2,
8,
8,
16,
16,
9,
9,
0,
0,
2,
2,
0,
15,
14,
14,
6,
6,
7,
7,
7,
7,
14,
27,
26,
26,
29,
14,
14,
0,
4,
18,
18,
18,
17,
17,
11,
11,
9,
9,
1,
1,
0,
0,
5,
5,
4,
4,
1,
1,
3,
3,
0,
0,
1,
1,
1,
1,
2,
2,
2,
2,
3,
3,
4,
4,
8,
8,
1,
19,
18,
18,
22,
22,
15,
15,
6,
6,
7,
7,
12,
12,
8,
8,
4,
4,
3,
3,
-1,
-1,
3,
17,
17,
28,
27,
27,
21,
21,
15,
1,
2,
18,
17,
17,
22,
22,
21,
21,
14,
14,
5,
5,
5,
5,
8,
8,
5,
5,
12,
12,
18,
18,
16,
16,
15,
0,
2,
2,
7,
7,
8,
8,
5,
21,
20,
20,
11,
0,
5,
5,
8,
8,
3,
3,
7,
7,
4,
4,
7,
7,
6,
6,
2,
2,
1,
1,
-1,
-1,
0,
0,
1,
14,
13,
13,
10,
-1,
0,
0,
4,
4,
2,
2,
2,
2,
3,
3,
1,
1,
4,
4,
1,
1,
1,
1,
0,
0,
3,
3,
12,
12,
20,
20,
14,
3,
15,
37,
35,
35,
31,
5,
6,
6,
3,
3,
6,
6,
7,
7,
4,
4,
5,
5,
13,
13,
14,
14,
7,
7,
5,
5,
0,
0,
6,
6,
13,
13,
16,
16,
17,
17,
14,
14,
8,
8,
6,
6,
0,
0,
3,
3,
0,
0,
-1,
-1,
2,
2,
7,
7,
4,
4,
4,
4,
11,
11,
14,
14,
13,
13,
4,
4,
2,
2,
5,
5,
1,
1,
8,
8,
2,
2,
-1,
-1,
3,
16,
15,
38,
37,
24,
24,
7,
8,
8,
2,
13,
12,
12,
14,
14,
6,
6,
5,
19,
19,
19,
16,
1,
4,
4,
6,
6,
8,
8,
12,
12,
3,
3,
1,
1,
9,
9,
7,
7,
4,
4,
1,
16,
16,
16,
14,
0,
1,
13,
11,
37,
36,
36,
44,
26,
26,
2,
3,
3,
5,
5,
4,
4,
11,
11,
19,
19,
15,
15,
11,
11,
4,
4,
6,
6,
6,
6,
0,
0,
0,
0,
1,
1,
5,
5,
9,
9,
2,
2,
1,
1,
1,
1,
5,
5,
0,
0,
5,
5,
7,
20,
18,
18,
8,
8,
0,
0,
-1,
-1,
0,
0,
5,
5,
6,
6,
0,
0,
2,
2,
3,
3,
12,
12,
5,
5,
0,
0,
3,
3,
6,
6,
5,
5,
0,
0,
0,
0,
0,
0,
0,
0,
-1,
-1,
0,
0,
4,
4,
13,
13,
9,
9,
1,
1,
3,
3,
-1,
-1,
2,
2,
7,
7,
1,
13,
12,
12,
3,
3,
10,
10,
7,
7,
6,
6,
5,
5,
0,
0,
2,
2,
6,
6,
10,
10,
16,
16,
20,
20,
10,
-1,
0,
0,
-1,
-1,
2,
15,
14,
14,
20,
20,
20,
20,
18,
18,
9,
9,
2,
2,
7,
7,
12,
0,
0,
11,
10,
10,
13,
0,
0,
14,
12,
12,
11,
11,
5,
5,
2,
2,
1,
1,
2,
2,
2,
2,
-1,
-1,
6,
6,
1,
1,
6,
6,
0,
0,
0,
22,
22,
38,
36,
19,
19,
4,
14,
3,
5,
19,
19,
19,
13,
0,
1,
1,
4,
4,
13,
13,
14,
14,
15,
15,
21,
21,
15,
0,
1,
1,
3,
3,
6,
6,
4,
4,
0,
0,
1,
1,
4,
16,
15,
15,
23,
23,
16,
16,
14,
14,
8,
8,
1,
1,
5,
5,
4,
4,
1,
1,
2,
2,
4,
4,
4,
4,
1,
1,
3,
3,
5,
5,
6,
6,
6,
6,
0,
0,
7,
7,
6,
6,
6,
6,
5,
5,
3,
3,
3,
3,
1,
1,
3,
3,
5,
18,
18,
18,
13,
13,
3,
3,
3,
3,
0,
0,
4,
4,
1,
15,
14,
14,
22,
11,
12,
1,
7,
7,
13,
13,
6,
6,
3,
3,
8,
8,
9,
9,
2,
2,
3,
3,
3,
3,
5,
5,
1,
1,
4,
4,
4,
4,
2,
2,
7,
7,
8,
8,
4,
4,
4,
4,
9,
9,
5,
5,
2,
2,
11,
11,
10,
10,
5,
5,
3,
3,
2,
2,
6,
6,
4,
4,
2,
2,
2,
2,
3,
3,
7,
7,
0,
0,
5,
5,
2,
2,
7,
24,
23,
23,
22,
2,
4,
4,
7,
7,
13,
26,
25,
11,
11,
11,
9,
27,
27,
27,
23,
2,
4,
4,
4,
4,
7,
7,
7,
7,
13,
13,
5,
5,
1,
1,
10,
10,
6,
6,
6,
21,
21,
21,
22,
22,
16,
4,
4,
4,
3,
3,
8,
8,
9,
9,
0,
0,
9,
9,
7,
7,
5,
5,
4,
4,
4,
4,
-1,
-1,
7,
22,
21,
21,
22,
22,
15,
3,
18,
55,
55,
55,
51,
18,
18,
2,
4,
4,
7,
7,
8,
8,
10,
10,
12,
12,
16,
16,
14,
3,
4,
4,
3,
3,
4,
4,
0,
0,
3,
3,
0,
0,
2,
2,
4,
4,
11,
25,
25,
25,
29,
12,
13,
1,
2,
2,
0,
0,
5,
5,
7,
7,
9,
9,
6,
6,
7,
7,
6,
6,
1,
1,
2,
2,
5,
5,
-1,
-1,
0,
0,
3,
18,
16,
16,
18,
6,
6,
6,
0,
0,
5,
5,
8,
8,
0,
14,
14,
14,
14,
14,
4,
4,
2,
2,
11,
11,
11,
0,
0,
0,
7,
7,
15,
15,
11,
0,
6,
6,
12,
12,
11,
11,
8,
8,
6,
6,
6,
6,
1,
1,
2,
2,
3,
14,
13,
26,
26,
26,
27,
27,
21,
7,
8,
8,
6,
6,
11,
11,
15,
15,
11,
11,
4,
4,
7,
7,
10,
10,
11,
11,
3,
3,
1,
1,
8,
8,
10,
10,
14,
14,
11,
11,
6,
6,
1,
1,
1,
1,
10,
10,
13,
13,
6,
6,
5,
5,
5,
5,
3,
3,
8,
8,
9,
9,
5,
5,
8,
8,
13,
13,
4,
4,
6,
18,
17,
5,
5,
5,
4,
4,
3,
3,
4,
4,
10,
10,
10,
10,
9,
9,
6,
6,
3,
3,
0,
0,
1,
1,
3,
3,
7,
7,
11,
11,
11,
11,
4,
4,
0,
0,
9,
9,
14,
14,
10,
-1,
0,
0,
4,
4,
-1,
-1,
0,
0,
-1,
-1,
7,
7,
13,
13,
16,
16,
13,
2,
3,
3,
10,
10,
15,
15,
15,
15,
11,
-1,
1,
1,
6,
6,
8,
8,
1,
1,
3,
3,
9,
9,
3,
3,
2,
2,
1,
1,
-1,
-1,
-1,
-1,
-1,
-1,
0,
0,
3,
3,
0,
0,
1,
1,
0,
0,
5,
5,
2,
2,
2,
2,
1,
25,
24,
35,
33,
22,
22,
6,
6,
6,
6,
18,
18,
18,
23,
23,
30,
19,
19,
2,
7,
7,
16,
16,
26,
26,
31,
18,
18,
2,
6,
6,
7,
7,
0,
0,
3,
3,
5,
5,
11,
11,
11,
11,
10,
10,
7,
7,
5,
5,
0,
0,
5,
5,
3,
3,
0,
0,
4,
4,
5,
5,
10,
10,
10,
10,
7,
7,
0,
0,
1,
1,
-1,
-1,
5,
5,
2,
14,
14,
25,
24,
24,
17,
4,
5,
5,
3,
3,
11,
11,
17,
17,
15,
15,
9,
9,
7,
7,
8,
8,
2,
13,
12,
12,
7,
7,
1,
1,
10,
10,
14,
14,
9,
21,
20,
20,
23,
8,
8,
8,
7,
7,
17,
17,
20,
20,
20,
20,
18,
18,
10,
10,
5,
5,
2,
20,
19,
19,
24,
24,
18,
18,
9,
9,
6,
6,
5,
5,
3,
3,
2,
2,
8,
8,
8,
8,
11,
11,
10,
10,
5,
5,
8,
8,
3,
16,
15,
26,
26,
15,
16,
16,
13,
13,
15,
3,
4,
4,
5,
5,
2,
2,
5,
5,
9,
9,
10,
10,
10,
10,
13,
13,
5,
5,
10,
10,
10,
10,
11,
11,
12,
12,
6,
6,
14,
3,
4,
4,
6,
6,
10,
10,
18,
18,
16,
3,
3,
3,
7,
7,
3,
3,
3,
3,
1,
1,
4,
4,
11,
11,
9,
9,
2,
2,
-1,
-1,
0,
0,
3,
3,
0,
0,
-1,
-1,
2,
2,
3,
3,
2,
2,
4,
4,
6,
6,
8,
8,
6,
6,
3,
3,
-1,
-1,
4,
4,
3,
3,
3,
3,
3,
3,
-1,
-1,
2,
2,
0,
0,
-1,
-1,
-1,
-1,
1,
1,
6,
6,
15,
15,
11,
11,
5,
5,
2,
2,
4,
4,
8,
8,
8,
8,
3,
3,
2,
2,
7,
7,
4,
15,
15,
15,
12,
12,
11,
11,
7,
7,
3,
3,
1,
1,
6,
6,
5,
5,
5,
5,
4,
4,
3,
3,
0,
0,
6,
6,
6,
6,
3,
3,
4,
4,
8,
8,
3,
3,
3,
3,
10,
21,
20,
20,
14,
14,
7,
7,
1,
1,
5,
5,
8,
8,
2,
2,
2,
2,
-1,
-1,
0,
0,
7,
7,
11,
0,
1,
14,
14,
14,
17,
17,
19,
19,
10,
10,
2,
2,
4,
4,
7,
19,
19,
8,
9,
9,
10,
10,
18,
18,
13,
0,
4,
4,
13,
13,
10,
10,
3,
3,
2,
2,
4,
4,
5,
5,
1,
1,
0,
16,
15,
26,
25,
13,
14,
-1,
1,
1,
3,
14,
14,
14,
19,
19,
15,
15,
7,
7,
8,
8,
13,
13,
6,
6,
3,
3,
1,
1,
0,
0,
3,
3,
6,
6,
6,
6,
2,
2,
3,
3,
0,
0,
-1,
-1,
7,
7,
6,
6,
9,
9,
16,
16,
7,
7,
2,
2,
3,
3,
3,
3,
3,
3,
4,
4,
2,
2,
1,
1,
2,
2,
3,
3,
0,
0,
1,
1,
6,
6,
6,
6,
2,
2,
1,
1,
4,
4,
4,
4,
3,
3,
-1,
-1,
2,
2,
1,
1,
3,
3,
11,
11,
11,
11,
3,
3,
0,
0,
5,
5,
6,
6,
4,
4,
5,
5,
0,
0,
8,
8,
12,
12,
11,
11,
6,
6,
5,
5,
13,
13,
13,
13,
12,
12,
3,
3,
12,
26,
25,
14,
15,
0,
1,
15,
15,
15,
16,
2,
6,
6,
11,
11,
4,
4,
10,
10,
16,
16,
19,
5,
5,
5,
8,
8,
14,
14,
14,
14,
17,
17,
16,
0,
1,
1,
6,
6,
10,
10,
8,
8,
0,
0,
0,
0,
10,
10,
10,
10,
4,
4,
0,
0,
9,
9,
7,
21,
