EMG_S1/DS0143.CSV

Memory Length,4000,
Trigger Level,0.00000e+00,
Source,CH1,
Probe,1.0X,
Vertical Units,V,
Vertical Scale,1.00000e+00,
Vertical Position,4.00000e-02,
Horizontal Units,S,
Horizontal Scale,1.00000e-01,
Horizontal Position,0.0000000e+00,
Horizontal Mode,Roll Mode,
Waveform Last Dot Address,4000,
Sampling Period,4.00000e-04,
Firmware,V1.14,
Time, ,
Mode,Fast,
Waveform Data,
5,
5,
4,
4,
8,
8,
6,
6,
2,
2,
2,
2,
1,
1,
0,
0,
5,
5,
5,
5,
2,
15,
14,
14,
20,
20,
12,
12,
7,
7,
5,
5,
0,
0,
2,
2,
10,
10,
13,
0,
3,
3,
2,
2,
7,
7,
12,
0,
1,
1,
6,
6,
0,
0,
0,
0,
6,
6,
6,
6,
1,
1,
6,
6,
12,
12,
7,
7,
2,
2,
2,
2,
6,
6,
11,
11,
11,
0,
2,
2,
4,
4,
2,
2,
1,
1,
1,
1,
0,
0,
7,
7,
5,
5,
4,
4,
0,
16,
16,
16,
18,
18,
8,
8,
6,
19,
19,
19,
20,
8,
8,
8,
11,
11,
16,
16,
13,
13,
7,
7,
0,
0,
4,
4,
4,
4,
6,
6,
2,
2,
8,
20,
20,
20,
24,
3,
4,
4,
10,
10,
13,
13,
7,
7,
8,
8,
9,
9,
10,
10,
14,
3,
3,
3,
3,
19,
18,
31,
29,
11,
11,
-1,
0,
0,
3,
3,
-1,
-1,
0,
0,
-1,
-1,
2,
2,
5,
5,
2,
2,
6,
6,
2,
2,
4,
4,
6,
6,
7,
7,
10,
10,
3,
3,
1,
1,
2,
2,
3,
3,
6,
6,
12,
12,
15,
15,
13,
13,
13,
13,
17,
2,
2,
2,
9,
9,
15,
34,
34,
46,
44,
44,
35,
19,
20,
3,
3,
15,
14,
14,
21,
21,
25,
25,
20,
20,
14,
14,
14,
14,
5,
5,
2,
2,
6,
6,
8,
8,
2,
2,
5,
5,
0,
0,
0,
14,
13,
26,
25,
25,
22,
22,
17,
3,
3,
3,
4,
4,
12,
12,
12,
12,
11,
11,
14,
14,
14,
14,
9,
9,
0,
0,
2,
2,
-1,
-1,
1,
1,
7,
7,
6,
32,
31,
43,
42,
42,
32,
10,
10,
10,
6,
24,
23,
23,
22,
22,
14,
14,
13,
1,
4,
23,
23,
23,
19,
2,
4,
4,
7,
7,
3,
3,
1,
1,
-1,
-1,
2,
2,
6,
6,
1,
1,
-1,
-1,
-1,
-1,
-1,
-1,
6,
6,
9,
9,
11,
11,
10,
10,
7,
7,
4,
4,
3,
3,
3,
3,
5,
5,
3,
3,
0,
0,
3,
3,
4,
4,
7,
7,
3,
3,
0,
12,
11,
11,
18,
3,
4,
4,
6,
6,
9,
9,
13,
13,
7,
7,
8,
23,
22,
22,
31,
31,
27,
5,
5,
5,
6,
6,
4,
4,
8,
8,
9,
9,
8,
8,
6,
6,
10,
10,
10,
10,
11,
11,
14,
14,
13,
13,
4,
4,
6,
6,
15,
15,
23,
23,
19,
7,
7,
7,
3,
3,
6,
6,
6,
6,
0,
0,
2,
2,
3,
3,
6,
6,
2,
14,
13,
13,
16,
16,
7,
7,
7,
7,
10,
10,
11,
11,
15,
15,
15,
15,
8,
8,
3,
16,
15,
15,
18,
18,
10,
10,
9,
9,
14,
14,
13,
25,
24,
24,
14,
3,
16,
16,
24,
24,
17,
17,
26,
26,
23,
11,
12,
12,
12,
0,
1,
1,
8,
8,
7,
7,
10,
10,
18,
18,
23,
23,
19,
19,
14,
3,
5,
5,
1,
1,
2,
2,
3,
18,
17,
17,
17,
6,
6,
21,
21,
42,
40,
40,
34,
17,
17,
17,
12,
12,
6,
6,
13,
31,
31,
31,
34,
34,
28,
28,
23,
10,
11,
11,
4,
4,
2,
2,
0,
0,
1,
1,
4,
4,
12,
12,
17,
17,
20,
20,
21,
21,
13,
13,
10,
10,
7,
7,
6,
6,
0,
0,
8,
8,
2,
2,
9,
9,
6,
6,
-1,
-1,
0,
0,
6,
18,
16,
16,
16,
4,
5,
5,
-1,
-1,
-1,
-1,
1,
1,
5,
5,
0,
0,
8,
8,
4,
4,
2,
2,
0,
0,
5,
5,
7,
7,
7,
7,
2,
2,
4,
4,
3,
3,
3,
3,
7,
7,
11,
11,
9,
9,
8,
8,
7,
7,
6,
6,
2,
2,
1,
1,
4,
4,
7,
7,
11,
11,
9,
9,
5,
18,
18,
40,
40,
40,
46,
27,
27,
3,
4,
22,
21,
21,
26,
26,
22,
22,
23,
23,
21,
21,
14,
14,
6,
6,
2,
2,
2,
2,
0,
0,
2,
2,
6,
6,
2,
2,
8,
28,
27,
27,
34,
8,
8,
8,
-1,
-1,
2,
20,
19,
3,
5,
16,
14,
3,
5,
5,
10,
10,
20,
5,
6,
6,
14,
27,
27,
27,
25,
25,
17,
17,
8,
8,
2,
2,
1,
1,
5,
5,
9,
9,
9,
9,
17,
17,
19,
19,
17,
17,
26,
26,
22,
3,
6,
21,
20,
20,
18,
18,
9,
9,
16,
16,
22,
22,
16,
0,
1,
1,
6,
6,
6,
6,
13,
13,
19,
19,
17,
17,
15,
15,
17,
17,
9,
9,
2,
2,
8,
8,
10,
10,
13,
13,
11,
11,
3,
3,
1,
1,
0,
0,
0,
0,
6,
6,
2,
2,
4,
4,
0,
0,
6,
6,
6,
6,
2,
2,
8,
21,
20,
20,
23,
12,
13,
1,
2,
2,
-1,
-1,
7,
7,
15,
15,
7,
7,
11,
22,
22,
22,
13,
13,
7,
7,
1,
1,
7,
7,
8,
8,
3,
3,
10,
10,
10,
10,
8,
8,
0,
0,
8,
8,
8,
8,
12,
12,
16,
16,
12,
12,
3,
3,
2,
2,
6,
6,
3,
3,
2,
2,
6,
6,
2,
2,
4,
4,
7,
7,
2,
2,
1,
1,
3,
3,
3,
14,
12,
12,
20,
34,
33,
14,
14,
3,
9,
9,
17,
17,
20,
20,
22,
22,
21,
7,
8,
21,
21,
21,
23,
11,
11,
11,
16,
48,
48,
61,
59,
34,
35,
3,
4,
4,
8,
8,
4,
4,
9,
9,
8,
8,
0,
0,
2,
2,
3,
3,
8,
8,
13,
13,
9,
9,
2,
2,
6,
6,
5,
5,
4,
4,
3,
3,
1,
15,
14,
14,
18,
18,
19,
19,
13,
13,
7,
18,
18,
7,
7,
7,
14,
14,
22,
22,
14,
2,
16,
30,
29,
15,
16,
2,
8,
8,
14,
14,
9,
9,
12,
12,
12,
12,
7,
7,
4,
4,
3,
3,
11,
11,
9,
9,
2,
2,
7,
7,
3,
3,
-1,
-1,
6,
6,
8,
8,
2,
2,
5,
5,
9,
9,
11,
11,
7,
7,
12,
12,
7,
7,
-1,
-1,
-1,
-1,
3,
3,
3,
3,
11,
11,
10,
10,
6,
6,
2,
2,
1,
1,
0,
0,
2,
2,
9,
9,
0,
0,
1,
1,
0,
0,
8,
8,
7,
33,
33,
33,
25,
2,
5,
5,
14,
14,
15,
1,
5,
5,
11,
11,
6,
6,
6,
6,
9,
9,
7,
7,
7,
7,
6,
6,
0,
0,
5,
5,
2,
2,
2,
2,
2,
2,
0,
0,
-1,
-1,
7,
7,
13,
13,
8,
8,
3,
3,
5,
5,
5,
5,
11,
11,
18,
2,
3,
18,
18,
39,
39,
39,
42,
23,
25,
10,
10,
10,
0,
11,
10,
10,
17,
17,
26,
26,
29,
29,
25,
14,
15,
3,
3,
3,
0,
0,
7,
7,
4,
4,
8,
8,
12,
12,
16,
16,
20,
20,
27,
27,
31,
31,
27,
6,
7,
7,
13,
13,
14,
14,
12,
12,
18,
18,
19,
19,
17,
17,
8,
8,
18,
18,
24,
11,
11,
0,
1,
1,
2,
2,
5,
5,
2,
2,
0,
0,
3,
3,
0,
0,
3,
3,
0,
0,
-1,
-1,
8,
8,
10,
10,
14,
14,
18,
6,
6,
6,
15,
15,
24,
10,
11,
11,
9,
21,
21,
21,
15,
15,
9,
9,
1,
16,
15,
15,
22,
10,
11,
-1,
1,
1,
0,
0,
8,
25,
23,
23,
22,
10,
10,
10,
7,
7,
12,
12,
14,
14,
9,
9,
2,
2,
0,
0,
6,
6,
1,
1,
6,
6,
8,
8,
2,
2,
5,
5,
9,
9,
3,
3,
0,
0,
1,
1,
5,
5,
9,
9,
6,
6,
12,
12,
14,
14,
16,
16,
22,
22,
20,
20,
10,
-1,
3,
3,
11,
11,
16,
16,
20,
20,
17,
17,
22,
8,
9,
9,
3,
3,
8,
8,
12,
12,
7,
7,
0,
0,
2,
2,
6,
6,
5,
5,
4,
4,
7,
7,
2,
2,
-1,
-1,
6,
6,
11,
11,
16,
16,
13,
13,
12,
0,
4,
18,
18,
18,
19,
19,
16,
16,
13,
13,
3,
3,
5,
5,
1,
1,
3,
3,
4,
4,
6,
6,
2,
18,
17,
17,
10,
10,
10,
29,
28,
28,
34,
17,
17,
3,
11,
11,
15,
15,
8,
8,
8,
25,
24,
37,
37,
37,
29,
6,
18,
48,
47,
33,
34,
6,
6,
6,
11,
11,
5,
5,
3,
3,
2,
2,
8,
8,
6,
6,
1,
1,
0,
0,
0,
14,
12,
12,
6,
6,
10,
10,
8,
8,
0,
0,
9,
9,
15,
15,
8,
8,
8,
8,
7,
7,
7,
7,
6,
6,
7,
7,
7,
7,
2,
2,
2,
2,
5,
5,
6,
6,
4,
4,
1,
1,
0,
14,
12,
39,
38,
38,
35,
24,
25,
25,
16,
1,
3,
16,
15,
15,
17,
17,
16,
16,
18,
18,
18,
18,
15,
15,
9,
9,
8,
8,
3,
3,
10,
10,
16,
27,
26,
40,
39,
26,
27,
2,
3,
3,
5,
5,
6,
17,
17,
17,
14,
14,
10,
10,
18,
18,
12,
0,
3,
3,
11,
11,
9,
9,
0,
0,
2,
2,
3,
17,
17,
17,
19,
6,
6,
6,
2,
14,
14,
14,
11,
0,
2,
2,
12,
12,
19,
19,
27,
27,
24,
3,
3,
15,
14,
14,
21,
21,
24,
24,
16,
16,
12,
12,
14,
14,
16,
2,
23,
23,
23,
23,
31,
31,
25,
10,
10,
10,
6,
6,
2,
15,
14,
14,
21,
21,
16,
2,
2,
2,
10,
10,
15,
15,
22,
22,
25,
11,
12,
0,
2,
2,
0,
0,
4,
4,
13,
13,
18,
7,
8,
8,
0,
0,
5,
5,
8,
8,
3,
3,
3,
14,
13,
13,
15,
0,
3,
22,
21,
21,
16,
0,
2,
2,
8,
8,
3,
3,
1,
1,
-1,
-1,
9,
9,
1,
1,
10,
10,
17,
17,
16,
3,
11,
11,
16,
1,
2,
2,
8,
21,
19,
19,
19,
3,
4,
4,
9,
9,
10,
10,
2,
2,
4,
4,
9,
9,
7,
7,
2,
2,
8,
8,
6,
6,
6,
6,
0,
0,
7,
7,
15,
1,
3,
19,
19,
19,
28,
28,
22,
3,
10,
29,
29,
29,
23,
23,
15,
15,
7,
7,
5,
5,
2,
15,
15,
15,
17,
0,
1,
1,
8,
8,
15,
15,
10,
10,
2,
2,
2,
2,
3,
3,
2,
14,
13,
13,
7,
7,
4,
4,
9,
9,
1,
1,
6,
6,
4,
4,
9,
9,
18,
18,
10,
10,
3,
3,
11,
11,
8,
8,
9,
9,
5,
5,
2,
2,
0,
18,
18,
18,
23,
23,
23,
11,
11,
11,
8,
8,
7,
7,
2,
2,
8,
8,
6,
6,
6,
6,
15,
15,
23,
23,
16,
0,
1,
1,
3,
3,
5,
5,
14,
14,
8,
8,
2,
2,
3,
3,
3,
3,
6,
6,
2,
2,
2,
2,
4,
4,
3,
3,
3,
3,
0,
0,
2,
2,
-1,
-1,
4,
4,
0,
0,
10,
10,
1,
1,
3,
15,
14,
14,
6,
17,
16,
16,
24,
7,
7,
7,
10,
10,
11,
11,
7,
7,
6,
6,
4,
4,
10,
26,
25,
25,
25,
9,
9,
9,
7,
7,
10,
10,
11,
11,
11,
11,
15,
4,
5,
5,
3,
3,
5,
5,
4,
4,
4,
4,
2,
2,
1,
1,
0,
0,
1,
1,
-1,
-1,
1,
14,
14,
14,
20,
20,
19,
6,
6,
6,
7,
7,
11,
11,
5,
5,
2,
2,
5,
5,
0,
0,
7,
7,
3,
3,
5,
5,
0,
0,
0,
0,
1,
1,
9,
9,
15,
15,
13,
13,
12,
12,
3,
18,
18,
18,
24,
24,
19,
19,
11,
11,
3,
3,
7,
32,
31,
44,
43,
21,
22,
2,
7,
23,
23,
23,
30,
16,
16,
2,
3,
3,
10,
24,
23,
23,
23,
10,
11,
11,
8,
8,
11,
-1,
-1,
-1,
2,
2,
6,
6,
12,
12,
7,
7,
12,
12,
17,
17,
16,
16,
9,
9,
6,
6,
11,
11,
11,
11,
11,
0,
6,
6,
8,
8,
2,
2,
10,
10,
3,
14,
14,
26,
24,
24,
19,
3,
3,
3,
-1,
-1,
4,
4,
2,
2,
5,
5,
6,
6,
0,
0,
2,
2,
-1,
-1,
-1,
13,
13,
13,
22,
22,
22,
22,
12,
12,
2,
2,
10,
26,
25,
25,
30,
18,
18,
2,
2,
14,
14,
14,
14,
14,
6,
6,
4,
4,
6,
6,
-1,
-1,
3,
3,
6,
6,
10,
10,
4,
15,
15,
28,
28,
28,
27,
8,
10,
-1,
1,
1,
1,
1,
0,
0,
4,
4,
13,
13,
17,
17,
17,
2,
3,
3,
6,
6,
9,
20,
18,
6,
7,
7,
6,
6,
12,
12,
4,
4,
3,
3,
9,
9,
10,
10,
7,
7,
0,
16,
15,
26,
24,
9,
9,
9,
2,
2,
7,
7,
15,
15,
19,
2,
3,
17,
16,
16,
9,
9,
4,
4,
10,
10,
2,
2,
2,
2,
2,
2,
0,
0,
1,
1,
0,
14,
13,
24,
23,
23,
16,
3,
4,
4,
4,
4,
3,
3,
2,
2,
4,
4,
0,
0,
0,
0,
2,
2,
6,
6,
1,
1,
2,
2,
-1,
-1,
2,
2,
0,
0,
-1,
-1,
2,
2,
-1,
-1,
-1,
-1,
2,
2,
7,
7,
6,
6,
6,
6,
12,
12,
18,
18,
8,
8,
7,
7,
14,
14,
13,
13,
10,
10,
8,
8,
8,
8,
7,
7,
1,
1,
5,
5,
5,
5,
6,
6,
7,
7,
14,
14,
10,
10,
6,
6,
15,
15,
21,
4,
4,
16,
16,
16,
22,
10,
11,
11,
8,
8,
0,
0,
0,
0,
0,
0,
-1,
-1,
-1,
-1,
0,
0,
0,
0,
-1,
-1,
1,
1,
6,
6,
7,
7,
2,
2,
1,
1,
6,
6,
5,
5,
0,
0,
-1,
-1,
1,
1,
8,
8,
8,
8,
3,
3,
4,
4,
2,
2,
-1,
-1,
6,
6,
3,
3,
3,
3,
0,
0,
7,
7,
9,
9,
8,
8,
4,
16,
15,
15,
15,
1,
3,
15,
14,
14,
6,
6,
2,
2,
10,
10,
0,
0,
1,
1,
5,
5,
-1,
13,
12,
12,
17,
17,
8,
8,
1,
13,
12,
12,
20,
9,
10,
10,
11,
11,
6,
6,
-1,
-1,
5,
5,
10,
10,
13,
13,
11,
11,
6,
6,
0,
0,
5,
5,
0,
0,
3,
3,
4,
4,
11,
27,
26,
26,
25,
11,
11,
11,
12,
28,
27,
27,
22,
6,
6,
6,
10,
10,
6,
6,
0,
16,
15,
15,
19,
2,
2,
2,
7,
7,
4,
4,
9,
9,
3,
3,
8,
8,
2,
14,
14,
14,
17,
17,
9,
9,
10,
23,
22,
22,
14,
0,
2,
2,
10,
10,
14,
14,
4,
4,
2,
14,
13,
13,
22,
22,
22,
22,
17,
3,
3,
3,
2,
15,
14,
14,
13,
2,
2,
2,
-1,
-1,
1,
1,
11,
11,
12,
12,
6,
6,
1,
1,
5,
5,
9,
9,
10,
10,
8,
8,
6,
6,
2,
2,
0,
0,
7,
7,
14,
14,
14,
14,
8,
8,
4,
4,
1,
14,
13,
13,
12,
12,
14,
14,
10,
10,
1,
17,
16,
16,
26,
26,
25,
14,
14,
0,
2,
2,
11,
11,
17,
17,
21,
8,
8,
8,
12,
30,
29,
29,
22,
8,
8,
8,
0,
0,
2,
2,
-1,
-1,
0,
0,
6,
6,
11,
11,
10,
10,
7,
7,
7,
7,
0,
0,
0,
0,
2,
2,
1,
1,
2,
2,
5,
5,
3,
3,
11,
11,
19,
19,
9,
9,
2,
2,
3,
14,
13,
13,
10,
10,
7,
7,
15,
15,
14,
14,
13,
13,
12,
12,
12,
12,
9,
9,
6,
6,
5,
18,
17,
17,
16,
16,
14,
27,
27,
27,
26,
10,
10,
10,
3,
15,
14,
14,
18,
18,
22,
22,
14,
1,
6,
6,
12,
12,
5,
5,
8,
8,
11,
0,
1,
1,
6,
6,
0,
0,
5,
5,
8,
8,
1,
1,
7,
7,
6,
6,
0,
0,
3,
3,
2,
2,
1,
1,
0,
0,
4,
4,
2,
14,
14,
14,
11,
11,
13,
2,
2,
2,
0,
0,
6,
6,
5,
5,
2,
2,
6,
32,
32,
32,
32,
4,
5,
20,
20,
20,
28,
28,
27,
14,
15,
0,
2,
2,
11,
11,
10,
10,
8,
8,
15,
15,
5,
5,
0,
0,
1,
1,
5,
5,
8,
8,
14,
14,
19,
19,
23,
5,
5,
5,
0,
0,
0,
0,
9,
9,
15,
15,
16,
16,
6,
6,
0,
0,
0,
0,
0,
14,
14,
38,
38,
38,
38,
18,
18,
1,
1,
13,
12,
23,
22,
22,
27,
27,
25,
25,
16,
16,
15,
0,
2,
21,
20,
20,
22,
5,
6,
6,
2,
2,
1,
1,
8,
8,
13,
0,
0,
0,
6,
6,
8,
8,
1,
1,
3,
3,
3,
3,
0,
0,
0,
0,
-1,
-1,
-1,
-1,
0,
0,
2,
2,
2,
2,
4,
4,
1,
1,
1,
1,
5,
18,
18,
18,
19,
7,
7,
7,
6,
6,
15,
15,
17,
17,
15,
4,
5,
5,
2,
2,
0,
0,
-1,
-1,
6,
6,
11,
11,
11,
11,
8,
8,
3,
3,
0,
0,
-1,
-1,
0,
0,
-1,
-1,
2,
2,
1,
1,
-1,
-1,
1,
1,
8,
8,
4,
4,
3,
3,
1,
1,
2,
2,
2,
2,
0,
11,
11,
11,
11,
11,
5,
5,
3,
3,
8,
8,
15,
15,
10,
10,
11,
22,
20,
20,
19,
19,
16,
4,
5,
5,
3,
3,
0,
0,
1,
1,
8,
8,
7,
7,
0,
0,
2,
2,
2,
2,
4,
4,
8,
8,
9,
9,
5,
5,
6,
6,
8,
8,
1,
1,
6,
6,
7,
7,
6,
6,
3,
3,
6,
6,
9,
9,
5,
5,
11,
22,
21,
9,
10,
-1,
0,
0,
7,
7,
10,
-1,
3,
3,
8,
8,
2,
2,
4,
4,
8,
8,
3,
3,
6,
6,
2,
2,
6,
6,
7,
7,
6,
6,
2,
2,
-1,
13,
12,
12,
19,
19,
9,
9,
3,
3,
8,
8,
1,
1,
5,
5,
0,
0,
2,
2,
6,
6,
11,
11,
3,
3,
0,
0,
0,
0,
-1,
-1,
-1,
-1,
1,
1,
-1,
-1,
2,
2,
0,
0,
7,
18,
16,
16,
20,
20,
26,
26,
18,
2,
4,
4,
10,
10,
7,
7,
8,
8,
15,
15,
19,
19,
11,
0,
2,
2,
1,
1,
5,
5,
6,
6,
0,
0,
2,
2,
4,
4,
6,
6,
4,
4,
3,
3,
9,
9,
8,
8,
8,
8,
2,
2,
1,
1,
2,
2,
3,
3,
1,
12,
12,
12,
5,
5,
3,
3,
6,
6,
8,
8,
6,
6,
1,
1,
-1,
-1,
8,
8,
4,
4,
11,
11,
5,
5,
7,
7,
14,
14,
10,
10,
13,
2,
2,
2,
6,
6,
0,
0,
4,
4,
13,
13,
18,
2,
2,
17,
16,
16,
11,
11,
5,
5,
0,
14,
14,
14,
15,
4,
5,
5,
9,
9,
8,
8,
6,
28,
28,
53,
52,
52,
51,
30,
31,
13,
14,
2,
8,
37,
36,
36,
43,
27,
28,
16,
17,
17,
10,
10,
3,
3,
0,
0,
4,
4,
0,
0,
2,
2,
2,
2,
12,
12,
13,
13,
9,
9,
3,
3,
3,
3,
5,
5,
0,
0,
-1,
-1,
-1,
-1,
2,
2,
3,
3,
1,
1,
3,
3,
3,
3,
5,
5,
2,
2,
1,
1,
4,
4,
4,
4,
8,
8,
15,
0,
2,
2,
9,
9,
0,
0,
4,
4,
6,
6,
1,
1,
5,
5,
14,
14,
6,
6,
-1,
10,
9,
9,
14,
14,
11,
0,
5,
16,
15,
15,
23,
23,
20,
8,
8,
8,
10,
10,
16,
16,
15,
15,
5,
5,
-1,
-1,
2,
2,
5,
5,
-1,
-1,
1,
1,
2,
2,
0,
0,
0,
13,
11,
25,
24,
24,
23,
2,
3,
15,
14,
14,
14,
14,
11,
11,
5,
5,
3,
3,
6,
6,
6,
6,
9,
9,
7,
7,
4,
4,
0,
0,
7,
7,
7,
7,
10,
10,
10,
10,
11,
11,
16,
16,
14,
0,
0,
0,
4,
4,
9,
9,
15,
15,
13,
13,
12,
12,
8,
8,
1,
1,
-1,
-1,
6,
22,
21,
39,
39,
39,
31,
3,
4,
19,
19,
19,
18,
2,
3,
3,
6,
6,
0,
0,
6,
6,
5,
5,
5,
5,
4,
4,
10,
10,
13,
13,
10,
10,
7,
7,
6,
6,
3,
3,
3,
24,
23,
23,
29,
29,
33,
19,
19,
4,
6,
6,
0,
11,
11,
11,
15,
15,
7,
7,
3,
3,
7,
7,
4,
4,
10,
10,
6,
6,
2,
2,
0,
0,
8,
8,
14,
14,
9,
9,
9,
9,
2,
2,
3,
3,
10,
10,
8,
8,
0,
12,
12,
12,
15,
15,
6,
6,
2,
2,
10,
10,
14,
14,
9,
9,
4,
4,
4,
4,
6,
6,
7,
7,
10,
10,
8,
8,
4,
4,
8,
8,
17,
17,
14,
3,
3,
3,
2,
2,
8,
8,
10,
10,
10,
10,
1,
1,
7,
7,
11,
11,
10,
-1,
0,
0,
3,
3,
12,
12,
14,
2,
6,
6,
8,
8,
7,
7,
5,
5,
0,
0,
2,
2,
2,
2,
-1,
-1,
6,
6,
6,
6,
0,
0,
6,
6,
3,
3,
8,
8,
2,
2,
2,
2,
5,
5,
0,
0,
2,
2,
8,
8,
17,
6,
6,
6,
5,
5,
4,
4,
6,
6,
6,
6,
7,
7,
12,
12,
9,
9,
1,
1,
7,
7,
8,
8,
2,
2,
3,
3,
-1,
-1,
2,
2,
6,
6,
6,
6,
6,
6,
1,
1,
8,
29,
28,
28,
23,
9,
10,
10,
2,
15,
14,
2,
2,
25,
24,
38,
37,
10,
10,
21,
20,
20,
24,
5,
6,
6,
-1,
10,
8,
20,
20,
20,
16,
16,
14,
0,
2,
15,
15,
15,
13,
13,
7,
7,
8,
8,
7,
7,
7,
7,
5,
5,
7,
7,
16,
16,
15,
15,
8,
8,
4,
4,
8,
8,
10,
10,
11,
11,
10,
10,
2,
2,
5,
5,
-1,
-1,
2,
2,
7,
7,
6,
6,
3,
3,
2,
2,
1,
1,
5,
5,
4,
4,
2,
2,
-1,
-1,
-1,
-1,
-1,
-1,
3,
3,
3,
3,
0,
0,
10,
10,
17,
17,
20,
2,
2,
14,
12,
12,
17,
17,
9,
9,
4,
4,
-1,
-1,
4,
4,
5,
5,
0,
0,
2,
21,
20,
20,
25,
25,
19,
5,
6,
6,
6,
6,
8,
8,
12,
0,
3,
3,
6,
6,
1,
1,
0,
0,
6,
6,
10,
10,
9,
9,
8,
8,
12,
12,
19,
3,
3,
33,
33,
49,
48,
29,
29,
8,
9,
9,
8,
8,
0,
0,
5,
5,
14,
14,
12,
12,
10,
10,
15,
15,
6,
6,
0,
0,
1,
1,
10,
10,
17,
17,
8,
8,
3,
3,
11,
11,
7,
7,
0,
0,
0,
0,
8,
8,
5,
5,
11,
32,
31,
31,
40,
40,
31,
10,
11,
11,
3,
3,
0,
17,
17,
34,
34,
34,
33,
33,
30,
30,
21,
4,
5,
5,
4,
4,
12,
12,
15,
15,
15,
15,
23,
23,
21,
21,
19,
7,
8,
8,
7,
7,
16,
16,
18,
18,
15,
15,
16,
16,
8,
8,
3,
14,
14,
14,
18,
18,
23,
23,
18,
18,
10,
-1,
0,
0,
9,
9,
4,
4,
-1,
-1,
5,
5,
2,
2,
0,
0,
7,
7,
14,
14,
12,
12,
10,
10,
7,
7,
2,
2,
0,
0,
6,
6,
12,
12,
16,
16,
16,
16,
17,
5,
5,
5,
0,
0,
0,
0,
3,
3,
0,
0,
7,
7,
10,
10,
11,
11,
2,
2,
-1,
-1,
0,
0,
4,
4,
1,
1,
3,
3,
1,
1,
3,
3,
10,
10,
17,
17,
16,
3,
3,
3,
7,
7,
3,
3,
2,
2,
6,
6,
6,
6,
10,
10,
14,
14,
11,
11,
6,
18,
16,
47,
46,
46,
50,
27,
27,
3,
3,
18,
17,
17,
24,
24,
18,
18,
12,
12,
7,
7,
9,
9,
18,
18,
11,
0,
4,
4,
11,
11,
9,
9,
