EMG_S1/DS0169.CSV

Memory Length,4000,
Trigger Level,0.00000e+00,
Source,CH1,
Probe,1.0X,
Vertical Units,V,
Vertical Scale,1.00000e+00,
Vertical Position,4.00000e-02,
Horizontal Units,S,
Horizontal Scale,1.00000e-01,
Horizontal Position,0.0000000e+00,
Horizontal Mode,Roll Mode,
Waveform Last Dot Address,4000,
Sampling Period,4.00000e-04,
Firmware,V1.14,
Time, ,
Mode,Fast,
Waveform Data,
11,
11,
18,
18,
11,
0,
2,
2,
9,
9,
3,
3,
-1,
-1,
0,
0,
0,
0,
4,
4,
1,
1,
4,
4,
6,
6,
8,
8,
6,
6,
6,
6,
11,
11,
8,
8,
4,
4,
10,
10,
8,
8,
5,
5,
1,
12,
12,
12,
15,
15,
8,
8,
3,
3,
8,
8,
8,
8,
2,
2,
4,
4,
5,
5,
1,
1,
4,
4,
6,
6,
2,
14,
14,
14,
16,
5,
6,
6,
0,
0,
2,
2,
7,
7,
4,
4,
3,
3,
5,
5,
0,
0,
7,
7,
2,
2,
11,
11,
11,
11,
6,
6,
0,
0,
0,
0,
3,
3,
2,
2,
0,
0,
3,
3,
4,
4,
5,
5,
8,
8,
6,
6,
0,
0,
3,
3,
4,
4,
2,
2,
7,
7,
8,
8,
10,
10,
10,
-1,
1,
1,
2,
2,
2,
2,
8,
8,
4,
4,
3,
3,
1,
1,
-1,
-1,
0,
0,
2,
2,
7,
7,
15,
15,
11,
11,
10,
10,
8,
8,
2,
2,
5,
5,
13,
13,
6,
6,
8,
8,
10,
10,
3,
3,
5,
5,
9,
9,
3,
3,
2,
2,
-1,
-1,
3,
3,
5,
5,
2,
2,
-1,
-1,
2,
15,
14,
14,
20,
20,
13,
2,
3,
3,
1,
1,
7,
7,
13,
13,
16,
0,
2,
14,
14,
14,
14,
14,
10,
10,
2,
2,
1,
1,
1,
1,
3,
3,
4,
4,
0,
0,
2,
2,
2,
2,
1,
1,
1,
1,
1,
1,
4,
4,
4,
4,
1,
1,
-1,
10,
9,
9,
13,
13,
11,
11,
2,
2,
6,
6,
3,
3,
2,
2,
2,
2,
0,
0,
3,
3,
7,
7,
1,
1,
10,
10,
3,
3,
6,
6,
4,
4,
0,
0,
1,
1,
2,
2,
0,
0,
1,
1,
4,
4,
7,
7,
10,
10,
5,
5,
2,
2,
5,
5,
8,
8,
5,
5,
6,
6,
14,
14,
14,
14,
6,
6,
8,
8,
2,
2,
10,
10,
18,
18,
12,
12,
5,
5,
0,
0,
3,
3,
2,
2,
2,
2,
2,
2,
-1,
-1,
2,
2,
3,
3,
0,
0,
1,
1,
2,
2,
3,
3,
-1,
-1,
0,
0,
-1,
-1,
0,
0,
-1,
-1,
0,
0,
-1,
-1,
2,
2,
6,
6,
9,
9,
6,
6,
1,
1,
1,
1,
0,
0,
2,
2,
0,
0,
9,
9,
10,
-1,
0,
0,
10,
10,
10,
10,
6,
6,
2,
2,
10,
10,
11,
11,
3,
3,
5,
5,
11,
11,
13,
13,
10,
10,
5,
5,
1,
1,
-1,
-1,
4,
4,
8,
8,
8,
8,
9,
9,
2,
2,
3,
3,
4,
4,
8,
8,
2,
2,
8,
8,
13,
13,
5,
5,
0,
0,
8,
8,
7,
7,
11,
11,
19,
19,
18,
0,
2,
14,
12,
23,
21,
21,
20,
20,
15,
15,
10,
-1,
0,
0,
6,
6,
8,
8,
6,
6,
-1,
-1,
-1,
-1,
2,
2,
3,
3,
0,
0,
6,
6,
12,
12,
11,
11,
3,
3,
0,
0,
0,
0,
0,
0,
3,
3,
7,
7,
5,
5,
1,
1,
0,
0,
-1,
-1,
4,
4,
3,
3,
6,
20,
19,
19,
21,
2,
4,
22,
22,
22,
25,
25,
16,
4,
6,
6,
3,
3,
4,
4,
4,
4,
6,
6,
10,
10,
18,
18,
18,
18,
10,
10,
3,
27,
26,
47,
46,
35,
36,
14,
15,
0,
1,
1,
8,
8,
8,
8,
11,
11,
15,
15,
15,
15,
10,
10,
3,
3,
0,
0,
1,
1,
2,
2,
6,
6,
7,
7,
6,
6,
8,
8,
6,
6,
4,
4,
3,
3,
2,
2,
3,
3,
1,
1,
-1,
-1,
-1,
-1,
-1,
-1,
0,
0,
2,
2,
0,
0,
0,
0,
3,
3,
5,
5,
1,
1,
3,
3,
-1,
-1,
0,
0,
0,
0,
3,
3,
8,
8,
7,
7,
9,
9,
16,
4,
4,
4,
0,
0,
0,
0,
0,
0,
-1,
-1,
3,
3,
10,
10,
7,
7,
9,
9,
10,
10,
10,
10,
8,
8,
4,
20,
19,
32,
32,
32,
30,
19,
20,
4,
5,
5,
9,
9,
14,
14,
11,
11,
11,
11,
8,
8,
3,
3,
0,
0,
-1,
-1,
2,
2,
2,
2,
1,
1,
-1,
-1,
2,
2,
2,
16,
16,
16,
14,
3,
4,
4,
2,
2,
0,
0,
3,
3,
3,
3,
2,
2,
0,
0,
2,
2,
5,
5,
1,
1,
6,
6,
5,
16,
15,
15,
8,
8,
4,
4,
5,
5,
4,
4,
2,
2,
1,
1,
2,
2,
-1,
-1,
1,
1,
5,
5,
3,
3,
4,
4,
0,
0,
5,
5,
1,
1,
7,
7,
5,
5,
0,
0,
0,
0,
3,
3,
1,
1,
2,
2,
-2,
-2,
0,
0,
-1,
-1,
3,
3,
5,
5,
3,
3,
11,
11,
12,
12,
4,
4,
4,
4,
7,
7,
4,
4,
5,
5,
2,
2,
3,
3,
2,
2,
4,
4,
2,
2,
2,
2,
11,
23,
22,
22,
23,
12,
13,
0,
1,
1,
10,
10,
16,
16,
18,
18,
17,
2,
2,
2,
7,
7,
11,
11,
12,
23,
22,
22,
15,
0,
1,
1,
3,
3,
6,
6,
5,
5,
5,
5,
10,
10,
12,
0,
3,
3,
6,
6,
2,
2,
7,
7,
1,
1,
2,
2,
0,
0,
0,
13,
12,
12,
13,
0,
0,
0,
3,
3,
1,
1,
3,
3,
5,
5,
0,
0,
0,
0,
6,
6,
9,
9,
9,
9,
3,
3,
2,
2,
2,
2,
1,
1,
1,
1,
0,
0,
8,
8,
5,
5,
0,
0,
6,
6,
6,
6,
2,
2,
7,
7,
14,
14,
13,
2,
3,
3,
9,
9,
11,
11,
8,
8,
2,
2,
0,
0,
6,
6,
7,
7,
2,
2,
6,
6,
10,
10,
10,
-1,
0,
0,
2,
2,
3,
3,
11,
26,
26,
26,
24,
8,
8,
8,
11,
11,
20,
20,
14,
14,
8,
8,
10,
10,
1,
1,
9,
9,
0,
0,
3,
3,
4,
4,
1,
1,
2,
2,
4,
4,
6,
6,
2,
2,
0,
0,
0,
17,
16,
31,
31,
31,
22,
5,
5,
5,
1,
1,
0,
0,
3,
3,
6,
6,
6,
6,
7,
7,
11,
11,
14,
14,
14,
14,
10,
-1,
0,
11,
9,
32,
31,
43,
42,
20,
21,
2,
4,
4,
10,
10,
18,
18,
11,
11,
6,
6,
8,
8,
4,
4,
6,
6,
10,
10,
7,
7,
0,
0,
3,
3,
3,
3,
3,
3,
3,
3,
3,
3,
2,
2,
1,
1,
0,
0,
6,
6,
6,
6,
2,
2,
2,
2,
2,
2,
3,
3,
1,
1,
-1,
-1,
7,
7,
9,
9,
2,
14,
14,
14,
14,
3,
4,
4,
-1,
-1,
-1,
-1,
0,
0,
-1,
-1,
3,
3,
0,
0,
1,
1,
5,
5,
3,
3,
6,
6,
3,
3,
3,
3,
8,
8,
6,
6,
4,
15,
14,
14,
24,
24,
22,
22,
20,
20,
21,
21,
13,
1,
6,
6,
14,
14,
14,
14,
20,
9,
9,
9,
4,
4,
10,
10,
6,
6,
0,
0,
6,
6,
13,
13,
20,
20,
13,
13,
9,
9,
1,
20,
19,
30,
29,
15,
15,
2,
5,
5,
11,
38,
37,
37,
27,
2,
2,
2,
7,
7,
14,
14,
8,
8,
10,
10,
15,
15,
11,
11,
7,
7,
8,
8,
15,
15,
19,
4,
5,
20,
19,
19,
24,
24,
29,
29,
31,
18,
19,
19,
14,
14,
11,
0,
3,
16,
15,
15,
18,
18,
18,
18,
19,
19,
18,
2,
2,
2,
7,
7,
9,
9,
9,
9,
6,
6,
-1,
-1,
0,
0,
-1,
-1,
0,
0,
2,
2,
1,
1,
4,
4,
7,
7,
6,
6,
11,
11,
17,
2,
2,
13,
11,
11,
9,
9,
2,
2,
3,
3,
7,
7,
10,
-1,
1,
1,
5,
5,
14,
14,
5,
19,
18,
30,
28,
11,
11,
11,
6,
6,
14,
25,
24,
24,
17,
2,
4,
4,
3,
3,
4,
4,
2,
14,
14,
14,
18,
18,
14,
14,
6,
6,
0,
0,
3,
3,
3,
3,
-1,
-1,
8,
8,
6,
6,
1,
1,
0,
0,
7,
7,
9,
9,
6,
6,
0,
0,
3,
3,
5,
5,
5,
5,
5,
5,
8,
8,
6,
6,
6,
6,
3,
3,
2,
2,
5,
5,
3,
3,
8,
8,
7,
7,
8,
8,
14,
14,
16,
16,
10,
-1,
0,
0,
5,
5,
10,
10,
10,
10,
5,
5,
4,
4,
3,
3,
-1,
-1,
2,
2,
4,
4,
4,
4,
3,
3,
11,
11,
4,
4,
-1,
-1,
0,
0,
0,
0,
-1,
-1,
4,
4,
8,
8,
2,
2,
4,
4,
3,
3,
3,
3,
0,
0,
4,
4,
2,
2,
11,
11,
13,
0,
1,
1,
0,
0,
4,
4,
0,
0,
5,
5,
6,
6,
2,
2,
6,
6,
13,
13,
11,
-1,
1,
15,
14,
28,
27,
16,
16,
16,
7,
7,
3,
3,
0,
0,
0,
0,
10,
10,
18,
18,
14,
14,
9,
9,
6,
6,
1,
1,
0,
0,
0,
0,
-1,
-1,
5,
5,
13,
13,
9,
9,
9,
9,
10,
10,
5,
5,
4,
4,
2,
2,
0,
0,
2,
2,
3,
3,
0,
0,
-1,
-1,
0,
0,
-1,
-1,
0,
0,
3,
3,
6,
6,
1,
1,
3,
16,
16,
16,
19,
6,
6,
17,
17,
36,
36,
36,
29,
4,
5,
5,
7,
7,
11,
11,
6,
6,
5,
5,
6,
6,
5,
5,
9,
9,
9,
9,
5,
5,
-1,
-1,
0,
0,
7,
7,
4,
4,
1,
1,
4,
4,
3,
3,
6,
6,
8,
8,
7,
7,
10,
10,
11,
11,
4,
4,
0,
0,
7,
18,
16,
16,
15,
15,
5,
5,
4,
4,
8,
8,
2,
2,
1,
1,
3,
3,
12,
12,
10,
-1,
0,
0,
6,
6,
10,
10,
3,
3,
7,
7,
8,
8,
2,
2,
-1,
-1,
0,
0,
0,
0,
1,
1,
1,
1,
0,
0,
4,
4,
11,
11,
13,
13,
10,
10,
10,
10,
2,
2,
8,
8,
9,
9,
7,
7,
0,
0,
3,
3,
7,
7,
2,
2,
3,
3,
2,
2,
0,
0,
0,
0,
7,
7,
4,
4,
5,
5,
5,
5,
10,
23,
22,
22,
24,
7,
7,
7,
4,
4,
0,
0,
4,
4,
8,
8,
7,
7,
6,
6,
6,
6,
4,
4,
3,
3,
-1,
-1,
1,
1,
6,
6,
6,
6,
1,
1,
1,
1,
4,
4,
6,
6,
2,
2,
1,
1,
6,
6,
5,
5,
1,
1,
0,
0,
0,
0,
-1,
-1,
1,
1,
2,
2,
4,
4,
0,
0,
7,
7,
7,
7,
7,
7,
2,
2,
11,
11,
17,
17,
16,
16,
16,
4,
6,
6,
9,
9,
12,
12,
6,
6,
0,
0,
-1,
10,
10,
10,
2,
2,
11,
11,
12,
12,
2,
2,
3,
3,
4,
4,
4,
4,
8,
8,
8,
8,
6,
6,
4,
4,
7,
7,
-1,
-1,
6,
6,
15,
26,
25,
25,
28,
28,
18,
18,
18,
5,
6,
6,
8,
20,
19,
19,
21,
21,
19,
19,
23,
23,
23,
23,
14,
0,
2,
2,
6,
6,
7,
7,
6,
6,
7,
7,
13,
13,
9,
9,
15,
15,
16,
2,
2,
2,
3,
3,
8,
8,
8,
23,
23,
23,
23,
4,
5,
18,
18,
18,
20,
20,
19,
19,
15,
15,
14,
14,
12,
12,
3,
3,
-1,
-1,
4,
4,
10,
10,
13,
13,
10,
10,
3,
3,
4,
4,
5,
5,
3,
3,
0,
0,
4,
4,
11,
11,
2,
2,
6,
6,
10,
10,
19,
19,
21,
6,
7,
7,
8,
8,
14,
14,
9,
9,
9,
9,
4,
4,
11,
11,
14,
0,
0,
0,
6,
6,
7,
7,
6,
6,
6,
6,
2,
2,
0,
0,
3,
3,
0,
0,
2,
2,
3,
3,
3,
16,
16,
16,
18,
18,
19,
19,
14,
14,
5,
5,
3,
3,
11,
11,
11,
11,
4,
4,
5,
5,
5,
5,
0,
0,
3,
3,
0,
0,
2,
2,
4,
4,
7,
7,
0,
0,
9,
9,
13,
0,
0,
0,
4,
4,
4,
4,
8,
8,
5,
16,
15,
15,
7,
7,
10,
10,
19,
4,
6,
6,
4,
4,
12,
12,
12,
12,
3,
3,
-1,
-1,
-1,
-1,
-1,
-1,
0,
0,
0,
0,
3,
3,
4,
4,
5,
5,
7,
7,
0,
0,
2,
2,
5,
5,
0,
0,
5,
5,
3,
3,
3,
3,
5,
5,
4,
4,
7,
7,
6,
6,
0,
0,
0,
0,
1,
1,
0,
0,
0,
0,
3,
3,
6,
6,
1,
1,
0,
0,
8,
8,
4,
4,
3,
3,
5,
5,
-1,
-1,
3,
3,
3,
3,
0,
0,
3,
3,
11,
34,
32,
32,
31,
8,
8,
8,
8,
8,
15,
15,
10,
-1,
1,
1,
2,
17,
16,
16,
18,
18,
12,
12,
4,
4,
6,
6,
14,
14,
12,
12,
8,
8,
8,
8,
2,
2,
1,
1,
0,
0,
-1,
-1,
0,
0,
2,
2,
7,
7,
9,
9,
0,
0,
1,
1,
10,
10,
16,
16,
10,
10,
9,
9,
16,
16,
15,
0,
1,
1,
10,
10,
14,
14,
11,
11,
8,
8,
2,
2,
-1,
-1,
0,
0,
2,
2,
4,
4,
3,
3,
1,
1,
6,
6,
8,
8,
5,
5,
6,
6,
6,
6,
0,
0,
1,
1,
3,
3,
0,
0,
2,
2,
6,
6,
6,
6,
6,
6,
-1,
-1,
3,
3,
8,
8,
4,
4,
0,
0,
3,
3,
1,
1,
10,
10,
14,
14,
4,
4,
2,
2,
5,
5,
10,
10,
8,
8,
0,
0,
9,
9,
6,
6,
8,
8,
10,
10,
12,
12,
8,
8,
1,
1,
2,
2,
0,
14,
14,
14,
16,
2,
4,
18,
18,
18,
20,
20,
16,
16,
14,
14,
11,
11,
9,
9,
5,
5,
2,
2,
11,
11,
8,
8,
11,
11,
19,
19,
20,
20,
11,
11,
11,
11,
6,
6,
0,
0,
2,
2,
0,
14,
13,
13,
22,
22,
22,
9,
10,
10,
11,
41,
41,
41,
45,
22,
23,
1,
2,
2,
8,
8,
14,
14,
16,
16,
17,
17,
22,
22,
16,
16,
6,
6,
0,
0,
4,
4,
0,
0,
1,
1,
8,
8,
15,
15,
17,
17,
15,
15,
10,
10,
4,
4,
2,
2,
-1,
-1,
-1,
-1,
1,
1,
2,
2,
-1,
-1,
2,
2,
5,
5,
4,
4,
4,
4,
5,
5,
7,
7,
2,
2,
1,
1,
1,
1,
8,
8,
6,
6,
2,
2,
2,
2,
0,
13,
12,
12,
20,
20,
14,
14,
6,
6,
5,
5,
3,
3,
0,
0,
7,
7,
6,
6,
3,
3,
4,
4,
0,
0,
2,
2,
9,
9,
10,
10,
4,
4,
6,
6,
11,
11,
8,
8,
5,
5,
5,
5,
2,
2,
4,
4,
4,
4,
1,
1,
-1,
-1,
0,
0,
4,
4,
3,
3,
-1,
-1,
1,
1,
3,
3,
5,
5,
5,
5,
0,
0,
3,
3,
-1,
-1,
2,
2,
0,
0,
2,
2,
4,
4,
7,
7,
1,
1,
6,
6,
3,
3,
4,
4,
3,
3,
10,
23,
22,
22,
14,
0,
3,
3,
6,
6,
6,
6,
8,
8,
2,
2,
0,
0,
9,
9,
11,
0,
0,
0,
1,
1,
6,
6,
7,
7,
7,
7,
2,
2,
-1,
-1,
2,
2,
10,
10,
18,
18,
15,
15,
17,
17,
12,
12,
5,
5,
4,
17,
16,
16,
9,
9,
7,
7,
9,
9,
2,
2,
1,
1,
4,
4,
3,
3,
10,
10,
2,
2,
7,
7,
7,
7,
2,
2,
8,
8,
8,
8,
7,
7,
3,
3,
1,
1,
5,
5,
6,
6,
3,
3,
8,
8,
3,
3,
0,
0,
1,
1,
2,
2,
-1,
-1,
1,
1,
3,
3,
9,
9,
11,
11,
3,
3,
2,
2,
0,
0,
2,
2,
3,
3,
0,
0,
4,
4,
6,
6,
2,
2,
0,
0,
4,
4,
1,
1,
0,
0,
0,
0,
4,
4,
-1,
-1,
2,
15,
14,
14,
12,
12,
2,
2,
3,
3,
7,
7,
7,
7,
4,
4,
4,
4,
7,
7,
2,
2,
7,
7,
11,
11,
14,
14,
12,
0,
0,
0,
5,
5,
9,
9,
12,
12,
12,
12,
11,
11,
4,
4,
5,
5,
13,
1,
1,
14,
13,
13,
17,
17,
8,
8,
2,
2,
0,
0,
0,
0,
0,
0,
4,
4,
10,
10,
9,
9,
14,
14,
4,
4,
7,
7,
9,
9,
8,
8,
6,
6,
6,
6,
6,
6,
-1,
-1,
5,
5,
1,
1,
3,
3,
6,
6,
2,
2,
4,
4,
10,
10,
12,
12,
7,
7,
0,
0,
4,
4,
8,
8,
0,
0,
0,
0,
2,
2,
3,
3,
2,
2,
2,
2,
5,
5,
4,
4,
1,
1,
0,
0,
0,
0,
3,
3,
2,
2,
-1,
-1,
0,
0,
2,
2,
-1,
-1,
6,
6,
2,
2,
0,
0,
8,
8,
16,
16,
14,
14,
12,
12,
18,
33,
32,
21,
21,
1,
3,
19,
18,
18,
19,
19,
23,
23,
27,
27,
23,
23,
18,
18,
10,
10,
3,
3,
6,
6,
10,
10,
10,
10,
6,
6,
6,
6,
5,
5,
14,
14,
23,
23,
21,
8,
8,
8,
13,
13,
19,
8,
9,
9,
11,
25,
25,
25,
23,
23,
15,
15,
11,
11,
12,
12,
9,
9,
0,
0,
6,
6,
8,
8,
11,
11,
18,
18,
24,
24,
19,
3,
3,
3,
1,
1,
0,
0,
3,
3,
8,
8,
12,
12,
3,
3,
5,
5,
10,
10,
1,
1,
6,
6,
12,
12,
7,
7,
9,
9,
14,
3,
3,
3,
6,
6,
14,
14,
5,
5,
7,
7,
4,
4,
2,
13,
12,
12,
18,
18,
9,
9,
10,
10,
15,
15,
7,
7,
2,
2,
11,
30,
29,
29,
29,
29,
26,
7,
8,
8,
16,
28,
26,
26,
22,
11,
12,
12,
12,
12,
10,
10,
9,
9,
13,
13,
16,
5,
6,
6,
-1,
-1,
0,
16,
15,
32,
31,
31,
36,
36,
27,
27,
22,
22,
13,
0,
0,
11,
10,
10,
18,
6,
7,
7,
6,
6,
0,
15,
14,
14,
13,
13,
10,
10,
2,
2,
4,
4,
4,
4,
3,
3,
2,
2,
5,
5,
4,
4,
4,
4,
1,
1,
1,
1,
4,
4,
5,
5,
4,
4,
6,
6,
0,
0,
3,
3,
2,
2,
6,
6,
8,
8,
6,
6,
0,
0,
2,
2,
-1,
-1,
1,
1,
0,
0,
2,
2,
3,
3,
4,
4,
2,
2,
11,
11,
16,
1,
2,
2,
5,
5,
8,
8,
10,
10,
6,
6,
1,
1,
6,
6,
7,
7,
6,
6,
7,
7,
0,
0,
3,
3,
8,
8,
2,
2,
9,
9,
15,
15,
12,
12,
5,
5,
12,
12,
14,
3,
5,
18,
18,
18,
24,
24,
14,
0,
1,
1,
7,
7,
8,
8,
10,
10,
11,
11,
13,
13,
5,
5,
0,
0,
4,
4,
0,
0,
6,
6,
2,
2,
0,
0,
4,
4,
12,
12,
17,
17,
22,
22,
21,
2,
4,
22,
21,
21,
26,
26,
21,
2,
2,
2,
9,
20,
19,
5,
6,
6,
4,
4,
6,
6,
3,
3,
2,
2,
5,
5,
10,
10,
9,
9,
5,
5,
10,
10,
6,
6,
10,
10,
15,
15,
8,
8,
3,
3,
8,
8,
7,
7,
4,
4,
8,
8,
2,
2,
0,
0,
5,
5,
0,
0,
4,
4,
2,
2,
0,
0,
5,
5,
2,
2,
-1,
-1,
0,
0,
6,
6,
10,
10,
8,
8,
7,
7,
0,
0,
2,
2,
8,
8,
13,
13,
6,
6,
8,
8,
13,
13,
16,
16,
9,
9,
5,
5,
6,
6,
0,
0,
4,
4,
6,
6,
2,
2,
3,
3,
1,
1,
10,
10,
9,
9,
2,
2,
4,
4,
0,
0,
7,
7,
15,
15,
22,
22,
13,
13,
6,
6,
1,
1,
6,
6,
12,
12,
13,
13,
15,
15,
11,
11,
8,
8,
7,
7,
2,
2,
7,
22,
22,
22,
21,
8,
9,
9,
0,
0,
1,
1,
0,
0,
2,
2,
3,
3,
6,
6,
0,
0,
1,
1,
2,
2,
6,
17,
16,
16,
14,
1,
1,
1,
6,
6,
12,
12,
3,
3,
8,
8,
4,
4,
4,
4,
4,
4,
3,
3,
0,
0,
0,
0,
0,
0,
1,
1,
0,
0,
4,
4,
3,
3,
5,
5,
3,
3,
0,
0,
0,
0,
5,
5,
10,
10,
8,
8,
1,
1,
8,
8,
6,
6,
10,
10,
14,
2,
6,
27,
27,
27,
29,
29,
20,
20,
12,
0,
3,
3,
9,
9,
15,
15,
23,
23,
18,
18,
15,
15,
11,
11,
3,
3,
0,
0,
2,
2,
7,
7,
8,
8,
2,
2,
6,
6,
0,
18,
16,
35,
35,
35,
42,
30,
30,
11,
12,
0,
4,
4,
8,
8,
12,
12,
17,
17,
14,
14,
12,
12,
15,
15,
14,
14,
8,
8,
2,
2,
0,
0,
4,
4,
0,
0,
0,
0,
-1,
-1,
4,
4,
8,
8,
10,
10,
6,
6,
6,
6,
11,
11,
13,
13,
11,
11,
9,
9,
0,
0,
3,
3,
5,
5,
3,
3,
3,
3,
7,
7,
7,
7,
3,
3,
0,
0,
0,
0,
-1,
-1,
-1,
-1,
-1,
-1,
0,
0,
2,
2,
7,
7,
6,
6,
1,
1,
5,
5,
13,
1,
2,
2,
10,
10,
3,
3,
6,
6,
16,
16,
8,
8,
10,
23,
22,
22,
18,
5,
5,
5,
10,
10,
18,
18,
15,
15,
8,
8,
5,
5,
5,
5,
6,
6,
3,
3,
0,
0,
10,
10,
15,
15,
15,
15,
8,
8,
0,
0,
2,
2,
1,
1,
5,
5,
6,
6,
6,
6,
4,
4,
4,
4,
0,
0,
3,
3,
7,
7,
2,
2,
2,
13,
12,
26,
24,
24,
22,
8,
9,
9,
6,
17,
17,
17,
21,
21,
20,
20,
17,
17,
10,
10,
5,
5,
1,
1,
3,
3,
13,
13,
18,
18,
22,
22,
16,
16,
7,
7,
2,
2,
4,
4,
2,
2,
-1,
-1,
0,
0,
4,
4,
7,
7,
7,
7,
3,
3,
3,
3,
9,
9,
8,
8,
4,
4,
7,
7,
3,
3,
9,
9,
10,
10,
7,
7,
5,
5,
0,
0,
2,
2,
3,
3,
2,
2,
0,
0,
1,
1,
3,
3,
4,
4,
3,
3,
3,
3,
0,
0,
3,
3,
6,
6,
0,
0,
4,
4,
2,
2,
0,
0,
4,
4,
8,
8,
8,
8,
2,
2,
3,
3,
4,
4,
3,
3,
5,
5,
6,
6,
6,
6,
7,
18,
17,
17,
15,
0,
3,
3,
7,
7,
7,
7,
9,
9,
5,
5,
-1,
-1,
4,
4,
7,
7,
6,
6,
1,
1,
0,
0,
8,
8,
16,
16,
14,
2,
2,
2,
9,
26,
26,
26,
16,
3,
3,
3,
1,
1,
4,
4,
9,
9,
11,
11,
2,
2,
0,
0,
10,
10,
13,
13,
12,
12,
3,
3,
0,
0,
3,
3,
2,
2,
1,
1,
2,
2,
4,
4,
13,
13,
8,
8,
6,
6,
0,
0,
7,
7,
11,
11,
16,
16,
8,
8,
2,
2,
2,
2,
1,
1,
4,
4,
6,
6,
3,
3,
5,
5,
7,
7,
7,
7,
4,
4,
0,
0,
6,
6,
10,
10,
6,
6,
5,
5,
13,
13,
11,
11,
13,
13,
22,
10,
10,
10,
7,
19,
18,
18,
9,
9,
0,
0,
-1,
-1,
2,
2,
5,
5,
1,
1,
-1,
-1,
1,
1,
0,
0,
0,
0,
0,
0,
3,
3,
2,
2,
0,
0,
5,
5,
6,
6,
4,
4,
0,
0,
3,
3,
5,
5,
7,
7,
2,
2,
-1,
-1,
2,
2,
5,
5,
1,
1,
0,
0,
0,
0,
5,
5,
14,
14,
11,
0,
1,
1,
1,
1,
3,
3,
8,
8,
8,
8,
13,
13,
9,
9,
4,
22,
21,
21,
27,
27,
22,
22,
13,
13,
4,
4,
6,
22,
21,
21,
23,
23,
20,
20,
10,
-1,
3,
3,
8,
8,
6,
6,
2,
2,
4,
4,
7,
7,
9,
9,
4,
4,
3,
3,
0,
0,
1,
1,
6,
6,
12,
30,
28,
28,
23,
11,
12,
12,
4,
4,
3,
3,
