EMG_S1/DS0177.CSV

Memory Length,4000,
Trigger Level,0.00000e+00,
Source,CH1,
Probe,1.0X,
Vertical Units,V,
Vertical Scale,1.00000e+00,
Vertical Position,4.00000e-02,
Horizontal Units,S,
Horizontal Scale,1.00000e-01,
Horizontal Position,0.0000000e+00,
Horizontal Mode,Roll Mode,
Waveform Last Dot Address,4000,
Sampling Period,4.00000e-04,
Firmware,V1.14,
Time, ,
Mode,Fast,
Waveform Data,
7,
7,
5,
5,
6,
6,
10,
10,
10,
10,
6,
6,
0,
0,
3,
3,
2,
2,
0,
0,
1,
1,
2,
2,
3,
3,
0,
0,
1,
1,
6,
6,
4,
4,
4,
4,
5,
5,
2,
2,
6,
6,
2,
2,
0,
0,
6,
6,
8,
8,
6,
6,
7,
7,
3,
3,
2,
2,
4,
4,
6,
6,
6,
6,
4,
4,
8,
8,
10,
-1,
0,
0,
7,
24,
23,
23,
27,
16,
17,
4,
4,
4,
6,
6,
8,
8,
11,
11,
11,
11,
9,
9,
7,
7,
0,
0,
3,
3,
10,
10,
8,
8,
7,
7,
6,
6,
6,
6,
2,
2,
4,
4,
6,
6,
10,
21,
20,
2,
3,
3,
10,
10,
3,
3,
1,
1,
2,
2,
2,
2,
2,
2,
10,
10,
14,
3,
3,
3,
6,
6,
2,
2,
-1,
-1,
3,
3,
12,
12,
11,
11,
14,
14,
11,
11,
5,
5,
7,
7,
14,
14,
15,
15,
19,
6,
6,
6,
4,
4,
14,
14,
5,
17,
17,
17,
25,
11,
12,
1,
2,
2,
2,
2,
7,
7,
10,
24,
24,
24,
17,
2,
8,
25,
24,
24,
30,
30,
32,
10,
10,
10,
7,
7,
11,
0,
1,
1,
4,
4,
9,
9,
15,
15,
12,
12,
9,
9,
0,
0,
1,
1,
0,
0,
1,
1,
1,
1,
2,
2,
-1,
-1,
0,
0,
-1,
-1,
2,
2,
4,
4,
2,
2,
4,
4,
9,
9,
11,
11,
11,
11,
10,
10,
0,
0,
5,
5,
5,
5,
7,
7,
7,
7,
7,
7,
2,
2,
3,
3,
4,
4,
6,
6,
14,
3,
4,
16,
15,
27,
26,
26,
31,
16,
17,
1,
4,
4,
7,
7,
5,
5,
0,
0,
3,
3,
11,
11,
10,
10,
3,
3,
0,
0,
7,
7,
7,
7,
2,
2,
7,
7,
16,
16,
17,
17,
15,
15,
16,
16,
14,
14,
5,
5,
0,
11,
11,
11,
16,
16,
10,
-1,
0,
0,
4,
4,
2,
2,
2,
2,
0,
0,
2,
2,
4,
4,
7,
7,
6,
6,
5,
5,
-1,
-1,
6,
6,
8,
8,
15,
15,
22,
22,
13,
0,
2,
2,
8,
8,
3,
3,
-1,
-1,
0,
0,
4,
4,
3,
3,
0,
0,
3,
3,
4,
4,
8,
8,
8,
19,
18,
35,
34,
34,
37,
37,
35,
16,
17,
2,
9,
25,
24,
24,
27,
27,
29,
29,
27,
16,
16,
16,
6,
6,
8,
8,
9,
9,
0,
0,
7,
7,
7,
7,
8,
8,
16,
16,
23,
23,
19,
8,
8,
8,
2,
2,
-1,
-1,
-1,
-1,
2,
2,
2,
2,
0,
0,
2,
2,
3,
14,
14,
14,
16,
16,
13,
2,
7,
21,
20,
20,
15,
0,
1,
1,
0,
0,
-1,
-1,
-1,
-1,
1,
1,
5,
5,
5,
5,
8,
8,
4,
4,
0,
0,
3,
3,
0,
0,
6,
6,
10,
10,
13,
13,
15,
15,
17,
17,
17,
17,
9,
9,
2,
2,
2,
2,
2,
2,
7,
7,
10,
10,
13,
13,
12,
12,
7,
7,
3,
3,
1,
1,
5,
5,
5,
5,
7,
7,
0,
0,
2,
2,
3,
16,
15,
15,
14,
1,
2,
2,
1,
1,
1,
1,
7,
7,
12,
12,
4,
4,
0,
0,
0,
0,
0,
0,
0,
0,
-1,
-1,
0,
0,
6,
6,
6,
6,
4,
4,
6,
6,
11,
11,
11,
-1,
0,
0,
4,
4,
5,
5,
1,
15,
15,
15,
21,
6,
7,
7,
4,
4,
4,
4,
8,
8,
3,
15,
14,
26,
26,
26,
18,
2,
2,
2,
2,
13,
12,
12,
17,
17,
16,
16,
7,
7,
14,
14,
12,
12,
7,
7,
5,
16,
15,
36,
35,
35,
41,
18,
18,
4,
11,
11,
15,
4,
6,
6,
4,
4,
10,
10,
5,
5,
2,
2,
-1,
-1,
8,
8,
10,
10,
15,
15,
19,
19,
14,
2,
2,
22,
21,
42,
41,
41,
42,
31,
31,
20,
21,
4,
5,
5,
7,
19,
19,
30,
30,
30,
27,
16,
17,
17,
9,
9,
2,
2,
6,
6,
14,
14,
13,
13,
14,
14,
7,
7,
0,
0,
4,
4,
0,
0,
6,
6,
6,
6,
2,
2,
1,
1,
-1,
11,
10,
10,
5,
5,
3,
3,
6,
6,
4,
4,
3,
3,
0,
0,
-1,
-1,
1,
1,
4,
4,
9,
9,
4,
4,
-1,
10,
10,
10,
14,
14,
15,
30,
29,
29,
24,
3,
5,
5,
5,
5,
7,
7,
10,
10,
15,
15,
15,
15,
15,
15,
16,
16,
6,
6,
2,
2,
2,
2,
2,
2,
0,
0,
-1,
-1,
5,
5,
12,
12,
11,
11,
13,
13,
17,
17,
22,
11,
12,
0,
5,
5,
4,
4,
7,
7,
10,
10,
3,
3,
11,
11,
9,
9,
1,
1,
0,
0,
6,
6,
1,
21,
21,
21,
28,
28,
24,
24,
16,
3,
3,
3,
4,
4,
14,
14,
20,
20,
24,
24,
14,
0,
1,
1,
-1,
-1,
3,
3,
9,
9,
12,
0,
2,
2,
4,
4,
5,
16,
15,
15,
17,
17,
15,
15,
6,
6,
2,
27,
26,
62,
61,
61,
59,
29,
30,
2,
3,
3,
12,
26,
25,
25,
34,
34,
37,
37,
32,
19,
20,
7,
8,
8,
7,
7,
7,
7,
5,
5,
0,
0,
8,
8,
14,
14,
19,
19,
19,
19,
11,
11,
5,
5,
9,
9,
7,
7,
6,
6,
14,
14,
19,
19,
14,
2,
3,
3,
9,
9,
7,
7,
7,
7,
8,
8,
0,
0,
2,
16,
15,
15,
13,
2,
2,
2,
6,
18,
18,
18,
25,
25,
23,
23,
18,
18,
11,
0,
1,
1,
10,
10,
16,
16,
25,
25,
29,
29,
22,
8,
8,
8,
7,
20,
19,
19,
18,
6,
6,
6,
-1,
-1,
3,
3,
0,
0,
2,
22,
22,
48,
47,
47,
22,
22,
22,
5,
20,
36,
35,
35,
33,
33,
30,
30,
25,
25,
17,
17,
14,
14,
8,
8,
6,
6,
0,
14,
13,
13,
17,
17,
23,
23,
28,
28,
33,
33,
25,
9,
10,
10,
1,
15,
14,
26,
24,
24,
20,
20,
18,
18,
23,
23,
20,
7,
7,
22,
21,
50,
50,
50,
43,
22,
22,
2,
2,
2,
0,
0,
6,
6,
15,
15,
9,
9,
4,
27,
27,
42,
41,
41,
38,
27,
28,
15,
17,
0,
2,
2,
11,
11,
11,
11,
11,
11,
10,
10,
7,
7,
2,
2,
5,
5,
15,
15,
16,
16,
15,
15,
18,
18,
15,
2,
2,
2,
6,
6,
3,
3,
7,
7,
6,
6,
7,
7,
11,
11,
10,
10,
4,
4,
0,
0,
0,
0,
1,
1,
5,
5,
8,
8,
13,
13,
16,
16,
9,
9,
0,
0,
8,
8,
11,
11,
12,
12,
10,
10,
7,
7,
1,
16,
15,
36,
35,
35,
36,
16,
16,
0,
2,
14,
13,
13,
15,
15,
8,
8,
11,
22,
21,
21,
18,
3,
4,
4,
1,
1,
4,
4,
6,
6,
4,
4,
0,
0,
3,
3,
11,
11,
13,
13,
10,
10,
8,
8,
11,
11,
6,
6,
-1,
-1,
3,
3,
2,
2,
8,
8,
10,
10,
1,
1,
5,
5,
4,
4,
2,
2,
4,
4,
9,
9,
6,
6,
4,
34,
33,
46,
45,
34,
34,
34,
28,
17,
17,
1,
4,
15,
14,
14,
22,
22,
29,
29,
35,
35,
26,
14,
14,
14,
11,
11,
12,
12,
7,
7,
3,
3,
7,
7,
9,
9,
17,
17,
24,
24,
25,
25,
28,
6,
6,
6,
7,
7,
14,
31,
30,
15,
15,
3,
5,
5,
8,
8,
16,
27,
26,
26,
17,
17,
18,
18,
11,
11,
7,
7,
14,
14,
5,
5,
1,
1,
4,
4,
7,
7,
8,
8,
8,
8,
1,
1,
2,
2,
0,
0,
4,
4,
10,
10,
8,
8,
9,
9,
8,
8,
8,
8,
6,
6,
1,
1,
3,
3,
0,
0,
7,
7,
1,
1,
3,
3,
4,
4,
10,
10,
17,
17,
11,
0,
4,
18,
17,
28,
27,
15,
15,
1,
2,
2,
8,
8,
12,
12,
10,
10,
2,
2,
4,
4,
10,
10,
11,
-1,
0,
0,
8,
8,
6,
6,
-1,
-1,
2,
2,
7,
7,
12,
12,
18,
18,
15,
2,
3,
3,
5,
5,
6,
6,
8,
8,
6,
6,
1,
1,
0,
0,
1,
1,
6,
6,
7,
7,
5,
5,
1,
1,
2,
2,
4,
4,
3,
3,
3,
3,
5,
5,
10,
10,
12,
12,
4,
4,
0,
0,
2,
2,
7,
7,
7,
7,
2,
2,
7,
7,
8,
8,
14,
14,
14,
2,
3,
3,
2,
2,
7,
7,
8,
8,
7,
7,
5,
5,
3,
3,
5,
5,
3,
3,
5,
5,
13,
13,
9,
9,
9,
9,
8,
8,
2,
2,
11,
11,
7,
7,
2,
2,
9,
9,
7,
7,
0,
0,
-1,
-1,
1,
12,
12,
26,
25,
25,
16,
0,
2,
2,
7,
21,
20,
20,
11,
11,
11,
31,
31,
31,
36,
36,
32,
6,
7,
7,
10,
10,
16,
28,
27,
27,
31,
18,
18,
18,
9,
9,
5,
5,
0,
0,
-1,
-1,
0,
0,
3,
18,
17,
17,
19,
7,
8,
8,
4,
4,
7,
22,
22,
22,
21,
21,
16,
16,
8,
8,
7,
7,
14,
14,
14,
14,
13,
13,
22,
22,
21,
9,
10,
-1,
0,
16,
16,
16,
20,
20,
10,
-1,
0,
0,
0,
0,
5,
5,
3,
3,
-1,
-1,
1,
1,
4,
4,
5,
5,
3,
3,
8,
8,
14,
14,
7,
7,
3,
3,
5,
5,
10,
10,
10,
-1,
2,
2,
6,
6,
0,
0,
5,
5,
10,
10,
3,
3,
2,
2,
1,
1,
0,
0,
0,
0,
4,
4,
7,
7,
4,
4,
6,
6,
7,
7,
6,
6,
2,
2,
0,
0,
2,
2,
3,
3,
3,
3,
1,
1,
-1,
-1,
0,
0,
0,
0,
3,
3,
7,
7,
8,
8,
5,
5,
-1,
-1,
3,
3,
0,
0,
0,
0,
6,
6,
7,
7,
3,
3,
9,
9,
13,
13,
5,
5,
6,
6,
8,
8,
3,
3,
4,
21,
20,
20,
28,
13,
14,
0,
4,
4,
11,
11,
10,
10,
8,
8,
4,
4,
2,
2,
2,
2,
1,
1,
8,
19,
18,
18,
18,
2,
2,
2,
1,
16,
16,
30,
28,
54,
54,
67,
66,
28,
28,
5,
11,
26,
25,
25,
31,
31,
25,
25,
16,
16,
19,
19,
25,
25,
22,
8,
10,
10,
1,
1,
2,
2,
10,
10,
13,
13,
10,
10,
11,
11,
11,
11,
11,
11,
14,
14,
12,
12,
15,
15,
19,
34,
33,
20,
20,
3,
7,
7,
14,
14,
20,
20,
24,
24,
28,
28,
26,
26,
22,
22,
19,
3,
6,
30,
30,
30,
32,
16,
16,
0,
1,
1,
3,
3,
2,
2,
8,
8,
0,
0,
7,
7,
5,
5,
2,
2,
7,
7,
4,
4,
2,
2,
0,
0,
-1,
-1,
2,
2,
3,
3,
3,
3,
6,
6,
5,
5,
4,
4,
-1,
-1,
2,
2,
4,
4,
6,
6,
4,
4,
0,
0,
4,
4,
5,
5,
7,
24,
23,
23,
20,
20,
11,
0,
2,
2,
0,
0,
3,
3,
12,
0,
2,
2,
12,
12,
16,
16,
19,
19,
21,
21,
14,
1,
2,
2,
2,
2,
4,
4,
6,
6,
4,
4,
0,
0,
2,
2,
4,
4,
6,
6,
10,
22,
21,
39,
39,
39,
32,
13,
13,
1,
6,
20,
19,
19,
16,
16,
11,
11,
12,
12,
15,
15,
11,
11,
13,
13,
17,
17,
11,
-1,
0,
0,
1,
1,
3,
3,
8,
8,
17,
17,
26,
26,
19,
19,
26,
26,
30,
30,
22,
4,
4,
4,
14,
27,
27,
27,
28,
28,
23,
10,
11,
11,
3,
3,
4,
4,
7,
7,
7,
7,
0,
0,
0,
0,
8,
8,
10,
10,
1,
1,
1,
1,
4,
4,
7,
7,
4,
4,
2,
2,
10,
10,
20,
20,
13,
0,
2,
2,
-1,
-1,
-1,
-1,
1,
1,
-1,
-1,
1,
1,
4,
4,
4,
4,
-1,
-1,
4,
4,
0,
0,
0,
0,
-1,
-1,
3,
3,
2,
2,
3,
3,
2,
2,
5,
5,
6,
6,
0,
0,
4,
4,
2,
2,
4,
4,
8,
8,
4,
4,
3,
3,
5,
5,
-1,
-1,
0,
0,
1,
14,
14,
36,
36,
36,
29,
4,
7,
24,
23,
23,
29,
29,
28,
28,
21,
8,
9,
9,
6,
18,
17,
17,
25,
25,
29,
15,
16,
16,
6,
6,
9,
28,
28,
28,
24,
24,
15,
15,
16,
2,
3,
15,
14,
28,
27,
27,
32,
19,
19,
1,
2,
2,
2,
2,
1,
1,
5,
5,
4,
4,
0,
0,
5,
5,
11,
11,
11,
11,
7,
7,
4,
4,
4,
4,
2,
2,
3,
3,
2,
16,
15,
15,
22,
22,
18,
5,
5,
5,
6,
6,
10,
10,
9,
9,
4,
4,
-1,
-1,
0,
0,
0,
0,
7,
7,
10,
10,
11,
11,
7,
7,
-1,
-1,
6,
6,
14,
14,
9,
9,
8,
8,
6,
6,
12,
26,
26,
26,
17,
2,
3,
3,
5,
5,
8,
8,
10,
10,
8,
8,
5,
5,
3,
3,
4,
4,
7,
7,
6,
6,
7,
7,
8,
8,
4,
4,
0,
0,
4,
4,
2,
2,
1,
1,
6,
6,
5,
5,
11,
11,
8,
8,
8,
8,
13,
1,
2,
15,
15,
15,
10,
10,
0,
0,
6,
6,
1,
1,
6,
6,
7,
7,
8,
8,
14,
14,
17,
17,
12,
-1,
0,
0,
-1,
-1,
6,
6,
16,
27,
27,
45,
44,
44,
46,
23,
23,
1,
2,
2,
6,
6,
9,
24,
23,
23,
24,
24,
22,
22,
27,
27,
22,
2,
2,
2,
0,
0,
2,
19,
18,
31,
30,
30,
27,
16,
17,
0,
2,
13,
12,
12,
22,
22,
24,
24,
17,
3,
4,
4,
10,
10,
15,
15,
16,
16,
20,
20,
13,
13,
9,
9,
4,
4,
0,
0,
0,
0,
0,
0,
7,
7,
9,
9,
13,
13,
5,
5,
7,
7,
10,
10,
1,
1,
0,
0,
2,
14,
13,
13,
13,
0,
5,
27,
26,
26,
33,
19,
19,
7,
8,
8,
0,
12,
11,
11,
20,
20,
19,
19,
12,
0,
1,
1,
4,
4,
1,
1,
4,
4,
8,
8,
0,
0,
0,
0,
-1,
-1,
2,
2,
11,
27,
26,
26,
31,
19,
20,
7,
7,
7,
1,
1,
8,
8,
8,
8,
9,
9,
9,
9,
2,
2,
1,
1,
4,
4,
3,
3,
0,
0,
-1,
-1,
7,
7,
11,
11,
14,
14,
14,
14,
5,
5,
6,
6,
11,
11,
4,
4,
0,
0,
0,
0,
2,
2,
-1,
-1,
2,
2,
7,
7,
2,
2,
3,
3,
5,
5,
6,
6,
7,
7,
0,
0,
7,
7,
13,
13,
14,
14,
19,
19,
25,
25,
21,
7,
7,
7,
9,
26,
26,
26,
21,
6,
6,
6,
0,
0,
2,
2,
7,
7,
6,
6,
4,
4,
4,
4,
7,
7,
3,
3,
12,
12,
19,
19,
13,
13,
6,
6,
3,
16,
16,
16,
24,
24,
19,
19,
13,
0,
1,
15,
15,
15,
23,
23,
29,
29,
31,
31,
31,
31,
34,
21,
22,
1,
3,
16,
15,
31,
30,
30,
30,
30,
21,
21,
28,
28,
31,
20,
20,
6,
8,
8,
0,
0,
8,
8,
7,
7,
8,
8,
14,
14,
13,
13,
5,
5,
0,
0,
3,
3,
10,
10,
1,
21,
20,
40,
40,
40,
40,
40,
31,
31,
25,
25,
16,
1,
5,
23,
23,
34,
33,
33,
31,
31,
27,
27,
24,
24,
14,
14,
13,
13,
11,
11,
9,
9,
1,
1,
11,
30,
29,
29,
34,
34,
32,
32,
26,
26,
22,
6,
7,
20,
20,
20,
25,
25,
20,
6,
7,
21,
20,
33,
31,
16,
17,
2,
6,
6,
14,
14,
20,
20,
20,
20,
15,
15,
6,
6,
5,
5,
2,
2,
1,
1,
9,
9,
14,
14,
16,
16,
11,
11,
5,
5,
0,
0,
0,
0,
4,
4,
10,
10,
8,
8,
0,
0,
1,
1,
5,
5,
12,
12,
7,
7,
11,
26,
25,
25,
17,
2,
2,
2,
2,
2,
5,
16,
16,
16,
25,
25,
28,
11,
12,
12,
16,
16,
26,
26,
22,
22,
13,
13,
6,
6,
0,
0,
0,
0,
8,
8,
0,
0,
8,
8,
10,
10,
10,
-1,
0,
0,
0,
0,
0,
0,
3,
3,
8,
8,
1,
1,
4,
4,
0,
0,
0,
0,
1,
1,
5,
26,
24,
24,
32,
32,
41,
41,
48,
22,
22,
4,
14,
36,
35,
35,
41,
41,
38,
38,
31,
17,
18,
18,
11,
11,
7,
7,
3,
3,
0,
0,
6,
17,
16,
16,
22,
22,
28,
28,
28,
28,
31,
31,
33,
12,
14,
2,
18,
18,
17,
17,
26,
26,
29,
10,
10,
10,
7,
7,
14,
1,
2,
2,
10,
10,
9,
9,
1,
1,
5,
5,
0,
0,
3,
3,
2,
2,
4,
4,
0,
20,
20,
20,
27,
7,
8,
8,
4,
4,
4,
4,
5,
5,
2,
2,
8,
8,
6,
6,
8,
8,
9,
9,
0,
0,
6,
6,
4,
4,
2,
2,
2,
2,
1,
1,
3,
3,
5,
5,
2,
2,
6,
6,
4,
16,
16,
16,
14,
14,
15,
26,
26,
26,
31,
31,
27,
3,
4,
22,
21,
21,
28,
28,
23,
23,
26,
26,
28,
28,
20,
6,
6,
6,
5,
5,
11,
11,
11,
11,
10,
10,
8,
8,
1,
1,
-1,
-1,
8,
8,
9,
9,
7,
7,
9,
9,
4,
4,
-1,
-1,
0,
0,
1,
1,
2,
2,
8,
8,
13,
13,
18,
18,
13,
0,
2,
2,
3,
3,
10,
10,
14,
1,
2,
2,
4,
4,
1,
1,
5,
5,
10,
10,
16,
16,
16,
16,
8,
8,
2,
2,
11,
22,
21,
7,
8,
8,
4,
4,
0,
0,
3,
3,
7,
7,
0,
0,
9,
9,
18,
18,
24,
24,
27,
11,
12,
-1,
-1,
-1,
3,
3,
0,
0,
6,
6,
14,
14,
10,
10,
12,
12,
10,
10,
2,
2,
3,
3,
6,
6,
9,
9,
8,
8,
7,
7,
3,
3,
-1,
-1,
2,
2,
3,
3,
0,
0,
2,
2,
4,
4,
2,
2,
5,
5,
9,
9,
6,
6,
7,
7,
15,
15,
13,
13,
7,
7,
10,
22,
22,
22,
18,
0,
2,
2,
8,
8,
3,
3,
0,
0,
2,
2,
5,
5,
5,
5,
7,
7,
9,
9,
2,
2,
6,
6,
10,
10,
8,
8,
3,
3,
1,
1,
0,
0,
2,
2,
3,
3,
-1,
-1,
-1,
-1,
-1,
-1,
0,
0,
-1,
-1,
0,
0,
0,
0,
0,
0,
5,
5,
11,
11,
19,
19,
15,
15,
11,
11,
2,
2,
2,
2,
10,
22,
21,
21,
15,
2,
8,
27,
27,
27,
28,
28,
19,
19,
10,
10,
6,
6,
3,
3,
3,
3,
4,
4,
0,
0,
5,
26,
26,
40,
39,
39,
32,
7,
7,
7,
7,
7,
10,
10,
12,
12,
6,
6,
0,
0,
0,
0,
9,
9,
9,
9,
6,
6,
3,
3,
0,
0,
3,
3,
2,
2,
2,
2,
7,
7,
7,
7,
0,
0,
-1,
-1,
3,
3,
7,
7,
11,
11,
15,
15,
12,
12,
5,
5,
2,
2,
-1,
-1,
1,
1,
7,
19,
18,
18,
21,
21,
22,
22,
22,
2,
2,
16,
15,
27,
27,
41,
41,
41,
47,
32,
32,
4,
5,
31,
31,
43,
42,
26,
26,
8,
9,
9,
6,
6,
7,
7,
2,
2,
0,
0,
0,
0,
-1,
-1,
1,
1,
10,
10,
18,
18,
14,
14,
5,
5,
1,
1,
0,
0,
4,
4,
9,
9,
3,
3,
2,
2,
1,
1,
10,
10,
14,
14,
8,
8,
0,
14,
13,
13,
14,
14,
7,
7,
5,
5,
5,
5,
2,
2,
3,
3,
2,
2,
0,
0,
4,
4,
4,
4,
2,
2,
-1,
-1,
0,
0,
7,
7,
8,
32,
32,
32,
40,
40,
32,
15,
16,
2,
6,
23,
23,
23,
28,
16,
17,
17,
12,
12,
11,
11,
8,
8,
6,
6,
5,
5,
3,
3,
8,
8,
9,
9,
10,
10,
6,
6,
1,
1,
3,
3,
2,
2,
4,
4,
1,
1,
0,
0,
6,
6,
7,
7,
7,
18,
18,
18,
26,
26,
22,
7,
8,
8,
13,
26,
25,
25,
29,
29,
26,
26,
18,
18,
11,
11,
2,
2,
8,
8,
17,
17,
22,
22,
18,
18,
8,
8,
0,
0,
8,
8,
18,
5,
5,
5,
7,
7,
11,
11,
10,
10,
5,
5,
1,
1,
2,
2,
1,
1,
6,
6,
3,
3,
4,
4,
2,
2,
2,
16,
16,
16,
23,
9,
10,
10,
5,
5,
4,
4,
2,
2,
7,
7,
8,
8,
14,
14,
14,
0,
0,
18,
17,
17,
15,
3,
4,
4,
3,
3,
-1,
12,
11,
11,
14,
14,
14,
14,
14,
2,
8,
31,
31,
31,
38,
26,
26,
6,
7,
7,
9,
9,
6,
6,
1,
1,
1,
1,
6,
6,
5,
5,
3,
3,
0,
0,
9,
9,
10,
10,
8,
8,
0,
0,
2,
2,
8,
8,
5,
5,
2,
2,
0,
0,
6,
6,
11,
11,
11,
11,
15,
15,
10,
10,
5,
5,
0,
0,
0,
0,
5,
5,
10,
10,
6,
6,
0,
0,
9,
9,
15,
15,
7,
7,
1,
1,
4,
19,
18,
18,
21,
21,
12,
-1,
0,
0,
3,
3,
1,
1,
-1,
-1,
4,
4,
10,
10,
7,
7,
6,
6,
9,
9,
6,
6,
2,
2,
5,
5,
5,
5,
5,
5,
6,
6,
8,
8,
13,
13,
8,
8,
5,
5,
4,
4,
6,
21,
19,
8,
8,
8,
3,
3,
2,
2,
0,
0,
2,
2,
2,
2,
5,
5,
10,
10,
10,
10,
4,
4,
6,
6,
16,
16,
11,
11,
2,
2,
6,
6,
7,
7,
7,
7,
12,
12,
20,
20,
25,
25,
17,
0,
1,
1,
10,
23,
22,
22,
31,
31,
38,
38,
39,
12,
12,
12,
22,
22,
28,
10,
11,
-1,
0,
0,
1,
1,
3,
3,
2,
2,
3,
3,
10,
10,
14,
14,
9,
9,
3,
3,
1,
1,
5,
5,
7,
7,
9,
9,
10,
10,
12,
12,
8,
8,
5,
5,
12,
12,
12,
0,
2,
2,
7,
7,
11,
11,
10,
10,
6,
6,
3,
16,
16,
16,
19,
5,
5,
5,
4,
4,
10,
10,
18,
7,
7,
7,
8,
8,
5,
5,
0,
0,
6,
6,
8,
8,
7,
7,
1,
1,
10,
10,
10,
10,
3,
3,
3,
3,
7,
7,
4,
4,
2,
2,
-1,
-1,
2,
2,
4,
4,
4,
4,
2,
2,
-1,
-1,
3,
3,
3,
3,
6,
6,
2,
2,
4,
4,
4,
4,
11,
11,
11,
11,
17,
17,
10,
10,
2,
2,
4,
4,
9,
9,
1,
1,
4,
4,
12,
12,
13,
13,
8,
8,
0,
0,
0,
0,
-1,
-1,
0,
0,
5,
5,
1,
1,
1,
1,
5,
5,
5,
5,
6,
6,
13,
13,
9,
9,
9,
9,
10,
-1,
0,
0,
3,
3,
3,
3,
10,
10,
2,
2,
1,
1,
4,
4,
2,
2,
3,
3,
7,
7,
1,
1,
4,
4,
4,
4,
13,
13,
14,
14,
17,
3,
3,
3,
10,
10,
10,
10,
6,
6,
11,
26,
26,
26,
31,
7,
7,
7,
11,
11,
18,
18,
12,
0,
5,
5,
9,
9,
2,
2,
6,
6,
7,
7,
1,
1,
5,
5,
2,
14,
13,
13,
14,
14,
8,
8,
4,
4,
14,
14,
14,
14,
18,
18,
18,
18,
14,
1,
2,
2,
3,
3,
5,
5,
6,
6,
6,
6,
8,
21,
20,
2,
3,
22,
21,
21,
25,
25,
17,
5,
5,
5,
-1,
11,
11,
11,
15,
0,
0,
0,
8,
8,
13,
13,
11,
11,
11,
11,
6,
6,
2,
2,
4,
4,
4,
4,
0,
0,
5,
16,
16,
28,
28,
28,
32,
19,
19,
2,
5,
19,
18,
18,
21,
21,
18,
18,
11,
11,
3,
3,
2,
2,
2,
2,
6,
6,
5,
5,
0,
0,
5,
5,
