EMG_S1/DS0131.CSV

Memory Length,4000,
Trigger Level,0.00000e+00,
Source,CH1,
Probe,1.0X,
Vertical Units,V,
Vertical Scale,1.00000e+00,
Vertical Position,4.00000e-02,
Horizontal Units,S,
Horizontal Scale,1.00000e-01,
Horizontal Position,0.0000000e+00,
Horizontal Mode,Roll Mode,
Waveform Last Dot Address,4000,
Sampling Period,4.00000e-04,
Firmware,V1.14,
Time, ,
Mode,Fast,
Waveform Data,
20,
7,
7,
7,
0,
0,
7,
22,
21,
21,
27,
15,
15,
15,
10,
10,
5,
5,
10,
10,
20,
20,
18,
18,
15,
15,
12,
12,
7,
7,
1,
1,
4,
4,
4,
4,
9,
9,
6,
6,
2,
2,
9,
9,
16,
16,
16,
16,
7,
7,
0,
0,
0,
0,
1,
1,
5,
5,
13,
13,
13,
13,
9,
9,
10,
-1,
0,
15,
15,
15,
18,
18,
13,
13,
11,
11,
14,
14,
16,
4,
5,
5,
8,
8,
14,
14,
13,
13,
14,
14,
20,
20,
15,
-1,
0,
0,
6,
6,
10,
10,
15,
15,
20,
20,
12,
12,
6,
6,
3,
3,
1,
12,
11,
11,
15,
15,
11,
0,
0,
0,
10,
10,
16,
37,
36,
36,
31,
5,
6,
6,
9,
9,
7,
7,
3,
3,
6,
17,
17,
17,
22,
22,
23,
23,
14,
14,
8,
8,
1,
14,
14,
14,
13,
13,
6,
6,
10,
10,
10,
10,
18,
18,
27,
27,
17,
1,
2,
2,
11,
11,
8,
8,
1,
1,
7,
7,
15,
15,
12,
12,
4,
4,
1,
1,
4,
4,
2,
2,
-1,
-1,
5,
19,
19,
19,
15,
15,
13,
13,
15,
2,
3,
3,
7,
7,
14,
14,
14,
14,
21,
4,
4,
30,
29,
29,
26,
6,
6,
6,
6,
25,
24,
24,
23,
6,
6,
6,
1,
1,
3,
3,
10,
10,
17,
17,
17,
17,
17,
17,
9,
9,
5,
5,
7,
7,
8,
8,
2,
2,
2,
2,
6,
6,
0,
0,
6,
6,
13,
13,
20,
20,
15,
15,
17,
3,
3,
3,
-1,
-1,
1,
20,
19,
30,
29,
29,
28,
10,
11,
11,
4,
4,
4,
4,
2,
2,
6,
6,
0,
0,
2,
2,
6,
6,
9,
9,
14,
14,
16,
16,
16,
16,
10,
10,
7,
7,
15,
15,
13,
13,
12,
12,
7,
7,
3,
3,
3,
3,
8,
22,
22,
22,
23,
23,
26,
26,
27,
27,
20,
20,
10,
10,
1,
20,
20,
40,
40,
40,
31,
19,
19,
19,
14,
14,
12,
12,
8,
8,
12,
24,
23,
23,
19,
19,
14,
14,
7,
7,
0,
0,
6,
6,
6,
6,
2,
2,
0,
12,
11,
11,
11,
11,
5,
5,
6,
6,
10,
10,
19,
19,
15,
0,
2,
14,
14,
14,
18,
18,
14,
0,
2,
2,
9,
9,
6,
6,
12,
0,
0,
0,
8,
8,
14,
14,
16,
16,
13,
0,
0,
16,
15,
15,
20,
20,
14,
14,
11,
11,
10,
10,
6,
6,
2,
2,
8,
19,
18,
18,
16,
16,
11,
11,
14,
14,
21,
21,
15,
4,
4,
4,
2,
2,
1,
1,
7,
7,
16,
16,
22,
22,
16,
0,
1,
1,
4,
4,
3,
3,
1,
1,
0,
0,
4,
4,
10,
10,
1,
1,
5,
5,
2,
2,
6,
6,
16,
16,
16,
16,
24,
40,
39,
39,
32,
9,
10,
10,
10,
26,
25,
25,
34,
34,
34,
34,
31,
31,
30,
12,
12,
12,
11,
26,
25,
25,
19,
7,
7,
7,
6,
6,
4,
4,
-1,
-1,
3,
3,
5,
5,
11,
11,
7,
7,
3,
3,
6,
6,
2,
2,
1,
1,
8,
8,
7,
7,
2,
2,
0,
0,
1,
1,
4,
4,
11,
11,
16,
16,
11,
0,
1,
1,
5,
5,
7,
7,
11,
11,
9,
9,
6,
6,
4,
4,
10,
10,
8,
8,
0,
0,
8,
8,
11,
11,
11,
11,
10,
10,
4,
4,
-1,
10,
9,
9,
9,
9,
5,
5,
1,
1,
10,
10,
10,
-1,
1,
1,
8,
8,
11,
11,
5,
5,
12,
12,
18,
18,
8,
8,
7,
7,
2,
2,
15,
15,
9,
9,
12,
12,
4,
4,
0,
0,
9,
9,
12,
12,
9,
9,
6,
6,
8,
19,
18,
18,
21,
10,
10,
10,
8,
8,
8,
8,
17,
17,
22,
5,
14,
14,
8,
8,
0,
0,
2,
2,
2,
16,
15,
15,
11,
11,
2,
2,
6,
6,
3,
3,
10,
10,
10,
10,
2,
2,
11,
11,
9,
9,
4,
4,
0,
0,
6,
6,
10,
10,
18,
18,
17,
17,
12,
12,
2,
23,
23,
35,
34,
23,
24,
24,
22,
22,
15,
1,
2,
2,
1,
16,
16,
16,
17,
2,
4,
4,
12,
12,
15,
15,
17,
6,
7,
7,
13,
2,
7,
28,
27,
14,
14,
1,
4,
4,
0,
0,
5,
5,
5,
5,
15,
15,
13,
13,
8,
8,
5,
5,
0,
0,
5,
5,
4,
4,
2,
2,
3,
3,
4,
4,
-1,
-1,
2,
2,
0,
0,
2,
14,
12,
27,
26,
26,
16,
0,
3,
3,
3,
3,
4,
4,
2,
2,
5,
5,
4,
4,
0,
0,
1,
1,
6,
6,
14,
14,
15,
15,
8,
8,
1,
13,
12,
12,
14,
14,
8,
8,
1,
1,
6,
6,
3,
3,
1,
1,
1,
19,
18,
18,
11,
-1,
0,
0,
0,
0,
10,
10,
3,
3,
6,
6,
13,
13,
7,
7,
13,
13,
10,
10,
3,
3,
10,
10,
17,
17,
9,
9,
7,
7,
2,
2,
6,
6,
4,
4,
4,
4,
12,
12,
15,
15,
20,
20,
24,
24,
20,
20,
14,
14,
4,
4,
0,
0,
5,
5,
13,
13,
18,
18,
19,
19,
22,
22,
14,
14,
12,
25,
24,
45,
44,
44,
46,
33,
34,
3,
3,
3,
10,
23,
22,
46,
46,
46,
54,
54,
60,
48,
48,
25,
25,
2,
3,
3,
12,
27,
27,
27,
34,
21,
21,
8,
9,
9,
9,
21,
20,
20,
15,
4,
5,
5,
7,
7,
12,
12,
3,
3,
4,
4,
14,
14,
20,
20,
23,
11,
11,
11,
11,
11,
18,
18,
21,
21,
20,
20,
17,
17,
13,
13,
4,
4,
5,
5,
14,
14,
15,
15,
6,
6,
0,
0,
7,
7,
16,
16,
9,
9,
3,
15,
14,
14,
5,
5,
10,
27,
27,
27,
35,
24,
25,
11,
13,
13,
7,
18,
16,
16,
15,
1,
4,
18,
17,
17,
23,
23,
14,
14,
7,
7,
12,
12,
14,
14,
16,
16,
12,
12,
17,
17,
16,
0,
2,
13,
12,
28,
27,
46,
44,
44,
39,
23,
23,
11,
12,
12,
12,
12,
3,
3,
0,
0,
6,
17,
17,
17,
25,
25,
26,
26,
20,
20,
15,
4,
4,
4,
-1,
-1,
2,
18,
17,
31,
31,
31,
26,
13,
13,
0,
1,
1,
4,
4,
8,
8,
13,
13,
13,
13,
14,
3,
4,
4,
11,
11,
10,
10,
15,
26,
26,
14,
15,
0,
3,
15,
14,
14,
16,
2,
9,
25,
23,
23,
15,
15,
10,
10,
16,
31,
30,
5,
6,
23,
23,
39,
38,
38,
45,
45,
47,
47,
42,
22,
23,
23,
17,
3,
7,
31,
30,
47,
46,
59,
59,
48,
49,
37,
38,
38,
42,
28,
28,
6,
16,
35,
34,
34,
32,
32,
26,
14,
15,
15,
14,
14,
19,
5,
6,
6,
9,
9,
12,
12,
9,
9,
6,
6,
6,
6,
5,
5,
1,
1,
7,
7,
0,
0,
4,
4,
0,
0,
6,
6,
13,
13,
14,
14,
12,
12,
9,
9,
2,
2,
6,
6,
4,
4,
9,
28,
27,
27,
25,
7,
8,
8,
4,
4,
12,
29,
28,
28,
33,
33,
33,
33,
32,
18,
18,
2,
4,
16,
15,
15,
6,
6,
4,
4,
9,
9,
10,
10,
3,
3,
9,
25,
24,
24,
22,
22,
23,
23,
13,
-1,
1,
1,
7,
20,
19,
6,
6,
6,
0,
13,
12,
12,
20,
20,
19,
19,
27,
27,
32,
21,
22,
2,
5,
17,
16,
16,
14,
14,
11,
11,
14,
26,
25,
25,
30,
30,
29,
5,
11,
25,
23,
8,
9,
9,
2,
2,
11,
11,
13,
13,
4,
4,
0,
0,
0,
0,
2,
2,
6,
6,
3,
3,
0,
0,
2,
2,
2,
2,
5,
5,
5,
5,
4,
4,
6,
20,
20,
20,
18,
18,
14,
14,
10,
10,
3,
3,
-1,
-1,
0,
0,
1,
1,
7,
7,
2,
2,
8,
8,
9,
9,
17,
17,
14,
14,
14,
14,
13,
13,
7,
7,
10,
23,
22,
22,
17,
3,
3,
22,
22,
22,
22,
2,
3,
26,
25,
25,
16,
3,
7,
7,
4,
4,
0,
0,
2,
20,
19,
19,
27,
11,
12,
12,
9,
9,
8,
8,
6,
6,
10,
10,
4,
4,
7,
7,
14,
14,
13,
13,
4,
4,
3,
3,
8,
19,
19,
19,
15,
0,
2,
18,
18,
18,
18,
18,
14,
3,
4,
4,
1,
14,
12,
32,
32,
32,
39,
16,
18,
2,
8,
8,
16,
1,
3,
17,
16,
27,
27,
14,
15,
4,
22,
22,
27,
27,
23,
23,
30,
30,
26,
26,
19,
5,
5,
5,
7,
30,
29,
41,
40,
40,
35,
35,
30,
30,
24,
11,
12,
12,
8,
22,
20,
20,
24,
24,
21,
21,
13,
13,
10,
10,
8,
8,
11,
11,
14,
1,
2,
14,
14,
14,
7,
7,
3,
3,
4,
4,
0,
0,
3,
3,
8,
8,
6,
32,
31,
45,
44,
24,
24,
8,
9,
9,
7,
7,
7,
22,
22,
22,
19,
2,
7,
7,
14,
14,
14,
14,
20,
2,
4,
23,
22,
22,
30,
30,
28,
12,
13,
13,
15,
15,
13,
1,
5,
19,
19,
40,
39,
39,
44,
26,
27,
3,
4,
16,
15,
15,
11,
11,
1,
1,
2,
2,
0,
0,
0,
0,
3,
3,
6,
6,
7,
7,
2,
2,
2,
2,
0,
0,
2,
2,
2,
2,
0,
0,
22,
22,
22,
35,
34,
34,
26,
5,
5,
5,
5,
5,
6,
18,
17,
31,
30,
30,
34,
34,
28,
28,
21,
21,
14,
2,
10,
24,
23,
36,
35,
56,
55,
55,
48,
11,
12,
12,
15,
28,
27,
27,
27,
27,
26,
26,
16,
16,
8,
8,
1,
1,
6,
6,
10,
10,
10,
25,
25,
25,
34,
34,
26,
11,
12,
12,
16,
16,
13,
2,
14,
31,
30,
30,
30,
30,
32,
32,
30,
14,
14,
3,
3,
14,
14,
31,
30,
30,
24,
4,
5,
5,
5,
5,
8,
8,
10,
10,
3,
15,
14,
14,
10,
10,
4,
4,
7,
7,
10,
10,
12,
12,
2,
2,
5,
5,
1,
1,
3,
3,
0,
0,
8,
8,
12,
12,
2,
2,
10,
10,
13,
1,
4,
4,
10,
10,
5,
5,
5,
5,
5,
5,
4,
4,
6,
6,
3,
37,
37,
49,
47,
23,
23,
1,
1,
12,
11,
25,
24,
11,
11,
11,
11,
11,
8,
24,
23,
7,
7,
7,
0,
0,
1,
1,
7,
7,
1,
12,
11,
11,
18,
5,
5,
5,
1,
20,
19,
19,
22,
22,
13,
13,
16,
16,
15,
15,
13,
1,
5,
5,
14,
14,
16,
16,
21,
10,
11,
11,
9,
28,
28,
28,
27,
27,
36,
36,
37,
25,
26,
4,
10,
26,
25,
40,
40,
40,
43,
43,
38,
26,
26,
11,
11,
11,
2,
2,
3,
3,
6,
6,
9,
23,
23,
23,
27,
27,
26,
15,
15,
15,
8,
8,
6,
6,
16,
16,
23,
7,
7,
7,
7,
7,
10,
10,
1,
1,
0,
0,
5,
5,
12,
12,
10,
10,
3,
3,
3,
3,
11,
29,
28,
28,
30,
17,
18,
0,
2,
18,
17,
17,
20,
20,
20,
32,
31,
18,
19,
2,
2,
2,
4,
4,
2,
2,
10,
10,
3,
3,
0,
0,
4,
15,
15,
15,
12,
0,
5,
5,
15,
15,
18,
18,
14,
14,
15,
15,
10,
10,
4,
4,
7,
7,
2,
2,
11,
11,
19,
8,
8,
8,
2,
2,
1,
1,
7,
7,
6,
6,
7,
7,
9,
9,
3,
3,
-1,
14,
12,
26,
25,
3,
4,
4,
4,
4,
14,
33,
32,
32,
32,
32,
30,
7,
7,
22,
21,
36,
36,
36,
38,
38,
30,
30,
29,
29,
37,
22,
23,
1,
3,
3,
11,
33,
32,
46,
46,
61,
61,
61,
60,
40,
41,
15,
15,
4,
20,
42,
42,
42,
46,
46,
41,
41,
34,
19,
20,
20,
18,
18,
10,
21,
21,
40,
39,
39,
32,
16,
17,
0,
2,
2,
7,
7,
3,
3,
6,
6,
14,
14,
8,
8,
4,
4,
8,
8,
3,
3,
4,
18,
17,
17,
21,
21,
15,
3,
4,
4,
0,
0,
7,
7,
5,
5,
4,
15,
15,
15,
20,
20,
13,
13,
6,
6,
-1,
-1,
1,
1,
2,
2,
3,
3,
5,
5,
0,
0,
7,
7,
2,
2,
7,
7,
7,
7,
16,
16,
21,
21,
27,
13,
13,
13,
16,
16,
14,
1,
1,
1,
0,
0,
4,
4,
2,
2,
7,
7,
5,
5,
2,
2,
3,
3,
1,
1,
2,
19,
18,
18,
16,
0,
1,
18,
18,
18,
15,
3,
4,
4,
2,
2,
7,
7,
8,
8,
-1,
-1,
-1,
-1,
0,
0,
4,
15,
14,
2,
2,
13,
12,
26,
25,
25,
23,
2,
2,
2,
7,
34,
34,
49,
48,
30,
31,
12,
13,
13,
12,
12,
15,
2,
3,
31,
31,
43,
42,
42,
33,
33,
29,
18,
18,
5,
6,
6,
1,
1,
0,
0,
0,
0,
6,
20,
20,
20,
18,
18,
22,
42,
41,
41,
31,
20,
4,
4,
4,
4,
1,
15,
15,
15,
23,
23,
25,
25,
16,
16,
12,
12,
11,
0,
0,
0,
2,
2,
2,
2,
1,
1,
3,
3,
6,
6,
11,
11,
18,
18,
28,
45,
44,
44,
34,
3,
3,
15,
15,
15,
20,
20,
27,
27,
29,
29,
21,
21,
13,
13,
4,
4,
13,
13,
17,
4,
4,
4,
2,
2,
3,
3,
8,
8,
7,
7,
8,
8,
9,
9,
1,
1,
2,
2,
5,
5,
1,
1,
-1,
-1,
8,
30,
30,
30,
33,
17,
17,
2,
4,
4,
9,
9,
14,
14,
20,
20,
16,
16,
11,
11,
8,
8,
11,
0,
1,
1,
2,
2,
6,
6,
5,
5,
1,
1,
-1,
-1,
0,
0,
4,
4,
7,
21,
21,
21,
23,
7,
7,
7,
3,
3,
10,
10,
13,
0,
1,
1,
6,
6,
12,
12,
11,
11,
6,
6,
4,
4,
7,
7,
5,
5,
1,
17,
17,
17,
19,
6,
7,
7,
1,
1,
1,
1,
5,
5,
7,
7,
6,
6,
11,
0,
0,
0,
8,
27,
27,
51,
50,
50,
59,
33,
34,
6,
15,
42,
42,
42,
48,
48,
46,
32,
32,
18,
19,
19,
15,
15,
10,
10,
6,
6,
3,
25,
24,
38,
37,
37,
31,
31,
22,
11,
11,
11,
10,
10,
14,
14,
12,
12,
4,
4,
6,
6,
4,
4,
3,
3,
4,
4,
-1,
11,
10,
21,
20,
20,
17,
17,
19,
3,
3,
23,
22,
22,
30,
30,
22,
6,
6,
6,
8,
8,
1,
1,
6,
6,
0,
0,
1,
1,
1,
1,
0,
15,
15,
15,
11,
0,
2,
2,
0,
0,
0,
0,
8,
20,
20,
20,
21,
9,
10,
10,
8,
8,
13,
13,
4,
16,
16,
16,
22,
10,
11,
11,
10,
10,
4,
19,
19,
32,
31,
31,
33,
33,
23,
23,
16,
2,
3,
14,
14,
27,
26,
26,
21,
3,
4,
4,
8,
8,
1,
1,
-1,
-1,
0,
0,
8,
8,
16,
16,
16,
16,
25,
3,
5,
24,
24,
24,
27,
27,
35,
35,
29,
15,
15,
15,
9,
9,
13,
2,
3,
21,
20,
20,
15,
-1,
1,
1,
0,
0,
2,
2,
3,
3,
11,
11,
16,
16,
19,
19,
15,
15,
16,
0,
0,
0,
1,
1,
7,
7,
16,
16,
11,
11,
4,
25,
24,
41,
40,
27,
27,
8,
8,
8,
4,
4,
3,
3,
10,
10,
14,
14,
15,
15,
17,
2,
3,
3,
1,
1,
3,
3,
8,
8,
8,
8,
10,
10,
5,
20,
19,
30,
30,
30,
27,
27,
18,
6,
6,
6,
5,
20,
19,
19,
27,
27,
27,
16,
18,
2,
2,
18,
17,
17,
26,
14,
15,
15,
20,
20,
28,
28,
26,
9,
10,
10,
3,
17,
16,
34,
32,
32,
32,
20,
21,
21,
16,
16,
16,
16,
14,
14,
14,
0,
1,
1,
5,
5,
14,
41,
41,
41,
50,
35,
35,
16,
16,
16,
15,
1,
2,
2,
10,
10,
7,
7,
9,
9,
0,
0,
1,
15,
14,
14,
10,
10,
5,
5,
0,
0,
2,
2,
8,
8,
8,
8,
10,
-1,
0,
0,
6,
6,
11,
11,
7,
7,
-1,
10,
9,
9,
17,
17,
12,
12,
4,
4,
0,
0,
7,
7,
4,
4,
5,
5,
2,
2,
3,
3,
10,
10,
4,
16,
16,
16,
22,
22,
23,
4,
4,
4,
9,
9,
4,
4,
4,
4,
4,
4,
11,
11,
14,
14,
14,
14,
14,
14,
8,
8,
3,
3,
8,
8,
3,
3,
10,
10,
19,
19,
12,
-1,
2,
2,
5,
5,
0,
14,
12,
24,
23,
23,
22,
2,
16,
16,
14,
14,
10,
10,
10,
21,
21,
21,
13,
2,
7,
7,
8,
8,
0,
0,
1,
1,
1,
1,
0,
0,
-1,
-1,
2,
2,
3,
3,
10,
10,
12,
0,
3,
14,
12,
12,
21,
21,
14,
14,
7,
7,
0,
0,
2,
2,
0,
0,
2,
2,
-1,
11,
9,
9,
8,
8,
2,
17,
16,
27,
27,
27,
21,
21,
13,
2,
3,
3,
10,
10,
20,
20,
20,
20,
16,
16,
8,
8,
6,
6,
10,
10,
0,
0,
0,
0,
3,
3,
0,
0,
6,
6,
2,
2,
2,
2,
3,
3,
6,
6,
2,
15,
15,
15,
19,
19,
14,
1,
2,
2,
1,
1,
5,
5,
13,
13,
17,
17,
10,
10,
2,
2,
10,
10,
11,
11,
14,
14,
14,
14,
11,
11,
11,
11,
8,
8,
1,
1,
9,
9,
7,
7,
5,
5,
4,
4,
14,
14,
13,
2,
3,
3,
11,
11,
16,
5,
6,
6,
-1,
-1,
5,
5,
0,
14,
13,
13,
10,
10,
4,
4,
2,
18,
17,
17,
21,
3,
3,
3,
5,
5,
8,
8,
4,
4,
0,
0,
7,
7,
9,
23,
21,
21,
14,
14,
6,
6,
-1,
-1,
4,
4,
7,
7,
2,
2,
5,
5,
12,
12,
10,
10,
0,
14,
14,
14,
14,
3,
3,
3,
7,
7,
10,
10,
15,
15,
7,
7,
6,
20,
18,
18,
15,
15,
8,
8,
4,
15,
13,
13,
8,
8,
5,
5,
6,
6,
7,
7,
2,
2,
0,
0,
6,
6,
10,
21,
20,
20,
14,
0,
4,
4,
7,
7,
2,
2,
3,
17,
16,
16,
24,
10,
10,
10,
2,
2,
4,
4,
3,
14,
13,
2,
2,
2,
-1,
-1,
6,
19,
18,
18,
12,
12,
8,
8,
6,
6,
2,
2,
0,
12,
12,
24,
24,
24,
21,
7,
8,
8,
2,
2,
4,
4,
1,
1,
8,
8,
8,
8,
9,
9,
18,
18,
23,
23,
21,
21,
16,
16,
7,
7,
11,
25,
23,
23,
26,
26,
29,
29,
28,
16,
17,
1,
2,
2,
10,
10,
12,
12,
5,
5,
2,
2,
6,
6,
1,
16,
16,
28,
27,
27,
22,
1,
2,
2,
4,
4,
1,
1,
2,
2,
0,
0,
10,
10,
16,
16,
17,
17,
10,
10,
11,
11,
12,
12,
10,
10,
9,
9,
2,
2,
6,
6,
15,
15,
16,
16,
7,
7,
9,
9,
11,
0,
3,
17,
16,
28,
27,
13,
14,
-1,
0,
0,
-1,
-1,
-1,
-1,
6,
6,
1,
14,
13,
27,
26,
26,
19,
19,
15,
3,
4,
4,
6,
6,
11,
22,
21,
32,
31,
18,
19,
19,
10,
10,
2,
2,
2,
2,
0,
0,
2,
2,
6,
6,
7,
7,
8,
8,
10,
-1,
-1,
-1,
-1,
-1,
-1,
-1,
-1,
-1,
4,
4,
6,
6,
4,
4,
6,
6,
0,
0,
-1,
-1,
1,
1,
0,
14,
14,
14,
22,
22,
31,
31,
30,
12,
12,
-1,
0,
0,
-1,
14,
13,
13,
18,
18,
22,
22,
14,
14,
11,
11,
13,
13,
8,
8,
0,
0,
6,
6,
3,
3,
4,
4,
10,
10,
11,
11,
4,
4,
-1,
-1,
-1,
-1,
1,
1,
0,
0,
2,
2,
4,
4,
12,
12,
10,
10,
2,
2,
-1,
-1,
-1,
-1,
6,
6,
13,
13,
14,
3,
5,
5,
7,
7,
14,
14,
22,
22,
20,
8,
8,
8,
14,
14,
6,
6,
12,
30,
28,
28,
37,
21,
21,
6,
7,
7,
2,
2,
0,
0,
0,
14,
13,
13,
10,
10,
15,
30,
28,
28,
31,
17,
17,
2,
8,
8,
10,
10,
4,
4,
11,
0,
0,
0,
3,
3,
11,
11,
12,
12,
6,
6,
2,
2,
3,
3,
-1,
-1,
1,
1,
3,
3,
6,
6,
1,
1,
6,
6,
11,
11,
8,
8,
2,
2,
1,
12,
11,
11,
14,
14,
4,
4,
5,
5,
14,
14,
14,
14,
6,
6,
6,
6,
6,
6,
7,
7,
2,
2,
1,
1,
5,
5,
7,
7,
7,
7,
2,
2,
11,
11,
15,
15,
17,
17,
18,
18,
13,
13,
12,
12,
9,
9,
5,
5,
6,
18,
17,
17,
17,
17,
10,
-1,
0,
13,
13,
13,
6,
6,
6,
6,
8,
8,
1,
1,
2,
2,
7,
7,
9,
9,
10,
10,
1,
1,
8,
8,
8,
8,
11,
0,
2,
14,
12,
12,
9,
9,
1,
12,
11,
11,
10,
-1,
2,
2,
11,
11,
7,
7,
4,
4,
0,
0,
2,
2,
0,
0,
0,
0,
0,
0,
0,
0,
0,
15,
14,
14,
19,
19,
11,
0,
2,
2,
10,
10,
6,
6,
0,
0,
5,
5,
8,
8,
5,
5,
13,
13,
9,
9,
3,
3,
5,
5,
1,
1,
7,
7,
8,
8,
8,
8,
1,
1,
8,
8,
4,
4,
2,
2,
7,
7,
16,
16,
17,
17,
13,
13,
10,
10,
2,
2,
7,
7,
10,
10,
6,
6,
4,
4,
14,
14,
11,
-1,
0,
0,
5,
5,
7,
7,
11,
11,
13,
1,
4,
4,
9,
9,
0,
0,
1,
1,
0,
0,
0,
0,
4,
4,
6,
6,
-1,
-1,
6,
27,
27,
27,
30,
8,
9,
9,
5,
5,
2,
2,
2,
2,
10,
10,
9,
9,
7,
7,
14,
14,
17,
17,
8,
8,
0,
0,
2,
2,
7,
7,
9,
9,
2,
2,
4,
4,
4,
4,
0,
0,
4,
15,
15,
15,
21,
21,
14,
14,
6,
6,
7,
7,
7,
7,
2,
2,
9,
9,
18,
18,
16,
16,
7,
7,
0,
0,
-1,
-1,
4,
4,
7,
7,
7,
7,
9,
9,
8,
8,
0,
0,
6,
17,
17,
28,
27,
27,
25,
14,
15,
15,
5,
5,
8,
8,
10,
-1,
1,
1,
11,
11,
19,
19,
20,
7,
7,
7,
4,
4,
-1,
-1,
4,
4,
2,
2,
0,
0,
5,
5,
6,
6,
6,
6,
14,
31,
30,
30,
38,
13,
14,
3,
11,
23,
22,
22,
20,
20,
16,
0,
2,
2,
1,
1,
0,
0,
4,
4,
3,
3,
0,
0,
6,
6,
2,
15,
15,
15,
8,
8,
5,
5,
12,
12,
18,
18,
17,
17,
15,
3,
4,
18,
18,
30,
30,
30,
24,
8,
8,
8,
2,
2,
11,
11,
5,
5,
1,
1,
3,
22,
22,
22,
12,
0,
6,
6,
14,
14,
12,
1,
2,
2,
6,
6,
11,
11,
8,
8,
10,
10,
18,
18,
14,
0,
0,
0,
4,
4,
11,
22,
21,
21,
16,
16,
10,
10,
6,
6,
0,
15,
15,
15,
23,
23,
21,
2,
3,
3,
9,
9,
1,
1,
2,
2,
2,
2,
6,
6,
1,
1,
4,
4,
6,
22,
22,
22,
19,
7,
8,
8,
5,
5,
7,
7,
8,
23,
22,
22,
22,
22,
27,
27,
17,
17,
9,
9,
8,
8,
17,
17,
19,
19,
26,
26,
17,
17,
14,
14,
16,
2,
2,
20,
20,
20,
16,
0,
0,
0,
7,
7,
3,
3,
9,
9,
7,
7,
9,
9,
9,
9,
6,
6,
0,
16,
16,
28,
28,
28,
23,
23,
19,
19,
17,
17,
13,
1,
4,
18,
18,
18,
24,
24,
25,
25,
23,
23,
14,
0,
3,
3,
4,
4,
10,
22,
21,
21,
22,
22,
20,
20,
21,
7,
7,
7,
3,
14,
14,
14,
21,
21,
