EMG_S1/DS0135.CSV

Memory Length,4000,
Trigger Level,0.00000e+00,
Source,CH1,
Probe,1.0X,
Vertical Units,V,
Vertical Scale,1.00000e+00,
Vertical Position,4.00000e-02,
Horizontal Units,S,
Horizontal Scale,1.00000e-01,
Horizontal Position,0.0000000e+00,
Horizontal Mode,Roll Mode,
Waveform Last Dot Address,4000,
Sampling Period,4.00000e-04,
Firmware,V1.14,
Time, ,
Mode,Fast,
Waveform Data,
18,
0,
1,
1,
7,
7,
6,
6,
6,
6,
1,
1,
0,
0,
1,
1,
9,
9,
8,
8,
6,
6,
7,
7,
7,
7,
5,
5,
3,
3,
2,
2,
2,
2,
2,
2,
-1,
-1,
1,
1,
3,
3,
4,
4,
4,
4,
-1,
-1,
3,
3,
4,
4,
3,
3,
6,
6,
3,
3,
1,
1,
0,
0,
0,
0,
0,
0,
5,
5,
6,
6,
6,
6,
3,
3,
0,
0,
-1,
-1,
6,
6,
10,
10,
8,
8,
6,
6,
4,
4,
2,
2,
7,
7,
8,
8,
0,
0,
2,
2,
4,
4,
6,
6,
12,
12,
18,
18,
14,
0,
2,
2,
10,
10,
18,
18,
26,
26,
23,
2,
2,
2,
12,
12,
12,
12,
5,
5,
4,
4,
9,
9,
5,
5,
5,
5,
13,
13,
13,
13,
6,
6,
4,
4,
2,
2,
4,
4,
5,
5,
5,
5,
7,
7,
1,
1,
4,
4,
8,
8,
6,
6,
2,
2,
1,
1,
5,
5,
4,
4,
2,
2,
4,
4,
5,
5,
8,
8,
5,
5,
3,
3,
2,
13,
12,
25,
25,
25,
29,
29,
24,
24,
27,
14,
15,
2,
10,
26,
25,
25,
32,
32,
27,
10,
10,
-1,
0,
0,
1,
1,
7,
7,
14,
2,
3,
3,
1,
1,
8,
8,
12,
12,
13,
13,
16,
16,
15,
15,
6,
6,
0,
0,
1,
1,
1,
1,
8,
8,
13,
13,
10,
10,
1,
1,
1,
1,
1,
18,
18,
18,
22,
22,
15,
0,
2,
21,
20,
33,
32,
16,
16,
1,
2,
2,
5,
5,
1,
12,
11,
11,
16,
16,
20,
20,
24,
24,
16,
1,
1,
1,
3,
3,
3,
3,
3,
3,
7,
7,
13,
13,
14,
14,
18,
18,
22,
22,
15,
2,
2,
2,
7,
7,
9,
9,
4,
4,
2,
2,
6,
6,
2,
2,
3,
3,
7,
7,
11,
11,
7,
7,
4,
4,
-1,
14,
13,
13,
23,
23,
20,
8,
8,
8,
5,
5,
8,
8,
4,
4,
6,
6,
8,
8,
4,
4,
3,
3,
7,
7,
8,
8,
0,
0,
0,
0,
0,
0,
0,
0,
3,
3,
7,
7,
8,
8,
7,
7,
3,
3,
0,
12,
11,
24,
23,
23,
18,
18,
11,
11,
6,
6,
-1,
-1,
6,
6,
5,
5,
2,
2,
4,
4,
2,
2,
0,
0,
2,
2,
0,
0,
3,
3,
1,
1,
4,
4,
1,
1,
11,
11,
14,
14,
12,
12,
7,
7,
0,
0,
5,
5,
11,
11,
9,
9,
6,
6,
6,
6,
4,
4,
7,
7,
11,
11,
14,
14,
7,
7,
0,
0,
1,
1,
0,
0,
6,
6,
9,
9,
6,
6,
2,
2,
2,
2,
6,
6,
6,
6,
0,
0,
4,
15,
14,
14,
18,
18,
11,
11,
2,
2,
5,
5,
6,
6,
2,
2,
9,
9,
7,
7,
0,
0,
4,
4,
12,
12,
13,
2,
3,
3,
1,
1,
0,
0,
3,
3,
7,
7,
11,
11,
14,
14,
12,
12,
10,
10,
4,
4,
7,
7,
14,
14,
7,
7,
2,
2,
4,
4,
4,
4,
2,
22,
21,
39,
39,
39,
35,
14,
15,
0,
3,
18,
18,
18,
25,
25,
17,
17,
7,
7,
5,
5,
0,
12,
11,
27,
26,
26,
32,
32,
29,
4,
7,
18,
17,
17,
10,
10,
14,
14,
19,
19,
15,
15,
6,
6,
0,
0,
1,
1,
0,
0,
1,
1,
1,
1,
1,
1,
-1,
-1,
1,
1,
0,
11,
10,
10,
16,
16,
19,
40,
39,
39,
42,
18,
18,
3,
13,
27,
27,
27,
24,
24,
26,
26,
34,
20,
20,
2,
5,
16,
16,
16,
17,
17,
17,
17,
24,
24,
27,
27,
20,
5,
6,
6,
11,
11,
10,
10,
4,
4,
10,
22,
21,
21,
27,
27,
22,
22,
21,
8,
8,
8,
12,
12,
14,
14,
6,
6,
11,
11,
18,
18,
14,
14,
18,
18,
25,
25,
17,
3,
4,
4,
2,
2,
6,
6,
10,
10,
10,
10,
9,
9,
8,
8,
4,
4,
11,
11,
11,
11,
6,
6,
5,
5,
0,
0,
4,
4,
9,
9,
7,
7,
3,
3,
3,
3,
4,
4,
0,
0,
3,
3,
2,
2,
2,
2,
-1,
-1,
4,
4,
10,
10,
4,
4,
-1,
-1,
0,
0,
-1,
-1,
6,
6,
12,
12,
9,
9,
1,
1,
5,
5,
6,
6,
4,
4,
2,
2,
1,
1,
2,
2,
0,
0,
3,
3,
7,
7,
2,
2,
9,
9,
15,
15,
11,
0,
0,
0,
-1,
-1,
3,
3,
1,
1,
3,
3,
3,
3,
-1,
-1,
0,
0,
7,
7,
7,
7,
9,
9,
11,
11,
3,
3,
7,
7,
16,
16,
22,
22,
19,
8,
9,
9,
6,
6,
11,
11,
2,
2,
6,
6,
4,
16,
15,
15,
19,
8,
8,
8,
0,
0,
5,
20,
20,
20,
22,
22,
23,
23,
22,
5,
6,
6,
15,
32,
31,
31,
32,
32,
30,
16,
17,
2,
2,
2,
0,
0,
9,
9,
14,
14,
9,
9,
11,
11,
9,
9,
0,
0,
2,
2,
2,
2,
0,
0,
1,
1,
6,
6,
1,
1,
0,
0,
1,
1,
-1,
-1,
2,
2,
4,
4,
9,
9,
14,
14,
7,
7,
6,
6,
7,
7,
1,
1,
5,
5,
6,
6,
3,
3,
2,
2,
0,
0,
5,
5,
11,
11,
11,
11,
12,
12,
9,
9,
6,
6,
6,
6,
14,
14,
13,
13,
18,
36,
35,
35,
28,
28,
26,
26,
17,
1,
2,
18,
17,
17,
25,
25,
26,
26,
23,
23,
20,
20,
11,
11,
10,
10,
6,
6,
5,
18,
17,
17,
17,
17,
15,
15,
16,
16,
9,
9,
0,
0,
-1,
-1,
-1,
-1,
-2,
-2,
2,
2,
2,
2,
0,
0,
0,
0,
-1,
11,
10,
10,
11,
11,
6,
6,
0,
0,
0,
0,
2,
2,
0,
0,
0,
0,
2,
2,
0,
0,
-1,
-1,
4,
4,
3,
3,
2,
2,
7,
7,
10,
10,
0,
0,
8,
8,
3,
3,
6,
6,
14,
3,
4,
4,
4,
4,
2,
2,
3,
15,
15,
15,
12,
12,
5,
5,
2,
2,
1,
1,
4,
4,
6,
6,
6,
6,
5,
5,
5,
5,
11,
11,
6,
6,
8,
8,
10,
10,
1,
1,
0,
0,
-1,
-1,
6,
6,
13,
13,
4,
4,
4,
4,
3,
3,
5,
5,
10,
10,
6,
6,
5,
5,
10,
10,
2,
14,
13,
13,
14,
14,
12,
12,
6,
6,
5,
18,
17,
17,
18,
18,
10,
-1,
1,
1,
0,
0,
1,
1,
8,
8,
9,
9,
6,
6,
1,
14,
13,
13,
15,
15,
14,
14,
8,
8,
10,
10,
13,
13,
6,
6,
1,
1,
5,
5,
2,
2,
9,
9,
10,
10,
5,
5,
0,
0,
9,
9,
15,
15,
19,
4,
4,
17,
16,
34,
33,
33,
32,
20,
22,
11,
12,
12,
3,
3,
2,
2,
11,
11,
18,
18,
19,
31,
31,
46,
45,
26,
27,
4,
10,
21,
19,
7,
7,
7,
3,
3,
4,
4,
-1,
-1,
6,
19,
19,
3,
3,
3,
12,
12,
10,
10,
12,
12,
15,
15,
13,
13,
7,
7,
4,
4,
0,
27,
26,
37,
34,
11,
11,
-1,
-1,
-1,
0,
0,
8,
8,
15,
15,
13,
13,
8,
8,
10,
10,
14,
14,
11,
-1,
1,
16,
16,
34,
34,
34,
38,
38,
32,
32,
28,
28,
31,
16,
16,
3,
14,
38,
38,
38,
47,
47,
43,
43,
35,
16,
16,
1,
5,
19,
18,
18,
17,
17,
15,
15,
12,
12,
15,
15,
19,
8,
10,
-1,
2,
2,
2,
2,
6,
6,
9,
9,
5,
5,
2,
2,
3,
3,
0,
0,
4,
4,
9,
9,
10,
10,
15,
15,
11,
11,
8,
8,
1,
12,
11,
11,
17,
17,
18,
18,
15,
15,
7,
7,
5,
5,
14,
14,
9,
9,
3,
3,
2,
2,
5,
5,
13,
13,
12,
0,
1,
1,
4,
4,
2,
2,
0,
0,
10,
24,
23,
23,
18,
1,
2,
13,
12,
12,
16,
16,
15,
15,
18,
5,
6,
6,
8,
8,
13,
13,
12,
12,
10,
-1,
0,
0,
2,
2,
2,
2,
0,
0,
3,
3,
4,
4,
4,
4,
0,
0,
3,
3,
6,
6,
10,
10,
4,
4,
3,
3,
2,
2,
0,
0,
1,
1,
8,
8,
3,
3,
-1,
-1,
5,
5,
5,
5,
0,
0,
2,
2,
0,
13,
12,
12,
2,
14,
14,
14,
20,
20,
25,
3,
4,
4,
10,
10,
7,
7,
3,
3,
3,
3,
11,
11,
15,
15,
10,
10,
4,
4,
8,
19,
18,
18,
17,
17,
10,
10,
4,
22,
21,
35,
34,
34,
41,
22,
22,
1,
2,
2,
4,
4,
11,
11,
8,
8,
6,
6,
8,
8,
6,
6,
5,
5,
2,
2,
7,
7,
2,
2,
6,
6,
14,
14,
14,
14,
6,
6,
6,
19,
18,
18,
18,
7,
7,
7,
3,
3,
3,
3,
5,
5,
1,
1,
1,
1,
8,
8,
11,
11,
6,
6,
3,
3,
0,
0,
5,
5,
12,
12,
15,
15,
14,
1,
1,
1,
6,
6,
0,
0,
4,
4,
2,
2,
10,
10,
9,
9,
1,
1,
11,
11,
13,
13,
7,
7,
11,
11,
17,
17,
15,
2,
2,
14,
12,
24,
23,
23,
17,
17,
11,
11,
6,
6,
3,
3,
6,
6,
3,
3,
6,
6,
9,
9,
10,
10,
8,
8,
7,
7,
4,
4,
5,
5,
9,
9,
9,
9,
1,
1,
4,
4,
1,
1,
0,
0,
4,
4,
4,
4,
0,
0,
5,
5,
2,
2,
-1,
-1,
6,
6,
3,
3,
6,
6,
11,
11,
14,
14,
8,
8,
0,
15,
15,
15,
24,
24,
20,
20,
22,
22,
16,
2,
3,
3,
3,
3,
7,
7,
11,
11,
17,
17,
21,
21,
22,
10,
10,
10,
13,
13,
16,
0,
1,
1,
3,
3,
3,
3,
11,
11,
9,
9,
6,
6,
0,
0,
2,
2,
2,
2,
4,
4,
6,
6,
2,
2,
6,
6,
12,
12,
10,
10,
4,
4,
2,
2,
8,
8,
9,
9,
0,
0,
6,
6,
3,
14,
13,
13,
9,
9,
0,
0,
4,
4,
3,
22,
22,
22,
28,
28,
31,
31,
32,
18,
18,
1,
2,
18,
17,
34,
33,
33,
38,
38,
33,
22,
22,
22,
13,
13,
7,
7,
1,
1,
9,
9,
15,
15,
18,
18,
12,
12,
8,
8,
8,
8,
10,
10,
6,
6,
6,
18,
17,
17,
25,
25,
21,
10,
11,
11,
8,
8,
17,
17,
18,
18,
17,
17,
10,
10,
2,
2,
2,
2,
3,
3,
3,
3,
3,
3,
3,
3,
6,
6,
11,
11,
1,
14,
13,
13,
11,
11,
1,
1,
3,
3,
3,
3,
-1,
-1,
3,
3,
2,
2,
5,
5,
2,
13,
12,
12,
11,
0,
2,
2,
7,
7,
14,
14,
13,
13,
7,
7,
1,
1,
3,
3,
4,
4,
3,
27,
26,
49,
48,
48,
41,
10,
11,
11,
11,
11,
10,
10,
4,
4,
12,
12,
22,
22,
27,
27,
20,
9,
10,
10,
4,
4,
0,
0,
4,
4,
0,
0,
4,
4,
0,
0,
2,
2,
-1,
10,
9,
20,
19,
19,
22,
22,
17,
17,
26,
26,
33,
33,
26,
5,
5,
5,
11,
24,
23,
23,
27,
27,
21,
21,
14,
14,
8,
8,
6,
6,
7,
7,
0,
0,
3,
15,
14,
14,
22,
22,
13,
0,
0,
0,
6,
22,
21,
21,
19,
19,
10,
10,
3,
15,
15,
15,
14,
14,
14,
14,
15,
26,
24,
24,
28,
14,
14,
3,
14,
31,
30,
30,
25,
7,
7,
7,
6,
6,
2,
2,
-1,
20,
19,
31,
26,
3,
5,
22,
21,
21,
19,
19,
11,
11,
9,
9,
7,
7,
10,
26,
25,
25,
20,
20,
16,
16,
15,
2,
2,
16,
15,
15,
23,
23,
21,
21,
18,
18,
10,
-1,
1,
1,
7,
7,
8,
23,
22,
22,
30,
16,
16,
16,
16,
16,
13,
13,
13,
13,
15,
1,
3,
14,
12,
12,
22,
22,
26,
26,
28,
28,
22,
10,
11,
11,
4,
4,
5,
5,
12,
12,
14,
14,
14,
14,
8,
8,
2,
2,
4,
4,
3,
3,
9,
9,
8,
8,
8,
20,
20,
20,
20,
5,
5,
5,
0,
0,
0,
0,
7,
18,
17,
17,
13,
13,
10,
10,
8,
8,
7,
7,
4,
4,
1,
1,
1,
1,
-1,
-1,
2,
2,
3,
3,
4,
4,
0,
0,
9,
9,
16,
16,
15,
15,
25,
25,
34,
34,
34,
15,
15,
1,
5,
5,
14,
14,
19,
19,
16,
16,
13,
13,
18,
18,
26,
26,
25,
11,
11,
0,
2,
2,
5,
5,
9,
9,
13,
13,
22,
22,
30,
30,
30,
15,
16,
2,
3,
3,
4,
15,
14,
14,
18,
18,
17,
17,
8,
8,
2,
2,
2,
2,
6,
6,
6,
6,
14,
14,
23,
12,
12,
-1,
2,
2,
8,
8,
9,
9,
5,
5,
6,
6,
8,
8,
6,
6,
2,
14,
14,
14,
14,
14,
8,
8,
8,
8,
3,
3,
0,
0,
5,
5,
2,
2,
4,
4,
6,
6,
12,
12,
7,
7,
6,
6,
4,
4,
5,
5,
3,
3,
2,
2,
7,
7,
14,
14,
11,
11,
11,
11,
16,
16,
18,
18,
16,
0,
2,
2,
10,
10,
14,
14,
13,
13,
11,
11,
10,
10,
8,
8,
8,
8,
2,
2,
6,
25,
24,
24,
31,
19,
20,
6,
6,
6,
5,
16,
14,
14,
13,
13,
11,
11,
6,
6,
3,
3,
1,
1,
3,
3,
2,
2,
4,
4,
3,
3,
-1,
-1,
0,
0,
-1,
-1,
-1,
-1,
2,
2,
6,
6,
14,
14,
21,
21,
18,
5,
5,
5,
5,
5,
7,
7,
6,
6,
6,
6,
15,
15,
13,
2,
2,
2,
-2,
-2,
2,
14,
14,
14,
10,
10,
2,
2,
4,
4,
-1,
-1,
0,
0,
4,
4,
1,
1,
7,
7,
7,
7,
2,
2,
8,
8,
8,
8,
7,
7,
11,
11,
18,
18,
14,
0,
1,
1,
5,
5,
9,
9,
7,
7,
1,
1,
1,
1,
7,
7,
8,
8,
3,
3,
1,
1,
0,
0,
2,
2,
0,
0,
3,
3,
0,
0,
2,
2,
6,
6,
16,
16,
15,
0,
0,
0,
1,
13,
12,
32,
32,
32,
30,
30,
22,
22,
13,
13,
4,
4,
11,
35,
34,
45,
44,
44,
42,
27,
29,
29,
22,
22,
17,
5,
5,
5,
0,
11,
10,
10,
17,
17,
15,
15,
22,
22,
25,
25,
17,
17,
7,
7,
10,
10,
12,
12,
15,
15,
11,
11,
6,
6,
13,
13,
19,
2,
3,
14,
12,
24,
24,
24,
26,
10,
10,
10,
5,
5,
11,
11,
7,
7,
3,
14,
12,
12,
17,
17,
15,
15,
7,
7,
0,
0,
0,
0,
2,
2,
5,
5,
6,
6,
8,
8,
10,
10,
8,
8,
5,
5,
6,
6,
7,
7,
8,
8,
7,
7,
3,
3,
-1,
-1,
5,
5,
8,
8,
8,
8,
2,
2,
1,
1,
0,
0,
0,
0,
3,
3,
5,
5,
2,
2,
4,
4,
6,
6,
1,
1,
2,
2,
0,
0,
6,
6,
8,
8,
5,
5,
5,
5,
3,
15,
14,
14,
20,
20,
17,
17,
8,
8,
4,
16,
16,
16,
17,
17,
10,
10,
6,
23,
23,
23,
21,
6,
7,
7,
8,
8,
3,
3,
0,
0,
5,
5,
14,
14,
18,
18,
18,
18,
18,
18,
13,
13,
5,
5,
1,
1,
8,
8,
11,
11,
14,
14,
15,
15,
16,
16,
14,
14,
8,
8,
5,
5,
-1,
-1,
0,
0,
1,
1,
1,
1,
2,
2,
0,
0,
2,
2,
1,
1,
-1,
-1,
7,
18,
17,
17,
18,
2,
7,
26,
26,
26,
24,
8,
9,
9,
1,
1,
3,
3,
2,
2,
11,
11,
2,
2,
5,
5,
5,
5,
8,
19,
19,
19,
19,
19,
12,
12,
10,
10,
7,
21,
20,
20,
18,
18,
20,
20,
19,
19,
14,
14,
7,
7,
1,
12,
12,
23,
22,
10,
11,
11,
10,
10,
10,
-1,
-1,
-1,
1,
1,
10,
10,
10,
-1,
1,
1,
11,
11,
8,
8,
3,
3,
4,
4,
8,
8,
7,
7,
4,
4,
0,
0,
1,
1,
4,
4,
8,
8,
9,
9,
8,
8,
10,
10,
11,
11,
10,
10,
8,
8,
7,
7,
4,
4,
0,
0,
5,
5,
6,
6,
2,
2,
5,
5,
5,
5,
3,
3,
-1,
-1,
-1,
-1,
0,
0,
8,
21,
20,
20,
11,
11,
10,
10,
18,
18,
10,
-1,
0,
0,
5,
5,
0,
0,
3,
3,
6,
6,
8,
8,
13,
13,
4,
19,
19,
32,
31,
7,
7,
7,
15,
15,
20,
20,
13,
13,
9,
9,
6,
6,
1,
1,
0,
0,
0,
0,
5,
5,
6,
6,
1,
1,
2,
2,
2,
2,
0,
0,
-1,
-1,
4,
4,
7,
7,
5,
5,
7,
7,
6,
6,
4,
4,
8,
8,
8,
8,
0,
0,
0,
0,
1,
1,
4,
4,
10,
10,
2,
2,
10,
10,
19,
19,
21,
6,
6,
6,
6,
6,
11,
11,
4,
4,
2,
14,
12,
12,
14,
14,
9,
9,
13,
27,
26,
11,
12,
12,
8,
8,
11,
11,
15,
2,
2,
2,
0,
20,
20,
20,
26,
26,
25,
25,
20,
8,
10,
10,
1,
1,
9,
9,
14,
14,
17,
17,
26,
26,
28,
28,
25,
25,
21,
10,
11,
0,
3,
3,
10,
10,
8,
8,
2,
2,
-1,
-1,
3,
3,
9,
9,
9,
9,
0,
11,
10,
10,
7,
7,
5,
5,
7,
7,
4,
4,
0,
0,
8,
8,
15,
15,
13,
13,
7,
7,
8,
8,
5,
5,
2,
2,
9,
9,
14,
14,
20,
20,
17,
17,
9,
9,
7,
7,
9,
9,
12,
12,
19,
19,
21,
2,
4,
19,
18,
18,
21,
5,
6,
6,
9,
23,
23,
23,
31,
31,
27,
16,
16,
0,
1,
14,
13,
13,
22,
22,
21,
21,
23,
23,
23,
23,
23,
23,
15,
0,
1,
1,
7,
7,
11,
11,
14,
14,
12,
12,
11,
11,
7,
7,
1,
1,
7,
7,
10,
22,
22,
22,
26,
26,
21,
21,
21,
21,
12,
12,
14,
27,
26,
26,
28,
28,
24,
24,
15,
0,
2,
2,
7,
7,
6,
6,
2,
2,
0,
0,
2,
2,
-1,
-1,
0,
0,
0,
0,
4,
4,
6,
6,
10,
10,
16,
16,
15,
3,
3,
3,
0,
0,
0,
0,
0,
0,
0,
0,
0,
0,
10,
10,
14,
2,
2,
2,
5,
5,
11,
11,
18,
18,
18,
18,
11,
11,
8,
8,
3,
3,
8,
19,
18,
18,
23,
8,
9,
9,
5,
5,
0,
0,
0,
0,
0,
0,
2,
2,
2,
2,
1,
1,
9,
9,
14,
14,
12,
1,
2,
2,
4,
15,
14,
14,
9,
9,
12,
30,
29,
29,
28,
28,
22,
22,
15,
15,
7,
7,
10,
10,
8,
8,
3,
3,
0,
0,
2,
14,
14,
14,
22,
22,
20,
20,
15,
15,
11,
11,
10,
10,
2,
2,
-1,
-1,
-1,
-1,
1,
1,
6,
6,
13,
13,
8,
8,
4,
4,
11,
0,
2,
2,
0,
0,
0,
0,
2,
2,
3,
3,
-1,
11,
10,
10,
15,
15,
11,
11,
4,
4,
0,
0,
5,
5,
4,
4,
1,
1,
8,
8,
10,
10,
9,
9,
11,
0,
1,
12,
11,
11,
17,
17,
18,
18,
14,
14,
7,
7,
-1,
-1,
3,
3,
4,
4,
8,
8,
7,
7,
6,
6,
5,
5,
0,
0,
5,
5,
4,
4,
4,
4,
5,
5,
5,
5,
3,
3,
-1,
-1,
0,
0,
5,
5,
2,
2,
-1,
-1,
-1,
-1,
3,
3,
0,
0,
0,
0,
4,
4,
3,
3,
2,
2,
-1,
-1,
7,
7,
11,
11,
8,
8,
7,
18,
17,
17,
9,
9,
4,
4,
6,
6,
3,
3,
4,
4,
10,
10,
8,
8,
12,
12,
10,
10,
10,
10,
14,
14,
14,
3,
3,
15,
14,
25,
24,
24,
20,
0,
2,
2,
7,
7,
2,
2,
8,
8,
4,
4,
1,
1,
2,
2,
2,
2,
2,
2,
0,
0,
5,
5,
12,
12,
11,
11,
7,
7,
3,
3,
8,
8,
8,
8,
6,
6,
3,
3,
3,
3,
0,
0,
0,
0,
4,
4,
9,
9,
5,
5,
3,
3,
2,
2,
2,
2,
5,
5,
2,
2,
5,
5,
3,
3,
6,
6,
1,
1,
2,
2,
6,
6,
15,
15,
15,
15,
8,
8,
6,
6,
16,
5,
5,
5,
2,
2,
8,
8,
16,
16,
23,
23,
19,
8,
8,
8,
6,
6,
3,
3,
3,
3,
6,
6,
7,
7,
10,
10,
9,
9,
6,
6,
6,
6,
4,
4,
2,
2,
6,
6,
5,
5,
2,
2,
0,
0,
3,
3,
0,
0,
2,
2,
4,
4,
12,
12,
9,
9,
4,
4,
-1,
-1,
-1,
-1,
2,
2,
5,
5,
14,
14,
11,
0,
4,
4,
13,
13,
13,
13,
3,
3,
4,
4,
1,
1,
3,
3,
8,
8,
1,
15,
14,
14,
14,
14,
11,
11,
9,
9,
10,
10,
9,
9,
3,
3,
5,
5,
13,
13,
14,
14,
15,
15,
10,
10,
8,
8,
6,
6,
4,
4,
0,
0,
0,
0,
3,
3,
2,
2,
2,
2,
2,
2,
0,
0,
2,
2,
9,
9,
7,
7,
2,
2,
0,
0,
1,
1,
-1,
-1,
-1,
-1,
2,
2,
2,
2,
0,
0,
-1,
-1,
6,
6,
7,
7,
6,
6,
2,
2,
3,
19,
19,
19,
10,
10,
2,
2,
0,
0,
0,
0,
7,
7,
8,
8,
7,
7,
5,
5,
4,
4,
8,
8,
9,
9,
5,
5,
5,
5,
1,
17,
16,
16,
23,
23,
24,
24,
24,
24,
21,
21,
19,
3,
4,
4,
0,
0,
-1,
14,
14,
29,
28,
28,
30,
30,
21,
10,
11,
11,
3,
3,
2,
2,
0,
0,
4,
4,
6,
6,
7,
7,
10,
10,
14,
14,
13,
13,
14,
14,
10,
10,
6,
6,
3,
3,
2,
2,
1,
1,
1,
1,
5,
5,
0,
0,
8,
8,
1,
1,
0,
0,
0,
0,
6,
6,
10,
10,
7,
7,
0,
0,
-1,
-1,
5,
5,
4,
4,
3,
3,
0,
0,
2,
2,
8,
8,
11,
11,
15,
15,
22,
22,
16,
5,
6,
6,
-1,
-1,
6,
22,
21,
21,
25,
14,
15,
15,
9,
9,
11,
11,
11,
11,
6,
6,
0,
0,
2,
13,
12,
12,
16,
16,
14,
14,
13,
13,
15,
15,
9,
9,
9,
9,
6,
6,
1,
1,
-1,
-1,
-1,
-1,
3,
3,
4,
4,
5,
5,
3,
3,
1,
1,
2,
2,
1,
1,
2,
2,
3,
3,
-1,
-1,
5,
22,
22,
22,
19,
19,
12,
12,
10,
-1,
0,
0,
2,
2,
1,
1,
4,
4,
14,
14,
20,
20,
19,
19,
17,
17,
12,
12,
2,
2,
6,
6,
2,
2,
8,
8,
9,
30,
30,
47,
47,
47,
50,
29,
30,
2,
3,
22,
21,
32,
31,
31,
33,
33,
23,
23,
14,
14,
7,
7,
0,
0,
9,
26,
26,
26,
32,
11,
11,
11,
6,
6,
10,
10,
14,
14,
11,
11,
3,
3,
1,
1,
3,
3,
6,
6,
8,
8,
6,
6,
5,
5,
3,
3,
0,
0,
2,
2,
5,
5,
1,
1,
4,
4,
6,
6,
6,
6,
4,
4,
-1,
-1,
6,
6,
11,
11,
10,
10,
1,
1,
-1,
-1,
8,
8,
13,
13,
5,
5,
3,
3,
12,
12,
19,
19,
18,
18,
13,
13,
13,
13,
11,
0,
5,
17,
16,
16,
7,
7,
3,
3,
1,
1,
3,
3,
5,
5,
2,
2,
2,
2,
8,
8,
11,
11,
6,
6,
5,
5,
12,
12,
7,
7,
10,
10,
10,
10,
0,
0,
0,
0,
2,
2,
0,
0,
-1,
-1,
2,
2,
0,
0,
0,
0,
-1,
-1,
1,
1,
0,
0,
2,
2,
10,
10,
5,
5,
5,
5,
10,
10,
18,
18,
22,
22,
26,
26,
30,
19,
20,
0,
2,
19,
19,
30,
29,
29,
