EMG_S1/DS0162.CSV

Memory Length,4000,
Trigger Level,0.00000e+00,
Source,CH1,
Probe,1.0X,
Vertical Units,V,
Vertical Scale,1.00000e+00,
Vertical Position,4.00000e-02,
Horizontal Units,S,
Horizontal Scale,1.00000e-01,
Horizontal Position,0.0000000e+00,
Horizontal Mode,Roll Mode,
Waveform Last Dot Address,4000,
Sampling Period,4.00000e-04,
Firmware,V1.14,
Time, ,
Mode,Fast,
Waveform Data,
6,
6,
0,
0,
1,
1,
-1,
-1,
1,
1,
0,
0,
-1,
-1,
8,
8,
12,
0,
1,
1,
4,
4,
3,
3,
-1,
-1,
1,
1,
1,
1,
0,
0,
-1,
-1,
1,
1,
-1,
-1,
0,
0,
2,
2,
0,
0,
-1,
-1,
0,
0,
-1,
-1,
1,
1,
2,
2,
6,
6,
10,
10,
7,
7,
6,
6,
3,
3,
0,
0,
6,
6,
8,
8,
8,
8,
4,
4,
1,
1,
4,
4,
4,
4,
1,
1,
1,
1,
-1,
-1,
3,
3,
6,
6,
0,
0,
8,
8,
18,
18,
22,
22,
14,
14,
6,
6,
0,
0,
5,
5,
6,
6,
7,
7,
10,
10,
9,
9,
5,
5,
4,
4,
0,
0,
6,
6,
4,
4,
5,
5,
10,
10,
8,
8,
2,
2,
-1,
-1,
1,
1,
6,
6,
4,
4,
14,
14,
18,
18,
14,
0,
1,
1,
3,
3,
6,
6,
4,
4,
2,
2,
2,
2,
3,
3,
-1,
-1,
3,
3,
5,
5,
2,
2,
1,
1,
3,
3,
4,
4,
1,
1,
0,
0,
1,
1,
0,
0,
8,
24,
23,
23,
30,
30,
22,
4,
5,
5,
10,
10,
15,
15,
12,
12,
10,
10,
8,
8,
4,
4,
6,
6,
4,
4,
2,
2,
0,
0,
4,
4,
2,
2,
5,
5,
10,
10,
12,
12,
13,
13,
12,
0,
2,
2,
7,
7,
6,
6,
10,
10,
10,
-1,
2,
2,
10,
10,
13,
13,
13,
13,
10,
10,
3,
3,
7,
7,
12,
12,
12,
12,
6,
6,
0,
0,
-1,
-1,
0,
0,
-1,
-1,
-1,
-1,
-1,
-1,
1,
1,
6,
6,
10,
10,
8,
8,
11,
11,
13,
13,
4,
4,
2,
2,
8,
8,
7,
7,
-1,
-1,
0,
0,
1,
1,
2,
2,
3,
3,
2,
2,
1,
1,
-1,
-1,
1,
1,
3,
3,
2,
2,
7,
7,
5,
5,
10,
10,
14,
14,
6,
6,
-1,
-1,
0,
0,
-1,
-1,
5,
5,
10,
10,
6,
6,
2,
2,
2,
2,
-1,
-1,
4,
4,
12,
12,
7,
7,
1,
1,
2,
2,
2,
2,
7,
7,
8,
8,
11,
11,
10,
10,
8,
8,
1,
1,
3,
3,
10,
10,
9,
9,
4,
4,
8,
8,
0,
0,
7,
7,
8,
8,
1,
1,
0,
0,
4,
4,
0,
0,
0,
0,
-1,
-1,
0,
0,
1,
1,
2,
2,
0,
0,
0,
0,
4,
4,
2,
16,
16,
16,
15,
0,
2,
2,
5,
5,
6,
6,
5,
5,
11,
11,
20,
20,
11,
0,
4,
4,
8,
8,
7,
7,
5,
5,
6,
6,
11,
11,
11,
0,
1,
1,
4,
4,
6,
6,
6,
6,
7,
7,
4,
4,
5,
5,
4,
4,
3,
3,
2,
2,
3,
3,
0,
0,
3,
3,
2,
2,
0,
0,
2,
2,
2,
2,
1,
1,
1,
1,
0,
0,
0,
0,
0,
0,
6,
6,
9,
9,
4,
4,
2,
2,
2,
2,
6,
6,
0,
0,
6,
6,
9,
9,
2,
2,
10,
10,
16,
5,
5,
5,
10,
10,
11,
11,
3,
3,
1,
1,
3,
3,
4,
4,
2,
2,
0,
0,
4,
4,
4,
4,
0,
0,
3,
3,
1,
1,
3,
3,
7,
7,
15,
15,
16,
5,
6,
6,
1,
1,
3,
3,
4,
4,
7,
7,
4,
4,
2,
2,
6,
6,
1,
1,
6,
6,
7,
7,
3,
3,
0,
0,
4,
4,
9,
9,
10,
10,
3,
3,
0,
0,
-1,
-1,
3,
3,
7,
7,
1,
1,
-1,
-1,
7,
7,
0,
0,
0,
0,
5,
5,
3,
3,
10,
10,
6,
6,
1,
1,
6,
6,
2,
2,
4,
4,
7,
7,
3,
3,
8,
8,
1,
1,
2,
15,
15,
15,
15,
15,
11,
11,
4,
4,
0,
0,
1,
1,
9,
9,
3,
3,
0,
0,
0,
0,
-1,
-1,
3,
3,
6,
6,
5,
5,
4,
4,
2,
2,
-1,
-1,
2,
2,
1,
1,
0,
0,
2,
2,
0,
0,
2,
2,
4,
4,
2,
2,
1,
1,
1,
1,
0,
0,
0,
0,
2,
2,
6,
18,
16,
16,
9,
9,
0,
0,
4,
4,
4,
4,
4,
4,
0,
0,
-1,
-1,
-1,
-1,
0,
0,
2,
2,
0,
0,
5,
5,
2,
2,
3,
3,
4,
4,
8,
8,
10,
10,
7,
7,
1,
1,
2,
2,
2,
2,
8,
8,
6,
6,
5,
5,
3,
3,
2,
2,
7,
7,
5,
5,
-1,
12,
12,
12,
18,
6,
6,
6,
3,
3,
1,
1,
8,
8,
5,
5,
1,
13,
12,
12,
17,
17,
16,
16,
10,
10,
11,
11,
2,
17,
16,
30,
28,
17,
18,
4,
5,
5,
0,
0,
6,
6,
5,
5,
0,
0,
-1,
-1,
0,
0,
3,
3,
0,
0,
3,
3,
2,
15,
15,
15,
24,
24,
15,
0,
1,
12,
11,
11,
7,
7,
5,
5,
8,
8,
5,
5,
10,
10,
11,
11,
4,
4,
1,
1,
4,
4,
8,
8,
2,
2,
0,
0,
-1,
-1,
2,
2,
5,
5,
2,
2,
2,
2,
6,
6,
8,
8,
7,
7,
0,
0,
3,
3,
2,
2,
-1,
-1,
-1,
-1,
0,
0,
0,
0,
0,
0,
0,
0,
0,
0,
0,
0,
-1,
-1,
1,
1,
1,
1,
-1,
-1,
2,
2,
5,
5,
3,
3,
1,
1,
2,
2,
3,
3,
4,
4,
2,
2,
1,
1,
0,
0,
-1,
-1,
1,
1,
0,
0,
3,
3,
0,
0,
0,
0,
2,
2,
7,
7,
0,
0,
4,
4,
7,
7,
4,
4,
-1,
-1,
-1,
-1,
1,
1,
5,
5,
0,
0,
5,
5,
6,
6,
-1,
-1,
0,
0,
-1,
-1,
0,
0,
3,
3,
10,
10,
6,
6,
3,
3,
1,
1,
4,
4,
6,
6,
4,
4,
2,
2,
4,
4,
10,
10,
3,
3,
4,
4,
4,
4,
1,
1,
2,
2,
1,
1,
-2,
-2,
-1,
-1,
0,
0,
9,
9,
17,
17,
15,
15,
7,
7,
0,
0,
4,
4,
4,
4,
4,
4,
6,
6,
9,
9,
6,
6,
10,
10,
10,
10,
3,
3,
10,
10,
13,
2,
2,
2,
0,
0,
1,
1,
2,
2,
2,
2,
0,
0,
1,
1,
0,
0,
4,
4,
3,
3,
7,
7,
3,
3,
10,
10,
18,
18,
12,
0,
0,
0,
5,
5,
1,
1,
0,
0,
2,
2,
2,
2,
2,
2,
7,
7,
7,
7,
5,
5,
3,
3,
-2,
-2,
-1,
-1,
2,
2,
10,
10,
10,
10,
6,
6,
4,
4,
1,
1,
-1,
-1,
3,
3,
8,
8,
3,
3,
-1,
-1,
0,
0,
0,
0,
4,
4,
1,
1,
2,
2,
2,
2,
0,
0,
2,
2,
-1,
-1,
2,
2,
2,
2,
3,
3,
0,
0,
4,
4,
3,
3,
4,
4,
5,
5,
2,
2,
0,
0,
3,
14,
14,
14,
11,
11,
3,
3,
3,
3,
4,
4,
1,
1,
0,
0,
-1,
-1,
0,
0,
4,
4,
5,
5,
0,
14,
13,
13,
17,
17,
17,
17,
10,
10,
8,
8,
2,
16,
16,
16,
21,
21,
17,
17,
14,
1,
2,
2,
7,
7,
4,
4,
4,
4,
4,
4,
6,
6,
0,
0,
0,
0,
0,
0,
2,
2,
2,
2,
11,
11,
11,
11,
8,
8,
12,
12,
10,
10,
4,
4,
0,
0,
5,
5,
11,
11,
18,
18,
12,
12,
2,
2,
0,
0,
4,
4,
3,
3,
6,
6,
11,
11,
10,
10,
6,
6,
1,
1,
2,
2,
-1,
-1,
2,
2,
4,
4,
6,
6,
1,
1,
0,
11,
10,
10,
10,
10,
2,
2,
7,
7,
14,
14,
16,
3,
4,
4,
4,
4,
3,
3,
10,
10,
10,
10,
7,
7,
1,
1,
1,
1,
7,
7,
6,
6,
0,
0,
6,
6,
12,
12,
13,
13,
13,
13,
8,
8,
-1,
-1,
4,
4,
12,
12,
11,
11,
11,
11,
14,
0,
1,
14,
13,
13,
19,
19,
22,
10,
11,
11,
6,
6,
1,
1,
4,
4,
10,
10,
16,
16,
17,
3,
3,
3,
3,
3,
3,
3,
0,
0,
4,
4,
7,
7,
7,
7,
0,
0,
2,
2,
6,
22,
22,
22,
22,
8,
8,
8,
-1,
-1,
4,
4,
6,
6,
10,
10,
10,
10,
7,
7,
3,
3,
6,
6,
4,
4,
5,
5,
8,
8,
6,
6,
0,
11,
11,
11,
8,
8,
0,
0,
1,
1,
0,
0,
1,
1,
0,
0,
-1,
-1,
5,
5,
10,
10,
7,
7,
3,
3,
0,
0,
7,
7,
10,
10,
9,
9,
10,
10,
14,
2,
3,
21,
20,
36,
35,
35,
30,
6,
7,
7,
14,
26,
24,
6,
7,
7,
12,
12,
12,
12,
2,
2,
4,
4,
5,
5,
3,
3,
2,
2,
3,
3,
4,
4,
1,
1,
0,
0,
0,
0,
2,
13,
12,
12,
16,
16,
7,
7,
-1,
-1,
-1,
-1,
0,
0,
5,
5,
5,
5,
5,
5,
4,
4,
1,
1,
11,
11,
12,
12,
10,
10,
5,
5,
0,
0,
5,
5,
2,
2,
-1,
-1,
5,
5,
5,
5,
0,
0,
0,
0,
2,
2,
0,
0,
4,
4,
8,
8,
9,
9,
4,
4,
6,
6,
6,
6,
2,
15,
14,
14,
12,
12,
10,
10,
11,
22,
20,
20,
16,
4,
6,
6,
1,
1,
3,
3,
6,
6,
9,
9,
10,
10,
10,
10,
10,
10,
7,
7,
9,
9,
10,
-1,
0,
0,
1,
1,
7,
28,
28,
39,
37,
14,
15,
0,
1,
1,
5,
5,
6,
6,
10,
10,
6,
6,
0,
0,
6,
6,
1,
1,
6,
6,
10,
10,
10,
-1,
0,
0,
0,
0,
2,
23,
23,
23,
25,
25,
15,
15,
6,
6,
2,
2,
1,
1,
9,
9,
14,
14,
17,
17,
13,
13,
10,
10,
0,
0,
9,
9,
8,
8,
10,
10,
13,
13,
11,
11,
6,
6,
1,
1,
2,
2,
1,
1,
0,
0,
-1,
-1,
-1,
-1,
0,
0,
2,
2,
2,
2,
-1,
-1,
-1,
-1,
1,
1,
0,
0,
1,
1,
3,
3,
5,
5,
5,
5,
2,
2,
-1,
-1,
0,
0,
-1,
-1,
4,
4,
3,
3,
0,
0,
1,
1,
3,
3,
6,
6,
0,
0,
0,
0,
2,
2,
3,
3,
3,
3,
10,
10,
12,
12,
3,
3,
3,
3,
3,
3,
4,
4,
5,
5,
6,
6,
10,
10,
2,
2,
6,
6,
7,
7,
3,
3,
2,
2,
8,
8,
4,
4,
4,
4,
11,
11,
9,
9,
4,
4,
1,
1,
-1,
-1,
2,
2,
-1,
-1,
2,
2,
2,
2,
4,
4,
4,
4,
4,
20,
19,
19,
23,
8,
8,
8,
3,
3,
6,
6,
7,
7,
5,
5,
6,
6,
8,
8,
5,
5,
2,
2,
8,
8,
14,
14,
10,
10,
1,
1,
5,
5,
10,
10,
4,
4,
2,
2,
8,
8,
12,
1,
2,
2,
0,
0,
0,
0,
0,
0,
0,
0,
0,
0,
-1,
-1,
0,
0,
3,
3,
-1,
-1,
-1,
-1,
0,
13,
13,
13,
15,
15,
8,
8,
1,
1,
1,
1,
0,
0,
0,
0,
0,
0,
3,
3,
4,
4,
7,
7,
0,
0,
6,
6,
6,
6,
6,
6,
5,
5,
6,
6,
4,
4,
5,
5,
9,
9,
0,
0,
0,
0,
-1,
-1,
0,
0,
-1,
-1,
0,
0,
0,
0,
0,
0,
0,
0,
0,
0,
0,
0,
4,
4,
11,
11,
6,
6,
6,
6,
6,
6,
6,
6,
8,
21,
20,
20,
17,
0,
2,
2,
8,
8,
10,
10,
7,
7,
5,
5,
5,
5,
1,
1,
0,
0,
0,
0,
0,
0,
3,
3,
3,
3,
-1,
12,
11,
11,
14,
14,
10,
10,
6,
6,
10,
10,
7,
7,
1,
1,
1,
1,
2,
2,
4,
4,
4,
4,
10,
10,
2,
2,
2,
2,
0,
0,
0,
0,
1,
1,
0,
0,
-1,
-1,
2,
2,
5,
5,
2,
2,
-1,
-1,
1,
1,
1,
1,
-1,
-1,
2,
2,
5,
5,
10,
10,
12,
12,
12,
12,
14,
14,
9,
9,
10,
10,
18,
6,
7,
7,
0,
0,
2,
14,
14,
14,
12,
12,
7,
7,
5,
5,
6,
6,
0,
12,
11,
11,
15,
15,
17,
17,
8,
8,
7,
7,
3,
3,
0,
0,
3,
3,
0,
0,
2,
2,
2,
2,
3,
3,
4,
4,
4,
4,
2,
2,
3,
3,
0,
0,
-1,
-1,
4,
4,
6,
6,
3,
3,
2,
2,
3,
3,
8,
8,
8,
8,
4,
4,
4,
4,
0,
0,
1,
1,
0,
0,
2,
2,
8,
8,
5,
5,
-1,
-1,
2,
2,
0,
0,
0,
0,
0,
0,
-1,
-1,
0,
0,
2,
2,
5,
5,
-1,
-1,
0,
0,
0,
0,
3,
3,
3,
15,
14,
14,
12,
12,
2,
2,
4,
4,
7,
7,
6,
6,
8,
8,
9,
9,
6,
6,
10,
10,
13,
13,
14,
14,
5,
5,
2,
2,
1,
1,
2,
2,
5,
5,
3,
3,
-1,
-1,
2,
2,
4,
4,
1,
1,
4,
4,
8,
8,
4,
4,
0,
11,
10,
10,
15,
15,
7,
7,
4,
4,
1,
22,
21,
21,
28,
13,
14,
-1,
1,
1,
6,
6,
12,
12,
12,
12,
10,
10,
2,
2,
1,
1,
3,
3,
2,
2,
4,
4,
-1,
-1,
1,
1,
0,
0,
1,
1,
0,
0,
0,
0,
4,
4,
3,
18,
17,
17,
18,
6,
6,
6,
2,
2,
4,
4,
2,
2,
2,
2,
4,
4,
0,
0,
2,
2,
4,
4,
2,
2,
-1,
-1,
2,
2,
0,
0,
0,
0,
3,
3,
8,
8,
5,
5,
6,
6,
9,
9,
0,
11,
10,
10,
18,
5,
6,
6,
3,
3,
10,
10,
10,
10,
3,
3,
2,
2,
0,
0,
0,
0,
0,
0,
-1,
-1,
-1,
-1,
1,
1,
6,
6,
10,
10,
9,
9,
2,
2,
6,
6,
4,
4,
8,
8,
14,
2,
3,
27,
26,
26,
27,
14,
15,
3,
3,
3,
8,
8,
14,
14,
11,
11,
8,
8,
8,
8,
8,
8,
7,
7,
0,
0,
5,
5,
1,
1,
0,
0,
2,
2,
2,
2,
6,
6,
8,
8,
11,
11,
14,
14,
9,
9,
3,
3,
3,
3,
5,
5,
6,
6,
0,
0,
4,
4,
8,
8,
7,
7,
6,
6,
6,
6,
3,
3,
4,
4,
7,
7,
7,
7,
8,
8,
8,
8,
6,
6,
2,
2,
-1,
-1,
1,
1,
0,
0,
1,
1,
-1,
-1,
0,
0,
0,
0,
0,
0,
0,
0,
2,
2,
4,
4,
0,
0,
4,
4,
3,
3,
3,
3,
-1,
-1,
4,
4,
2,
2,
1,
1,
10,
10,
16,
16,
15,
15,
9,
9,
2,
2,
5,
5,
6,
6,
5,
5,
6,
6,
3,
3,
1,
1,
-1,
-1,
-1,
-1,
0,
0,
1,
1,
0,
0,
0,
0,
0,
0,
1,
1,
4,
4,
5,
5,
1,
1,
-1,
-1,
5,
5,
12,
12,
13,
13,
13,
13,
10,
10,
4,
4,
6,
6,
1,
1,
4,
4,
4,
4,
2,
2,
4,
4,
5,
5,
2,
2,
2,
2,
3,
3,
1,
1,
6,
6,
4,
4,
0,
0,
3,
3,
3,
3,
-1,
-1,
-1,
-1,
0,
0,
6,
6,
3,
3,
1,
1,
2,
2,
2,
2,
0,
0,
3,
3,
2,
2,
11,
11,
18,
18,
12,
-1,
1,
1,
4,
4,
0,
0,
4,
4,
8,
8,
10,
10,
3,
3,
0,
0,
1,
1,
7,
7,
8,
8,
3,
3,
1,
1,
5,
5,
7,
7,
2,
2,
-1,
-1,
2,
2,
5,
5,
5,
5,
0,
0,
1,
1,
5,
5,
7,
7,
10,
10,
10,
10,
0,
0,
0,
0,
0,
0,
0,
0,
4,
4,
6,
6,
6,
6,
-1,
-1,
3,
3,
0,
0,
2,
2,
10,
10,
10,
10,
3,
3,
-1,
-1,
1,
1,
-1,
-1,
2,
2,
4,
4,
2,
2,
3,
3,
8,
8,
4,
4,
0,
0,
2,
2,
5,
5,
9,
9,
12,
12,
12,
12,
5,
5,
4,
16,
16,
16,
19,
5,
6,
6,
-1,
-1,
-1,
-1,
3,
3,
4,
4,
1,
1,
1,
1,
8,
8,
10,
10,
3,
3,
1,
1,
4,
4,
5,
5,
1,
1,
-1,
-1,
2,
2,
9,
9,
4,
4,
4,
16,
15,
15,
19,
6,
7,
7,
5,
5,
6,
6,
0,
0,
-2,
-2,
5,
5,
10,
10,
8,
8,
6,
6,
5,
5,
0,
0,
1,
12,
11,
11,
14,
14,
6,
6,
2,
2,
6,
6,
3,
3,
0,
0,
2,
2,
7,
7,
7,
7,
0,
0,
7,
7,
9,
9,
0,
0,
0,
0,
4,
4,
1,
1,
2,
2,
0,
0,
4,
4,
8,
8,
1,
1,
5,
5,
4,
4,
11,
11,
4,
4,
0,
0,
2,
2,
8,
8,
8,
8,
1,
1,
8,
8,
12,
12,
14,
14,
10,
10,
0,
0,
1,
1,
4,
4,
2,
2,
0,
0,
6,
6,
10,
10,
8,
8,
3,
3,
0,
0,
1,
1,
-1,
-1,
-1,
-1,
3,
3,
0,
0,
4,
4,
10,
10,
6,
6,
4,
15,
14,
31,
30,
30,
30,
15,
16,
0,
2,
14,
13,
26,
26,
26,
21,
21,
15,
15,
14,
14,
12,
12,
10,
10,
1,
1,
0,
0,
4,
4,
10,
10,
11,
11,
7,
7,
1,
1,
4,
4,
4,
4,
12,
23,
22,
22,
16,
3,
3,
3,
4,
4,
9,
9,
6,
6,
0,
0,
1,
1,
1,
1,
2,
2,
8,
8,
10,
10,
10,
10,
5,
5,
7,
7,
12,
12,
8,
23,
22,
22,
21,
5,
6,
6,
11,
11,
18,
18,
20,
20,
11,
0,
2,
2,
7,
7,
8,
8,
4,
4,
4,
4,
4,
4,
4,
4,
1,
1,
-1,
-1,
-1,
-1,
8,
8,
2,
2,
8,
8,
13,
13,
13,
13,
10,
10,
5,
5,
1,
1,
7,
7,
11,
11,
14,
14,
10,
10,
9,
9,
3,
3,
7,
7,
13,
13,
15,
15,
13,
13,
4,
4,
-1,
-1,
-1,
-1,
3,
3,
0,
0,
2,
2,
2,
2,
2,
2,
3,
3,
6,
6,
2,
2,
0,
0,
-1,
-1,
4,
4,
10,
10,
6,
6,
-1,
-1,
1,
1,
2,
2,
-1,
-1,
0,
0,
0,
0,
0,
0,
10,
22,
20,
20,
15,
15,
5,
5,
0,
0,
3,
3,
5,
5,
6,
6,
5,
5,
3,
3,
3,
3,
1,
1,
2,
2,
0,
0,
2,
2,
1,
1,
2,
2,
1,
1,
3,
3,
2,
2,
0,
17,
16,
16,
19,
19,
13,
13,
7,
7,
2,
2,
4,
4,
0,
11,
10,
10,
6,
6,
7,
7,
15,
15,
16,
16,
12,
12,
4,
4,
0,
0,
1,
1,
0,
0,
6,
6,
14,
14,
16,
16,
9,
9,
0,
0,
1,
1,
4,
4,
4,
4,
0,
0,
8,
8,
8,
8,
1,
1,
4,
4,
0,
0,
4,
4,
2,
2,
2,
2,
0,
0,
8,
8,
16,
16,
23,
23,
19,
0,
0,
0,
6,
6,
14,
14,
16,
16,
12,
12,
10,
10,
10,
10,
4,
4,
0,
0,
0,
11,
10,
25,
23,
23,
14,
3,
3,
3,
7,
7,
13,
13,
6,
6,
5,
5,
9,
9,
11,
11,
6,
6,
2,
2,
-1,
-1,
6,
6,
10,
10,
7,
7,
0,
0,
4,
4,
2,
2,
5,
5,
6,
6,
4,
4,
5,
5,
8,
8,
2,
2,
3,
3,
-1,
10,
9,
9,
14,
14,
12,
12,
6,
6,
2,
2,
6,
6,
11,
11,
15,
15,
11,
0,
3,
3,
7,
7,
15,
30,
30,
30,
27,
14,
15,
1,
5,
5,
9,
9,
10,
10,
16,
16,
14,
14,
12,
12,
9,
9,
2,
2,
4,
4,
3,
3,
3,
3,
-1,
-1,
8,
23,
22,
22,
28,
28,
18,
18,
8,
8,
0,
0,
1,
1,
0,
0,
-2,
-2,
1,
1,
4,
4,
6,
6,
7,
7,
5,
5,
2,
2,
3,
3,
-1,
-1,
3,
3,
5,
5,
5,
5,
8,
8,
7,
7,
4,
4,
1,
1,
10,
10,
11,
11,
8,
8,
1,
17,
17,
29,
28,
17,
18,
6,
6,
6,
0,
0,
9,
9,
11,
11,
3,
3,
3,
3,
7,
7,
9,
9,
7,
7,
3,
3,
2,
2,
7,
18,
17,
17,
13,
13,
10,
10,
10,
10,
5,
5,
2,
2,
5,
5,
4,
4,
2,
2,
0,
0,
2,
2,
1,
1,
0,
0,
2,
2,
0,
0,
2,
2,
-1,
-1,
6,
6,
6,
6,
0,
0,
3,
3,
6,
6,
2,
2,
5,
5,
3,
3,
4,
4,
6,
19,
18,
18,
21,
10,
11,
-1,
0,
0,
3,
3,
7,
7,
9,
9,
9,
9,
8,
8,
6,
6,
6,
6,
4,
4,
-1,
-1,
0,
0,
7,
22,
21,
21,
25,
9,
10,
-1,
1,
1,
8,
8,
3,
3,
7,
7,
15,
3,
4,
4,
6,
6,
13,
13,
10,
10,
4,
4,
1,
1,
-1,
-1,
0,
0,
1,
1,
-1,
-1,
-2,
-2,
0,
0,
-1,
-1,
5,
18,
17,
17,
21,
21,
22,
22,
15,
15,
7,
7,
0,
0,
9,
20,
18,
18,
20,
20,
13,
13,
6,
6,
0,
0,
5,
5,
0,
0,
4,
4,
3,
3,
4,
4,
1,
16,
16,
16,
21,
21,
17,
17,
10,
10,
9,
9,
1,
1,
6,
6,
5,
5,
0,
0,
2,
2,
1,
1,
4,
4,
2,
2,
6,
6,
7,
7,
3,
3,
0,
0,
0,
0,
0,
0,
5,
5,
6,
6,
1,
1,
2,
2,
3,
3,
8,
8,
2,
2,
0,
0,
3,
3,
2,
14,
14,
14,
15,
15,
10,
10,
3,
3,
2,
2,
0,
0,
5,
5,
10,
10,
17,
17,
15,
4,
4,
4,
3,
14,
14,
14,
17,
5,
5,
5,
8,
8,
10,
10,
0,
0,
4,
4,
1,
1,
3,
3,
5,
5,
4,
4,
2,
2,
0,
0,
0,
0,
0,
0,
0,
0,
-1,
-1,
2,
2,
5,
5,
6,
6,
7,
7,
9,
9,
5,
5,
3,
3,
6,
6,
8,
8,
8,
8,
8,
8,
6,
6,
1,
1,
3,
3,
8,
8,
18,
7,
8,
8,
2,
2,
4,
4,
-1,
-1,
0,
0,
6,
6,
4,
4,
3,
3,
10,
10,
6,
6,
-1,
-1,
-1,
-1,
8,
8,
9,
9,
3,
3,
12,
12,
14,
14,
8,
8,
2,
2,
1,
1,
6,
6,
13,
2,
10,
24,
24,
24,
17,
4,
4,
4,
0,
0,
3,
3,
4,
4,
7,
7,
4,
4,
4,
4,
6,
6,
6,
6,
4,
4,
-1,
-1,
1,
1,
4,
4,
0,
0,
0,
0,
-1,
-1,
2,
2,
1,
1,
3,
3,
8,
8,
10,
10,
13,
13,
11,
11,
2,
2,
4,
4,
8,
8,
7,
7,
8,
8,
4,
4,
0,
0,
0,
0,
-1,
-1,
7,
7,
8,
8,
2,
2,
-1,
-1,
0,
0,
-1,
-1,
-1,
-1,
1,
1,
0,
11,
10,
10,
5,
5,
4,
4,
2,
2,
2,
2,
1,
1,
1,
1,
9,
9,
15,
15,
5,
5,
0,
0,
4,
4,
6,
6,
1,
1,
0,
0,
3,
3,
4,
4,
-1,
-1,
1,
1,
0,
0,
1,
1,
3,
3,
3,
3,
3,
3,
3,
3,
7,
7,
10,
10,
8,
8,
0,
0,
0,
0,
1,
1,
2,
2,
2,
2,
4,
4,
6,
6,
0,
0,
0,
0,
8,
8,
13,
13,
6,
6,
4,
4,
7,
7,
6,
6,
3,
3,
4,
4,
8,
8,
5,
5,
0,
0,
3,
3,
6,
6,
6,
6,
2,
2,
9,
9,
14,
14,
6,
6,
0,
0,
1,
1,
1,
1,
0,
0,
4,
17,
17,
17,
18,
4,
4,
4,
3,
3,
8,
8,
4,
4,
5,
5,
14,
14,
14,
14,
15,
15,
14,
14,
8,
8,
4,
4,
6,
18,
17,
17,
14,
14,
5,
5,
-1,
-1,
4,
4,
10,
10,
7,
7,
0,
0,
0,
0,
4,
4,
0,
0,
0,
0,
4,
4,
6,
6,
2,
2,
0,
0,
1,
1,
0,
0,
1,
1,
4,
4,
8,
8,
5,
5,
0,
0,
2,
2,
