EMG_S1/DS0144.CSV

Memory Length,4000,
Trigger Level,0.00000e+00,
Source,CH1,
Probe,1.0X,
Vertical Units,V,
Vertical Scale,1.00000e+00,
Vertical Position,4.00000e-02,
Horizontal Units,S,
Horizontal Scale,1.00000e-01,
Horizontal Position,0.0000000e+00,
Horizontal Mode,Roll Mode,
Waveform Last Dot Address,4000,
Sampling Period,4.00000e-04,
Firmware,V1.14,
Time, ,
Mode,Fast,
Waveform Data,
9,
9,
0,
0,
6,
6,
1,
1,
9,
9,
18,
18,
27,
27,
27,
27,
28,
28,
25,
10,
10,
10,
6,
23,
22,
22,
21,
8,
8,
8,
-1,
-1,
8,
28,
27,
42,
41,
23,
24,
2,
4,
18,
16,
16,
25,
25,
19,
1,
3,
3,
8,
8,
12,
12,
9,
9,
0,
0,
4,
4,
11,
11,
10,
10,
3,
3,
1,
1,
3,
3,
6,
6,
9,
9,
0,
0,
5,
5,
9,
9,
7,
7,
8,
8,
10,
10,
3,
3,
0,
0,
1,
1,
2,
2,
0,
0,
3,
3,
4,
15,
14,
14,
18,
18,
9,
9,
7,
7,
11,
11,
14,
14,
16,
16,
7,
7,
0,
0,
0,
0,
2,
2,
1,
15,
14,
14,
11,
-1,
0,
0,
6,
6,
2,
13,
12,
12,
16,
16,
8,
8,
1,
1,
0,
0,
6,
6,
6,
6,
3,
17,
16,
16,
23,
23,
13,
13,
8,
8,
9,
24,
23,
23,
24,
24,
18,
6,
6,
6,
1,
15,
14,
14,
20,
20,
19,
4,
6,
6,
13,
13,
21,
21,
14,
0,
1,
1,
6,
6,
9,
9,
5,
5,
0,
0,
-1,
-1,
1,
1,
4,
4,
2,
24,
24,
24,
32,
14,
15,
0,
4,
4,
3,
3,
1,
16,
16,
16,
23,
23,
19,
19,
11,
0,
3,
3,
7,
7,
10,
10,
9,
9,
18,
18,
18,
18,
12,
12,
2,
2,
7,
7,
8,
8,
1,
1,
2,
2,
3,
3,
8,
8,
2,
13,
12,
12,
3,
3,
6,
6,
9,
9,
5,
5,
-1,
-1,
0,
0,
4,
4,
9,
9,
4,
4,
4,
4,
9,
9,
18,
18,
18,
18,
12,
12,
5,
5,
7,
21,
20,
20,
19,
2,
2,
13,
12,
12,
3,
3,
0,
0,
3,
3,
1,
1,
3,
3,
0,
0,
5,
5,
3,
3,
4,
4,
-1,
-1,
-1,
11,
11,
11,
21,
4,
5,
5,
4,
4,
7,
7,
10,
10,
7,
7,
6,
6,
3,
3,
8,
8,
12,
12,
6,
6,
14,
14,
18,
18,
13,
0,
6,
17,
16,
16,
14,
14,
5,
5,
7,
18,
17,
17,
16,
16,
11,
0,
3,
3,
9,
9,
10,
10,
8,
8,
5,
5,
7,
7,
5,
5,
6,
6,
1,
1,
3,
3,
8,
8,
3,
3,
0,
0,
0,
0,
3,
3,
2,
2,
2,
2,
4,
4,
-1,
-1,
2,
2,
4,
4,
7,
7,
4,
4,
1,
1,
0,
0,
5,
5,
5,
5,
8,
8,
2,
2,
7,
7,
0,
0,
1,
1,
6,
6,
14,
14,
13,
13,
5,
5,
8,
27,
26,
39,
38,
38,
30,
7,
8,
8,
10,
10,
16,
16,
20,
20,
17,
17,
12,
12,
6,
6,
2,
2,
-1,
-1,
0,
0,
5,
5,
8,
8,
11,
22,
21,
7,
7,
7,
8,
8,
2,
2,
3,
19,
18,
32,
32,
19,
20,
20,
13,
13,
6,
6,
2,
2,
7,
7,
11,
11,
16,
16,
17,
17,
12,
12,
12,
12,
9,
9,
0,
0,
2,
2,
3,
3,
1,
1,
0,
0,
7,
7,
16,
5,
5,
5,
-1,
-1,
1,
1,
2,
23,
22,
22,
26,
6,
6,
6,
2,
2,
6,
6,
1,
1,
11,
11,
13,
13,
11,
11,
8,
8,
0,
0,
-1,
-1,
7,
7,
9,
9,
5,
5,
5,
5,
2,
2,
2,
2,
2,
2,
3,
3,
2,
2,
6,
6,
0,
15,
15,
15,
23,
12,
13,
13,
7,
7,
8,
8,
15,
27,
26,
26,
32,
4,
6,
19,
18,
18,
22,
22,
22,
22,
19,
19,
23,
23,
14,
14,
4,
4,
4,
4,
5,
5,
1,
1,
4,
4,
4,
4,
2,
2,
5,
5,
2,
2,
0,
0,
9,
9,
17,
17,
19,
19,
17,
17,
10,
10,
10,
10,
14,
2,
2,
2,
8,
8,
12,
12,
5,
5,
2,
2,
5,
5,
9,
9,
4,
4,
4,
4,
12,
12,
20,
20,
14,
2,
14,
27,
26,
26,
19,
19,
14,
14,
11,
11,
4,
4,
2,
2,
11,
23,
22,
10,
11,
0,
3,
3,
3,
3,
2,
2,
0,
0,
4,
4,
6,
6,
2,
2,
2,
2,
0,
0,
10,
10,
13,
13,
6,
6,
0,
16,
16,
16,
14,
1,
1,
1,
0,
0,
4,
4,
11,
11,
11,
11,
11,
11,
14,
14,
10,
10,
5,
5,
6,
6,
2,
2,
-1,
-1,
-1,
10,
10,
10,
10,
10,
4,
4,
9,
9,
16,
31,
30,
30,
24,
11,
12,
0,
3,
3,
11,
11,
17,
17,
22,
22,
15,
15,
7,
7,
0,
0,
4,
18,
18,
18,
26,
14,
15,
2,
7,
7,
15,
15,
7,
7,
6,
6,
8,
8,
6,
6,
0,
0,
10,
10,
17,
17,
11,
11,
2,
2,
4,
4,
4,
4,
1,
1,
11,
11,
10,
10,
3,
3,
-1,
10,
10,
10,
11,
11,
1,
1,
2,
2,
4,
4,
5,
5,
0,
0,
1,
1,
6,
6,
15,
15,
5,
5,
12,
29,
28,
28,
34,
34,
27,
27,
27,
27,
26,
26,
16,
3,
15,
36,
35,
35,
35,
35,
35,
23,
23,
23,
14,
14,
8,
8,
6,
6,
8,
8,
1,
14,
13,
32,
30,
30,
37,
37,
27,
2,
3,
3,
10,
10,
4,
18,
18,
18,
25,
7,
7,
7,
14,
14,
14,
14,
10,
10,
13,
13,
13,
13,
5,
5,
6,
6,
12,
12,
14,
3,
3,
3,
2,
2,
4,
4,
7,
7,
2,
2,
7,
7,
7,
7,
0,
0,
5,
5,
6,
6,
5,
5,
11,
11,
15,
15,
6,
6,
-1,
-1,
4,
4,
8,
8,
7,
7,
2,
2,
10,
10,
4,
4,
2,
2,
0,
0,
4,
4,
1,
1,
4,
15,
14,
14,
11,
0,
3,
3,
6,
6,
1,
12,
11,
11,
9,
9,
0,
0,
5,
5,
12,
12,
13,
13,
6,
6,
1,
1,
4,
4,
-1,
-1,
4,
4,
12,
12,
14,
3,
3,
3,
0,
0,
-1,
-1,
2,
2,
4,
4,
0,
14,
13,
13,
17,
6,
7,
7,
0,
0,
10,
10,
8,
8,
5,
5,
7,
7,
8,
8,
17,
17,
18,
18,
22,
10,
10,
10,
15,
34,
34,
34,
29,
14,
14,
-1,
-1,
-1,
5,
5,
13,
1,
2,
2,
11,
11,
16,
16,
13,
13,
5,
5,
5,
5,
2,
2,
0,
0,
3,
3,
7,
7,
1,
1,
1,
1,
2,
2,
8,
8,
8,
8,
4,
18,
16,
16,
20,
2,
2,
2,
12,
27,
27,
15,
15,
2,
13,
45,
44,
62,
61,
47,
47,
22,
22,
3,
9,
32,
31,
44,
44,
44,
42,
42,
39,
39,
39,
22,
23,
3,
4,
4,
7,
7,
15,
15,
15,
15,
12,
12,
8,
8,
8,
8,
10,
10,
15,
15,
14,
27,
26,
26,
29,
10,
10,
-1,
1,
1,
5,
5,
1,
13,
12,
12,
18,
18,
15,
15,
11,
11,
18,
18,
13,
0,
2,
2,
8,
23,
22,
22,
22,
1,
3,
3,
3,
3,
0,
0,
3,
3,
2,
2,
8,
8,
4,
4,
6,
6,
4,
4,
5,
5,
6,
6,
1,
1,
1,
1,
5,
5,
11,
11,
14,
3,
5,
5,
10,
10,
2,
2,
6,
6,
9,
9,
15,
4,
4,
4,
2,
2,
1,
1,
6,
6,
14,
14,
14,
14,
7,
7,
9,
9,
5,
5,
3,
3,
0,
0,
2,
13,
12,
24,
23,
23,
20,
20,
10,
10,
6,
6,
4,
4,
2,
2,
6,
6,
3,
3,
7,
7,
0,
0,
8,
8,
11,
11,
6,
6,
4,
4,
6,
6,
7,
7,
1,
1,
6,
6,
4,
4,
7,
7,
15,
15,
16,
16,
14,
0,
2,
2,
-1,
-1,
3,
3,
7,
7,
9,
9,
2,
2,
0,
0,
7,
7,
1,
1,
3,
3,
0,
0,
8,
22,
21,
21,
14,
14,
7,
7,
4,
4,
13,
13,
13,
13,
7,
7,
0,
0,
7,
7,
7,
7,
5,
5,
13,
13,
7,
7,
1,
1,
10,
26,
24,
9,
9,
9,
4,
4,
8,
8,
6,
6,
6,
18,
18,
18,
11,
0,
4,
15,
14,
14,
18,
18,
16,
16,
12,
12,
8,
8,
0,
0,
2,
2,
1,
1,
8,
8,
13,
13,
16,
16,
15,
15,
12,
12,
5,
5,
3,
14,
14,
25,
24,
24,
20,
20,
11,
0,
1,
18,
18,
18,
27,
27,
30,
30,
27,
12,
13,
0,
1,
1,
2,
2,
2,
2,
8,
8,
10,
-1,
0,
0,
0,
0,
6,
6,
11,
11,
13,
13,
11,
11,
12,
12,
19,
19,
11,
11,
2,
2,
4,
4,
8,
8,
6,
6,
8,
8,
7,
7,
2,
2,
3,
3,
0,
0,
0,
0,
4,
4,
14,
0,
1,
1,
7,
7,
8,
8,
1,
1,
7,
26,
25,
25,
31,
11,
12,
12,
8,
20,
19,
19,
19,
19,
13,
13,
4,
4,
6,
6,
7,
7,
3,
3,
0,
0,
6,
6,
6,
6,
8,
8,
6,
6,
3,
3,
12,
23,
23,
23,
22,
3,
3,
15,
14,
14,
13,
2,
3,
3,
6,
6,
7,
7,
5,
5,
2,
13,
12,
12,
12,
1,
2,
2,
0,
0,
10,
10,
8,
8,
10,
10,
9,
9,
3,
26,
25,
37,
36,
25,
25,
5,
5,
5,
0,
0,
0,
0,
3,
14,
13,
13,
10,
10,
9,
9,
10,
10,
8,
8,
10,
10,
8,
8,
6,
6,
2,
14,
13,
13,
18,
18,
24,
24,
19,
1,
2,
2,
11,
11,
14,
14,
6,
6,
3,
15,
15,
15,
16,
16,
18,
18,
22,
22,
19,
3,
6,
24,
23,
23,
18,
3,
4,
4,
4,
15,
14,
14,
11,
11,
10,
10,
7,
7,
1,
1,
9,
9,
17,
17,
8,
8,
3,
3,
5,
5,
4,
4,
3,
3,
1,
1,
11,
11,
19,
36,
34,
15,
15,
3,
9,
9,
12,
0,
3,
26,
26,
41,
40,
17,
17,
3,
11,
32,
32,
32,
36,
36,
28,
28,
20,
20,
13,
2,
3,
3,
0,
0,
2,
2,
6,
6,
10,
10,
8,
8,
3,
3,
12,
12,
8,
8,
6,
27,
26,
26,
34,
21,
22,
2,
3,
17,
16,
16,
12,
12,
6,
6,
6,
6,
0,
0,
3,
3,
0,
0,
1,
1,
7,
7,
5,
5,
-1,
-1,
1,
1,
9,
9,
8,
8,
1,
1,
0,
0,
0,
0,
8,
8,
11,
11,
14,
14,
15,
15,
10,
10,
3,
3,
2,
2,
3,
3,
3,
3,
3,
3,
4,
4,
-1,
-1,
6,
18,
16,
5,
5,
5,
7,
25,
24,
24,
28,
28,
23,
23,
16,
16,
7,
7,
5,
21,
21,
21,
23,
23,
23,
23,
27,
27,
23,
23,
14,
1,
4,
34,
33,
33,
42,
42,
37,
19,
19,
2,
3,
19,
18,
18,
22,
22,
16,
16,
11,
0,
1,
14,
14,
29,
29,
29,
27,
10,
11,
-1,
2,
2,
10,
10,
14,
14,
15,
15,
11,
11,
10,
10,
1,
16,
16,
16,
22,
8,
9,
9,
-1,
-1,
3,
3,
7,
7,
0,
0,
7,
7,
2,
2,
6,
6,
0,
0,
9,
9,
4,
4,
0,
0,
-1,
-1,
4,
4,
9,
9,
1,
12,
11,
11,
12,
12,
3,
3,
0,
0,
0,
0,
1,
1,
3,
3,
3,
3,
5,
5,
2,
2,
3,
3,
10,
10,
6,
6,
6,
6,
8,
8,
6,
6,
13,
13,
12,
12,
15,
4,
5,
5,
3,
3,
0,
0,
3,
3,
0,
0,
9,
22,
22,
22,
29,
29,
20,
5,
6,
6,
3,
3,
12,
12,
2,
22,
22,
55,
55,
55,
56,
27,
27,
2,
3,
3,
11,
11,
18,
18,
22,
22,
30,
30,
32,
32,
34,
34,
31,
13,
14,
-1,
1,
1,
-1,
15,
14,
14,
22,
22,
26,
38,
36,
36,
31,
31,
26,
15,
15,
0,
2,
2,
10,
10,
14,
14,
17,
6,
8,
8,
-1,
-1,
7,
7,
11,
11,
8,
8,
0,
0,
8,
8,
14,
14,
10,
10,
4,
4,
0,
0,
6,
6,
3,
3,
0,
0,
9,
9,
10,
10,
2,
2,
2,
2,
6,
6,
7,
7,
0,
0,
6,
6,
15,
3,
10,
37,
37,
24,
24,
1,
1,
1,
8,
8,
10,
-1,
0,
0,
1,
1,
4,
4,
0,
11,
10,
10,
13,
13,
11,
11,
17,
3,
4,
4,
11,
11,
21,
21,
20,
2,
4,
18,
17,
17,
16,
16,
10,
-1,
3,
28,
28,
50,
50,
50,
46,
12,
13,
2,
11,
27,
26,
26,
19,
19,
22,
22,
20,
1,
3,
3,
5,
5,
3,
3,
6,
6,
8,
8,
0,
0,
7,
7,
11,
11,
11,
11,
9,
21,
21,
8,
9,
9,
-1,
-1,
2,
2,
5,
5,
12,
12,
5,
5,
9,
9,
11,
11,
10,
10,
6,
6,
0,
0,
-1,
-1,
0,
0,
3,
3,
7,
7,
14,
14,
18,
18,
13,
13,
11,
0,
2,
14,
13,
13,
8,
8,
1,
1,
1,
15,
14,
14,
13,
0,
2,
2,
6,
6,
15,
15,
14,
14,
6,
6,
6,
6,
6,
6,
10,
10,
18,
18,
19,
19,
20,
20,
0,
0,
4,
4,
6,
6,
11,
11,
13,
2,
3,
3,
-1,
-1,
5,
5,
5,
5,
4,
4,
5,
5,
2,
2,
3,
3,
10,
10,
15,
15,
11,
11,
15,
15,
16,
0,
2,
16,
15,
15,
25,
25,
17,
17,
9,
9,
0,
11,
11,
11,
15,
0,
1,
1,
3,
3,
9,
9,
2,
2,
7,
7,
16,
16,
16,
1,
2,
2,
8,
8,
7,
7,
11,
11,
8,
8,
7,
7,
1,
12,
11,
11,
11,
11,
3,
3,
0,
0,
-1,
-1,
0,
0,
7,
7,
7,
7,
1,
17,
16,
16,
14,
0,
2,
2,
8,
8,
4,
4,
6,
6,
11,
11,
2,
2,
6,
6,
15,
15,
12,
12,
19,
32,
30,
16,
16,
1,
2,
2,
7,
7,
1,
1,
2,
2,
10,
10,
1,
1,
6,
6,
2,
2,
-1,
-1,
7,
19,
18,
18,
8,
8,
0,
0,
5,
5,
1,
1,
0,
0,
9,
9,
2,
32,
31,
49,
49,
37,
37,
11,
11,
11,
10,
26,
24,
24,
22,
22,
21,
21,
25,
25,
22,
4,
5,
5,
3,
3,
4,
4,
2,
2,
3,
20,
19,
34,
34,
23,
23,
2,
4,
16,
15,
15,
22,
3,
7,
26,
26,
26,
17,
17,
7,
7,
6,
6,
3,
3,
2,
16,
16,
16,
21,
10,
10,
10,
13,
13,
14,
14,
14,
14,
6,
6,
9,
9,
13,
13,
21,
21,
18,
7,
7,
7,
0,
0,
6,
6,
10,
10,
7,
7,
0,
0,
5,
5,
14,
27,
26,
26,
21,
1,
2,
2,
6,
6,
14,
14,
7,
7,
4,
4,
1,
1,
3,
3,
2,
2,
0,
0,
2,
2,
7,
7,
10,
10,
8,
8,
3,
3,
2,
2,
5,
5,
7,
7,
2,
2,
0,
11,
11,
11,
19,
19,
22,
7,
7,
7,
6,
6,
8,
8,
6,
6,
10,
10,
10,
10,
6,
6,
3,
3,
4,
16,
15,
15,
19,
19,
19,
2,
2,
17,
17,
17,
25,
25,
20,
2,
4,
4,
3,
3,
12,
27,
26,
26,
17,
4,
4,
4,
1,
1,
6,
6,
9,
9,
2,
2,
9,
9,
16,
4,
5,
5,
9,
9,
11,
11,
10,
10,
1,
1,
4,
4,
2,
2,
3,
3,
-1,
-1,
2,
2,
0,
0,
0,
0,
1,
1,
-1,
-1,
-1,
-1,
2,
16,
16,
16,
23,
10,
10,
-1,
0,
0,
1,
1,
0,
0,
7,
7,
2,
2,
-1,
-1,
-1,
-1,
0,
0,
3,
3,
0,
0,
2,
2,
1,
1,
2,
2,
5,
5,
5,
5,
7,
7,
10,
10,
2,
2,
-1,
-1,
3,
3,
8,
8,
2,
2,
8,
8,
1,
1,
6,
6,
7,
7,
7,
7,
0,
0,
6,
6,
3,
3,
1,
1,
0,
0,
7,
23,
22,
22,
22,
2,
5,
5,
10,
10,
3,
3,
4,
15,
15,
15,
14,
14,
5,
5,
2,
2,
0,
0,
2,
2,
4,
4,
8,
8,
6,
6,
0,
0,
0,
0,
5,
5,
7,
7,
5,
5,
2,
2,
5,
5,
2,
2,
0,
0,
0,
0,
6,
6,
1,
1,
0,
0,
8,
8,
8,
8,
7,
7,
6,
6,
12,
12,
13,
13,
15,
15,
12,
12,
9,
9,
0,
0,
0,
11,
10,
27,
26,
26,
20,
6,
6,
6,
4,
4,
4,
4,
2,
2,
10,
10,
4,
15,
14,
27,
26,
26,
18,
18,
13,
2,
11,
40,
40,
26,
26,
3,
9,
21,
20,
20,
14,
14,
11,
11,
14,
14,
6,
6,
3,
15,
14,
14,
14,
14,
8,
8,
16,
28,
28,
28,
24,
3,
28,
28,
28,
28,
19,
6,
20,
31,
28,
14,
15,
1,
4,
20,
19,
19,
26,
26,
23,
23,
16,
16,
12,
12,
9,
9,
8,
8,
2,
2,
-1,
10,
10,
10,
17,
17,
19,
19,
18,
18,
15,
15,
23,
23,
27,
27,
18,
0,
2,
2,
7,
7,
12,
12,
17,
17,
9,
9,
0,
0,
-1,
-1,
2,
2,
10,
10,
11,
11,
10,
10,
5,
5,
2,
2,
5,
5,
7,
7,
13,
13,
18,
18,
12,
0,
1,
1,
3,
3,
4,
4,
-1,
-1,
2,
2,
3,
3,
1,
1,
1,
1,
3,
3,
3,
3,
5,
5,
5,
5,
9,
9,
4,
4,
5,
5,
5,
5,
2,
2,
3,
3,
2,
2,
3,
3,
10,
10,
11,
0,
1,
1,
0,
0,
2,
2,
5,
5,
10,
10,
5,
5,
3,
15,
14,
14,
16,
1,
1,
1,
-1,
-1,
7,
7,
9,
9,
4,
4,
7,
7,
6,
24,
23,
23,
29,
29,
28,
2,
4,
17,
17,
17,
19,
19,
17,
17,
10,
10,
6,
6,
14,
14,
15,
1,
2,
2,
9,
9,
5,
5,
3,
3,
5,
5,
9,
9,
15,
15,
11,
-1,
2,
2,
3,
3,
0,
0,
5,
5,
14,
14,
19,
19,
11,
-1,
0,
0,
8,
8,
15,
15,
14,
14,
14,
14,
7,
7,
9,
9,
9,
9,
6,
6,
6,
6,
3,
14,
12,
12,
10,
10,
11,
11,
3,
15,
15,
41,
41,
41,
43,
20,
21,
1,
1,
1,
8,
8,
15,
15,
6,
6,
0,
0,
6,
6,
7,
7,
8,
8,
4,
4,
-1,
-1,
7,
7,
7,
7,
4,
4,
6,
6,
4,
4,
0,
0,
6,
6,
5,
5,
4,
21,
19,
19,
27,
27,
26,
8,
8,
8,
-1,
-1,
1,
1,
-1,
-1,
5,
5,
15,
15,
14,
2,
2,
14,
13,
13,
22,
22,
20,
20,
14,
14,
11,
11,
6,
6,
0,
0,
9,
21,
21,
21,
23,
3,
4,
4,
10,
10,
10,
10,
10,
10,
0,
14,
13,
13,
8,
8,
6,
6,
0,
0,
7,
7,
4,
4,
0,
0,
0,
15,
15,
27,
27,
15,
15,
0,
3,
3,
1,
1,
1,
1,
2,
2,
8,
8,
10,
10,
7,
7,
3,
3,
11,
11,
13,
2,
3,
3,
2,
2,
1,
1,
5,
5,
4,
4,
10,
10,
6,
6,
5,
5,
14,
14,
15,
1,
2,
2,
6,
6,
14,
34,
32,
45,
44,
44,
39,
27,
27,
9,
9,
9,
14,
30,
29,
40,
39,
39,
36,
24,
24,
11,
11,
11,
5,
5,
3,
3,
1,
1,
4,
4,
0,
11,
10,
10,
12,
12,
12,
12,
12,
12,
16,
16,
15,
15,
9,
9,
11,
11,
9,
9,
6,
6,
10,
10,
7,
7,
7,
7,
14,
1,
2,
2,
0,
0,
5,
5,
10,
10,
15,
15,
14,
14,
8,
8,
0,
0,
4,
4,
5,
5,
0,
0,
2,
2,
2,
2,
3,
3,
10,
10,
13,
13,
20,
20,
25,
25,
23,
11,
12,
0,
4,
4,
11,
11,
12,
12,
6,
6,
4,
4,
4,
4,
6,
6,
9,
9,
11,
11,
10,
10,
5,
5,
9,
9,
18,
18,
16,
16,
11,
11,
3,
3,
3,
3,
3,
3,
1,
1,
10,
10,
9,
9,
8,
8,
10,
10,
4,
4,
0,
0,
7,
7,
12,
12,
3,
3,
3,
3,
6,
6,
11,
11,
7,
7,
7,
7,
8,
8,
2,
2,
0,
0,
-1,
11,
11,
31,
30,
30,
33,
22,
23,
23,
22,
9,
9,
9,
11,
37,
36,
50,
50,
50,
40,
26,
26,
12,
12,
0,
0,
0,
0,
0,
10,
10,
20,
20,
21,
21,
21,
21,
24,
24,
16,
3,
3,
3,
3,
3,
5,
5,
3,
3,
0,
0,
0,
0,
-1,
-1,
2,
2,
2,
2,
-1,
-1,
1,
1,
0,
0,
-1,
-1,
2,
2,
-1,
-1,
3,
3,
3,
3,
5,
5,
8,
8,
7,
7,
9,
9,
2,
14,
13,
13,
12,
12,
14,
2,
7,
23,
22,
22,
20,
20,
15,
15,
16,
5,
6,
6,
10,
10,
19,
19,
13,
13,
12,
12,
8,
8,
2,
2,
3,
3,
1,
1,
2,
2,
0,
0,
0,
0,
4,
15,
15,
15,
5,
5,
2,
2,
8,
8,
7,
7,
8,
33,
33,
33,
32,
11,
12,
12,
4,
4,
8,
8,
10,
10,
9,
9,
11,
11,
17,
17,
26,
26,
19,
1,
2,
14,
14,
30,
28,
28,
18,
0,
2,
2,
6,
6,
5,
5,
5,
5,
0,
0,
8,
8,
17,
17,
22,
6,
6,
6,
-1,
-1,
6,
6,
6,
6,
1,
1,
3,
3,
8,
8,
8,
8,
2,
2,
11,
11,
15,
15,
10,
10,
3,
3,
6,
6,
0,
0,
4,
4,
9,
9,
10,
10,
16,
16,
16,
1,
2,
2,
-1,
-1,
0,
0,
5,
5,
4,
4,
4,
4,
1,
1,
1,
1,
0,
0,
4,
4,
0,
0,
3,
3,
4,
15,
14,
14,
12,
0,
4,
4,
6,
6,
2,
2,
5,
5,
4,
4,
8,
8,
10,
10,
4,
4,
11,
11,
14,
14,
11,
11,
7,
7,
5,
5,
2,
2,
5,
5,
7,
7,
10,
10,
12,
0,
2,
18,
18,
18,
19,
19,
14,
14,
7,
7,
6,
6,
3,
3,
2,
2,
0,
0,
8,
8,
7,
7,
7,
7,
10,
10,
4,
4,
2,
2,
4,
4,
2,
2,
0,
0,
4,
4,
0,
0,
10,
10,
12,
0,
1,
1,
1,
1,
2,
2,
3,
3,
4,
4,
2,
2,
11,
11,
5,
5,
0,
0,
-1,
-1,
-1,
-1,
4,
4,
5,
5,
1,
1,
3,
3,
7,
7,
9,
9,
1,
14,
13,
13,
10,
10,
3,
19,
18,
18,
22,
4,
4,
4,
5,
5,
5,
23,
23,
4,
4,
23,
22,
22,
21,
9,
10,
-1,
0,
0,
8,
8,
4,
4,
0,
0,
0,
0,
3,
3,
6,
6,
3,
3,
1,
1,
0,
0,
3,
3,
6,
6,
8,
8,
3,
3,
6,
6,
15,
15,
21,
21,
18,
4,
4,
4,
1,
1,
1,
13,
12,
12,
16,
16,
14,
14,
6,
6,
8,
8,
4,
4,
7,
7,
12,
12,
5,
5,
6,
6,
4,
4,
0,
0,
2,
2,
-1,
-1,
5,
5,
11,
11,
9,
9,
3,
3,
3,
3,
0,
0,
4,
4,
0,
0,
8,
28,
28,
28,
28,
6,
6,
6,
7,
23,
22,
22,
30,
19,
20,
1,
3,
3,
8,
8,
14,
14,
18,
4,
6,
6,
4,
4,
7,
7,
12,
12,
14,
14,
13,
13,
8,
8,
0,
0,
7,
7,
13,
13,
17,
17,
18,
18,
11,
11,
9,
9,
4,
4,
5,
5,
10,
10,
8,
8,
6,
6,
2,
2,
11,
11,
14,
14,
13,
13,
15,
2,
6,
6,
15,
4,
4,
4,
8,
8,
11,
0,
1,
14,
13,
13,
7,
7,
3,
3,
0,
0,
2,
2,
5,
5,
3,
3,
3,
3,
4,
4,
1,
1,
2,
2,
-1,
-1,
2,
2,
0,
0,
9,
9,
10,
10,
7,
7,
7,
7,
7,
7,
6,
6,
6,
6,
1,
1,
6,
6,
8,
8,
8,
8,
8,
8,
2,
16,
16,
16,
16,
3,
4,
4,
2,
2,
10,
10,
11,
11,
