EMG_S1/DS0141.CSV

Memory Length,4000,
Trigger Level,0.00000e+00,
Source,CH1,
Probe,1.0X,
Vertical Units,V,
Vertical Scale,1.00000e+00,
Vertical Position,4.00000e-02,
Horizontal Units,S,
Horizontal Scale,1.00000e-01,
Horizontal Position,0.0000000e+00,
Horizontal Mode,Roll Mode,
Waveform Last Dot Address,4000,
Sampling Period,4.00000e-04,
Firmware,V1.14,
Time, ,
Mode,Fast,
Waveform Data,
22,
22,
28,
11,
18,
18,
16,
3,
3,
3,
0,
0,
4,
19,
18,
18,
20,
2,
2,
13,
13,
13,
11,
0,
1,
1,
0,
11,
11,
11,
10,
10,
2,
2,
6,
6,
10,
10,
1,
1,
3,
3,
2,
2,
3,
3,
6,
6,
5,
5,
0,
0,
7,
7,
7,
7,
6,
6,
7,
7,
9,
9,
0,
11,
10,
10,
15,
15,
9,
9,
8,
8,
12,
12,
2,
2,
3,
3,
1,
1,
6,
6,
7,
7,
5,
5,
0,
0,
3,
3,
-1,
-1,
-1,
10,
9,
9,
8,
8,
6,
6,
11,
11,
10,
-1,
0,
0,
1,
1,
4,
4,
11,
11,
10,
-1,
3,
3,
11,
11,
15,
15,
13,
0,
0,
0,
2,
13,
12,
12,
17,
17,
11,
11,
14,
14,
14,
14,
17,
2,
4,
20,
19,
19,
15,
1,
6,
24,
24,
24,
22,
7,
8,
8,
1,
21,
20,
34,
32,
32,
32,
32,
24,
5,
6,
6,
2,
16,
15,
15,
22,
22,
19,
19,
10,
10,
6,
6,
0,
0,
0,
0,
1,
1,
-1,
-1,
0,
0,
5,
5,
1,
18,
18,
18,
21,
21,
13,
13,
5,
5,
0,
0,
6,
6,
7,
7,
9,
9,
6,
6,
6,
6,
2,
2,
-1,
-1,
0,
0,
2,
2,
0,
0,
0,
0,
-1,
-1,
3,
3,
8,
8,
10,
10,
4,
4,
1,
1,
8,
8,
12,
12,
13,
2,
2,
2,
8,
8,
6,
6,
0,
0,
7,
7,
5,
5,
7,
7,
12,
12,
10,
10,
9,
9,
5,
5,
3,
3,
-1,
-1,
4,
4,
8,
8,
5,
5,
5,
5,
2,
2,
5,
5,
0,
0,
-1,
-1,
7,
24,
23,
23,
27,
11,
11,
-1,
1,
1,
4,
4,
10,
10,
12,
12,
14,
14,
10,
10,
0,
0,
1,
1,
9,
9,
12,
12,
4,
4,
2,
2,
-1,
-1,
0,
0,
4,
4,
2,
2,
-1,
-1,
-1,
-1,
5,
5,
5,
5,
7,
7,
11,
11,
8,
37,
37,
37,
38,
17,
17,
2,
5,
5,
12,
12,
3,
3,
0,
0,
6,
6,
3,
3,
5,
5,
2,
2,
10,
10,
11,
11,
10,
10,
15,
15,
20,
20,
15,
15,
6,
6,
1,
14,
13,
13,
11,
-1,
1,
1,
0,
15,
14,
31,
30,
30,
38,
27,
27,
3,
3,
14,
13,
13,
11,
11,
7,
7,
0,
0,
3,
3,
6,
19,
18,
18,
24,
24,
29,
7,
7,
18,
17,
17,
18,
18,
18,
18,
14,
14,
11,
11,
10,
10,
12,
12,
7,
7,
3,
3,
10,
10,
11,
11,
8,
8,
5,
5,
0,
0,
8,
8,
8,
8,
2,
2,
9,
9,
5,
5,
4,
4,
8,
8,
2,
2,
7,
7,
2,
2,
9,
9,
6,
6,
7,
7,
12,
12,
14,
14,
9,
9,
8,
8,
11,
11,
7,
7,
3,
3,
3,
3,
1,
1,
0,
0,
-1,
10,
9,
24,
23,
23,
20,
7,
8,
8,
-1,
-1,
5,
5,
11,
22,
22,
22,
20,
20,
17,
17,
11,
0,
1,
20,
19,
30,
28,
28,
19,
3,
3,
3,
8,
8,
2,
2,
11,
0,
1,
1,
1,
1,
4,
4,
8,
8,
17,
2,
3,
16,
16,
27,
26,
26,
21,
2,
3,
19,
19,
19,
16,
16,
12,
12,
11,
11,
6,
6,
2,
2,
6,
6,
15,
15,
17,
17,
13,
13,
5,
5,
2,
2,
3,
3,
8,
8,
1,
19,
19,
31,
31,
31,
23,
10,
10,
10,
5,
5,
3,
3,
4,
4,
4,
4,
11,
11,
15,
4,
5,
5,
8,
22,
21,
21,
28,
28,
24,
3,
4,
4,
12,
12,
14,
14,
8,
8,
14,
14,
14,
14,
17,
17,
16,
2,
6,
6,
1,
1,
0,
0,
1,
1,
1,
1,
2,
2,
8,
8,
15,
28,
27,
27,
24,
12,
14,
-1,
0,
0,
3,
3,
8,
8,
8,
8,
6,
6,
6,
18,
17,
17,
14,
1,
4,
15,
15,
15,
19,
19,
15,
3,
4,
4,
2,
2,
5,
5,
12,
12,
14,
14,
7,
7,
4,
4,
2,
2,
0,
0,
5,
26,
25,
39,
38,
26,
26,
10,
11,
0,
4,
4,
9,
9,
4,
4,
5,
5,
6,
6,
7,
27,
26,
26,
27,
27,
21,
21,
14,
14,
9,
9,
1,
1,
10,
10,
17,
17,
13,
0,
0,
0,
-1,
-1,
-1,
-1,
4,
4,
12,
12,
15,
15,
13,
13,
5,
5,
3,
3,
8,
8,
11,
0,
2,
15,
15,
15,
12,
12,
3,
3,
8,
8,
13,
13,
7,
7,
-1,
-1,
1,
1,
7,
7,
14,
14,
18,
18,
12,
12,
11,
0,
2,
16,
16,
16,
18,
18,
12,
12,
8,
8,
3,
3,
3,
3,
4,
4,
2,
2,
0,
22,
22,
22,
27,
2,
3,
3,
8,
8,
14,
14,
4,
4,
12,
12,
13,
13,
5,
5,
7,
18,
18,
18,
20,
20,
21,
21,
13,
0,
1,
12,
11,
23,
22,
22,
18,
18,
17,
17,
20,
20,
13,
-1,
0,
0,
7,
7,
11,
11,
8,
8,
8,
8,
11,
11,
10,
10,
9,
9,
10,
-1,
1,
1,
2,
18,
17,
36,
36,
36,
39,
39,
31,
31,
24,
4,
5,
18,
17,
31,
30,
30,
35,
23,
23,
1,
2,
2,
2,
2,
11,
11,
8,
8,
0,
0,
0,
0,
0,
0,
4,
4,
8,
8,
6,
6,
15,
26,
24,
24,
14,
0,
2,
2,
11,
11,
8,
8,
2,
2,
3,
3,
1,
1,
4,
4,
4,
4,
7,
7,
1,
1,
0,
0,
2,
2,
2,
2,
0,
16,
15,
15,
12,
-1,
-1,
-1,
4,
4,
1,
1,
4,
4,
0,
0,
5,
5,
10,
10,
8,
22,
22,
10,
10,
10,
6,
6,
10,
10,
11,
11,
11,
11,
13,
13,
14,
14,
15,
15,
6,
6,
3,
26,
24,
36,
35,
35,
28,
10,
11,
-1,
0,
0,
1,
1,
2,
2,
2,
2,
5,
5,
9,
9,
6,
6,
3,
3,
6,
6,
10,
10,
4,
4,
6,
6,
15,
15,
8,
8,
7,
7,
14,
14,
16,
16,
8,
8,
4,
4,
0,
0,
6,
6,
12,
12,
18,
18,
15,
0,
1,
1,
2,
2,
10,
10,
9,
9,
15,
15,
22,
22,
18,
18,
11,
-1,
0,
0,
0,
0,
-1,
-1,
2,
2,
3,
3,
3,
3,
7,
7,
6,
6,
9,
9,
4,
4,
11,
11,
10,
10,
7,
7,
0,
0,
-1,
-1,
-1,
-1,
1,
1,
6,
6,
6,
6,
2,
2,
1,
1,
8,
8,
4,
24,
24,
24,
34,
23,
23,
3,
4,
4,
6,
6,
7,
7,
9,
9,
4,
4,
8,
8,
15,
15,
18,
18,
12,
-1,
0,
0,
9,
9,
6,
6,
1,
1,
10,
10,
10,
10,
10,
10,
4,
4,
7,
7,
11,
22,
21,
2,
2,
2,
0,
0,
0,
0,
1,
1,
3,
3,
4,
4,
4,
4,
2,
2,
2,
13,
12,
12,
10,
10,
7,
7,
5,
5,
6,
6,
6,
6,
5,
5,
3,
3,
7,
7,
15,
15,
19,
4,
5,
5,
2,
2,
0,
0,
5,
5,
14,
14,
11,
0,
3,
3,
11,
11,
5,
16,
15,
15,
12,
-1,
0,
0,
8,
8,
15,
15,
16,
1,
2,
2,
11,
22,
21,
21,
28,
28,
23,
10,
10,
-1,
1,
1,
6,
6,
4,
4,
2,
2,
6,
6,
10,
10,
2,
2,
0,
0,
-1,
-1,
4,
4,
1,
1,
10,
10,
19,
19,
21,
21,
17,
17,
9,
9,
6,
6,
3,
3,
3,
3,
10,
10,
12,
12,
16,
16,
15,
2,
3,
3,
7,
7,
3,
3,
2,
2,
7,
7,
0,
0,
9,
22,
22,
22,
21,
6,
6,
6,
3,
3,
6,
6,
13,
13,
10,
10,
7,
29,
29,
29,
30,
19,
19,
19,
12,
12,
5,
5,
0,
0,
1,
1,
3,
3,
11,
11,
11,
11,
7,
7,
6,
6,
0,
0,
7,
7,
5,
5,
10,
10,
18,
18,
24,
24,
22,
22,
13,
13,
13,
13,
11,
0,
2,
14,
14,
14,
17,
17,
14,
14,
6,
6,
11,
11,
18,
18,
15,
15,
6,
6,
0,
0,
3,
3,
7,
7,
9,
9,
6,
6,
5,
5,
7,
7,
4,
4,
4,
4,
2,
2,
9,
9,
10,
10,
11,
11,
9,
9,
2,
2,
1,
1,
6,
6,
1,
14,
14,
14,
17,
17,
13,
0,
1,
1,
10,
-1,
1,
1,
5,
5,
6,
6,
6,
6,
14,
3,
4,
4,
10,
10,
14,
14,
7,
7,
6,
6,
8,
8,
3,
14,
12,
12,
16,
16,
15,
1,
2,
13,
13,
13,
21,
21,
15,
15,
10,
10,
10,
10,
3,
3,
4,
4,
7,
7,
2,
2,
8,
8,
15,
15,
14,
14,
12,
12,
9,
9,
3,
21,
20,
20,
20,
5,
5,
5,
0,
0,
4,
4,
1,
1,
4,
4,
2,
2,
5,
5,
11,
27,
26,
14,
14,
0,
3,
3,
6,
6,
9,
9,
8,
8,
4,
4,
2,
2,
7,
22,
21,
21,
20,
2,
3,
3,
10,
10,
17,
17,
11,
11,
2,
2,
0,
0,
1,
1,
4,
4,
11,
11,
17,
17,
7,
7,
5,
5,
7,
7,
6,
6,
4,
4,
3,
3,
3,
3,
7,
7,
7,
7,
7,
7,
6,
6,
1,
1,
2,
2,
-1,
-1,
7,
7,
15,
0,
1,
1,
4,
4,
0,
0,
5,
24,
24,
24,
30,
19,
19,
0,
1,
1,
8,
8,
7,
7,
4,
4,
12,
26,
25,
25,
26,
7,
7,
7,
5,
5,
2,
2,
2,
2,
6,
6,
5,
16,
16,
29,
28,
28,
30,
30,
21,
2,
2,
2,
11,
11,
7,
7,
0,
13,
12,
12,
18,
18,
18,
18,
14,
14,
6,
6,
10,
10,
1,
14,
14,
14,
20,
20,
12,
12,
11,
11,
10,
10,
12,
12,
11,
11,
3,
3,
0,
0,
5,
5,
8,
8,
6,
6,
0,
0,
5,
5,
8,
8,
7,
7,
12,
12,
13,
13,
8,
8,
10,
10,
10,
10,
0,
0,
1,
1,
4,
15,
15,
15,
19,
19,
20,
20,
21,
21,
17,
17,
8,
8,
2,
2,
7,
7,
10,
10,
4,
4,
2,
2,
-1,
-1,
6,
6,
10,
10,
11,
11,
2,
2,
-1,
-1,
-1,
-1,
0,
0,
3,
3,
5,
5,
11,
11,
5,
5,
5,
5,
2,
2,
-1,
-1,
-1,
-1,
2,
2,
0,
0,
7,
7,
12,
-1,
0,
0,
0,
0,
0,
20,
19,
19,
18,
0,
3,
3,
7,
20,
19,
36,
36,
36,
31,
2,
2,
2,
11,
24,
23,
23,
30,
12,
13,
0,
1,
1,
2,
2,
5,
5,
4,
4,
12,
12,
14,
0,
0,
0,
6,
6,
2,
2,
3,
3,
4,
4,
1,
1,
0,
0,
-1,
-1,
5,
5,
14,
14,
9,
9,
2,
2,
7,
7,
12,
12,
8,
8,
6,
6,
8,
8,
9,
9,
4,
4,
0,
0,
4,
4,
7,
7,
6,
6,
10,
10,
8,
8,
14,
14,
22,
22,
17,
17,
7,
7,
7,
7,
6,
6,
5,
5,
11,
27,
26,
26,
16,
4,
15,
15,
10,
10,
6,
21,
20,
6,
7,
7,
6,
6,
3,
22,
22,
22,
31,
31,
32,
32,
26,
14,
15,
15,
10,
10,
11,
26,
26,
26,
26,
26,
26,
26,
19,
19,
15,
15,
10,
10,
2,
2,
2,
17,
16,
16,
15,
3,
14,
14,
18,
18,
11,
11,
2,
2,
2,
2,
6,
6,
12,
12,
12,
12,
14,
14,
7,
7,
2,
2,
1,
1,
10,
10,
12,
12,
11,
11,
7,
7,
12,
12,
16,
16,
7,
7,
3,
3,
11,
11,
19,
19,
22,
7,
8,
8,
3,
3,
12,
12,
15,
15,
12,
12,
6,
6,
2,
2,
4,
4,
6,
6,
7,
7,
6,
6,
16,
16,
14,
3,
3,
3,
5,
5,
7,
7,
5,
5,
2,
2,
3,
3,
5,
5,
6,
6,
1,
1,
5,
17,
15,
15,
10,
10,
5,
5,
11,
11,
12,
12,
2,
2,
11,
11,
16,
16,
15,
0,
2,
14,
14,
14,
18,
18,
16,
4,
5,
5,
11,
23,
23,
23,
29,
17,
18,
3,
12,
39,
39,
39,
37,
25,
26,
2,
3,
15,
14,
14,
18,
5,
5,
5,
2,
2,
6,
6,
3,
3,
0,
11,
11,
11,
20,
20,
22,
22,
20,
3,
4,
41,
40,
52,
51,
26,
26,
2,
3,
18,
18,
38,
37,
37,
37,
18,
18,
5,
18,
48,
48,
48,
45,
27,
27,
27,
26,
26,
28,
5,
5,
27,
27,
50,
49,
49,
47,
30,
31,
31,
27,
7,
8,
8,
14,
2,
3,
31,
30,
42,
40,
22,
23,
5,
5,
5,
6,
6,
1,
1,
9,
9,
15,
3,
6,
26,
26,
14,
14,
2,
7,
22,
21,
5,
17,
50,
50,
50,
54,
18,
19,
5,
16,
16,
20,
20,
23,
35,
34,
34,
25,
25,
28,
17,
18,
1,
1,
1,
7,
7,
16,
28,
27,
27,
19,
0,
2,
2,
3,
3,
1,
1,
10,
10,
4,
15,
15,
15,
12,
12,
6,
6,
1,
1,
4,
4,
6,
6,
10,
24,
24,
13,
13,
2,
2,
19,
18,
39,
38,
22,
22,
0,
2,
2,
8,
8,
13,
1,
5,
5,
12,
25,
24,
24,
25,
7,
7,
7,
5,
5,
13,
13,
10,
10,
10,
10,
10,
10,
7,
7,
13,
13,
8,
8,
6,
6,
13,
13,
5,
5,
0,
14,
14,
14,
23,
23,
23,
23,
21,
6,
26,
45,
43,
27,
27,
27,
18,
7,
7,
19,
19,
19,
16,
16,
13,
0,
3,
24,
23,
23,
16,
16,
8,
23,
22,
22,
29,
8,
8,
8,
15,
26,
26,
26,
31,
31,
28,
16,
17,
17,
10,
10,
4,
4,
1,
1,
2,
15,
15,
15,
20,
9,
10,
23,
23,
23,
21,
3,
4,
4,
0,
0,
2,
2,
0,
0,
0,
0,
6,
21,
20,
20,
15,
3,
14,
31,
30,
30,
28,
9,
9,
9,
13,
13,
14,
14,
9,
9,
8,
8,
10,
10,
6,
6,
15,
15,
13,
13,
7,
7,
14,
32,
32,
32,
35,
21,
22,
0,
0,
0,
2,
2,
6,
18,
18,
18,
20,
38,
37,
24,
25,
7,
33,
52,
50,
21,
22,
7,
8,
8,
15,
15,
12,
12,
13,
2,
2,
18,
17,
17,
27,
27,
26,
26,
21,
8,
8,
8,
1,
1,
4,
4,
2,
2,
1,
1,
-1,
-1,
2,
2,
0,
0,
2,
2,
2,
2,
4,
19,
19,
32,
31,
31,
26,
15,
15,
15,
10,
10,
5,
5,
10,
10,
7,
7,
6,
6,
8,
8,
13,
13,
9,
9,
16,
3,
4,
4,
9,
9,
15,
15,
11,
0,
2,
2,
7,
7,
10,
10,
7,
7,
2,
2,
1,
1,
4,
4,
3,
3,
11,
11,
11,
11,
18,
31,
29,
29,
26,
14,
14,
1,
5,
19,
18,
18,
19,
19,
15,
15,
14,
14,
5,
5,
-1,
-1,
2,
2,
3,
3,
6,
6,
0,
14,
14,
14,
21,
9,
9,
9,
6,
6,
10,
10,
17,
17,
19,
2,
6,
33,
32,
46,
44,
44,
36,
15,
16,
2,
6,
6,
14,
14,
14,
14,
7,
7,
3,
3,
2,
2,
1,
13,
11,
11,
14,
14,
20,
20,
20,
1,
2,
14,
12,
24,
23,
23,
14,
-1,
0,
0,
7,
7,
6,
19,
18,
18,
18,
18,
16,
0,
1,
13,
12,
12,
9,
9,
2,
2,
4,
4,
12,
12,
5,
5,
12,
12,
11,
11,
16,
2,
9,
51,
51,
64,
59,
22,
23,
4,
12,
25,
23,
12,
14,
3,
5,
5,
0,
0,
7,
7,
2,
2,
10,
10,
16,
16,
18,
18,
11,
0,
5,
5,
7,
7,
0,
0,
1,
1,
8,
8,
8,
8,
6,
6,
7,
7,
0,
0,
5,
5,
3,
20,
19,
34,
34,
34,
31,
11,
11,
-1,
0,
0,
6,
18,
18,
33,
32,
32,
38,
38,
33,
20,
20,
3,
11,
39,
39,
39,
48,
30,
31,
11,
11,
0,
3,
24,
23,
23,
30,
16,
16,
2,
6,
6,
14,
14,
10,
10,
7,
7,
6,
6,
6,
6,
2,
2,
7,
7,
7,
7,
0,
0,
0,
0,
4,
4,
2,
2,
2,
2,
1,
1,
2,
2,
8,
8,
14,
28,
27,
27,
28,
7,
8,
8,
9,
9,
16,
16,
20,
20,
22,
22,
16,
5,
5,
5,
14,
14,
17,
4,
4,
4,
5,
5,
8,
8,
3,
3,
-1,
-1,
6,
6,
12,
12,
14,
14,
23,
23,
25,
6,
6,
6,
4,
4,
10,
10,
11,
11,
13,
13,
12,
12,
18,
18,
10,
10,
7,
7,
15,
15,
16,
16,
6,
6,
7,
7,
11,
-1,
1,
1,
2,
2,
0,
11,
11,
11,
12,
12,
6,
6,
10,
10,
11,
23,
22,
33,
31,
15,
16,
3,
14,
28,
27,
27,
24,
24,
24,
24,
18,
18,
14,
14,
18,
18,
14,
14,
5,
5,
6,
6,
14,
14,
22,
22,
30,
30,
27,
10,
11,
0,
3,
18,
16,
16,
18,
3,
12,
34,
32,
19,
19,
2,
4,
4,
10,
10,
0,
0,
2,
2,
5,
5,
9,
9,
14,
2,
3,
31,
30,
30,
33,
8,
8,
8,
15,
26,
26,
26,
28,
28,
20,
3,
4,
4,
1,
1,
2,
2,
3,
3,
8,
8,
6,
6,
3,
3,
10,
10,
12,
12,
9,
9,
5,
5,
0,
0,
3,
3,
6,
6,
1,
15,
14,
14,
21,
8,
8,
8,
2,
2,
8,
8,
8,
8,
0,
0,
2,
13,
11,
0,
0,
14,
13,
13,
6,
6,
4,
4,
4,
4,
10,
10,
11,
11,
2,
30,
29,
40,
39,
16,
16,
0,
1,
1,
10,
10,
15,
4,
5,
5,
2,
2,
1,
1,
6,
6,
7,
7,
5,
5,
2,
2,
1,
1,
2,
2,
7,
7,
6,
6,
6,
6,
3,
3,
3,
3,
3,
3,
2,
2,
3,
3,
6,
6,
7,
7,
1,
1,
3,
3,
7,
7,
0,
0,
8,
22,
22,
22,
25,
6,
7,
7,
2,
2,
9,
9,
15,
15,
6,
6,
15,
15,
21,
21,
25,
25,
24,
24,
26,
7,
7,
7,
7,
7,
1,
1,
2,
2,
1,
1,
10,
10,
16,
16,
26,
26,
19,
19,
9,
9,
2,
2,
-1,
11,
11,
11,
14,
3,
3,
3,
9,
9,
13,
13,
6,
6,
7,
7,
11,
11,
11,
11,
2,
2,
0,
0,
5,
5,
8,
8,
0,
0,
1,
1,
1,
1,
6,
6,
-1,
12,
11,
22,
22,
11,
11,
11,
6,
17,
16,
16,
18,
18,
9,
9,
6,
18,
17,
17,
15,
15,
8,
8,
10,
10,
14,
14,
16,
16,
10,
10,
8,
8,
15,
15,
11,
11,
8,
8,
0,
0,
6,
6,
7,
7,
3,
3,
10,
10,
4,
4,
7,
7,
12,
24,
23,
34,
33,
15,
15,
15,
8,
8,
5,
16,
16,
16,
22,
22,
23,
23,
21,
10,
11,
0,
4,
4,
8,
8,
0,
0,
3,
3,
3,
3,
3,
3,
4,
4,
1,
1,
1,
15,
14,
14,
11,
11,
13,
13,
17,
17,
10,
10,
4,
4,
12,
12,
10,
-1,
0,
0,
8,
8,
9,
9,
2,
2,
6,
6,
6,
6,
13,
0,
3,
3,
9,
9,
8,
8,
15,
15,
14,
14,
14,
2,
2,
2,
7,
7,
14,
2,
2,
2,
6,
6,
5,
5,
12,
32,
31,
31,
30,
9,
10,
10,
13,
13,
19,
19,
11,
0,
4,
4,
9,
9,
7,
7,
4,
4,
3,
3,
7,
7,
-1,
-1,
-1,
-1,
0,
0,
10,
10,
9,
9,
2,
2,
10,
10,
5,
5,
4,
4,
6,
6,
3,
3,
0,
0,
4,
4,
5,
5,
2,
2,
0,
0,
3,
3,
2,
2,
5,
16,
16,
16,
16,
1,
3,
19,
19,
19,
26,
13,
14,
36,
36,
51,
47,
19,
19,
2,
3,
3,
2,
2,
10,
10,
1,
1,
3,
17,
17,
1,
2,
2,
0,
0,
9,
9,
10,
10,
5,
5,
10,
10,
16,
5,
6,
6,
11,
11,
14,
14,
10,
10,
2,
2,
1,
1,
5,
5,
7,
26,
24,
10,
10,
-1,
0,
13,
12,
12,
13,
0,
2,
2,
-1,
-1,
0,
0,
4,
4,
5,
5,
4,
4,
3,
3,
8,
8,
9,
9,
9,
9,
6,
6,
0,
0,
0,
0,
6,
6,
10,
10,
18,
18,
20,
7,
7,
7,
4,
4,
0,
0,
8,
8,
6,
6,
3,
3,
3,
3,
6,
6,
1,
1,
4,
4,
3,
3,
6,
6,
10,
10,
2,
2,
5,
5,
0,
0,
6,
6,
4,
4,
3,
3,
9,
9,
3,
3,
3,
3,
11,
11,
14,
14,
9,
9,
3,
3,
10,
10,
2,
2,
7,
7,
4,
4,
-1,
-1,
0,
0,
1,
1,
0,
0,
6,
6,
6,
6,
4,
4,
0,
0,
1,
1,
6,
6,
3,
14,
14,
14,
18,
4,
5,
5,
7,
7,
3,
45,
45,
66,
65,
28,
29,
8,
22,
22,
29,
29,
32,
32,
30,
30,
22,
10,
11,
11,
13,
13,
13,
2,
2,
2,
5,
5,
2,
14,
13,
13,
19,
19,
16,
2,
2,
2,
3,
3,
10,
10,
16,
16,
10,
10,
3,
3,
3,
3,
0,
0,
4,
4,
4,
4,
1,
1,
7,
7,
8,
8,
5,
5,
0,
0,
-1,
-1,
4,
4,
3,
3,
0,
0,
3,
3,
0,
0,
2,
2,
6,
6,
2,
14,
14,
14,
20,
20,
17,
6,
7,
7,
3,
3,
8,
8,
7,
7,
5,
5,
5,
5,
8,
8,
10,
10,
5,
5,
0,
0,
5,
5,
0,
0,
3,
3,
10,
10,
16,
16,
10,
10,
2,
2,
4,
4,
4,
4,
0,
0,
0,
0,
8,
8,
5,
5,
13,
13,
14,
14,
10,
10,
3,
32,
32,
51,
50,
34,
34,
17,
19,
19,
10,
10,
4,
4,
7,
7,
0,
0,
0,
17,
16,
30,
30,
30,
34,
34,
35,
35,
26,
12,
13,
13,
3,
3,
4,
16,
16,
16,
19,
19,
24,
24,
22,
22,
16,
16,
8,
8,
10,
10,
8,
8,
0,
0,
3,
3,
8,
8,
3,
3,
5,
5,
5,
5,
2,
2,
0,
0,
4,
4,
-1,
-1,
2,
2,
0,
0,
1,
1,
6,
6,
6,
6,
3,
3,
3,
3,
3,
3,
1,
1,
4,
4,
4,
17,
17,
17,
21,
21,
16,
16,
7,
7,
0,
0,
0,
0,
3,
3,
5,
5,
10,
10,
6,
6,
8,
8,
10,
10,
11,
11,
8,
8,
3,
3,
3,
16,
15,
26,
25,
10,
11,
0,
0,
0,
5,
5,
2,
15,
15,
15,
18,
7,
7,
7,
8,
8,
11,
11,
2,
2,
0,
0,
0,
0,
7,
7,
13,
13,
7,
7,
2,
2,
3,
3,
13,
13,
7,
7,
2,
2,
0,
0,
3,
3,
9,
9,
7,
7,
2,
2,
7,
7,
5,
5,
0,
0,
2,
2,
3,
3,
6,
6,
5,
5,
3,
3,
8,
8,
6,
6,
12,
12,
3,
20,
20,
20,
14,
2,
4,
4,
4,
4,
5,
5,
3,
23,
22,
22,
30,
16,
17,
5,
6,
17,
16,
16,
6,
6,
12,
34,
33,
33,
41,
41,
35,
17,
18,
1,
3,
3,
4,
4,
2,
2,
0,
0,
3,
3,
1,
14,
14,
26,
26,
26,
30,
19,
20,
0,
0,
0,
6,
6,
0,
0,
7,
7,
14,
14,
16,
2,
3,
20,
20,
20,
16,
16,
12,
12,
16,
16,
25,
5,
7,
31,
29,
29,
26,
26,
16,
16,
6,
6,
0,
0,
-1,
-1,
1,
1,
4,
4,
13,
13,
9,
9,
0,
0,
9,
9,
6,
6,
4,
4,
8,
8,
5,
5,
6,
6,
5,
5,
0,
0,
4,
4,
6,
6,
2,
14,
14,
14,
15,
15,
11,
11,
10,
10,
8,
8,
4,
4,
1,
1,
7,
7,
5,
5,
3,
3,
5,
5,
8,
8,
6,
6,
6,
6,
5,
5,
1,
1,
2,
2,
3,
23,
