EMG_S1/DS0130.CSV

Memory Length,4000,
Trigger Level,0.00000e+00,
Source,CH1,
Probe,1.0X,
Vertical Units,V,
Vertical Scale,1.00000e+00,
Vertical Position,4.00000e-02,
Horizontal Units,S,
Horizontal Scale,1.00000e-01,
Horizontal Position,0.0000000e+00,
Horizontal Mode,Roll Mode,
Waveform Last Dot Address,4000,
Sampling Period,4.00000e-04,
Firmware,V1.14,
Time, ,
Mode,Fast,
Waveform Data,
4,
4,
0,
0,
7,
7,
8,
8,
9,
9,
6,
6,
1,
1,
2,
2,
6,
18,
18,
18,
25,
25,
20,
20,
18,
18,
11,
0,
4,
21,
19,
19,
25,
14,
14,
14,
9,
9,
8,
8,
3,
3,
0,
0,
0,
0,
6,
6,
5,
5,
11,
11,
19,
19,
16,
5,
6,
6,
0,
0,
3,
3,
-1,
-1,
3,
3,
5,
5,
0,
0,
0,
0,
5,
5,
8,
8,
4,
4,
-1,
-1,
7,
7,
10,
10,
6,
6,
-1,
-1,
0,
0,
7,
7,
13,
13,
13,
13,
10,
10,
6,
6,
1,
1,
1,
1,
1,
1,
8,
8,
13,
13,
15,
15,
17,
17,
12,
0,
2,
2,
8,
8,
8,
8,
3,
3,
-1,
-1,
0,
0,
-1,
-1,
4,
4,
0,
0,
5,
5,
2,
2,
9,
9,
1,
1,
1,
1,
0,
0,
4,
4,
2,
2,
0,
0,
1,
1,
3,
3,
2,
2,
-1,
-1,
2,
2,
0,
0,
-1,
-1,
0,
0,
-1,
-1,
1,
1,
1,
1,
4,
4,
14,
14,
16,
16,
12,
0,
2,
2,
7,
7,
0,
0,
3,
3,
0,
0,
0,
0,
3,
3,
7,
7,
5,
5,
12,
12,
8,
8,
1,
1,
9,
9,
16,
16,
17,
17,
12,
12,
8,
8,
0,
0,
6,
18,
18,
18,
24,
24,
16,
16,
6,
6,
1,
1,
1,
1,
5,
5,
8,
8,
3,
3,
4,
4,
3,
3,
0,
0,
2,
2,
3,
3,
11,
11,
14,
14,
15,
15,
11,
0,
5,
5,
13,
13,
17,
17,
16,
16,
8,
8,
5,
5,
8,
8,
0,
0,
0,
0,
-1,
-1,
1,
1,
-1,
-1,
1,
1,
2,
2,
0,
0,
4,
4,
12,
12,
11,
11,
5,
5,
4,
4,
3,
3,
6,
6,
6,
6,
3,
3,
8,
8,
8,
8,
6,
6,
6,
6,
2,
2,
0,
0,
2,
2,
0,
0,
-1,
-1,
2,
2,
7,
7,
10,
10,
12,
12,
15,
15,
11,
11,
2,
2,
1,
1,
6,
6,
8,
8,
11,
11,
7,
7,
2,
2,
1,
1,
1,
1,
1,
1,
3,
3,
4,
4,
11,
11,
9,
9,
1,
1,
0,
0,
0,
0,
5,
5,
6,
6,
3,
3,
4,
4,
0,
0,
2,
2,
-1,
10,
10,
10,
12,
1,
6,
19,
19,
19,
15,
15,
11,
11,
7,
7,
1,
1,
0,
0,
-1,
10,
10,
22,
20,
20,
18,
1,
2,
2,
8,
8,
6,
6,
0,
0,
5,
5,
6,
6,
5,
5,
7,
7,
3,
3,
0,
0,
4,
4,
7,
7,
0,
0,
2,
2,
9,
9,
13,
13,
12,
12,
8,
8,
1,
1,
1,
1,
2,
2,
7,
7,
12,
12,
10,
10,
10,
10,
11,
11,
6,
6,
1,
1,
-1,
-1,
2,
2,
6,
6,
2,
2,
6,
6,
8,
8,
7,
7,
2,
2,
-1,
-1,
0,
0,
1,
1,
-1,
-1,
0,
0,
6,
6,
13,
13,
11,
11,
2,
2,
1,
1,
2,
2,
0,
0,
2,
2,
3,
3,
0,
0,
2,
2,
10,
10,
11,
11,
9,
9,
4,
4,
13,
13,
14,
14,
7,
7,
-1,
-1,
-1,
-1,
6,
6,
12,
12,
10,
10,
6,
6,
2,
2,
0,
0,
4,
4,
4,
4,
5,
5,
10,
10,
6,
6,
3,
3,
8,
8,
4,
4,
0,
0,
2,
2,
6,
6,
2,
2,
0,
0,
1,
1,
1,
1,
3,
3,
10,
10,
17,
17,
18,
7,
7,
7,
0,
0,
0,
0,
3,
3,
3,
3,
2,
2,
1,
1,
8,
8,
11,
11,
8,
8,
2,
2,
6,
6,
3,
3,
0,
0,
2,
2,
5,
5,
6,
6,
-1,
-1,
0,
0,
1,
1,
6,
6,
6,
6,
0,
0,
8,
8,
8,
8,
3,
3,
8,
8,
7,
7,
8,
8,
5,
5,
1,
1,
8,
8,
12,
12,
5,
5,
1,
1,
4,
4,
6,
6,
3,
3,
5,
5,
12,
12,
12,
12,
6,
6,
1,
1,
6,
6,
7,
7,
8,
8,
6,
6,
9,
9,
14,
14,
13,
13,
10,
-1,
0,
0,
6,
6,
9,
9,
11,
11,
14,
14,
11,
11,
3,
3,
-1,
-1,
0,
0,
6,
6,
3,
3,
0,
0,
3,
3,
11,
11,
8,
8,
1,
1,
5,
5,
0,
0,
-2,
-2,
0,
0,
4,
4,
4,
4,
-1,
-1,
0,
0,
1,
1,
4,
4,
7,
7,
14,
14,
16,
16,
15,
1,
2,
2,
2,
2,
2,
2,
3,
3,
0,
0,
3,
3,
0,
0,
6,
6,
4,
4,
4,
4,
13,
13,
5,
5,
3,
3,
2,
2,
3,
3,
2,
2,
2,
2,
10,
10,
11,
11,
12,
12,
11,
0,
2,
2,
7,
7,
11,
11,
10,
10,
0,
0,
3,
3,
11,
22,
22,
22,
16,
0,
1,
1,
3,
3,
7,
7,
11,
-1,
1,
1,
8,
8,
12,
12,
13,
13,
6,
6,
7,
7,
15,
3,
3,
3,
0,
0,
4,
4,
10,
10,
11,
11,
7,
7,
1,
1,
0,
0,
7,
7,
5,
5,
10,
10,
11,
11,
12,
12,
17,
17,
23,
23,
17,
17,
8,
8,
3,
3,
11,
11,
19,
19,
18,
18,
14,
14,
12,
12,
10,
10,
4,
4,
3,
3,
8,
8,
14,
14,
12,
12,
5,
5,
1,
1,
3,
3,
0,
0,
0,
0,
7,
7,
7,
7,
-1,
-1,
2,
2,
1,
1,
3,
3,
-1,
-1,
2,
13,
13,
13,
16,
16,
12,
12,
8,
8,
14,
39,
39,
39,
45,
30,
31,
3,
6,
18,
16,
16,
8,
8,
6,
6,
8,
8,
12,
12,
18,
18,
18,
18,
11,
11,
8,
8,
5,
5,
0,
0,
1,
1,
3,
3,
6,
6,
12,
12,
17,
17,
23,
23,
26,
26,
19,
2,
3,
3,
2,
2,
4,
4,
4,
4,
6,
6,
7,
7,
10,
10,
2,
2,
4,
4,
4,
4,
0,
0,
-1,
-1,
1,
1,
-1,
-1,
2,
2,
6,
6,
3,
3,
4,
4,
13,
13,
11,
-1,
2,
2,
2,
2,
0,
0,
3,
3,
0,
0,
3,
3,
11,
24,
23,
23,
21,
9,
10,
10,
4,
4,
4,
4,
2,
2,
7,
7,
9,
9,
7,
7,
8,
8,
9,
9,
8,
8,
12,
12,
9,
9,
4,
4,
3,
14,
13,
13,
17,
17,
8,
8,
7,
22,
22,
22,
28,
12,
13,
0,
2,
2,
8,
8,
10,
10,
12,
12,
12,
12,
6,
6,
8,
8,
9,
9,
7,
7,
4,
4,
0,
11,
11,
11,
8,
8,
5,
5,
8,
8,
6,
6,
1,
1,
6,
6,
4,
4,
1,
15,
14,
27,
27,
27,
20,
8,
9,
9,
5,
5,
5,
5,
4,
16,
15,
15,
15,
15,
11,
-1,
1,
1,
2,
2,
4,
4,
4,
4,
5,
5,
6,
6,
1,
1,
0,
0,
1,
1,
3,
3,
4,
4,
6,
6,
11,
11,
12,
12,
11,
11,
10,
10,
11,
11,
8,
8,
0,
0,
6,
6,
9,
9,
13,
13,
10,
10,
4,
4,
2,
2,
7,
7,
4,
4,
2,
2,
2,
2,
8,
8,
12,
12,
11,
11,
6,
6,
2,
2,
4,
4,
6,
6,
8,
8,
7,
7,
0,
0,
1,
1,
1,
1,
-1,
-1,
0,
0,
4,
4,
8,
8,
6,
6,
8,
8,
10,
10,
6,
6,
2,
2,
2,
2,
7,
7,
5,
5,
0,
0,
1,
1,
5,
5,
0,
0,
4,
4,
6,
6,
5,
5,
7,
7,
8,
8,
3,
3,
4,
4,
6,
6,
4,
4,
2,
2,
-1,
-1,
3,
3,
6,
6,
9,
9,
8,
8,
7,
7,
6,
6,
-1,
-1,
8,
8,
11,
11,
10,
10,
10,
10,
6,
6,
6,
6,
1,
1,
3,
3,
5,
5,
6,
6,
13,
13,
14,
14,
10,
10,
9,
9,
3,
3,
-1,
-1,
-1,
-1,
-1,
-1,
7,
7,
6,
6,
2,
2,
2,
16,
15,
15,
19,
19,
10,
-1,
0,
0,
4,
4,
10,
10,
14,
14,
10,
10,
7,
7,
6,
6,
3,
3,
0,
0,
6,
6,
13,
13,
12,
12,
14,
14,
9,
9,
0,
0,
9,
9,
8,
8,
2,
2,
1,
1,
-1,
10,
8,
8,
12,
12,
12,
12,
11,
-1,
0,
0,
6,
6,
9,
9,
9,
9,
5,
5,
4,
4,
0,
0,
3,
14,
14,
14,
6,
6,
1,
1,
2,
2,
-1,
-1,
1,
1,
1,
1,
5,
5,
7,
7,
3,
3,
3,
3,
6,
6,
8,
8,
5,
5,
0,
0,
0,
0,
-1,
-1,
7,
7,
16,
16,
11,
0,
1,
1,
-1,
-1,
-1,
-1,
2,
2,
2,
2,
4,
4,
8,
8,
5,
5,
2,
2,
5,
5,
11,
11,
7,
7,
13,
13,
15,
15,
8,
8,
3,
3,
6,
18,
18,
18,
20,
20,
13,
13,
6,
6,
0,
0,
3,
3,
1,
1,
4,
4,
2,
2,
6,
6,
6,
6,
7,
7,
2,
2,
-1,
-1,
2,
2,
4,
4,
6,
6,
6,
6,
0,
0,
0,
0,
-1,
-1,
0,
0,
0,
0,
0,
0,
0,
0,
1,
1,
6,
6,
1,
1,
0,
0,
0,
0,
6,
6,
5,
5,
2,
2,
5,
5,
3,
3,
3,
3,
10,
10,
7,
7,
0,
11,
11,
11,
7,
7,
11,
11,
13,
13,
8,
8,
3,
3,
-1,
-1,
4,
15,
14,
14,
16,
4,
4,
4,
10,
10,
12,
12,
12,
12,
16,
16,
19,
6,
7,
7,
7,
7,
14,
14,
11,
11,
9,
9,
10,
10,
2,
2,
0,
0,
3,
3,
1,
1,
10,
10,
12,
12,
6,
6,
0,
0,
4,
4,
2,
2,
0,
0,
-1,
-1,
7,
7,
9,
9,
3,
3,
4,
4,
0,
0,
6,
6,
10,
10,
8,
8,
9,
9,
11,
11,
5,
5,
3,
3,
0,
0,
4,
4,
10,
10,
9,
9,
0,
0,
4,
4,
6,
6,
7,
7,
8,
8,
9,
9,
2,
2,
11,
11,
16,
16,
11,
11,
4,
4,
0,
0,
4,
4,
8,
8,
10,
10,
8,
8,
7,
7,
2,
2,
2,
2,
3,
3,
3,
3,
0,
0,
2,
2,
7,
7,
10,
21,
20,
20,
11,
0,
6,
6,
14,
14,
15,
15,
15,
15,
9,
9,
0,
0,
7,
7,
6,
6,
0,
0,
-1,
-1,
3,
3,
4,
4,
2,
2,
6,
6,
10,
10,
18,
18,
18,
18,
10,
-1,
1,
15,
14,
14,
10,
-1,
0,
0,
5,
5,
7,
7,
0,
0,
7,
7,
6,
6,
0,
0,
9,
9,
8,
8,
3,
3,
0,
0,
0,
0,
2,
2,
3,
3,
2,
2,
3,
3,
6,
6,
8,
8,
8,
8,
7,
7,
6,
6,
9,
9,
13,
13,
13,
-1,
0,
0,
8,
8,
12,
12,
4,
4,
0,
0,
4,
4,
3,
3,
1,
1,
0,
0,
6,
6,
8,
8,
3,
3,
0,
0,
8,
8,
11,
11,
12,
12,
11,
11,
5,
5,
5,
5,
8,
8,
8,
8,
0,
0,
10,
10,
13,
13,
11,
11,
7,
7,
6,
6,
2,
2,
-1,
-1,
4,
4,
7,
7,
6,
6,
6,
6,
7,
7,
5,
5,
1,
1,
-2,
-2,
6,
6,
4,
4,
2,
2,
2,
2,
2,
2,
0,
0,
1,
1,
-1,
-1,
2,
2,
0,
0,
0,
0,
5,
5,
0,
0,
2,
2,
6,
6,
4,
4,
1,
1,
10,
10,
15,
15,
8,
8,
0,
0,
3,
3,
11,
11,
11,
11,
8,
8,
6,
6,
9,
9,
6,
6,
0,
0,
0,
0,
4,
4,
3,
3,
3,
3,
3,
3,
8,
8,
11,
11,
7,
7,
1,
1,
1,
1,
2,
2,
2,
2,
0,
0,
3,
3,
0,
0,
6,
6,
10,
10,
10,
10,
2,
2,
4,
4,
1,
1,
0,
0,
5,
5,
1,
1,
2,
2,
4,
4,
-1,
-1,
-2,
-2,
2,
2,
4,
4,
9,
9,
7,
7,
7,
7,
6,
6,
0,
0,
0,
0,
1,
1,
-1,
-1,
4,
4,
8,
8,
8,
8,
4,
4,
0,
0,
4,
4,
6,
6,
3,
3,
4,
4,
4,
4,
2,
2,
2,
2,
2,
2,
6,
6,
9,
9,
10,
10,
10,
10,
2,
2,
0,
0,
0,
0,
1,
1,
8,
8,
14,
14,
12,
12,
7,
7,
0,
0,
3,
3,
8,
8,
3,
3,
3,
3,
8,
8,
4,
4,
-1,
-1,
8,
8,
15,
15,
13,
13,
22,
22,
24,
24,
20,
20,
19,
3,
3,
3,
10,
26,
26,
26,
32,
32,
28,
28,
18,
18,
11,
11,
3,
3,
0,
0,
5,
5,
8,
8,
14,
14,
11,
11,
8,
8,
8,
8,
8,
8,
7,
7,
2,
2,
2,
2,
0,
0,
1,
1,
7,
7,
11,
11,
12,
12,
3,
3,
0,
0,
2,
2,
6,
6,
13,
13,
5,
5,
-1,
-1,
2,
2,
0,
0,
7,
7,
8,
8,
6,
6,
4,
4,
1,
1,
0,
0,
4,
4,
7,
7,
12,
12,
12,
12,
7,
7,
10,
10,
10,
10,
4,
4,
0,
0,
0,
0,
3,
3,
8,
8,
6,
6,
-1,
-1,
0,
0,
1,
1,
-1,
-1,
-1,
-1,
0,
0,
0,
0,
0,
0,
4,
4,
9,
9,
2,
2,
5,
5,
6,
6,
5,
5,
9,
9,
6,
6,
0,
0,
4,
4,
7,
7,
15,
15,
18,
18,
24,
24,
23,
23,
20,
20,
12,
1,
7,
18,
18,
18,
23,
23,
19,
19,
19,
19,
18,
18,
11,
11,
5,
5,
4,
4,
10,
10,
7,
7,
6,
6,
6,
6,
4,
4,
6,
6,
4,
4,
3,
3,
2,
2,
4,
4,
8,
8,
11,
11,
7,
7,
0,
0,
3,
3,
5,
5,
6,
6,
3,
3,
0,
0,
1,
1,
-1,
-1,
5,
5,
8,
8,
3,
3,
0,
0,
4,
4,
1,
1,
0,
0,
2,
2,
7,
7,
1,
1,
11,
11,
11,
11,
8,
8,
3,
3,
8,
8,
2,
2,
0,
0,
3,
3,
4,
4,
4,
4,
4,
4,
1,
1,
-1,
-1,
5,
5,
8,
8,
7,
7,
8,
8,
16,
16,
21,
2,
3,
15,
14,
14,
18,
18,
15,
15,
8,
8,
0,
0,
4,
4,
0,
0,
3,
3,
11,
11,
14,
14,
5,
5,
2,
2,
5,
5,
0,
0,
0,
0,
0,
0,
5,
5,
11,
11,
7,
7,
7,
7,
0,
0,
6,
6,
6,
6,
8,
8,
8,
8,
7,
7,
8,
8,
6,
6,
3,
3,
0,
0,
8,
8,
15,
15,
15,
15,
13,
13,
6,
6,
6,
6,
16,
16,
22,
22,
15,
15,
12,
12,
15,
15,
14,
0,
3,
16,
15,
15,
17,
17,
9,
9,
0,
0,
0,
0,
4,
4,
7,
7,
4,
4,
0,
0,
0,
0,
-1,
-1,
0,
0,
-1,
-1,
1,
1,
-1,
-1,
2,
2,
11,
11,
15,
15,
16,
16,
14,
14,
8,
8,
10,
10,
12,
12,
2,
2,
11,
11,
18,
18,
22,
22,
15,
15,
12,
12,
8,
8,
2,
2,
2,
2,
5,
5,
7,
7,
2,
2,
11,
11,
19,
19,
17,
17,
14,
14,
10,
10,
8,
8,
0,
0,
6,
6,
7,
7,
7,
7,
10,
10,
15,
15,
10,
10,
4,
4,
5,
5,
10,
10,
10,
10,
3,
3,
0,
0,
1,
1,
3,
3,
2,
2,
3,
3,
6,
6,
10,
10,
6,
6,
1,
1,
4,
4,
6,
6,
1,
1,
-1,
-1,
-1,
10,
9,
9,
14,
14,
9,
9,
7,
7,
13,
2,
3,
3,
5,
5,
3,
3,
4,
4,
10,
10,
15,
15,
16,
4,
4,
4,
8,
8,
9,
9,
10,
10,
9,
9,
3,
3,
2,
2,
2,
2,
0,
0,
4,
4,
7,
7,
6,
6,
2,
2,
8,
8,
6,
6,
-1,
-1,
1,
1,
2,
2,
1,
1,
1,
1,
6,
6,
8,
8,
11,
11,
9,
9,
1,
1,
4,
4,
2,
2,
-1,
-1,
0,
0,
2,
2,
-1,
-1,
2,
14,
14,
14,
16,
0,
1,
1,
8,
8,
11,
11,
13,
13,
8,
8,
5,
5,
3,
3,
2,
2,
4,
4,
0,
0,
0,
0,
6,
6,
13,
13,
9,
9,
6,
6,
0,
0,
-1,
-1,
0,
0,
1,
1,
2,
2,
3,
3,
3,
3,
10,
10,
4,
4,
3,
3,
3,
3,
1,
1,
6,
6,
8,
8,
10,
10,
5,
5,
6,
6,
10,
10,
9,
9,
0,
0,
5,
5,
0,
0,
2,
2,
8,
8,
12,
12,
6,
6,
-1,
10,
9,
22,
21,
21,
24,
13,
13,
2,
2,
2,
5,
5,
7,
7,
5,
5,
2,
2,
3,
3,
1,
1,
0,
0,
4,
4,
8,
8,
9,
9,
14,
14,
8,
8,
0,
0,
0,
12,
12,
12,
18,
18,
17,
17,
14,
14,
13,
13,
4,
4,
1,
1,
0,
0,
8,
8,
12,
12,
14,
14,
20,
20,
19,
19,
15,
15,
7,
7,
1,
1,
-1,
-1,
0,
0,
1,
1,
0,
0,
6,
6,
9,
9,
8,
8,
6,
6,
4,
4,
0,
0,
6,
6,
10,
10,
11,
11,
7,
7,
3,
3,
5,
5,
0,
0,
0,
0,
8,
8,
5,
5,
0,
0,
2,
2,
2,
14,
12,
12,
11,
11,
6,
6,
5,
5,
2,
2,
3,
3,
3,
3,
8,
8,
0,
0,
4,
4,
0,
0,
3,
3,
8,
8,
3,
3,
6,
6,
10,
10,
6,
6,
1,
1,
1,
1,
0,
0,
-1,
-1,
2,
2,
5,
17,
16,
16,
14,
14,
5,
5,
0,
0,
7,
7,
7,
7,
0,
0,
5,
5,
11,
11,
7,
7,
8,
8,
3,
3,
4,
4,
3,
3,
2,
2,
1,
1,
5,
5,
7,
7,
4,
4,
0,
0,
8,
8,
4,
4,
-2,
-2,
0,
0,
0,
0,
-1,
-1,
0,
0,
5,
5,
7,
7,
0,
0,
6,
6,
12,
12,
16,
16,
17,
17,
22,
22,
16,
0,
1,
1,
10,
10,
13,
13,
13,
13,
13,
13,
14,
14,
10,
10,
9,
9,
6,
6,
0,
0,
8,
8,
10,
10,
10,
10,
10,
10,
8,
8,
5,
5,
8,
8,
2,
2,
-1,
-1,
1,
1,
2,
2,
1,
1,
3,
3,
7,
7,
2,
2,
4,
4,
4,
4,
1,
1,
-2,
-2,
5,
5,
0,
0,
4,
4,
5,
5,
5,
5,
0,
0,
2,
2,
-1,
-1,
4,
4,
2,
2,
0,
0,
1,
1,
3,
3,
6,
6,
9,
9,
16,
16,
19,
19,
15,
2,
3,
3,
0,
0,
0,
0,
10,
10,
18,
18,
19,
19,
15,
15,
10,
10,
5,
5,
6,
6,
9,
9,
6,
6,
4,
4,
3,
3,
6,
6,
6,
6,
9,
9,
10,
10,
2,
2,
-1,
-1,
1,
1,
0,
0,
1,
1,
-1,
-1,
0,
0,
-1,
-1,
1,
1,
1,
1,
3,
3,
1,
1,
4,
4,
8,
8,
1,
1,
-1,
-1,
-1,
-1,
0,
0,
-1,
-1,
6,
6,
9,
9,
6,
6,
1,
1,
5,
5,
7,
7,
3,
3,
0,
0,
2,
2,
1,
1,
6,
6,
4,
4,
2,
2,
0,
0,
8,
8,
9,
9,
8,
8,
5,
5,
11,
11,
16,
16,
7,
7,
0,
0,
4,
4,
10,
10,
7,
7,
6,
6,
9,
9,
3,
3,
0,
0,
1,
1,
1,
1,
1,
1,
0,
0,
5,
5,
14,
14,
20,
20,
26,
26,
26,
12,
13,
0,
3,
18,
17,
17,
19,
19,
17,
17,
10,
10,
6,
6,
4,
4,
4,
4,
6,
6,
3,
3,
0,
0,
8,
8,
16,
16,
22,
22,
21,
21,
11,
0,
0,
0,
0,
0,
7,
7,
9,
9,
2,
2,
-1,
-1,
1,
1,
2,
2,
-1,
-1,
0,
0,
0,
0,
0,
0,
0,
0,
2,
2,
3,
3,
1,
1,
0,
0,
2,
2,
0,
0,
4,
4,
5,
5,
1,
1,
-1,
-1,
-1,
-1,
0,
0,
0,
0,
2,
2,
3,
3,
1,
1,
8,
8,
12,
12,
10,
10,
4,
4,
4,
4,
11,
11,
17,
17,
19,
19,
16,
16,
13,
-1,
1,
1,
1,
1,
5,
5,
4,
4,
3,
3,
6,
6,
8,
8,
4,
4,
1,
1,
3,
3,
-1,
-1,
3,
3,
10,
10,
2,
2,
0,
0,
0,
0,
0,
0,
4,
4,
7,
7,
2,
2,
7,
7,
9,
9,
10,
21,
19,
19,
22,
22,
25,
25,
29,
14,
14,
2,
9,
23,
23,
23,
28,
28,
26,
26,
23,
23,
23,
23,
15,
15,
8,
8,
0,
0,
9,
9,
12,
12,
17,
17,
24,
24,
20,
20,
15,
15,
7,
7,
2,
2,
0,
0,
-1,
-1,
0,
0,
0,
0,
0,
0,
3,
3,
3,
3,
2,
2,
2,
2,
0,
0,
5,
5,
7,
7,
6,
6,
3,
3,
5,
5,
2,
2,
1,
1,
6,
6,
6,
6,
5,
5,
0,
0,
0,
0,
2,
2,
2,
2,
0,
0,
5,
5,
13,
13,
15,
2,
2,
2,
6,
6,
6,
6,
-1,
-1,
2,
2,
2,
2,
0,
0,
2,
2,
4,
4,
4,
4,
1,
1,
5,
5,
1,
1,
-1,
-1,
-1,
-1,
-1,
-1,
3,
14,
14,
14,
10,
10,
3,
3,
0,
0,
2,
2,
10,
10,
8,
8,
3,
16,
14,
14,
20,
20,
13,
1,
2,
2,
10,
10,
14,
14,
17,
17,
17,
17,
19,
19,
22,
22,
16,
2,
5,
22,
21,
21,
20,
20,
18,
18,
17,
17,
16,
16,
14,
14,
10,
10,
6,
6,
0,
0,
8,
8,
16,
16,
19,
19,
18,
18,
21,
21,
14,
14,
10,
10,
8,
8,
4,
4,
-1,
-1,
3,
3,
6,
6,
5,
5,
0,
0,
6,
6,
0,
0,
8,
8,
13,
13,
16,
16,
11,
0,
1,
1,
2,
2,
5,
5,
9,
9,
10,
10,
14,
14,
13,
13,
13,
13,
8,
8,
0,
0,
8,
8,
6,
6,
0,
0,
3,
3,
5,
5,
2,
2,
-1,
-1,
2,
2,
0,
0,
6,
6,
8,
8,
8,
8,
5,
5,
7,
7,
16,
16,
13,
13,
6,
6,
4,
4,
6,
6,
7,
7,
6,
6,
2,
2,
0,
0,
2,
2,
2,
2,
2,
2,
9,
9,
7,
7,
3,
3,
10,
10,
10,
10,
6,
6,
1,
1,
2,
2,
4,
4,
3,
3,
1,
1,
6,
6,
9,
9,
4,
17,
16,
16,
18,
18,
13,
13,
9,
9,
6,
6,
8,
25,
25,
25,
23,
23,
21,
21,
17,
17,
14,
14,
6,
6,
8,
8,
15,
15,
16,
16,
14,
14,
12,
12,
8,
8,
5,
5,
3,
3,
0,
0,
-1,
-1,
2,
2,
8,
8,
8,
8,
10,
10,
11,
11,
11,
11,
11,
11,
10,
10,
6,
6,
2,
2,
8,
8,
6,
6,
5,
5,
9,
9,
13,
13,
16,
16,
17,
17,
11,
11,
6,
6,
1,
1,
8,
23,
23,
23,
20,
8,
8,
8,
3,
3,
2,
2,
1,
1,
-1,
-1,
3,
3,
3,
3,
-1,
-1,
3,
3,
3,
3,
2,
2,
4,
4,
0,
0,
7,
7,
1,
1,
0,
0,
1,
1,
2,
2,
5,
5,
3,
3,
2,
2,
0,
0,
2,
2,
2,
2,
5,
5,
-1,
-1,
0,
0,
-1,
-1,
3,
3,
5,
5,
5,
5,
9,
9,
13,
13,
10,
10,
5,
5,
1,
1,
0,
0,
1,
1,
7,
7,
13,
13,
10,
-1,
0,
0,
-1,
-1,
2,
2,
1,
1,
2,
2,
4,
4,
0,
0,
7,
7,
12,
12,
18,
18,
16,
2,
2,
2,
9,
9,
11,
11,
10,
10,
7,
7,
0,
0,
5,
5,
1,
1,
1,
1,
-1,
-1,
0,
0,
-1,
-1,
-1,
-1,
1,
12,
12,
12,
7,
7,
0,
0,
0,
0,
0,
0,
2,
2,
3,
3,
2,
2,
0,
0,
-1,
-1,
3,
3,
6,
6,
8,
8,
14,
14,
14,
14,
6,
6,
-1,
-1,
4,
4,
10,
10,
11,
11,
7,
7,
2,
2,
3,
3,
8,
8,
8,
8,
2,
2,
2,
2,
10,
10,
16,
16,
15,
15,
11,
11,
3,
3,
-1,
-1,
-1,
-1,
