EMG_S1/DS0148.CSV

Memory Length,4000,
Trigger Level,0.00000e+00,
Source,CH1,
Probe,1.0X,
Vertical Units,V,
Vertical Scale,1.00000e+00,
Vertical Position,4.00000e-02,
Horizontal Units,S,
Horizontal Scale,1.00000e-01,
Horizontal Position,0.0000000e+00,
Horizontal Mode,Roll Mode,
Waveform Last Dot Address,4000,
Sampling Period,4.00000e-04,
Firmware,V1.14,
Time, ,
Mode,Fast,
Waveform Data,
8,
8,
1,
1,
9,
26,
26,
26,
16,
16,
17,
0,
1,
1,
10,
10,
7,
7,
2,
2,
5,
5,
2,
2,
-1,
-1,
3,
3,
4,
4,
10,
10,
10,
10,
13,
13,
10,
-1,
1,
1,
6,
6,
6,
6,
6,
6,
6,
6,
7,
7,
10,
10,
12,
12,
15,
15,
7,
7,
8,
8,
14,
14,
10,
10,
5,
5,
11,
11,
9,
9,
6,
6,
7,
7,
7,
7,
9,
9,
10,
10,
8,
8,
2,
2,
-1,
-1,
0,
0,
1,
1,
-1,
-1,
0,
13,
12,
31,
30,
30,
26,
10,
11,
11,
2,
2,
0,
0,
4,
4,
11,
11,
10,
10,
5,
5,
3,
3,
1,
1,
1,
1,
2,
2,
2,
2,
5,
5,
8,
8,
4,
4,
2,
2,
5,
5,
3,
3,
11,
11,
14,
14,
6,
6,
15,
15,
23,
23,
17,
0,
0,
0,
6,
6,
2,
2,
2,
2,
4,
4,
4,
4,
2,
2,
1,
1,
2,
2,
3,
3,
11,
11,
13,
13,
14,
14,
7,
7,
4,
4,
10,
10,
14,
14,
13,
13,
9,
9,
4,
4,
0,
0,
4,
4,
11,
11,
7,
7,
0,
0,
1,
1,
5,
5,
10,
10,
6,
6,
0,
0,
0,
0,
2,
2,
5,
5,
1,
1,
1,
1,
2,
2,
3,
3,
3,
3,
3,
3,
-1,
-1,
2,
2,
1,
1,
2,
2,
3,
3,
8,
8,
5,
5,
-1,
-1,
2,
2,
0,
0,
0,
0,
5,
5,
8,
8,
6,
6,
6,
6,
6,
6,
5,
5,
2,
2,
1,
1,
5,
5,
0,
0,
2,
2,
2,
2,
6,
6,
0,
0,
6,
6,
7,
7,
4,
4,
0,
0,
5,
5,
10,
10,
7,
7,
7,
7,
0,
0,
-1,
-1,
-1,
-1,
5,
5,
11,
0,
0,
0,
7,
7,
6,
6,
2,
2,
2,
2,
1,
1,
8,
8,
5,
5,
6,
6,
2,
2,
9,
9,
2,
2,
5,
5,
1,
1,
6,
6,
9,
9,
3,
3,
6,
6,
8,
8,
6,
6,
9,
9,
7,
7,
4,
4,
10,
10,
7,
7,
3,
3,
-1,
-1,
4,
4,
11,
11,
12,
12,
13,
13,
9,
9,
2,
2,
11,
11,
12,
12,
11,
11,
10,
10,
2,
2,
-1,
-1,
2,
2,
-1,
-1,
3,
3,
4,
4,
11,
11,
8,
8,
4,
4,
4,
4,
10,
10,
10,
10,
1,
1,
6,
6,
1,
1,
4,
4,
4,
4,
5,
5,
6,
6,
2,
2,
10,
10,
7,
7,
4,
4,
11,
11,
10,
10,
7,
7,
3,
3,
3,
3,
12,
12,
7,
7,
-1,
10,
10,
10,
13,
0,
0,
0,
8,
8,
7,
7,
11,
11,
5,
5,
5,
5,
14,
14,
12,
12,
9,
9,
6,
6,
1,
13,
11,
11,
14,
14,
6,
6,
0,
0,
0,
0,
1,
1,
7,
18,
17,
17,
18,
18,
15,
15,
12,
12,
7,
7,
-1,
-1,
4,
4,
4,
4,
4,
4,
6,
6,
1,
1,
10,
10,
19,
19,
11,
11,
16,
16,
17,
2,
2,
2,
8,
8,
4,
4,
0,
0,
4,
4,
6,
6,
2,
2,
0,
0,
5,
5,
1,
1,
8,
8,
8,
8,
4,
4,
9,
9,
10,
10,
6,
6,
8,
8,
5,
5,
7,
7,
6,
6,
8,
8,
6,
6,
0,
0,
1,
1,
6,
6,
3,
3,
1,
1,
2,
2,
6,
6,
2,
2,
0,
0,
2,
2,
-1,
-1,
6,
6,
8,
8,
10,
10,
4,
4,
3,
3,
0,
0,
5,
5,
7,
7,
11,
11,
18,
18,
25,
25,
20,
20,
18,
7,
7,
7,
7,
7,
14,
14,
16,
16,
21,
21,
1,
1,
-1,
-1,
-1,
-1,
-1,
-1,
1,
1,
4,
4,
3,
3,
7,
7,
6,
6,
0,
0,
0,
0,
3,
3,
4,
4,
6,
6,
5,
5,
2,
2,
0,
0,
-1,
-1,
0,
0,
-1,
-1,
-1,
-1,
6,
6,
12,
12,
6,
6,
0,
0,
0,
0,
3,
3,
8,
8,
5,
5,
5,
5,
10,
10,
6,
6,
0,
0,
4,
4,
7,
7,
5,
5,
5,
5,
3,
3,
5,
5,
8,
8,
4,
4,
0,
0,
3,
24,
23,
41,
40,
40,
33,
9,
10,
10,
14,
26,
25,
25,
25,
25,
21,
21,
14,
3,
3,
3,
4,
4,
10,
10,
7,
7,
0,
0,
0,
0,
6,
6,
10,
10,
8,
8,
5,
5,
2,
2,
1,
1,
0,
0,
-1,
-1,
0,
0,
2,
2,
3,
3,
-1,
-1,
-1,
-1,
1,
1,
2,
2,
5,
5,
5,
5,
3,
3,
4,
4,
4,
4,
0,
0,
0,
0,
3,
3,
1,
1,
-1,
-1,
1,
1,
1,
1,
3,
3,
0,
0,
3,
3,
0,
0,
6,
6,
6,
6,
-1,
-1,
5,
5,
2,
2,
5,
5,
2,
2,
-1,
-1,
1,
1,
2,
17,
16,
16,
17,
6,
6,
6,
4,
4,
7,
7,
8,
8,
7,
7,
4,
4,
-1,
-1,
2,
2,
0,
0,
-1,
-1,
1,
1,
0,
0,
-1,
-1,
5,
5,
10,
10,
10,
10,
3,
3,
3,
3,
6,
6,
0,
0,
1,
1,
0,
0,
6,
6,
10,
10,
11,
11,
9,
9,
3,
3,
0,
0,
7,
7,
6,
6,
8,
8,
8,
8,
1,
13,
12,
12,
14,
14,
10,
10,
2,
2,
11,
11,
14,
14,
10,
10,
6,
6,
1,
1,
-1,
-1,
4,
16,
15,
15,
17,
6,
7,
7,
0,
0,
4,
4,
7,
7,
2,
2,
1,
1,
8,
8,
10,
10,
8,
8,
6,
6,
3,
3,
0,
0,
8,
8,
10,
10,
7,
7,
8,
8,
0,
0,
4,
4,
1,
1,
0,
0,
4,
4,
8,
8,
14,
14,
7,
7,
1,
1,
8,
8,
7,
7,
3,
3,
-1,
-1,
-1,
-1,
0,
0,
4,
4,
7,
7,
6,
6,
4,
4,
0,
0,
5,
5,
6,
6,
6,
6,
0,
11,
11,
11,
10,
10,
0,
0,
4,
4,
4,
4,
2,
2,
3,
3,
4,
4,
5,
5,
1,
1,
2,
2,
2,
2,
6,
6,
8,
8,
7,
7,
12,
12,
10,
10,
3,
3,
0,
0,
3,
3,
2,
2,
2,
2,
6,
6,
7,
7,
0,
0,
2,
2,
4,
4,
2,
2,
2,
2,
9,
9,
18,
18,
22,
22,
18,
1,
2,
15,
14,
14,
15,
15,
12,
12,
9,
9,
9,
9,
1,
1,
5,
5,
6,
6,
13,
13,
20,
20,
14,
14,
10,
10,
3,
3,
2,
2,
7,
7,
10,
10,
6,
6,
4,
4,
8,
8,
10,
10,
2,
2,
-1,
-1,
8,
8,
12,
12,
8,
8,
0,
0,
0,
0,
5,
5,
8,
8,
7,
7,
8,
8,
11,
11,
5,
5,
0,
0,
-1,
-1,
-1,
-1,
-1,
-1,
3,
3,
0,
0,
5,
5,
1,
1,
3,
3,
2,
2,
0,
0,
0,
0,
1,
1,
3,
3,
-1,
-1,
0,
0,
4,
4,
5,
5,
1,
1,
2,
2,
0,
0,
7,
7,
10,
10,
2,
2,
11,
0,
2,
2,
9,
9,
8,
8,
-1,
-1,
1,
1,
1,
1,
8,
8,
7,
7,
5,
5,
6,
6,
4,
4,
1,
1,
-1,
-1,
1,
1,
10,
10,
15,
15,
13,
13,
16,
16,
17,
17,
7,
7,
6,
17,
17,
17,
21,
8,
9,
9,
5,
5,
9,
9,
3,
3,
0,
0,
8,
8,
8,
8,
0,
12,
12,
12,
10,
-1,
-1,
-1,
3,
3,
4,
4,
3,
3,
7,
7,
9,
9,
2,
2,
10,
10,
7,
7,
3,
3,
4,
4,
6,
6,
0,
0,
6,
6,
11,
11,
6,
6,
-1,
-1,
6,
6,
11,
11,
3,
3,
11,
11,
13,
13,
13,
13,
7,
7,
2,
2,
4,
4,
2,
2,
2,
2,
0,
0,
1,
1,
7,
7,
5,
5,
3,
16,
15,
15,
7,
7,
4,
4,
7,
7,
14,
14,
5,
5,
2,
2,
6,
6,
7,
7,
12,
12,
11,
11,
8,
8,
1,
1,
6,
6,
4,
4,
1,
1,
0,
0,
4,
4,
8,
8,
11,
11,
8,
8,
1,
1,
6,
6,
10,
10,
13,
13,
11,
11,
10,
10,
11,
11,
4,
4,
10,
10,
14,
0,
2,
13,
13,
13,
16,
16,
15,
15,
8,
8,
1,
1,
6,
6,
7,
7,
0,
0,
2,
2,
2,
2,
6,
6,
8,
8,
11,
11,
14,
14,
9,
9,
0,
0,
10,
10,
7,
7,
0,
0,
6,
6,
11,
11,
12,
12,
10,
10,
6,
6,
14,
2,
2,
16,
16,
16,
16,
16,
10,
10,
4,
4,
10,
10,
9,
9,
3,
3,
4,
4,
7,
7,
7,
7,
6,
6,
5,
5,
8,
8,
5,
5,
10,
10,
7,
7,
9,
9,
7,
7,
6,
6,
10,
10,
8,
8,
0,
0,
0,
0,
3,
3,
0,
11,
11,
11,
18,
18,
18,
18,
10,
10,
9,
22,
21,
21,
12,
0,
2,
2,
0,
0,
5,
5,
0,
0,
3,
3,
0,
0,
3,
3,
4,
4,
1,
1,
-1,
-1,
9,
9,
4,
4,
1,
1,
2,
2,
5,
5,
6,
6,
16,
16,
7,
7,
17,
17,
23,
23,
21,
4,
4,
4,
14,
14,
18,
18,
14,
14,
16,
16,
11,
11,
6,
6,
3,
3,
6,
6,
7,
7,
8,
8,
2,
2,
5,
5,
9,
22,
22,
22,
30,
14,
14,
14,
6,
6,
3,
3,
0,
13,
12,
12,
7,
24,
23,
23,
23,
10,
11,
-1,
-1,
-1,
19,
19,
19,
19,
24,
24,
20,
20,
16,
16,
17,
17,
10,
-1,
1,
1,
10,
10,
12,
12,
7,
7,
5,
5,
8,
8,
13,
13,
9,
9,
4,
4,
8,
8,
0,
0,
2,
2,
9,
9,
6,
6,
6,
6,
1,
1,
4,
4,
6,
6,
5,
17,
16,
16,
15,
3,
3,
3,
3,
3,
2,
2,
6,
6,
12,
12,
19,
19,
13,
13,
5,
5,
3,
3,
8,
8,
5,
5,
-1,
14,
13,
13,
22,
22,
18,
18,
9,
9,
7,
7,
7,
7,
9,
9,
10,
10,
1,
1,
6,
6,
4,
4,
0,
0,
7,
7,
10,
10,
4,
4,
3,
3,
5,
5,
1,
1,
-1,
-1,
2,
2,
7,
7,
6,
6,
10,
10,
3,
3,
4,
4,
2,
2,
3,
3,
8,
8,
4,
4,
6,
18,
16,
16,
16,
16,
11,
0,
3,
14,
12,
12,
17,
17,
10,
10,
12,
25,
24,
24,
24,
10,
11,
11,
7,
19,
18,
18,
25,
6,
6,
6,
8,
8,
0,
0,
3,
3,
0,
0,
5,
5,
7,
7,
6,
6,
-1,
-1,
2,
2,
6,
6,
4,
4,
-1,
-1,
9,
9,
15,
3,
4,
4,
4,
4,
5,
5,
11,
24,
23,
3,
4,
4,
10,
10,
1,
1,
4,
4,
-1,
-1,
-1,
-1,
2,
2,
9,
9,
5,
5,
6,
6,
9,
9,
8,
8,
3,
3,
3,
3,
9,
9,
7,
7,
6,
6,
6,
6,
8,
8,
16,
16,
20,
20,
15,
1,
2,
17,
17,
17,
23,
23,
18,
18,
10,
10,
6,
6,
4,
4,
2,
2,
0,
17,
16,
16,
25,
13,
13,
13,
4,
4,
2,
2,
0,
0,
1,
1,
2,
2,
3,
3,
10,
10,
7,
7,
2,
16,
16,
16,
15,
4,
5,
5,
0,
0,
0,
0,
8,
8,
3,
3,
8,
8,
9,
9,
10,
10,
9,
9,
7,
7,
0,
14,
13,
13,
13,
2,
2,
2,
6,
6,
0,
0,
-1,
18,
16,
16,
26,
26,
20,
20,
16,
0,
2,
14,
14,
27,
27,
27,
30,
30,
30,
30,
23,
8,
8,
8,
4,
17,
17,
17,
25,
25,
20,
20,
11,
11,
10,
10,
1,
1,
1,
1,
0,
0,
-1,
-1,
3,
3,
0,
0,
5,
5,
6,
6,
3,
3,
4,
4,
7,
7,
6,
6,
11,
-1,
0,
0,
0,
0,
4,
4,
2,
2,
3,
3,
0,
0,
4,
16,
15,
15,
14,
14,
6,
6,
2,
2,
0,
0,
8,
8,
13,
13,
8,
8,
2,
2,
-1,
-1,
3,
3,
-1,
-1,
7,
7,
4,
4,
6,
6,
8,
8,
6,
6,
0,
0,
0,
0,
8,
8,
7,
7,
4,
23,
22,
22,
18,
6,
6,
6,
6,
6,
12,
12,
3,
3,
4,
4,
7,
7,
4,
4,
3,
3,
7,
7,
5,
5,
14,
14,
17,
17,
13,
13,
7,
7,
3,
3,
4,
4,
6,
6,
1,
14,
14,
14,
10,
10,
3,
14,
13,
13,
13,
13,
11,
11,
10,
10,
5,
5,
0,
0,
1,
1,
0,
0,
3,
3,
0,
0,
-1,
-1,
0,
0,
8,
31,
30,
30,
36,
36,
32,
32,
26,
5,
5,
18,
17,
35,
34,
34,
35,
12,
13,
2,
10,
10,
17,
17,
10,
10,
0,
0,
4,
4,
6,
6,
8,
8,
13,
13,
5,
5,
3,
3,
6,
6,
7,
7,
3,
3,
0,
0,
2,
2,
0,
0,
7,
7,
10,
10,
14,
14,
16,
2,
2,
2,
0,
0,
2,
2,
5,
5,
6,
6,
11,
11,
10,
10,
15,
15,
20,
8,
8,
8,
1,
1,
9,
9,
5,
5,
7,
7,
11,
11,
2,
2,
4,
4,
1,
1,
9,
9,
5,
5,
4,
4,
10,
10,
9,
9,
2,
2,
4,
4,
4,
4,
9,
9,
1,
1,
3,
3,
7,
7,
0,
0,
4,
4,
8,
8,
8,
26,
24,
24,
32,
16,
16,
0,
1,
13,
11,
11,
20,
20,
20,
20,
16,
16,
20,
20,
11,
11,
7,
7,
1,
1,
2,
2,
5,
5,
3,
24,
23,
23,
26,
26,
20,
8,
8,
8,
1,
1,
7,
7,
0,
17,
16,
16,
23,
3,
3,
3,
6,
6,
16,
16,
14,
0,
1,
1,
1,
14,
13,
28,
27,
11,
11,
11,
17,
29,
28,
28,
20,
0,
0,
0,
0,
0,
5,
5,
3,
3,
0,
11,
10,
10,
16,
16,
11,
11,
9,
26,
26,
26,
25,
8,
9,
9,
5,
5,
8,
8,
16,
5,
6,
6,
6,
6,
10,
10,
2,
2,
10,
10,
14,
14,
11,
11,
1,
1,
10,
10,
10,
10,
7,
7,
10,
10,
9,
9,
3,
3,
0,
0,
2,
2,
7,
7,
10,
10,
3,
3,
0,
0,
10,
10,
2,
24,
24,
24,
30,
16,
16,
1,
2,
2,
4,
4,
5,
18,
17,
17,
18,
18,
8,
8,
14,
14,
19,
8,
9,
9,
11,
11,
10,
10,
7,
20,
20,
20,
24,
7,
7,
7,
16,
16,
20,
20,
19,
8,
8,
8,
0,
0,
8,
8,
7,
7,
16,
16,
15,
1,
2,
2,
8,
8,
10,
10,
6,
23,
22,
4,
5,
26,
24,
12,
12,
12,
9,
9,
10,
10,
5,
5,
5,
5,
14,
14,
15,
15,
18,
2,
3,
29,
28,
43,
42,
42,
42,
28,
28,
3,
4,
21,
20,
20,
18,
18,
17,
17,
18,
18,
12,
0,
4,
4,
1,
1,
4,
4,
2,
2,
3,
3,
10,
10,
8,
19,
19,
19,
14,
2,
3,
3,
5,
5,
8,
8,
1,
14,
12,
12,
19,
19,
18,
4,
5,
5,
3,
3,
-1,
-1,
8,
8,
10,
10,
11,
11,
6,
6,
16,
28,
27,
10,
11,
0,
4,
4,
10,
10,
16,
16,
14,
14,
8,
8,
11,
11,
10,
-1,
0,
0,
9,
26,
26,
39,
38,
27,
27,
9,
10,
10,
5,
5,
12,
12,
10,
-1,
1,
1,
0,
0,
7,
7,
6,
6,
4,
4,
2,
2,
8,
8,
7,
7,
2,
2,
2,
2,
-1,
-1,
-1,
-1,
3,
3,
10,
10,
15,
3,
3,
3,
7,
7,
8,
8,
7,
23,
23,
44,
43,
26,
26,
2,
5,
5,
9,
9,
2,
2,
10,
10,
13,
13,
16,
16,
23,
23,
27,
27,
20,
2,
3,
20,
19,
19,
24,
7,
7,
7,
0,
0,
2,
2,
8,
20,
20,
20,
15,
4,
5,
5,
3,
3,
6,
6,
10,
10,
17,
17,
14,
1,
5,
33,
33,
33,
38,
22,
22,
3,
6,
21,
21,
21,
22,
3,
3,
3,
8,
8,
7,
7,
0,
0,
1,
14,
14,
3,
5,
25,
23,
23,
21,
3,
4,
4,
13,
13,
22,
22,
25,
25,
16,
3,
15,
40,
39,
28,
28,
4,
5,
5,
9,
9,
10,
10,
10,
10,
19,
5,
6,
6,
6,
6,
3,
3,
4,
4,
7,
7,
14,
14,
23,
23,
22,
22,
15,
15,
14,
3,
3,
18,
17,
17,
23,
7,
7,
7,
13,
29,
28,
28,
23,
7,
8,
8,
0,
0,
8,
27,
27,
27,
27,
27,
20,
2,
2,
2,
6,
6,
11,
28,
27,
27,
24,
11,
13,
13,
7,
7,
3,
21,
20,
32,
31,
31,
25,
7,
7,
7,
2,
2,
3,
3,
8,
8,
17,
17,
17,
17,
15,
15,
12,
12,
17,
17,
15,
2,
3,
3,
9,
22,
21,
21,
21,
21,
16,
3,
4,
38,
38,
55,
54,
33,
34,
12,
14,
1,
6,
26,
25,
25,
33,
33,
34,
20,
20,
20,
13,
13,
16,
16,
20,
3,
8,
28,
27,
27,
31,
31,
22,
22,
22,
5,
6,
6,
0,
11,
10,
10,
19,
19,
10,
10,
5,
5,
9,
22,
22,
22,
21,
21,
12,
12,
6,
6,
10,
10,
2,
2,
1,
1,
1,
1,
0,
13,
12,
12,
13,
13,
5,
18,
18,
18,
28,
14,
14,
1,
6,
20,
20,
8,
9,
9,
11,
22,
22,
8,
9,
9,
5,
5,
11,
11,
8,
8,
14,
14,
10,
10,
5,
5,
6,
6,
13,
1,
2,
13,
12,
12,
12,
34,
32,
50,
48,
9,
10,
10,
4,
4,
7,
7,
9,
9,
5,
19,
18,
18,
18,
18,
21,
21,
17,
17,
10,
10,
6,
6,
13,
13,
10,
-1,
0,
11,
11,
32,
32,
32,
26,
14,
14,
30,
28,
28,
34,
15,
15,
1,
4,
4,
11,
11,
20,
20,
23,
23,
25,
9,
10,
10,
1,
1,
2,
2,
4,
4,
7,
7,
9,
9,
1,
13,
11,
11,
19,
19,
23,
11,
12,
0,
2,
2,
1,
1,
7,
7,
10,
10,
12,
12,
12,
12,
5,
5,
0,
0,
2,
2,
8,
8,
15,
15,
14,
2,
3,
3,
4,
4,
2,
2,
1,
1,
0,
0,
2,
2,
2,
2,
1,
1,
-1,
-1,
3,
3,
7,
7,
3,
3,
6,
6,
7,
7,
8,
8,
10,
-1,
0,
0,
-1,
-1,
-1,
14,
14,
2,
3,
3,
2,
2,
0,
0,
6,
6,
0,
0,
9,
9,
2,
2,
1,
1,
0,
18,
18,
18,
12,
0,
4,
4,
7,
7,
6,
6,
0,
0,
4,
4,
6,
6,
13,
1,
2,
18,
18,
7,
8,
8,
0,
0,
6,
6,
5,
5,
8,
8,
13,
2,
2,
2,
9,
9,
5,
5,
0,
0,
6,
6,
9,
9,
0,
0,
4,
4,
9,
9,
11,
0,
3,
3,
5,
5,
0,
0,
0,
0,
5,
5,
9,
9,
3,
3,
8,
8,
5,
5,
13,
13,
7,
7,
2,
2,
7,
7,
3,
3,
4,
4,
10,
-1,
0,
0,
-2,
-2,
6,
6,
11,
11,
9,
9,
5,
5,
0,
0,
2,
2,
1,
1,
0,
0,
0,
0,
2,
2,
2,
2,
-1,
-1,
0,
0,
4,
4,
1,
1,
0,
0,
-1,
-1,
-1,
-1,
7,
7,
5,
18,
18,
18,
21,
4,
5,
5,
15,
15,
24,
10,
10,
10,
2,
2,
4,
4,
1,
1,
0,
0,
2,
2,
0,
0,
-1,
-1,
1,
1,
1,
1,
-1,
-1,
4,
4,
5,
5,
6,
6,
8,
8,
4,
4,
4,
4,
2,
2,
0,
0,
0,
0,
0,
0,
2,
2,
3,
3,
2,
2,
6,
6,
9,
9,
11,
11,
5,
5,
5,
16,
15,
15,
16,
2,
2,
16,
15,
15,
8,
8,
3,
3,
11,
11,
9,
9,
10,
10,
1,
17,
17,
17,
19,
7,
7,
7,
0,
0,
3,
3,
0,
0,
0,
0,
0,
0,
2,
2,
9,
9,
5,
5,
7,
7,
10,
10,
6,
6,
1,
1,
3,
3,
0,
0,
4,
4,
9,
9,
1,
1,
4,
4,
6,
6,
11,
11,
7,
24,
23,
23,
23,
2,
3,
3,
10,
10,
9,
9,
0,
0,
-1,
-1,
2,
2,
7,
7,
9,
9,
5,
5,
0,
0,
0,
0,
10,
10,
7,
7,
2,
13,
12,
12,
11,
-1,
0,
0,
1,
1,
2,
2,
0,
0,
0,
0,
1,
1,
10,
10,
0,
0,
8,
8,
7,
7,
0,
0,
2,
2,
2,
2,
-1,
-1,
1,
1,
4,
4,
6,
6,
3,
3,
0,
11,
11,
11,
17,
17,
22,
22,
16,
3,
5,
5,
2,
2,
10,
10,
12,
12,
8,
8,
17,
3,
3,
17,
16,
16,
20,
20,
15,
15,
8,
8,
0,
0,
9,
9,
12,
12,
8,
8,
6,
6,
4,
4,
3,
3,
4,
4,
11,
11,
10,
10,
7,
7,
6,
6,
0,
0,
1,
1,
0,
0,
4,
4,
3,
3,
7,
7,
0,
0,
-1,
-1,
3,
3,
7,
7,
0,
0,
1,
1,
0,
13,
11,
11,
19,
19,
23,
8,
9,
9,
3,
3,
10,
10,
11,
11,
8,
8,
7,
7,
0,
0,
1,
1,
-1,
-1,
2,
2,
0,
0,
8,
8,
4,
4,
4,
4,
3,
3,
10,
10,
2,
2,
6,
6,
0,
0,
7,
7,
10,
10,
7,
7,
0,
0,
6,
6,
10,
10,
8,
8,
5,
5,
10,
10,
5,
5,
5,
5,
12,
12,
14,
14,
7,
7,
3,
3,
10,
10,
7,
7,
6,
6,
10,
10,
4,
4,
1,
1,
1,
1,
7,
7,
10,
-1,
0,
0,
6,
6,
8,
8,
3,
3,
2,
2,
6,
6,
6,
6,
9,
9,
4,
4,
0,
0,
1,
1,
5,
5,
11,
11,
14,
14,
14,
14,
4,
4,
5,
5,
10,
10,
7,
7,
9,
24,
24,
24,
28,
15,
16,
16,
7,
7,
4,
4,
1,
1,
1,
1,
1,
1,
4,
4,
0,
11,
10,
10,
18,
18,
19,
19,
12,
12,
7,
7,
2,
2,
4,
4,
4,
4,
6,
6,
4,
4,
2,
2,
8,
8,
8,
8,
8,
8,
10,
10,
8,
8,
4,
4,
0,
0,
8,
24,
23,
23,
27,
10,
10,
-1,
1,
1,
6,
6,
10,
10,
13,
13,
6,
6,
2,
2,
9,
9,
8,
8,
6,
6,
2,
18,
18,
18,
24,
24,
15,
-1,
0,
0,
5,
5,
2,
2,
9,
9,
7,
7,
0,
11,
11,
11,
14,
14,
10,
10,
4,
4,
1,
1,
1,
1,
6,
6,
4,
4,
-1,
-1,
4,
4,
0,
0,
7,
7,
11,
11,
5,
5,
0,
0,
3,
3,
7,
7,
4,
4,
1,
1,
7,
7,
10,
10,
12,
12,
5,
5,
4,
4,
12,
12,
18,
18,
12,
1,
2,
2,
2,
2,
0,
0,
2,
2,
3,
3,
7,
7,
10,
10,
10,
10,
8,
8,
2,
22,
22,
22,
20,
0,
0,
0,
0,
0,
4,
4,
8,
8,
1,
1,
-1,
-1,
0,
0,
2,
2,
3,
3,
3,
3,
0,
0,
6,
6,
6,
6,
0,
0,
1,
1,
9,
9,
14,
14,
7,
7,
0,
11,
11,
11,
6,
6,
3,
3,
7,
7,
12,
12,
13,
13,
14,
14,
6,
6,
0,
0,
6,
6,
2,
2,
3,
3,
4,
4,
9,
9,
8,
8,
9,
9,
4,
4,
3,
3,
4,
4,
0,
0,
3,
3,
5,
5,
14,
14,
11,
11,
2,
2,
0,
0,
4,
4,
4,
4,
-1,
-1,
1,
1,
0,
0,
1,
1,
8,
8,
2,
2,
1,
20,
20,
20,
14,
1,
5,
5,
11,
11,
7,
7,
2,
2,
10,
10,
4,
4,
4,
4,
12,
12,
14,
3,
3,
3,
0,
0,
0,
0,
3,
3,
4,
4,
9,
9,
8,
8,
9,
9,
16,
16,
13,
2,
3,
3,
3,
3,
2,
2,
8,
8,
16,
16,
10,
10,
2,
2,
0,
0,
4,
4,
6,
6,
2,
2,
1,
1,
4,
4,
5,
5,
3,
3,
2,
2,
-1,
-1,
2,
2,
