EMG_S1/DS0150.CSV

Memory Length,4000,
Trigger Level,0.00000e+00,
Source,CH1,
Probe,1.0X,
Vertical Units,V,
Vertical Scale,1.00000e+00,
Vertical Position,4.00000e-02,
Horizontal Units,S,
Horizontal Scale,1.00000e-01,
Horizontal Position,0.0000000e+00,
Horizontal Mode,Roll Mode,
Waveform Last Dot Address,4000,
Sampling Period,4.00000e-04,
Firmware,V1.14,
Time, ,
Mode,Fast,
Waveform Data,
9,
9,
1,
1,
2,
2,
3,
3,
8,
8,
5,
5,
6,
20,
19,
19,
19,
6,
6,
6,
0,
0,
3,
3,
0,
0,
7,
7,
9,
9,
10,
10,
7,
7,
1,
1,
2,
2,
6,
6,
8,
8,
12,
12,
8,
8,
3,
3,
11,
11,
11,
-1,
0,
0,
3,
3,
3,
3,
1,
1,
4,
4,
4,
4,
2,
2,
1,
1,
0,
0,
2,
2,
0,
0,
5,
5,
0,
0,
7,
7,
3,
3,
-1,
-1,
2,
2,
5,
5,
0,
0,
-1,
-1,
3,
3,
7,
7,
3,
3,
3,
14,
14,
14,
19,
19,
11,
11,
5,
5,
2,
2,
4,
4,
11,
11,
17,
17,
14,
14,
6,
6,
7,
7,
2,
14,
14,
14,
16,
16,
14,
14,
7,
7,
-1,
-1,
-2,
-2,
2,
2,
0,
0,
2,
2,
2,
2,
0,
0,
3,
15,
14,
14,
9,
20,
19,
37,
37,
25,
26,
5,
5,
5,
-1,
10,
9,
22,
22,
22,
18,
18,
10,
10,
1,
12,
12,
12,
16,
16,
14,
2,
2,
2,
2,
2,
5,
5,
3,
3,
1,
1,
0,
0,
6,
19,
18,
18,
18,
2,
4,
16,
15,
15,
24,
24,
23,
8,
8,
8,
0,
0,
6,
6,
3,
3,
-1,
-1,
5,
5,
4,
4,
0,
0,
-1,
-1,
0,
0,
0,
0,
3,
3,
6,
6,
1,
1,
2,
2,
-1,
-1,
-1,
-1,
0,
0,
-1,
-1,
3,
3,
4,
4,
12,
12,
16,
16,
14,
14,
4,
4,
5,
5,
13,
13,
13,
2,
3,
3,
2,
2,
0,
0,
1,
1,
7,
7,
6,
6,
11,
11,
11,
11,
4,
4,
10,
37,
36,
36,
38,
26,
27,
7,
8,
8,
8,
8,
12,
12,
8,
8,
0,
0,
6,
6,
0,
0,
2,
2,
10,
10,
15,
15,
6,
6,
7,
7,
6,
6,
3,
3,
3,
3,
2,
2,
-1,
-1,
7,
7,
10,
10,
6,
20,
19,
19,
27,
9,
10,
10,
3,
3,
0,
11,
10,
23,
22,
22,
19,
1,
3,
15,
14,
14,
7,
7,
7,
19,
19,
19,
23,
23,
14,
14,
5,
5,
2,
2,
1,
1,
5,
5,
2,
2,
0,
0,
9,
9,
17,
17,
25,
25,
20,
9,
10,
-1,
2,
2,
5,
5,
10,
10,
4,
4,
0,
0,
3,
3,
8,
8,
1,
1,
2,
2,
0,
0,
2,
2,
10,
10,
10,
10,
10,
10,
8,
8,
6,
6,
3,
3,
0,
14,
14,
14,
16,
5,
6,
6,
1,
1,
7,
7,
0,
0,
8,
8,
14,
14,
8,
8,
1,
1,
2,
2,
4,
4,
2,
2,
1,
1,
2,
2,
6,
6,
4,
4,
2,
2,
1,
1,
4,
4,
1,
1,
2,
2,
3,
3,
8,
8,
11,
11,
10,
-1,
3,
18,
18,
30,
30,
30,
26,
2,
3,
14,
12,
12,
12,
12,
7,
7,
6,
6,
9,
9,
11,
11,
3,
18,
16,
16,
9,
9,
5,
5,
1,
23,
23,
23,
20,
20,
12,
12,
7,
7,
7,
20,
19,
19,
19,
19,
20,
20,
16,
16,
8,
8,
8,
8,
14,
14,
10,
10,
5,
5,
0,
0,
1,
14,
13,
13,
16,
16,
13,
13,
6,
6,
0,
0,
0,
0,
2,
2,
0,
0,
2,
2,
6,
6,
8,
8,
3,
3,
0,
0,
2,
13,
12,
12,
2,
2,
5,
5,
4,
4,
4,
4,
0,
0,
0,
0,
2,
2,
6,
6,
7,
7,
0,
0,
1,
1,
6,
6,
6,
6,
5,
5,
5,
5,
5,
18,
16,
16,
6,
6,
10,
10,
17,
17,
7,
7,
14,
26,
23,
3,
6,
23,
23,
23,
25,
25,
26,
26,
22,
4,
4,
17,
16,
16,
19,
19,
16,
30,
30,
30,
32,
14,
14,
14,
15,
15,
18,
6,
6,
6,
13,
13,
20,
20,
25,
25,
26,
12,
14,
14,
8,
8,
4,
4,
4,
4,
7,
7,
5,
17,
16,
27,
26,
11,
12,
1,
8,
20,
18,
18,
14,
14,
9,
9,
2,
16,
16,
16,
11,
0,
3,
3,
6,
6,
0,
0,
-1,
-1,
6,
6,
4,
4,
3,
3,
12,
12,
11,
-1,
-1,
-1,
2,
2,
2,
2,
4,
4,
7,
7,
7,
21,
20,
20,
15,
15,
15,
2,
3,
25,
25,
14,
14,
-1,
0,
0,
4,
4,
0,
0,
2,
2,
9,
9,
11,
11,
7,
7,
-1,
-1,
3,
3,
3,
3,
3,
3,
2,
2,
0,
0,
2,
2,
6,
6,
9,
9,
6,
6,
2,
2,
8,
8,
15,
15,
16,
16,
10,
-1,
0,
0,
1,
1,
0,
0,
-1,
-1,
0,
11,
11,
11,
14,
14,
7,
7,
4,
4,
7,
7,
8,
8,
14,
2,
3,
28,
27,
27,
24,
3,
5,
25,
24,
24,
32,
21,
22,
10,
11,
-1,
0,
0,
3,
3,
8,
8,
18,
18,
16,
16,
13,
13,
14,
14,
7,
7,
1,
1,
-1,
-1,
3,
3,
4,
4,
5,
5,
4,
4,
3,
3,
4,
4,
0,
0,
4,
4,
8,
8,
15,
15,
15,
2,
4,
22,
21,
9,
10,
10,
4,
4,
2,
2,
6,
6,
6,
6,
10,
10,
10,
10,
7,
7,
0,
0,
2,
2,
11,
23,
22,
22,
19,
19,
18,
18,
15,
1,
2,
2,
10,
10,
15,
15,
6,
6,
0,
0,
-1,
-1,
0,
0,
0,
0,
0,
0,
2,
2,
3,
3,
1,
15,
14,
14,
21,
21,
14,
0,
1,
13,
12,
12,
15,
15,
7,
7,
6,
6,
3,
3,
0,
14,
14,
14,
14,
14,
9,
9,
3,
3,
6,
6,
6,
6,
1,
1,
0,
0,
0,
0,
4,
4,
0,
0,
7,
7,
14,
14,
14,
14,
4,
4,
4,
4,
6,
6,
13,
13,
14,
3,
4,
4,
2,
2,
11,
11,
8,
8,
3,
3,
10,
10,
15,
15,
14,
14,
19,
19,
14,
1,
2,
2,
9,
9,
13,
13,
11,
11,
15,
15,
15,
15,
12,
12,
10,
10,
12,
12,
6,
6,
6,
6,
9,
9,
8,
8,
6,
6,
1,
1,
0,
0,
0,
0,
8,
19,
18,
18,
10,
10,
11,
11,
14,
14,
10,
10,
3,
3,
1,
1,
2,
2,
4,
4,
8,
8,
2,
17,
16,
16,
22,
22,
21,
2,
2,
2,
8,
8,
4,
4,
0,
0,
6,
6,
4,
4,
4,
4,
0,
0,
0,
0,
0,
0,
8,
8,
7,
7,
3,
3,
4,
4,
13,
13,
12,
12,
8,
8,
8,
8,
6,
6,
4,
4,
3,
3,
10,
10,
7,
7,
8,
8,
0,
0,
9,
9,
9,
9,
0,
0,
0,
0,
1,
1,
8,
8,
7,
7,
0,
0,
0,
0,
2,
2,
7,
7,
3,
3,
1,
1,
2,
2,
0,
0,
-1,
-1,
1,
1,
1,
1,
4,
4,
3,
3,
6,
6,
8,
8,
7,
7,
0,
0,
-1,
-1,
7,
7,
8,
8,
8,
8,
4,
4,
4,
4,
2,
2,
2,
2,
6,
6,
9,
9,
4,
4,
0,
0,
0,
0,
0,
0,
3,
3,
0,
0,
1,
1,
1,
1,
-1,
-1,
0,
0,
4,
4,
2,
2,
0,
0,
6,
6,
0,
11,
11,
11,
15,
15,
10,
10,
15,
26,
26,
3,
3,
3,
9,
23,
22,
22,
29,
29,
21,
5,
6,
6,
10,
10,
14,
14,
8,
8,
5,
5,
0,
15,
14,
14,
11,
-1,
1,
1,
2,
2,
0,
0,
4,
4,
0,
0,
8,
8,
10,
10,
6,
6,
3,
3,
0,
0,
2,
2,
7,
7,
8,
8,
5,
5,
2,
2,
0,
0,
0,
0,
0,
14,
14,
14,
8,
8,
1,
1,
10,
10,
9,
9,
12,
32,
32,
32,
28,
9,
10,
10,
8,
8,
13,
13,
13,
13,
13,
13,
8,
8,
0,
0,
4,
4,
2,
2,
3,
3,
6,
6,
2,
2,
2,
2,
2,
2,
1,
1,
1,
15,
15,
15,
16,
16,
9,
9,
3,
3,
2,
2,
0,
0,
8,
8,
12,
0,
2,
2,
7,
7,
6,
6,
1,
1,
4,
4,
5,
5,
3,
15,
15,
15,
14,
0,
2,
2,
7,
7,
10,
10,
11,
11,
15,
15,
12,
1,
8,
24,
23,
23,
25,
25,
16,
16,
14,
3,
5,
5,
2,
2,
2,
16,
15,
15,
16,
5,
6,
6,
2,
2,
7,
7,
7,
20,
19,
19,
16,
1,
3,
16,
15,
15,
18,
6,
7,
7,
6,
6,
4,
4,
3,
3,
1,
1,
10,
10,
7,
7,
4,
4,
0,
0,
6,
6,
7,
7,
3,
3,
2,
2,
8,
8,
11,
11,
10,
10,
13,
13,
7,
7,
0,
0,
0,
0,
0,
0,
-1,
-1,
1,
1,
2,
2,
7,
7,
6,
6,
8,
8,
1,
1,
4,
4,
6,
6,
0,
0,
1,
1,
0,
0,
1,
1,
1,
1,
3,
3,
2,
2,
10,
10,
14,
14,
22,
22,
21,
21,
13,
13,
5,
5,
6,
6,
11,
11,
9,
9,
9,
9,
9,
9,
2,
2,
2,
2,
5,
5,
6,
6,
7,
7,
5,
5,
1,
1,
4,
4,
8,
8,
13,
13,
16,
16,
14,
14,
13,
13,
12,
12,
3,
3,
5,
5,
4,
4,
5,
5,
8,
8,
12,
12,
15,
15,
11,
0,
0,
0,
2,
2,
2,
2,
2,
2,
5,
5,
1,
1,
2,
2,
-1,
-1,
0,
0,
5,
5,
6,
6,
5,
5,
8,
8,
8,
8,
0,
0,
0,
0,
-1,
-1,
6,
6,
4,
4,
3,
3,
4,
4,
0,
0,
7,
7,
3,
3,
0,
0,
1,
1,
4,
4,
3,
3,
12,
12,
8,
8,
3,
3,
11,
11,
13,
13,
13,
13,
5,
5,
0,
0,
5,
5,
7,
7,
11,
11,
11,
11,
4,
4,
0,
0,
9,
9,
16,
16,
6,
6,
0,
0,
7,
7,
11,
11,
6,
6,
0,
0,
-1,
-1,
2,
2,
11,
11,
16,
2,
3,
25,
25,
25,
25,
14,
15,
1,
1,
1,
7,
7,
8,
8,
5,
5,
2,
2,
6,
6,
11,
11,
4,
4,
10,
10,
10,
10,
1,
1,
11,
26,
25,
25,
18,
18,
10,
10,
0,
0,
7,
7,
14,
14,
11,
11,
4,
4,
4,
4,
3,
3,
0,
0,
-2,
-2,
2,
2,
1,
1,
4,
4,
3,
3,
-1,
-1,
2,
2,
7,
7,
15,
15,
9,
9,
5,
5,
14,
14,
17,
17,
12,
12,
3,
3,
10,
10,
10,
10,
3,
3,
0,
0,
-1,
-1,
6,
6,
13,
13,
15,
15,
12,
12,
2,
2,
8,
8,
6,
6,
-1,
-1,
0,
0,
4,
4,
7,
7,
16,
16,
21,
21,
13,
-1,
0,
0,
6,
6,
9,
9,
5,
5,
3,
3,
-1,
-1,
2,
2,
5,
5,
4,
4,
0,
0,
4,
4,
9,
9,
2,
2,
5,
5,
8,
8,
10,
10,
10,
10,
14,
25,
24,
24,
15,
1,
5,
22,
21,
21,
27,
9,
9,
9,
3,
3,
10,
10,
6,
6,
0,
0,
0,
0,
0,
0,
7,
7,
10,
10,
13,
13,
11,
0,
1,
1,
1,
1,
6,
6,
6,
6,
2,
2,
5,
5,
5,
5,
5,
5,
2,
2,
7,
7,
13,
13,
12,
12,
12,
12,
6,
6,
3,
3,
6,
6,
14,
0,
2,
2,
10,
10,
1,
1,
9,
9,
4,
4,
3,
3,
10,
10,
10,
10,
10,
10,
0,
0,
9,
24,
24,
24,
32,
20,
20,
0,
1,
1,
11,
23,
22,
22,
18,
2,
2,
14,
13,
13,
9,
9,
7,
7,
3,
3,
0,
0,
0,
0,
5,
5,
10,
10,
6,
6,
1,
1,
2,
2,
3,
17,
17,
17,
15,
15,
7,
7,
1,
1,
5,
5,
10,
10,
3,
3,
0,
0,
1,
1,
9,
9,
15,
15,
21,
21,
19,
19,
10,
10,
4,
15,
15,
15,
11,
11,
2,
2,
6,
6,
14,
14,
19,
19,
10,
10,
1,
1,
4,
4,
11,
11,
10,
10,
6,
6,
4,
4,
2,
2,
0,
11,
11,
11,
16,
16,
16,
16,
7,
7,
6,
6,
15,
15,
10,
-1,
0,
0,
3,
3,
4,
4,
7,
7,
6,
6,
0,
0,
6,
6,
3,
3,
-1,
-1,
3,
3,
1,
1,
8,
8,
15,
15,
16,
16,
12,
12,
12,
12,
5,
5,
8,
8,
14,
14,
11,
11,
9,
9,
4,
4,
0,
0,
4,
4,
0,
0,
0,
0,
-1,
-1,
0,
0,
4,
4,
8,
8,
3,
3,
2,
2,
5,
27,
26,
26,
31,
18,
19,
7,
8,
8,
1,
1,
5,
5,
14,
14,
10,
10,
8,
8,
6,
6,
8,
8,
10,
10,
2,
2,
4,
4,
10,
10,
10,
10,
6,
6,
-1,
-1,
1,
1,
5,
5,
10,
10,
11,
11,
3,
3,
2,
17,
17,
31,
31,
31,
30,
16,
17,
17,
16,
16,
18,
18,
9,
9,
9,
29,
27,
27,
34,
34,
26,
10,
11,
-1,
0,
0,
0,
0,
4,
4,
3,
3,
2,
2,
3,
3,
5,
5,
6,
6,
4,
4,
1,
1,
3,
3,
4,
4,
1,
1,
3,
3,
3,
3,
6,
6,
11,
11,
16,
16,
21,
10,
10,
10,
6,
6,
7,
7,
7,
7,
8,
8,
2,
2,
2,
2,
0,
0,
4,
4,
6,
6,
7,
7,
7,
7,
8,
8,
5,
5,
4,
4,
0,
0,
7,
18,
17,
17,
11,
11,
4,
4,
7,
7,
6,
6,
7,
7,
6,
6,
3,
3,
4,
4,
2,
2,
1,
1,
2,
2,
0,
0,
8,
8,
5,
5,
5,
5,
13,
13,
6,
6,
2,
2,
0,
0,
5,
5,
0,
0,
0,
0,
4,
4,
5,
5,
4,
4,
4,
4,
8,
8,
1,
1,
0,
0,
0,
0,
0,
14,
14,
14,
17,
17,
7,
7,
0,
0,
6,
6,
9,
9,
14,
14,
8,
8,
8,
8,
6,
6,
3,
15,
14,
14,
21,
21,
23,
23,
27,
27,
25,
3,
3,
20,
19,
32,
31,
31,
28,
28,
20,
20,
19,
19,
12,
0,
2,
2,
4,
4,
12,
12,
22,
22,
22,
22,
14,
14,
11,
11,
9,
9,
2,
2,
7,
7,
11,
11,
4,
4,
5,
5,
2,
2,
7,
7,
3,
3,
3,
3,
10,
10,
8,
8,
6,
6,
0,
0,
8,
8,
10,
10,
4,
4,
2,
2,
5,
5,
1,
1,
-1,
-1,
5,
5,
9,
9,
8,
8,
7,
7,
0,
0,
2,
2,
0,
0,
-1,
-1,
4,
4,
2,
2,
0,
0,
2,
2,
1,
1,
4,
4,
2,
2,
-1,
-1,
4,
4,
5,
5,
5,
5,
13,
13,
3,
3,
3,
3,
7,
7,
10,
10,
0,
0,
4,
19,
19,
30,
28,
15,
17,
0,
0,
17,
17,
17,
20,
20,
15,
15,
6,
6,
10,
10,
13,
13,
8,
8,
3,
3,
1,
1,
7,
7,
8,
8,
7,
7,
7,
7,
4,
4,
11,
11,
10,
10,
5,
5,
6,
6,
6,
6,
1,
1,
4,
4,
5,
5,
7,
7,
1,
1,
7,
7,
5,
5,
0,
0,
1,
1,
11,
11,
7,
7,
0,
0,
-1,
-1,
-1,
-1,
0,
0,
2,
2,
5,
5,
7,
7,
7,
7,
4,
4,
1,
1,
1,
1,
-1,
-1,
2,
2,
2,
2,
11,
11,
13,
13,
17,
17,
26,
26,
32,
4,
5,
24,
24,
35,
35,
35,
33,
33,
24,
8,
8,
8,
6,
6,
11,
11,
5,
5,
0,
0,
0,
0,
0,
12,
11,
11,
8,
8,
2,
2,
6,
6,
1,
1,
0,
0,
8,
8,
13,
13,
11,
11,
8,
8,
3,
3,
11,
11,
4,
4,
0,
0,
2,
2,
3,
3,
0,
0,
4,
4,
6,
6,
8,
8,
10,
10,
4,
4,
7,
7,
14,
14,
21,
21,
21,
21,
13,
0,
3,
3,
6,
6,
4,
4,
6,
6,
5,
5,
4,
4,
5,
5,
0,
0,
6,
6,
11,
11,
14,
1,
2,
2,
5,
5,
6,
6,
0,
0,
8,
8,
3,
3,
2,
2,
8,
8,
10,
10,
3,
3,
1,
1,
7,
7,
14,
14,
12,
12,
6,
6,
3,
3,
0,
0,
-1,
-1,
1,
1,
2,
2,
0,
0,
1,
1,
6,
6,
3,
3,
2,
2,
4,
4,
6,
6,
8,
8,
3,
3,
3,
3,
11,
11,
11,
11,
2,
2,
4,
4,
8,
8,
6,
6,
0,
0,
0,
0,
0,
0,
7,
7,
0,
0,
6,
6,
9,
9,
7,
7,
10,
10,
18,
18,
21,
8,
8,
8,
4,
4,
10,
10,
14,
14,
13,
13,
9,
9,
5,
5,
6,
6,
7,
7,
2,
2,
2,
2,
-1,
-1,
2,
2,
5,
5,
5,
5,
6,
6,
7,
7,
6,
6,
4,
4,
3,
3,
9,
9,
10,
10,
6,
6,
3,
3,
-1,
-1,
0,
0,
1,
1,
1,
1,
4,
4,
7,
7,
8,
8,
8,
8,
6,
6,
4,
4,
0,
0,
3,
3,
6,
6,
12,
12,
13,
13,
8,
8,
10,
10,
6,
6,
1,
1,
3,
14,
12,
12,
14,
14,
7,
7,
0,
0,
4,
4,
0,
0,
2,
2,
4,
4,
3,
3,
3,
3,
1,
1,
7,
7,
7,
7,
2,
2,
1,
1,
0,
0,
1,
1,
2,
2,
5,
5,
2,
2,
0,
0,
0,
0,
6,
6,
0,
13,
13,
13,
14,
14,
16,
16,
23,
23,
26,
11,
11,
11,
8,
19,
18,
18,
27,
27,
26,
13,
13,
13,
4,
4,
0,
0,
5,
5,
6,
6,
5,
5,
8,
8,
6,
6,
0,
0,
4,
4,
3,
3,
5,
5,
6,
6,
1,
1,
10,
27,
26,
26,
27,
9,
10,
-1,
3,
3,
6,
6,
9,
9,
2,
2,
6,
6,
5,
5,
0,
0,
4,
4,
12,
12,
19,
2,
3,
22,
22,
22,
22,
6,
7,
7,
8,
8,
0,
0,
3,
3,
0,
0,
1,
16,
15,
15,
10,
10,
1,
1,
-1,
-1,
6,
6,
6,
6,
8,
8,
1,
1,
8,
8,
16,
16,
9,
9,
2,
2,
5,
5,
4,
4,
2,
2,
0,
0,
2,
2,
7,
7,
6,
6,
4,
4,
2,
2,
2,
2,
4,
4,
3,
3,
3,
3,
2,
2,
0,
0,
-1,
-1,
4,
4,
10,
10,
11,
11,
16,
16,
15,
15,
8,
8,
4,
4,
5,
5,
9,
9,
7,
7,
6,
6,
5,
5,
3,
3,
7,
7,
10,
10,
8,
8,
1,
1,
1,
1,
3,
3,
7,
7,
6,
6,
-1,
-1,
2,
2,
0,
0,
4,
4,
2,
2,
7,
7,
10,
10,
4,
4,
2,
2,
1,
1,
1,
1,
6,
6,
15,
15,
16,
3,
4,
4,
0,
0,
5,
5,
10,
10,
11,
11,
16,
16,
16,
2,
6,
20,
19,
19,
11,
0,
2,
2,
4,
4,
9,
9,
2,
2,
3,
3,
5,
5,
7,
7,
5,
5,
6,
6,
1,
1,
10,
10,
17,
17,
11,
11,
6,
6,
7,
7,
0,
0,
4,
4,
8,
8,
0,
0,
0,
0,
1,
1,
0,
0,
0,
0,
0,
0,
6,
6,
8,
8,
3,
3,
6,
6,
3,
3,
-1,
-1,
5,
5,
9,
9,
9,
9,
3,
14,
13,
13,
10,
-1,
0,
0,
3,
3,
1,
1,
0,
0,
0,
0,
5,
5,
4,
4,
3,
3,
2,
2,
5,
5,
4,
4,
6,
6,
0,
0,
2,
2,
-1,
-1,
2,
2,
8,
8,
5,
5,
2,
2,
7,
7,
9,
9,
8,
8,
4,
4,
0,
0,
0,
0,
2,
2,
5,
5,
5,
5,
3,
3,
0,
0,
1,
1,
7,
7,
8,
8,
1,
1,
8,
8,
12,
12,
9,
9,
2,
2,
12,
12,
16,
16,
11,
11,
7,
7,
8,
8,
5,
5,
0,
0,
10,
10,
14,
14,
9,
9,
8,
8,
6,
6,
6,
19,
18,
18,
21,
8,
8,
8,
0,
0,
0,
0,
5,
5,
2,
2,
6,
6,
3,
3,
1,
1,
7,
7,
10,
10,
8,
8,
3,
3,
0,
0,
0,
0,
1,
1,
0,
0,
1,
1,
4,
4,
5,
5,
10,
10,
11,
11,
15,
15,
10,
10,
5,
5,
8,
8,
12,
1,
6,
18,
18,
18,
13,
0,
3,
14,
12,
12,
11,
11,
11,
11,
15,
15,
8,
8,
7,
7,
10,
10,
3,
3,
3,
3,
5,
5,
14,
14,
19,
19,
14,
14,
14,
14,
11,
11,
6,
6,
0,
0,
1,
1,
1,
1,
6,
6,
8,
8,
11,
11,
6,
6,
5,
5,
7,
7,
8,
8,
12,
12,
10,
-1,
0,
0,
3,
3,
8,
8,
9,
9,
8,
8,
5,
5,
4,
4,
8,
8,
1,
1,
1,
1,
2,
2,
2,
2,
7,
7,
12,
12,
18,
18,
15,
15,
6,
6,
9,
9,
15,
15,
10,
10,
7,
7,
7,
7,
8,
8,
4,
4,
6,
24,
24,
24,
26,
15,
16,
0,
1,
1,
3,
3,
3,
3,
3,
3,
6,
6,
13,
13,
18,
18,
16,
16,
7,
7,
0,
0,
7,
7,
9,
9,
3,
3,
-1,
-1,
0,
0,
1,
14,
14,
14,
20,
20,
11,
11,
4,
4,
0,
0,
0,
0,
3,
3,
9,
9,
8,
8,
0,
0,
-1,
-1,
0,
0,
1,
1,
1,
1,
2,
2,
-1,
-1,
3,
3,
0,
0,
8,
8,
13,
13,
12,
12,
11,
11,
6,
6,
2,
2,
7,
7,
4,
4,
2,
2,
4,
4,
0,
0,
5,
5,
4,
4,
2,
2,
10,
10,
8,
8,
2,
2,
2,
2,
2,
2,
0,
0,
4,
4,
8,
8,
8,
8,
8,
8,
8,
8,
7,
7,
8,
8,
6,
6,
-1,
-1,
-1,
-1,
2,
2,
6,
6,
1,
1,
1,
1,
-1,
-1,
1,
1,
5,
5,
6,
6,
3,
3,
-1,
-1,
1,
1,
0,
0,
4,
4,
-1,
-1,
7,
7,
7,
7,
7,
7,
2,
2,
6,
6,
16,
16,
14,
1,
2,
2,
6,
6,
12,
12,
15,
1,
2,
16,
16,
16,
7,
7,
1,
1,
5,
25,
25,
25,
31,
18,
19,
4,
5,
5,
0,
15,
14,
29,
27,
27,
23,
23,
20,
20,
18,
18,
11,
11,
6,
6,
0,
0,
6,
6,
10,
10,
12,
12,
8,
8,
4,
4,
11,
11,
10,
10,
3,
3,
3,
14,
14,
25,
25,
25,
23,
11,
11,
0,
4,
4,
11,
11,
4,
4,
2,
2,
2,
14,
13,
13,
14,
14,
11,
11,
10,
10,
10,
10,
7,
7,
0,
0,
-1,
-1,
3,
3,
1,
1,
0,
15,
15,
15,
20,
20,
19,
19,
15,
4,
4,
4,
1,
1,
-1,
-1,
5,
5,
6,
6,
4,
4,
0,
0,
2,
2,
5,
5,
2,
2,
0,
0,
4,
4,
0,
0,
0,
0,
2,
2,
3,
3,
6,
6,
2,
2,
2,
2,
10,
21,
20,
20,
28,
28,
19,
0,
1,
1,
7,
7,
14,
14,
14,
14,
13,
13,
8,
8,
0,
0,
5,
5,
8,
8,
5,
5,
0,
0,
-1,
-1,
0,
0,
2,
2,
2,
2,
1,
1,
2,
2,
4,
4,
0,
0,
2,
2,
5,
5,
8,
8,
6,
6,
3,
3,
-1,
-1,
0,
0,
3,
3,
6,
6,
7,
7,
8,
8,
2,
2,
2,
2,
2,
18,
17,
17,
23,
23,
19,
19,
14,
0,
1,
14,
14,
14,
12,
1,
7,
7,
12,
12,
3,
3,
1,
1,
0,
0,
0,
11,
11,
11,
15,
15,
10,
10,
6,
6,
6,
6,
-1,
-1,
4,
4,
7,
7,
8,
22,
21,
21,
20,
7,
8,
8,
6,
6,
5,
5,
0,
0,
2,
2,
1,
1,
-1,
-1,
0,
0,
0,
0,
2,
2,
2,
2,
4,
4,
1,
1,
3,
3,
11,
11,
19,
19,
18,
3,
3,
3,
9,
9,
10,
10,
15,
15,
5,
5,
6,
6,
0,
0,
5,
5,
7,
7,
2,
2,
4,
16,
16,
16,
22,
22,
14,
14,
5,
5,
0,
0,
6,
6,
11,
11,
12,
12,
9,
9,
5,
5,
3,
3,
2,
2,
1,
1,
2,
2,
8,
8,
9,
9,
1,
1,
0,
0,
0,
0,
3,
3,
10,
10,
7,
7,
1,
1,
