EMG_S1/DS0142.CSV

Memory Length,4000,
Trigger Level,0.00000e+00,
Source,CH1,
Probe,1.0X,
Vertical Units,V,
Vertical Scale,1.00000e+00,
Vertical Position,4.00000e-02,
Horizontal Units,S,
Horizontal Scale,1.00000e-01,
Horizontal Position,0.0000000e+00,
Horizontal Mode,Roll Mode,
Waveform Last Dot Address,4000,
Sampling Period,4.00000e-04,
Firmware,V1.14,
Time, ,
Mode,Fast,
Waveform Data,
3,
3,
0,
0,
1,
1,
1,
1,
3,
3,
2,
2,
-1,
-1,
1,
1,
2,
2,
1,
1,
0,
0,
5,
5,
2,
2,
-1,
-1,
0,
0,
3,
3,
5,
5,
11,
11,
12,
12,
6,
6,
1,
1,
7,
7,
14,
14,
10,
10,
10,
10,
8,
8,
8,
8,
8,
8,
6,
6,
1,
19,
19,
34,
34,
34,
28,
13,
14,
0,
1,
1,
5,
5,
0,
0,
2,
2,
11,
11,
16,
16,
6,
6,
0,
0,
2,
2,
-1,
12,
12,
28,
26,
26,
17,
17,
10,
10,
2,
2,
11,
11,
15,
15,
14,
14,
10,
10,
11,
11,
4,
4,
-1,
-1,
3,
3,
7,
7,
7,
7,
6,
6,
3,
3,
6,
6,
10,
10,
14,
14,
8,
8,
6,
6,
1,
1,
8,
8,
16,
16,
18,
18,
9,
9,
6,
21,
21,
21,
22,
22,
14,
2,
3,
3,
3,
3,
2,
14,
13,
13,
18,
18,
8,
8,
9,
9,
7,
7,
5,
5,
13,
13,
4,
4,
2,
2,
4,
4,
5,
5,
3,
3,
2,
2,
4,
4,
1,
16,
15,
34,
34,
34,
26,
9,
10,
10,
4,
4,
4,
15,
14,
14,
14,
3,
3,
3,
2,
2,
3,
3,
5,
5,
6,
6,
2,
2,
7,
7,
11,
11,
5,
5,
5,
5,
4,
4,
3,
3,
-1,
-1,
6,
6,
6,
6,
-1,
-1,
2,
2,
4,
4,
0,
0,
1,
13,
12,
12,
8,
8,
1,
1,
6,
6,
8,
8,
8,
8,
7,
7,
4,
4,
5,
5,
13,
13,
9,
9,
2,
2,
5,
5,
9,
9,
1,
1,
1,
1,
8,
8,
14,
14,
10,
10,
1,
18,
18,
18,
22,
22,
27,
16,
17,
3,
14,
27,
27,
27,
32,
14,
14,
-1,
-1,
-1,
3,
3,
2,
2,
0,
0,
-1,
-1,
4,
4,
10,
10,
13,
13,
12,
12,
7,
7,
0,
0,
8,
8,
11,
11,
12,
12,
14,
14,
16,
16,
8,
8,
3,
3,
6,
6,
12,
1,
2,
15,
15,
15,
18,
18,
13,
0,
0,
0,
-1,
-1,
3,
3,
2,
2,
6,
6,
2,
2,
0,
0,
2,
2,
8,
8,
8,
8,
10,
30,
30,
30,
34,
34,
26,
10,
10,
10,
6,
6,
14,
14,
18,
6,
7,
7,
-1,
-1,
8,
8,
4,
4,
7,
7,
5,
5,
0,
0,
3,
3,
9,
9,
8,
8,
6,
6,
0,
0,
0,
0,
0,
0,
-1,
-1,
1,
1,
1,
1,
3,
3,
7,
7,
7,
7,
3,
3,
0,
0,
2,
2,
8,
8,
6,
6,
7,
7,
11,
11,
6,
6,
1,
1,
-1,
-1,
6,
6,
7,
7,
6,
6,
2,
2,
6,
6,
4,
4,
11,
11,
19,
19,
14,
0,
2,
2,
7,
7,
8,
8,
15,
15,
8,
8,
5,
5,
9,
9,
5,
5,
2,
2,
8,
8,
7,
7,
1,
1,
1,
1,
7,
7,
9,
23,
22,
22,
15,
3,
4,
4,
2,
2,
-1,
-1,
4,
4,
7,
7,
1,
1,
-1,
-1,
-1,
-1,
1,
1,
1,
1,
1,
1,
5,
5,
6,
6,
6,
6,
6,
6,
5,
5,
10,
25,
23,
23,
31,
31,
32,
20,
20,
1,
2,
15,
14,
14,
14,
14,
18,
18,
21,
21,
16,
16,
10,
10,
3,
3,
0,
0,
1,
1,
1,
1,
2,
2,
6,
6,
11,
11,
20,
6,
7,
7,
6,
6,
7,
7,
7,
19,
18,
18,
19,
19,
18,
18,
11,
0,
0,
15,
14,
14,
18,
18,
20,
20,
21,
21,
15,
15,
6,
6,
0,
0,
7,
7,
3,
3,
7,
7,
9,
9,
7,
7,
0,
0,
4,
16,
16,
30,
30,
30,
23,
4,
4,
4,
6,
6,
9,
9,
7,
7,
4,
4,
3,
3,
11,
22,
22,
22,
28,
12,
12,
1,
4,
4,
5,
5,
10,
10,
2,
2,
-1,
-1,
0,
0,
8,
8,
16,
16,
19,
19,
18,
18,
12,
12,
3,
3,
6,
6,
7,
18,
17,
17,
19,
19,
10,
10,
6,
6,
0,
0,
2,
2,
0,
20,
19,
30,
28,
11,
12,
-1,
0,
0,
6,
6,
14,
14,
15,
15,
12,
12,
8,
8,
0,
0,
6,
6,
10,
10,
11,
11,
11,
11,
6,
6,
6,
18,
17,
17,
8,
8,
4,
4,
1,
1,
0,
0,
2,
22,
21,
21,
27,
27,
19,
2,
6,
23,
23,
5,
6,
22,
22,
22,
18,
2,
6,
6,
10,
10,
4,
4,
9,
9,
15,
15,
12,
0,
2,
2,
0,
0,
1,
1,
1,
1,
3,
3,
3,
3,
5,
5,
9,
9,
5,
5,
13,
25,
24,
24,
23,
23,
23,
23,
18,
18,
9,
9,
6,
6,
12,
12,
6,
6,
13,
13,
8,
8,
4,
4,
2,
13,
11,
23,
22,
8,
8,
8,
14,
28,
27,
27,
27,
27,
20,
0,
1,
14,
13,
24,
23,
23,
30,
30,
29,
18,
18,
0,
1,
13,
13,
13,
18,
18,
15,
15,
14,
14,
6,
6,
3,
3,
6,
6,
12,
12,
20,
20,
11,
-1,
0,
11,
10,
10,
11,
11,
10,
10,
4,
4,
10,
10,
11,
11,
10,
10,
12,
12,
12,
12,
4,
4,
3,
3,
-1,
-1,
2,
2,
4,
4,
3,
3,
3,
3,
6,
6,
11,
11,
18,
18,
18,
18,
12,
0,
1,
1,
10,
10,
10,
10,
7,
7,
2,
2,
8,
19,
18,
18,
15,
2,
2,
2,
5,
5,
4,
4,
5,
16,
15,
15,
5,
5,
5,
5,
8,
8,
4,
4,
3,
3,
1,
1,
5,
5,
10,
10,
7,
7,
3,
3,
8,
8,
1,
1,
1,
1,
1,
1,
8,
8,
9,
9,
2,
2,
-1,
-1,
2,
2,
5,
5,
5,
5,
0,
0,
4,
4,
10,
10,
10,
10,
10,
10,
1,
15,
14,
14,
12,
0,
4,
4,
10,
10,
9,
9,
1,
1,
10,
10,
13,
31,
30,
30,
39,
39,
32,
32,
23,
10,
10,
10,
16,
16,
25,
25,
23,
23,
24,
24,
24,
24,
20,
20,
15,
15,
6,
6,
10,
10,
14,
0,
3,
3,
10,
10,
12,
24,
23,
23,
27,
16,
17,
17,
9,
9,
5,
5,
2,
2,
6,
6,
3,
3,
5,
5,
8,
8,
11,
11,
11,
0,
2,
2,
8,
21,
20,
20,
24,
24,
26,
26,
18,
0,
2,
17,
15,
15,
19,
19,
10,
10,
2,
2,
-1,
-1,
0,
0,
2,
2,
-1,
-1,
6,
6,
0,
0,
3,
3,
-1,
-1,
-1,
-1,
5,
5,
6,
6,
9,
9,
0,
0,
2,
2,
1,
1,
1,
1,
10,
10,
15,
4,
5,
5,
4,
4,
3,
3,
2,
2,
9,
9,
11,
0,
1,
1,
7,
7,
6,
6,
3,
3,
0,
0,
7,
7,
6,
6,
3,
3,
8,
8,
1,
1,
1,
1,
4,
4,
11,
0,
2,
2,
5,
5,
7,
7,
6,
6,
1,
1,
8,
8,
12,
12,
18,
18,
20,
2,
4,
19,
18,
18,
18,
18,
10,
10,
6,
21,
20,
20,
26,
10,
11,
0,
2,
2,
6,
6,
13,
2,
4,
23,
23,
23,
28,
28,
21,
21,
15,
15,
5,
5,
0,
0,
6,
6,
3,
3,
7,
18,
18,
18,
22,
10,
10,
10,
0,
0,
0,
0,
2,
2,
0,
0,
2,
2,
7,
7,
11,
22,
21,
21,
21,
21,
13,
2,
2,
2,
3,
3,
4,
4,
14,
14,
18,
18,
18,
18,
11,
11,
3,
3,
8,
8,
0,
0,
8,
8,
6,
6,
7,
7,
14,
14,
9,
9,
3,
3,
3,
3,
6,
6,
11,
11,
8,
8,
3,
3,
8,
25,
25,
25,
21,
5,
5,
5,
4,
4,
8,
8,
0,
0,
0,
0,
2,
2,
12,
12,
13,
13,
20,
34,
33,
22,
22,
6,
7,
7,
8,
21,
20,
7,
7,
7,
13,
13,
7,
7,
2,
20,
20,
20,
28,
13,
14,
14,
6,
18,
17,
41,
40,
25,
25,
2,
2,
2,
6,
6,
10,
10,
9,
9,
6,
6,
7,
7,
0,
0,
3,
3,
0,
0,
0,
0,
3,
3,
-1,
-1,
-1,
-1,
1,
1,
3,
3,
6,
17,
16,
32,
31,
31,
25,
25,
26,
26,
18,
3,
10,
25,
24,
24,
31,
31,
31,
10,
10,
10,
7,
7,
12,
12,
6,
6,
7,
23,
22,
22,
22,
11,
11,
11,
5,
5,
3,
3,
4,
4,
-1,
-1,
0,
0,
4,
4,
14,
14,
12,
1,
2,
2,
9,
9,
10,
10,
3,
3,
6,
6,
13,
13,
12,
12,
16,
3,
6,
38,
36,
47,
46,
28,
28,
6,
6,
6,
6,
21,
21,
21,
14,
14,
8,
8,
6,
6,
15,
3,
3,
3,
4,
4,
3,
3,
9,
9,
18,
18,
14,
14,
16,
3,
3,
15,
15,
15,
17,
17,
10,
10,
4,
4,
7,
7,
8,
19,
18,
18,
21,
21,
17,
3,
4,
4,
4,
4,
2,
2,
0,
11,
10,
10,
9,
9,
2,
14,
14,
14,
14,
14,
6,
6,
8,
8,
8,
8,
5,
5,
9,
9,
9,
9,
1,
1,
1,
1,
2,
2,
6,
6,
6,
6,
6,
6,
7,
7,
0,
13,
11,
11,
19,
19,
10,
10,
4,
4,
6,
6,
2,
2,
3,
3,
6,
6,
1,
1,
2,
2,
8,
8,
15,
15,
7,
7,
4,
4,
2,
2,
0,
0,
0,
0,
7,
7,
6,
6,
6,
6,
6,
22,
22,
22,
16,
0,
2,
17,
16,
16,
12,
0,
1,
1,
4,
4,
8,
8,
4,
4,
-1,
10,
10,
10,
6,
6,
14,
31,
30,
9,
10,
10,
6,
6,
12,
12,
16,
16,
16,
16,
11,
11,
6,
6,
1,
1,
5,
5,
2,
2,
1,
1,
5,
31,
30,
42,
40,
22,
23,
4,
4,
4,
10,
21,
20,
20,
27,
27,
20,
7,
7,
7,
7,
7,
15,
15,
19,
19,
14,
0,
3,
3,
5,
5,
2,
2,
3,
3,
7,
7,
0,
0,
0,
0,
8,
8,
7,
7,
2,
18,
18,
36,
35,
35,
29,
2,
4,
4,
13,
13,
11,
11,
7,
7,
4,
4,
2,
2,
10,
10,
7,
7,
6,
6,
15,
15,
7,
7,
2,
2,
10,
10,
2,
2,
8,
8,
7,
7,
2,
2,
4,
4,
6,
6,
3,
3,
1,
1,
2,
2,
0,
0,
-1,
15,
15,
40,
40,
40,
37,
11,
12,
0,
5,
17,
17,
17,
17,
17,
26,
26,
22,
3,
5,
20,
20,
6,
7,
7,
3,
3,
7,
7,
7,
7,
6,
6,
0,
0,
5,
5,
0,
0,
0,
0,
2,
2,
8,
8,
11,
11,
15,
15,
20,
20,
15,
0,
2,
2,
7,
7,
12,
12,
4,
4,
0,
0,
0,
0,
-1,
-1,
6,
6,
9,
9,
10,
10,
2,
2,
6,
6,
10,
10,
15,
37,
36,
36,
30,
3,
5,
21,
21,
32,
31,
31,
33,
15,
15,
-1,
1,
1,
0,
0,
0,
12,
11,
11,
18,
18,
13,
0,
1,
1,
0,
0,
4,
17,
16,
34,
32,
21,
21,
2,
6,
26,
25,
25,
31,
10,
10,
10,
5,
5,
6,
6,
6,
6,
3,
3,
8,
8,
3,
3,
1,
1,
2,
2,
4,
15,
14,
14,
13,
-1,
0,
0,
7,
7,
6,
6,
3,
3,
-1,
-1,
2,
13,
13,
13,
22,
10,
11,
-1,
1,
1,
5,
5,
7,
7,
2,
2,
1,
1,
0,
0,
0,
0,
0,
0,
-1,
-1,
1,
1,
10,
10,
3,
3,
9,
21,
21,
21,
19,
7,
8,
8,
0,
0,
4,
4,
7,
7,
6,
6,
2,
2,
2,
2,
0,
0,
0,
0,
1,
1,
0,
0,
3,
3,
0,
0,
3,
3,
0,
0,
8,
19,
19,
19,
16,
16,
7,
7,
2,
14,
14,
14,
14,
14,
7,
7,
3,
3,
5,
5,
8,
8,
13,
13,
8,
8,
9,
9,
10,
10,
8,
8,
3,
3,
7,
7,
11,
11,
12,
12,
11,
11,
8,
8,
3,
3,
5,
5,
6,
6,
8,
8,
10,
10,
10,
10,
5,
5,
-1,
-1,
5,
22,
22,
22,
32,
14,
14,
-1,
2,
2,
2,
2,
5,
5,
12,
12,
17,
17,
9,
9,
12,
12,
11,
0,
6,
19,
19,
34,
34,
34,
39,
20,
20,
0,
1,
13,
11,
11,
11,
11,
1,
1,
-1,
-1,
4,
4,
0,
0,
4,
4,
4,
4,
6,
6,
9,
25,
24,
24,
33,
33,
31,
18,
19,
1,
1,
1,
9,
9,
10,
10,
12,
12,
15,
15,
13,
13,
9,
9,
6,
6,
2,
2,
5,
5,
10,
10,
12,
12,
8,
8,
4,
4,
0,
0,
6,
6,
0,
0,
6,
6,
10,
10,
4,
4,
-1,
-1,
-1,
-1,
8,
8,
10,
10,
1,
1,
-1,
-1,
6,
6,
8,
8,
14,
14,
7,
7,
-1,
-1,
6,
6,
5,
5,
0,
0,
8,
8,
2,
2,
8,
8,
0,
0,
-1,
-1,
1,
1,
3,
3,
8,
8,
8,
8,
7,
7,
1,
1,
10,
10,
8,
8,
3,
3,
11,
11,
10,
10,
5,
5,
0,
0,
0,
0,
0,
0,
0,
0,
3,
3,
1,
1,
1,
1,
2,
2,
3,
3,
2,
2,
2,
2,
6,
6,
0,
0,
1,
1,
10,
10,
10,
10,
7,
7,
2,
2,
0,
0,
2,
2,
2,
2,
3,
3,
3,
3,
4,
4,
7,
7,
6,
6,
5,
5,
9,
9,
9,
9,
1,
1,
5,
5,
11,
11,
15,
15,
17,
17,
17,
2,
4,
17,
17,
28,
27,
27,
34,
34,
26,
6,
6,
6,
6,
22,
22,
40,
39,
39,
31,
6,
7,
7,
2,
2,
6,
6,
15,
15,
15,
15,
12,
12,
3,
3,
7,
18,
16,
2,
4,
24,
24,
24,
24,
24,
16,
0,
2,
2,
8,
8,
7,
7,
14,
14,
19,
19,
14,
1,
2,
2,
3,
16,
16,
16,
20,
20,
16,
16,
10,
10,
2,
2,
3,
3,
0,
0,
3,
3,
0,
0,
10,
10,
6,
6,
2,
2,
1,
1,
0,
0,
1,
1,
1,
1,
1,
1,
-1,
-1,
3,
3,
3,
3,
2,
2,
1,
1,
-1,
-1,
-1,
-1,
0,
0,
0,
0,
0,
0,
4,
4,
0,
0,
9,
9,
11,
11,
3,
3,
-1,
-1,
2,
2,
9,
9,
13,
13,
11,
11,
3,
3,
-1,
-1,
7,
7,
12,
12,
17,
17,
9,
9,
2,
2,
0,
0,
3,
3,
10,
10,
20,
20,
16,
0,
1,
1,
1,
1,
1,
1,
7,
19,
18,
18,
16,
16,
10,
10,
5,
27,
26,
26,
27,
10,
11,
0,
4,
15,
15,
15,
15,
15,
14,
1,
3,
22,
21,
21,
14,
0,
1,
1,
1,
1,
0,
0,
5,
18,
18,
18,
17,
3,
3,
14,
14,
14,
24,
24,
28,
5,
6,
34,
34,
34,
27,
3,
3,
3,
9,
22,
21,
6,
7,
7,
-1,
-1,
7,
18,
17,
17,
14,
2,
2,
2,
4,
20,
19,
19,
14,
3,
5,
5,
0,
0,
4,
4,
6,
6,
3,
3,
-1,
-1,
3,
3,
3,
3,
0,
0,
-1,
-1,
1,
1,
1,
1,
0,
0,
0,
0,
7,
18,
17,
17,
18,
18,
11,
11,
3,
3,
-1,
-1,
-1,
-1,
2,
2,
0,
0,
5,
5,
8,
8,
9,
9,
9,
9,
6,
6,
2,
2,
1,
1,
4,
4,
6,
6,
0,
0,
6,
6,
10,
10,
2,
2,
0,
0,
-1,
-1,
5,
5,
13,
13,
10,
10,
6,
6,
3,
3,
5,
5,
5,
5,
4,
4,
10,
10,
6,
6,
4,
4,
12,
-1,
1,
14,
14,
14,
21,
21,
11,
11,
15,
15,
22,
22,
15,
15,
16,
16,
19,
19,
22,
2,
3,
14,
14,
14,
21,
21,
22,
22,
21,
21,
16,
16,
8,
8,
5,
5,
3,
14,
13,
13,
18,
18,
14,
14,
7,
7,
1,
1,
5,
5,
1,
1,
6,
6,
8,
8,
14,
14,
18,
3,
4,
4,
5,
5,
10,
10,
12,
12,
12,
12,
4,
4,
3,
3,
7,
7,
0,
0,
-1,
-1,
2,
2,
3,
3,
2,
2,
6,
6,
7,
7,
3,
3,
2,
14,
14,
14,
21,
21,
12,
12,
2,
17,
16,
47,
46,
46,
50,
28,
28,
6,
6,
6,
14,
27,
26,
26,
28,
28,
29,
16,
16,
16,
10,
10,
0,
13,
12,
12,
7,
7,
0,
0,
-1,
-1,
5,
5,
7,
7,
4,
4,
1,
1,
0,
0,
-1,
-1,
6,
6,
11,
11,
6,
6,
2,
2,
2,
2,
3,
3,
9,
9,
8,
8,
0,
0,
-1,
-1,
6,
6,
1,
1,
10,
10,
14,
14,
7,
7,
3,
3,
3,
3,
1,
1,
5,
5,
2,
2,
0,
0,
6,
6,
10,
10,
17,
17,
13,
13,
8,
8,
5,
5,
11,
11,
10,
10,
4,
4,
0,
0,
23,
23,
22,
22,
13,
1,
2,
2,
-1,
11,
10,
26,
25,
25,
26,
26,
18,
18,
10,
-1,
0,
0,
5,
5,
6,
23,
23,
47,
46,
32,
34,
3,
4,
4,
9,
9,
1,
1,
7,
7,
15,
2,
2,
2,
12,
12,
15,
15,
16,
16,
12,
12,
8,
8,
5,
5,
1,
1,
2,
2,
5,
5,
0,
0,
6,
6,
10,
10,
13,
13,
15,
15,
8,
8,
9,
9,
13,
13,
8,
8,
0,
0,
4,
4,
3,
3,
0,
0,
3,
3,
6,
6,
5,
5,
0,
0,
2,
2,
0,
0,
2,
2,
-1,
-1,
4,
4,
4,
4,
0,
0,
1,
1,
-1,
-1,
0,
0,
0,
0,
-1,
-1,
3,
3,
5,
5,
7,
7,
8,
8,
6,
6,
5,
5,
0,
0,
2,
2,
10,
10,
14,
3,
4,
4,
0,
0,
1,
1,
1,
1,
1,
1,
1,
1,
2,
2,
1,
18,
17,
17,
24,
24,
15,
1,
4,
4,
9,
9,
15,
3,
3,
3,
7,
7,
9,
9,
13,
13,
16,
16,
12,
12,
18,
18,
13,
1,
5,
5,
13,
13,
13,
13,
14,
14,
21,
21,
27,
27,
18,
18,
9,
9,
11,
11,
17,
17,
7,
7,
2,
2,
2,
2,
1,
16,
16,
16,
19,
19,
15,
15,
8,
8,
2,
2,
0,
0,
-1,
-1,
5,
5,
6,
6,
2,
2,
3,
3,
6,
6,
0,
16,
15,
15,
19,
19,
18,
18,
11,
0,
3,
18,
18,
18,
24,
24,
18,
18,
18,
18,
10,
-1,
0,
11,
11,
26,
26,
26,
27,
12,
12,
12,
2,
2,
0,
0,
-1,
-1,
3,
3,
-1,
-1,
5,
5,
3,
3,
0,
0,
2,
2,
3,
3,
2,
2,
3,
3,
5,
5,
0,
0,
5,
5,
5,
5,
4,
16,
15,
15,
17,
17,
10,
10,
4,
4,
0,
0,
10,
10,
10,
10,
19,
19,
28,
28,
20,
5,
5,
5,
3,
3,
7,
7,
6,
6,
4,
4,
10,
10,
5,
5,
0,
0,
2,
2,
6,
6,
9,
9,
5,
5,
5,
5,
2,
2,
5,
5,
8,
8,
0,
0,
0,
0,
5,
5,
1,
1,
9,
22,
22,
22,
27,
4,
4,
4,
14,
14,
13,
13,
5,
5,
6,
6,
7,
7,
7,
7,
11,
11,
8,
8,
3,
3,
2,
14,
13,
13,
22,
22,
27,
27,
19,
0,
2,
2,
6,
6,
8,
8,
9,
9,
14,
14,
14,
14,
8,
8,
3,
21,
20,
20,
25,
25,
18,
18,
10,
10,
2,
2,
2,
2,
5,
5,
0,
11,
10,
10,
18,
18,
15,
4,
6,
6,
3,
3,
3,
3,
9,
9,
11,
11,
14,
28,
28,
16,
16,
2,
2,
2,
7,
7,
9,
9,
6,
6,
0,
0,
6,
6,
7,
7,
6,
6,
7,
7,
12,
12,
5,
5,
1,
1,
6,
18,
16,
16,
21,
10,
11,
11,
3,
3,
4,
4,
-1,
-1,
3,
3,
8,
8,
13,
0,
2,
17,
16,
16,
14,
0,
4,
4,
10,
10,
12,
12,
6,
6,
5,
5,
6,
6,
0,
0,
0,
0,
4,
18,
18,
18,
16,
16,
7,
7,
3,
3,
2,
2,
7,
7,
2,
2,
6,
6,
11,
11,
12,
0,
0,
0,
2,
2,
1,
1,
1,
1,
1,
1,
-1,
-1,
8,
8,
8,
8,
5,
5,
6,
6,
5,
5,
2,
14,
13,
13,
13,
0,
0,
0,
3,
3,
0,
0,
7,
7,
10,
10,
3,
3,
5,
5,
0,
0,
6,
6,
15,
15,
8,
8,
5,
5,
6,
6,
1,
1,
4,
23,
22,
22,
26,
7,
7,
7,
23,
23,
22,
22,
25,
25,
24,
13,
13,
13,
6,
6,
0,
0,
1,
15,
15,
3,
14,
37,
36,
36,
31,
16,
16,
0,
1,
1,
7,
7,
8,
8,
7,
7,
10,
10,
3,
3,
-1,
-1,
-1,
-1,
1,
1,
1,
1,
2,
2,
8,
21,
20,
20,
21,
21,
11,
0,
0,
0,
8,
8,
12,
12,
18,
18,
9,
9,
7,
7,
14,
14,
9,
9,
0,
0,
0,
11,
10,
10,
15,
15,
11,
-1,
2,
13,
13,
13,
12,
12,
6,
6,
6,
6,
1,
1,
4,
4,
0,
0,
7,
7,
8,
8,
0,
0,
-1,
-1,
0,
0,
4,
4,
6,
6,
8,
8,
8,
8,
4,
4,
5,
5,
6,
6,
2,
2,
0,
0,
2,
2,
7,
7,
0,
0,
8,
8,
15,
15,
22,
22,
18,
2,
5,
5,
9,
9,
6,
17,
16,
2,
3,
22,
22,
22,
31,
31,
32,
32,
24,
10,
10,
10,
4,
4,
-1,
-1,
5,
19,
19,
19,
27,
16,
16,
16,
12,
12,
10,
10,
7,
7,
8,
8,
11,
11,
4,
4,
0,
0,
4,
15,
15,
15,
6,
18,
17,
17,
19,
19,
13,
13,
9,
9,
6,
6,
2,
2,
1,
1,
6,
6,
11,
11,
5,
5,
6,
20,
19,
19,
21,
9,
10,
10,
6,
6,
0,
0,
0,
0,
6,
6,
2,
2,
1,
1,
5,
5,
6,
6,
6,
6,
5,
5,
5,
18,
18,
18,
16,
16,
8,
8,
1,
1,
2,
2,
3,
3,
0,
0,
7,
7,
0,
0,
7,
7,
1,
1,
0,
0,
6,
21,
20,
20,
21,
21,
19,
19,
11,
-1,
0,
0,
7,
7,
9,
9,
11,
11,
13,
13,
10,
-1,
2,
2,
7,
7,
9,
9,
5,
5,
-1,
-1,
-1,
10,
10,
10,
9,
9,
7,
7,
2,
2,
7,
7,
10,
10,
15,
43,
42,
24,
25,
2,
5,
5,
8,
8,
10,
10,
12,
12,
9,
9,
6,
6,
3,
3,
4,
4,
1,
1,
0,
0,
9,
9,
14,
14,
11,
-1,
0,
0,
0,
0,
5,
5,
2,
2,
3,
3,
-1,
-1,
2,
2,
2,
2,
0,
0,
4,
4,
11,
11,
3,
3,
1,
1,
2,
15,
14,
14,
12,
12,
5,
5,
2,
2,
-1,
-1,
-1,
-1,
0,
0,
2,
2,
5,
5,
3,
3,
2,
2,
3,
3,
0,
0,
0,
0,
-1,
-1,
-1,
-1,
-1,
-1,
1,
1,
3,
3,
1,
1,
7,
7,
5,
5,
6,
22,
22,
38,
37,
37,
42,
42,
40,
10,
10,
10,
16,
32,
32,
43,
42,
42,
38,
38,
37,
37,
27,
15,
16,
16,
7,
7,
0,
0,
6,
25,
25,
37,
36,
36,
28,
14,
15,
4,
4,
4,
-1,
-1,
3,
3,
4,
4,
3,
3,
5,
16,
15,
15,
11,
11,
7,
7,
3,
3,
6,
6,
6,
6,
4,
4,
5,
5,
0,
0,
4,
4,
5,
5,
0,
21,
21,
21,
11,
31,
31,
31,
37,
9,
10,
10,
3,
3,
11,
11,
13,
2,
3,
3,
2,
19,
18,
18,
18,
3,
4,
4,
8,
8,
9,
9,
8,
8,
9,
9,
7,
7,
3,
3,
0,
0,
7,
7,
9,
9,
9,
9,
9,
9,
0,
0,
-1,
-1,
0,
0,
2,
2,
1,
1,
2,
2,
10,
10,
4,
4,
9,
9,
14,
0,
1,
1,
10,
10,
11,
11,
2,
2,
0,
0,
3,
3,
10,
10,
11,
11,
2,
2,
3,
3,
6,
6,
11,
11,
10,
10,
0,
0,
4,
4,
7,
7,
4,
4,
1,
1,
2,
2,
-1,
-1,
1,
1,
