EMG_S1/DS0137.CSV

Memory Length,4000,
Trigger Level,0.00000e+00,
Source,CH1,
Probe,1.0X,
Vertical Units,V,
Vertical Scale,1.00000e+00,
Vertical Position,4.00000e-02,
Horizontal Units,S,
Horizontal Scale,1.00000e-01,
Horizontal Position,0.0000000e+00,
Horizontal Mode,Roll Mode,
Waveform Last Dot Address,4000,
Sampling Period,4.00000e-04,
Firmware,V1.14,
Time, ,
Mode,Fast,
Waveform Data,
2,
2,
2,
2,
0,
0,
5,
5,
8,
8,
9,
9,
2,
16,
15,
15,
21,
21,
14,
0,
0,
0,
6,
6,
8,
8,
10,
10,
9,
9,
10,
10,
9,
9,
2,
2,
8,
8,
16,
16,
18,
18,
9,
9,
1,
1,
3,
3,
6,
6,
3,
3,
0,
0,
0,
0,
9,
9,
4,
4,
10,
10,
13,
13,
13,
1,
2,
2,
0,
0,
-2,
-2,
6,
6,
11,
11,
19,
19,
16,
3,
3,
3,
8,
8,
17,
17,
17,
17,
13,
13,
12,
12,
9,
9,
3,
3,
3,
3,
7,
7,
5,
5,
1,
1,
8,
8,
10,
10,
10,
10,
15,
15,
16,
16,
14,
14,
14,
3,
4,
4,
1,
1,
2,
2,
1,
1,
5,
5,
2,
2,
4,
4,
2,
2,
0,
0,
7,
7,
0,
0,
1,
1,
7,
7,
11,
11,
5,
5,
0,
0,
0,
0,
10,
10,
13,
0,
2,
17,
17,
32,
31,
31,
32,
19,
20,
4,
4,
4,
2,
2,
5,
5,
13,
13,
19,
19,
20,
5,
6,
6,
7,
7,
9,
9,
2,
2,
-1,
-1,
2,
2,
0,
11,
11,
11,
10,
10,
1,
1,
10,
10,
11,
11,
6,
6,
11,
11,
10,
10,
14,
14,
7,
7,
2,
2,
0,
0,
2,
2,
6,
6,
15,
26,
26,
12,
12,
-1,
2,
2,
4,
4,
5,
5,
2,
2,
5,
5,
6,
6,
2,
2,
0,
0,
5,
5,
6,
6,
6,
6,
2,
2,
0,
0,
1,
1,
5,
5,
10,
10,
5,
5,
8,
8,
6,
6,
0,
0,
0,
0,
1,
1,
1,
1,
2,
2,
9,
9,
4,
4,
1,
1,
7,
7,
13,
13,
5,
5,
5,
5,
6,
6,
4,
4,
0,
0,
6,
6,
7,
7,
1,
1,
1,
1,
4,
4,
5,
5,
2,
2,
11,
11,
10,
10,
5,
5,
3,
3,
4,
4,
3,
3,
7,
7,
10,
10,
11,
11,
11,
11,
6,
6,
4,
4,
10,
10,
7,
7,
0,
0,
9,
9,
18,
18,
17,
17,
14,
1,
4,
4,
10,
10,
11,
11,
2,
2,
4,
4,
0,
0,
7,
7,
2,
2,
8,
8,
5,
5,
0,
0,
-1,
-1,
3,
3,
1,
1,
3,
3,
6,
6,
15,
15,
6,
6,
2,
2,
0,
0,
8,
8,
6,
6,
2,
2,
0,
0,
3,
3,
6,
6,
6,
6,
3,
3,
4,
4,
5,
5,
2,
2,
0,
0,
1,
1,
1,
12,
11,
11,
11,
11,
9,
9,
15,
15,
13,
13,
13,
13,
13,
13,
4,
4,
6,
6,
13,
13,
20,
20,
24,
9,
9,
9,
5,
5,
8,
8,
5,
5,
5,
5,
12,
23,
22,
22,
14,
14,
8,
8,
1,
1,
8,
8,
13,
13,
10,
10,
9,
9,
10,
10,
4,
4,
2,
2,
0,
0,
7,
7,
13,
13,
9,
9,
0,
0,
0,
0,
4,
4,
4,
4,
7,
7,
0,
0,
8,
8,
17,
17,
9,
9,
0,
0,
6,
6,
0,
0,
7,
7,
5,
5,
5,
5,
7,
7,
14,
14,
10,
10,
0,
0,
3,
3,
6,
6,
12,
12,
16,
16,
17,
5,
6,
6,
3,
3,
2,
2,
2,
2,
6,
6,
1,
1,
4,
4,
8,
8,
1,
13,
12,
28,
27,
27,
35,
21,
22,
6,
7,
7,
4,
4,
6,
6,
1,
12,
11,
11,
14,
14,
7,
7,
2,
2,
6,
6,
6,
6,
6,
6,
10,
10,
13,
13,
9,
9,
2,
2,
4,
23,
23,
23,
21,
9,
10,
10,
11,
11,
15,
2,
3,
3,
7,
7,
11,
11,
7,
7,
18,
18,
12,
12,
2,
2,
4,
4,
7,
7,
11,
11,
12,
12,
13,
13,
10,
10,
12,
12,
15,
15,
9,
9,
9,
9,
6,
6,
3,
3,
12,
12,
6,
6,
8,
8,
13,
13,
15,
15,
10,
10,
4,
4,
4,
4,
2,
2,
2,
2,
3,
3,
2,
2,
0,
0,
6,
6,
5,
5,
5,
5,
5,
5,
9,
9,
2,
2,
-1,
-1,
0,
0,
3,
3,
7,
7,
2,
2,
5,
5,
14,
14,
17,
17,
15,
2,
2,
2,
3,
3,
0,
0,
-1,
-1,
1,
1,
-1,
-1,
-1,
-1,
7,
7,
11,
11,
11,
11,
8,
8,
8,
8,
5,
5,
0,
0,
0,
0,
2,
2,
8,
8,
13,
13,
18,
18,
25,
25,
17,
17,
16,
16,
14,
3,
3,
3,
8,
8,
15,
15,
15,
15,
13,
13,
13,
13,
15,
15,
12,
12,
7,
7,
2,
2,
4,
4,
10,
10,
11,
11,
11,
11,
9,
9,
11,
11,
14,
14,
7,
7,
2,
2,
1,
1,
8,
8,
7,
7,
4,
4,
2,
2,
8,
8,
4,
4,
-1,
-1,
-1,
-1,
7,
7,
10,
10,
7,
7,
4,
4,
0,
0,
3,
3,
-1,
10,
8,
25,
24,
24,
23,
8,
9,
9,
0,
0,
2,
2,
4,
4,
1,
1,
3,
3,
7,
7,
6,
6,
0,
0,
-1,
-1,
-1,
-1,
0,
0,
2,
2,
1,
1,
2,
2,
3,
3,
3,
3,
1,
1,
-1,
-1,
-1,
-1,
4,
4,
4,
4,
4,
4,
8,
8,
9,
9,
7,
7,
8,
8,
2,
2,
8,
8,
0,
0,
1,
1,
-1,
11,
10,
21,
19,
19,
13,
13,
5,
5,
1,
1,
6,
6,
13,
13,
22,
22,
12,
1,
6,
6,
9,
9,
10,
28,
28,
28,
21,
1,
2,
2,
12,
12,
14,
14,
11,
11,
10,
10,
6,
6,
4,
4,
8,
8,
6,
6,
1,
1,
3,
3,
2,
15,
15,
15,
20,
20,
23,
23,
16,
16,
7,
7,
6,
6,
6,
6,
2,
2,
6,
6,
8,
8,
9,
9,
4,
4,
1,
1,
6,
6,
4,
4,
0,
0,
2,
2,
0,
0,
2,
2,
12,
12,
17,
17,
15,
15,
7,
7,
0,
13,
12,
12,
16,
1,
2,
14,
13,
13,
18,
18,
13,
13,
13,
13,
5,
5,
3,
3,
2,
2,
5,
5,
5,
5,
3,
3,
0,
0,
3,
3,
10,
10,
11,
11,
16,
16,
19,
8,
9,
9,
2,
2,
1,
1,
6,
6,
5,
5,
0,
0,
4,
4,
8,
8,
0,
0,
6,
6,
7,
7,
6,
6,
2,
2,
2,
2,
-1,
-1,
0,
0,
5,
5,
8,
8,
7,
7,
0,
0,
0,
0,
1,
1,
0,
0,
8,
8,
8,
8,
3,
3,
0,
0,
4,
16,
16,
16,
15,
15,
18,
18,
22,
2,
3,
3,
6,
6,
11,
11,
13,
13,
10,
10,
8,
8,
10,
10,
1,
1,
8,
8,
6,
6,
1,
1,
0,
0,
1,
1,
6,
6,
9,
9,
10,
10,
4,
4,
-1,
-1,
-1,
-1,
-1,
-1,
1,
1,
0,
0,
7,
7,
5,
5,
6,
6,
2,
2,
11,
11,
8,
8,
4,
4,
0,
0,
4,
4,
5,
5,
5,
5,
2,
2,
-1,
-1,
2,
2,
4,
4,
0,
0,
2,
2,
3,
3,
3,
3,
6,
6,
4,
4,
0,
0,
4,
4,
14,
14,
22,
22,
14,
3,
4,
4,
12,
12,
10,
10,
6,
6,
11,
11,
9,
9,
3,
3,
0,
0,
2,
2,
0,
0,
8,
8,
10,
10,
6,
6,
3,
3,
3,
3,
6,
6,
0,
0,
-2,
-2,
-1,
-1,
2,
2,
3,
3,
0,
0,
2,
2,
6,
6,
8,
8,
5,
5,
0,
0,
1,
1,
5,
5,
5,
5,
3,
3,
2,
2,
-1,
-1,
1,
1,
3,
3,
-1,
-1,
-1,
-1,
8,
8,
6,
6,
4,
4,
4,
4,
3,
3,
7,
7,
8,
8,
18,
18,
15,
0,
1,
1,
5,
5,
2,
2,
4,
4,
1,
1,
4,
4,
6,
6,
11,
11,
10,
10,
6,
6,
8,
22,
22,
22,
16,
0,
1,
1,
7,
7,
0,
0,
2,
2,
1,
1,
-1,
-1,
2,
2,
6,
6,
4,
4,
0,
0,
6,
6,
7,
7,
6,
6,
6,
6,
10,
10,
15,
15,
10,
10,
6,
6,
1,
1,
0,
0,
1,
1,
0,
0,
2,
2,
0,
0,
5,
5,
4,
4,
4,
4,
6,
6,
7,
7,
6,
6,
7,
7,
3,
3,
2,
2,
1,
1,
4,
4,
2,
2,
3,
3,
4,
4,
7,
7,
-1,
-1,
6,
17,
16,
16,
23,
23,
18,
0,
2,
2,
9,
9,
2,
2,
5,
5,
9,
9,
8,
8,
5,
5,
6,
6,
5,
5,
6,
6,
5,
5,
0,
0,
5,
5,
9,
9,
9,
9,
12,
12,
11,
11,
11,
11,
15,
15,
14,
14,
6,
6,
2,
2,
6,
6,
8,
8,
5,
5,
2,
2,
4,
4,
3,
3,
4,
4,
1,
1,
3,
3,
6,
6,
5,
5,
0,
0,
10,
10,
16,
16,
15,
15,
12,
12,
11,
11,
11,
11,
14,
1,
2,
17,
17,
17,
23,
23,
21,
21,
12,
-1,
0,
0,
5,
5,
14,
14,
15,
15,
10,
-1,
0,
0,
1,
1,
7,
7,
9,
9,
6,
6,
2,
15,
14,
14,
13,
13,
7,
7,
4,
4,
0,
0,
6,
6,
7,
7,
5,
5,
0,
0,
1,
1,
0,
0,
0,
0,
-1,
-1,
6,
6,
9,
9,
8,
8,
4,
4,
0,
0,
-1,
-1,
1,
1,
2,
2,
3,
3,
1,
1,
6,
6,
0,
0,
3,
3,
10,
10,
4,
4,
-1,
-1,
1,
1,
4,
4,
12,
12,
15,
0,
1,
1,
2,
2,
9,
9,
16,
16,
18,
18,
20,
20,
18,
18,
12,
0,
13,
13,
13,
13,
16,
16,
23,
23,
25,
25,
25,
12,
14,
0,
3,
3,
10,
10,
7,
7,
4,
4,
4,
4,
5,
5,
4,
4,
3,
3,
1,
1,
0,
0,
2,
2,
3,
3,
3,
3,
8,
8,
13,
13,
11,
11,
6,
6,
0,
0,
5,
5,
7,
7,
6,
6,
11,
11,
14,
14,
7,
7,
0,
0,
5,
5,
8,
8,
7,
22,
22,
40,
40,
40,
37,
24,
25,
8,
9,
9,
8,
8,
17,
32,
31,
31,
38,
38,
34,
34,
24,
12,
14,
0,
0,
0,
4,
4,
13,
24,
23,
23,
18,
18,
12,
12,
10,
10,
6,
6,
0,
0,
6,
6,
1,
1,
8,
8,
8,
8,
2,
2,
-1,
-1,
2,
2,
2,
2,
-1,
-1,
7,
22,
21,
21,
18,
5,
6,
6,
2,
2,
3,
3,
0,
0,
6,
6,
13,
13,
20,
20,
16,
16,
13,
13,
4,
4,
6,
6,
10,
10,
7,
7,
0,
0,
2,
2,
5,
5,
6,
6,
7,
7,
7,
7,
2,
2,
7,
7,
8,
8,
3,
18,
18,
18,
20,
8,
9,
9,
0,
0,
1,
1,
6,
6,
5,
5,
0,
0,
10,
10,
14,
14,
19,
19,
16,
16,
11,
11,
9,
9,
2,
13,
13,
13,
8,
8,
2,
2,
-1,
-1,
2,
2,
9,
9,
17,
17,
20,
20,
26,
26,
21,
2,
3,
3,
11,
11,
15,
15,
20,
20,
16,
5,
5,
5,
4,
19,
17,
17,
19,
4,
4,
4,
9,
9,
13,
13,
11,
11,
10,
10,
5,
5,
2,
2,
2,
2,
4,
4,
3,
3,
0,
0,
2,
2,
0,
0,
2,
2,
10,
10,
17,
17,
12,
12,
8,
8,
10,
10,
12,
12,
3,
3,
4,
4,
5,
5,
7,
7,
4,
4,
9,
9,
6,
6,
6,
6,
14,
14,
9,
9,
1,
1,
4,
4,
0,
0,
6,
6,
6,
6,
4,
4,
5,
5,
2,
2,
4,
4,
11,
11,
9,
9,
8,
8,
11,
11,
9,
9,
3,
14,
14,
14,
8,
8,
6,
19,
18,
18,
20,
20,
19,
19,
28,
15,
15,
4,
5,
18,
16,
2,
2,
31,
30,
41,
40,
40,
31,
17,
18,
18,
20,
20,
19,
3,
4,
4,
3,
3,
-1,
-1,
1,
19,
18,
18,
23,
23,
17,
17,
15,
15,
20,
7,
7,
7,
2,
2,
5,
5,
10,
10,
10,
10,
5,
5,
1,
1,
7,
7,
13,
13,
14,
14,
10,
10,
7,
7,
4,
4,
7,
7,
8,
8,
1,
14,
14,
14,
12,
12,
3,
3,
2,
2,
5,
5,
11,
23,
23,
23,
16,
2,
3,
3,
6,
6,
11,
11,
8,
8,
10,
10,
2,
2,
2,
2,
6,
6,
16,
16,
12,
1,
8,
8,
10,
10,
16,
16,
22,
22,
15,
15,
17,
17,
10,
10,
3,
18,
18,
18,
16,
16,
10,
10,
5,
5,
3,
3,
0,
0,
1,
1,
6,
22,
22,
22,
17,
0,
2,
13,
12,
12,
14,
3,
4,
4,
5,
5,
2,
2,
2,
2,
2,
2,
6,
6,
2,
16,
15,
15,
15,
15,
6,
6,
1,
1,
3,
3,
4,
4,
6,
6,
2,
2,
3,
3,
2,
2,
5,
18,
17,
17,
27,
27,
23,
2,
3,
3,
11,
11,
15,
15,
16,
16,
13,
13,
7,
7,
5,
5,
4,
4,
14,
14,
12,
12,
16,
16,
7,
7,
9,
9,
16,
16,
18,
18,
20,
20,
16,
16,
9,
9,
5,
5,
3,
30,
29,
56,
55,
55,
59,
44,
45,
9,
9,
23,
23,
42,
42,
42,
48,
36,
36,
12,
12,
12,
11,
31,
30,
17,
0,
0,
0,
0,
8,
8,
6,
6,
3,
3,
4,
4,
0,
0,
4,
4,
7,
7,
0,
0,
3,
3,
0,
0,
-1,
-1,
0,
0,
-1,
-1,
8,
8,
10,
10,
3,
3,
2,
2,
0,
0,
1,
1,
0,
0,
0,
0,
4,
4,
0,
0,
3,
3,
6,
6,
0,
0,
5,
5,
5,
5,
9,
9,
7,
7,
1,
1,
2,
2,
-1,
-1,
6,
6,
12,
12,
7,
7,
1,
1,
-1,
-1,
2,
2,
10,
21,
21,
21,
15,
0,
1,
1,
9,
9,
9,
9,
7,
7,
9,
9,
8,
8,
7,
7,
0,
0,
8,
8,
14,
14,
4,
4,
1,
13,
13,
13,
19,
19,
10,
10,
6,
6,
14,
14,
15,
15,
10,
10,
4,
4,
-1,
-1,
0,
0,
2,
2,
6,
6,
7,
7,
15,
15,
11,
11,
13,
13,
15,
15,
17,
17,
11,
-1,
2,
2,
8,
8,
9,
9,
6,
6,
12,
12,
14,
14,
13,
13,
5,
5,
0,
0,
3,
3,
3,
3,
12,
12,
10,
10,
0,
0,
1,
1,
0,
0,
2,
2,
4,
17,
16,
16,
16,
16,
9,
9,
3,
3,
2,
2,
0,
0,
3,
14,
12,
12,
9,
9,
3,
3,
1,
1,
6,
6,
6,
6,
0,
0,
2,
2,
5,
5,
4,
4,
10,
10,
1,
1,
8,
8,
10,
10,
7,
21,
19,
32,
32,
32,
28,
3,
3,
15,
14,
14,
19,
19,
24,
24,
22,
22,
18,
18,
16,
16,
7,
7,
3,
3,
10,
10,
14,
14,
12,
12,
10,
10,
8,
8,
10,
10,
16,
3,
5,
5,
5,
5,
7,
7,
4,
4,
-1,
-1,
7,
7,
11,
11,
6,
6,
-1,
-1,
7,
7,
3,
3,
5,
5,
5,
5,
0,
0,
6,
17,
16,
16,
18,
2,
3,
20,
20,
40,
39,
39,
32,
9,
10,
10,
6,
6,
12,
12,
20,
20,
22,
22,
12,
0,
1,
1,
5,
5,
7,
7,
1,
1,
5,
5,
6,
6,
4,
4,
0,
0,
-1,
-1,
1,
1,
8,
8,
13,
13,
19,
19,
18,
18,
13,
13,
6,
6,
2,
2,
6,
6,
7,
7,
9,
9,
11,
0,
2,
2,
3,
3,
2,
2,
2,
2,
2,
2,
0,
0,
4,
4,
1,
1,
-1,
-1,
4,
4,
1,
1,
6,
17,
16,
16,
17,
17,
22,
22,
15,
15,
5,
5,
11,
22,
21,
21,
17,
17,
13,
13,
16,
16,
13,
0,
0,
0,
2,
2,
6,
6,
8,
8,
5,
5,
8,
20,
19,
19,
13,
2,
3,
3,
1,
1,
6,
6,
7,
7,
0,
0,
5,
5,
3,
3,
1,
1,
9,
9,
14,
1,
2,
2,
4,
4,
8,
8,
8,
8,
2,
2,
3,
3,
2,
2,
-1,
-1,
3,
3,
2,
2,
6,
6,
3,
3,
0,
0,
3,
3,
5,
5,
8,
8,
2,
2,
2,
2,
6,
6,
8,
8,
0,
0,
6,
6,
10,
10,
5,
5,
0,
0,
2,
2,
-1,
-1,
0,
0,
3,
3,
6,
6,
6,
6,
8,
8,
2,
2,
-1,
-1,
-2,
-2,
-1,
-1,
0,
0,
0,
0,
6,
6,
7,
7,
5,
5,
7,
7,
13,
13,
14,
14,
5,
5,
0,
0,
-1,
-1,
0,
0,
0,
0,
1,
1,
-1,
-1,
4,
4,
2,
2,
5,
5,
12,
12,
15,
15,
13,
1,
5,
16,
15,
15,
10,
10,
12,
12,
18,
7,
7,
7,
4,
4,
7,
7,
11,
11,
12,
12,
8,
8,
0,
0,
9,
9,
12,
12,
14,
14,
10,
10,
2,
2,
1,
1,
3,
14,
14,
14,
17,
2,
4,
20,
20,
20,
23,
23,
20,
8,
9,
9,
2,
2,
1,
1,
4,
4,
0,
0,
2,
2,
4,
4,
8,
22,
20,
20,
27,
27,
25,
25,
18,
18,
9,
9,
5,
5,
11,
11,
10,
10,
11,
11,
13,
13,
16,
16,
15,
2,
2,
2,
2,
2,
4,
4,
3,
3,
3,
3,
2,
2,
0,
0,
9,
9,
10,
10,
9,
9,
5,
5,
3,
3,
1,
1,
0,
0,
7,
7,
6,
6,
-1,
-1,
1,
1,
0,
0,
2,
2,
2,
2,
0,
0,
8,
8,
7,
7,
6,
6,
1,
1,
8,
8,
9,
9,
0,
0,
-1,
-1,
5,
5,
9,
9,
1,
1,
8,
8,
12,
12,
7,
7,
1,
1,
0,
0,
2,
2,
3,
3,
2,
2,
4,
4,
5,
5,
5,
5,
3,
3,
2,
2,
0,
0,
0,
0,
0,
0,
2,
2,
0,
0,
6,
6,
13,
13,
3,
3,
6,
6,
5,
5,
-1,
-1,
4,
4,
2,
2,
4,
4,
11,
11,
10,
10,
7,
7,
0,
0,
5,
5,
4,
4,
5,
5,
-1,
-1,
-1,
-1,
2,
2,
4,
4,
-1,
-1,
3,
3,
4,
17,
16,
16,
11,
11,
3,
3,
0,
0,
5,
5,
0,
0,
3,
3,
0,
0,
4,
4,
5,
5,
14,
14,
18,
18,
19,
19,
22,
22,
13,
0,
1,
1,
6,
6,
14,
14,
16,
16,
10,
10,
8,
8,
3,
3,
-1,
-1,
0,
0,
5,
5,
12,
12,
16,
16,
8,
8,
5,
5,
3,
3,
6,
6,
8,
8,
7,
7,
6,
6,
9,
9,
6,
6,
3,
3,
12,
12,
12,
12,
7,
7,
0,
0,
-1,
-1,
5,
5,
9,
9,
8,
8,
11,
11,
6,
6,
0,
0,
1,
1,
6,
6,
9,
9,
11,
11,
8,
8,
0,
0,
6,
6,
4,
4,
4,
4,
4,
4,
-1,
-1,
6,
6,
5,
5,
5,
5,
0,
0,
2,
2,
8,
8,
6,
6,
0,
0,
3,
3,
6,
6,
3,
3,
6,
6,
9,
9,
0,
0,
0,
0,
3,
3,
4,
4,
6,
6,
8,
8,
10,
10,
2,
2,
2,
2,
11,
11,
16,
16,
14,
14,
7,
7,
0,
0,
0,
0,
7,
7,
9,
9,
6,
6,
12,
12,
10,
10,
7,
19,
18,
18,
23,
8,
9,
9,
1,
1,
7,
7,
14,
14,
15,
15,
21,
21,
19,
6,
7,
7,
-1,
-1,
1,
1,
0,
0,
1,
1,
-1,
-1,
3,
3,
7,
7,
0,
0,
8,
8,
13,
13,
11,
11,
9,
9,
2,
2,
1,
1,
-1,
-1,
0,
0,
2,
13,
12,
12,
15,
4,
4,
4,
8,
8,
13,
13,
10,
10,
7,
7,
7,
7,
2,
2,
0,
0,
7,
7,
13,
13,
11,
11,
17,
17,
14,
-1,
0,
0,
-1,
-1,
3,
3,
6,
6,
2,
2,
5,
16,
14,
14,
12,
12,
10,
10,
6,
6,
0,
0,
3,
3,
6,
6,
8,
8,
8,
8,
6,
6,
7,
7,
2,
2,
0,
0,
1,
1,
0,
0,
0,
0,
-1,
-1,
3,
3,
6,
19,
17,
17,
14,
14,
11,
11,
13,
1,
5,
5,
12,
12,
10,
10,
10,
10,
2,
17,
16,
16,
19,
19,
10,
-1,
1,
1,
0,
0,
0,
0,
8,
8,
13,
13,
10,
10,
5,
16,
16,
16,
19,
19,
13,
0,
1,
1,
7,
7,
7,
7,
3,
3,
5,
5,
5,
5,
7,
7,
11,
11,
13,
13,
14,
14,
14,
14,
8,
8,
1,
1,
2,
2,
0,
0,
-1,
-1,
3,
3,
2,
2,
1,
1,
6,
6,
3,
3,
2,
2,
5,
5,
2,
2,
0,
0,
0,
0,
3,
3,
6,
6,
4,
4,
-1,
-1,
0,
0,
7,
7,
14,
14,
13,
13,
6,
6,
2,
2,
2,
2,
5,
5,
2,
2,
2,
2,
0,
0,
9,
9,
0,
0,
7,
7,
11,
11,
7,
7,
0,
0,
2,
2,
4,
4,
1,
1,
5,
5,
2,
2,
6,
6,
7,
7,
4,
4,
4,
4,
5,
5,
-1,
-1,
5,
5,
10,
10,
6,
6,
3,
3,
7,
19,
19,
39,
38,
38,
34,
3,
4,
16,
16,
16,
17,
17,
14,
14,
12,
12,
9,
9,
10,
10,
8,
8,
6,
6,
2,
2,
4,
4,
1,
1,
0,
0,
5,
5,
4,
4,
2,
2,
5,
5,
4,
4,
2,
2,
6,
6,
10,
10,
10,
10,
13,
13,
12,
12,
8,
8,
3,
3,
2,
2,
7,
7,
11,
11,
19,
19,
20,
8,
8,
8,
10,
26,
26,
14,
15,
2,
3,
3,
7,
7,
4,
4,
2,
2,
2,
2,
5,
5,
10,
10,
9,
9,
8,
8,
1,
1,
2,
2,
4,
4,
3,
3,
-1,
-1,
1,
1,
5,
5,
7,
7,
7,
7,
3,
3,
4,
4,
0,
0,
5,
5,
13,
13,
15,
15,
6,
6,
8,
8,
3,
3,
2,
2,
-1,
-1,
-1,
-1,
-1,
-1,
2,
2,
2,
2,
-1,
-1,
2,
2,
3,
3,
0,
0,
8,
8,
4,
4,
2,
2,
5,
5,
4,
4,
1,
1,
3,
3,
6,
6,
7,
7,
1,
1,
0,
0,
6,
6,
6,
6,
12,
12,
16,
16,
18,
18,
11,
11,
5,
5,
0,
0,
0,
0,
0,
0,
8,
8,
17,
17,
16,
1,
1,
14,
14,
14,
8,
8,
2,
2,
1,
1,
2,
2,
6,
6,
2,
2,
5,
5,
5,
5,
4,
4,
8,
8,
2,
2,
4,
4,
1,
1,
0,
0,
-1,
-1,
2,
2,
8,
8,
11,
11,
8,
8,
3,
3,
4,
4,
3,
3,
10,
23,
23,
23,
14,
-1,
2,
2,
9,
9,
13,
13,
10,
10,
0,
0,
3,
3,
-1,
-1,
-1,
-1,
2,
2,
5,
5,
2,
2,
0,
15,
14,
14,
16,
16,
9,
9,
1,
1,
6,
6,
11,
11,
6,
6,
1,
1,
0,
16,
15,
15,
24,
24,
17,
17,
11,
11,
5,
5,
1,
1,
0,
0,
2,
2,
9,
9,
13,
13,
11,
11,
10,
10,
10,
10,
6,
6,
0,
0,
5,
5,
8,
8,
13,
13,
16,
16,
10,
10,
2,
2,
4,
4,
7,
7,
0,
0,
2,
2,
8,
8,
13,
13,
10,
-1,
3,
3,
8,
8,
9,
9,
3,
3,
5,
5,
7,
7,
0,
11,
10,
10,
6,
6,
1,
1,
5,
17,
16,
16,
11,
-1,
0,
0,
8,
8,
15,
15,
10,
10,
2,
20,
19,
19,
29,
29,
24,
24,
15,
15,
5,
5,
0,
0,
1,
1,
2,
14,
12,
24,
23,
23,
15,
4,
5,
5,
2,
2,
7,
7,
4,
4,
4,
4,
-1,
-1,
0,
0,
0,
0,
-1,
-1,
1,
1,
2,
2,
6,
6,
1,
1,
4,
4,
0,
0,
-1,
-1,
1,
1,
3,
3,
1,
1,
3,
3,
6,
6,
6,
6,
8,
8,
6,
6,
2,
2,
0,
0,
6,
6,
10,
10,
13,
13,
5,
5,
0,
0,
2,
2,
9,
9,
10,
10,
6,
6,
3,
3,
2,
2,
0,
0,
5,
5,
4,
4,
0,
0,
4,
4,
3,
3,
2,
2,
4,
4,
1,
1,
2,
2,
2,
2,
2,
2,
3,
3,
0,
0,
-1,
-1,
-1,
-1,
4,
4,
3,
3,
6,
6,
7,
7,
2,
2,
0,
0,
2,
2,
