EMG_S1/DS0171.CSV

Memory Length,4000,
Trigger Level,0.00000e+00,
Source,CH1,
Probe,1.0X,
Vertical Units,V,
Vertical Scale,1.00000e+00,
Vertical Position,4.00000e-02,
Horizontal Units,S,
Horizontal Scale,1.00000e-01,
Horizontal Position,0.0000000e+00,
Horizontal Mode,Roll Mode,
Waveform Last Dot Address,4000,
Sampling Period,4.00000e-04,
Firmware,V1.14,
Time, ,
Mode,Fast,
Waveform Data,
4,
4,
6,
6,
0,
0,
2,
2,
1,
1,
2,
2,
-1,
-1,
1,
1,
-1,
-1,
-1,
-1,
5,
5,
6,
6,
3,
3,
0,
0,
0,
0,
5,
5,
4,
4,
2,
2,
0,
0,
2,
2,
-1,
-1,
-1,
-1,
0,
0,
1,
1,
2,
2,
0,
0,
0,
0,
-1,
-1,
0,
0,
3,
3,
8,
8,
7,
7,
2,
2,
5,
5,
6,
6,
8,
8,
0,
12,
11,
11,
9,
9,
3,
3,
7,
7,
5,
5,
0,
0,
2,
2,
0,
0,
3,
3,
10,
10,
8,
8,
0,
0,
0,
0,
4,
4,
1,
1,
7,
7,
5,
5,
3,
3,
7,
7,
5,
5,
0,
0,
3,
23,
23,
38,
37,
22,
23,
4,
5,
27,
26,
26,
34,
18,
19,
2,
4,
16,
15,
2,
2,
19,
18,
18,
19,
2,
5,
27,
26,
26,
26,
12,
13,
0,
6,
6,
13,
13,
11,
11,
7,
7,
-1,
-1,
0,
0,
2,
2,
6,
6,
6,
6,
7,
7,
7,
7,
2,
2,
0,
0,
2,
2,
4,
4,
2,
2,
2,
2,
6,
6,
7,
7,
3,
3,
4,
4,
7,
7,
2,
2,
6,
6,
9,
9,
3,
3,
-1,
-1,
7,
7,
11,
11,
9,
9,
4,
4,
3,
3,
1,
1,
7,
7,
9,
9,
7,
7,
3,
3,
5,
5,
2,
2,
0,
0,
5,
5,
3,
3,
4,
17,
16,
16,
19,
19,
18,
18,
14,
14,
9,
9,
4,
4,
0,
0,
7,
7,
11,
11,
14,
14,
8,
8,
0,
0,
-1,
-1,
3,
3,
7,
7,
2,
2,
1,
1,
4,
4,
3,
3,
2,
2,
0,
0,
6,
6,
5,
5,
5,
5,
7,
7,
4,
4,
2,
2,
-1,
-1,
0,
0,
8,
8,
5,
5,
9,
9,
7,
7,
10,
10,
15,
15,
8,
8,
0,
0,
9,
9,
18,
18,
22,
22,
14,
14,
10,
10,
7,
7,
4,
4,
0,
0,
3,
3,
2,
2,
2,
2,
6,
6,
6,
6,
6,
6,
10,
10,
12,
12,
10,
10,
8,
8,
4,
4,
6,
6,
9,
9,
10,
10,
6,
6,
0,
0,
7,
7,
11,
11,
15,
15,
11,
11,
11,
0,
2,
14,
13,
13,
19,
19,
14,
14,
5,
5,
7,
7,
15,
15,
13,
13,
7,
7,
5,
5,
3,
3,
7,
7,
15,
15,
10,
10,
3,
3,
-1,
-1,
6,
6,
3,
3,
3,
3,
0,
12,
11,
11,
15,
15,
10,
10,
1,
1,
0,
0,
4,
4,
8,
8,
3,
3,
4,
4,
0,
0,
3,
3,
8,
8,
0,
0,
4,
4,
1,
1,
5,
5,
8,
8,
6,
6,
8,
8,
3,
3,
4,
4,
11,
11,
16,
16,
14,
14,
8,
8,
0,
0,
2,
2,
5,
5,
7,
7,
1,
1,
9,
9,
10,
10,
1,
1,
0,
13,
12,
12,
15,
15,
5,
5,
2,
23,
22,
22,
26,
5,
6,
6,
3,
3,
7,
7,
5,
5,
0,
11,
10,
10,
17,
17,
13,
2,
3,
3,
1,
1,
6,
6,
7,
7,
0,
0,
2,
2,
0,
0,
2,
2,
-1,
-1,
-1,
-1,
4,
4,
5,
5,
9,
9,
5,
5,
0,
0,
4,
4,
2,
2,
5,
5,
10,
10,
10,
10,
3,
3,
0,
0,
3,
3,
0,
0,
6,
6,
12,
12,
14,
14,
8,
8,
2,
2,
-1,
-1,
-1,
-1,
0,
0,
2,
21,
21,
34,
33,
22,
22,
3,
4,
4,
8,
8,
14,
14,
13,
13,
10,
10,
2,
2,
-1,
-1,
0,
0,
-1,
-1,
0,
0,
6,
6,
8,
8,
2,
2,
1,
1,
6,
6,
11,
11,
6,
22,
21,
21,
22,
8,
9,
9,
-1,
-1,
2,
2,
-1,
-1,
8,
8,
15,
15,
14,
14,
9,
9,
2,
2,
0,
0,
3,
3,
9,
9,
7,
7,
4,
4,
9,
9,
2,
2,
6,
6,
8,
8,
10,
10,
6,
6,
8,
8,
13,
13,
14,
0,
3,
23,
23,
38,
36,
25,
26,
6,
6,
6,
8,
8,
14,
14,
16,
16,
12,
12,
11,
11,
7,
7,
4,
4,
-1,
-1,
3,
3,
4,
4,
-1,
-1,
-1,
-1,
7,
7,
14,
14,
15,
15,
14,
14,
8,
8,
6,
6,
0,
0,
3,
3,
2,
2,
1,
1,
4,
4,
1,
1,
3,
3,
11,
11,
8,
8,
8,
8,
2,
2,
7,
7,
15,
15,
17,
17,
14,
14,
11,
11,
5,
5,
0,
0,
3,
3,
2,
2,
9,
9,
13,
13,
10,
10,
8,
8,
4,
4,
6,
19,
19,
19,
15,
15,
5,
5,
3,
3,
-1,
-1,
0,
0,
3,
3,
7,
7,
6,
6,
5,
5,
11,
11,
3,
3,
0,
0,
-1,
-1,
-1,
-1,
0,
0,
2,
2,
9,
9,
6,
6,
-1,
-1,
3,
3,
6,
6,
6,
6,
3,
3,
0,
0,
1,
1,
7,
7,
7,
7,
8,
8,
3,
3,
7,
7,
13,
13,
8,
8,
4,
4,
10,
10,
15,
15,
20,
8,
9,
9,
4,
4,
2,
2,
5,
5,
6,
6,
4,
4,
9,
20,
19,
6,
7,
7,
0,
0,
0,
0,
10,
10,
15,
15,
15,
15,
16,
16,
14,
14,
6,
6,
3,
3,
0,
14,
14,
25,
25,
25,
24,
24,
16,
16,
8,
8,
4,
4,
13,
13,
8,
8,
0,
0,
-2,
-2,
0,
0,
-1,
-1,
0,
0,
0,
0,
2,
2,
2,
2,
4,
4,
3,
3,
2,
2,
0,
0,
5,
5,
9,
9,
4,
4,
6,
6,
11,
11,
6,
6,
1,
1,
4,
4,
7,
18,
17,
17,
15,
2,
2,
13,
12,
12,
17,
17,
12,
12,
3,
3,
0,
0,
3,
3,
6,
6,
10,
10,
6,
6,
6,
6,
7,
7,
3,
14,
14,
14,
14,
3,
3,
3,
2,
2,
3,
3,
3,
3,
7,
7,
5,
5,
4,
4,
0,
0,
-1,
-1,
8,
8,
12,
12,
3,
3,
9,
20,
19,
19,
26,
26,
20,
20,
14,
14,
8,
8,
7,
7,
6,
19,
18,
18,
11,
11,
1,
1,
1,
1,
2,
2,
2,
2,
4,
4,
0,
0,
6,
6,
1,
1,
9,
9,
12,
12,
10,
10,
0,
12,
12,
12,
14,
0,
1,
1,
2,
2,
0,
0,
5,
18,
17,
17,
26,
14,
14,
0,
2,
2,
9,
9,
12,
12,
3,
3,
0,
0,
4,
4,
1,
1,
5,
5,
0,
0,
4,
4,
1,
1,
0,
0,
-1,
-1,
1,
1,
6,
6,
6,
6,
0,
0,
5,
5,
4,
4,
-1,
-1,
-1,
-1,
5,
5,
6,
6,
2,
2,
-2,
-2,
0,
0,
5,
5,
8,
8,
5,
5,
0,
0,
1,
1,
7,
7,
2,
2,
6,
6,
10,
10,
8,
8,
3,
3,
0,
0,
4,
4,
14,
14,
8,
8,
0,
0,
5,
5,
10,
10,
5,
5,
9,
9,
4,
4,
6,
6,
2,
2,
2,
2,
3,
3,
0,
0,
7,
7,
3,
3,
5,
5,
7,
7,
5,
5,
10,
10,
11,
-1,
1,
1,
-1,
-1,
0,
0,
0,
0,
6,
6,
5,
5,
6,
6,
3,
3,
0,
0,
1,
1,
-1,
-1,
5,
5,
4,
4,
2,
2,
3,
3,
4,
4,
3,
3,
1,
1,
6,
6,
6,
6,
5,
5,
0,
0,
1,
1,
4,
4,
2,
2,
2,
2,
4,
4,
2,
2,
-1,
10,
9,
9,
7,
7,
1,
1,
4,
4,
6,
6,
5,
5,
3,
3,
3,
3,
-1,
-1,
1,
1,
6,
6,
1,
1,
4,
4,
3,
3,
-1,
-1,
-1,
-1,
-2,
-2,
2,
2,
4,
4,
9,
9,
11,
11,
7,
7,
7,
7,
6,
6,
-1,
-1,
4,
4,
7,
7,
4,
4,
3,
3,
5,
5,
3,
3,
3,
3,
1,
1,
0,
0,
-1,
-1,
5,
5,
4,
4,
1,
1,
0,
0,
0,
0,
-1,
-1,
4,
4,
6,
6,
12,
12,
14,
14,
5,
5,
1,
1,
2,
2,
4,
4,
7,
7,
4,
4,
4,
4,
5,
5,
4,
4,
4,
4,
5,
5,
2,
13,
13,
13,
15,
-1,
1,
1,
-1,
10,
10,
10,
13,
1,
2,
2,
2,
2,
0,
0,
1,
1,
4,
4,
4,
4,
-1,
-1,
4,
4,
10,
10,
5,
5,
3,
3,
11,
11,
14,
14,
10,
10,
8,
8,
5,
5,
0,
0,
-1,
-1,
1,
1,
5,
5,
8,
8,
8,
8,
7,
7,
6,
6,
3,
3,
-1,
-1,
0,
0,
5,
5,
7,
7,
11,
11,
8,
8,
0,
0,
8,
8,
12,
12,
4,
4,
8,
8,
16,
16,
14,
3,
4,
4,
10,
10,
18,
18,
20,
20,
19,
8,
8,
8,
6,
6,
15,
15,
22,
22,
16,
16,
11,
11,
18,
18,
16,
1,
3,
14,
14,
14,
15,
15,
15,
15,
14,
14,
15,
15,
8,
8,
7,
7,
16,
16,
13,
13,
5,
5,
2,
2,
0,
0,
3,
31,
31,
31,
32,
7,
8,
8,
8,
19,
19,
30,
28,
14,
14,
0,
2,
2,
4,
4,
6,
6,
2,
2,
5,
5,
10,
10,
9,
9,
11,
11,
8,
19,
18,
36,
36,
36,
45,
45,
48,
26,
27,
3,
7,
30,
30,
41,
40,
40,
43,
30,
30,
11,
12,
-1,
3,
18,
18,
18,
22,
7,
8,
8,
4,
4,
10,
10,
6,
6,
0,
0,
5,
5,
12,
12,
7,
7,
7,
7,
8,
8,
18,
30,
29,
29,
28,
10,
10,
10,
9,
9,
8,
8,
8,
8,
-1,
-1,
0,
0,
9,
23,
23,
23,
29,
29,
26,
26,
18,
18,
10,
10,
4,
4,
1,
1,
8,
8,
15,
15,
19,
19,
16,
16,
15,
26,
25,
25,
30,
30,
20,
2,
3,
3,
10,
10,
16,
16,
15,
15,
19,
19,
22,
2,
3,
3,
8,
8,
2,
2,
4,
4,
2,
2,
0,
0,
6,
6,
10,
10,
4,
4,
-1,
-1,
3,
3,
0,
0,
3,
3,
9,
32,
31,
45,
44,
30,
30,
14,
14,
2,
10,
23,
22,
22,
25,
25,
29,
18,
19,
2,
5,
5,
14,
3,
4,
4,
2,
14,
13,
13,
14,
2,
10,
22,
21,
21,
22,
22,
22,
22,
14,
0,
2,
2,
8,
8,
9,
9,
5,
5,
9,
9,
10,
10,
8,
8,
2,
14,
14,
14,
13,
0,
2,
17,
16,
5,
6,
6,
11,
11,
21,
10,
11,
-1,
1,
1,
0,
0,
1,
1,
0,
0,
4,
4,
3,
3,
6,
6,
2,
2,
3,
3,
0,
0,
0,
0,
-1,
-1,
3,
3,
9,
9,
4,
4,
4,
4,
4,
4,
7,
7,
16,
3,
3,
3,
6,
6,
2,
2,
0,
0,
6,
30,
29,
61,
60,
60,
56,
22,
22,
4,
16,
43,
42,
53,
52,
52,
52,
52,
43,
32,
34,
8,
8,
8,
10,
22,
21,
35,
35,
35,
43,
25,
25,
5,
6,
6,
2,
2,
0,
0,
5,
5,
2,
2,
3,
3,
11,
0,
2,
15,
15,
15,
13,
1,
2,
2,
1,
1,
2,
2,
8,
8,
4,
4,
0,
0,
4,
4,
0,
0,
3,
3,
5,
5,
8,
8,
10,
-1,
0,
0,
3,
3,
1,
1,
2,
2,
2,
2,
-1,
-1,
5,
5,
6,
6,
0,
0,
3,
3,
0,
0,
7,
7,
10,
10,
11,
11,
6,
6,
3,
3,
8,
8,
8,
8,
4,
4,
0,
0,
9,
9,
2,
2,
8,
21,
20,
20,
25,
25,
18,
18,
14,
14,
14,
2,
8,
21,
20,
20,
22,
22,
27,
27,
22,
4,
4,
4,
4,
4,
0,
0,
0,
0,
0,
0,
7,
7,
10,
10,
10,
10,
7,
7,
5,
5,
6,
6,
4,
4,
0,
0,
7,
24,
23,
36,
35,
35,
27,
10,
10,
-1,
0,
0,
-1,
-1,
2,
2,
2,
2,
7,
21,
21,
21,
28,
28,
27,
16,
16,
2,
2,
2,
12,
32,
31,
31,
31,
5,
6,
6,
7,
7,
1,
1,
6,
6,
6,
6,
2,
2,
4,
4,
7,
7,
6,
6,
8,
8,
0,
0,
3,
3,
10,
10,
7,
7,
-1,
-1,
-1,
-1,
6,
6,
8,
8,
7,
7,
11,
11,
13,
13,
5,
5,
9,
9,
18,
18,
14,
14,
8,
8,
0,
0,
2,
2,
6,
6,
10,
28,
28,
53,
53,
36,
37,
3,
4,
20,
18,
18,
27,
27,
26,
15,
16,
5,
5,
5,
3,
3,
1,
1,
1,
1,
0,
0,
1,
13,
13,
13,
14,
0,
1,
1,
0,
0,
0,
0,
3,
21,
20,
20,
26,
26,
20,
0,
0,
0,
3,
3,
6,
6,
14,
14,
16,
16,
8,
8,
4,
4,
10,
10,
5,
5,
1,
1,
9,
9,
3,
3,
5,
5,
0,
0,
0,
0,
0,
0,
0,
0,
2,
2,
1,
1,
-1,
-1,
0,
0,
2,
2,
8,
8,
2,
2,
9,
9,
2,
2,
6,
6,
11,
11,
13,
13,
8,
8,
0,
12,
11,
11,
13,
13,
14,
14,
5,
5,
7,
22,
21,
21,
20,
20,
12,
12,
4,
4,
2,
2,
8,
8,
12,
12,
15,
15,
8,
8,
0,
0,
2,
2,
7,
7,
14,
14,
7,
7,
5,
5,
3,
3,
2,
2,
-1,
-1,
2,
2,
1,
1,
1,
1,
5,
5,
7,
7,
4,
4,
-1,
-1,
2,
2,
1,
1,
3,
3,
6,
22,
21,
21,
16,
16,
11,
0,
1,
1,
0,
0,
3,
3,
10,
10,
13,
13,
4,
4,
0,
0,
2,
2,
2,
2,
6,
6,
1,
1,
0,
0,
3,
3,
0,
0,
1,
1,
3,
3,
6,
6,
4,
4,
3,
3,
3,
3,
3,
14,
13,
13,
16,
16,
14,
3,
16,
57,
57,
57,
60,
28,
28,
1,
1,
1,
7,
7,
11,
26,
26,
26,
34,
34,
33,
33,
28,
28,
20,
9,
10,
10,
2,
2,
10,
25,
24,
24,
24,
9,
9,
9,
7,
7,
7,
7,
5,
5,
3,
3,
6,
6,
7,
7,
2,
2,
0,
0,
-1,
-1,
3,
3,
8,
8,
4,
4,
4,
4,
10,
10,
10,
10,
9,
9,
2,
2,
5,
5,
10,
-1,
0,
0,
0,
0,
1,
1,
3,
3,
0,
0,
3,
3,
6,
6,
2,
2,
2,
2,
10,
10,
11,
11,
3,
3,
0,
0,
3,
3,
1,
1,
6,
6,
1,
1,
0,
0,
-1,
-1,
1,
1,
1,
1,
2,
2,
0,
0,
7,
7,
4,
16,
16,
16,
13,
13,
7,
7,
6,
6,
0,
0,
5,
5,
10,
10,
10,
10,
9,
9,
0,
0,
2,
2,
0,
0,
8,
8,
17,
17,
11,
-1,
0,
0,
3,
3,
2,
2,
0,
0,
0,
13,
12,
12,
16,
0,
1,
1,
5,
5,
3,
3,
7,
7,
10,
10,
3,
3,
1,
1,
3,
3,
0,
0,
1,
1,
3,
3,
1,
1,
2,
2,
3,
3,
1,
1,
6,
6,
12,
12,
12,
12,
9,
9,
5,
5,
2,
2,
3,
3,
10,
10,
12,
12,
13,
13,
10,
10,
5,
5,
0,
0,
3,
3,
3,
3,
7,
7,
5,
5,
1,
1,
-1,
-1,
0,
0,
1,
1,
8,
26,
26,
26,
28,
15,
16,
2,
2,
2,
9,
9,
15,
15,
15,
15,
14,
14,
15,
15,
15,
0,
2,
2,
9,
9,
10,
10,
7,
7,
10,
10,
10,
-1,
0,
0,
6,
6,
9,
9,
3,
3,
0,
0,
8,
8,
5,
5,
5,
5,
6,
6,
15,
15,
12,
12,
3,
3,
2,
2,
3,
3,
1,
1,
7,
7,
10,
10,
7,
7,
7,
7,
4,
4,
-1,
-1,
0,
0,
4,
4,
2,
2,
4,
4,
6,
6,
3,
3,
5,
5,
4,
4,
7,
7,
12,
12,
19,
19,
14,
0,
2,
2,
5,
5,
11,
24,
23,
23,
21,
21,
15,
15,
14,
3,
14,
41,
41,
41,
41,
28,
29,
11,
11,
-1,
0,
0,
8,
8,
15,
15,
15,
15,
13,
13,
16,
16,
18,
18,
14,
14,
6,
6,
3,
3,
10,
10,
11,
11,
1,
1,
3,
3,
10,
10,
16,
16,
24,
24,
31,
18,
19,
2,
5,
5,
11,
11,
14,
14,
16,
16,
10,
10,
7,
7,
8,
8,
7,
7,
7,
7,
0,
0,
0,
0,
3,
3,
6,
6,
9,
9,
11,
11,
11,
11,
11,
11,
11,
11,
9,
9,
3,
3,
10,
23,
22,
22,
22,
22,
26,
4,
5,
42,
42,
61,
61,
40,
41,
8,
8,
8,
13,
26,
25,
25,
28,
28,
25,
25,
20,
20,
12,
12,
3,
3,
5,
5,
3,
3,
11,
11,
8,
8,
5,
5,
8,
8,
8,
8,
11,
11,
7,
7,
3,
3,
3,
3,
2,
2,
0,
0,
0,
0,
0,
0,
2,
2,
1,
1,
-1,
-1,
0,
0,
0,
0,
0,
0,
3,
3,
3,
3,
6,
6,
6,
6,
6,
6,
0,
0,
8,
30,
29,
29,
4,
4,
4,
4,
14,
14,
13,
13,
21,
3,
5,
30,
30,
30,
38,
14,
14,
2,
11,
11,
20,
20,
17,
17,
8,
8,
7,
7,
5,
5,
1,
1,
1,
1,
0,
0,
6,
6,
1,
1,
0,
0,
8,
19,
19,
19,
12,
1,
2,
2,
1,
1,
0,
0,
-1,
-1,
-1,
-1,
0,
0,
-2,
-2,
2,
2,
2,
2,
0,
0,
7,
7,
10,
10,
13,
13,
18,
18,
13,
0,
0,
13,
12,
12,
21,
21,
21,
21,
21,
21,
14,
0,
1,
1,
10,
10,
4,
4,
6,
20,
19,
36,
35,
35,
33,
13,
13,
2,
8,
8,
18,
18,
21,
21,
20,
3,
5,
5,
2,
2,
0,
0,
9,
9,
9,
9,
0,
0,
3,
3,
2,
2,
6,
6,
7,
7,
3,
3,
6,
6,
12,
-1,
0,
0,
3,
3,
7,
7,
7,
7,
3,
3,
1,
1,
9,
9,
11,
11,
4,
4,
8,
8,
13,
13,
15,
15,
12,
12,
10,
10,
6,
6,
3,
3,
1,
1,
2,
2,
3,
3,
0,
0,
-1,
-1,
1,
1,
0,
0,
9,
9,
14,
14,
13,
13,
12,
12,
19,
19,
25,
25,
20,
4,
5,
5,
12,
12,
18,
18,
10,
10,
7,
7,
15,
15,
18,
18,
15,
15,
10,
10,
6,
6,
0,
0,
3,
3,
4,
4,
-1,
-1,
3,
3,
11,
11,
17,
17,
15,
15,
7,
7,
4,
4,
5,
5,
5,
5,
5,
5,
2,
2,
1,
1,
1,
1,
6,
6,
2,
2,
-1,
-1,
2,
2,
6,
6,
8,
8,
0,
0,
0,
0,
5,
5,
7,
7,
1,
1,
2,
2,
4,
4,
0,
0,
5,
5,
13,
2,
3,
3,
7,
24,
24,
36,
36,
36,
29,
14,
14,
14,
10,
10,
0,
0,
3,
3,
6,
6,
13,
33,
32,
32,
34,
18,
19,
2,
2,
21,
21,
33,
32,
16,
17,
0,
2,
2,
7,
7,
6,
6,
8,
8,
7,
7,
3,
3,
2,
13,
12,
12,
22,
11,
12,
1,
5,
5,
2,
14,
13,
13,
19,
19,
11,
0,
1,
1,
3,
3,
6,
6,
9,
9,
9,
9,
8,
8,
9,
9,
8,
8,
1,
1,
7,
7,
8,
8,
2,
2,
1,
1,
-1,
-1,
2,
2,
2,
2,
0,
0,
2,
2,
5,
5,
6,
6,
4,
4,
-1,
-1,
0,
0,
3,
3,
0,
0,
7,
7,
12,
12,
8,
8,
1,
1,
5,
5,
7,
7,
7,
7,
11,
11,
10,
10,
3,
3,
3,
3,
12,
12,
10,
10,
6,
6,
4,
4,
-1,
-1,
0,
0,
7,
7,
4,
4,
1,
1,
0,
0,
10,
10,
15,
15,
10,
10,
1,
1,
9,
9,
9,
9,
5,
5,
4,
4,
3,
19,
18,
18,
18,
2,
3,
3,
0,
0,
0,
0,
5,
5,
8,
8,
7,
7,
5,
5,
2,
2,
-1,
-1,
-1,
-1,
0,
0,
-1,
-1,
3,
17,
16,
16,
20,
7,
8,
8,
1,
1,
-1,
-1,
5,
5,
3,
16,
15,
15,
20,
2,
3,
16,
16,
16,
11,
11,
1,
1,
1,
1,
7,
7,
15,
15,
19,
19,
10,
10,
4,
4,
2,
2,
6,
19,
17,
17,
21,
21,
18,
18,
14,
14,
11,
11,
10,
10,
1,
1,
9,
9,
14,
14,
15,
15,
8,
8,
2,
2,
1,
1,
2,
2,
9,
9,
8,
8,
0,
0,
2,
2,
1,
1,
1,
1,
6,
6,
5,
5,
2,
2,
9,
9,
7,
7,
3,
15,
14,
14,
23,
23,
24,
24,
15,
2,
2,
2,
6,
6,
13,
13,
13,
13,
7,
7,
0,
0,
2,
2,
6,
6,
1,
1,
1,
1,
3,
3,
3,
3,
0,
0,
2,
2,
-1,
-1,
0,
0,
0,
0,
4,
4,
1,
1,
7,
7,
13,
13,
12,
12,
6,
6,
2,
2,
6,
6,
10,
10,
3,
3,
2,
2,
3,
3,
0,
0,
1,
1,
6,
6,
8,
8,
0,
0,
4,
4,
10,
10,
7,
7,
3,
3,
8,
8,
18,
18,
21,
21,
18,
1,
2,
2,
2,
2,
5,
5,
0,
0,
9,
9,
12,
12,
11,
11,
6,
6,
4,
4,
8,
8,
2,
13,
12,
12,
16,
16,
10,
10,
5,
5,
2,
2,
6,
6,
1,
1,
3,
3,
-1,
-1,
7,
7,
14,
14,
15,
15,
6,
6,
2,
2,
-1,
-1,
3,
3,
8,
8,
6,
6,
8,
8,
12,
0,
0,
12,
11,
11,
18,
7,
8,
8,
4,
4,
12,
12,
9,
9,
5,
5,
1,
15,
14,
14,
11,
11,
5,
5,
8,
8,
4,
4,
2,
2,
10,
10,
11,
0,
3,
16,
15,
27,
27,
27,
25,
11,
12,
-1,
0,
0,
8,
8,
14,
14,
20,
20,
23,
23,
26,
15,
16,
2,
3,
3,
11,
23,
22,
22,
28,
28,
20,
6,
6,
6,
0,
0,
-1,
-1,
-1,
-1,
1,
1,
6,
6,
1,
1,
1,
1,
0,
0,
4,
4,
3,
3,
4,
4,
1,
1,
7,
7,
9,
9,
10,
10,
14,
0,
1,
1,
6,
6,
4,
16,
14,
2,
3,
3,
8,
8,
14,
2,
2,
2,
6,
6,
7,
7,
8,
8,
9,
9,
6,
6,
3,
3,
9,
23,
22,
22,
22,
22,
15,
15,
8,
8,
2,
2,
5,
5,
8,
8,
0,
0,
3,
3,
0,
0,
9,
43,
43,
43,
39,
19,
19,
19,
13,
13,
13,
0,
3,
3,
11,
11,
17,
17,
24,
24,
28,
28,
20,
20,
12,
12,
7,
7,
0,
0,
7,
7,
6,
6,
6,
6,
3,
3,
4,
4,
4,
4,
5,
5,
6,
6,
6,
6,
9,
9,
3,
3,
-1,
-1,
3,
3,
1,
1,
11,
11,
18,
18,
24,
13,
14,
2,
3,
3,
10,
10,
18,
18,
22,
22,
21,
21,
12,
12,
5,
5,
-1,
-1,
8,
8,
13,
13,
10,
10,
8,
8,
5,
5,
3,
3,
2,
2,
-1,
-1,
1,
1,
1,
1,
2,
2,
4,
4,
4,
17,
16,
16,
14,
14,
4,
4,
2,
2,
2,
2,
4,
4,
7,
7,
6,
6,
4,
4,
2,
2,
8,
8,
15,
3,
3,
3,
0,
0,
6,
6,
2,
2,
7,
7,
9,
9,
1,
1,
5,
5,
6,
6,
9,
9,
6,
6,
8,
8,
13,
13,
12,
12,
5,
5,
2,
2,
0,
13,
11,
11,
11,
11,
2,
2,
0,
0,
5,
5,
4,
4,
0,
0,
2,
2,
-1,
10,
10,
10,
13,
13,
6,
6,
4,
4,
5,
5,
4,
4,
13,
13,
14,
3,
4,
4,
0,
0,
0,
0,
2,
2,
4,
4,
6,
6,
10,
10,
14,
14,
14,
14,
6,
6,
6,
6,
10,
10,
11,
11,
5,
5,
-1,
-1,
-1,
-1,
7,
7,
12,
12,
7,
7,
2,
2,
7,
19,
18,
18,
11,
11,
2,
2,
4,
4,
3,
3,
5,
5,
2,
2,
0,
0,
-1,
-1,
-1,
-1,
3,
3,
0,
0,
8,
8,
12,
12,
12,
0,
1,
1,
11,
22,
22,
22,
18,
18,
9,
9,
7,
27,
26,
13,
13,
-1,
-1,
15,
15,
27,
26,
26,
17,
2,
5,
28,
27,
27,
28,
28,
18,
6,
6,
6,
1,
14,
13,
13,
15,
15,
6,
6,
