EMG_S1/DS0163.CSV

Memory Length,4000,
Trigger Level,0.00000e+00,
Source,CH1,
Probe,1.0X,
Vertical Units,V,
Vertical Scale,1.00000e+00,
Vertical Position,4.00000e-02,
Horizontal Units,S,
Horizontal Scale,1.00000e-01,
Horizontal Position,0.0000000e+00,
Horizontal Mode,Roll Mode,
Waveform Last Dot Address,4000,
Sampling Period,4.00000e-04,
Firmware,V1.14,
Time, ,
Mode,Fast,
Waveform Data,
4,
4,
0,
0,
8,
8,
10,
10,
7,
7,
8,
8,
7,
7,
2,
2,
-1,
-1,
2,
2,
5,
5,
3,
16,
15,
15,
14,
14,
4,
4,
6,
6,
3,
3,
3,
3,
11,
11,
7,
7,
5,
5,
11,
11,
7,
7,
2,
2,
12,
12,
11,
0,
7,
7,
15,
2,
6,
31,
29,
18,
18,
0,
1,
1,
10,
10,
16,
3,
3,
15,
14,
14,
7,
7,
7,
7,
14,
14,
6,
6,
0,
0,
0,
0,
6,
6,
6,
6,
4,
4,
9,
9,
4,
4,
6,
6,
15,
36,
35,
18,
18,
3,
14,
25,
25,
13,
13,
29,
28,
54,
54,
38,
38,
4,
4,
16,
15,
15,
23,
23,
24,
24,
33,
33,
34,
34,
27,
2,
3,
19,
18,
18,
26,
26,
23,
23,
19,
19,
15,
3,
3,
3,
5,
5,
6,
6,
0,
0,
6,
6,
8,
8,
11,
11,
7,
7,
8,
8,
12,
12,
15,
15,
10,
10,
2,
16,
15,
15,
13,
13,
8,
8,
4,
4,
2,
2,
10,
10,
14,
14,
7,
7,
1,
1,
4,
4,
7,
7,
13,
13,
13,
13,
4,
4,
4,
4,
6,
6,
1,
1,
7,
7,
10,
10,
4,
4,
0,
0,
1,
1,
5,
5,
7,
7,
1,
1,
2,
2,
3,
3,
0,
0,
2,
2,
5,
5,
5,
5,
-1,
-1,
0,
0,
3,
3,
2,
2,
0,
0,
1,
1,
3,
3,
8,
8,
10,
10,
6,
6,
11,
11,
6,
38,
37,
37,
43,
28,
30,
11,
11,
11,
10,
21,
20,
20,
21,
10,
10,
10,
3,
3,
1,
1,
4,
4,
12,
12,
13,
13,
3,
3,
3,
3,
4,
4,
5,
5,
4,
4,
2,
2,
3,
3,
2,
2,
12,
12,
21,
21,
21,
1,
2,
2,
8,
8,
0,
0,
1,
14,
13,
13,
3,
17,
15,
29,
29,
29,
21,
2,
5,
5,
11,
11,
13,
13,
15,
15,
16,
16,
18,
18,
15,
15,
9,
9,
2,
2,
3,
19,
18,
31,
29,
29,
21,
21,
12,
12,
4,
4,
3,
3,
5,
5,
4,
4,
8,
8,
6,
6,
2,
2,
5,
5,
12,
12,
2,
2,
2,
2,
4,
4,
6,
6,
4,
4,
2,
2,
0,
0,
4,
4,
1,
1,
0,
0,
-1,
-1,
4,
4,
6,
6,
5,
5,
0,
0,
6,
6,
7,
7,
6,
20,
19,
19,
17,
0,
0,
0,
9,
9,
7,
7,
2,
2,
2,
2,
5,
5,
3,
3,
7,
19,
19,
3,
6,
17,
15,
0,
1,
1,
8,
8,
8,
8,
6,
6,
1,
14,
14,
14,
18,
18,
21,
21,
21,
8,
9,
9,
2,
2,
6,
6,
7,
7,
8,
8,
10,
10,
5,
5,
1,
1,
6,
6,
11,
11,
19,
2,
3,
19,
18,
18,
24,
24,
22,
22,
18,
18,
11,
11,
2,
2,
2,
2,
0,
0,
5,
19,
18,
18,
16,
16,
9,
9,
5,
5,
2,
2,
5,
5,
7,
7,
10,
10,
12,
12,
4,
4,
1,
1,
6,
6,
8,
8,
0,
0,
8,
8,
12,
12,
3,
3,
0,
0,
8,
8,
10,
10,
10,
10,
2,
19,
18,
18,
23,
23,
18,
3,
3,
3,
0,
0,
0,
0,
6,
6,
3,
3,
13,
1,
2,
2,
6,
6,
0,
0,
3,
3,
2,
17,
16,
16,
15,
1,
2,
2,
9,
9,
9,
9,
11,
11,
3,
3,
2,
2,
1,
1,
9,
9,
18,
18,
14,
14,
11,
11,
11,
27,
26,
13,
13,
13,
22,
22,
26,
14,
14,
14,
5,
5,
0,
14,
12,
12,
15,
0,
1,
1,
6,
19,
18,
3,
3,
3,
5,
5,
1,
1,
4,
4,
11,
11,
18,
18,
13,
0,
0,
0,
6,
6,
8,
8,
12,
12,
12,
12,
17,
17,
13,
13,
19,
35,
34,
34,
35,
35,
29,
13,
13,
13,
8,
8,
3,
3,
9,
9,
18,
18,
16,
16,
9,
9,
9,
9,
6,
6,
6,
6,
7,
7,
4,
4,
0,
0,
6,
6,
10,
10,
7,
7,
4,
4,
4,
4,
3,
3,
4,
4,
4,
4,
3,
3,
6,
6,
0,
0,
0,
0,
5,
5,
13,
13,
16,
2,
4,
4,
2,
2,
0,
0,
7,
24,
23,
23,
18,
0,
2,
2,
0,
0,
8,
33,
33,
33,
26,
2,
2,
2,
11,
11,
14,
14,
16,
16,
19,
19,
14,
0,
1,
1,
8,
8,
10,
10,
17,
17,
15,
15,
6,
6,
6,
6,
12,
29,
28,
28,
24,
3,
6,
6,
11,
0,
2,
2,
4,
4,
14,
14,
22,
22,
18,
18,
18,
7,
7,
7,
4,
4,
10,
10,
6,
6,
7,
7,
9,
9,
8,
8,
8,
8,
0,
0,
6,
6,
1,
13,
12,
12,
8,
8,
4,
4,
12,
12,
2,
2,
10,
25,
25,
38,
36,
17,
18,
0,
2,
14,
14,
14,
22,
22,
20,
20,
18,
18,
15,
15,
8,
8,
7,
7,
6,
6,
0,
14,
13,
24,
22,
11,
12,
12,
12,
12,
14,
14,
11,
11,
9,
9,
2,
2,
10,
10,
3,
3,
11,
11,
8,
8,
4,
4,
12,
12,
17,
17,
11,
11,
7,
7,
2,
2,
0,
0,
3,
3,
2,
2,
3,
3,
2,
24,
23,
46,
45,
45,
37,
13,
13,
-1,
2,
2,
10,
10,
14,
14,
12,
12,
8,
8,
3,
3,
4,
4,
8,
8,
11,
11,
4,
4,
3,
3,
0,
0,
2,
2,
8,
8,
10,
10,
8,
8,
1,
1,
1,
1,
0,
0,
0,
0,
-1,
-1,
-1,
-1,
-1,
-1,
2,
2,
7,
19,
18,
18,
22,
11,
12,
0,
4,
21,
20,
20,
19,
8,
9,
9,
7,
7,
4,
4,
10,
10,
11,
-1,
1,
1,
5,
5,
6,
6,
1,
1,
1,
1,
3,
3,
7,
7,
10,
10,
6,
6,
4,
4,
14,
14,
11,
11,
2,
2,
4,
4,
8,
8,
12,
12,
17,
17,
13,
2,
15,
36,
35,
14,
15,
3,
8,
8,
3,
3,
7,
7,
3,
18,
18,
18,
12,
0,
1,
15,
15,
15,
19,
2,
3,
3,
6,
6,
7,
7,
8,
8,
0,
0,
5,
5,
5,
5,
0,
0,
1,
1,
2,
2,
5,
5,
1,
1,
4,
4,
6,
6,
7,
7,
9,
9,
2,
2,
6,
6,
0,
0,
2,
31,
31,
45,
43,
24,
25,
2,
3,
3,
12,
12,
11,
11,
15,
29,
28,
28,
21,
2,
3,
3,
3,
3,
-1,
-1,
0,
0,
-1,
-1,
6,
17,
16,
16,
15,
15,
7,
7,
4,
4,
3,
3,
0,
0,
2,
2,
8,
8,
5,
5,
11,
11,
4,
4,
7,
7,
4,
4,
10,
10,
11,
-1,
1,
1,
7,
7,
5,
5,
5,
17,
16,
16,
7,
7,
3,
3,
5,
5,
5,
5,
-1,
15,
14,
14,
22,
9,
9,
9,
7,
7,
9,
9,
3,
3,
1,
1,
6,
6,
14,
14,
14,
14,
10,
10,
12,
12,
14,
0,
0,
0,
6,
6,
5,
5,
8,
8,
5,
5,
3,
3,
4,
4,
8,
8,
5,
5,
5,
5,
6,
6,
6,
6,
2,
2,
4,
4,
3,
3,
-1,
-1,
0,
0,
2,
2,
2,
2,
1,
1,
7,
7,
16,
16,
24,
24,
19,
3,
10,
46,
45,
63,
63,
43,
43,
6,
6,
22,
22,
22,
26,
26,
20,
20,
25,
39,
39,
39,
34,
11,
11,
27,
27,
46,
46,
35,
35,
11,
12,
12,
11,
11,
7,
7,
6,
6,
5,
5,
14,
14,
16,
5,
6,
6,
5,
5,
10,
10,
7,
7,
6,
6,
5,
19,
18,
18,
15,
15,
7,
7,
2,
2,
2,
2,
7,
7,
9,
9,
1,
1,
9,
20,
19,
19,
18,
3,
9,
30,
30,
30,
26,
11,
11,
-1,
2,
2,
7,
19,
19,
30,
28,
6,
12,
43,
43,
25,
26,
3,
8,
31,
30,
19,
19,
3,
10,
10,
3,
18,
16,
2,
4,
4,
6,
18,
18,
18,
19,
19,
11,
11,
16,
50,
49,
49,
44,
10,
11,
11,
14,
14,
8,
8,
3,
3,
0,
12,
12,
12,
16,
16,
6,
17,
17,
17,
23,
23,
14,
0,
2,
2,
10,
10,
13,
13,
8,
8,
5,
5,
2,
2,
0,
0,
2,
2,
3,
3,
10,
10,
10,
10,
10,
10,
6,
6,
0,
0,
9,
9,
3,
3,
11,
11,
6,
6,
14,
27,
26,
26,
16,
2,
3,
51,
50,
67,
65,
50,
51,
6,
6,
30,
30,
30,
33,
33,
27,
27,
27,
27,
25,
25,
19,
8,
8,
8,
2,
2,
0,
0,
4,
4,
7,
7,
16,
16,
17,
17,
11,
11,
4,
4,
-1,
-1,
1,
1,
11,
11,
9,
9,
4,
4,
12,
12,
16,
3,
3,
3,
4,
4,
9,
9,
9,
9,
5,
5,
6,
17,
16,
16,
14,
14,
15,
3,
4,
18,
18,
18,
22,
22,
18,
18,
10,
10,
3,
3,
1,
21,
21,
21,
20,
3,
4,
4,
10,
10,
17,
17,
15,
15,
10,
10,
10,
10,
2,
2,
7,
7,
14,
14,
6,
6,
10,
10,
7,
7,
2,
13,
12,
0,
1,
12,
11,
11,
16,
16,
8,
8,
4,
15,
14,
14,
13,
13,
10,
10,
8,
8,
2,
19,
18,
18,
26,
11,
12,
0,
2,
2,
11,
11,
9,
9,
4,
4,
12,
12,
17,
17,
17,
17,
8,
8,
4,
4,
10,
10,
2,
2,
2,
2,
1,
1,
-1,
-1,
1,
1,
6,
6,
15,
15,
19,
19,
14,
2,
11,
11,
18,
4,
4,
4,
2,
2,
-1,
-1,
3,
28,
28,
28,
30,
3,
4,
4,
1,
1,
2,
2,
0,
0,
1,
1,
8,
8,
15,
15,
17,
17,
12,
12,
3,
3,
1,
1,
0,
0,
2,
2,
3,
3,
4,
4,
0,
0,
5,
5,
2,
16,
15,
29,
28,
28,
19,
19,
13,
13,
12,
12,
2,
2,
11,
22,
20,
20,
17,
17,
13,
13,
8,
8,
10,
10,
6,
6,
0,
0,
6,
6,
7,
33,
32,
32,
41,
20,
20,
0,
1,
1,
4,
4,
5,
5,
5,
5,
8,
8,
14,
14,
14,
14,
7,
7,
0,
0,
0,
0,
0,
0,
2,
2,
3,
3,
6,
6,
11,
11,
18,
18,
16,
16,
9,
9,
1,
1,
0,
0,
0,
0,
8,
8,
16,
16,
17,
17,
11,
11,
8,
20,
19,
19,
13,
13,
18,
18,
11,
0,
2,
13,
13,
13,
12,
12,
7,
7,
2,
2,
7,
7,
8,
8,
2,
2,
1,
1,
1,
1,
0,
0,
7,
7,
5,
5,
4,
4,
1,
12,
12,
12,
16,
16,
16,
16,
8,
8,
6,
6,
1,
1,
3,
3,
3,
3,
2,
18,
17,
38,
38,
21,
22,
4,
11,
25,
25,
25,
25,
14,
15,
2,
3,
3,
0,
0,
6,
6,
9,
9,
2,
16,
16,
16,
14,
14,
5,
5,
5,
5,
3,
3,
3,
3,
9,
9,
3,
3,
0,
0,
6,
19,
19,
19,
14,
-1,
0,
0,
1,
1,
-1,
-1,
0,
0,
8,
8,
5,
5,
5,
5,
10,
10,
16,
16,
21,
21,
18,
2,
2,
2,
5,
5,
8,
23,
22,
22,
30,
30,
23,
23,
21,
21,
16,
5,
6,
6,
14,
42,
42,
42,
42,
24,
25,
10,
11,
11,
5,
5,
4,
4,
7,
7,
7,
7,
11,
11,
13,
13,
12,
12,
9,
9,
1,
1,
11,
11,
16,
16,
11,
11,
9,
9,
5,
22,
22,
22,
16,
1,
2,
19,
18,
18,
27,
27,
19,
4,
5,
5,
4,
4,
0,
0,
0,
0,
0,
0,
1,
1,
5,
5,
2,
2,
1,
1,
0,
0,
1,
1,
-1,
-1,
1,
1,
-1,
-1,
-1,
-1,
0,
0,
-1,
-1,
2,
2,
1,
13,
12,
12,
17,
3,
3,
3,
8,
8,
12,
12,
6,
6,
15,
15,
12,
0,
4,
4,
6,
6,
12,
23,
23,
5,
5,
51,
51,
66,
66,
66,
57,
10,
18,
50,
49,
49,
54,
43,
44,
32,
34,
7,
8,
8,
13,
13,
19,
19,
20,
2,
3,
3,
11,
11,
7,
7,
1,
1,
11,
11,
9,
9,
10,
10,
13,
13,
15,
15,
10,
-1,
0,
0,
1,
1,
3,
3,
1,
1,
0,
0,
6,
6,
5,
5,
2,
2,
6,
6,
4,
4,
2,
2,
2,
2,
6,
6,
10,
10,
7,
7,
3,
14,
12,
12,
7,
7,
1,
1,
0,
14,
13,
24,
22,
8,
8,
8,
3,
3,
4,
4,
4,
4,
11,
11,
14,
14,
12,
12,
8,
25,
24,
7,
7,
26,
26,
26,
34,
20,
20,
4,
17,
48,
47,
60,
59,
37,
37,
5,
8,
28,
28,
28,
32,
32,
27,
27,
20,
20,
17,
5,
6,
6,
8,
8,
5,
5,
13,
13,
8,
8,
5,
5,
5,
5,
14,
26,
26,
26,
21,
2,
2,
2,
11,
11,
8,
8,
6,
6,
3,
3,
5,
5,
3,
3,
0,
0,
0,
0,
0,
0,
2,
2,
3,
3,
1,
1,
-1,
-1,
2,
2,
-1,
-1,
-1,
-1,
0,
0,
2,
2,
4,
4,
4,
4,
1,
1,
-1,
19,
18,
18,
19,
2,
2,
2,
2,
2,
7,
7,
6,
6,
12,
26,
23,
3,
4,
4,
7,
7,
9,
9,
9,
26,
24,
24,
26,
26,
24,
24,
15,
15,
9,
9,
2,
2,
10,
10,
18,
18,
15,
15,
6,
6,
10,
10,
18,
2,
3,
17,
16,
16,
12,
12,
16,
3,
5,
41,
40,
54,
53,
53,
43,
16,
17,
0,
3,
20,
19,
19,
26,
26,
28,
28,
27,
10,
10,
10,
5,
5,
10,
10,
10,
10,
16,
2,
7,
28,
27,
27,
27,
2,
3,
14,
14,
14,
8,
8,
0,
0,
0,
22,
22,
48,
48,
34,
34,
7,
7,
7,
12,
28,
27,
11,
12,
-1,
0,
0,
-1,
-1,
7,
7,
14,
14,
4,
4,
8,
8,
15,
15,
18,
18,
10,
10,
6,
6,
5,
5,
2,
2,
0,
0,
4,
4,
8,
8,
8,
8,
10,
10,
12,
12,
10,
10,
5,
5,
3,
3,
3,
3,
6,
6,
4,
4,
0,
0,
2,
2,
1,
1,
4,
4,
0,
0,
2,
2,
9,
9,
5,
5,
2,
2,
2,
2,
5,
5,
6,
6,
1,
1,
7,
7,
11,
0,
1,
1,
2,
2,
2,
2,
6,
6,
15,
15,
11,
11,
2,
2,
0,
0,
-1,
-1,
0,
0,
0,
0,
2,
2,
4,
4,
3,
3,
0,
0,
5,
5,
13,
13,
14,
3,
3,
3,
9,
9,
16,
16,
15,
2,
4,
4,
10,
10,
16,
16,
11,
-1,
0,
0,
-1,
-1,
6,
6,
0,
0,
6,
6,
12,
12,
2,
19,
18,
18,
19,
0,
1,
1,
6,
6,
11,
11,
17,
17,
25,
25,
15,
3,
14,
27,
26,
26,
18,
18,
17,
17,
10,
10,
6,
6,
11,
0,
2,
2,
9,
9,
1,
1,
2,
2,
1,
1,
4,
4,
9,
9,
2,
2,
11,
11,
4,
4,
1,
1,
1,
1,
1,
1,
-1,
-1,
2,
2,
3,
14,
14,
14,
8,
8,
2,
2,
7,
7,
13,
2,
7,
22,
22,
5,
6,
6,
0,
0,
-1,
-1,
0,
0,
4,
4,
8,
8,
0,
0,
8,
8,
13,
13,
10,
10,
0,
0,
1,
1,
2,
2,
6,
6,
8,
8,
14,
14,
12,
0,
1,
16,
16,
31,
30,
9,
10,
10,
14,
14,
15,
15,
16,
16,
16,
16,
15,
26,
26,
26,
19,
3,
8,
20,
19,
19,
17,
17,
15,
15,
20,
20,
14,
3,
4,
4,
0,
0,
3,
3,
9,
9,
12,
12,
12,
12,
7,
7,
-1,
-1,
1,
1,
7,
7,
1,
1,
6,
6,
8,
8,
4,
4,
5,
16,
15,
15,
16,
4,
6,
6,
1,
1,
1,
1,
0,
0,
3,
3,
8,
8,
7,
7,
3,
3,
10,
10,
11,
11,
9,
9,
7,
7,
2,
2,
3,
3,
12,
12,
10,
10,
8,
8,
8,
8,
2,
2,
4,
22,
20,
38,
37,
22,
22,
2,
5,
5,
11,
11,
17,
17,
15,
15,
9,
9,
3,
3,
1,
1,
2,
2,
3,
3,
2,
2,
4,
4,
7,
19,
18,
18,
15,
15,
10,
10,
7,
7,
4,
4,
9,
9,
4,
4,
13,
13,
7,
7,
4,
4,
7,
7,
1,
1,
5,
5,
8,
31,
30,
53,
52,
26,
27,
1,
1,
1,
6,
6,
14,
14,
24,
24,
30,
30,
26,
26,
26,
26,
18,
3,
10,
10,
15,
15,
13,
13,
10,
10,
2,
2,
0,
0,
2,
2,
6,
32,
32,
32,
32,
3,
4,
4,
10,
10,
10,
10,
7,
7,
2,
2,
1,
1,
0,
0,
7,
7,
1,
19,
19,
31,
31,
7,
7,
48,
47,
64,
61,
22,
3,
3,
8,
20,
19,
19,
26,
26,
25,
25,
18,
6,
6,
6,
0,
0,
0,
0,
1,
1,
5,
5,
6,
6,
9,
9,
7,
7,
5,
5,
5,
5,
9,
9,
8,
8,
1,
1,
2,
2,
11,
11,
16,
16,
15,
15,
12,
12,
7,
7,
0,
18,
17,
17,
18,
18,
14,
14,
9,
9,
8,
8,
12,
-1,
2,
2,
10,
10,
16,
16,
14,
-1,
0,
0,
5,
5,
8,
8,
9,
9,
6,
6,
7,
7,
16,
16,
20,
20,
22,
7,
8,
8,
7,
7,
12,
12,
9,
9,
2,
2,
2,
2,
6,
6,
7,
7,
4,
4,
2,
2,
-1,
-1,
-1,
-1,
6,
6,
7,
7,
6,
6,
3,
3,
8,
8,
5,
5,
0,
0,
5,
5,
6,
6,
0,
0,
3,
3,
2,
2,
1,
1,
9,
9,
10,
10,
7,
7,
3,
3,
6,
6,
0,
0,
2,
2,
1,
1,
0,
0,
1,
1,
11,
11,
9,
9,
1,
1,
8,
8,
10,
10,
1,
1,
1,
1,
2,
2,
10,
10,
7,
7,
0,
0,
8,
8,
7,
7,
6,
6,
5,
5,
10,
10,
15,
4,
5,
5,
-1,
-1,
3,
3,
4,
4,
-1,
-1,
3,
3,
4,
4,
5,
5,
7,
7,
3,
3,
10,
10,
14,
14,
17,
4,
5,
26,
26,
38,
37,
25,
26,
6,
6,
6,
5,
5,
8,
8,
6,
6,
10,
10,
11,
11,
11,
11,
10,
10,
9,
9,
2,
2,
-1,
-1,
1,
1,
4,
4,
12,
12,
14,
14,
14,
14,
15,
15,
14,
0,
1,
14,
13,
13,
19,
5,
5,
5,
14,
14,
10,
10,
6,
6,
11,
11,
15,
15,
7,
7,
5,
5,
8,
23,
23,
23,
27,
27,
28,
3,
4,
4,
8,
8,
18,
18,
22,
22,
17,
17,
10,
26,
25,
25,
26,
3,
4,
20,
20,
34,
34,
34,
36,
16,
16,
-1,
2,
2,
3,
3,
0,
0,
1,
1,
4,
4,
6,
6,
7,
7,
9,
9,
11,
11,
12,
12,
10,
10,
6,
6,
5,
5,
0,
0,
-1,
-1,
-1,
-1,
1,
1,
-1,
-1,
-1,
-1,
0,
0,
5,
5,
13,
13,
13,
1,
1,
1,
3,
3,
0,
0,
0,
0,
2,
2,
6,
6,
14,
14,
10,
10,
3,
3,
1,
1,
-1,
-1,
3,
3,
7,
7,
2,
2,
10,
25,
23,
11,
13,
0,
4,
4,
12,
12,
14,
14,
7,
7,
3,
3,
0,
0,
-1,
-1,
9,
9,
8,
8,
10,
10,
15,
15,
12,
12,
4,
4,
3,
3,
8,
8,
9,
22,
21,
9,
9,
9,
7,
7,
-1,
-1,
0,
0,
3,
3,
5,
5,
0,
0,
9,
9,
12,
12,
3,
3,
7,
7,
5,
5,
3,
14,
14,
14,
16,
16,
10,
10,
2,
22,
22,
38,
37,
48,
47,
47,
42,
10,
10,
10,
16,
16,
22,
22,
21,
21,
19,
19,
16,
16,
9,
9,
8,
8,
9,
9,
0,
0,
4,
4,
10,
10,
12,
12,
10,
10,
6,
6,
5,
5,
4,
4,
2,
2,
0,
0,
1,
1,
0,
0,
0,
0,
6,
6,
7,
7,
0,
0,
-1,
-1,
3,
3,
6,
6,
5,
5,
4,
4,
0,
0,
2,
2,
0,
0,
6,
6,
13,
13,
15,
15,
16,
3,
4,
24,
23,
23,
31,
14,
14,
0,
1,
1,
8,
8,
4,
4,
9,
9,
1,
1,
4,
4,
5,
5,
8,
8,
6,
6,
1,
1,
2,
2,
5,
5,
1,
1,
-1,
11,
11,
11,
15,
15,
6,
6,
0,
0,
7,
7,
10,
10,
5,
5,
10,
10,
10,
10,
8,
8,
6,
21,
20,
20,
20,
20,
14,
0,
0,
11,
11,
11,
14,
14,
10,
10,
1,
1,
0,
0,
9,
20,
19,
19,
16,
0,
1,
1,
6,
6,
10,
10,
8,
8,
6,
6,
3,
3,
8,
8,
7,
7,
6,
6,
8,
19,
19,
38,
36,
17,
18,
0,
1,
1,
7,
7,
10,
10,
12,
12,
9,
9,
0,
0,
3,
3,
2,
2,
7,
7,
10,
10,
15,
15,
13,
0,
0,
11,
10,
10,
1,
1,
7,
7,
0,
0,
6,
6,
5,
5,
4,
4,
3,
3,
0,
0,
0,
0,
2,
2,
6,
6,
8,
8,
5,
5,
-1,
-1,
-1,
-1,
0,
0,
2,
2,
9,
9,
14,
14,
13,
13,
8,
8,
4,
4,
0,
0,
6,
6,
2,
2,
6,
6,
3,
3,
6,
6,
2,
2,
6,
6,
1,
1,
10,
10,
4,
4,
0,
0,
4,
4,
2,
2,
3,
15,
14,
14,
10,
10,
1,
1,
2,
2,
6,
6,
8,
8,
4,
4,
4,
4,
0,
0,
3,
3,
3,
3,
9,
9,
14,
14,
15,
15,
7,
7,
0,
0,
0,
0,
0,
0,
0,
0,
4,
4,
1,
14,
14,
14,
20,
20,
22,
22,
13,
2,
11,
33,
33,
21,
22,
5,
5,
5,
7,
7,
15,
3,
3,
3,
1,
1,
4,
4,
10,
10,
14,
14,
5,
5,
5,
5,
11,
11,
6,
6,
7,
7,
11,
11,
3,
3,
8,
8,
11,
11,
8,
8,
3,
16,
16,
29,
28,
11,
11,
11,
6,
6,
7,
7,
1,
1,
8,
8,
3,
18,
18,
18,
12,
-1,
0,
0,
4,
4,
9,
22,
21,
21,
18,
2,
3,
3,
1,
1,
0,
0,
7,
7,
13,
13,
6,
6,
16,
16,
20,
20,
21,
21,
12,
12,
3,
3,
4,
4,
2,
2,
2,
2,
6,
6,
2,
2,
-1,
-1,
1,
1,
1,
1,
2,
2,
5,
5,
10,
10,
11,
11,
11,
11,
14,
14,
8,
8,
4,
16,
15,
15,
18,
2,
3,
18,
18,
18,
13,
0,
3,
15,
14,
14,
13,
13,
12,
0,
2,
20,
19,
19,
21,
7,
8,
8,
12,
12,
18,
2,
7,
22,
21,
21,
22,
22,
14,
14,
8,
8,
7,
7,
1,
1,
5,
5,
5,
5,
3,
3,
2,
2,
2,
2,
6,
18,
17,
17,
20,
7,
8,
8,
4,
4,
2,
2,
5,
5,
6,
6,
11,
11,
4,
4,
2,
2,
6,
6,
8,
8,
10,
10,
2,
2,
9,
9,
10,
10,
13,
13,
18,
18,
16,
16,
8,
8,
8,
8,
14,
14,
22,
22,
28,
28,
28,
28,
22,
6,
6,
6,
4,
4,
12,
32,
31,
31,
31,
31,
30,
30,
26,
6,
22,
61,
60,
60,
65,
46,
46,
6,
10,
31,
30,
30,
39,
39,
46,
46,
43,
22,
23,
8,
8,
8,
6,
25,
24,
24,
19,
2,
2,
2,
10,
22,
20,
20,
15,
4,
6,
6,
-1,
-1,
0,
13,
13,
13,
19,
6,
7,
7,
1,
12,
11,
11,
13,
13,
8,
8,
1,
1,
2,
2,
2,
2,
3,
3,
2,
2,
0,
15,
14,
14,
15,
15,
13,
1,
4,
23,
22,
22,
16,
0,
3,
20,
20,
20,
17,
17,
16,
16,
11,
11,
4,
4,
2,
19,
18,
18,
23,
23,
16,
16,
10,
10,
4,
4,
4,
4,
3,
3,
1,
1,
0,
14,
14,
14,
19,
19,
13,
25,
24,
24,
30,
30,
25,
2,
2,
2,
7,
7,
14,
14,
20,
20,
20,
20,
25,
14,
14,
0,
1,
14,
13,
25,
24,
24,
30,
19,
19,
4,
