EMG_S1/DS0154.CSV

Memory Length,4000,
Trigger Level,0.00000e+00,
Source,CH1,
Probe,1.0X,
Vertical Units,V,
Vertical Scale,1.00000e+00,
Vertical Position,4.00000e-02,
Horizontal Units,S,
Horizontal Scale,1.00000e-01,
Horizontal Position,0.0000000e+00,
Horizontal Mode,Roll Mode,
Waveform Last Dot Address,4000,
Sampling Period,4.00000e-04,
Firmware,V1.14,
Time, ,
Mode,Fast,
Waveform Data,
0,
0,
4,
4,
6,
6,
7,
7,
13,
13,
10,
10,
11,
11,
13,
13,
7,
7,
2,
2,
8,
8,
8,
8,
2,
2,
3,
3,
0,
0,
8,
8,
9,
9,
6,
6,
4,
4,
8,
8,
0,
0,
0,
0,
8,
8,
6,
6,
0,
0,
1,
1,
4,
4,
8,
8,
10,
-1,
1,
1,
7,
7,
17,
17,
19,
19,
10,
10,
1,
1,
3,
3,
2,
2,
-1,
-1,
-1,
-1,
-2,
-2,
7,
7,
6,
6,
0,
0,
3,
3,
5,
18,
18,
18,
16,
5,
5,
5,
4,
4,
12,
12,
5,
5,
0,
0,
2,
2,
6,
6,
3,
3,
2,
2,
2,
2,
0,
0,
3,
3,
3,
3,
5,
5,
7,
7,
15,
15,
16,
16,
7,
7,
0,
0,
2,
2,
0,
0,
0,
0,
3,
3,
1,
1,
6,
6,
6,
6,
8,
8,
8,
8,
10,
10,
6,
6,
10,
22,
21,
21,
18,
7,
7,
7,
0,
0,
2,
2,
1,
1,
7,
7,
3,
3,
0,
0,
2,
2,
2,
2,
3,
3,
2,
2,
2,
2,
7,
7,
13,
13,
19,
19,
17,
1,
2,
18,
17,
31,
30,
30,
31,
31,
21,
21,
17,
0,
1,
1,
0,
0,
1,
1,
4,
4,
4,
4,
2,
2,
3,
16,
15,
26,
26,
26,
24,
4,
4,
4,
11,
11,
8,
8,
4,
4,
0,
0,
0,
0,
5,
5,
12,
12,
8,
8,
3,
3,
3,
3,
-1,
-1,
-1,
-1,
0,
0,
4,
4,
4,
4,
10,
10,
4,
4,
5,
5,
0,
0,
5,
5,
10,
10,
8,
8,
0,
0,
0,
0,
2,
2,
1,
1,
-1,
-1,
5,
5,
13,
13,
13,
13,
14,
14,
6,
6,
7,
7,
10,
10,
3,
3,
2,
2,
4,
4,
-1,
-1,
4,
4,
2,
2,
7,
7,
8,
8,
4,
4,
4,
4,
8,
8,
11,
11,
6,
6,
0,
0,
-1,
-1,
3,
3,
2,
2,
6,
6,
6,
6,
7,
7,
10,
10,
6,
6,
5,
5,
3,
3,
6,
6,
8,
8,
11,
11,
10,
10,
2,
2,
3,
3,
2,
2,
0,
0,
1,
1,
6,
6,
8,
8,
4,
4,
4,
4,
2,
2,
4,
4,
7,
7,
10,
10,
13,
13,
15,
15,
14,
0,
0,
0,
2,
14,
12,
12,
19,
19,
21,
21,
17,
1,
3,
15,
14,
14,
7,
7,
0,
0,
8,
8,
8,
8,
7,
7,
2,
2,
6,
6,
5,
5,
6,
6,
10,
10,
19,
19,
26,
11,
11,
-1,
0,
0,
4,
4,
8,
8,
6,
6,
0,
0,
2,
2,
2,
2,
8,
8,
7,
7,
4,
4,
0,
0,
2,
14,
13,
13,
13,
1,
4,
4,
10,
10,
5,
5,
11,
11,
7,
7,
4,
4,
12,
12,
13,
0,
2,
20,
19,
33,
33,
33,
24,
3,
5,
22,
20,
20,
25,
14,
15,
0,
0,
0,
3,
3,
1,
1,
7,
7,
11,
11,
2,
2,
7,
7,
12,
12,
19,
31,
30,
30,
26,
8,
8,
8,
6,
6,
11,
11,
13,
13,
15,
15,
12,
12,
11,
11,
10,
10,
11,
22,
21,
21,
24,
24,
19,
2,
3,
3,
10,
10,
14,
14,
17,
17,
8,
8,
4,
4,
6,
6,
0,
0,
-1,
-1,
4,
4,
5,
5,
2,
2,
2,
2,
1,
1,
2,
2,
6,
6,
4,
4,
-1,
-1,
0,
0,
2,
2,
6,
6,
12,
12,
8,
8,
7,
7,
2,
17,
16,
16,
15,
15,
16,
3,
3,
3,
9,
9,
7,
7,
3,
3,
9,
9,
11,
11,
7,
7,
2,
2,
2,
13,
13,
13,
15,
15,
8,
8,
11,
11,
19,
19,
12,
0,
4,
4,
6,
6,
4,
4,
2,
2,
9,
9,
3,
3,
6,
6,
11,
11,
11,
0,
2,
2,
6,
6,
6,
6,
2,
2,
5,
5,
15,
15,
20,
5,
5,
5,
-1,
-1,
0,
0,
8,
8,
2,
2,
3,
3,
2,
2,
2,
2,
6,
6,
6,
6,
4,
4,
11,
11,
14,
0,
2,
2,
6,
6,
13,
2,
3,
24,
23,
34,
32,
32,
22,
2,
2,
14,
13,
13,
21,
21,
18,
18,
11,
11,
11,
11,
7,
7,
0,
0,
3,
19,
19,
19,
26,
26,
25,
25,
22,
4,
4,
4,
12,
12,
19,
19,
15,
15,
18,
18,
13,
0,
1,
1,
-1,
-1,
-1,
-1,
1,
1,
9,
30,
29,
29,
34,
19,
20,
2,
2,
2,
5,
16,
15,
15,
21,
21,
16,
16,
8,
8,
14,
2,
5,
24,
24,
24,
31,
11,
11,
-1,
0,
0,
9,
9,
11,
11,
2,
2,
7,
7,
6,
6,
1,
1,
-1,
-1,
7,
22,
22,
22,
18,
1,
2,
17,
16,
16,
11,
11,
10,
10,
12,
12,
7,
7,
13,
13,
17,
5,
5,
5,
8,
8,
17,
29,
28,
28,
28,
11,
11,
11,
4,
4,
5,
25,
24,
36,
35,
24,
25,
3,
4,
4,
10,
10,
20,
20,
23,
3,
4,
4,
14,
30,
29,
29,
23,
9,
10,
-1,
0,
0,
8,
8,
16,
16,
21,
21,
22,
3,
3,
17,
17,
17,
24,
12,
13,
13,
5,
5,
0,
0,
2,
2,
4,
4,
4,
4,
7,
7,
9,
9,
1,
17,
16,
16,
23,
23,
22,
9,
9,
9,
0,
11,
11,
11,
17,
17,
9,
9,
8,
8,
9,
9,
11,
11,
2,
2,
11,
11,
15,
3,
4,
4,
9,
20,
20,
20,
18,
4,
5,
5,
8,
8,
16,
16,
13,
13,
11,
11,
7,
7,
0,
0,
4,
4,
12,
12,
12,
12,
18,
18,
18,
2,
3,
3,
10,
10,
10,
10,
7,
7,
9,
9,
15,
15,
11,
11,
17,
3,
4,
32,
32,
44,
43,
28,
29,
4,
5,
5,
5,
5,
4,
4,
6,
6,
3,
3,
12,
1,
9,
25,
24,
24,
18,
6,
7,
7,
3,
3,
11,
11,
19,
19,
24,
4,
4,
4,
2,
2,
10,
10,
0,
0,
1,
17,
16,
16,
7,
7,
2,
2,
7,
7,
6,
6,
5,
5,
10,
10,
11,
0,
3,
17,
16,
16,
17,
0,
2,
2,
11,
11,
16,
1,
1,
1,
8,
8,
3,
3,
6,
6,
8,
8,
15,
0,
2,
15,
15,
28,
27,
6,
8,
46,
46,
58,
56,
39,
39,
6,
6,
6,
15,
15,
24,
24,
19,
19,
20,
20,
19,
19,
10,
-1,
-1,
-1,
2,
2,
3,
3,
2,
2,
-1,
-1,
1,
1,
2,
2,
1,
16,
16,
16,
18,
18,
8,
8,
6,
6,
9,
9,
9,
9,
5,
5,
0,
0,
2,
2,
3,
3,
2,
2,
3,
3,
3,
3,
-1,
-1,
0,
0,
-1,
-1,
-1,
-1,
6,
6,
3,
3,
8,
8,
5,
5,
1,
1,
6,
17,
16,
16,
19,
8,
8,
8,
6,
6,
10,
10,
12,
12,
16,
16,
10,
10,
4,
4,
0,
12,
11,
11,
10,
-1,
2,
2,
7,
18,
18,
18,
15,
0,
2,
14,
14,
14,
23,
23,
24,
24,
17,
17,
11,
11,
12,
12,
14,
3,
4,
4,
11,
11,
15,
15,
12,
12,
6,
6,
0,
0,
6,
6,
0,
0,
5,
5,
6,
6,
3,
3,
0,
0,
4,
4,
3,
3,
2,
2,
5,
5,
6,
6,
1,
14,
13,
13,
21,
21,
21,
21,
13,
13,
6,
18,
17,
17,
24,
5,
5,
5,
14,
14,
18,
18,
16,
16,
14,
14,
13,
13,
7,
7,
-1,
-1,
2,
2,
9,
9,
1,
18,
17,
17,
14,
0,
3,
14,
14,
26,
26,
26,
26,
10,
11,
11,
3,
3,
0,
0,
7,
7,
6,
18,
17,
6,
7,
7,
3,
3,
11,
11,
8,
8,
12,
12,
10,
10,
2,
2,
-1,
-1,
0,
0,
2,
2,
8,
8,
14,
14,
11,
11,
6,
6,
8,
8,
13,
1,
5,
5,
14,
14,
11,
0,
2,
2,
6,
6,
7,
7,
0,
0,
0,
0,
3,
3,
2,
2,
1,
1,
10,
10,
12,
-1,
0,
0,
7,
7,
8,
8,
7,
7,
3,
3,
0,
0,
4,
4,
4,
4,
12,
12,
16,
1,
2,
2,
11,
11,
16,
1,
1,
1,
0,
0,
2,
15,
14,
14,
16,
1,
2,
2,
5,
5,
1,
1,
10,
10,
15,
2,
2,
17,
16,
28,
28,
15,
16,
1,
5,
5,
8,
8,
10,
10,
7,
7,
0,
0,
4,
4,
7,
21,
20,
20,
13,
-1,
0,
0,
4,
4,
4,
4,
-1,
-1,
3,
3,
10,
-1,
0,
0,
3,
3,
1,
1,
6,
6,
6,
6,
0,
0,
4,
4,
0,
0,
0,
0,
1,
1,
3,
3,
2,
2,
0,
0,
1,
1,
0,
0,
-1,
-1,
0,
0,
0,
0,
0,
15,
14,
14,
17,
17,
11,
11,
6,
6,
0,
0,
-2,
-2,
2,
2,
3,
3,
0,
0,
2,
2,
5,
5,
1,
16,
15,
15,
16,
16,
12,
12,
2,
2,
4,
21,
19,
19,
20,
20,
16,
3,
3,
3,
-1,
-1,
2,
2,
10,
10,
15,
15,
18,
2,
2,
2,
6,
18,
17,
17,
20,
20,
11,
11,
7,
7,
2,
2,
8,
8,
1,
1,
7,
7,
12,
12,
2,
2,
5,
5,
9,
9,
11,
-1,
2,
2,
5,
5,
2,
2,
-1,
-1,
3,
3,
3,
14,
14,
14,
22,
3,
4,
21,
20,
35,
34,
34,
33,
19,
20,
2,
7,
7,
8,
8,
14,
25,
24,
24,
16,
1,
4,
32,
32,
32,
36,
8,
9,
9,
13,
24,
22,
22,
20,
20,
15,
15,
10,
10,
5,
5,
4,
4,
7,
7,
6,
6,
13,
13,
20,
20,
14,
14,
8,
8,
15,
15,
25,
25,
22,
4,
4,
18,
16,
16,
22,
22,
20,
20,
15,
0,
1,
1,
3,
3,
-1,
-1,
2,
2,
3,
3,
6,
6,
0,
0,
-1,
-1,
0,
0,
-1,
-1,
0,
0,
1,
1,
2,
2,
3,
3,
11,
11,
7,
7,
14,
14,
13,
0,
0,
11,
11,
25,
24,
11,
11,
11,
12,
12,
15,
15,
8,
8,
8,
8,
3,
3,
1,
1,
8,
8,
4,
4,
0,
0,
1,
1,
1,
1,
1,
1,
2,
2,
5,
5,
10,
10,
16,
16,
15,
15,
11,
0,
3,
17,
16,
16,
16,
16,
11,
11,
9,
9,
9,
9,
1,
1,
4,
4,
5,
5,
4,
4,
-1,
-1,
-1,
-1,
3,
3,
9,
9,
7,
7,
3,
3,
1,
1,
1,
1,
3,
3,
-1,
-1,
0,
0,
6,
6,
7,
7,
5,
5,
7,
7,
2,
2,
3,
3,
2,
2,
9,
9,
5,
5,
1,
1,
0,
0,
10,
10,
8,
8,
-1,
-1,
4,
4,
5,
30,
28,
28,
29,
16,
16,
2,
2,
2,
3,
3,
5,
5,
6,
6,
8,
8,
6,
6,
7,
7,
2,
2,
-1,
-1,
2,
2,
-1,
-1,
0,
0,
1,
1,
10,
10,
19,
19,
13,
13,
20,
47,
47,
32,
32,
10,
11,
11,
9,
21,
20,
20,
12,
12,
10,
10,
15,
3,
4,
4,
0,
0,
5,
5,
4,
4,
5,
17,
16,
16,
10,
10,
14,
27,
26,
26,
20,
5,
6,
6,
4,
4,
10,
10,
4,
4,
-1,
-1,
5,
5,
11,
11,
13,
13,
7,
7,
2,
17,
16,
16,
9,
9,
9,
21,
20,
20,
16,
16,
6,
6,
3,
18,
17,
17,
11,
11,
7,
7,
11,
11,
18,
4,
6,
6,
10,
10,
10,
10,
2,
2,
3,
3,
6,
6,
2,
13,
13,
13,
14,
14,
9,
9,
0,
0,
10,
38,
37,
50,
47,
14,
14,
2,
7,
7,
11,
11,
11,
11,
13,
13,
7,
7,
6,
6,
2,
2,
1,
1,
3,
3,
11,
11,
11,
0,
3,
3,
8,
8,
0,
0,
4,
4,
11,
11,
14,
14,
7,
7,
0,
0,
2,
2,
5,
5,
2,
2,
0,
0,
1,
12,
11,
11,
15,
15,
10,
10,
12,
12,
6,
6,
2,
2,
7,
7,
15,
15,
13,
13,
8,
8,
0,
0,
6,
6,
6,
6,
3,
3,
0,
0,
0,
0,
0,
0,
-1,
10,
9,
9,
16,
16,
19,
19,
24,
24,
25,
11,
13,
0,
2,
2,
9,
9,
13,
13,
12,
12,
5,
5,
5,
5,
9,
9,
11,
11,
11,
11,
8,
8,
11,
11,
7,
18,
18,
18,
18,
18,
11,
11,
7,
7,
10,
10,
5,
5,
0,
0,
3,
3,
1,
1,
-1,
-1,
0,
0,
4,
4,
0,
0,
6,
6,
1,
1,
6,
6,
5,
22,
22,
22,
17,
5,
5,
5,
2,
2,
1,
14,
14,
14,
22,
22,
23,
12,
14,
0,
5,
5,
8,
8,
4,
4,
1,
1,
1,
16,
16,
16,
14,
14,
6,
6,
5,
5,
10,
10,
4,
4,
2,
2,
-1,
-1,
-1,
13,
11,
11,
14,
14,
5,
5,
7,
7,
8,
8,
4,
4,
9,
9,
12,
12,
6,
6,
5,
5,
-1,
-1,
1,
1,
4,
4,
8,
8,
8,
8,
6,
6,
0,
0,
2,
2,
0,
0,
3,
3,
2,
2,
1,
1,
6,
31,
29,
29,
32,
14,
14,
0,
0,
0,
10,
10,
15,
15,
8,
8,
1,
1,
10,
10,
14,
14,
7,
7,
6,
6,
6,
6,
7,
7,
13,
13,
10,
10,
11,
26,
26,
15,
15,
3,
4,
4,
4,
4,
8,
8,
2,
2,
1,
1,
4,
4,
1,
1,
2,
2,
5,
5,
7,
7,
6,
6,
0,
0,
-1,
-1,
-1,
-1,
1,
1,
1,
1,
-1,
-1,
-1,
-1,
2,
2,
9,
9,
12,
12,
21,
21,
28,
28,
23,
2,
4,
31,
31,
31,
35,
21,
22,
22,
17,
17,
13,
13,
8,
8,
4,
4,
13,
13,
22,
7,
8,
8,
3,
3,
0,
0,
8,
8,
6,
6,
4,
4,
6,
6,
2,
2,
0,
0,
3,
3,
3,
3,
1,
1,
3,
3,
9,
9,
11,
11,
10,
10,
4,
4,
6,
6,
9,
9,
6,
6,
-1,
-1,
5,
5,
10,
10,
8,
8,
8,
8,
0,
0,
6,
6,
1,
1,
9,
9,
0,
0,
7,
7,
11,
11,
14,
14,
10,
10,
2,
2,
0,
0,
3,
3,
2,
2,
-1,
-1,
-1,
-1,
3,
3,
7,
7,
10,
10,
8,
8,
12,
12,
18,
18,
20,
20,
20,
20,
14,
2,
2,
2,
11,
23,
23,
23,
33,
33,
24,
24,
15,
15,
13,
0,
0,
0,
7,
7,
5,
5,
1,
1,
5,
5,
11,
11,
12,
12,
6,
6,
6,
6,
9,
9,
10,
10,
7,
7,
0,
0,
-1,
-1,
0,
0,
0,
0,
5,
5,
8,
8,
8,
8,
4,
4,
0,
0,
2,
2,
0,
11,
11,
11,
18,
18,
13,
13,
10,
10,
5,
18,
16,
16,
8,
8,
6,
6,
13,
13,
10,
-1,
1,
1,
5,
5,
4,
4,
6,
6,
6,
6,
10,
10,
13,
13,
16,
16,
14,
14,
6,
6,
7,
7,
8,
8,
3,
20,
20,
20,
20,
8,
9,
9,
0,
0,
2,
2,
3,
3,
2,
2,
0,
0,
0,
0,
-1,
-1,
3,
3,
6,
6,
4,
4,
0,
0,
7,
7,
10,
10,
11,
11,
10,
10,
10,
10,
1,
1,
3,
3,
1,
1,
0,
0,
0,
0,
5,
5,
2,
20,
19,
19,
28,
13,
14,
0,
2,
14,
14,
14,
16,
16,
18,
18,
18,
3,
4,
4,
8,
8,
0,
0,
2,
2,
8,
8,
9,
9,
1,
1,
3,
3,
0,
0,
10,
10,
9,
9,
3,
3,
1,
1,
8,
8,
2,
2,
3,
3,
10,
10,
10,
10,
9,
9,
2,
2,
10,
10,
5,
5,
3,
3,
5,
5,
7,
7,
7,
7,
2,
2,
0,
0,
2,
2,
3,
3,
5,
5,
8,
8,
10,
10,
7,
7,
1,
1,
3,
3,
6,
6,
12,
12,
5,
5,
3,
3,
11,
11,
8,
8,
1,
1,
2,
2,
3,
3,
2,
2,
4,
17,
16,
5,
5,
5,
0,
11,
10,
10,
6,
6,
-1,
-1,
2,
2,
8,
8,
2,
2,
0,
12,
12,
12,
16,
16,
10,
-1,
2,
2,
6,
6,
0,
0,
2,
2,
8,
8,
1,
1,
10,
10,
15,
28,
28,
28,
18,
0,
2,
2,
7,
7,
11,
11,
8,
8,
1,
1,
0,
0,
0,
0,
0,
0,
1,
1,
-1,
-1,
0,
0,
3,
3,
6,
6,
7,
7,
6,
6,
6,
6,
14,
2,
2,
2,
3,
3,
0,
0,
8,
8,
11,
11,
5,
5,
0,
0,
2,
2,
-1,
-1,
-1,
-1,
0,
0,
4,
4,
3,
3,
0,
0,
2,
2,
0,
0,
3,
3,
5,
5,
6,
6,
9,
9,
16,
16,
16,
2,
3,
3,
7,
7,
10,
10,
4,
4,
11,
0,
3,
16,
15,
15,
17,
17,
10,
10,
1,
1,
2,
2,
11,
11,
15,
15,
7,
7,
6,
6,
9,
9,
16,
2,
5,
21,
20,
20,
12,
-1,
0,
0,
-1,
-1,
-1,
-1,
-1,
-1,
1,
1,
-1,
-1,
-1,
-1,
1,
1,
1,
1,
3,
3,
4,
4,
3,
3,
0,
0,
0,
0,
-1,
-1,
2,
2,
6,
6,
6,
6,
2,
2,
2,
2,
8,
8,
7,
7,
0,
0,
2,
2,
8,
8,
17,
17,
16,
16,
8,
8,
7,
7,
9,
25,
24,
24,
22,
7,
7,
7,
3,
3,
3,
3,
2,
2,
1,
1,
0,
0,
1,
1,
7,
7,
7,
7,
0,
0,
0,
0,
10,
21,
20,
20,
17,
6,
6,
6,
2,
2,
6,
6,
6,
6,
4,
4,
0,
0,
-1,
-1,
2,
2,
4,
4,
3,
3,
3,
3,
3,
3,
4,
4,
6,
6,
4,
16,
16,
35,
34,
46,
46,
31,
32,
8,
8,
8,
7,
23,
22,
22,
31,
31,
29,
29,
23,
5,
5,
5,
4,
4,
0,
0,
0,
13,
12,
24,
24,
24,
24,
24,
14,
3,
3,
3,
3,
3,
9,
9,
13,
13,
14,
14,
5,
5,
0,
0,
2,
2,
2,
2,
6,
6,
5,
5,
2,
2,
5,
5,
1,
1,
0,
0,
5,
5,
7,
7,
2,
2,
-1,
-1,
4,
4,
6,
6,
2,
2,
0,
0,
2,
2,
1,
1,
2,
2,
2,
2,
0,
0,
-1,
-1,
7,
7,
2,
2,
7,
7,
7,
7,
2,
2,
3,
3,
4,
4,
-1,
-1,
-1,
-1,
2,
2,
3,
3,
9,
9,
10,
10,
11,
11,
14,
14,
12,
12,
3,
3,
4,
4,
8,
8,
8,
8,
10,
10,
3,
3,
2,
2,
4,
4,
5,
5,
2,
2,
2,
2,
6,
23,
23,
23,
25,
7,
8,
8,
4,
4,
7,
7,
0,
11,
10,
10,
15,
15,
11,
11,
4,
4,
3,
3,
-1,
-1,
0,
0,
1,
1,
1,
1,
3,
3,
3,
3,
8,
8,
3,
3,
3,
23,
22,
37,
36,
19,
19,
19,
10,
10,
7,
7,
4,
4,
0,
0,
-1,
-1,
2,
2,
11,
11,
17,
17,
16,
16,
18,
18,
12,
0,
2,
2,
8,
8,
5,
5,
5,
5,
10,
10,
14,
14,
13,
13,
5,
5,
1,
1,
1,
1,
4,
4,
3,
3,
7,
7,
3,
3,
2,
2,
0,
0,
0,
0,
1,
1,
2,
2,
-2,
-2,
1,
1,
6,
6,
3,
3,
0,
0,
0,
0,
3,
3,
11,
11,
16,
16,
12,
12,
5,
5,
0,
0,
3,
3,
10,
10,
16,
16,
13,
0,
2,
2,
6,
6,
7,
7,
9,
9,
8,
8,
2,
2,
5,
5,
11,
11,
13,
13,
4,
4,
5,
5,
5,
5,
6,
25,
24,
24,
31,
19,
19,
19,
13,
0,
1,
1,
11,
11,
17,
17,
21,
21,
22,
22,
20,
20,
10,
10,
1,
1,
-2,
-2,
7,
7,
16,
16,
23,
23,
30,
30,
23,
7,
8,
8,
2,
2,
8,
8,
10,
10,
14,
14,
13,
2,
3,
3,
2,
2,
4,
4,
5,
5,
3,
3,
6,
6,
0,
0,
2,
2,
0,
0,
-1,
-1,
6,
6,
13,
13,
18,
18,
15,
15,
8,
8,
5,
5,
3,
3,
-1,
-1,
0,
17,
16,
16,
22,
22,
20,
20,
14,
0,
0,
19,
18,
18,
26,
26,
19,
3,
3,
3,
4,
4,
8,
8,
13,
13,
11,
0,
3,
3,
4,
4,
1,
1,
7,
7,
10,
10,
2,
2,
2,
18,
18,
18,
18,
18,
10,
10,
5,
5,
1,
1,
-1,
-1,
3,
3,
1,
1,
10,
10,
15,
15,
15,
15,
10,
10,
8,
8,
3,
3,
6,
6,
4,
15,
13,
13,
10,
10,
20,
20,
11,
-1,
1,
1,
10,
10,
2,
2,
10,
10,
3,
3,
4,
4,
4,
4,
10,
10,
11,
0,
1,
1,
10,
21,
21,
21,
13,
2,
11,
23,
22,
22,
19,
19,
14,
0,
2,
13,
12,
12,
16,
16,
23,
23,
22,
8,
10,
10,
2,
2,
6,
6,
10,
10,
6,
6,
4,
4,
-1,
-1,
4,
4,
10,
28,
27,
38,
37,
22,
22,
3,
3,
3,
4,
4,
13,
13,
18,
18,
18,
18,
16,
1,
1,
1,
7,
7,
1,
1,
4,
4,
4,
4,
0,
0,
-1,
-1,
4,
4,
3,
3,
9,
9,
15,
15,
19,
19,
10,
-1,
0,
0,
1,
1,
2,
2,
0,
0,
6,
6,
9,
9,
3,
18,
17,
17,
17,
17,
7,
7,
6,
6,
13,
13,
8,
8,
0,
0,
1,
1,
6,
6,
6,
6,
5,
5,
6,
17,
16,
16,
6,
6,
0,
0,
3,
3,
-1,
-1,
6,
6,
11,
11,
7,
7,
0,
0,
2,
2,
-1,
-1,
2,
2,
3,
3,
8,
8,
6,
6,
2,
2,
7,
7,
3,
3,
5,
5,
5,
5,
11,
11,
5,
5,
11,
23,
22,
9,
10,
10,
8,
23,
22,
22,
23,
11,
11,
11,
2,
2,
2,
2,
10,
10,
13,
0,
2,
20,
20,
31,
30,
13,
14,
-1,
0,
0,
3,
3,
8,
8,
2,
2,
6,
6,
4,
4,
1,
1,
2,
2,
4,
4,
9,
9,
7,
7,
7,
7,
3,
3,
-1,
-1,
3,
3,
1,
1,
9,
9,
-1,
-1,
3,
19,
19,
19,
23,
7,
8,
8,
5,
5,
4,
4,
0,
0,
7,
7,
8,
8,
10,
10,
13,
13,
16,
16,
16,
16,
14,
14,
7,
7,
5,
5,
15,
15,
16,
16,
11,
11,
7,
7,
-1,
-1,
2,
16,
15,
15,
11,
11,
5,
5,
3,
3,
0,
0,
7,
7,
5,
5,
5,
5,
2,
2,
5,
5,
7,
7,
2,
2,
0,
0,
2,
2,
2,
2,
6,
6,
4,
4,
11,
11,
18,
18,
18,
18,
11,
0,
1,
1,
10,
10,
15,
15,
14,
14,
13,
13,
6,
6,
8,
8,
9,
9,
6,
6,
14,
14,
18,
7,
7,
7,
1,
1,
4,
4,
14,
14,
16,
3,
3,
3,
1,
1,
0,
0,
1,
1,
6,
6,
2,
2,
6,
6,
14,
14,
10,
10,
6,
6,
2,
2,
-1,
-1,
0,
0,
2,
2,
3,
3,
6,
6,
6,
6,
4,
4,
9,
9,
7,
7,
3,
16,
16,
16,
16,
2,
2,
2,
8,
8,
6,
6,
-1,
-1,
4,
4,
6,
6,
10,
10,
2,
2,
6,
6,
8,
8,
4,
4,
1,
1,
4,
4,
3,
3,
2,
2,
7,
7,
12,
12,
13,
2,
4,
4,
2,
2,
-1,
-1,
-1,
-1,
-1,
-1,
1,
1,
8,
8,
10,
10,
5,
5,
-1,
-1,
2,
2,
2,
2,
3,
3,
-1,
-1,
-1,
-1,
6,
6,
3,
3,
0,
0,
0,
0,
5,
5,
0,
12,
11,
22,
21,
21,
16,
16,
10,
-1,
0,
0,
10,
10,
15,
15,
7,
7,
7,
7,
11,
11,
13,
13,
14,
14,
7,
7,
1,
12,
12,
12,
15,
15,
9,
9,
2,
16,
16,
28,
26,
14,
14,
14,
6,
6,
2,
2,
-1,
-1,
6,
6,
15,
15,
19,
19,
20,
20,
12,
0,
5,
16,
15,
15,
19,
6,
6,
6,
6,
6,
11,
11,
11,
0,
1,
1,
7,
7,
4,
4,
2,
2,
2,
2,
11,
11,
3,
3,
3,
3,
2,
2,
3,
3,
5,
5,
1,
1,
