EMG_S1/DS0147.CSV

Memory Length,4000,
Trigger Level,0.00000e+00,
Source,CH1,
Probe,1.0X,
Vertical Units,V,
Vertical Scale,1.00000e+00,
Vertical Position,4.00000e-02,
Horizontal Units,S,
Horizontal Scale,1.00000e-01,
Horizontal Position,0.0000000e+00,
Horizontal Mode,Roll Mode,
Waveform Last Dot Address,4000,
Sampling Period,4.00000e-04,
Firmware,V1.14,
Time, ,
Mode,Fast,
Waveform Data,
21,
21,
22,
22,
13,
13,
6,
6,
3,
3,
2,
2,
7,
7,
6,
6,
6,
6,
10,
10,
10,
-1,
1,
1,
1,
1,
4,
4,
11,
11,
9,
9,
3,
3,
3,
3,
10,
10,
7,
7,
8,
8,
13,
13,
8,
8,
6,
6,
0,
0,
3,
3,
3,
3,
3,
3,
5,
5,
6,
6,
2,
2,
3,
3,
7,
7,
11,
11,
5,
5,
11,
11,
14,
1,
1,
1,
3,
3,
3,
3,
4,
4,
8,
8,
0,
0,
0,
0,
1,
1,
0,
0,
-1,
-1,
2,
2,
0,
0,
1,
1,
0,
0,
-1,
-1,
3,
3,
5,
5,
6,
6,
0,
0,
5,
5,
-1,
-1,
0,
0,
1,
1,
2,
2,
1,
1,
6,
6,
6,
6,
3,
3,
0,
0,
5,
5,
5,
5,
0,
0,
7,
7,
2,
2,
4,
4,
6,
6,
6,
6,
2,
2,
12,
12,
16,
16,
7,
7,
11,
25,
25,
38,
38,
38,
40,
29,
30,
4,
5,
32,
32,
32,
37,
37,
35,
35,
28,
28,
18,
18,
10,
10,
6,
6,
2,
2,
3,
3,
7,
7,
10,
10,
15,
15,
15,
15,
12,
12,
15,
15,
20,
20,
19,
19,
12,
12,
2,
2,
2,
2,
5,
5,
5,
5,
6,
6,
6,
6,
5,
5,
2,
2,
2,
2,
4,
4,
1,
1,
-1,
-1,
1,
1,
2,
2,
3,
3,
2,
2,
2,
2,
6,
6,
2,
2,
4,
4,
2,
2,
2,
2,
-1,
-1,
2,
2,
6,
6,
14,
33,
32,
32,
23,
6,
6,
6,
3,
3,
13,
24,
23,
23,
18,
18,
10,
10,
3,
14,
12,
12,
3,
3,
-1,
-1,
7,
20,
18,
18,
13,
13,
7,
7,
9,
9,
7,
7,
7,
18,
17,
17,
18,
18,
12,
-1,
1,
1,
3,
3,
2,
2,
2,
2,
2,
2,
4,
4,
3,
3,
4,
4,
4,
4,
0,
0,
-1,
-1,
0,
0,
0,
0,
-2,
-2,
0,
0,
-1,
-1,
1,
1,
0,
0,
6,
6,
6,
6,
6,
6,
5,
5,
2,
2,
-1,
-1,
-1,
-1,
3,
3,
4,
4,
-1,
-1,
-1,
-1,
2,
2,
4,
4,
4,
4,
2,
2,
2,
2,
1,
1,
4,
22,
22,
22,
23,
11,
11,
11,
3,
3,
0,
0,
9,
9,
13,
13,
11,
11,
4,
4,
-1,
-1,
0,
11,
10,
10,
7,
7,
0,
16,
16,
30,
30,
30,
30,
17,
18,
18,
8,
8,
0,
0,
6,
6,
10,
10,
16,
16,
11,
0,
1,
1,
4,
4,
5,
5,
5,
5,
5,
5,
8,
8,
5,
5,
7,
7,
16,
16,
14,
14,
9,
9,
4,
4,
2,
2,
3,
3,
2,
2,
-1,
-1,
0,
0,
0,
0,
2,
2,
-1,
-1,
0,
0,
5,
5,
4,
4,
1,
1,
0,
0,
4,
4,
12,
12,
7,
7,
0,
0,
8,
8,
14,
14,
9,
9,
10,
10,
10,
-1,
0,
0,
6,
17,
16,
16,
10,
-1,
0,
0,
3,
3,
8,
8,
7,
7,
4,
4,
0,
0,
7,
7,
7,
7,
9,
9,
2,
2,
0,
0,
-1,
-1,
2,
2,
2,
2,
11,
11,
9,
9,
6,
6,
2,
2,
1,
1,
6,
6,
11,
11,
10,
10,
6,
6,
5,
5,
5,
5,
6,
6,
11,
11,
10,
10,
2,
2,
6,
6,
10,
10,
9,
9,
4,
4,
0,
0,
2,
2,
2,
2,
-1,
-1,
4,
4,
6,
6,
11,
11,
8,
8,
3,
3,
-1,
-1,
2,
2,
3,
3,
3,
3,
2,
2,
3,
3,
2,
2,
1,
1,
3,
3,
5,
5,
-1,
-1,
-1,
-1,
5,
5,
9,
9,
4,
4,
-1,
-1,
8,
8,
11,
11,
13,
13,
6,
6,
5,
5,
7,
7,
0,
0,
8,
8,
10,
10,
4,
4,
5,
5,
11,
11,
8,
8,
0,
0,
4,
4,
7,
20,
19,
19,
16,
2,
2,
2,
2,
2,
0,
0,
8,
8,
12,
12,
13,
13,
12,
12,
5,
5,
7,
7,
8,
8,
8,
8,
9,
21,
19,
19,
15,
15,
6,
6,
2,
2,
0,
0,
4,
4,
2,
2,
7,
7,
10,
10,
13,
13,
4,
4,
3,
3,
6,
6,
-1,
-1,
0,
0,
1,
1,
0,
0,
2,
2,
4,
4,
1,
1,
8,
8,
7,
7,
7,
7,
4,
4,
8,
8,
9,
9,
2,
2,
0,
0,
0,
0,
7,
7,
13,
13,
16,
5,
5,
5,
0,
14,
13,
13,
15,
15,
7,
7,
3,
3,
0,
0,
7,
7,
13,
13,
12,
12,
8,
8,
5,
5,
14,
14,
10,
10,
3,
3,
-1,
-1,
7,
19,
19,
19,
14,
14,
10,
10,
4,
4,
3,
3,
2,
2,
6,
6,
13,
13,
12,
12,
10,
10,
15,
15,
15,
0,
2,
2,
12,
23,
22,
22,
21,
8,
10,
-1,
0,
11,
11,
11,
18,
18,
14,
0,
1,
1,
9,
9,
9,
9,
9,
9,
7,
7,
4,
4,
-1,
-1,
8,
8,
8,
8,
8,
8,
0,
14,
14,
14,
19,
19,
10,
10,
1,
1,
11,
0,
1,
1,
6,
6,
11,
11,
6,
6,
9,
9,
9,
9,
11,
11,
6,
6,
1,
16,
16,
16,
21,
10,
10,
-1,
0,
0,
1,
1,
0,
0,
3,
3,
3,
3,
3,
3,
0,
0,
8,
8,
7,
7,
6,
6,
11,
11,
15,
15,
15,
15,
8,
8,
11,
11,
19,
19,
15,
0,
2,
15,
14,
14,
15,
15,
16,
16,
15,
15,
11,
11,
11,
11,
10,
10,
2,
2,
0,
0,
5,
5,
5,
5,
2,
2,
6,
6,
11,
11,
17,
17,
14,
14,
10,
10,
12,
12,
8,
8,
-1,
-1,
0,
0,
4,
4,
10,
10,
13,
13,
9,
9,
1,
1,
-1,
-1,
0,
0,
8,
8,
13,
13,
12,
12,
17,
17,
12,
1,
8,
22,
22,
22,
15,
2,
6,
6,
9,
9,
2,
2,
0,
0,
4,
4,
7,
7,
5,
5,
0,
0,
3,
3,
7,
7,
10,
10,
4,
4,
4,
4,
4,
4,
3,
3,
0,
14,
13,
13,
14,
14,
8,
8,
2,
2,
4,
4,
8,
8,
3,
3,
9,
9,
6,
6,
11,
11,
13,
13,
12,
12,
14,
14,
7,
7,
11,
11,
16,
16,
18,
7,
8,
8,
8,
8,
13,
13,
4,
4,
8,
19,
18,
18,
10,
10,
5,
5,
3,
3,
1,
1,
-1,
-1,
5,
5,
10,
10,
15,
15,
14,
14,
10,
10,
6,
6,
0,
0,
6,
6,
14,
14,
19,
19,
24,
24,
25,
14,
14,
3,
3,
3,
4,
4,
11,
11,
17,
17,
9,
9,
2,
2,
-1,
-1,
8,
8,
2,
2,
0,
0,
7,
7,
7,
7,
7,
7,
11,
11,
4,
4,
8,
8,
15,
15,
16,
16,
14,
14,
7,
7,
0,
0,
2,
2,
10,
10,
14,
14,
13,
13,
6,
6,
3,
3,
2,
2,
3,
3,
9,
9,
11,
11,
6,
6,
2,
2,
-1,
-1,
0,
0,
3,
3,
7,
7,
2,
2,
7,
7,
10,
10,
12,
12,
13,
13,
5,
5,
0,
0,
-1,
-1,
0,
0,
9,
9,
16,
16,
14,
14,
8,
8,
7,
18,
16,
1,
3,
14,
14,
14,
14,
14,
10,
10,
14,
14,
10,
10,
1,
1,
7,
7,
11,
11,
14,
14,
11,
11,
10,
10,
0,
0,
0,
0,
4,
4,
2,
2,
0,
0,
0,
0,
1,
1,
1,
1,
5,
5,
4,
4,
2,
14,
13,
13,
15,
15,
11,
11,
8,
8,
4,
4,
0,
0,
1,
1,
3,
3,
7,
7,
10,
10,
5,
5,
4,
4,
0,
0,
6,
6,
14,
14,
6,
6,
0,
0,
9,
9,
14,
14,
7,
7,
2,
13,
12,
12,
7,
7,
0,
0,
2,
2,
0,
11,
11,
11,
10,
10,
2,
2,
3,
3,
10,
10,
9,
9,
3,
3,
11,
11,
7,
7,
4,
4,
12,
12,
6,
6,
0,
0,
7,
7,
15,
2,
3,
3,
8,
8,
9,
9,
10,
10,
16,
16,
18,
18,
10,
-1,
0,
0,
6,
6,
9,
9,
10,
10,
10,
10,
7,
7,
4,
4,
4,
4,
7,
7,
7,
7,
6,
6,
4,
4,
1,
1,
2,
2,
0,
0,
0,
0,
1,
1,
-1,
11,
11,
11,
11,
11,
3,
3,
4,
4,
1,
1,
8,
24,
24,
35,
34,
34,
25,
6,
7,
7,
7,
7,
11,
11,
17,
17,
23,
23,
21,
21,
15,
0,
3,
3,
9,
9,
1,
1,
4,
4,
9,
9,
13,
2,
10,
43,
43,
57,
55,
36,
37,
8,
10,
10,
12,
12,
16,
16,
11,
11,
14,
14,
19,
19,
20,
20,
11,
11,
3,
3,
6,
6,
1,
1,
8,
8,
4,
4,
0,
0,
8,
8,
15,
15,
14,
37,
37,
37,
33,
10,
10,
10,
6,
6,
14,
14,
17,
17,
15,
15,
9,
9,
8,
8,
6,
6,
7,
7,
2,
2,
0,
0,
2,
2,
2,
2,
4,
4,
3,
3,
8,
8,
14,
14,
11,
11,
9,
9,
8,
8,
6,
6,
4,
4,
3,
3,
5,
5,
4,
4,
0,
0,
7,
23,
23,
23,
26,
7,
7,
7,
16,
31,
31,
31,
31,
31,
23,
23,
15,
15,
6,
6,
2,
2,
-1,
-1,
6,
19,
18,
18,
19,
7,
8,
8,
0,
0,
1,
1,
5,
5,
2,
2,
10,
10,
9,
9,
4,
4,
0,
0,
5,
5,
10,
10,
2,
2,
11,
11,
12,
12,
6,
6,
3,
3,
4,
4,
4,
21,
21,
21,
16,
2,
5,
5,
9,
9,
4,
4,
11,
0,
1,
13,
11,
11,
18,
18,
14,
14,
7,
7,
6,
6,
0,
0,
3,
14,
13,
13,
14,
14,
21,
21,
19,
6,
7,
7,
4,
4,
2,
2,
4,
4,
0,
0,
3,
3,
8,
8,
11,
11,
16,
5,
6,
6,
-1,
-1,
1,
1,
4,
4,
3,
14,
14,
14,
19,
8,
9,
9,
2,
2,
0,
0,
2,
2,
1,
1,
2,
2,
0,
0,
2,
2,
5,
5,
8,
8,
9,
9,
0,
0,
0,
0,
6,
6,
15,
15,
9,
9,
2,
2,
0,
0,
9,
9,
9,
9,
11,
23,
22,
22,
12,
12,
4,
4,
-1,
-1,
9,
9,
8,
8,
10,
10,
16,
1,
2,
14,
14,
14,
10,
-1,
2,
2,
-1,
-1,
3,
3,
0,
0,
-1,
-1,
7,
7,
12,
12,
11,
-1,
0,
0,
8,
8,
16,
16,
14,
-1,
2,
2,
6,
6,
2,
2,
2,
2,
2,
2,
11,
11,
16,
16,
7,
7,
3,
3,
0,
0,
-1,
-1,
2,
2,
2,
2,
0,
0,
0,
0,
3,
3,
0,
0,
3,
3,
-1,
-1,
0,
0,
5,
5,
9,
9,
11,
11,
12,
12,
6,
6,
10,
10,
13,
13,
13,
13,
21,
33,
32,
32,
31,
18,
19,
2,
3,
19,
18,
18,
23,
23,
15,
15,
16,
16,
9,
9,
3,
3,
3,
3,
5,
5,
2,
2,
-1,
-1,
3,
3,
7,
7,
4,
4,
0,
0,
-1,
-1,
0,
0,
4,
4,
10,
10,
13,
13,
20,
20,
26,
15,
16,
0,
3,
3,
12,
12,
16,
16,
16,
16,
14,
14,
13,
13,
5,
5,
0,
0,
-1,
-1,
-1,
-1,
5,
5,
8,
8,
6,
6,
5,
5,
7,
7,
9,
9,
8,
8,
3,
3,
1,
1,
1,
1,
2,
2,
4,
4,
0,
0,
6,
6,
10,
10,
6,
6,
2,
2,
1,
1,
3,
3,
0,
0,
10,
10,
17,
17,
19,
19,
15,
15,
6,
6,
8,
8,
16,
16,
14,
14,
16,
16,
13,
0,
1,
1,
8,
8,
13,
13,
8,
8,
6,
6,
4,
4,
7,
7,
0,
0,
6,
6,
2,
2,
9,
9,
5,
5,
3,
3,
8,
8,
8,
8,
1,
1,
7,
7,
5,
5,
2,
2,
7,
7,
10,
10,
5,
5,
1,
1,
0,
0,
4,
4,
8,
8,
10,
10,
15,
15,
14,
0,
1,
1,
6,
6,
7,
7,
2,
2,
7,
7,
0,
0,
8,
8,
9,
9,
4,
4,
5,
5,
6,
6,
6,
6,
1,
1,
5,
5,
5,
5,
5,
5,
0,
0,
-1,
-1,
1,
1,
1,
15,
14,
28,
27,
27,
32,
32,
27,
11,
12,
12,
7,
7,
2,
2,
7,
7,
15,
15,
20,
20,
17,
17,
15,
15,
13,
13,
13,
13,
6,
6,
0,
0,
3,
3,
7,
7,
5,
5,
11,
11,
14,
14,
6,
6,
3,
3,
0,
0,
0,
0,
6,
6,
5,
5,
7,
7,
8,
8,
5,
5,
6,
6,
5,
5,
2,
2,
5,
5,
6,
6,
4,
4,
4,
4,
6,
6,
5,
5,
0,
0,
0,
0,
0,
12,
11,
11,
3,
3,
6,
18,
18,
18,
12,
0,
0,
0,
-1,
-1,
5,
5,
11,
11,
7,
7,
2,
2,
0,
15,
14,
14,
13,
13,
9,
9,
7,
7,
0,
18,
18,
18,
26,
14,
14,
14,
6,
6,
-1,
-1,
1,
1,
9,
9,
7,
7,
0,
0,
0,
0,
4,
4,
13,
13,
14,
0,
3,
21,
20,
20,
21,
2,
3,
3,
4,
18,
18,
18,
11,
0,
2,
2,
7,
7,
6,
6,
4,
4,
6,
6,
6,
6,
1,
1,
6,
6,
4,
4,
3,
18,
17,
17,
21,
5,
5,
16,
15,
15,
15,
15,
8,
8,
10,
10,
5,
5,
1,
1,
3,
3,
10,
10,
13,
0,
0,
0,
7,
32,
32,
32,
27,
6,
6,
6,
3,
3,
7,
7,
8,
8,
5,
5,
6,
6,
11,
11,
19,
19,
16,
16,
9,
9,
14,
14,
10,
10,
7,
7,
1,
1,
7,
7,
12,
12,
15,
15,
15,
15,
18,
18,
20,
20,
13,
13,
7,
7,
2,
2,
9,
9,
10,
10,
6,
6,
4,
4,
3,
3,
6,
6,
6,
6,
0,
0,
2,
2,
5,
5,
0,
0,
1,
1,
4,
4,
13,
13,
7,
7,
2,
16,
16,
16,
13,
1,
5,
5,
7,
7,
2,
2,
10,
10,
10,
-1,
1,
1,
1,
1,
0,
0,
4,
4,
8,
8,
3,
3,
0,
0,
0,
0,
-1,
-1,
5,
5,
11,
11,
8,
8,
14,
14,
13,
13,
7,
7,
10,
10,
2,
2,
6,
6,
8,
8,
2,
2,
11,
11,
14,
14,
7,
7,
6,
6,
3,
3,
9,
9,
15,
15,
13,
13,
9,
9,
4,
25,
24,
13,
14,
-1,
0,
0,
6,
6,
11,
11,
10,
10,
2,
2,
6,
6,
3,
3,
-1,
12,
11,
11,
8,
8,
1,
1,
11,
11,
12,
12,
11,
11,
11,
11,
4,
4,
2,
2,
3,
3,
6,
6,
13,
13,
9,
9,
4,
4,
5,
5,
7,
7,
3,
3,
0,
0,
2,
2,
7,
7,
12,
12,
3,
3,
-1,
10,
10,
10,
10,
-1,
2,
2,
7,
7,
6,
6,
8,
8,
1,
16,
16,
16,
15,
15,
6,
6,
0,
0,
-1,
-1,
6,
6,
8,
8,
14,
14,
15,
15,
6,
6,
0,
0,
1,
1,
1,
1,
2,
2,
8,
8,
16,
16,
14,
14,
14,
14,
16,
16,
9,
9,
1,
16,
16,
16,
19,
19,
12,
0,
2,
2,
7,
7,
7,
7,
7,
7,
3,
3,
3,
3,
0,
0,
3,
3,
0,
0,
2,
2,
4,
4,
3,
3,
2,
2,
0,
0,
1,
1,
0,
0,
2,
2,
0,
0,
1,
1,
-1,
-1,
0,
0,
3,
3,
7,
7,
3,
3,
0,
0,
0,
0,
0,
0,
0,
0,
0,
0,
1,
1,
5,
5,
1,
1,
0,
14,
13,
13,
3,
17,
17,
17,
14,
14,
5,
5,
1,
1,
6,
6,
12,
12,
9,
9,
5,
5,
1,
1,
7,
21,
20,
20,
19,
19,
10,
10,
10,
10,
2,
2,
6,
6,
11,
11,
7,
7,
3,
3,
6,
6,
0,
0,
1,
1,
1,
1,
5,
5,
11,
11,
5,
5,
3,
3,
4,
4,
0,
0,
1,
1,
3,
3,
4,
4,
5,
5,
2,
2,
6,
6,
8,
8,
5,
5,
0,
0,
6,
6,
0,
0,
-1,
-1,
0,
0,
2,
2,
3,
3,
0,
0,
6,
6,
14,
14,
11,
11,
18,
18,
22,
3,
5,
18,
18,
18,
21,
21,
22,
22,
18,
18,
12,
12,
8,
8,
2,
2,
5,
5,
9,
9,
11,
11,
9,
9,
6,
6,
0,
0,
2,
2,
3,
19,
18,
18,
14,
14,
6,
6,
7,
7,
4,
4,
0,
0,
4,
4,
6,
6,
9,
9,
5,
5,
0,
0,
1,
1,
6,
6,
9,
9,
0,
0,
0,
0,
-1,
-1,
2,
2,
3,
3,
5,
5,
4,
4,
13,
13,
11,
11,
14,
14,
24,
24,
20,
7,
8,
8,
1,
1,
5,
5,
0,
11,
11,
11,
14,
0,
1,
14,
13,
13,
14,
14,
10,
10,
7,
7,
6,
6,
0,
0,
8,
8,
14,
14,
11,
11,
4,
4,
6,
6,
7,
7,
1,
1,
0,
0,
4,
4,
0,
0,
6,
6,
1,
1,
10,
10,
7,
7,
3,
3,
8,
8,
10,
10,
9,
9,
5,
5,
-2,
-2,
0,
0,
3,
3,
5,
5,
4,
4,
2,
2,
2,
2,
7,
7,
8,
8,
7,
7,
13,
13,
16,
16,
8,
8,
3,
3,
6,
6,
11,
11,
17,
17,
17,
17,
7,
7,
0,
0,
4,
4,
7,
7,
0,
0,
-1,
-1,
6,
6,
5,
5,
10,
10,
12,
12,
19,
19,
15,
0,
1,
1,
11,
11,
11,
11,
16,
16,
8,
8,
5,
5,
10,
10,
8,
8,
8,
8,
0,
0,
8,
8,
12,
12,
8,
8,
1,
1,
4,
4,
9,
9,
1,
1,
8,
8,
2,
2,
11,
11,
18,
18,
19,
19,
20,
20,
13,
2,
3,
3,
5,
5,
14,
14,
16,
16,
17,
17,
12,
0,
1,
1,
1,
1,
-1,
-1,
6,
6,
12,
12,
11,
11,
7,
7,
0,
0,
0,
0,
-1,
-1,
3,
3,
5,
5,
0,
0,
-1,
-1,
3,
3,
1,
1,
6,
6,
9,
9,
11,
11,
13,
0,
0,
0,
-1,
-1,
0,
0,
2,
2,
10,
10,
4,
4,
7,
19,
18,
3,
3,
14,
13,
13,
10,
10,
6,
6,
0,
14,
14,
14,
18,
18,
15,
15,
13,
13,
6,
6,
2,
2,
0,
0,
5,
5,
8,
8,
8,
8,
15,
15,
21,
21,
12,
-1,
1,
1,
8,
8,
17,
17,
10,
-1,
0,
0,
-1,
-1,
0,
0,
6,
6,
7,
7,
10,
10,
1,
1,
3,
3,
7,
7,
12,
12,
11,
11,
12,
-1,
0,
0,
-1,
-1,
0,
0,
6,
6,
15,
15,
24,
24,
25,
25,
26,
26,
25,
25,
22,
3,
6,
25,
25,
25,
32,
32,
30,
30,
23,
23,
24,
9,
10,
10,
8,
8,
10,
10,
7,
7,
9,
9,
13,
13,
16,
16,
13,
0,
2,
2,
5,
5,
2,
14,
14,
14,
20,
7,
7,
7,
6,
6,
8,
8,
8,
8,
6,
6,
0,
0,
6,
6,
7,
7,
7,
7,
3,
3,
6,
6,
6,
6,
9,
9,
0,
0,
3,
3,
0,
0,
1,
1,
2,
2,
7,
7,
7,
7,
2,
2,
0,
0,
1,
1,
7,
7,
9,
9,
6,
6,
4,
4,
8,
8,
7,
7,
5,
5,
8,
8,
10,
10,
0,
0,
6,
6,
0,
0,
4,
15,
14,
14,
7,
7,
2,
2,
4,
4,
1,
1,
2,
2,
1,
1,
6,
6,
14,
14,
23,
23,
15,
0,
2,
2,
10,
10,
19,
5,
6,
6,
2,
2,
6,
6,
4,
4,
5,
5,
12,
30,
30,
15,
15,
4,
4,
4,
0,
0,
2,
2,
4,
4,
9,
9,
18,
18,
16,
16,
12,
12,
6,
6,
2,
2,
0,
0,
-2,
-2,
1,
1,
6,
6,
14,
14,
15,
15,
16,
16,
10,
10,
4,
4,
12,
12,
3,
3,
3,
3,
1,
1,
0,
0,
10,
10,
3,
3,
10,
10,
13,
1,
4,
4,
12,
12,
12,
12,
10,
10,
8,
23,
22,
10,
10,
10,
6,
6,
10,
10,
5,
5,
7,
7,
6,
6,
8,
8,
2,
2,
10,
10,
14,
28,
27,
27,
27,
5,
5,
5,
4,
4,
8,
8,
14,
14,
16,
16,
10,
10,
2,
2,
0,
0,
-1,
-1,
3,
3,
0,
0,
4,
4,
4,
4,
5,
5,
7,
7,
0,
0,
6,
6,
4,
4,
10,
21,
20,
20,
13,
0,
2,
2,
0,
0,
9,
9,
18,
18,
11,
0,
3,
3,
9,
9,
6,
6,
11,
11,
10,
10,
9,
9,
6,
6,
3,
3,
-1,
-1,
3,
3,
9,
9,
7,
7,
2,
2,
6,
6,
15,
1,
3,
3,
8,
8,
2,
2,
3,
3,
4,
4,
0,
0,
2,
2,
3,
3,
7,
7,
7,
7,
-1,
-1,
5,
5,
6,
6,
2,
2,
7,
7,
6,
6,
0,
0,
0,
0,
2,
2,
-1,
-1,
1,
1,
2,
2,
5,
5,
7,
7,
10,
10,
10,
10,
6,
6,
2,
2,
6,
6,
9,
9,
9,
9,
1,
1,
-1,
-1,
-1,
-1,
2,
2,
1,
1,
4,
4,
4,
4,
0,
0,
0,
0,
3,
3,
5,
5,
0,
0,
-1,
-1,
-1,
-1,
2,
2,
8,
8,
6,
6,
2,
2,
1,
1,
6,
6,
15,
15,
19,
2,
3,
18,
18,
18,
16,
16,
13,
13,
7,
7,
0,
0,
6,
6,
5,
5,
0,
0,
1,
1,
-1,
-1,
1,
1,
2,
2,
0,
0,
1,
1,
0,
0,
-1,
-1,
2,
2,
5,
5,
1,
1,
-1,
-1,
0,
0,
4,
4,
5,
5,
0,
0,
2,
2,
2,
2,
0,
0,
0,
0,
1,
1,
0,
0,
0,
0,
9,
9,
11,
11,
3,
3,
7,
7,
7,
7,
5,
5,
8,
8,
2,
2,
-1,
-1,
-1,
-1,
2,
2,
-1,
-1,
0,
0,
0,
0,
2,
2,
7,
7,
1,
1,
0,
0,
6,
6,
2,
2,
8,
8,
11,
11,
1,
1,
7,
18,
17,
17,
15,
0,
3,
16,
15,
15,
20,
20,
19,
19,
10,
10,
6,
6,
0,
0,
2,
2,
9,
9,
5,
5,
0,
0,
2,
2,
0,
12,
11,
11,
14,
14,
7,
7,
3,
3,
6,
6,
4,
4,
0,
0,
2,
2,
-1,
-1,
0,
0,
2,
2,
8,
8,
12,
0,
0,
0,
6,
6,
6,
6,
2,
2,
-1,
-1,
-2,
-2,
1,
1,
5,
5,
3,
3,
0,
0,
-1,
-1,
2,
13,
12,
12,
11,
11,
6,
6,
5,
5,
0,
0,
3,
3,
4,
4,
0,
0,
1,
1,
10,
10,
3,
3,
3,
3,
4,
4,
-1,
-1,
6,
6,
14,
14,
11,
-1,
1,
1,
9,
9,
14,
14,
11,
11,
2,
2,
7,
7,
16,
16,
9,
9,
2,
2,
7,
7,
5,
5,
2,
2,
6,
6,
7,
7,
0,
0,
4,
4,
3,
3,
2,
2,
1,
1,
0,
0,
0,
0,
4,
4,
8,
8,
6,
6,
7,
7,
8,
8,
11,
11,
4,
4,
2,
2,
0,
0,
3,
3,
6,
6,
6,
6,
2,
2,
0,
0,
1,
1,
0,
0,
0,
0,
-1,
-1,
-1,
-1,
-1,
-1,
2,
2,
2,
2,
3,
3,
6,
6,
8,
8,
8,
8,
12,
12,
11,
11,
8,
8,
12,
12,
8,
8,
0,
0,
5,
5,
13,
13,
16,
16,
16,
16,
14,
14,
6,
6,
11,
11,
13,
13,
17,
6,
6,
6,
6,
6,
1,
1,
0,
0,
2,
2,
4,
4,
1,
1,
8,
8,
4,
4,
7,
7,
13,
13,
14,
14,
6,
6,
2,
2,
9,
9,
10,
10,
7,
7,
1,
14,
14,
14,
14,
2,
2,
2,
0,
0,
7,
7,
7,
7,
1,
1,
8,
8,
10,
10,
10,
10,
11,
11,
8,
8,
1,
1,
6,
6,
15,
15,
13,
13,
5,
5,
0,
0,
2,
2,
10,
10,
16,
16,
13,
0,
2,
2,
8,
8,
11,
11,
14,
1,
2,
2,
6,
6,
8,
8,
6,
6,
5,
5,
4,
4,
6,
6,
2,
2,
10,
10,
15,
15,
14,
14,
9,
9,
1,
1,
4,
4,
3,
3,
10,
21,
