EMG_S1/DS0152.CSV

Memory Length,4000,
Trigger Level,0.00000e+00,
Source,CH1,
Probe,1.0X,
Vertical Units,V,
Vertical Scale,1.00000e+00,
Vertical Position,4.00000e-02,
Horizontal Units,S,
Horizontal Scale,1.00000e-01,
Horizontal Position,0.0000000e+00,
Horizontal Mode,Roll Mode,
Waveform Last Dot Address,4000,
Sampling Period,4.00000e-04,
Firmware,V1.14,
Time, ,
Mode,Fast,
Waveform Data,
11,
11,
2,
2,
6,
6,
9,
9,
6,
6,
2,
14,
14,
39,
39,
39,
42,
19,
19,
2,
9,
28,
27,
27,
33,
33,
28,
28,
22,
10,
11,
-1,
2,
2,
2,
2,
3,
3,
5,
5,
4,
4,
1,
1,
3,
3,
6,
6,
12,
12,
16,
16,
15,
15,
10,
10,
8,
8,
4,
4,
0,
0,
2,
2,
6,
6,
2,
2,
0,
0,
0,
0,
0,
0,
3,
3,
2,
2,
7,
7,
6,
6,
2,
2,
4,
4,
-1,
-1,
0,
0,
4,
4,
1,
1,
8,
8,
7,
7,
2,
2,
6,
6,
9,
9,
10,
10,
12,
12,
10,
10,
2,
2,
9,
9,
11,
11,
8,
8,
10,
-1,
0,
0,
6,
6,
7,
7,
8,
8,
5,
5,
0,
11,
11,
23,
22,
22,
17,
6,
6,
6,
0,
0,
7,
7,
11,
11,
3,
3,
10,
24,
24,
24,
24,
24,
14,
14,
7,
7,
5,
17,
16,
16,
20,
20,
16,
16,
6,
6,
7,
7,
17,
17,
19,
8,
9,
9,
8,
21,
20,
20,
13,
13,
3,
3,
9,
9,
18,
18,
16,
16,
8,
8,
5,
5,
0,
12,
11,
22,
21,
21,
14,
14,
6,
6,
6,
6,
5,
5,
7,
7,
4,
4,
6,
6,
6,
6,
6,
6,
14,
14,
12,
12,
9,
9,
10,
10,
8,
8,
1,
1,
4,
4,
6,
6,
2,
2,
9,
9,
7,
7,
7,
7,
2,
2,
7,
7,
11,
11,
13,
13,
11,
11,
9,
9,
6,
6,
1,
1,
-1,
-1,
5,
5,
-1,
-1,
2,
2,
3,
3,
10,
10,
10,
-1,
1,
1,
7,
7,
1,
1,
-1,
-1,
7,
7,
13,
13,
6,
6,
2,
2,
-1,
-1,
2,
2,
4,
4,
-1,
-1,
0,
0,
6,
6,
3,
3,
2,
2,
10,
10,
16,
16,
10,
10,
9,
9,
13,
13,
13,
13,
17,
6,
7,
7,
3,
3,
11,
11,
20,
4,
4,
4,
6,
6,
0,
0,
3,
3,
10,
21,
20,
20,
16,
0,
2,
2,
9,
9,
3,
3,
4,
4,
0,
0,
9,
9,
7,
7,
3,
3,
6,
6,
6,
6,
6,
6,
2,
2,
1,
1,
4,
4,
9,
9,
8,
8,
2,
2,
0,
0,
4,
4,
2,
2,
-1,
-1,
0,
0,
3,
14,
13,
13,
19,
19,
11,
11,
3,
3,
2,
2,
3,
3,
3,
3,
6,
6,
10,
10,
12,
12,
11,
0,
1,
1,
7,
7,
15,
15,
14,
14,
5,
5,
0,
13,
13,
13,
10,
10,
4,
4,
2,
2,
0,
0,
6,
6,
7,
7,
6,
6,
2,
2,
2,
2,
4,
4,
1,
1,
1,
1,
0,
0,
3,
3,
0,
0,
5,
5,
7,
7,
4,
4,
1,
1,
0,
0,
4,
4,
2,
2,
4,
4,
11,
11,
11,
11,
4,
4,
4,
4,
13,
27,
26,
26,
22,
4,
5,
5,
7,
7,
13,
13,
15,
15,
11,
11,
8,
8,
5,
5,
10,
10,
19,
19,
21,
5,
5,
5,
7,
7,
0,
0,
10,
10,
5,
5,
1,
1,
11,
23,
23,
23,
19,
19,
10,
-1,
1,
1,
6,
6,
15,
15,
19,
19,
19,
19,
17,
17,
8,
8,
0,
0,
1,
1,
2,
2,
3,
3,
8,
8,
11,
11,
14,
14,
8,
8,
1,
1,
-1,
-1,
1,
1,
10,
10,
12,
12,
10,
10,
5,
5,
2,
2,
3,
3,
0,
0,
0,
0,
0,
0,
0,
0,
1,
1,
-1,
-1,
4,
4,
6,
6,
14,
14,
15,
2,
2,
2,
0,
0,
3,
3,
0,
0,
1,
1,
9,
9,
18,
18,
16,
0,
1,
1,
7,
7,
10,
10,
5,
5,
0,
0,
0,
0,
3,
3,
7,
7,
10,
10,
9,
9,
4,
4,
7,
7,
16,
16,
14,
14,
11,
11,
6,
6,
5,
5,
11,
11,
7,
7,
4,
4,
6,
6,
6,
6,
14,
14,
22,
22,
16,
16,
10,
10,
7,
7,
0,
0,
10,
21,
19,
19,
21,
21,
14,
14,
12,
12,
10,
10,
10,
10,
2,
2,
6,
6,
12,
12,
14,
14,
18,
18,
17,
5,
6,
6,
0,
0,
0,
0,
4,
4,
12,
12,
8,
8,
1,
1,
3,
3,
6,
6,
11,
11,
15,
15,
16,
16,
13,
0,
2,
2,
7,
7,
6,
6,
7,
7,
9,
22,
22,
35,
34,
34,
31,
10,
10,
10,
15,
28,
27,
27,
20,
8,
9,
9,
0,
0,
0,
0,
0,
0,
2,
14,
13,
13,
12,
0,
1,
1,
3,
3,
3,
3,
2,
2,
4,
4,
11,
11,
8,
8,
3,
3,
3,
3,
2,
2,
7,
7,
4,
4,
5,
5,
0,
0,
6,
6,
6,
6,
9,
9,
10,
10,
15,
15,
18,
18,
15,
15,
16,
16,
19,
19,
13,
0,
2,
15,
14,
28,
28,
28,
35,
35,
30,
30,
30,
9,
9,
9,
11,
11,
8,
8,
3,
3,
4,
4,
9,
9,
8,
8,
8,
8,
9,
9,
9,
9,
8,
8,
7,
7,
5,
5,
4,
4,
4,
4,
6,
6,
3,
3,
1,
1,
-1,
-1,
0,
0,
6,
6,
16,
16,
14,
1,
4,
4,
9,
9,
4,
4,
-1,
-1,
1,
1,
4,
4,
6,
6,
4,
4,
10,
10,
9,
9,
3,
27,
27,
27,
31,
16,
17,
0,
2,
13,
12,
12,
10,
10,
7,
7,
7,
7,
7,
7,
0,
0,
3,
3,
3,
3,
2,
2,
5,
5,
1,
1,
1,
1,
0,
0,
0,
0,
1,
1,
2,
2,
-1,
-1,
4,
4,
4,
4,
7,
7,
8,
8,
10,
10,
11,
11,
4,
4,
1,
1,
3,
3,
5,
5,
3,
3,
6,
6,
3,
3,
1,
1,
6,
6,
11,
11,
2,
2,
2,
2,
-1,
-1,
0,
0,
2,
2,
2,
2,
8,
8,
10,
10,
4,
4,
12,
12,
9,
9,
8,
8,
11,
11,
11,
11,
4,
4,
4,
4,
4,
4,
1,
1,
8,
8,
4,
4,
7,
7,
5,
5,
0,
0,
3,
3,
6,
6,
12,
12,
8,
8,
-1,
-1,
9,
9,
10,
10,
6,
6,
7,
7,
8,
8,
13,
13,
6,
6,
2,
2,
3,
3,
1,
1,
0,
0,
2,
2,
-1,
-1,
1,
1,
1,
1,
3,
3,
2,
2,
4,
4,
6,
6,
10,
10,
3,
3,
0,
11,
10,
10,
15,
0,
1,
1,
6,
6,
10,
10,
11,
11,
8,
8,
6,
6,
8,
8,
6,
6,
1,
1,
1,
1,
10,
10,
10,
10,
18,
18,
25,
25,
17,
2,
3,
3,
1,
1,
3,
3,
8,
8,
14,
14,
7,
7,
3,
3,
2,
2,
0,
0,
2,
2,
0,
0,
4,
4,
0,
0,
9,
9,
11,
11,
9,
9,
5,
5,
0,
0,
0,
0,
0,
0,
1,
1,
0,
0,
1,
1,
-1,
-1,
0,
0,
0,
0,
8,
8,
5,
5,
1,
1,
4,
4,
4,
4,
1,
1,
3,
3,
7,
7,
13,
2,
4,
4,
8,
8,
4,
4,
0,
0,
6,
23,
22,
9,
10,
10,
12,
27,
27,
42,
42,
31,
31,
4,
5,
23,
23,
23,
18,
0,
1,
1,
2,
2,
12,
12,
16,
16,
15,
15,
8,
8,
10,
10,
5,
5,
12,
12,
18,
18,
14,
14,
5,
5,
6,
6,
12,
12,
14,
14,
16,
16,
9,
9,
9,
9,
9,
9,
7,
7,
12,
27,
26,
6,
7,
7,
10,
10,
15,
15,
14,
14,
14,
14,
12,
12,
9,
9,
7,
7,
7,
7,
2,
2,
8,
8,
14,
14,
21,
21,
15,
15,
14,
14,
15,
15,
15,
15,
9,
9,
3,
17,
16,
16,
18,
18,
10,
10,
5,
5,
6,
6,
2,
2,
3,
3,
6,
6,
6,
6,
9,
9,
7,
7,
0,
0,
2,
2,
3,
3,
2,
2,
4,
4,
0,
0,
3,
3,
5,
5,
11,
31,
31,
31,
27,
9,
10,
10,
6,
6,
14,
14,
15,
15,
10,
10,
2,
2,
1,
1,
7,
7,
1,
1,
4,
4,
5,
5,
0,
16,
15,
15,
18,
3,
4,
4,
10,
23,
23,
23,
33,
33,
42,
42,
39,
20,
20,
1,
4,
20,
19,
34,
33,
33,
33,
33,
26,
26,
19,
19,
14,
14,
10,
10,
4,
4,
5,
5,
14,
14,
14,
14,
12,
12,
10,
10,
9,
9,
12,
12,
13,
13,
11,
11,
7,
7,
3,
3,
9,
9,
7,
7,
3,
3,
7,
7,
5,
5,
1,
1,
3,
3,
5,
5,
0,
0,
3,
15,
14,
2,
4,
18,
17,
17,
17,
2,
3,
3,
9,
9,
9,
9,
2,
2,
11,
11,
4,
4,
11,
11,
15,
15,
14,
14,
6,
6,
2,
2,
0,
0,
6,
19,
18,
18,
19,
19,
15,
15,
6,
6,
7,
7,
7,
7,
3,
3,
5,
5,
0,
0,
2,
2,
3,
3,
7,
7,
6,
6,
4,
4,
-1,
-1,
4,
4,
3,
3,
4,
4,
2,
2,
11,
11,
7,
7,
3,
3,
0,
0,
3,
3,
4,
4,
11,
11,
16,
16,
6,
6,
5,
5,
6,
6,
7,
7,
9,
9,
12,
12,
9,
9,
7,
7,
1,
1,
1,
1,
8,
8,
9,
9,
1,
1,
2,
2,
3,
3,
2,
2,
3,
3,
7,
7,
14,
14,
9,
9,
14,
14,
24,
24,
18,
2,
2,
2,
5,
5,
5,
5,
5,
5,
2,
15,
15,
15,
23,
8,
8,
8,
4,
4,
13,
13,
18,
2,
2,
15,
14,
14,
19,
19,
18,
18,
10,
10,
7,
7,
8,
8,
16,
16,
14,
14,
12,
12,
14,
14,
16,
16,
11,
0,
1,
1,
3,
3,
4,
4,
-1,
-1,
5,
5,
2,
2,
5,
5,
8,
8,
3,
3,
4,
4,
7,
7,
7,
7,
7,
7,
9,
9,
14,
14,
8,
8,
10,
10,
8,
8,
0,
0,
-1,
-1,
0,
0,
-1,
-1,
0,
0,
-1,
-1,
2,
2,
4,
4,
4,
4,
1,
1,
5,
5,
7,
7,
4,
4,
1,
1,
-1,
-1,
-1,
-1,
3,
3,
0,
0,
0,
0,
0,
0,
0,
0,
1,
1,
0,
16,
15,
15,
23,
11,
11,
11,
6,
6,
12,
12,
8,
8,
11,
11,
14,
14,
13,
13,
3,
3,
3,
3,
7,
7,
14,
14,
20,
20,
15,
15,
12,
12,
6,
6,
4,
4,
11,
11,
9,
9,
4,
4,
0,
0,
3,
3,
0,
0,
6,
6,
6,
6,
0,
0,
0,
0,
0,
0,
3,
3,
8,
8,
3,
3,
1,
1,
7,
7,
3,
3,
2,
2,
6,
6,
7,
7,
1,
1,
4,
16,
16,
16,
22,
9,
9,
9,
4,
4,
3,
3,
2,
2,
8,
8,
4,
4,
2,
2,
2,
2,
-1,
-1,
6,
6,
9,
9,
5,
5,
7,
7,
9,
9,
6,
6,
1,
1,
4,
4,
2,
2,
5,
5,
7,
7,
4,
4,
3,
3,
3,
3,
4,
4,
4,
4,
1,
1,
2,
2,
0,
0,
4,
4,
4,
4,
7,
22,
22,
22,
24,
6,
6,
6,
6,
6,
10,
10,
2,
2,
3,
14,
14,
14,
14,
14,
8,
8,
7,
7,
2,
2,
4,
4,
-1,
-1,
3,
14,
13,
13,
13,
13,
8,
8,
2,
2,
0,
0,
0,
0,
8,
8,
9,
9,
4,
4,
12,
12,
19,
19,
11,
11,
6,
6,
14,
14,
17,
17,
18,
18,
16,
16,
14,
14,
9,
9,
1,
1,
9,
9,
10,
10,
13,
13,
9,
9,
6,
6,
10,
10,
6,
6,
0,
0,
4,
4,
1,
1,
0,
0,
1,
1,
1,
13,
13,
13,
6,
6,
8,
8,
5,
5,
6,
6,
5,
5,
7,
7,
10,
10,
2,
2,
2,
20,
20,
37,
36,
36,
36,
9,
9,
9,
15,
27,
26,
26,
25,
25,
22,
22,
19,
19,
10,
10,
1,
1,
2,
2,
-1,
-1,
0,
0,
6,
6,
5,
5,
7,
7,
13,
13,
17,
17,
15,
15,
7,
7,
9,
9,
8,
8,
2,
2,
11,
11,
11,
-1,
4,
4,
10,
10,
11,
11,
13,
13,
12,
12,
4,
4,
0,
0,
-1,
-1,
-1,
-1,
4,
4,
2,
2,
1,
1,
4,
4,
2,
2,
4,
15,
14,
14,
22,
22,
22,
4,
4,
4,
9,
9,
11,
11,
6,
6,
1,
1,
3,
3,
0,
12,
11,
11,
16,
16,
9,
9,
4,
4,
1,
1,
10,
10,
9,
9,
3,
3,
3,
3,
3,
3,
10,
10,
19,
19,
15,
15,
10,
-1,
0,
0,
4,
4,
3,
3,
3,
3,
10,
10,
15,
15,
11,
11,
9,
9,
10,
10,
10,
10,
7,
26,
25,
25,
30,
30,
23,
23,
15,
15,
8,
8,
6,
6,
3,
3,
10,
22,
21,
21,
20,
20,
14,
1,
2,
2,
3,
3,
11,
11,
10,
10,
3,
3,
-1,
-1,
0,
0,
3,
3,
9,
9,
10,
-1,
1,
1,
2,
2,
4,
4,
0,
0,
1,
1,
0,
0,
4,
4,
7,
7,
7,
7,
2,
2,
10,
10,
11,
11,
11,
11,
7,
7,
3,
3,
5,
5,
4,
4,
1,
1,
1,
1,
7,
7,
9,
9,
13,
13,
14,
14,
6,
6,
2,
2,
5,
5,
11,
11,
14,
14,
18,
18,
10,
-1,
0,
0,
2,
14,
14,
14,
17,
17,
9,
9,
-1,
-1,
2,
2,
-1,
-1,
1,
1,
9,
9,
9,
9,
0,
0,
6,
6,
5,
5,
4,
4,
4,
4,
-1,
-1,
0,
0,
1,
1,
2,
2,
3,
3,
8,
8,
13,
13,
7,
7,
0,
0,
6,
6,
4,
4,
-2,
-2,
-1,
-1,
3,
3,
1,
12,
12,
12,
5,
5,
2,
2,
11,
11,
6,
6,
12,
12,
16,
16,
6,
6,
0,
0,
3,
3,
3,
3,
7,
7,
5,
5,
4,
4,
2,
2,
2,
2,
6,
6,
15,
15,
16,
16,
11,
-1,
0,
0,
0,
0,
5,
5,
9,
9,
6,
6,
2,
2,
6,
6,
16,
16,
20,
20,
14,
14,
10,
10,
7,
7,
-1,
-1,
4,
4,
8,
8,
9,
9,
8,
8,
5,
5,
4,
4,
5,
5,
11,
11,
15,
15,
10,
-1,
0,
0,
-1,
-1,
-1,
-1,
5,
5,
12,
12,
4,
4,
0,
0,
3,
3,
6,
6,
9,
9,
11,
11,
10,
10,
4,
34,
34,
34,
34,
20,
21,
21,
16,
16,
6,
6,
12,
24,
24,
24,
19,
19,
13,
13,
6,
6,
6,
18,
16,
16,
17,
5,
5,
5,
1,
1,
3,
3,
5,
5,
15,
15,
11,
11,
7,
7,
2,
2,
0,
0,
2,
2,
7,
7,
8,
8,
0,
0,
3,
3,
0,
0,
3,
3,
6,
6,
7,
7,
10,
10,
10,
10,
7,
7,
10,
10,
19,
19,
20,
20,
11,
0,
2,
14,
12,
12,
18,
18,
21,
21,
17,
17,
11,
11,
14,
14,
10,
10,
5,
5,
3,
17,
16,
27,
26,
26,
18,
7,
7,
7,
-1,
-1,
2,
2,
0,
0,
0,
0,
5,
5,
8,
8,
2,
2,
11,
11,
19,
19,
21,
10,
11,
-1,
2,
16,
16,
16,
19,
6,
7,
7,
6,
6,
2,
2,
11,
11,
13,
13,
8,
8,
8,
8,
10,
10,
6,
6,
4,
4,
2,
2,
-1,
-1,
4,
4,
4,
4,
6,
6,
9,
9,
5,
5,
-1,
-1,
0,
0,
1,
1,
4,
4,
3,
3,
1,
1,
1,
1,
2,
2,
2,
2,
5,
5,
6,
6,
5,
5,
2,
2,
5,
5,
7,
7,
6,
6,
6,
6,
4,
4,
3,
3,
0,
0,
7,
7,
8,
8,
4,
4,
3,
3,
-1,
-1,
2,
2,
4,
4,
9,
9,
7,
7,
0,
11,
10,
10,
15,
15,
12,
12,
14,
2,
4,
20,
19,
19,
23,
23,
19,
19,
11,
11,
7,
7,
8,
8,
11,
11,
8,
28,
27,
27,
26,
26,
28,
28,
22,
6,
7,
7,
3,
3,
8,
8,
15,
15,
18,
18,
11,
11,
4,
4,
0,
0,
4,
4,
5,
5,
9,
9,
11,
11,
10,
10,
4,
4,
1,
1,
1,
1,
7,
7,
6,
6,
1,
1,
-1,
-1,
3,
3,
2,
2,
2,
2,
0,
0,
0,
0,
1,
1,
-1,
-1,
-1,
-1,
3,
3,
6,
6,
0,
12,
12,
23,
23,
23,
22,
1,
2,
2,
8,
8,
7,
7,
14,
14,
18,
18,
12,
12,
5,
5,
3,
3,
2,
2,
-1,
-1,
4,
4,
10,
10,
9,
9,
14,
14,
10,
10,
3,
3,
0,
0,
-1,
-1,
1,
1,
3,
3,
2,
2,
2,
2,
3,
3,
0,
0,
5,
5,
0,
0,
0,
11,
10,
10,
8,
8,
0,
0,
2,
2,
3,
3,
0,
0,
0,
0,
6,
6,
15,
15,
15,
0,
3,
3,
8,
8,
14,
14,
14,
2,
3,
3,
9,
9,
12,
12,
11,
11,
7,
7,
3,
3,
7,
7,
6,
6,
4,
4,
10,
10,
13,
13,
15,
15,
11,
11,
8,
8,
10,
10,
8,
25,
24,
24,
24,
24,
15,
15,
11,
11,
10,
10,
16,
16,
14,
2,
12,
24,
23,
23,
22,
22,
15,
15,
8,
8,
5,
5,
8,
8,
9,
9,
2,
2,
1,
1,
5,
5,
1,
1,
2,
2,
7,
7,
8,
8,
2,
2,
2,
2,
1,
1,
1,
1,
3,
3,
8,
8,
6,
6,
-1,
-1,
2,
2,
6,
6,
2,
2,
2,
2,
0,
0,
5,
5,
6,
6,
4,
4,
0,
0,
1,
1,
0,
0,
0,
0,
-1,
-1,
4,
4,
13,
13,
18,
18,
10,
10,
2,
2,
6,
6,
5,
5,
5,
5,
3,
3,
3,
3,
0,
0,
1,
1,
-1,
-1,
7,
7,
6,
6,
1,
1,
-1,
-1,
0,
0,
0,
0,
0,
0,
2,
2,
1,
1,
-1,
-1,
3,
3,
7,
7,
5,
5,
4,
4,
0,
0,
9,
9,
8,
8,
6,
6,
3,
3,
9,
20,
19,
19,
20,
20,
13,
13,
12,
12,
7,
7,
6,
6,
15,
15,
13,
13,
8,
8,
9,
9,
12,
12,
8,
8,
6,
6,
3,
3,
0,
0,
8,
28,
28,
28,
37,
20,
21,
0,
1,
1,
2,
2,
9,
9,
14,
14,
8,
8,
11,
11,
11,
0,
0,
0,
9,
20,
19,
19,
12,
12,
4,
4,
1,
1,
2,
2,
4,
4,
5,
5,
3,
3,
0,
0,
1,
1,
3,
3,
4,
4,
4,
4,
0,
0,
0,
0,
2,
2,
-1,
-1,
1,
1,
-1,
-1,
-1,
-1,
2,
2,
3,
3,
5,
5,
4,
4,
5,
17,
16,
16,
22,
7,
8,
8,
5,
5,
12,
12,
15,
15,
11,
11,
2,
2,
-1,
-1,
-1,
10,
9,
9,
15,
15,
16,
16,
11,
-1,
1,
1,
4,
4,
5,
5,
4,
4,
4,
4,
1,
1,
8,
8,
3,
3,
6,
6,
8,
8,
8,
8,
2,
17,
16,
16,
24,
24,
23,
23,
22,
22,
19,
7,
8,
8,
5,
5,
6,
6,
9,
9,
15,
15,
15,
15,
11,
11,
8,
8,
8,
8,
7,
7,
2,
2,
3,
3,
6,
6,
13,
13,
17,
17,
17,
17,
12,
12,
6,
6,
2,
2,
2,
2,
0,
0,
1,
1,
1,
1,
-2,
-2,
0,
0,
2,
2,
2,
2,
4,
4,
8,
8,
1,
1,
9,
9,
11,
11,
14,
14,
14,
14,
6,
6,
0,
0,
0,
0,
-1,
-1,
3,
3,
12,
12,
12,
1,
2,
2,
-1,
-1,
1,
1,
1,
1,
3,
3,
1,
1,
3,
3,
-1,
-1,
2,
2,
7,
7,
13,
13,
12,
12,
8,
8,
3,
3,
1,
1,
1,
1,
2,
2,
2,
2,
4,
4,
4,
4,
0,
0,
1,
1,
7,
7,
6,
6,
7,
7,
12,
12,
9,
9,
7,
7,
2,
2,
11,
11,
12,
12,
15,
15,
10,
-1,
0,
0,
0,
0,
0,
11,
10,
23,
22,
22,
21,
6,
6,
6,
9,
9,
16,
16,
15,
15,
6,
6,
2,
17,
17,
28,
27,
27,
19,
0,
1,
1,
2,
2,
3,
3,
7,
7,
8,
8,
10,
10,
9,
9,
4,
4,
4,
4,
5,
5,
1,
1,
6,
6,
7,
7,
6,
6,
8,
8,
7,
7,
3,
3,
3,
3,
6,
6,
2,
2,
3,
3,
5,
5,
5,
5,
2,
14,
13,
13,
7,
7,
0,
0,
5,
5,
5,
5,
0,
0,
2,
2,
4,
4,
6,
6,
5,
5,
3,
3,
-1,
-1,
8,
8,
11,
11,
7,
7,
1,
1,
6,
6,
8,
8,
4,
4,
2,
2,
2,
2,
2,
2,
4,
4,
6,
6,
6,
6,
6,
6,
11,
11,
19,
19,
12,
0,
3,
16,
16,
16,
15,
15,
13,
13,
11,
11,
6,
6,
2,
2,
1,
1,
6,
6,
9,
9,
8,
8,
2,
2,
0,
0,
0,
0,
4,
4,
10,
10,
11,
11,
3,
3,
0,
0,
1,
1,
10,
10,
14,
2,
3,
3,
4,
4,
8,
8,
9,
9,
14,
14,
13,
13,
7,
7,
4,
4,
10,
10,
7,
7,
0,
0,
2,
2,
5,
5,
5,
5,
4,
4,
1,
1,
-1,
-1,
1,
1,
0,
0,
3,
3,
8,
8,
1,
1,
0,
0,
0,
0,
0,
0,
2,
2,
3,
3,
0,
0,
3,
3,
4,
4,
3,
3,
3,
3,
0,
0,
9,
9,
11,
11,
17,
17,
17,
3,
4,
4,
2,
2,
11,
11,
8,
8,
5,
5,
7,
7,
3,
3,
11,
11,
13,
13,
11,
11,
1,
1,
7,
7,
8,
8,
7,
7,
2,
13,
12,
12,
18,
18,
12,
12,
11,
11,
6,
6,
5,
5,
12,
12,
10,
10,
6,
6,
3,
3,
6,
6,
6,
6,
3,
3,
1,
1,
3,
3,
7,
7,
3,
3,
-1,
-1,
2,
2,
5,
5,
4,
4,
2,
2,
2,
2,
7,
7,
12,
12,
11,
11,
3,
3,
2,
2,
8,
8,
11,
11,
10,
10,
16,
3,
4,
15,
14,
14,
23,
23,
18,
7,
7,
7,
1,
1,
5,
5,
7,
7,
10,
10,
8,
8,
3,
3,
7,
7,
13,
13,
11,
11,
6,
6,
7,
7,
7,
7,
0,
0,
2,
2,
1,
1,
1,
1,
6,
6,
3,
3,
1,
1,
0,
0,
4,
4,
8,
8,
4,
4,
4,
4,
6,
6,
8,
8,
3,
16,
16,
16,
14,
3,
3,
3,
4,
4,
1,
1,
5,
5,
0,
0,
3,
3,
0,
0,
2,
2,
6,
6,
1,
1,
2,
2,
5,
5,
9,
9,
8,
8,
3,
3,
11,
11,
13,
13,
6,
6,
2,
2,
6,
6,
6,
6,
4,
4,
9,
9,
7,
7,
2,
2,
0,
0,
2,
2,
1,
1,
3,
3,
0,
0,
-1,
-1,
1,
1,
8,
8,
7,
7,
0,
0,
0,
0,
0,
0,
-1,
-1,
0,
0,
0,
0,
4,
4,
0,
13,
12,
12,
18,
18,
19,
19,
11,
0,
3,
14,
12,
12,
8,
8,
1,
1,
1,
1,
5,
5,
5,
5,
4,
4,
1,
1,
8,
8,
8,
8,
1,
1,
7,
7,
2,
2,
1,
1,
8,
8,
15,
15,
11,
11,
4,
4,
4,
4,
7,
7,
1,
1,
4,
4,
7,
7,
12,
12,
3,
3,
0,
0,
8,
8,
14,
14,
17,
17,
18,
18,
11,
11,
2,
2,
6,
6,
11,
11,
15,
15,
18,
18,
11,
11,
7,
7,
2,
2,
3,
3,
0,
0,
6,
6,
8,
8,
10,
10,
9,
9,
19,
19,
23,
23,
15,
2,
4,
4,
5,
5,
10,
10,
12,
12,
8,
8,
0,
0,
0,
0,
1,
1,
-1,
-1,
1,
1,
-1,
-1,
0,
0,
-1,
-1,
-1,
-1,
1,
1,
1,
1,
7,
7,
1,
1,
6,
6,
6,
18,
18,
18,
12,
12,
6,
6,
0,
0,
2,
2,
1,
1,
6,
6,
4,
4,
1,
1,
7,
23,
22,
22,
23,
8,
8,
8,
9,
9,
16,
16,
16,
16,
11,
11,
4,
4,
6,
6,
4,
4,
0,
0,
0,
0,
5,
5,
8,
8,
4,
4,
0,
0,
0,
0,
1,
1,
1,
1,
2,
2,
6,
6,
7,
7,
7,
7,
6,
6,
6,
6,
0,
0,
9,
9,
9,
9,
