EMG_S1/DS0125.CSV

Memory Length,4000,
Trigger Level,0.00000e+00,
Source,CH1,
Probe,1.0X,
Vertical Units,V,
Vertical Scale,1.00000e+00,
Vertical Position,4.00000e-02,
Horizontal Units,S,
Horizontal Scale,1.00000e-01,
Horizontal Position,0.0000000e+00,
Horizontal Mode,Roll Mode,
Waveform Last Dot Address,4000,
Sampling Period,4.00000e-04,
Firmware,V1.14,
Time, ,
Mode,Fast,
Waveform Data,
6,
6,
2,
2,
3,
3,
4,
16,
15,
15,
7,
7,
7,
7,
11,
11,
9,
9,
5,
5,
0,
0,
1,
1,
6,
6,
7,
7,
11,
11,
6,
6,
3,
14,
12,
12,
7,
7,
8,
8,
10,
10,
9,
9,
12,
12,
10,
10,
3,
3,
2,
2,
8,
8,
8,
8,
7,
7,
2,
2,
2,
2,
3,
3,
2,
2,
11,
11,
12,
12,
4,
4,
2,
2,
2,
2,
5,
5,
4,
4,
5,
5,
2,
2,
-1,
-1,
4,
4,
10,
10,
10,
10,
6,
6,
4,
4,
6,
6,
4,
4,
1,
1,
5,
5,
4,
4,
7,
7,
6,
6,
2,
2,
3,
3,
4,
4,
6,
6,
10,
10,
14,
14,
18,
18,
17,
17,
8,
8,
3,
3,
10,
-1,
1,
1,
5,
5,
0,
11,
10,
10,
18,
18,
17,
17,
9,
9,
3,
3,
0,
0,
0,
0,
2,
2,
5,
5,
4,
4,
7,
7,
11,
11,
11,
11,
12,
12,
12,
12,
13,
13,
7,
7,
4,
4,
8,
8,
13,
13,
5,
5,
3,
15,
15,
15,
20,
20,
21,
21,
21,
21,
16,
16,
8,
8,
1,
1,
5,
5,
4,
4,
6,
6,
7,
7,
8,
8,
7,
7,
8,
8,
8,
8,
7,
7,
2,
2,
6,
6,
9,
9,
7,
7,
3,
3,
6,
6,
5,
5,
1,
1,
8,
8,
1,
1,
0,
0,
1,
1,
1,
1,
2,
2,
8,
8,
0,
0,
0,
0,
7,
7,
5,
5,
5,
5,
6,
6,
2,
2,
-1,
-1,
0,
0,
5,
5,
6,
6,
0,
0,
-1,
-1,
0,
0,
3,
3,
2,
2,
0,
0,
0,
0,
6,
6,
6,
6,
8,
8,
13,
13,
7,
7,
4,
4,
14,
14,
23,
23,
16,
3,
4,
4,
10,
23,
21,
21,
22,
22,
19,
19,
18,
18,
10,
10,
3,
3,
0,
11,
11,
11,
18,
18,
10,
10,
2,
2,
0,
0,
5,
5,
10,
10,
9,
9,
6,
6,
0,
0,
1,
1,
-1,
-1,
1,
1,
-1,
-1,
-1,
-1,
1,
1,
-1,
-1,
0,
0,
-1,
-1,
2,
2,
-1,
-1,
0,
0,
0,
0,
2,
2,
3,
3,
5,
5,
2,
2,
0,
0,
0,
0,
5,
5,
4,
4,
7,
7,
15,
15,
22,
22,
13,
13,
6,
6,
1,
1,
3,
3,
3,
3,
7,
19,
17,
17,
14,
14,
8,
8,
2,
2,
2,
2,
2,
2,
0,
0,
0,
0,
3,
3,
6,
6,
10,
10,
11,
11,
10,
10,
8,
8,
2,
2,
1,
1,
5,
5,
7,
7,
4,
4,
3,
3,
9,
9,
9,
9,
7,
7,
3,
3,
3,
3,
10,
10,
2,
2,
3,
3,
4,
4,
0,
0,
0,
0,
1,
1,
0,
0,
10,
10,
16,
16,
11,
11,
2,
2,
0,
0,
4,
4,
11,
11,
17,
2,
3,
14,
13,
13,
15,
15,
12,
12,
12,
1,
2,
2,
1,
1,
4,
4,
4,
4,
-1,
-1,
0,
0,
1,
1,
5,
5,
8,
8,
11,
11,
6,
6,
4,
4,
4,
4,
2,
2,
3,
3,
8,
8,
7,
7,
3,
3,
2,
2,
4,
4,
5,
5,
0,
0,
1,
1,
-2,
-2,
-1,
-1,
-1,
10,
9,
9,
10,
-1,
1,
1,
6,
6,
0,
0,
3,
3,
0,
0,
9,
9,
16,
16,
18,
18,
13,
13,
8,
8,
7,
23,
22,
22,
30,
30,
37,
26,
26,
2,
2,
2,
12,
12,
12,
12,
10,
10,
6,
6,
10,
10,
13,
13,
8,
8,
0,
0,
1,
1,
0,
0,
-1,
-1,
5,
5,
8,
8,
7,
7,
7,
7,
7,
7,
11,
11,
4,
4,
11,
11,
8,
8,
6,
6,
12,
12,
11,
11,
3,
3,
1,
1,
5,
5,
6,
6,
6,
6,
1,
1,
6,
6,
8,
8,
7,
7,
7,
7,
6,
6,
1,
1,
3,
3,
4,
4,
0,
0,
-1,
-1,
0,
0,
-1,
-1,
0,
0,
8,
8,
5,
5,
3,
14,
14,
14,
16,
16,
19,
19,
22,
11,
12,
0,
2,
17,
16,
16,
22,
22,
21,
21,
15,
0,
0,
0,
2,
2,
-1,
-1,
2,
2,
0,
0,
-1,
-1,
0,
0,
0,
0,
6,
6,
7,
7,
8,
8,
10,
10,
10,
10,
10,
10,
6,
6,
8,
8,
17,
17,
7,
7,
7,
7,
10,
10,
14,
14,
13,
13,
8,
8,
8,
8,
0,
0,
6,
6,
10,
10,
15,
15,
14,
3,
3,
3,
6,
6,
2,
2,
0,
0,
7,
7,
7,
7,
6,
6,
8,
8,
2,
2,
3,
3,
6,
6,
6,
6,
3,
3,
6,
6,
10,
23,
22,
22,
18,
7,
8,
8,
3,
3,
0,
0,
1,
1,
2,
2,
0,
0,
2,
2,
3,
3,
-1,
-1,
1,
1,
0,
0,
6,
6,
9,
9,
8,
8,
3,
3,
3,
3,
0,
0,
4,
4,
6,
6,
2,
2,
1,
1,
2,
2,
4,
4,
8,
8,
0,
0,
9,
9,
10,
10,
3,
15,
14,
14,
19,
19,
9,
9,
10,
10,
11,
-1,
0,
0,
10,
10,
14,
14,
10,
10,
2,
2,
0,
0,
-1,
-1,
6,
6,
16,
16,
15,
0,
2,
2,
11,
11,
12,
12,
5,
5,
5,
16,
15,
15,
8,
8,
7,
7,
6,
6,
5,
5,
5,
5,
1,
1,
8,
8,
10,
10,
9,
9,
9,
9,
10,
10,
11,
11,
11,
11,
3,
3,
6,
6,
16,
16,
18,
18,
15,
15,
12,
12,
5,
5,
-1,
-1,
5,
5,
7,
7,
8,
8,
16,
16,
22,
22,
14,
1,
1,
1,
11,
11,
17,
17,
18,
18,
10,
10,
2,
14,
14,
14,
15,
15,
16,
16,
19,
19,
23,
23,
14,
0,
1,
18,
16,
16,
18,
18,
15,
15,
16,
16,
18,
18,
8,
8,
0,
0,
2,
2,
6,
6,
14,
14,
14,
14,
9,
9,
4,
4,
0,
0,
0,
0,
-1,
-1,
0,
0,
2,
2,
6,
6,
5,
5,
3,
3,
2,
2,
0,
0,
-1,
-1,
3,
3,
1,
1,
0,
0,
1,
1,
2,
2,
3,
3,
2,
2,
0,
0,
2,
2,
3,
3,
3,
3,
1,
1,
4,
4,
0,
0,
2,
14,
13,
13,
14,
14,
11,
11,
6,
6,
2,
2,
9,
9,
14,
14,
11,
11,
5,
5,
6,
6,
1,
1,
6,
6,
11,
11,
6,
6,
0,
0,
5,
5,
12,
0,
0,
0,
8,
8,
4,
4,
3,
3,
6,
6,
1,
1,
6,
6,
6,
6,
5,
5,
0,
0,
0,
0,
5,
5,
5,
5,
9,
9,
5,
5,
1,
1,
3,
3,
0,
0,
4,
4,
1,
1,
4,
15,
14,
14,
20,
20,
18,
2,
3,
18,
18,
18,
16,
16,
10,
10,
4,
4,
0,
0,
5,
5,
11,
11,
3,
3,
3,
3,
8,
8,
18,
18,
19,
19,
14,
3,
3,
3,
0,
0,
8,
8,
7,
7,
6,
6,
7,
7,
8,
8,
6,
6,
0,
0,
10,
10,
11,
11,
13,
13,
8,
8,
3,
3,
0,
0,
0,
0,
0,
0,
0,
0,
0,
0,
1,
1,
5,
5,
2,
2,
1,
1,
0,
0,
4,
4,
6,
6,
9,
9,
10,
10,
5,
5,
4,
4,
7,
7,
0,
0,
6,
6,
10,
10,
6,
6,
4,
4,
10,
10,
4,
4,
3,
3,
2,
2,
4,
18,
16,
29,
27,
27,
20,
20,
23,
23,
24,
6,
6,
6,
3,
15,
15,
15,
24,
24,
27,
27,
18,
18,
16,
16,
14,
3,
3,
3,
6,
6,
11,
11,
14,
14,
13,
13,
10,
10,
7,
7,
3,
3,
1,
1,
-1,
-1,
2,
2,
5,
5,
3,
3,
4,
4,
6,
17,
16,
16,
12,
12,
4,
4,
4,
4,
0,
0,
2,
2,
7,
7,
6,
6,
2,
2,
3,
3,
-2,
-2,
-1,
-1,
3,
3,
8,
8,
3,
3,
10,
10,
20,
20,
18,
18,
14,
14,
8,
8,
1,
1,
7,
7,
15,
15,
15,
15,
11,
11,
6,
6,
5,
20,
19,
31,
30,
15,
16,
0,
1,
1,
8,
8,
16,
16,
17,
17,
16,
16,
14,
14,
5,
5,
1,
1,
1,
1,
0,
0,
2,
2,
10,
10,
12,
12,
7,
7,
3,
3,
6,
6,
5,
5,
10,
10,
10,
10,
7,
7,
1,
1,
3,
3,
0,
0,
0,
0,
1,
1,
0,
0,
4,
4,
10,
10,
10,
10,
3,
3,
-1,
-1,
3,
3,
0,
0,
-1,
-1,
2,
2,
5,
5,
7,
7,
7,
7,
6,
6,
12,
12,
20,
20,
11,
11,
5,
5,
1,
1,
2,
2,
11,
11,
17,
17,
14,
14,
12,
12,
9,
9,
5,
5,
0,
0,
5,
5,
10,
10,
14,
14,
19,
19,
15,
2,
3,
3,
3,
3,
0,
0,
6,
6,
2,
2,
-1,
-1,
5,
5,
1,
1,
5,
5,
13,
13,
18,
18,
16,
4,
5,
5,
10,
10,
17,
17,
20,
8,
9,
9,
0,
0,
0,
0,
7,
7,
12,
12,
8,
8,
4,
4,
0,
0,
4,
4,
2,
2,
5,
19,
19,
19,
27,
9,
10,
10,
2,
2,
0,
0,
3,
3,
11,
11,
15,
15,
19,
19,
20,
20,
16,
1,
2,
2,
6,
6,
7,
7,
11,
11,
13,
13,
4,
4,
2,
17,
16,
29,
28,
28,
21,
0,
1,
1,
7,
7,
13,
13,
12,
12,
3,
3,
2,
2,
2,
2,
10,
10,
9,
9,
5,
5,
14,
14,
14,
2,
3,
3,
0,
0,
1,
1,
2,
2,
6,
6,
14,
14,
16,
5,
6,
6,
6,
6,
0,
0,
5,
5,
6,
6,
3,
3,
0,
0,
3,
3,
0,
0,
7,
7,
6,
6,
0,
0,
6,
6,
7,
7,
5,
5,
3,
3,
8,
8,
13,
0,
2,
2,
10,
10,
10,
10,
6,
6,
2,
2,
2,
2,
10,
10,
8,
8,
5,
5,
6,
6,
7,
7,
0,
0,
1,
1,
-1,
-1,
2,
2,
9,
9,
6,
6,
2,
2,
-1,
-1,
0,
12,
11,
11,
13,
13,
7,
25,
24,
24,
26,
3,
4,
17,
17,
17,
19,
19,
16,
16,
12,
12,
9,
9,
5,
5,
3,
3,
1,
1,
2,
2,
4,
4,
6,
6,
10,
10,
10,
10,
7,
7,
9,
9,
5,
5,
0,
0,
6,
6,
6,
6,
8,
8,
8,
8,
6,
6,
2,
2,
-2,
-2,
7,
7,
14,
14,
14,
14,
8,
8,
4,
4,
2,
2,
0,
0,
0,
0,
-1,
-1,
2,
2,
4,
4,
7,
7,
9,
9,
13,
13,
17,
17,
17,
17,
22,
22,
19,
0,
1,
1,
11,
11,
17,
17,
22,
22,
18,
18,
17,
17,
16,
16,
13,
13,
8,
8,
2,
2,
-1,
-1,
4,
21,
21,
37,
37,
37,
33,
33,
25,
13,
14,
2,
2,
2,
7,
7,
15,
15,
18,
18,
13,
0,
3,
3,
4,
4,
2,
2,
0,
0,
0,
0,
0,
0,
0,
0,
-1,
-1,
2,
2,
10,
10,
16,
16,
19,
7,
8,
8,
8,
8,
13,
13,
22,
22,
22,
22,
23,
23,
26,
26,
22,
8,
8,
8,
10,
21,
20,
20,
19,
19,
19,
19,
21,
21,
16,
16,
6,
6,
4,
4,
12,
12,
18,
18,
14,
1,
2,
2,
3,
3,
6,
6,
2,
2,
5,
5,
11,
11,
14,
14,
9,
9,
1,
1,
0,
0,
3,
3,
2,
2,
0,
0,
0,
0,
1,
1,
3,
3,
5,
5,
2,
2,
3,
3,
4,
4,
1,
1,
2,
2,
3,
15,
14,
14,
15,
15,
14,
14,
11,
11,
7,
7,
3,
3,
1,
1,
5,
5,
11,
11,
14,
14,
6,
6,
1,
1,
2,
2,
0,
0,
1,
1,
2,
2,
2,
2,
8,
8,
8,
8,
0,
0,
6,
6,
8,
8,
3,
3,
6,
6,
11,
11,
8,
8,
13,
26,
25,
25,
24,
13,
13,
2,
2,
2,
4,
16,
15,
15,
17,
17,
16,
16,
12,
12,
10,
10,
6,
6,
2,
2,
1,
1,
6,
6,
8,
8,
5,
5,
3,
3,
3,
3,
3,
3,
2,
2,
0,
0,
0,
0,
0,
0,
4,
4,
6,
6,
9,
9,
4,
4,
8,
8,
8,
8,
1,
13,
12,
12,
4,
4,
2,
2,
1,
1,
-1,
-1,
6,
6,
3,
3,
-1,
-1,
5,
5,
2,
2,
6,
6,
-1,
-1,
5,
5,
2,
2,
2,
2,
2,
2,
5,
5,
4,
4,
5,
5,
3,
3,
-1,
-1,
-1,
-1,
2,
2,
0,
0,
1,
1,
5,
5,
12,
12,
15,
15,
8,
8,
11,
11,
12,
12,
3,
3,
8,
8,
7,
7,
4,
4,
7,
7,
8,
8,
2,
2,
3,
3,
7,
7,
1,
1,
11,
11,
9,
9,
0,
0,
7,
7,
6,
6,
8,
35,
34,
34,
40,
13,
13,
13,
10,
10,
15,
15,
14,
14,
13,
13,
8,
8,
6,
6,
5,
5,
5,
5,
6,
6,
0,
0,
3,
3,
4,
4,
2,
2,
0,
0,
2,
2,
5,
5,
8,
8,
8,
8,
8,
8,
8,
8,
12,
12,
12,
12,
6,
6,
0,
0,
2,
2,
5,
5,
8,
8,
6,
6,
4,
4,
9,
9,
12,
12,
11,
0,
1,
12,
11,
11,
3,
3,
9,
9,
12,
-1,
0,
0,
0,
0,
-2,
-2,
4,
4,
-1,
-1,
5,
5,
4,
4,
6,
6,
6,
6,
0,
0,
2,
2,
7,
7,
0,
11,
9,
9,
11,
11,
8,
8,
6,
6,
2,
19,
18,
18,
22,
22,
17,
6,
7,
7,
5,
5,
1,
1,
1,
1,
8,
8,
8,
8,
8,
8,
7,
7,
0,
0,
4,
4,
4,
4,
7,
7,
0,
0,
7,
7,
8,
8,
2,
2,
2,
2,
2,
2,
6,
6,
15,
15,
23,
23,
17,
4,
4,
4,
-1,
-1,
0,
11,
10,
10,
14,
14,
10,
-1,
0,
0,
3,
3,
-1,
-1,
5,
5,
13,
0,
1,
1,
0,
0,
3,
3,
2,
2,
9,
9,
16,
16,
14,
3,
3,
3,
8,
26,
26,
26,
34,
34,
27,
4,
4,
20,
19,
30,
28,
28,
24,
24,
21,
3,
4,
24,
23,
23,
17,
17,
10,
34,
34,
45,
43,
20,
20,
3,
8,
8,
17,
17,
9,
9,
5,
5,
8,
8,
0,
16,
15,
30,
30,
30,
32,
32,
24,
6,
7,
7,
7,
7,
10,
10,
6,
6,
2,
2,
8,
8,
16,
16,
18,
18,
16,
16,
19,
19,
20,
20,
26,
26,
34,
34,
28,
16,
16,
16,
16,
1,
2,
14,
14,
14,
18,
31,
31,
42,
42,
42,
44,
44,
37,
23,
23,
23,
17,
17,
10,
10,
3,
3,
0,
15,
14,
33,
33,
33,
28,
28,
20,
20,
16,
16,
16,
16,
18,
18,
16,
3,
4,
4,
4,
4,
11,
11,
11,
11,
7,
7,
7,
7,
0,
15,
15,
15,
19,
19,
18,
18,
16,
16,
21,
21,
25,
25,
23,
9,
10,
-1,
0,
13,
12,
32,
31,
31,
37,
37,
35,
35,
44,
26,
26,
2,
5,
26,
25,
38,
37,
37,
29,
18,
19,
19,
12,
0,
1,
1,
7,
18,
17,
17,
27,
27,
33,
14,
14,
2,
10,
10,
16,
16,
21,
21,
21,
10,
11,
-1,
0,
0,
4,
4,
7,
7,
12,
12,
20,
20,
18,
2,
3,
3,
2,
2,
5,
5,
5,
5,
8,
8,
8,
8,
9,
9,
2,
2,
11,
11,
14,
3,
3,
3,
10,
21,
20,
20,
12,
1,
1,
1,
6,
6,
16,
33,
33,
33,
42,
23,
23,
3,
10,
25,
24,
24,
24,
24,
29,
29,
21,
21,
15,
2,
2,
19,
19,
31,
31,
42,
42,
24,
25,
1,
2,
2,
6,
6,
12,
12,
13,
0,
2,
22,
20,
20,
27,
9,
9,
9,
17,
32,
31,
31,
33,
33,
32,
21,
22,
22,
12,
12,
2,
2,
5,
5,
14,
14,
22,
22,
25,
25,
18,
4,
5,
5,
7,
7,
13,
24,
23,
23,
18,
5,
5,
5,
4,
4,
6,
6,
3,
3,
8,
8,
11,
11,
6,
6,
0,
15,
15,
15,
11,
0,
2,
2,
-1,
-1,
-1,
-1,
5,
5,
13,
13,
15,
15,
10,
10,
4,
4,
3,
3,
5,
5,
0,
0,
7,
7,
3,
3,
9,
9,
6,
6,
2,
2,
2,
2,
5,
5,
5,
5,
6,
6,
7,
7,
7,
7,
12,
12,
8,
8,
11,
11,
7,
7,
0,
0,
7,
7,
2,
17,
17,
17,
15,
15,
6,
6,
11,
11,
12,
12,
8,
19,
19,
19,
23,
23,
20,
2,
4,
22,
22,
10,
10,
10,
5,
5,
10,
10,
6,
6,
6,
6,
0,
0,
6,
6,
2,
2,
0,
0,
2,
2,
1,
1,
9,
9,
10,
22,
21,
38,
37,
37,
21,
21,
21,
2,
4,
22,
21,
21,
25,
25,
18,
18,
18,
18,
19,
19,
16,
16,
7,
7,
0,
11,
10,
21,
21,
21,
25,
25,
21,
21,
15,
15,
8,
8,
7,
7,
14,
14,
13,
13,
10,
10,
13,
13,
6,
6,
0,
0,
1,
1,
6,
6,
10,
10,
8,
8,
2,
2,
2,
2,
8,
8,
13,
1,
2,
23,
22,
36,
34,
47,
46,
46,
51,
21,
21,
3,
12,
39,
38,
38,
45,
45,
40,
40,
33,
14,
14,
14,
11,
0,
0,
0,
7,
7,
8,
8,
0,
0,
9,
30,
28,
28,
20,
20,
12,
12,
10,
10,
5,
5,
3,
3,
10,
10,
6,
6,
0,
0,
0,
0,
4,
4,
0,
0,
0,
0,
4,
4,
6,
6,
3,
3,
4,
4,
2,
2,
3,
3,
1,
1,
2,
2,
3,
3,
4,
4,
8,
8,
5,
5,
2,
2,
0,
0,
2,
2,
0,
0,
2,
2,
11,
11,
10,
10,
5,
5,
13,
13,
11,
11,
9,
9,
3,
3,
3,
3,
3,
3,
-1,
-1,
0,
0,
-1,
-1,
1,
1,
6,
6,
9,
9,
6,
6,
8,
8,
8,
8,
2,
2,
4,
4,
0,
0,
6,
6,
5,
5,
-1,
-1,
0,
0,
-1,
-1,
3,
3,
0,
0,
0,
0,
0,
0,
4,
4,
4,
4,
2,
2,
-1,
10,
9,
22,
20,
20,
16,
4,
5,
5,
13,
13,
21,
21,
16,
16,
8,
8,
3,
3,
8,
8,
14,
14,
18,
18,
11,
0,
0,
14,
14,
14,
9,
9,
-1,
-1,
-1,
-1,
7,
7,
5,
5,
5,
5,
9,
9,
10,
10,
5,
5,
7,
7,
14,
14,
9,
9,
3,
3,
2,
2,
6,
6,
1,
1,
5,
5,
5,
5,
2,
2,
8,
8,
17,
17,
13,
13,
10,
10,
6,
6,
4,
4,
10,
10,
6,
6,
7,
7,
10,
10,
14,
14,
13,
13,
8,
8,
2,
2,
0,
0,
7,
7,
12,
12,
17,
17,
26,
26,
25,
12,
13,
-1,
0,
0,
7,
7,
9,
9,
8,
8,
8,
8,
7,
7,
5,
5,
0,
0,
4,
4,
7,
7,
8,
8,
2,
2,
4,
4,
9,
9,
8,
8,
5,
5,
6,
6,
15,
15,
10,
10,
7,
7,
0,
0,
1,
15,
15,
27,
27,
27,
22,
3,
4,
16,
15,
28,
27,
27,
27,
27,
20,
20,
14,
14,
4,
4,
8,
8,
15,
15,
9,
9,
1,
1,
0,
0,
5,
5,
6,
6,
4,
4,
3,
3,
0,
0,
-1,
-1,
6,
6,
3,
3,
-1,
-1,
-1,
-1,
2,
2,
0,
0,
2,
2,
0,
0,
5,
5,
6,
6,
0,
0,
8,
8,
13,
13,
22,
33,
33,
48,
48,
23,
23,
6,
18,
37,
37,
37,
41,
41,
34,
34,
25,
25,
17,
17,
7,
7,
9,
24,
23,
23,
21,
8,
9,
9,
3,
3,
1,
1,
3,
3,
3,
3,
-1,
-1,
2,
2,
-1,
-1,
-1,
-1,
0,
0,
2,
2,
7,
7,
3,
3,
4,
4,
8,
8,
6,
6,
0,
0,
3,
3,
12,
12,
9,
9,
6,
6,
10,
10,
5,
5,
0,
0,
7,
7,
0,
0,
7,
7,
8,
8,
5,
5,
6,
6,
0,
0,
5,
16,
15,
3,
3,
3,
12,
12,
13,
13,
19,
19,
24,
24,
20,
2,
3,
3,
12,
12,
13,
30,
30,
30,
35,
15,
15,
2,
6,
6,
15,
15,
16,
16,
12,
12,
7,
7,
0,
0,
3,
3,
7,
7,
6,
6,
1,
1,
-1,
-1,
0,
0,
2,
2,
-1,
-1,
3,
3,
6,
6,
8,
8,
10,
10,
7,
7,
0,
0,
4,
4,
7,
7,
6,
6,
2,
2,
2,
2,
7,
18,
17,
17,
17,
6,
7,
7,
1,
1,
8,
8,
14,
14,
11,
11,
11,
11,
8,
8,
3,
3,
-1,
-1,
4,
4,
3,
3,
0,
0,
0,
0,
4,
4,
6,
6,
10,
10,
13,
13,
10,
10,
5,
5,
3,
3,
4,
4,
2,
2,
9,
9,
8,
8,
4,
4,
0,
0,
-1,
-1,
3,
3,
3,
3,
5,
5,
14,
14,
15,
15,
9,
9,
2,
2,
7,
7,
1,
1,
2,
2,
9,
9,
5,
5,
3,
3,
6,
6,
5,
5,
5,
5,
3,
3,
-1,
11,
10,
10,
18,
6,
7,
7,
7,
7,
8,
8,
11,
11,
10,
-1,
0,
0,
3,
3,
-1,
-1,
1,
1,
-1,
-1,
0,
16,
15,
46,
45,
45,
45,
21,
22,
2,
6,
20,
19,
19,
27,
27,
24,
24,
16,
16,
7,
7,
4,
4,
7,
7,
6,
6,
2,
2,
9,
9,
9,
9,
0,
0,
3,
3,
10,
10,
11,
11,
9,
9,
3,
3,
0,
0,
0,
0,
3,
3,
2,
2,
1,
1,
-1,
-1,
-1,
-1,
2,
2,
0,
0,
0,
0,
2,
2,
5,
5,
8,
8,
1,
1,
7,
7,
10,
10,
13,
13,
8,
8,
0,
0,
0,
0,
3,
3,
6,
6,
10,
10,
12,
12,
6,
6,
-1,
-1,
0,
0,
-1,
-1,
1,
1,
1,
1,
0,
0,
0,
0,
0,
0,
6,
6,
10,
10,
11,
0,
2,
2,
9,
9,
11,
11,
14,
14,
7,
7,
0,
0,
4,
4,
6,
6,
1,
1,
2,
2,
10,
30,
29,
29,
30,
11,
11,
0,
7,
22,
21,
21,
25,
25,
21,
21,
15,
15,
9,
9,
3,
16,
16,
16,
22,
22,
15,
-1,
0,
0,
5,
5,
11,
11,
16,
16,
10,
10,
6,
6,
7,
7,
10,
10,
12,
1,
2,
2,
0,
0,
2,
2,
7,
7,
5,
5,
0,
0,
-1,
-1,
1,
1,
0,
0,
1,
1,
7,
7,
11,
11,
8,
8,
10,
10,
8,
8,
3,
3,
-1,
-1,
-1,
-1,
2,
13,
13,
13,
11,
-1,
2,
2,
7,
7,
8,
8,
10,
10,
14,
14,
10,
10,
14,
14,
10,
10,
8,
8,
16,
16,
11,
11,
14,
14,
17,
17,
13,
13,
5,
5,
5,
5,
4,
4,
1,
1,
8,
8,
11,
11,
13,
13,
12,
12,
10,
10,
10,
10,
16,
16,
13,
0,
1,
1,
0,
0,
0,
0,
1,
1,
6,
6,
9,
9,
8,
8,
5,
5,
1,
1,
-1,
-1,
-1,
-1,
4,
4,
2,
2,
1,
1,
8,
8,
15,
29,
29,
29,
34,
10,
10,
10,
11,
11,
12,
12,
14,
14,
17,
17,
11,
11,
10,
10,
0,
0,
1,
1,
4,
4,
10,
10,
0,
13,
12,
12,
7,
7,
4,
4,
6,
6,
6,
6,
9,
9,
5,
5,
0,
0,
2,
2,
4,
4,
9,
9,
14,
14,
10,
10,
1,
1,
0,
0,
3,
3,
7,
7,
8,
8,
5,
5,
5,
5,
3,
3,
2,
2,
0,
0,
0,
0,
2,
2,
7,
7,
7,
7,
3,
3,
3,
3,
10,
10,
9,
9,
6,
6,
2,
2,
1,
1,
3,
3,
3,
3,
4,
4,
5,
5,
2,
2,
2,
2,
3,
3,
10,
10,
18,
18,
13,
13,
6,
6,
4,
4,
10,
10,
7,
7,
6,
6,
4,
4,
4,
4,
0,
0,
7,
7,
4,
4,
2,
2,
7,
7,
6,
6,
1,
1,
-1,
-1,
3,
3,
7,
7,
6,
6,
11,
11,
18,
18,
15,
15,
5,
5,
-1,
-1,
-1,
-1,
1,
1,
7,
7,
