EMG_S1/DS0139.CSV

Memory Length,4000,
Trigger Level,0.00000e+00,
Source,CH1,
Probe,1.0X,
Vertical Units,V,
Vertical Scale,1.00000e+00,
Vertical Position,4.00000e-02,
Horizontal Units,S,
Horizontal Scale,1.00000e-01,
Horizontal Position,0.0000000e+00,
Horizontal Mode,Roll Mode,
Waveform Last Dot Address,4000,
Sampling Period,4.00000e-04,
Firmware,V1.14,
Time, ,
Mode,Fast,
Waveform Data,
8,
8,
9,
9,
6,
6,
10,
10,
3,
3,
2,
2,
0,
0,
8,
8,
13,
13,
13,
13,
6,
6,
1,
1,
4,
4,
2,
2,
3,
3,
-1,
-1,
0,
0,
8,
8,
11,
11,
8,
8,
6,
6,
2,
20,
19,
19,
27,
27,
26,
26,
18,
18,
21,
21,
14,
1,
4,
4,
7,
7,
10,
27,
26,
26,
32,
32,
27,
27,
26,
11,
12,
0,
1,
1,
2,
15,
14,
34,
33,
33,
34,
22,
22,
22,
15,
3,
5,
5,
10,
10,
16,
16,
15,
15,
11,
11,
6,
6,
10,
10,
3,
3,
0,
0,
2,
2,
0,
0,
0,
0,
2,
2,
3,
3,
2,
2,
0,
0,
0,
0,
4,
4,
8,
8,
3,
3,
4,
4,
2,
2,
8,
8,
11,
11,
4,
4,
1,
1,
4,
4,
2,
2,
1,
1,
9,
9,
6,
6,
2,
2,
10,
10,
13,
13,
8,
8,
0,
0,
7,
7,
1,
1,
4,
4,
0,
0,
1,
14,
13,
13,
14,
14,
11,
0,
4,
19,
18,
18,
18,
6,
6,
6,
1,
1,
6,
6,
7,
7,
9,
9,
1,
1,
5,
5,
2,
14,
13,
13,
20,
3,
4,
4,
7,
7,
1,
1,
2,
2,
9,
9,
7,
7,
-1,
-1,
0,
0,
6,
6,
11,
11,
9,
9,
14,
14,
9,
9,
10,
25,
24,
24,
28,
12,
13,
-1,
1,
12,
11,
26,
26,
26,
17,
-1,
1,
1,
2,
2,
8,
24,
23,
23,
27,
27,
22,
8,
8,
8,
5,
5,
12,
12,
20,
20,
18,
18,
14,
14,
10,
10,
5,
5,
0,
11,
10,
10,
14,
14,
17,
17,
15,
15,
6,
6,
0,
0,
2,
2,
-1,
-1,
1,
1,
3,
3,
2,
2,
0,
0,
5,
5,
7,
7,
1,
14,
13,
13,
14,
14,
7,
7,
0,
0,
3,
3,
2,
2,
0,
0,
10,
24,
23,
23,
17,
-1,
1,
1,
8,
8,
11,
0,
5,
19,
19,
19,
19,
19,
10,
10,
11,
11,
7,
7,
9,
9,
16,
16,
16,
16,
10,
10,
1,
1,
8,
8,
12,
12,
14,
14,
9,
9,
2,
2,
0,
11,
10,
10,
17,
17,
20,
20,
25,
39,
18,
18,
18,
3,
11,
11,
16,
16,
22,
22,
16,
16,
9,
9,
8,
8,
6,
6,
2,
2,
0,
0,
0,
0,
-1,
-1,
1,
1,
0,
0,
4,
4,
1,
1,
0,
0,
-1,
13,
13,
13,
19,
19,
23,
23,
26,
26,
19,
6,
6,
6,
6,
6,
10,
10,
11,
11,
16,
16,
20,
20,
12,
-1,
2,
2,
0,
0,
5,
5,
8,
8,
8,
8,
1,
1,
8,
8,
3,
3,
-1,
-1,
6,
6,
9,
9,
2,
2,
6,
6,
8,
8,
7,
7,
0,
0,
-1,
-1,
0,
0,
1,
1,
2,
2,
1,
1,
2,
2,
10,
10,
18,
18,
11,
11,
9,
9,
11,
11,
11,
11,
4,
4,
2,
2,
7,
19,
18,
18,
17,
17,
11,
11,
5,
5,
2,
2,
3,
3,
2,
2,
0,
11,
10,
10,
19,
19,
9,
9,
3,
3,
8,
8,
6,
6,
14,
14,
14,
14,
6,
6,
4,
4,
12,
12,
20,
20,
21,
21,
12,
12,
2,
2,
5,
5,
12,
25,
24,
24,
23,
10,
11,
11,
4,
4,
3,
3,
7,
7,
5,
5,
3,
3,
8,
8,
12,
12,
9,
9,
4,
4,
10,
10,
13,
13,
22,
22,
23,
23,
27,
15,
15,
2,
8,
8,
17,
17,
12,
12,
10,
10,
8,
8,
12,
12,
11,
11,
9,
9,
3,
3,
2,
2,
0,
0,
7,
7,
5,
5,
7,
7,
14,
14,
19,
19,
16,
5,
5,
5,
7,
7,
6,
6,
6,
6,
7,
7,
0,
0,
7,
7,
15,
15,
14,
14,
4,
4,
2,
2,
7,
7,
7,
7,
11,
11,
12,
1,
2,
2,
7,
7,
2,
2,
2,
2,
6,
6,
5,
5,
7,
7,
5,
5,
7,
7,
8,
8,
9,
9,
14,
14,
15,
15,
11,
11,
4,
4,
0,
0,
4,
4,
1,
17,
16,
48,
47,
47,
50,
32,
33,
8,
8,
8,
7,
7,
6,
6,
14,
14,
16,
16,
17,
17,
19,
19,
14,
14,
8,
8,
0,
0,
3,
3,
1,
1,
8,
8,
10,
10,
2,
2,
6,
6,
2,
2,
1,
1,
6,
6,
14,
14,
16,
16,
10,
10,
14,
14,
13,
13,
5,
5,
1,
1,
4,
4,
3,
3,
3,
3,
1,
1,
1,
1,
-1,
-1,
2,
2,
0,
0,
0,
0,
5,
5,
10,
10,
14,
14,
12,
12,
8,
8,
6,
6,
3,
22,
22,
43,
42,
42,
50,
35,
35,
4,
5,
18,
18,
18,
20,
20,
14,
14,
19,
19,
22,
22,
18,
18,
8,
8,
14,
14,
22,
8,
8,
8,
2,
2,
3,
3,
2,
2,
3,
3,
3,
3,
2,
2,
1,
1,
10,
10,
11,
-1,
0,
0,
-1,
-1,
-1,
-1,
0,
0,
-1,
-1,
4,
4,
9,
9,
8,
8,
16,
16,
25,
9,
10,
10,
3,
3,
8,
8,
9,
9,
17,
17,
18,
6,
6,
6,
1,
1,
5,
5,
4,
4,
4,
4,
0,
0,
3,
3,
7,
7,
1,
1,
5,
5,
9,
9,
8,
8,
16,
16,
11,
-1,
0,
0,
7,
7,
6,
6,
6,
6,
7,
7,
6,
6,
3,
3,
9,
9,
11,
11,
7,
7,
2,
2,
-1,
-1,
0,
0,
5,
5,
0,
0,
9,
9,
18,
18,
21,
8,
8,
8,
3,
3,
11,
11,
11,
11,
10,
10,
13,
13,
10,
10,
2,
2,
4,
4,
6,
6,
5,
5,
2,
2,
-1,
-1,
3,
16,
16,
16,
14,
14,
7,
7,
4,
4,
14,
14,
18,
1,
1,
12,
11,
11,
14,
14,
18,
18,
22,
22,
20,
20,
14,
14,
10,
10,
2,
15,
15,
15,
22,
22,
24,
24,
26,
26,
19,
19,
11,
11,
18,
18,
12,
-1,
0,
0,
0,
0,
10,
10,
15,
15,
18,
18,
11,
11,
10,
10,
10,
10,
14,
14,
10,
10,
7,
7,
14,
3,
4,
4,
3,
3,
2,
2,
7,
7,
14,
14,
18,
6,
7,
7,
4,
4,
2,
2,
-1,
-1,
5,
5,
2,
2,
5,
5,
7,
7,
7,
7,
7,
7,
0,
0,
4,
4,
0,
0,
2,
2,
0,
0,
-1,
-1,
0,
0,
7,
7,
10,
10,
4,
4,
2,
2,
2,
2,
0,
0,
0,
0,
2,
2,
6,
6,
6,
6,
0,
0,
0,
0,
2,
2,
0,
0,
3,
14,
13,
13,
10,
10,
1,
1,
0,
0,
0,
0,
-1,
-1,
0,
0,
3,
3,
0,
0,
6,
6,
4,
4,
0,
0,
6,
6,
2,
2,
3,
3,
10,
10,
6,
6,
3,
3,
8,
8,
5,
5,
0,
0,
8,
22,
21,
21,
21,
7,
8,
8,
1,
17,
16,
16,
13,
13,
8,
8,
14,
14,
22,
10,
10,
10,
5,
5,
14,
14,
10,
10,
10,
10,
18,
7,
8,
8,
1,
1,
6,
6,
10,
10,
0,
0,
10,
10,
8,
8,
2,
2,
1,
1,
1,
1,
2,
2,
5,
5,
7,
7,
9,
9,
11,
11,
5,
5,
7,
7,
16,
16,
11,
0,
0,
0,
0,
0,
3,
3,
2,
2,
-1,
-1,
7,
7,
14,
14,
7,
7,
1,
1,
0,
0,
2,
2,
2,
2,
6,
6,
0,
0,
9,
9,
7,
7,
2,
2,
1,
1,
0,
0,
6,
6,
9,
9,
14,
14,
14,
3,
3,
3,
3,
3,
1,
12,
11,
11,
10,
10,
0,
0,
5,
5,
6,
6,
4,
4,
8,
8,
7,
7,
6,
6,
0,
0,
8,
8,
6,
6,
2,
2,
11,
11,
13,
13,
7,
7,
5,
5,
8,
30,
29,
29,
34,
34,
27,
16,
16,
1,
2,
16,
15,
15,
20,
20,
20,
20,
12,
12,
5,
5,
1,
1,
0,
0,
0,
0,
0,
0,
1,
1,
5,
5,
6,
6,
9,
9,
8,
8,
9,
9,
5,
5,
3,
3,
3,
3,
2,
2,
1,
1,
0,
11,
11,
11,
3,
3,
10,
10,
16,
16,
15,
15,
8,
8,
0,
0,
6,
6,
11,
11,
13,
13,
17,
17,
8,
8,
1,
1,
3,
3,
3,
3,
5,
5,
10,
10,
3,
3,
0,
0,
2,
2,
0,
0,
8,
8,
11,
11,
11,
11,
16,
16,
14,
14,
15,
15,
7,
7,
7,
7,
15,
15,
17,
17,
21,
7,
8,
8,
0,
0,
-1,
-1,
-2,
-2,
-1,
-1,
-1,
-1,
1,
1,
4,
4,
2,
2,
7,
7,
17,
17,
18,
4,
4,
4,
0,
0,
4,
4,
7,
7,
6,
6,
7,
7,
11,
11,
8,
8,
16,
16,
17,
17,
12,
0,
1,
12,
11,
11,
12,
12,
14,
14,
15,
15,
14,
14,
11,
11,
4,
4,
3,
3,
5,
5,
2,
2,
0,
0,
1,
1,
9,
9,
10,
10,
8,
8,
9,
9,
2,
2,
8,
8,
18,
18,
21,
21,
11,
0,
0,
0,
4,
4,
6,
6,
2,
2,
-1,
11,
10,
10,
20,
20,
20,
20,
16,
16,
11,
11,
5,
5,
1,
1,
8,
8,
11,
11,
14,
14,
10,
10,
7,
7,
10,
10,
17,
17,
26,
15,
15,
0,
1,
1,
9,
9,
14,
14,
14,
14,
14,
14,
5,
5,
6,
6,
4,
4,
4,
4,
7,
7,
1,
1,
8,
8,
11,
11,
5,
5,
4,
4,
1,
1,
6,
6,
7,
7,
4,
4,
2,
2,
4,
4,
0,
0,
2,
2,
5,
5,
3,
3,
0,
0,
3,
3,
-1,
-1,
6,
6,
7,
7,
2,
2,
6,
6,
9,
9,
2,
2,
2,
2,
4,
4,
0,
0,
10,
10,
11,
0,
5,
5,
9,
9,
4,
4,
13,
13,
6,
6,
2,
2,
0,
0,
5,
5,
6,
6,
0,
0,
5,
5,
6,
6,
5,
5,
3,
3,
7,
7,
14,
14,
20,
20,
20,
20,
17,
17,
8,
8,
1,
20,
19,
36,
36,
36,
36,
36,
28,
28,
30,
30,
21,
2,
3,
17,
16,
16,
20,
20,
20,
20,
19,
19,
15,
15,
6,
6,
0,
0,
4,
4,
11,
11,
16,
16,
7,
7,
2,
2,
5,
5,
3,
3,
0,
0,
4,
4,
8,
8,
2,
2,
5,
5,
9,
9,
12,
12,
10,
10,
1,
13,
13,
30,
30,
46,
45,
32,
33,
6,
6,
6,
7,
7,
7,
7,
1,
1,
6,
6,
11,
11,
14,
14,
17,
17,
13,
13,
6,
6,
9,
9,
9,
9,
1,
1,
2,
2,
7,
7,
7,
7,
9,
9,
7,
7,
6,
6,
5,
5,
7,
7,
9,
9,
9,
9,
16,
16,
8,
8,
0,
0,
4,
4,
6,
6,
7,
7,
10,
10,
8,
8,
0,
0,
6,
6,
8,
8,
0,
0,
3,
3,
3,
3,
2,
13,
12,
12,
14,
14,
20,
20,
15,
1,
3,
21,
20,
20,
25,
11,
13,
13,
7,
7,
7,
7,
3,
3,
2,
2,
0,
0,
6,
6,
1,
1,
3,
3,
2,
2,
0,
0,
3,
3,
9,
9,
17,
17,
13,
13,
8,
8,
3,
3,
6,
6,
10,
10,
11,
11,
5,
5,
0,
0,
0,
0,
2,
2,
0,
14,
12,
12,
18,
18,
16,
16,
10,
10,
8,
8,
4,
4,
8,
8,
6,
6,
12,
12,
18,
18,
14,
14,
11,
11,
14,
14,
15,
15,
8,
8,
0,
0,
10,
10,
16,
16,
18,
18,
10,
10,
5,
26,
25,
25,
27,
15,
15,
15,
9,
9,
4,
4,
14,
14,
13,
13,
9,
9,
6,
6,
8,
8,
4,
4,
3,
3,
3,
3,
0,
0,
5,
5,
14,
14,
15,
15,
7,
7,
3,
3,
7,
7,
13,
13,
5,
5,
6,
6,
7,
7,
5,
5,
2,
2,
7,
26,
25,
41,
40,
40,
38,
14,
14,
3,
11,
11,
15,
15,
22,
22,
25,
25,
26,
26,
29,
29,
21,
21,
16,
16,
8,
8,
2,
2,
6,
6,
8,
8,
13,
13,
20,
20,
28,
28,
32,
20,
21,
7,
7,
7,
0,
0,
2,
2,
2,
2,
2,
2,
6,
6,
5,
5,
6,
6,
3,
3,
6,
6,
8,
8,
11,
11,
3,
3,
6,
6,
5,
5,
1,
1,
3,
14,
14,
14,
18,
18,
16,
0,
2,
2,
2,
2,
2,
2,
9,
9,
15,
15,
13,
13,
4,
4,
2,
2,
3,
3,
-1,
-1,
3,
3,
3,
3,
3,
28,
27,
27,
27,
2,
3,
15,
14,
14,
17,
17,
15,
15,
12,
12,
5,
5,
0,
0,
0,
0,
-1,
-1,
0,
0,
-1,
-1,
0,
0,
4,
4,
8,
8,
7,
7,
9,
9,
5,
5,
0,
0,
0,
0,
2,
2,
0,
0,
0,
0,
0,
0,
0,
0,
6,
6,
6,
6,
8,
8,
16,
16,
18,
7,
7,
7,
2,
2,
5,
5,
12,
12,
21,
21,
18,
7,
7,
7,
1,
1,
1,
1,
6,
6,
10,
10,
5,
5,
6,
6,
14,
14,
10,
10,
8,
8,
9,
9,
18,
18,
20,
20,
17,
4,
5,
5,
7,
7,
6,
6,
1,
1,
1,
1,
0,
0,
2,
2,
3,
3,
8,
8,
6,
6,
6,
6,
4,
4,
4,
4,
3,
3,
2,
2,
2,
2,
5,
5,
5,
5,
8,
8,
10,
10,
7,
7,
16,
16,
16,
16,
17,
17,
21,
10,
10,
10,
10,
10,
19,
19,
20,
7,
8,
8,
3,
3,
-1,
-1,
-1,
-1,
7,
7,
15,
4,
4,
4,
8,
8,
11,
11,
12,
12,
11,
11,
5,
5,
0,
0,
1,
1,
3,
3,
11,
11,
6,
6,
3,
3,
9,
9,
9,
9,
8,
8,
7,
7,
8,
8,
13,
13,
5,
5,
9,
9,
9,
9,
0,
0,
8,
8,
8,
8,
1,
1,
6,
6,
8,
8,
3,
3,
0,
0,
0,
0,
5,
5,
8,
8,
10,
10,
4,
4,
1,
1,
4,
4,
4,
4,
5,
5,
1,
1,
5,
5,
13,
13,
22,
22,
20,
20,
10,
10,
4,
4,
-1,
-1,
2,
2,
2,
2,
7,
7,
14,
14,
9,
9,
3,
3,
-1,
-1,
2,
2,
2,
2,
-1,
-1,
-1,
-1,
0,
0,
1,
1,
0,
0,
1,
1,
2,
14,
12,
12,
19,
19,
19,
19,
11,
0,
1,
1,
8,
8,
11,
11,
12,
12,
12,
12,
8,
8,
8,
8,
6,
6,
0,
0,
3,
3,
6,
6,
4,
4,
6,
6,
5,
5,
5,
5,
1,
1,
3,
3,
6,
6,
3,
3,
0,
0,
4,
4,
3,
3,
-1,
-1,
0,
0,
7,
7,
10,
10,
4,
4,
1,
1,
5,
5,
7,
7,
5,
5,
4,
4,
0,
0,
4,
4,
2,
2,
-1,
-1,
0,
0,
1,
1,
3,
3,
5,
5,
1,
1,
3,
3,
7,
7,
11,
11,
4,
4,
1,
1,
1,
1,
5,
22,
22,
22,
24,
3,
3,
21,
20,
32,
31,
31,
22,
22,
14,
14,
16,
4,
4,
4,
13,
31,
31,
31,
38,
20,
21,
0,
0,
0,
6,
6,
8,
8,
7,
7,
1,
1,
2,
2,
-2,
-2,
-1,
-1,
5,
5,
5,
5,
7,
7,
5,
5,
3,
3,
0,
0,
-1,
-1,
1,
1,
3,
3,
1,
1,
2,
2,
-1,
-1,
2,
2,
2,
2,
9,
9,
12,
12,
22,
22,
27,
27,
23,
23,
13,
0,
2,
2,
10,
10,
10,
10,
14,
14,
19,
19,
24,
24,
20,
20,
10,
-1,
0,
0,
2,
2,
4,
4,
9,
9,
16,
16,
15,
15,
23,
23,
23,
23,
14,
0,
2,
2,
8,
8,
12,
12,
15,
15,
17,
17,
17,
17,
14,
1,
2,
2,
8,
8,
14,
14,
19,
33,
33,
33,
34,
8,
8,
8,
8,
8,
16,
16,
20,
20,
15,
2,
3,
3,
4,
4,
6,
6,
4,
4,
3,
3,
10,
10,
10,
10,
6,
6,
7,
7,
3,
3,
2,
2,
7,
7,
6,
6,
8,
8,
16,
16,
17,
17,
10,
10,
11,
11,
20,
20,
12,
12,
12,
12,
18,
18,
19,
19,
14,
1,
2,
2,
9,
22,
20,
20,
24,
13,
14,
3,
4,
4,
-1,
-1,
4,
4,
6,
6,
10,
10,
8,
8,
0,
12,
11,
11,
14,
14,
5,
5,
2,
2,
3,
3,
-1,
-1,
-1,
-1,
5,
5,
14,
14,
8,
8,
2,
2,
6,
6,
11,
11,
16,
16,
16,
16,
13,
13,
12,
1,
2,
14,
14,
14,
16,
16,
18,
18,
12,
12,
7,
7,
3,
3,
4,
4,
2,
2,
2,
2,
3,
3,
-1,
-1,
2,
2,
5,
5,
8,
8,
8,
8,
3,
3,
1,
1,
7,
7,
10,
10,
5,
5,
11,
11,
15,
15,
13,
0,
1,
1,
6,
6,
11,
11,
8,
8,
9,
9,
7,
7,
8,
8,
11,
11,
13,
13,
6,
6,
10,
22,
22,
22,
27,
27,
18,
7,
7,
7,
7,
7,
4,
4,
7,
7,
13,
1,
4,
4,
13,
1,
2,
14,
14,
14,
12,
12,
7,
7,
6,
6,
12,
0,
4,
4,
10,
10,
2,
2,
-1,
-1,
5,
5,
9,
9,
7,
7,
3,
3,
7,
22,
21,
21,
24,
24,
14,
14,
17,
17,
26,
26,
16,
5,
6,
6,
5,
22,
21,
21,
26,
26,
19,
19,
14,
14,
4,
4,
-1,
-1,
0,
0,
4,
4,
1,
1,
2,
2,
2,
2,
-1,
-1,
2,
2,
-1,
-1,
4,
4,
5,
5,
5,
16,
15,
15,
21,
21,
17,
17,
14,
14,
23,
23,
14,
0,
2,
2,
6,
17,
16,
16,
18,
18,
13,
13,
15,
15,
13,
13,
8,
8,
4,
4,
8,
21,
20,
20,
16,
16,
6,
6,
5,
16,
16,
16,
19,
2,
2,
2,
3,
3,
-1,
11,
10,
39,
38,
38,
44,
21,
22,
1,
3,
3,
11,
11,
14,
14,
15,
15,
13,
13,
11,
0,
1,
1,
0,
12,
12,
12,
11,
11,
15,
15,
5,
5,
11,
11,
16,
16,
12,
12,
18,
18,
24,
24,
20,
20,
10,
-1,
0,
0,
2,
2,
8,
8,
5,
5,
4,
4,
8,
8,
1,
12,
11,
11,
7,
7,
9,
9,
5,
5,
2,
2,
2,
2,
3,
3,
1,
1,
0,
0,
0,
0,
2,
2,
0,
0,
-1,
-1,
4,
4,
2,
2,
1,
1,
-1,
-1,
2,
2,
0,
0,
0,
0,
3,
3,
0,
0,
4,
4,
3,
18,
18,
18,
18,
2,
2,
2,
8,
8,
17,
2,
7,
24,
22,
11,
12,
1,
9,
28,
27,
27,
24,
2,
3,
3,
8,
28,
28,
28,
30,
12,
13,
13,
13,
13,
11,
11,
8,
31,
30,
30,
38,
38,
33,
16,
16,
0,
1,
1,
6,
6,
5,
5,
4,
4,
8,
8,
11,
11,
11,
24,
23,
23,
28,
28,
27,
27,
33,
21,
22,
3,
9,
26,
26,
26,
34,
34,
32,
21,
21,
21,
13,
0,
1,
1,
4,
4,
8,
8,
10,
10,
9,
9,
11,
11,
7,
7,
3,
3,
6,
6,
8,
8,
6,
6,
0,
0,
0,
0,
3,
3,
0,
0,
6,
6,
8,
8,
2,
2,
0,
0,
2,
2,
-1,
-1,
0,
0,
0,
0,
2,
2,
2,
2,
7,
7,
8,
8,
4,
4,
4,
4,
-1,
-1,
3,
3,
7,
7,
2,
2,
3,
3,
5,
5,
7,
7,
1,
1,
3,
3,
0,
0,
0,
0,
0,
0,
7,
7,
5,
5,
1,
1,
9,
9,
14,
14,
16,
16,
15,
15,
6,
6,
0,
0,
2,
14,
13,
13,
14,
14,
9,
9,
10,
10,
6,
6,
0,
0,
2,
2,
3,
3,
10,
10,
9,
9,
4,
4,
-1,
-1,
0,
0,
3,
3,
11,
23,
22,
22,
16,
3,
3,
3,
6,
6,
10,
10,
7,
7,
5,
5,
2,
2,
0,
0,
-1,
-1,
1,
1,
6,
6,
1,
1,
0,
0,
4,
4,
13,
26,
25,
25,
19,
3,
3,
3,
4,
4,
9,
9,
9,
9,
8,
8,
4,
4,
-1,
-1,
3,
3,
4,
4,
2,
2,
6,
6,
13,
24,
23,
23,
21,
10,
10,
-1,
0,
0,
9,
9,
16,
16,
18,
18,
16,
16,
11,
-1,
0,
0,
8,
8,
14,
14,
6,
6,
2,
2,
0,
13,
12,
29,
28,
16,
16,
0,
3,
3,
10,
10,
15,
15,
18,
18,
9,
9,
4,
4,
4,
4,
2,
2,
1,
1,
0,
0,
2,
2,
4,
22,
21,
21,
22,
22,
13,
1,
2,
2,
0,
0,
0,
0,
4,
4,
6,
6,
7,
7,
6,
6,
3,
3,
5,
5,
8,
8,
10,
10,
1,
1,
3,
3,
5,
5,
14,
14,
7,
26,
26,
42,
41,
41,
32,
7,
8,
8,
15,
15,
24,
24,
26,
26,
22,
10,
11,
11,
7,
7,
2,
2,
7,
23,
22,
22,
16,
16,
23,
23,
22,
3,
3,
17,
16,
16,
19,
6,
7,
7,
3,
3,
6,
6,
6,
6,
11,
11,
12,
12,
6,
6,
1,
1,
6,
6,
9,
9,
14,
14,
19,
19,
23,
23,
19,
19,
10,
-1,
0,
0,
2,
2,
6,
6,
12,
12,
12,
12,
8,
8,
4,
4,
1,
1,
2,
2,
5,
5,
7,
7,
0,
11,
10,
25,
24,
24,
27,
27,
27,
14,
14,
0,
1,
12,
11,
11,
19,
19,
20,
20,
10,
10,
5,
5,
6,
6,
5,
5,
2,
2,
-1,
-1,
2,
2,
3,
3,
8,
8,
9,
9,
1,
1,
6,
6,
14,
14,
15,
15,
10,
10,
3,
3,
2,
2,
0,
0,
2,
2,
11,
11,
7,
7,
-1,
-1,
-1,
-1,
0,
0,
0,
0,
2,
2,
0,
0,
3,
3,
2,
2,
1,
1,
1,
1,
1,
1,
6,
6,
0,
0,
4,
4,
12,
12,
5,
5,
3,
3,
10,
10,
9,
9,
2,
2,
0,
0,
5,
5,
15,
26,
26,
26,
16,
16,
7,
7,
8,
8,
2,
2,
1,
14,
14,
14,
23,
23,
27,
27,
25,
10,
11,
11,
10,
10,
19,
19,
21,
7,
7,
7,
2,
2,
1,
1,
3,
3,
2,
2,
3,
3,
10,
10,
16,
16,
19,
19,
19,
19,
21,
2,
3,
18,
17,
17,
22,
22,
20,
20,
15,
15,
9,
9,
6,
6,
4,
4,
5,
5,
2,
2,
2,
2,
8,
8,
15,
15,
18,
18,
14,
14,
6,
6,
2,
2,
-1,
-1,
5,
5,
4,
4,
2,
2,
4,
4,
12,
12,
16,
16,
18,
18,
14,
1,
4,
4,
12,
12,
16,
16,
13,
13,
6,
6,
5,
5,
3,
3,
4,
4,
1,
1,
-1,
-1,
-1,
-1,
3,
3,
3,
3,
6,
6,
8,
8,
7,
7,
11,
11,
11,
11,
13,
13,
10,
10,
6,
6,
0,
0,
1,
1,
7,
7,
10,
10,
8,
8,
-1,
-1,
1,
1,
6,
6,
5,
5,
7,
7,
2,
17,
16,
30,
29,
29,
21,
3,
3,
3,
4,
4,
7,
7,
7,
7,
10,
10,
7,
7,
4,
4,
1,
1,
1,
1,
3,
3,
0,
0,
5,
5,
12,
12,
10,
10,
7,
7,
5,
5,
0,
0,
1,
1,
3,
3,
2,
2,
0,
0,
2,
2,
0,
0,
3,
3,
0,
0,
6,
6,
12,
1,
2,
2,
0,
0,
0,
0,
8,
8,
6,
6,
3,
3,
0,
0,
6,
6,
4,
4,
2,
2,
10,
10,
9,
9,
1,
1,
0,
0,
1,
1,
2,
2,
6,
6,
8,
8,
15,
15,
19,
19,
14,
0,
1,
1,
6,
6,
9,
9,
3,
3,
7,
7,
16,
16,
18,
18,
8,
8,
6,
6,
3,
3,
0,
0,
5,
5,
9,
9,
10,
10,
10,
10,
3,
3,
8,
8,
4,
4,
2,
2,
0,
0,
4,
4,
3,
3,
4,
4,
8,
8,
9,
9,
3,
3,
3,
3,
10,
10,
2,
18,
18,
18,
17,
3,
3,
3,
6,
6,
10,
10,
2,
2,
3,
3,
10,
10,
2,
2,
6,
6,
5,
5,
7,
7,
5,
5,
8,
8,
5,
5,
1,
1,
0,
0,
-1,
-1,
6,
6,
11,
11,
4,
4,
10,
10,
17,
17,
14,
14,
