EMG_S1/DS0129.CSV

Memory Length,4000,
Trigger Level,0.00000e+00,
Source,CH1,
Probe,1.0X,
Vertical Units,V,
Vertical Scale,1.00000e+00,
Vertical Position,4.00000e-02,
Horizontal Units,S,
Horizontal Scale,1.00000e-01,
Horizontal Position,0.0000000e+00,
Horizontal Mode,Roll Mode,
Waveform Last Dot Address,4000,
Sampling Period,4.00000e-04,
Firmware,V1.14,
Time, ,
Mode,Fast,
Waveform Data,
5,
5,
11,
11,
6,
6,
5,
5,
1,
1,
1,
1,
3,
3,
2,
2,
4,
4,
12,
12,
11,
11,
9,
9,
6,
6,
2,
2,
5,
5,
0,
0,
3,
3,
8,
8,
14,
14,
12,
12,
7,
7,
3,
3,
11,
11,
18,
18,
25,
25,
30,
30,
29,
18,
18,
2,
3,
18,
16,
16,
24,
24,
31,
31,
26,
26,
19,
19,
13,
13,
7,
7,
2,
2,
5,
16,
15,
15,
21,
21,
21,
21,
11,
11,
4,
4,
2,
2,
0,
0,
0,
0,
-1,
-1,
2,
2,
3,
3,
0,
0,
1,
1,
-1,
-1,
6,
6,
7,
7,
8,
8,
9,
9,
4,
4,
1,
1,
4,
4,
1,
1,
3,
3,
6,
6,
7,
7,
4,
4,
3,
3,
2,
2,
2,
2,
5,
5,
5,
5,
0,
0,
6,
6,
16,
16,
25,
25,
18,
6,
6,
6,
5,
5,
10,
10,
8,
8,
5,
5,
3,
3,
7,
7,
8,
8,
3,
3,
8,
8,
14,
14,
14,
2,
2,
2,
3,
3,
7,
7,
1,
1,
11,
11,
13,
13,
8,
8,
7,
7,
4,
4,
9,
9,
9,
9,
14,
14,
14,
14,
8,
8,
2,
2,
-1,
-1,
1,
1,
6,
6,
7,
7,
6,
6,
3,
3,
0,
0,
4,
4,
12,
12,
9,
9,
0,
0,
2,
2,
5,
5,
0,
0,
0,
0,
3,
3,
0,
0,
2,
2,
4,
4,
0,
0,
4,
4,
7,
7,
9,
9,
10,
10,
7,
7,
8,
8,
8,
8,
0,
0,
2,
2,
4,
4,
9,
9,
9,
9,
5,
5,
0,
0,
0,
0,
1,
1,
0,
0,
-1,
-1,
-1,
-1,
0,
0,
-1,
-1,
6,
6,
11,
11,
18,
18,
19,
19,
10,
10,
2,
2,
-1,
-1,
-1,
-1,
6,
6,
3,
3,
6,
6,
12,
12,
12,
12,
11,
11,
7,
7,
4,
4,
10,
10,
16,
16,
10,
10,
3,
3,
4,
4,
2,
2,
0,
0,
2,
2,
0,
0,
7,
7,
2,
2,
-1,
-1,
1,
1,
5,
5,
5,
5,
10,
10,
11,
0,
2,
2,
1,
1,
1,
1,
3,
3,
2,
2,
4,
4,
6,
6,
7,
7,
11,
0,
2,
2,
8,
8,
8,
8,
6,
6,
1,
1,
-1,
-1,
0,
0,
2,
2,
4,
4,
0,
0,
-1,
-1,
0,
0,
3,
3,
1,
1,
0,
0,
6,
6,
11,
11,
5,
5,
0,
0,
5,
5,
4,
4,
0,
0,
2,
2,
2,
2,
-1,
-1,
-1,
-1,
1,
1,
2,
2,
-1,
-1,
0,
0,
1,
1,
1,
1,
1,
1,
2,
2,
6,
6,
6,
6,
0,
0,
1,
1,
5,
5,
2,
2,
6,
6,
3,
3,
0,
0,
-1,
-1,
-1,
-1,
2,
2,
2,
2,
0,
0,
2,
2,
5,
5,
8,
8,
6,
6,
4,
4,
1,
1,
5,
5,
5,
5,
1,
1,
-1,
-1,
1,
1,
1,
1,
2,
2,
3,
3,
5,
5,
1,
1,
7,
7,
4,
4,
0,
0,
4,
4,
-1,
-1,
0,
0,
8,
8,
12,
12,
8,
8,
0,
0,
8,
8,
13,
13,
12,
12,
10,
10,
4,
4,
2,
2,
6,
6,
13,
13,
17,
17,
10,
10,
6,
6,
13,
13,
13,
-1,
1,
1,
6,
6,
10,
10,
15,
15,
11,
-1,
0,
0,
3,
3,
0,
0,
2,
2,
0,
0,
6,
6,
11,
11,
13,
13,
5,
5,
-1,
-1,
4,
4,
6,
6,
0,
0,
7,
7,
6,
6,
1,
1,
2,
2,
0,
0,
2,
2,
8,
8,
5,
5,
-1,
-1,
2,
2,
7,
7,
4,
4,
0,
0,
0,
0,
2,
2,
1,
1,
3,
3,
11,
11,
16,
16,
14,
14,
9,
9,
1,
1,
0,
0,
6,
6,
11,
11,
6,
6,
2,
2,
0,
0,
4,
4,
3,
3,
5,
5,
7,
7,
4,
4,
6,
6,
2,
2,
3,
3,
7,
7,
10,
28,
28,
28,
28,
9,
10,
10,
1,
1,
6,
6,
3,
16,
15,
15,
11,
11,
2,
2,
7,
7,
15,
15,
18,
18,
19,
19,
14,
14,
5,
5,
6,
6,
12,
12,
17,
17,
22,
22,
22,
22,
14,
0,
1,
1,
7,
7,
4,
4,
0,
0,
4,
15,
14,
26,
26,
26,
27,
6,
6,
6,
10,
10,
16,
16,
22,
22,
23,
23,
14,
3,
5,
5,
2,
2,
3,
3,
0,
0,
2,
2,
7,
7,
5,
5,
2,
2,
4,
4,
11,
11,
13,
13,
14,
14,
10,
10,
0,
0,
3,
3,
4,
4,
5,
5,
5,
5,
3,
3,
7,
7,
3,
3,
4,
15,
15,
15,
7,
7,
2,
2,
1,
1,
1,
1,
1,
1,
2,
2,
3,
3,
6,
6,
14,
28,
27,
27,
31,
11,
12,
0,
0,
0,
5,
21,
20,
33,
32,
32,
29,
29,
21,
21,
16,
16,
7,
7,
2,
2,
3,
3,
2,
2,
4,
4,
8,
8,
14,
14,
15,
15,
17,
17,
15,
15,
11,
11,
17,
17,
9,
9,
0,
0,
-1,
-1,
7,
7,
4,
4,
7,
7,
14,
14,
15,
15,
10,
10,
7,
7,
6,
6,
5,
5,
3,
3,
3,
3,
0,
0,
6,
6,
14,
14,
22,
22,
17,
4,
5,
5,
0,
0,
2,
2,
-1,
-1,
0,
0,
0,
0,
-1,
-1,
1,
1,
9,
9,
14,
3,
3,
3,
0,
0,
3,
3,
8,
8,
11,
11,
17,
17,
26,
26,
28,
28,
22,
2,
6,
25,
25,
25,
32,
32,
32,
32,
26,
11,
13,
13,
8,
8,
0,
0,
6,
6,
12,
12,
20,
20,
27,
27,
32,
19,
19,
8,
9,
9,
7,
7,
4,
4,
4,
4,
10,
10,
20,
20,
22,
22,
22,
22,
18,
18,
11,
0,
1,
14,
13,
13,
19,
19,
16,
16,
13,
13,
6,
6,
10,
10,
8,
8,
3,
3,
5,
5,
0,
0,
0,
0,
7,
23,
22,
22,
16,
4,
4,
4,
1,
12,
12,
12,
15,
15,
9,
9,
6,
6,
9,
9,
14,
14,
16,
16,
10,
-1,
2,
14,
14,
14,
19,
19,
18,
18,
15,
15,
14,
14,
10,
10,
2,
2,
4,
4,
8,
8,
4,
4,
3,
3,
0,
0,
-1,
-1,
-1,
-1,
0,
0,
-1,
-1,
-1,
-1,
6,
6,
8,
8,
3,
3,
0,
13,
13,
29,
28,
28,
35,
12,
13,
0,
5,
5,
8,
8,
2,
2,
5,
5,
2,
2,
8,
8,
10,
10,
3,
3,
4,
15,
14,
14,
14,
14,
11,
11,
9,
9,
3,
3,
6,
6,
12,
12,
15,
15,
10,
10,
8,
8,
3,
3,
0,
0,
9,
9,
18,
18,
19,
8,
8,
8,
2,
2,
4,
4,
8,
8,
10,
10,
9,
9,
8,
8,
4,
4,
2,
2,
2,
2,
4,
4,
4,
4,
7,
7,
7,
7,
0,
0,
2,
2,
0,
0,
2,
2,
2,
2,
5,
5,
1,
1,
0,
0,
1,
1,
0,
0,
1,
1,
0,
0,
0,
0,
6,
6,
10,
10,
9,
9,
6,
6,
8,
8,
8,
8,
5,
5,
0,
0,
8,
8,
10,
10,
4,
4,
8,
8,
16,
16,
14,
14,
19,
19,
19,
0,
2,
2,
3,
3,
4,
4,
6,
6,
7,
7,
4,
4,
4,
4,
7,
18,
17,
17,
17,
17,
12,
12,
5,
5,
1,
1,
8,
8,
9,
9,
6,
6,
10,
10,
6,
6,
6,
6,
2,
2,
-1,
-1,
6,
6,
11,
11,
9,
9,
6,
6,
2,
2,
2,
2,
7,
7,
16,
28,
26,
14,
14,
2,
11,
22,
21,
21,
22,
22,
12,
12,
4,
4,
6,
6,
9,
9,
5,
5,
0,
0,
7,
7,
15,
15,
13,
13,
9,
9,
4,
4,
0,
0,
-1,
-1,
7,
7,
6,
6,
-1,
-1,
2,
2,
6,
6,
7,
7,
8,
8,
2,
2,
2,
2,
0,
14,
14,
14,
23,
23,
20,
7,
7,
7,
3,
3,
10,
10,
10,
10,
10,
10,
10,
10,
2,
2,
2,
2,
-1,
-1,
0,
0,
2,
2,
3,
3,
0,
0,
-1,
-1,
1,
1,
6,
6,
11,
11,
11,
11,
5,
5,
0,
0,
0,
0,
3,
3,
-1,
-1,
-1,
-1,
2,
2,
9,
9,
11,
11,
10,
10,
1,
1,
5,
5,
10,
10,
11,
11,
7,
7,
0,
0,
-1,
-1,
4,
4,
5,
5,
0,
0,
0,
0,
4,
4,
3,
3,
2,
2,
8,
8,
15,
15,
13,
0,
2,
14,
13,
13,
11,
11,
9,
9,
16,
5,
6,
6,
3,
3,
3,
3,
-1,
-1,
1,
1,
5,
5,
0,
0,
-1,
-1,
4,
4,
7,
7,
10,
10,
9,
9,
4,
4,
0,
0,
-1,
11,
11,
11,
18,
18,
20,
20,
22,
7,
8,
8,
8,
8,
14,
14,
12,
12,
4,
4,
-1,
-1,
6,
6,
11,
11,
11,
11,
9,
9,
3,
3,
1,
1,
0,
0,
8,
19,
17,
17,
18,
18,
10,
10,
5,
5,
2,
2,
-1,
-1,
1,
1,
0,
0,
10,
26,
25,
42,
41,
41,
42,
18,
18,
3,
9,
9,
10,
10,
16,
16,
24,
24,
22,
22,
12,
0,
1,
1,
0,
0,
3,
3,
6,
6,
5,
5,
4,
4,
5,
5,
0,
0,
6,
6,
1,
1,
4,
4,
7,
7,
5,
5,
1,
1,
3,
3,
2,
2,
2,
2,
6,
6,
1,
15,
14,
14,
18,
18,
13,
13,
10,
10,
7,
7,
11,
11,
9,
9,
0,
0,
7,
7,
13,
13,
17,
17,
18,
18,
14,
14,
7,
7,
3,
3,
0,
0,
7,
7,
11,
11,
10,
10,
13,
13,
12,
12,
10,
10,
10,
10,
2,
2,
7,
7,
8,
8,
2,
2,
10,
10,
1,
1,
7,
7,
2,
2,
0,
0,
1,
1,
2,
2,
1,
1,
2,
2,
-1,
-1,
1,
1,
5,
5,
6,
6,
8,
8,
3,
3,
2,
2,
-1,
10,
10,
10,
17,
17,
17,
17,
14,
14,
10,
10,
5,
5,
1,
1,
4,
4,
10,
10,
4,
4,
7,
18,
16,
16,
16,
16,
14,
14,
7,
7,
3,
3,
10,
10,
13,
13,
7,
7,
0,
0,
0,
0,
2,
2,
5,
5,
10,
10,
10,
10,
6,
6,
5,
5,
3,
3,
9,
27,
27,
38,
37,
37,
42,
18,
18,
4,
14,
14,
23,
23,
17,
17,
12,
12,
10,
10,
7,
7,
3,
3,
0,
0,
9,
26,
25,
25,
23,
2,
3,
16,
15,
15,
21,
21,
21,
21,
15,
15,
8,
8,
6,
6,
0,
13,
12,
12,
20,
20,
17,
17,
11,
11,
7,
7,
7,
7,
11,
11,
10,
10,
14,
14,
11,
11,
3,
3,
6,
6,
6,
6,
6,
6,
12,
12,
17,
17,
15,
15,
9,
9,
1,
1,
3,
3,
4,
4,
-1,
-1,
4,
4,
14,
14,
12,
12,
3,
3,
2,
2,
6,
6,
1,
1,
6,
6,
14,
14,
13,
13,
6,
6,
6,
6,
7,
7,
10,
10,
3,
3,
4,
4,
8,
8,
13,
13,
11,
11,
9,
9,
9,
9,
6,
6,
6,
6,
4,
4,
4,
4,
5,
5,
2,
2,
8,
19,
19,
19,
27,
27,
23,
5,
6,
6,
-1,
-1,
-1,
-1,
5,
5,
7,
7,
1,
14,
13,
13,
21,
9,
10,
-1,
0,
0,
-1,
-1,
-1,
-1,
-1,
-1,
9,
21,
20,
20,
24,
24,
20,
8,
8,
8,
0,
0,
6,
6,
6,
6,
6,
6,
8,
8,
7,
7,
9,
24,
24,
24,
26,
14,
14,
14,
6,
6,
1,
1,
0,
0,
5,
5,
13,
13,
16,
16,
14,
14,
9,
9,
4,
4,
7,
7,
4,
4,
12,
12,
17,
17,
10,
10,
2,
2,
2,
2,
1,
1,
0,
15,
14,
14,
9,
9,
4,
4,
7,
7,
0,
0,
3,
3,
0,
0,
-1,
-1,
0,
0,
2,
2,
1,
1,
1,
1,
5,
5,
7,
7,
4,
4,
1,
1,
1,
1,
1,
1,
-1,
-1,
0,
0,
6,
6,
9,
9,
3,
3,
3,
3,
1,
1,
0,
0,
1,
1,
1,
1,
5,
5,
3,
3,
6,
6,
9,
9,
8,
8,
15,
15,
11,
0,
5,
18,
17,
17,
10,
10,
4,
4,
2,
2,
-1,
-1,
2,
2,
-1,
-1,
-2,
-2,
2,
2,
10,
10,
12,
0,
2,
2,
8,
8,
12,
12,
11,
11,
5,
5,
5,
5,
6,
6,
6,
6,
3,
3,
6,
6,
6,
6,
2,
2,
5,
5,
6,
6,
6,
6,
6,
6,
0,
0,
2,
2,
0,
0,
3,
3,
2,
2,
2,
2,
10,
22,
22,
22,
22,
22,
16,
16,
7,
7,
2,
21,
21,
21,
28,
28,
28,
28,
19,
5,
6,
6,
8,
8,
8,
8,
10,
10,
15,
15,
17,
17,
16,
3,
3,
3,
6,
6,
9,
9,
11,
11,
6,
6,
1,
1,
0,
0,
0,
16,
16,
27,
27,
16,
18,
0,
2,
2,
6,
6,
7,
7,
9,
9,
9,
9,
2,
2,
4,
4,
4,
4,
0,
0,
4,
4,
3,
3,
2,
2,
5,
5,
6,
6,
6,
6,
0,
0,
5,
5,
8,
8,
9,
9,
6,
6,
3,
3,
0,
0,
0,
0,
3,
3,
2,
2,
5,
5,
0,
0,
-1,
-1,
4,
4,
7,
7,
2,
2,
-1,
-1,
0,
0,
6,
6,
13,
13,
10,
10,
6,
6,
0,
0,
6,
6,
14,
14,
15,
15,
8,
8,
11,
11,
20,
20,
18,
1,
2,
19,
18,
18,
23,
23,
22,
22,
14,
14,
7,
7,
0,
0,
10,
10,
16,
16,
13,
13,
10,
10,
9,
9,
7,
7,
0,
0,
5,
5,
6,
6,
6,
6,
2,
2,
4,
4,
2,
2,
-1,
-1,
1,
1,
0,
0,
0,
0,
0,
0,
2,
2,
2,
2,
0,
0,
2,
2,
2,
2,
4,
4,
3,
3,
0,
0,
0,
0,
7,
7,
11,
11,
6,
6,
3,
3,
2,
2,
-2,
-2,
4,
4,
7,
7,
6,
6,
1,
1,
0,
0,
3,
3,
3,
3,
-1,
-1,
2,
2,
3,
3,
0,
0,
2,
2,
3,
3,
2,
2,
0,
0,
3,
3,
2,
2,
0,
0,
3,
3,
1,
1,
6,
6,
11,
11,
11,
11,
2,
2,
3,
3,
6,
6,
2,
2,
0,
0,
-1,
-1,
-1,
-1,
2,
2,
7,
7,
5,
5,
5,
5,
6,
6,
7,
7,
1,
1,
4,
15,
15,
15,
16,
16,
8,
8,
0,
0,
-1,
-1,
0,
0,
4,
4,
5,
5,
5,
5,
1,
1,
6,
6,
11,
11,
5,
5,
2,
2,
4,
4,
1,
1,
5,
5,
3,
3,
2,
2,
1,
1,
0,
0,
5,
5,
8,
8,
11,
-1,
0,
0,
4,
4,
10,
10,
10,
10,
6,
6,
3,
3,
4,
4,
5,
5,
7,
7,
12,
12,
15,
15,
11,
0,
2,
2,
8,
8,
3,
3,
0,
0,
4,
4,
6,
6,
7,
7,
0,
0,
7,
7,
0,
0,
1,
1,
7,
7,
7,
7,
2,
2,
2,
2,
2,
2,
0,
0,
3,
3,
6,
6,
4,
4,
2,
2,
-1,
-1,
2,
2,
9,
9,
11,
11,
9,
9,
5,
5,
11,
11,
14,
1,
5,
5,
14,
14,
13,
13,
10,
10,
7,
7,
3,
3,
1,
1,
2,
13,
12,
12,
13,
2,
3,
3,
0,
0,
0,
0,
-1,
-1,
0,
0,
-1,
-1,
0,
0,
0,
0,
-1,
-1,
0,
0,
2,
2,
4,
4,
7,
7,
4,
4,
-1,
-1,
-1,
-1,
1,
1,
0,
0,
1,
1,
2,
2,
2,
2,
-1,
-1,
2,
2,
9,
9,
11,
11,
3,
3,
1,
1,
0,
0,
2,
2,
4,
4,
6,
6,
6,
6,
0,
0,
8,
8,
7,
7,
9,
9,
5,
5,
-1,
-1,
2,
2,
1,
1,
-1,
-1,
4,
4,
8,
8,
11,
11,
1,
1,
5,
5,
7,
7,
8,
8,
8,
8,
7,
7,
3,
3,
-1,
-1,
0,
0,
2,
2,
8,
8,
14,
14,
12,
12,
8,
8,
3,
3,
1,
1,
0,
0,
-1,
-1,
2,
2,
-1,
-1,
2,
2,
7,
7,
6,
6,
4,
4,
14,
14,
14,
0,
1,
1,
0,
0,
5,
5,
4,
4,
0,
0,
3,
3,
5,
5,
2,
2,
2,
2,
6,
6,
3,
3,
-1,
-1,
0,
0,
6,
6,
4,
4,
3,
3,
0,
0,
6,
6,
7,
7,
4,
4,
4,
4,
5,
18,
18,
18,
17,
17,
11,
0,
0,
0,
4,
4,
8,
8,
15,
26,
25,
25,
31,
31,
30,
17,
17,
1,
2,
16,
16,
16,
23,
23,
18,
18,
8,
8,
6,
6,
2,
2,
2,
2,
0,
0,
8,
8,
11,
11,
6,
6,
3,
3,
1,
1,
10,
10,
14,
14,
9,
9,
3,
3,
0,
0,
3,
3,
6,
6,
5,
5,
6,
6,
6,
6,
8,
8,
8,
8,
8,
8,
0,
0,
3,
3,
8,
8,
11,
11,
8,
8,
5,
5,
7,
7,
9,
9,
4,
4,
5,
5,
11,
11,
15,
15,
15,
15,
11,
11,
9,
9,
10,
10,
2,
2,
11,
11,
16,
16,
10,
10,
7,
7,
0,
0,
5,
5,
11,
11,
6,
6,
1,
1,
7,
7,
6,
6,
0,
0,
2,
2,
2,
2,
2,
2,
3,
3,
5,
5,
3,
3,
-1,
-1,
2,
2,
3,
3,
0,
0,
7,
7,
13,
13,
14,
14,
8,
8,
2,
2,
1,
1,
0,
0,
3,
3,
4,
4,
7,
7,
7,
7,
8,
8,
4,
4,
0,
0,
5,
5,
6,
6,
15,
15,
18,
18,
15,
3,
3,
3,
3,
3,
5,
5,
4,
4,
2,
2,
4,
4,
5,
5,
2,
2,
0,
0,
2,
2,
9,
9,
1,
1,
1,
1,
-1,
-1,
0,
0,
5,
5,
12,
12,
4,
4,
2,
2,
5,
5,
4,
4,
3,
3,
4,
4,
10,
10,
6,
6,
3,
3,
5,
5,
12,
12,
5,
5,
11,
11,
16,
16,
10,
10,
6,
6,
1,
1,
2,
2,
8,
8,
12,
12,
12,
12,
8,
8,
8,
8,
4,
4,
0,
0,
5,
5,
7,
7,
4,
4,
-1,
-1,
6,
6,
2,
2,
10,
10,
16,
16,
9,
9,
5,
5,
-1,
-1,
1,
1,
7,
7,
17,
17,
19,
19,
16,
16,
9,
9,
0,
0,
6,
6,
14,
14,
23,
34,
33,
33,
29,
4,
4,
4,
6,
6,
7,
7,
-1,
-1,
-2,
-2,
1,
1,
10,
10,
15,
15,
11,
11,
10,
10,
10,
10,
6,
6,
2,
2,
6,
6,
6,
6,
8,
8,
10,
10,
9,
9,
9,
9,
10,
10,
7,
7,
0,
0,
2,
2,
1,
1,
2,
2,
3,
3,
0,
0,
3,
3,
4,
4,
6,
6,
3,
3,
0,
0,
0,
0,
1,
1,
0,
0,
1,
1,
4,
4,
7,
7,
5,
5,
-1,
-1,
1,
1,
0,
0,
3,
3,
0,
0,
0,
0,
0,
0,
1,
1,
0,
0,
0,
0,
-1,
-1,
1,
1,
5,
5,
3,
3,
-1,
-1,
3,
3,
5,
5,
2,
2,
6,
6,
10,
10,
2,
2,
10,
23,
23,
23,
15,
1,
2,
2,
1,
1,
1,
1,
-1,
-1,
1,
1,
0,
0,
6,
6,
13,
13,
13,
13,
9,
9,
6,
6,
0,
0,
3,
3,
3,
3,
2,
2,
4,
4,
6,
6,
5,
5,
6,
6,
10,
10,
11,
11,
9,
9,
6,
6,
4,
4,
-1,
-1,
2,
2,
0,
0,
-1,
-1,
2,
2,
6,
6,
12,
12,
11,
11,
5,
5,
6,
6,
6,
6,
8,
8,
17,
17,
15,
15,
9,
9,
10,
10,
7,
7,
4,
4,
7,
7,
5,
5,
9,
9,
2,
2,
9,
9,
8,
8,
5,
5,
8,
8,
0,
0,
3,
3,
4,
4,
8,
8,
7,
7,
5,
5,
3,
3,
0,
0,
2,
2,
10,
10,
8,
8,
4,
4,
5,
5,
0,
0,
-1,
-1,
0,
0,
0,
0,
0,
0,
3,
3,
4,
4,
2,
2,
3,
3,
4,
4,
2,
2,
0,
0,
1,
1,
1,
1,
4,
4,
3,
3,
1,
1,
4,
4,
0,
0,
2,
2,
0,
0,
0,
0,
5,
5,
3,
3,
-1,
-1,
0,
0,
6,
6,
6,
6,
0,
0,
-1,
-1,
-1,
-1,
-1,
-1,
-1,
-1,
2,
2,
2,
2,
0,
0,
4,
4,
6,
6,
4,
4,
-1,
-1,
5,
5,
7,
7,
0,
0,
2,
2,
0,
0,
0,
0,
1,
1,
-1,
-1,
3,
3,
8,
8,
7,
7,
2,
2,
0,
0,
0,
0,
0,
0,
0,
0,
3,
3,
2,
2,
-1,
-1,
0,
0,
1,
1,
4,
4,
1,
1,
-1,
-1,
2,
2,
2,
2,
0,
0,
0,
0,
-1,
-1,
2,
2,
3,
3,
-1,
-1,
2,
2,
2,
2,
2,
2,
6,
6,
7,
7,
15,
15,
18,
7,
7,
7,
6,
6,
10,
10,
11,
11,
9,
9,
6,
6,
2,
2,
2,
2,
2,
2,
2,
2,
1,
1,
7,
7,
4,
4,
3,
3,
4,
4,
4,
4,
4,
4,
2,
2,
7,
7,
11,
11,
9,
9,
4,
4,
0,
0,
7,
7,
9,
9,
6,
6,
6,
6,
1,
1,
6,
6,
9,
9,
1,
1,
3,
3,
4,
4,
4,
4,
2,
2,
2,
2,
6,
6,
4,
4,
5,
5,
0,
0,
4,
4,
7,
7,
3,
3,
1,
1,
4,
4,
1,
1,
0,
0,
8,
8,
5,
5,
2,
2,
10,
10,
10,
10,
6,
6,
0,
0,
7,
7,
10,
10,
17,
17,
17,
17,
8,
8,
4,
4,
0,
0,
7,
7,
10,
10,
8,
8,
6,
6,
6,
6,
0,
0,
1,
1,
2,
2,
0,
0,
6,
6,
10,
10,
5,
5,
9,
9,
14,
14,
12,
12,
7,
7,
5,
5,
11,
11,
8,
8,
5,
5,
11,
11,
16,
16,
13,
13,
8,
8,
4,
4,
7,
7,
1,
1,
6,
6,
8,
8,
10,
10,
12,
12,
10,
-1,
0,
0,
3,
3,
2,
2,
-1,
-1,
2,
2,
5,
5,
7,
7,
1,
1,
6,
6,
2,
2,
0,
0,
6,
6,
2,
2,
0,
0,
0,
0,
0,
0,
7,
7,
13,
13,
4,
4,
0,
0,
5,
16,
15,
15,
15,
15,
10,
10,
3,
3,
10,
10,
15,
15,
8,
8,
8,
8,
14,
14,
15,
15,
18,
18,
12,
0,
1,
1,
2,
2,
3,
3,
4,
4,
7,
7,
10,
10,
11,
11,
6,
6,
0,
0,
-1,
-1,
0,
0,
0,
0,
3,
3,
2,
2,
3,
3,
3,
3,
2,
2,
6,
6,
2,
2,
10,
10,
12,
12,
6,
6,
0,
0,
2,
2,
4,
4,
2,
2,
2,
2,
10,
10,
9,
9,
2,
2,
4,
4,
7,
7,
10,
10,
8,
8,
9,
9,
7,
7,
0,
0,
0,
0,
-1,
-1,
0,
11,
10,
10,
14,
14,
14,
14,
14,
14,
18,
18,
14,
0,
1,
1,
4,
4,
0,
0,
7,
7,
10,
10,
7,
7,
4,
4,
3,
3,
4,
4,
7,
7,
8,
8,
4,
4,
2,
2,
3,
3,
0,
0,
1,
1,
7,
20,
19,
19,
24,
10,
11,
-1,
1,
1,
2,
2,
2,
2,
3,
3,
6,
6,
0,
0,
4,
4,
4,
4,
2,
2,
0,
0,
-1,
-1,
2,
2,
1,
1,
5,
5,
11,
11,
11,
11,
10,
10,
9,
9,
7,
7,
1,
1,
10,
10,
12,
12,
10,
10,
11,
11,
13,
13,
16,
16,
10,
10,
0,
0,
4,
4,
10,
10,
13,
13,
9,
9,
5,
5,
6,
6,
8,
8,
10,
10,
10,
10,
7,
7,
11,
11,
10,
10,
2,
2,
5,
5,
8,
8,
6,
6,
5,
5,
1,
1,
0,
0,
0,
0,
-1,
-1,
3,
3,
7,
7,
1,
1,
2,
2,
2,
2,
5,
5,
0,
0,
0,
0,
-1,
-1,
-1,
-1,
2,
2,
8,
8,
15,
15,
13,
13,
5,
5,
4,
4,
6,
6,
3,
3,
4,
4,
7,
7,
6,
6,
3,
3,
3,
3,
9,
9,
6,
6,
3,
3,
11,
11,
11,
11,
6,
6,
-1,
-1,
2,
2,
5,
5,
5,
5,
7,
7,
