EMG_S1/DS0173.CSV

Memory Length,4000,
Trigger Level,0.00000e+00,
Source,CH1,
Probe,1.0X,
Vertical Units,V,
Vertical Scale,1.00000e+00,
Vertical Position,4.00000e-02,
Horizontal Units,S,
Horizontal Scale,1.00000e-01,
Horizontal Position,0.0000000e+00,
Horizontal Mode,Roll Mode,
Waveform Last Dot Address,4000,
Sampling Period,4.00000e-04,
Firmware,V1.14,
Time, ,
Mode,Fast,
Waveform Data,
16,
5,
6,
6,
1,
1,
5,
5,
0,
0,
8,
8,
8,
8,
13,
13,
18,
7,
7,
7,
-1,
-1,
-1,
-1,
1,
1,
0,
0,
1,
1,
1,
1,
0,
0,
7,
7,
11,
11,
5,
5,
1,
1,
11,
11,
11,
11,
3,
3,
5,
5,
8,
8,
6,
6,
3,
18,
17,
17,
11,
0,
0,
0,
3,
3,
2,
23,
23,
23,
26,
14,
14,
3,
5,
5,
0,
0,
8,
8,
7,
7,
7,
7,
7,
7,
7,
7,
5,
5,
0,
0,
7,
7,
11,
11,
11,
0,
0,
0,
6,
6,
13,
13,
12,
12,
10,
10,
8,
26,
25,
25,
26,
10,
11,
-1,
2,
2,
4,
4,
0,
0,
0,
0,
0,
0,
-1,
-1,
2,
2,
4,
4,
1,
1,
6,
6,
15,
15,
14,
0,
2,
2,
11,
11,
11,
11,
11,
11,
18,
18,
13,
2,
3,
3,
4,
4,
10,
10,
11,
11,
10,
10,
11,
11,
7,
7,
2,
2,
2,
2,
9,
26,
25,
25,
21,
21,
14,
14,
5,
5,
4,
4,
8,
8,
11,
11,
3,
3,
-1,
-1,
5,
5,
0,
0,
2,
2,
0,
0,
6,
6,
8,
8,
1,
1,
0,
13,
12,
12,
12,
1,
2,
2,
0,
0,
8,
8,
8,
8,
0,
0,
6,
6,
2,
2,
1,
1,
3,
3,
3,
3,
2,
2,
2,
2,
1,
1,
0,
0,
6,
6,
6,
6,
0,
0,
2,
2,
2,
2,
4,
4,
11,
11,
15,
15,
13,
13,
16,
16,
11,
0,
1,
1,
3,
3,
1,
1,
4,
4,
7,
7,
10,
-1,
0,
0,
2,
2,
2,
2,
5,
5,
2,
2,
0,
0,
3,
3,
0,
0,
4,
4,
1,
1,
1,
1,
4,
4,
12,
12,
14,
14,
7,
7,
6,
6,
2,
2,
-1,
-1,
2,
2,
5,
5,
4,
4,
7,
7,
11,
11,
5,
5,
10,
10,
17,
17,
20,
20,
13,
13,
6,
6,
5,
5,
7,
7,
8,
8,
7,
7,
4,
4,
2,
2,
0,
0,
4,
4,
5,
5,
4,
4,
0,
0,
0,
0,
9,
9,
14,
14,
8,
8,
9,
9,
14,
14,
14,
14,
7,
7,
1,
13,
12,
12,
18,
2,
2,
2,
1,
1,
4,
4,
11,
11,
8,
8,
2,
2,
7,
7,
6,
6,
3,
3,
7,
7,
15,
15,
11,
-1,
1,
1,
6,
6,
10,
10,
8,
8,
8,
8,
6,
6,
4,
4,
7,
7,
7,
7,
3,
3,
1,
1,
4,
4,
4,
4,
2,
2,
1,
1,
0,
0,
7,
19,
18,
18,
23,
23,
18,
0,
2,
14,
13,
13,
15,
15,
17,
17,
16,
16,
8,
8,
2,
2,
7,
7,
13,
13,
7,
7,
1,
1,
-1,
-1,
-1,
-1,
2,
2,
5,
5,
3,
3,
2,
2,
4,
4,
5,
5,
2,
2,
0,
0,
0,
0,
-1,
-1,
0,
0,
7,
7,
7,
7,
3,
3,
0,
0,
1,
1,
1,
1,
0,
0,
0,
0,
0,
0,
0,
18,
17,
17,
18,
6,
7,
7,
1,
1,
10,
10,
12,
12,
4,
4,
0,
0,
7,
19,
18,
18,
8,
8,
1,
1,
6,
6,
8,
8,
10,
10,
5,
5,
0,
0,
1,
1,
0,
0,
1,
1,
0,
0,
10,
10,
18,
18,
15,
15,
6,
6,
0,
0,
1,
1,
0,
0,
0,
0,
3,
3,
0,
0,
0,
0,
2,
2,
2,
2,
4,
4,
5,
5,
2,
2,
6,
6,
4,
4,
0,
0,
8,
8,
10,
22,
22,
22,
21,
4,
11,
38,
38,
38,
48,
36,
36,
11,
12,
12,
10,
22,
21,
21,
19,
19,
14,
14,
7,
7,
2,
2,
0,
0,
0,
0,
6,
6,
14,
14,
16,
1,
2,
2,
8,
8,
1,
1,
2,
2,
0,
0,
6,
6,
2,
2,
6,
6,
6,
6,
1,
1,
2,
2,
7,
7,
3,
3,
4,
4,
3,
3,
0,
0,
3,
3,
3,
3,
7,
7,
9,
9,
14,
14,
23,
23,
22,
22,
22,
7,
7,
7,
7,
7,
8,
8,
10,
10,
19,
19,
19,
19,
16,
16,
17,
17,
14,
2,
2,
2,
7,
7,
16,
16,
16,
16,
17,
17,
13,
13,
12,
12,
8,
8,
1,
1,
5,
5,
10,
10,
14,
14,
7,
7,
0,
0,
2,
2,
2,
2,
1,
1,
5,
5,
8,
8,
6,
6,
2,
2,
0,
0,
3,
3,
6,
6,
3,
3,
1,
1,
0,
0,
0,
0,
-1,
-1,
2,
2,
5,
5,
2,
2,
0,
0,
5,
5,
0,
0,
5,
5,
6,
6,
-1,
-1,
1,
1,
2,
2,
3,
3,
6,
6,
6,
6,
4,
4,
-1,
-1,
0,
0,
1,
1,
1,
12,
12,
12,
4,
4,
2,
2,
8,
19,
18,
18,
22,
8,
9,
9,
0,
0,
6,
6,
3,
3,
0,
0,
-1,
-1,
8,
8,
10,
10,
7,
7,
6,
6,
6,
6,
2,
2,
0,
0,
-1,
-1,
4,
4,
10,
10,
16,
16,
14,
14,
12,
12,
9,
9,
5,
5,
0,
0,
3,
3,
6,
6,
8,
8,
4,
4,
5,
5,
3,
3,
2,
2,
2,
2,
0,
0,
5,
5,
9,
9,
8,
8,
0,
0,
7,
7,
4,
15,
14,
14,
20,
20,
11,
11,
9,
9,
5,
5,
3,
3,
6,
6,
10,
10,
15,
15,
13,
-1,
1,
1,
9,
9,
15,
15,
10,
10,
4,
4,
2,
2,
-1,
-1,
5,
5,
8,
8,
8,
8,
9,
9,
9,
9,
0,
0,
8,
8,
8,
8,
6,
6,
2,
2,
-1,
-1,
6,
6,
15,
15,
19,
19,
14,
14,
5,
5,
0,
0,
-1,
-1,
3,
3,
1,
1,
9,
9,
11,
11,
15,
15,
18,
18,
10,
-1,
0,
0,
5,
5,
4,
4,
10,
10,
13,
13,
5,
5,
0,
0,
-1,
-1,
0,
0,
6,
6,
10,
10,
1,
14,
12,
12,
11,
11,
19,
19,
24,
24,
14,
-1,
0,
0,
8,
8,
14,
14,
16,
16,
17,
17,
10,
-1,
2,
2,
7,
7,
5,
5,
2,
2,
2,
2,
2,
2,
2,
2,
4,
4,
6,
6,
5,
5,
2,
2,
0,
0,
0,
0,
1,
1,
0,
0,
1,
1,
5,
5,
5,
5,
0,
0,
2,
2,
5,
5,
6,
6,
7,
7,
0,
0,
0,
0,
0,
0,
0,
0,
3,
3,
7,
7,
14,
14,
20,
20,
12,
-1,
1,
1,
7,
7,
12,
12,
11,
11,
6,
6,
2,
2,
4,
4,
5,
5,
-1,
-1,
5,
5,
10,
10,
4,
4,
-1,
-1,
0,
0,
0,
0,
3,
3,
7,
7,
7,
7,
7,
7,
2,
2,
9,
9,
7,
7,
4,
4,
9,
9,
16,
16,
18,
6,
7,
7,
0,
0,
3,
3,
9,
9,
11,
11,
13,
13,
13,
13,
8,
8,
6,
6,
15,
15,
14,
14,
7,
7,
3,
3,
1,
1,
4,
4,
5,
5,
6,
6,
2,
2,
1,
1,
8,
8,
17,
17,
22,
22,
19,
8,
9,
9,
4,
4,
13,
13,
8,
8,
2,
2,
7,
7,
10,
10,
12,
12,
12,
12,
6,
6,
2,
14,
13,
30,
29,
29,
24,
4,
6,
6,
8,
8,
11,
-1,
0,
0,
10,
10,
8,
8,
3,
3,
11,
11,
11,
0,
1,
1,
7,
7,
7,
7,
5,
5,
4,
4,
4,
4,
8,
8,
2,
2,
3,
3,
7,
7,
13,
13,
12,
12,
11,
11,
11,
11,
6,
6,
6,
17,
16,
16,
15,
15,
11,
11,
8,
8,
1,
1,
8,
8,
2,
2,
3,
3,
1,
1,
0,
0,
5,
5,
7,
7,
2,
16,
15,
26,
26,
26,
26,
26,
20,
9,
10,
-1,
2,
14,
14,
14,
15,
15,
9,
9,
7,
7,
2,
2,
1,
1,
3,
3,
1,
1,
3,
3,
2,
2,
1,
1,
1,
1,
1,
1,
0,
0,
1,
1,
1,
1,
-1,
-1,
2,
2,
6,
6,
13,
13,
15,
15,
6,
6,
4,
4,
8,
8,
8,
8,
2,
2,
4,
4,
4,
4,
0,
0,
1,
1,
2,
2,
2,
2,
1,
1,
0,
0,
2,
2,
1,
1,
0,
0,
1,
1,
5,
5,
2,
2,
0,
0,
5,
5,
3,
3,
3,
3,
9,
9,
10,
10,
8,
8,
6,
24,
24,
24,
31,
31,
27,
8,
8,
8,
-1,
-1,
0,
13,
12,
12,
17,
17,
11,
11,
6,
6,
2,
2,
6,
6,
6,
6,
8,
8,
4,
18,
17,
17,
11,
-1,
-1,
-1,
2,
2,
5,
5,
6,
6,
0,
0,
8,
23,
23,
23,
23,
5,
5,
5,
0,
0,
0,
0,
5,
5,
5,
5,
6,
6,
1,
1,
6,
6,
10,
10,
10,
10,
9,
9,
6,
6,
0,
0,
2,
14,
13,
13,
19,
19,
12,
12,
3,
3,
2,
2,
-1,
-1,
6,
6,
12,
12,
8,
8,
2,
2,
6,
20,
19,
19,
17,
3,
5,
5,
2,
2,
4,
4,
3,
3,
4,
4,
6,
6,
4,
4,
4,
4,
5,
5,
2,
2,
2,
2,
-1,
-1,
1,
1,
2,
2,
4,
4,
11,
11,
16,
16,
12,
12,
4,
4,
1,
1,
7,
7,
5,
5,
2,
2,
1,
1,
1,
1,
0,
0,
0,
0,
9,
9,
11,
0,
1,
1,
4,
4,
7,
7,
6,
6,
0,
0,
1,
1,
0,
0,
6,
6,
7,
7,
3,
3,
5,
5,
9,
9,
1,
14,
13,
13,
16,
16,
11,
11,
15,
15,
18,
18,
-1,
-1,
1,
1,
-1,
-1,
3,
3,
4,
4,
7,
7,
10,
10,
4,
4,
0,
0,
0,
0,
2,
2,
6,
6,
4,
4,
0,
0,
4,
4,
0,
0,
8,
8,
4,
4,
8,
8,
8,
8,
3,
3,
0,
13,
13,
30,
28,
41,
40,
40,
32,
13,
13,
2,
2,
2,
2,
14,
13,
13,
20,
33,
32,
32,
33,
33,
23,
23,
20,
20,
11,
11,
3,
3,
3,
3,
11,
11,
19,
19,
21,
21,
18,
18,
11,
11,
6,
6,
3,
3,
-1,
-1,
7,
7,
9,
9,
3,
3,
3,
3,
4,
4,
0,
0,
0,
0,
1,
1,
-1,
-1,
5,
5,
8,
8,
2,
2,
2,
2,
6,
6,
4,
4,
-1,
-1,
0,
0,
4,
4,
6,
6,
0,
0,
0,
0,
-1,
-1,
0,
0,
0,
0,
0,
0,
0,
0,
3,
3,
6,
6,
3,
3,
6,
6,
8,
8,
2,
2,
7,
7,
6,
6,
0,
0,
2,
2,
11,
11,
19,
19,
11,
0,
1,
1,
11,
11,
15,
15,
12,
12,
10,
-1,
0,
0,
4,
4,
0,
0,
1,
1,
4,
4,
2,
2,
4,
4,
4,
4,
3,
3,
1,
1,
2,
2,
6,
6,
8,
8,
5,
5,
-1,
-1,
0,
0,
-1,
-1,
2,
2,
3,
3,
8,
8,
1,
1,
6,
6,
1,
1,
7,
7,
5,
5,
4,
4,
5,
5,
0,
0,
-1,
-1,
3,
3,
5,
5,
6,
6,
12,
12,
8,
8,
2,
13,
13,
13,
11,
0,
2,
16,
15,
15,
13,
13,
6,
6,
2,
2,
5,
5,
5,
5,
5,
5,
6,
6,
6,
6,
1,
1,
-1,
-1,
2,
2,
1,
1,
5,
5,
10,
10,
2,
2,
1,
1,
4,
4,
7,
7,
2,
2,
2,
2,
2,
2,
0,
0,
0,
0,
1,
1,
6,
6,
0,
0,
3,
3,
0,
0,
0,
0,
-1,
-1,
-1,
-1,
0,
0,
3,
3,
5,
5,
0,
0,
0,
0,
7,
7,
7,
7,
6,
6,
6,
6,
0,
0,
9,
9,
8,
8,
0,
0,
7,
7,
1,
1,
6,
6,
1,
1,
3,
3,
-1,
-1,
2,
2,
5,
5,
7,
7,
1,
1,
5,
17,
16,
16,
16,
16,
10,
10,
14,
14,
15,
15,
11,
0,
1,
1,
10,
10,
14,
14,
14,
14,
15,
15,
11,
11,
3,
3,
3,
3,
2,
2,
1,
1,
0,
0,
4,
4,
7,
7,
6,
6,
2,
2,
-1,
-1,
2,
2,
5,
5,
0,
0,
8,
8,
7,
7,
1,
1,
8,
8,
13,
13,
16,
16,
19,
19,
11,
0,
3,
3,
10,
10,
11,
11,
15,
15,
21,
21,
16,
16,
6,
6,
1,
1,
3,
3,
12,
12,
17,
17,
14,
2,
2,
2,
-1,
11,
10,
10,
8,
8,
9,
9,
12,
1,
6,
22,
22,
22,
24,
24,
19,
19,
24,
24,
16,
0,
2,
13,
12,
12,
22,
22,
16,
16,
11,
11,
12,
12,
11,
11,
16,
3,
3,
21,
21,
21,
29,
29,
26,
26,
24,
7,
8,
8,
6,
6,
14,
14,
14,
14,
8,
8,
5,
5,
4,
4,
7,
7,
0,
0,
0,
0,
0,
0,
6,
6,
6,
6,
6,
6,
15,
28,
27,
27,
22,
4,
5,
5,
2,
2,
9,
9,
8,
8,
10,
10,
11,
11,
11,
11,
8,
8,
4,
4,
6,
6,
12,
12,
6,
6,
3,
3,
8,
8,
2,
2,
1,
1,
0,
0,
0,
0,
1,
1,
8,
8,
6,
6,
6,
6,
8,
8,
7,
7,
7,
7,
4,
4,
-1,
-1,
1,
12,
12,
12,
17,
17,
15,
15,
10,
10,
6,
6,
4,
4,
7,
7,
2,
2,
8,
8,
12,
12,
11,
11,
9,
9,
6,
6,
0,
0,
3,
14,
12,
12,
14,
14,
9,
9,
0,
12,
11,
11,
18,
18,
14,
14,
10,
10,
3,
3,
10,
10,
18,
18,
11,
11,
7,
7,
12,
12,
18,
18,
27,
27,
26,
5,
14,
30,
29,
11,
11,
11,
4,
4,
8,
8,
0,
0,
5,
5,
3,
3,
2,
2,
7,
7,
6,
6,
2,
2,
1,
1,
1,
1,
0,
0,
3,
3,
4,
4,
0,
0,
1,
14,
13,
29,
28,
28,
23,
8,
9,
9,
7,
7,
8,
8,
7,
7,
0,
12,
12,
12,
20,
20,
18,
18,
12,
12,
7,
7,
3,
3,
8,
8,
10,
10,
0,
0,
7,
7,
6,
6,
3,
3,
0,
0,
10,
10,
12,
12,
12,
12,
10,
10,
14,
14,
17,
5,
6,
6,
4,
4,
3,
3,
0,
0,
0,
0,
9,
9,
10,
10,
4,
4,
6,
6,
11,
11,
16,
16,
6,
6,
-1,
-1,
2,
2,
11,
11,
14,
14,
11,
11,
20,
20,
18,
18,
25,
25,
16,
4,
5,
5,
9,
9,
18,
18,
16,
16,
14,
14,
13,
13,
11,
11,
7,
7,
3,
3,
12,
12,
9,
9,
5,
5,
1,
1,
6,
6,
10,
10,
10,
10,
3,
3,
2,
2,
6,
6,
7,
7,
2,
2,
2,
2,
1,
1,
4,
4,
4,
4,
-1,
-1,
2,
16,
15,
27,
27,
16,
17,
0,
1,
1,
3,
3,
8,
8,
11,
11,
10,
10,
5,
5,
4,
4,
7,
7,
2,
2,
0,
11,
10,
22,
22,
22,
21,
6,
7,
7,
2,
2,
8,
8,
7,
7,
4,
4,
5,
5,
7,
7,
-1,
-1,
0,
0,
0,
0,
4,
4,
13,
13,
15,
15,
5,
5,
0,
0,
1,
1,
-1,
-1,
1,
1,
3,
3,
1,
1,
0,
0,
3,
3,
1,
1,
1,
1,
2,
2,
4,
4,
0,
0,
1,
1,
-1,
-1,
2,
2,
3,
3,
10,
10,
14,
14,
12,
0,
1,
1,
1,
1,
3,
3,
2,
2,
0,
0,
0,
0,
7,
7,
3,
3,
10,
10,
8,
8,
0,
0,
4,
4,
6,
6,
1,
1,
0,
0,
2,
2,
0,
0,
0,
0,
1,
1,
-1,
-1,
0,
0,
2,
2,
1,
1,
1,
1,
0,
0,
1,
1,
2,
2,
6,
6,
10,
10,
0,
13,
12,
25,
25,
36,
36,
36,
34,
12,
13,
2,
8,
23,
22,
22,
28,
28,
26,
26,
19,
19,
14,
0,
1,
1,
1,
1,
1,
1,
0,
0,
2,
2,
8,
8,
11,
11,
13,
13,
14,
14,
10,
10,
2,
2,
4,
4,
7,
7,
9,
9,
1,
13,
12,
12,
17,
17,
15,
15,
13,
13,
12,
12,
6,
6,
0,
0,
9,
9,
14,
14,
15,
15,
9,
9,
0,
0,
0,
0,
6,
6,
8,
8,
3,
3,
8,
8,
3,
3,
0,
0,
-1,
-1,
0,
0,
3,
3,
12,
12,
8,
8,
6,
6,
7,
29,
28,
28,
34,
34,
40,
40,
42,
23,
23,
8,
8,
8,
6,
31,
30,
30,
38,
26,
26,
26,
19,
19,
27,
27,
23,
23,
14,
2,
2,
2,
10,
10,
19,
19,
20,
20,
19,
19,
22,
22,
19,
19,
13,
13,
6,
6,
2,
2,
2,
2,
5,
5,
6,
6,
8,
8,
6,
6,
1,
1,
-1,
-1,
2,
2,
1,
1,
0,
0,
-1,
-1,
-1,
-1,
3,
3,
2,
2,
2,
2,
3,
3,
4,
4,
-1,
-1,
0,
0,
0,
0,
-1,
-1,
0,
0,
4,
4,
10,
10,
9,
9,
11,
24,
24,
24,
0,
0,
1,
1,
6,
6,
11,
11,
11,
11,
4,
4,
2,
2,
7,
7,
4,
4,
5,
5,
2,
14,
13,
13,
12,
0,
1,
1,
6,
6,
3,
19,
18,
18,
22,
10,
10,
10,
9,
9,
11,
11,
10,
10,
13,
13,
11,
11,
9,
9,
4,
4,
-1,
-1,
2,
2,
3,
3,
2,
2,
2,
2,
3,
3,
1,
1,
0,
0,
4,
4,
3,
3,
8,
20,
19,
8,
9,
9,
11,
22,
22,
22,
13,
0,
3,
3,
8,
8,
10,
10,
13,
13,
13,
13,
8,
8,
8,
8,
8,
8,
6,
6,
0,
0,
6,
6,
10,
10,
7,
7,
2,
2,
5,
5,
4,
4,
-1,
-1,
1,
1,
1,
1,
1,
1,
-1,
-1,
4,
4,
10,
10,
4,
19,
19,
19,
27,
27,
18,
1,
2,
2,
3,
3,
4,
4,
13,
13,
9,
9,
4,
4,
13,
13,
16,
16,
16,
16,
16,
0,
2,
2,
12,
12,
9,
9,
2,
2,
-1,
-1,
1,
1,
1,
1,
2,
2,
8,
8,
5,
5,
5,
5,
8,
8,
6,
6,
6,
6,
7,
7,
6,
6,
3,
3,
1,
1,
0,
0,
1,
1,
2,
2,
9,
9,
4,
4,
-1,
-1,
6,
6,
8,
8,
2,
2,
6,
6,
10,
10,
7,
7,
0,
0,
1,
1,
5,
5,
1,
1,
3,
3,
0,
0,
7,
7,
8,
8,
4,
4,
8,
8,
3,
3,
2,
2,
3,
3,
2,
2,
5,
5,
10,
10,
6,
6,
7,
7,
14,
14,
9,
9,
0,
0,
2,
2,
0,
0,
4,
4,
3,
3,
2,
2,
3,
3,
2,
2,
5,
5,
3,
3,
1,
1,
1,
1,
0,
0,
1,
1,
-1,
-1,
2,
2,
1,
1,
0,
0,
4,
4,
5,
5,
2,
15,
14,
14,
15,
2,
5,
19,
19,
19,
17,
17,
10,
10,
5,
5,
2,
2,
6,
6,
5,
5,
4,
4,
6,
6,
1,
1,
4,
4,
3,
3,
1,
1,
2,
2,
3,
3,
4,
4,
0,
0,
3,
3,
4,
4,
0,
0,
3,
3,
2,
2,
0,
0,
0,
0,
0,
0,
2,
2,
1,
1,
2,
2,
1,
1,
-2,
-2,
1,
1,
6,
6,
11,
11,
8,
8,
4,
4,
-1,
-1,
2,
2,
0,
0,
2,
2,
0,
0,
4,
4,
2,
2,
2,
2,
3,
3,
0,
0,
6,
6,
14,
14,
11,
11,
6,
6,
3,
3,
1,
15,
15,
15,
22,
22,
22,
22,
22,
22,
14,
2,
2,
2,
5,
5,
12,
12,
19,
19,
15,
15,
9,
9,
7,
7,
3,
3,
-1,
-1,
0,
0,
3,
3,
10,
10,
7,
7,
0,
0,
0,
0,
1,
1,
3,
3,
9,
25,
24,
24,
19,
8,
8,
8,
0,
0,
6,
6,
3,
3,
3,
3,
8,
8,
8,
8,
17,
17,
13,
13,
6,
6,
3,
3,
1,
1,
7,
7,
15,
15,
16,
16,
12,
12,
8,
8,
0,
0,
0,
0,
0,
0,
0,
0,
-1,
-1,
4,
4,
0,
0,
4,
4,
1,
1,
0,
0,
2,
2,
4,
4,
4,
4,
2,
2,
0,
11,
11,
11,
16,
1,
2,
20,
20,
31,
30,
17,
17,
5,
5,
5,
1,
1,
4,
4,
12,
12,
12,
12,
9,
9,
7,
7,
0,
0,
9,
9,
12,
1,
2,
2,
5,
5,
6,
6,
5,
5,
3,
3,
-1,
-1,
3,
3,
2,
2,
-1,
-1,
0,
0,
3,
3,
9,
9,
16,
16,
21,
21,
28,
28,
20,
1,
2,
15,
14,
14,
21,
21,
19,
19,
15,
15,
10,
10,
4,
4,
3,
3,
-1,
-1,
11,
11,
11,
11,
10,
10,
1,
1,
0,
0,
-1,
-1,
0,
0,
3,
3,
7,
7,
6,
6,
3,
3,
8,
20,
20,
20,
16,
1,
2,
2,
8,
8,
13,
13,
15,
15,
14,
14,
12,
12,
7,
7,
0,
0,
2,
2,
3,
3,
11,
11,
14,
14,
10,
10,
14,
14,
11,
11,
2,
2,
3,
3,
10,
10,
14,
14,
12,
12,
7,
7,
1,
14,
14,
14,
15,
15,
13,
13,
10,
10,
4,
4,
3,
3,
5,
5,
4,
4,
3,
3,
6,
6,
14,
14,
17,
17,
15,
15,
8,
8,
1,
1,
0,
0,
0,
0,
3,
3,
8,
8,
14,
14,
20,
20,
14,
3,
4,
4,
1,
1,
5,
5,
7,
7,
2,
2,
0,
0,
-1,
-1,
1,
1,
2,
2,
10,
10,
14,
14,
11,
11,
3,
3,
0,
0,
4,
4,
5,
5,
7,
7,
9,
9,
1,
1,
0,
0,
0,
0,
5,
5,
4,
4,
0,
0,
4,
4,
10,
10,
6,
6,
6,
6,
10,
10,
14,
26,
26,
26,
29,
14,
14,
1,
6,
17,
16,
16,
16,
16,
12,
12,
6,
6,
1,
1,
0,
0,
4,
4,
-1,
-1,
5,
5,
0,
11,
11,
0,
2,
2,
6,
6,
6,
18,
16,
16,
7,
7,
1,
1,
2,
2,
8,
22,
22,
22,
24,
11,
12,
-1,
2,
2,
12,
12,
18,
18,
17,
17,
16,
16,
7,
7,
0,
0,
6,
6,
2,
2,
0,
0,
0,
0,
8,
8,
10,
10,
9,
9,
6,
6,
6,
6,
9,
9,
12,
12,
3,
3,
6,
6,
2,
2,
-1,
-1,
2,
16,
15,
3,
3,
3,
6,
6,
1,
1,
10,
10,
3,
3,
8,
20,
18,
30,
28,
10,
10,
22,
22,
33,
31,
18,
19,
6,
7,
7,
6,
21,
19,
19,
25,
13,
13,
-1,
0,
0,
8,
8,
7,
7,
7,
7,
0,
0,
8,
8,
13,
13,
9,
9,
6,
6,
4,
4,
0,
0,
0,
0,
2,
2,
9,
9,
5,
5,
-1,
-1,
2,
17,
16,
16,
15,
3,
4,
4,
8,
8,
5,
5,
-1,
-1,
5,
5,
14,
14,
14,
14,
15,
15,
18,
2,
2,
21,
20,
20,
30,
30,
28,
8,
8,
8,
5,
5,
10,
10,
7,
7,
0,
0,
3,
3,
0,
0,
5,
5,
8,
8,
5,
5,
0,
0,
0,
0,
4,
4,
4,
4,
0,
0,
0,
0,
0,
0,
0,
0,
7,
7,
14,
14,
13,
13,
6,
6,
2,
2,
4,
4,
5,
5,
4,
4,
6,
6,
0,
0,
0,
0,
10,
10,
12,
12,
6,
6,
5,
5,
9,
9,
9,
9,
6,
6,
2,
2,
8,
8,
13,
1,
2,
2,
8,
8,
3,
3,
10,
10,
4,
4,
2,
2,
0,
0,
1,
1,
8,
8,
10,
10,
7,
7,
4,
4,
1,
1,
9,
9,
8,
8,
0,
0,
2,
2,
4,
4,
0,
0,
0,
0,
0,
0,
4,
4,
4,
4,
1,
1,
1,
1,
0,
0,
5,
5,
10,
10,
4,
4,
6,
6,
9,
9,
17,
6,
7,
7,
10,
10,
10,
10,
3,
3,
-1,
-1,
0,
0,
9,
9,
10,
10,
16,
16,
15,
0,
2,
18,
18,
18,
27,
27,
21,
10,
11,
11,
4,
4,
4,
4,
0,
0,
-1,
-1,
0,
0,
1,
1,
3,
3,
5,
5,
2,
2,
2,
2,
3,
3,
6,
6,
7,
7,
8,
8,
5,
5,
11,
11,
18,
18,
17,
6,
6,
6,
4,
4,
11,
11,
10,
10,
6,
6,
3,
3,
11,
11,
16,
16,
8,
8,
7,
7,
14,
14,
14,
14,
