EMG_S1/DS0145.CSV

Memory Length,4000,
Trigger Level,0.00000e+00,
Source,CH1,
Probe,1.0X,
Vertical Units,V,
Vertical Scale,1.00000e+00,
Vertical Position,4.00000e-02,
Horizontal Units,S,
Horizontal Scale,1.00000e-01,
Horizontal Position,0.0000000e+00,
Horizontal Mode,Roll Mode,
Waveform Last Dot Address,4000,
Sampling Period,4.00000e-04,
Firmware,V1.14,
Time, ,
Mode,Fast,
Waveform Data,
2,
2,
2,
2,
2,
2,
2,
2,
4,
4,
-1,
-1,
2,
2,
0,
0,
-1,
-1,
2,
2,
8,
8,
6,
6,
2,
2,
-1,
-1,
1,
1,
3,
3,
0,
0,
3,
3,
3,
3,
3,
3,
4,
4,
3,
3,
6,
6,
3,
3,
1,
1,
5,
5,
7,
7,
7,
7,
1,
1,
0,
0,
6,
6,
7,
7,
5,
5,
3,
3,
0,
0,
2,
2,
7,
7,
0,
0,
2,
2,
4,
4,
5,
5,
1,
1,
3,
3,
9,
9,
9,
9,
0,
0,
5,
5,
10,
10,
7,
7,
5,
5,
2,
2,
5,
5,
3,
3,
6,
6,
4,
4,
4,
16,
15,
1,
1,
1,
9,
9,
12,
12,
4,
4,
1,
14,
14,
14,
13,
0,
1,
15,
14,
14,
18,
18,
10,
-1,
1,
1,
7,
7,
3,
3,
0,
0,
0,
0,
-2,
-2,
3,
3,
7,
7,
6,
6,
0,
0,
-1,
-1,
-1,
-1,
-1,
-1,
-1,
-1,
4,
4,
2,
2,
0,
0,
0,
0,
2,
2,
4,
4,
6,
6,
6,
6,
6,
6,
1,
1,
0,
0,
0,
0,
3,
3,
4,
4,
0,
0,
-1,
-1,
2,
2,
3,
3,
-1,
-1,
5,
5,
6,
6,
2,
2,
6,
6,
0,
14,
13,
13,
11,
11,
6,
6,
2,
2,
1,
1,
10,
10,
11,
11,
2,
2,
3,
3,
2,
2,
-1,
-1,
2,
2,
0,
0,
-1,
-1,
3,
3,
3,
3,
4,
4,
2,
2,
3,
3,
2,
2,
3,
3,
-1,
-1,
0,
0,
-1,
-1,
0,
0,
1,
1,
2,
2,
2,
2,
5,
5,
4,
4,
2,
2,
0,
0,
4,
4,
10,
10,
10,
10,
6,
6,
6,
6,
8,
8,
5,
5,
-1,
-1,
-1,
-1,
0,
0,
4,
4,
7,
7,
1,
1,
0,
0,
4,
4,
8,
8,
5,
5,
0,
0,
7,
7,
8,
8,
3,
3,
1,
1,
4,
4,
6,
6,
0,
0,
4,
4,
2,
2,
2,
2,
5,
5,
6,
6,
8,
8,
6,
6,
6,
6,
3,
3,
0,
0,
-1,
-1,
-1,
-1,
0,
0,
1,
1,
10,
10,
11,
0,
0,
0,
0,
0,
1,
1,
11,
11,
16,
16,
12,
12,
6,
6,
0,
0,
6,
6,
7,
7,
7,
7,
5,
5,
3,
3,
0,
0,
1,
1,
0,
0,
2,
2,
6,
6,
4,
4,
2,
2,
3,
3,
0,
0,
3,
3,
6,
6,
5,
5,
6,
6,
2,
2,
2,
2,
0,
0,
2,
2,
5,
5,
10,
10,
8,
8,
7,
7,
9,
9,
5,
5,
2,
19,
19,
19,
17,
17,
21,
21,
21,
21,
17,
17,
10,
-1,
2,
14,
14,
26,
26,
26,
23,
23,
15,
3,
4,
4,
5,
5,
8,
8,
6,
6,
0,
0,
0,
0,
0,
0,
0,
0,
0,
0,
4,
4,
11,
11,
12,
12,
8,
8,
8,
8,
8,
8,
4,
4,
0,
0,
0,
0,
-2,
-2,
2,
2,
4,
4,
5,
5,
5,
5,
4,
4,
0,
0,
-1,
-1,
0,
0,
3,
3,
4,
4,
0,
0,
0,
0,
1,
1,
-1,
-1,
2,
2,
0,
0,
4,
4,
4,
4,
6,
6,
2,
2,
7,
7,
6,
6,
4,
4,
2,
2,
1,
1,
2,
2,
3,
3,
6,
6,
3,
3,
6,
6,
7,
7,
0,
0,
2,
2,
4,
4,
5,
5,
2,
2,
0,
12,
11,
11,
8,
8,
1,
1,
4,
4,
-1,
-1,
6,
6,
5,
5,
1,
1,
9,
20,
18,
18,
9,
9,
3,
3,
4,
4,
1,
1,
2,
2,
0,
0,
4,
4,
0,
0,
3,
3,
12,
1,
2,
19,
8,
8,
18,
32,
30,
30,
21,
9,
9,
9,
0,
0,
5,
5,
2,
2,
1,
1,
10,
10,
18,
18,
17,
6,
6,
6,
12,
12,
13,
13,
8,
8,
8,
8,
1,
1,
0,
0,
2,
2,
2,
13,
12,
12,
10,
10,
7,
7,
4,
4,
-1,
-1,
3,
3,
0,
0,
1,
1,
0,
0,
-1,
-1,
2,
2,
6,
6,
2,
2,
5,
5,
9,
9,
4,
4,
7,
7,
2,
2,
6,
6,
0,
32,
32,
32,
40,
14,
14,
3,
18,
30,
26,
8,
8,
8,
13,
13,
16,
2,
3,
16,
16,
2,
2,
2,
6,
6,
14,
14,
15,
4,
5,
5,
3,
3,
3,
3,
6,
6,
13,
13,
12,
12,
10,
10,
2,
2,
5,
5,
4,
4,
8,
8,
12,
12,
4,
4,
-1,
-1,
0,
0,
1,
1,
1,
1,
0,
0,
1,
1,
2,
2,
3,
3,
2,
2,
1,
1,
3,
3,
4,
4,
4,
4,
12,
12,
6,
6,
0,
0,
0,
0,
6,
6,
2,
2,
6,
6,
3,
3,
4,
4,
2,
2,
2,
2,
0,
0,
-1,
-1,
2,
15,
15,
15,
18,
18,
10,
10,
1,
1,
-1,
-1,
2,
2,
7,
7,
9,
9,
11,
11,
11,
11,
2,
2,
0,
0,
2,
13,
12,
12,
16,
16,
7,
7,
1,
1,
6,
6,
0,
0,
0,
0,
4,
4,
5,
5,
7,
7,
6,
6,
0,
0,
9,
9,
6,
6,
12,
26,
25,
25,
22,
2,
2,
15,
14,
14,
14,
14,
20,
20,
15,
0,
1,
1,
-1,
-1,
-1,
-1,
6,
6,
15,
15,
15,
15,
20,
20,
22,
7,
7,
7,
-2,
-2,
4,
18,
18,
18,
14,
14,
7,
7,
6,
6,
2,
2,
3,
3,
2,
2,
7,
7,
9,
9,
0,
0,
7,
7,
3,
3,
1,
1,
4,
4,
5,
5,
2,
2,
8,
8,
10,
10,
8,
8,
0,
0,
3,
3,
-1,
-1,
0,
0,
0,
0,
-1,
-1,
2,
2,
2,
2,
4,
4,
0,
0,
2,
2,
2,
2,
3,
3,
5,
5,
7,
7,
0,
0,
7,
27,
26,
6,
6,
6,
11,
0,
1,
1,
-1,
-1,
-1,
-1,
6,
6,
14,
14,
7,
7,
13,
13,
4,
29,
29,
12,
12,
12,
2,
2,
2,
2,
7,
7,
5,
5,
15,
15,
10,
-1,
0,
0,
3,
3,
0,
0,
7,
7,
14,
14,
9,
9,
7,
7,
3,
18,
17,
17,
21,
6,
6,
6,
9,
9,
5,
5,
3,
3,
3,
3,
-1,
-1,
-1,
-1,
1,
1,
2,
2,
0,
0,
1,
1,
2,
2,
7,
7,
7,
7,
1,
1,
6,
6,
3,
3,
0,
0,
2,
2,
2,
2,
-1,
-1,
-1,
-1,
2,
2,
0,
0,
-1,
-1,
0,
0,
-1,
-1,
3,
3,
8,
8,
8,
8,
4,
4,
8,
8,
2,
2,
6,
6,
10,
10,
3,
3,
0,
0,
6,
6,
8,
8,
6,
6,
3,
3,
-1,
-1,
0,
0,
9,
9,
14,
14,
7,
7,
15,
15,
17,
6,
6,
6,
6,
6,
4,
4,
14,
14,
5,
5,
6,
6,
2,
2,
-1,
-1,
5,
5,
12,
12,
9,
9,
0,
0,
0,
0,
0,
14,
13,
13,
22,
10,
11,
0,
0,
0,
7,
7,
3,
3,
0,
0,
6,
6,
14,
14,
10,
-1,
0,
11,
10,
10,
7,
7,
9,
9,
5,
5,
14,
14,
11,
11,
4,
4,
4,
16,
16,
16,
14,
1,
5,
18,
17,
17,
20,
20,
21,
21,
11,
-1,
0,
0,
5,
5,
7,
7,
4,
4,
8,
8,
6,
6,
3,
3,
6,
6,
6,
6,
15,
15,
9,
9,
2,
2,
8,
8,
6,
6,
0,
0,
4,
4,
8,
8,
9,
9,
8,
8,
6,
6,
3,
16,
16,
16,
20,
20,
15,
15,
13,
13,
7,
7,
1,
1,
1,
1,
2,
2,
6,
6,
2,
2,
2,
2,
4,
4,
-1,
-1,
0,
0,
2,
2,
-1,
-1,
0,
0,
2,
2,
4,
4,
-1,
-1,
0,
0,
5,
5,
11,
11,
7,
7,
6,
6,
7,
7,
2,
2,
0,
0,
8,
21,
20,
20,
15,
0,
2,
2,
8,
8,
5,
5,
0,
0,
0,
0,
1,
1,
2,
2,
8,
8,
4,
18,
16,
2,
6,
30,
29,
29,
28,
13,
13,
13,
6,
6,
2,
2,
9,
9,
9,
9,
0,
0,
0,
0,
2,
2,
8,
8,
8,
8,
5,
5,
5,
5,
10,
10,
9,
9,
14,
28,
27,
14,
14,
14,
5,
5,
0,
0,
1,
1,
2,
2,
-1,
-1,
-1,
-1,
3,
3,
4,
4,
3,
3,
6,
6,
0,
0,
2,
2,
0,
0,
4,
4,
3,
3,
0,
0,
0,
0,
6,
6,
3,
3,
4,
4,
4,
4,
0,
0,
-1,
-1,
6,
6,
6,
6,
0,
0,
3,
3,
5,
5,
2,
2,
10,
10,
8,
8,
5,
5,
2,
2,
5,
23,
22,
22,
19,
2,
3,
3,
5,
5,
5,
5,
7,
7,
2,
2,
3,
3,
-1,
-1,
-1,
-1,
-1,
-1,
2,
2,
0,
0,
2,
2,
9,
9,
7,
7,
6,
6,
7,
7,
7,
7,
14,
14,
18,
18,
16,
16,
12,
12,
7,
7,
4,
15,
15,
15,
20,
20,
14,
14,
10,
10,
14,
14,
6,
6,
-1,
11,
10,
10,
18,
18,
18,
18,
23,
7,
7,
7,
3,
3,
10,
10,
6,
6,
3,
3,
2,
2,
0,
0,
1,
1,
3,
3,
0,
0,
5,
5,
3,
3,
0,
0,
2,
2,
2,
2,
4,
4,
4,
4,
-1,
-1,
1,
1,
1,
1,
1,
1,
2,
2,
6,
6,
6,
6,
6,
6,
3,
3,
9,
9,
6,
6,
1,
1,
-1,
-1,
0,
0,
4,
4,
6,
6,
-1,
-1,
1,
1,
-1,
-1,
-1,
-1,
0,
0,
0,
0,
3,
3,
9,
9,
8,
8,
5,
5,
1,
1,
3,
3,
12,
12,
9,
9,
0,
0,
1,
1,
9,
9,
7,
7,
6,
6,
12,
12,
3,
3,
0,
0,
6,
6,
0,
0,
2,
2,
2,
2,
3,
3,
0,
0,
1,
1,
0,
0,
4,
4,
2,
2,
2,
2,
7,
7,
12,
12,
7,
7,
2,
2,
2,
2,
2,
2,
11,
11,
13,
2,
2,
2,
5,
5,
3,
3,
9,
9,
5,
5,
1,
1,
7,
7,
9,
9,
8,
8,
9,
9,
2,
2,
6,
6,
5,
5,
2,
2,
7,
7,
14,
14,
12,
0,
3,
3,
10,
10,
2,
2,
9,
9,
15,
15,
11,
11,
11,
11,
13,
13,
4,
4,
9,
9,
13,
13,
16,
16,
10,
10,
6,
6,
4,
4,
3,
3,
2,
2,
5,
5,
3,
3,
4,
4,
1,
1,
5,
5,
11,
11,
12,
12,
9,
9,
4,
4,
4,
4,
-1,
-1,
0,
0,
-1,
-1,
-2,
-2,
0,
0,
0,
0,
0,
0,
3,
3,
6,
6,
4,
4,
4,
4,
9,
9,
8,
8,
8,
8,
4,
4,
0,
0,
2,
2,
4,
4,
4,
4,
3,
14,
12,
12,
18,
18,
16,
0,
1,
1,
2,
2,
4,
4,
0,
0,
3,
3,
7,
7,
7,
7,
4,
4,
4,
4,
5,
5,
0,
0,
2,
2,
2,
2,
7,
7,
8,
8,
10,
10,
0,
0,
0,
0,
0,
11,
10,
10,
4,
4,
0,
0,
0,
0,
0,
0,
-1,
-1,
-1,
-1,
0,
0,
-1,
-1,
2,
2,
5,
5,
7,
7,
5,
5,
2,
2,
0,
0,
0,
0,
2,
2,
1,
1,
0,
0,
0,
0,
7,
7,
5,
5,
0,
0,
4,
4,
2,
2,
7,
22,
21,
21,
14,
2,
2,
2,
-1,
-1,
0,
11,
10,
10,
13,
13,
6,
6,
-1,
-1,
0,
0,
3,
3,
2,
2,
2,
2,
5,
5,
1,
1,
4,
21,
20,
20,
18,
5,
6,
6,
6,
6,
9,
9,
10,
10,
3,
3,
-1,
-1,
8,
8,
11,
11,
8,
8,
5,
5,
2,
2,
0,
0,
0,
0,
0,
0,
0,
0,
2,
2,
4,
4,
6,
6,
3,
3,
6,
6,
5,
5,
0,
0,
2,
2,
-1,
-1,
1,
1,
10,
10,
12,
12,
4,
4,
1,
1,
7,
7,
2,
2,
3,
3,
-1,
-1,
2,
2,
3,
3,
1,
1,
3,
3,
6,
6,
3,
3,
2,
2,
4,
4,
4,
4,
4,
4,
8,
8,
8,
8,
0,
0,
0,
0,
8,
8,
11,
11,
2,
2,
0,
0,
1,
1,
0,
0,
7,
7,
10,
10,
9,
9,
1,
1,
4,
4,
2,
2,
7,
7,
7,
7,
3,
3,
5,
5,
14,
14,
16,
30,
30,
30,
30,
17,
17,
17,
9,
9,
5,
5,
12,
23,
22,
22,
23,
23,
20,
20,
11,
11,
10,
10,
7,
7,
2,
2,
3,
3,
7,
7,
8,
8,
6,
6,
8,
8,
8,
8,
3,
3,
-1,
-1,
1,
1,
6,
6,
1,
1,
7,
7,
2,
2,
1,
1,
6,
6,
5,
5,
4,
4,
3,
3,
2,
2,
0,
0,
0,
0,
0,
0,
1,
1,
-1,
-1,
2,
2,
0,
0,
0,
0,
1,
1,
1,
1,
2,
2,
1,
1,
3,
3,
5,
5,
-1,
-1,
2,
2,
2,
2,
2,
2,
-1,
-1,
-1,
-1,
5,
5,
4,
4,
5,
5,
3,
3,
1,
1,
0,
0,
0,
0,
3,
3,
0,
0,
3,
3,
2,
2,
0,
0,
1,
1,
3,
3,
6,
6,
0,
0,
1,
1,
0,
0,
-1,
-1,
1,
1,
0,
0,
-1,
-1,
0,
0,
6,
6,
8,
8,
3,
3,
0,
0,
3,
3,
2,
2,
6,
6,
7,
7,
7,
7,
11,
11,
6,
6,
3,
3,
2,
15,
15,
15,
18,
3,
4,
4,
2,
2,
10,
10,
13,
13,
16,
16,
8,
8,
4,
4,
2,
2,
5,
5,
10,
10,
7,
7,
0,
0,
2,
2,
3,
3,
5,
5,
0,
0,
6,
6,
2,
2,
1,
1,
6,
6,
15,
15,
8,
8,
0,
0,
-1,
-1,
4,
4,
8,
8,
-1,
-1,
1,
1,
0,
0,
1,
1,
0,
15,
14,
14,
8,
8,
5,
5,
6,
6,
2,
2,
2,
2,
3,
3,
1,
1,
1,
1,
5,
5,
0,
0,
2,
2,
5,
5,
4,
4,
6,
6,
5,
5,
2,
2,
3,
3,
2,
2,
3,
3,
6,
6,
11,
11,
10,
22,
21,
21,
17,
17,
12,
0,
0,
0,
8,
8,
11,
11,
10,
10,
3,
3,
3,
3,
4,
4,
4,
4,
1,
1,
1,
1,
6,
6,
6,
6,
6,
6,
6,
6,
4,
4,
8,
8,
5,
5,
0,
0,
3,
3,
1,
1,
0,
0,
3,
3,
4,
4,
6,
6,
10,
10,
2,
2,
7,
7,
15,
15,
13,
13,
9,
9,
7,
7,
0,
0,
2,
2,
4,
4,
7,
7,
8,
8,
8,
8,
12,
12,
11,
11,
6,
6,
1,
1,
6,
6,
11,
11,
14,
14,
7,
7,
5,
5,
10,
10,
14,
3,
3,
3,
7,
18,
17,
17,
8,
8,
1,
1,
5,
5,
5,
5,
3,
3,
0,
0,
3,
3,
1,
1,
-2,
-2,
1,
1,
2,
2,
0,
0,
2,
2,
3,
3,
3,
3,
4,
4,
4,
4,
8,
8,
0,
14,
13,
13,
21,
21,
19,
19,
10,
10,
4,
4,
6,
6,
10,
10,
8,
8,
4,
4,
6,
6,
5,
16,
15,
15,
9,
9,
4,
4,
-1,
-1,
1,
1,
5,
5,
8,
8,
6,
6,
0,
0,
7,
7,
10,
10,
7,
7,
2,
2,
3,
3,
5,
5,
3,
3,
3,
3,
6,
6,
4,
4,
0,
0,
7,
7,
2,
14,
14,
32,
32,
32,
38,
23,
23,
2,
3,
3,
9,
9,
8,
8,
17,
17,
15,
15,
7,
7,
3,
3,
10,
10,
5,
21,
20,
20,
22,
6,
6,
6,
0,
0,
6,
6,
6,
6,
5,
5,
5,
5,
6,
6,
10,
10,
8,
8,
7,
7,
14,
14,
14,
14,
20,
20,
22,
22,
14,
14,
8,
8,
0,
0,
7,
7,
11,
11,
14,
14,
13,
13,
6,
6,
5,
5,
4,
4,
0,
0,
4,
4,
0,
0,
0,
0,
10,
10,
6,
6,
3,
16,
15,
15,
22,
22,
22,
22,
14,
0,
5,
18,
17,
17,
20,
20,
18,
18,
12,
0,
1,
1,
8,
8,
7,
7,
5,
5,
6,
6,
2,
2,
4,
4,
-1,
11,
10,
10,
12,
-1,
0,
0,
-1,
-1,
5,
16,
15,
15,
13,
13,
7,
7,
0,
0,
5,
21,
21,
32,
32,
21,
21,
21,
14,
14,
15,
2,
2,
2,
12,
12,
14,
14,
16,
16,
25,
25,
17,
3,
4,
4,
5,
5,
6,
22,
22,
22,
18,
3,
3,
3,
2,
2,
3,
3,
2,
2,
1,
1,
1,
1,
0,
0,
1,
1,
5,
5,
0,
0,
9,
22,
21,
21,
18,
18,
10,
10,
0,
0,
2,
2,
6,
6,
0,
0,
3,
14,
13,
13,
10,
10,
2,
2,
6,
6,
8,
8,
6,
6,
4,
4,
6,
6,
2,
2,
5,
5,
4,
4,
6,
6,
7,
7,
8,
8,
0,
12,
11,
11,
14,
14,
9,
9,
9,
9,
9,
9,
7,
7,
5,
5,
11,
11,
5,
5,
3,
3,
1,
12,
12,
12,
10,
10,
4,
4,
2,
2,
0,
0,
0,
0,
-1,
-1,
2,
2,
1,
1,
2,
2,
4,
4,
3,
3,
0,
0,
4,
4,
8,
8,
6,
6,
2,
2,
-1,
-1,
0,
0,
6,
18,
17,
17,
10,
-1,
0,
0,
6,
6,
1,
1,
10,
10,
7,
7,
0,
0,
7,
7,
5,
5,
4,
4,
6,
6,
1,
1,
-1,
-1,
3,
3,
2,
2,
2,
2,
3,
3,
1,
1,
3,
3,
7,
7,
6,
6,
4,
4,
5,
5,
4,
4,
1,
1,
-1,
-1,
0,
0,
1,
1,
0,
0,
1,
1,
1,
1,
0,
0,
1,
1,
2,
2,
1,
1,
2,
2,
5,
5,
4,
4,
7,
7,
4,
4,
1,
13,
13,
28,
27,
27,
33,
18,
19,
0,
2,
2,
11,
11,
16,
16,
15,
15,
7,
7,
1,
1,
4,
4,
6,
6,
7,
7,
1,
1,
2,
2,
0,
0,
-1,
-1,
4,
4,
-1,
-1,
4,
4,
5,
5,
4,
4,
4,
4,
9,
9,
8,
8,
5,
5,
2,
2,
0,
0,
6,
6,
0,
0,
10,
10,
11,
11,
5,
5,
2,
2,
4,
4,
4,
4,
2,
2,
9,
9,
6,
6,
-1,
-1,
0,
0,
5,
5,
2,
2,
-1,
-1,
0,
0,
0,
12,
11,
11,
12,
12,
7,
7,
0,
0,
1,
1,
3,
3,
2,
2,
2,
2,
-1,
-1,
2,
2,
1,
1,
6,
6,
3,
3,
10,
10,
10,
10,
18,
18,
20,
5,
6,
6,
7,
7,
8,
8,
12,
12,
15,
3,
4,
4,
1,
1,
0,
0,
-2,
-2,
1,
1,
2,
2,
7,
7,
11,
11,
3,
3,
4,
4,
4,
4,
3,
3,
4,
4,
0,
0,
-1,
-1,
0,
0,
1,
1,
3,
3,
3,
3,
1,
1,
4,
4,
3,
3,
-1,
-1,
2,
2,
0,
0,
0,
0,
0,
0,
1,
1,
2,
2,
2,
2,
0,
0,
-1,
-1,
3,
3,
2,
2,
-1,
-1,
1,
1,
5,
5,
0,
0,
2,
2,
6,
6,
3,
3,
1,
1,
0,
0,
4,
4,
11,
11,
4,
4,
5,
5,
9,
9,
10,
10,
7,
7,
3,
3,
3,
3,
0,
0,
2,
2,
1,
1,
3,
3,
5,
5,
4,
4,
-1,
-1,
5,
5,
10,
-1,
0,
0,
2,
2,
7,
7,
12,
12,
7,
7,
0,
0,
4,
4,
4,
4,
2,
2,
4,
4,
5,
5,
1,
1,
4,
4,
3,
3,
0,
0,
-1,
-1,
3,
3,
5,
5,
1,
1,
0,
0,
3,
3,
5,
5,
1,
1,
1,
1,
2,
2,
3,
3,
7,
7,
2,
2,
2,
2,
-1,
-1,
8,
8,
14,
14,
12,
12,
7,
7,
2,
15,
15,
15,
20,
20,
16,
16,
6,
6,
12,
12,
19,
19,
10,
10,
3,
3,
8,
8,
6,
6,
7,
7,
2,
2,
2,
2,
5,
5,
6,
6,
6,
6,
8,
8,
6,
6,
5,
5,
8,
8,
5,
5,
0,
0,
2,
2,
0,
0,
9,
9,
11,
11,
13,
13,
6,
6,
5,
5,
6,
6,
0,
18,
18,
31,
30,
30,
26,
6,
6,
6,
7,
7,
15,
15,
22,
22,
17,
17,
8,
8,
2,
2,
2,
2,
1,
1,
3,
3,
0,
0,
-1,
-1,
1,
1,
5,
5,
5,
5,
6,
6,
8,
8,
5,
5,
4,
4,
7,
7,
9,
9,
8,
8,
0,
0,
9,
9,
14,
14,
6,
6,
2,
2,
6,
6,
0,
0,
-1,
-1,
1,
1,
0,
0,
0,
0,
-1,
-1,
-1,
-1,
-1,
-1,
3,
3,
8,
8,
0,
0,
3,
3,
12,
12,
14,
14,
5,
5,
0,
0,
8,
8,
12,
12,
11,
11,
6,
6,
2,
2,
0,
0,
2,
2,
8,
8,
4,
4,
5,
5,
8,
8,
7,
7,
2,
2,
0,
0,
1,
1,
0,
0,
0,
0,
2,
2,
0,
0,
6,
6,
2,
2,
3,
3,
7,
7,
2,
2,
0,
0,
9,
34,
34,
34,
31,
12,
13,
2,
7,
19,
18,
18,
21,
21,
21,
1,
3,
14,
13,
13,
10,
10,
5,
5,
0,
0,
8,
8,
3,
3,
5,
5,
6,
6,
7,
7,
1,
1,
10,
10,
2,
13,
12,
12,
15,
15,
11,
11,
3,
3,
6,
6,
8,
8,
3,
3,
7,
7,
13,
13,
4,
4,
-1,
-1,
0,
0,
0,
0,
8,
8,
6,
6,
7,
7,
10,
10,
10,
10,
10,
10,
4,
4,
0,
0,
2,
2,
5,
5,
3,
3,
5,
5,
9,
9,
6,
6,
11,
25,
24,
24,
14,
0,
0,
0,
4,
4,
9,
9,
11,
11,
5,
5,
0,
0,
2,
2,
0,
0,
-1,
-1,
1,
1,
3,
3,
7,
7,
10,
10,
2,
2,
2,
2,
0,
0,
1,
1,
0,
0,
4,
4,
6,
6,
4,
4,
1,
1,
9,
9,
12,
12,
14,
14,
16,
16,
8,
8,
2,
2,
10,
10,
14,
14,
14,
14,
5,
5,
0,
0,
2,
2,
4,
4,
5,
5,
4,
4,
1,
1,
-1,
-1,
0,
0,
6,
6,
9,
9,
2,
2,
0,
0,
1,
1,
6,
6,
12,
12,
5,
5,
5,
18,
17,
17,
25,
14,
14,
0,
3,
16,
15,
15,
16,
16,
9,
9,
4,
4,
2,
2,
6,
6,
3,
14,
14,
14,
17,
17,
11,
0,
1,
1,
4,
4,
7,
7,
9,
9,
7,
7,
2,
19,
18,
31,
31,
20,
20,
3,
3,
3,
8,
8,
13,
13,
14,
14,
10,
10,
8,
8,
6,
6,
4,
4,
0,
0,
4,
4,
7,
7,
6,
6,
5,
5,
7,
7,
3,
3,
3,
3,
0,
0,
6,
6,
7,
7,
7,
7,
7,
7,
5,
5,
2,
2,
1,
1,
1,
1,
0,
0,
6,
6,
6,
6,
5,
5,
6,
6,
4,
4,
0,
0,
1,
1,
1,
1,
3,
3,
2,
2,
3,
3,
3,
3,
8,
8,
15,
15,
14,
14,
4,
4,
3,
3,
7,
7,
3,
3,
-1,
-1,
-1,
-1,
4,
4,
2,
2,
1,
1,
2,
2,
0,
0,
0,
0,
0,
0,
0,
0,
0,
0,
0,
0,
0,
0,
0,
0,
1,
1,
5,
5,
10,
10,
9,
9,
1,
1,
1,
1,
3,
3,
3,
3,
12,
12,
2,
18,
18,
18,
16,
1,
2,
2,
7,
7,
3,
3,
1,
1,
5,
5,
7,
7,
0,
0,
4,
4,
6,
6,
4,
4,
0,
0,
0,
0,
1,
1,
7,
7,
12,
0,
2,
2,
9,
9,
5,
5,
3,
3,
3,
3,
10,
10,
13,
1,
10,
31,
30,
30,
32,
8,
8,
8,
12,
12,
16,
16,
14,
14,
12,
12,
9,
9,
5,
5,
0,
0,
0,
0,
3,
3,
6,
6,
5,
5,
5,
5,
6,
6,
7,
7,
7,
7,
6,
6,
4,
4,
3,
3,
0,
0,
0,
0,
0,
0,
-1,
-1,
-1,
-1,
-1,
-1,
5,
5,
5,
5,
2,
2,
-1,
-1,
0,
0,
1,
1,
1,
1,
0,
0,
0,
0,
4,
4,
0,
0,
4,
4,
4,
4,
0,
0,
-1,
-1,
1,
1,
7,
7,
4,
4,
5,
5,
2,
2,
-1,
-1,
4,
4,
4,
4,
4,
4,
