EMG_S1/DS0155.CSV

Memory Length,4000,
Trigger Level,0.00000e+00,
Source,CH1,
Probe,1.0X,
Vertical Units,V,
Vertical Scale,1.00000e+00,
Vertical Position,4.00000e-02,
Horizontal Units,S,
Horizontal Scale,1.00000e-01,
Horizontal Position,0.0000000e+00,
Horizontal Mode,Roll Mode,
Waveform Last Dot Address,4000,
Sampling Period,4.00000e-04,
Firmware,V1.14,
Time, ,
Mode,Fast,
Waveform Data,
20,
6,
7,
7,
11,
11,
18,
18,
18,
18,
18,
18,
8,
8,
0,
0,
6,
18,
17,
17,
17,
17,
7,
7,
0,
0,
0,
0,
7,
7,
2,
2,
11,
11,
14,
14,
4,
4,
2,
2,
2,
2,
1,
1,
-1,
-1,
4,
4,
5,
5,
2,
2,
3,
3,
2,
2,
1,
12,
12,
12,
14,
14,
5,
5,
3,
3,
10,
10,
13,
13,
11,
11,
3,
3,
10,
10,
20,
8,
8,
8,
6,
6,
6,
6,
1,
1,
2,
2,
8,
8,
4,
19,
18,
18,
19,
19,
22,
22,
18,
18,
14,
-1,
0,
12,
11,
11,
21,
21,
25,
14,
15,
15,
14,
14,
18,
18,
13,
0,
2,
18,
17,
17,
24,
24,
27,
27,
24,
8,
8,
8,
3,
3,
9,
9,
10,
10,
7,
7,
2,
2,
2,
2,
2,
2,
-1,
-1,
0,
0,
5,
5,
14,
14,
11,
-1,
0,
0,
8,
8,
11,
11,
10,
10,
0,
12,
11,
11,
16,
16,
8,
8,
3,
3,
1,
1,
0,
0,
0,
0,
-1,
-1,
0,
0,
6,
6,
2,
2,
2,
2,
1,
1,
-1,
-1,
0,
0,
-1,
-1,
-1,
-1,
3,
3,
3,
3,
-1,
-1,
0,
0,
1,
1,
4,
4,
5,
5,
3,
3,
6,
6,
8,
8,
6,
6,
1,
1,
2,
2,
1,
1,
10,
10,
10,
10,
14,
2,
6,
6,
2,
2,
0,
0,
0,
0,
4,
4,
6,
6,
6,
6,
6,
6,
5,
5,
3,
3,
-1,
-1,
4,
4,
6,
6,
4,
4,
2,
2,
3,
3,
3,
3,
4,
4,
4,
4,
0,
0,
10,
10,
9,
9,
14,
2,
3,
34,
32,
32,
38,
26,
27,
27,
18,
18,
12,
12,
2,
16,
15,
27,
26,
26,
24,
9,
9,
9,
0,
0,
4,
4,
13,
13,
14,
14,
11,
11,
7,
7,
0,
0,
9,
9,
14,
14,
8,
8,
7,
19,
18,
18,
11,
0,
1,
1,
3,
3,
0,
13,
12,
12,
21,
21,
15,
3,
4,
4,
0,
11,
10,
10,
16,
16,
14,
14,
4,
4,
9,
9,
10,
-1,
3,
3,
7,
7,
4,
4,
6,
6,
10,
10,
6,
6,
1,
1,
6,
19,
19,
19,
20,
7,
8,
8,
-1,
-1,
1,
1,
0,
0,
2,
2,
0,
0,
3,
3,
4,
4,
2,
2,
4,
4,
0,
0,
0,
0,
2,
2,
5,
5,
6,
6,
7,
7,
5,
5,
7,
7,
6,
6,
-1,
-1,
8,
8,
16,
16,
21,
21,
12,
12,
4,
4,
10,
10,
9,
9,
0,
0,
3,
14,
14,
14,
20,
20,
12,
12,
4,
4,
2,
2,
5,
5,
11,
11,
13,
13,
8,
8,
1,
1,
7,
7,
3,
3,
0,
0,
-1,
-1,
2,
2,
5,
5,
1,
1,
6,
6,
2,
2,
3,
14,
13,
13,
12,
12,
2,
2,
-1,
-1,
3,
3,
3,
3,
1,
1,
6,
6,
8,
8,
5,
5,
-1,
-1,
6,
6,
10,
10,
2,
2,
0,
0,
0,
0,
2,
2,
2,
2,
5,
5,
2,
2,
-1,
-1,
-1,
-1,
7,
7,
16,
16,
13,
13,
13,
13,
9,
9,
2,
2,
6,
6,
7,
7,
3,
3,
3,
3,
0,
0,
-1,
-1,
4,
4,
2,
2,
4,
4,
4,
4,
3,
3,
4,
4,
3,
3,
3,
3,
0,
0,
5,
5,
6,
6,
2,
2,
-1,
-1,
3,
3,
0,
0,
6,
6,
6,
6,
3,
3,
4,
4,
7,
7,
1,
1,
3,
3,
7,
7,
8,
8,
1,
1,
0,
0,
7,
7,
2,
2,
-1,
-1,
0,
0,
-1,
-1,
2,
2,
4,
4,
-1,
-1,
0,
0,
1,
1,
-1,
-1,
-1,
-1,
0,
0,
6,
6,
6,
6,
4,
4,
7,
7,
15,
15,
14,
14,
13,
13,
14,
14,
15,
15,
6,
6,
2,
2,
1,
1,
6,
6,
14,
14,
17,
17,
22,
22,
17,
2,
2,
2,
4,
4,
8,
8,
10,
10,
9,
9,
5,
5,
3,
3,
0,
14,
13,
25,
24,
24,
21,
3,
3,
3,
6,
6,
10,
10,
6,
6,
2,
2,
0,
0,
3,
3,
8,
8,
8,
8,
15,
15,
6,
6,
11,
11,
20,
20,
17,
17,
20,
20,
20,
20,
13,
0,
0,
13,
13,
13,
15,
15,
14,
14,
15,
15,
14,
3,
3,
3,
2,
2,
9,
9,
10,
10,
4,
4,
3,
3,
4,
4,
12,
12,
14,
14,
12,
-1,
0,
0,
2,
2,
0,
0,
6,
6,
10,
10,
8,
8,
3,
17,
17,
17,
26,
13,
14,
0,
1,
14,
13,
13,
14,
14,
6,
6,
7,
7,
10,
10,
6,
6,
6,
6,
3,
3,
5,
5,
6,
6,
7,
18,
18,
29,
29,
29,
29,
29,
19,
1,
2,
21,
21,
21,
23,
23,
18,
4,
4,
4,
8,
8,
9,
9,
7,
7,
0,
0,
5,
5,
7,
7,
4,
4,
-1,
-1,
0,
0,
3,
3,
1,
1,
2,
2,
1,
1,
1,
1,
3,
3,
4,
4,
5,
5,
6,
6,
6,
6,
4,
4,
-1,
-1,
1,
1,
3,
3,
2,
2,
0,
0,
0,
0,
2,
2,
4,
4,
2,
2,
5,
5,
-1,
-1,
4,
4,
2,
2,
7,
7,
11,
11,
6,
6,
0,
0,
-1,
-1,
-1,
-1,
3,
3,
2,
2,
-1,
-1,
2,
2,
8,
8,
6,
6,
4,
4,
8,
8,
9,
9,
3,
3,
-1,
-1,
0,
14,
13,
13,
15,
15,
20,
20,
17,
17,
20,
20,
16,
16,
13,
13,
10,
10,
10,
28,
28,
28,
29,
29,
23,
23,
15,
4,
5,
5,
0,
0,
4,
4,
6,
6,
6,
6,
8,
8,
14,
14,
17,
17,
10,
10,
2,
2,
5,
5,
8,
8,
1,
1,
0,
0,
0,
0,
6,
6,
14,
14,
13,
13,
3,
3,
-1,
11,
11,
11,
17,
17,
11,
0,
7,
20,
19,
19,
18,
18,
0,
0,
3,
16,
15,
15,
15,
15,
16,
16,
14,
3,
3,
3,
4,
4,
6,
6,
13,
13,
18,
18,
10,
10,
4,
4,
2,
2,
2,
2,
1,
1,
0,
0,
0,
0,
1,
1,
-1,
-1,
1,
1,
6,
6,
0,
0,
0,
0,
-1,
-1,
3,
3,
3,
3,
6,
6,
9,
9,
7,
7,
-1,
-1,
6,
6,
8,
8,
11,
11,
4,
4,
4,
4,
3,
19,
18,
29,
28,
28,
19,
2,
6,
23,
23,
23,
19,
19,
10,
10,
0,
0,
3,
3,
1,
17,
16,
16,
20,
20,
12,
0,
1,
1,
1,
1,
5,
5,
9,
9,
7,
7,
7,
7,
8,
8,
6,
6,
5,
5,
7,
7,
10,
10,
12,
12,
5,
5,
6,
6,
6,
6,
2,
2,
7,
7,
10,
10,
4,
4,
6,
6,
5,
5,
6,
6,
8,
8,
6,
6,
6,
6,
0,
0,
6,
6,
6,
6,
7,
7,
0,
0,
-2,
-2,
-1,
-1,
3,
14,
12,
12,
3,
3,
11,
22,
22,
22,
21,
6,
6,
6,
0,
0,
3,
3,
0,
0,
5,
5,
1,
1,
6,
6,
5,
5,
1,
1,
11,
11,
7,
7,
3,
3,
5,
5,
0,
0,
9,
9,
11,
11,
14,
14,
15,
15,
12,
12,
8,
24,
23,
34,
33,
33,
38,
27,
27,
4,
6,
6,
3,
3,
8,
8,
13,
24,
24,
24,
23,
23,
16,
2,
6,
19,
18,
18,
15,
0,
3,
3,
8,
8,
11,
-1,
-1,
12,
12,
12,
8,
8,
1,
1,
0,
0,
10,
30,
28,
28,
30,
7,
7,
7,
9,
9,
15,
15,
13,
13,
16,
16,
19,
19,
19,
19,
14,
2,
2,
2,
6,
6,
15,
15,
20,
20,
14,
14,
7,
7,
0,
0,
-1,
-1,
0,
0,
1,
1,
8,
8,
14,
14,
15,
15,
7,
7,
4,
4,
4,
4,
11,
22,
21,
21,
18,
5,
5,
5,
10,
10,
7,
7,
3,
3,
7,
7,
1,
23,
23,
23,
30,
4,
4,
4,
5,
5,
6,
6,
8,
8,
8,
8,
1,
1,
2,
2,
10,
10,
17,
17,
18,
2,
2,
21,
21,
21,
27,
15,
15,
0,
3,
18,
17,
17,
21,
21,
22,
22,
22,
3,
3,
16,
15,
15,
17,
17,
10,
10,
5,
5,
1,
13,
13,
13,
12,
1,
2,
2,
0,
0,
0,
0,
5,
16,
15,
15,
14,
14,
7,
7,
5,
5,
10,
10,
2,
2,
-1,
-1,
2,
2,
6,
19,
18,
18,
19,
0,
2,
21,
19,
19,
26,
26,
16,
1,
1,
1,
6,
17,
17,
29,
28,
28,
25,
25,
16,
2,
10,
41,
41,
41,
46,
15,
15,
0,
0,
0,
-1,
-1,
3,
3,
12,
12,
13,
13,
15,
3,
3,
3,
3,
3,
1,
1,
1,
1,
4,
4,
0,
0,
0,
0,
-1,
-1,
0,
14,
13,
13,
6,
6,
7,
7,
14,
14,
9,
9,
8,
8,
3,
3,
2,
2,
1,
1,
7,
7,
14,
14,
8,
8,
0,
0,
6,
6,
5,
5,
11,
11,
15,
15,
6,
6,
7,
7,
3,
3,
9,
9,
13,
13,
13,
13,
4,
4,
1,
1,
6,
6,
6,
6,
8,
8,
5,
5,
0,
0,
3,
3,
0,
0,
2,
2,
0,
0,
0,
0,
-1,
-1,
0,
0,
0,
0,
3,
3,
2,
2,
9,
30,
30,
30,
32,
32,
24,
11,
11,
11,
8,
24,
23,
23,
20,
8,
9,
9,
8,
8,
0,
0,
1,
1,
2,
2,
11,
11,
13,
13,
4,
4,
2,
23,
22,
22,
29,
29,
22,
11,
12,
12,
2,
2,
3,
3,
2,
2,
7,
7,
16,
16,
15,
15,
12,
12,
14,
14,
20,
4,
18,
54,
54,
54,
48,
20,
20,
2,
8,
24,
23,
23,
26,
26,
18,
18,
12,
12,
8,
8,
2,
2,
3,
3,
10,
10,
3,
3,
0,
0,
7,
7,
15,
15,
22,
10,
11,
-1,
1,
1,
8,
8,
9,
9,
6,
6,
4,
4,
1,
1,
0,
0,
1,
1,
6,
6,
5,
5,
1,
1,
3,
3,
2,
2,
4,
4,
4,
4,
5,
5,
2,
2,
-1,
-1,
-1,
-1,
-2,
-2,
0,
0,
2,
2,
1,
1,
-1,
-1,
4,
4,
0,
0,
3,
3,
5,
5,
15,
15,
13,
1,
7,
7,
14,
14,
7,
7,
8,
8,
6,
6,
0,
0,
1,
1,
3,
3,
0,
0,
1,
1,
3,
3,
-1,
12,
12,
12,
19,
19,
23,
23,
19,
6,
6,
6,
7,
7,
8,
8,
3,
3,
1,
1,
4,
4,
10,
10,
10,
10,
8,
8,
6,
6,
2,
2,
6,
6,
5,
5,
8,
8,
17,
17,
24,
9,
9,
9,
9,
9,
14,
14,
15,
15,
10,
10,
6,
6,
10,
10,
7,
7,
2,
2,
6,
6,
13,
13,
18,
2,
2,
2,
8,
8,
9,
9,
6,
6,
2,
2,
9,
9,
8,
8,
9,
9,
2,
2,
6,
6,
2,
2,
-1,
-1,
8,
8,
10,
10,
6,
6,
0,
0,
10,
10,
11,
0,
0,
0,
5,
20,
19,
19,
18,
18,
9,
9,
8,
8,
6,
6,
1,
1,
6,
6,
7,
7,
3,
3,
8,
8,
10,
10,
14,
14,
7,
7,
8,
8,
2,
2,
-1,
-1,
-1,
-1,
7,
7,
11,
11,
3,
3,
2,
2,
9,
9,
15,
15,
22,
22,
29,
29,
24,
9,
10,
-1,
2,
2,
5,
5,
12,
12,
12,
12,
11,
11,
14,
14,
10,
10,
1,
1,
4,
4,
5,
5,
6,
6,
7,
7,
0,
0,
3,
3,
5,
16,
15,
28,
27,
27,
20,
0,
2,
14,
13,
28,
27,
27,
23,
23,
16,
16,
12,
12,
6,
6,
0,
0,
-1,
-1,
6,
6,
15,
15,
12,
12,
11,
11,
17,
17,
12,
12,
3,
3,
3,
3,
8,
8,
7,
7,
1,
1,
4,
4,
8,
8,
9,
9,
8,
8,
10,
10,
10,
10,
7,
7,
0,
0,
1,
1,
0,
0,
9,
9,
5,
5,
8,
27,
27,
27,
28,
11,
13,
1,
4,
4,
7,
7,
4,
4,
7,
7,
3,
3,
4,
4,
5,
5,
6,
6,
5,
5,
0,
0,
2,
2,
-1,
-1,
2,
2,
2,
2,
-1,
-1,
-1,
-1,
4,
4,
2,
2,
5,
5,
1,
1,
2,
2,
3,
3,
0,
17,
17,
32,
31,
16,
16,
2,
6,
6,
10,
10,
8,
8,
14,
14,
6,
6,
7,
7,
5,
5,
3,
14,
12,
12,
7,
7,
8,
8,
15,
15,
12,
12,
14,
14,
11,
11,
7,
7,
15,
15,
12,
12,
2,
2,
2,
2,
3,
3,
0,
0,
1,
1,
4,
4,
3,
3,
3,
3,
5,
5,
-1,
-1,
0,
0,
0,
0,
-1,
-1,
1,
1,
8,
24,
24,
24,
21,
7,
7,
7,
0,
0,
9,
9,
14,
14,
5,
5,
2,
2,
-1,
-1,
4,
4,
3,
3,
3,
3,
5,
5,
8,
8,
0,
0,
4,
4,
2,
2,
2,
2,
1,
1,
9,
9,
16,
16,
7,
7,
6,
18,
17,
17,
12,
0,
3,
14,
13,
32,
32,
32,
32,
32,
23,
2,
2,
2,
10,
10,
13,
13,
14,
14,
14,
14,
13,
13,
10,
10,
7,
7,
5,
5,
0,
0,
9,
9,
11,
11,
2,
2,
4,
4,
11,
11,
14,
14,
6,
6,
-1,
-1,
0,
0,
5,
5,
0,
0,
3,
3,
2,
2,
1,
1,
4,
4,
7,
7,
1,
1,
4,
4,
0,
0,
5,
5,
9,
9,
9,
9,
6,
6,
8,
8,
2,
2,
11,
11,
7,
7,
0,
0,
2,
2,
4,
4,
4,
4,
1,
1,
2,
2,
-1,
10,
8,
8,
16,
16,
13,
13,
11,
0,
3,
3,
10,
-1,
1,
12,
12,
12,
3,
3,
6,
6,
10,
10,
7,
7,
9,
9,
14,
14,
6,
6,
-1,
-1,
5,
5,
4,
4,
3,
3,
7,
7,
3,
15,
15,
27,
27,
27,
19,
4,
4,
4,
3,
3,
8,
8,
16,
29,
28,
28,
23,
2,
3,
3,
9,
24,
23,
23,
27,
8,
9,
9,
10,
10,
11,
0,
0,
0,
-1,
-1,
0,
0,
4,
4,
6,
6,
6,
6,
7,
7,
8,
8,
2,
2,
0,
0,
1,
1,
10,
10,
11,
11,
16,
16,
10,
10,
8,
19,
18,
18,
14,
3,
3,
3,
6,
6,
6,
6,
7,
20,
19,
19,
15,
15,
6,
6,
0,
0,
5,
5,
5,
5,
10,
10,
15,
15,
10,
10,
7,
7,
7,
7,
9,
9,
5,
5,
0,
0,
0,
0,
5,
5,
7,
7,
13,
13,
18,
18,
18,
18,
14,
0,
2,
2,
8,
8,
3,
3,
-1,
-1,
0,
0,
5,
5,
6,
6,
6,
6,
6,
6,
6,
6,
0,
0,
7,
7,
13,
13,
11,
11,
3,
3,
0,
0,
3,
3,
6,
6,
7,
7,
9,
9,
4,
4,
0,
0,
1,
1,
9,
9,
15,
15,
12,
12,
5,
5,
6,
6,
3,
3,
0,
0,
2,
2,
6,
6,
10,
10,
14,
14,
13,
13,
6,
6,
4,
4,
7,
7,
2,
2,
2,
2,
2,
2,
1,
1,
2,
2,
2,
14,
13,
13,
14,
0,
1,
15,
14,
14,
21,
2,
3,
18,
17,
17,
10,
-1,
0,
0,
2,
2,
0,
0,
1,
1,
3,
3,
0,
0,
5,
5,
2,
2,
3,
3,
9,
9,
12,
0,
1,
1,
9,
9,
15,
4,
5,
5,
3,
3,
9,
9,
11,
11,
9,
9,
2,
2,
5,
5,
13,
13,
11,
11,
6,
6,
14,
14,
20,
8,
9,
9,
7,
7,
16,
16,
14,
0,
2,
2,
12,
12,
17,
17,
16,
16,
10,
10,
6,
6,
2,
2,
6,
6,
2,
2,
-1,
-1,
7,
7,
8,
8,
16,
16,
24,
12,
12,
-1,
0,
0,
0,
0,
4,
4,
7,
7,
7,
7,
10,
10,
11,
11,
10,
10,
2,
2,
11,
11,
16,
16,
11,
11,
2,
2,
5,
5,
8,
8,
4,
4,
3,
3,
4,
4,
0,
0,
2,
2,
0,
0,
3,
3,
7,
7,
7,
7,
4,
4,
5,
5,
11,
11,
13,
13,
15,
3,
3,
17,
16,
28,
26,
11,
11,
0,
8,
8,
11,
-1,
2,
2,
10,
10,
10,
10,
10,
10,
5,
5,
-1,
-1,
5,
5,
3,
3,
4,
4,
3,
3,
-1,
-1,
2,
2,
9,
9,
11,
11,
4,
4,
4,
4,
4,
4,
4,
4,
7,
7,
14,
14,
17,
2,
3,
3,
10,
10,
19,
8,
9,
20,
20,
20,
21,
10,
11,
11,
9,
9,
10,
10,
5,
5,
0,
0,
5,
5,
11,
11,
8,
8,
2,
2,
0,
0,
0,
0,
3,
3,
0,
0,
9,
9,
12,
12,
8,
8,
6,
6,
0,
0,
5,
5,
6,
6,
3,
3,
1,
1,
-1,
-1,
2,
2,
10,
10,
14,
14,
15,
15,
7,
7,
2,
2,
7,
7,
0,
0,
7,
7,
5,
5,
6,
6,
1,
1,
6,
6,
7,
7,
0,
0,
4,
4,
2,
2,
2,
2,
5,
5,
5,
5,
3,
3,
0,
0,
4,
4,
8,
8,
10,
10,
4,
4,
2,
2,
1,
1,
-1,
-1,
0,
0,
6,
6,
10,
10,
3,
3,
5,
5,
3,
3,
2,
14,
14,
14,
16,
16,
8,
8,
7,
18,
17,
17,
16,
16,
13,
13,
3,
3,
2,
2,
6,
6,
10,
10,
6,
6,
0,
0,
2,
2,
-1,
-1,
4,
4,
0,
13,
12,
12,
11,
11,
8,
8,
4,
4,
2,
2,
1,
1,
5,
5,
7,
7,
7,
7,
4,
4,
3,
3,
7,
7,
6,
6,
2,
20,
19,
30,
29,
29,
28,
12,
13,
2,
10,
24,
23,
10,
10,
10,
3,
3,
1,
14,
13,
13,
18,
2,
4,
21,
21,
21,
23,
23,
19,
2,
2,
2,
11,
11,
16,
16,
16,
5,
5,
5,
2,
2,
3,
3,
5,
5,
1,
1,
6,
6,
3,
3,
6,
18,
18,
7,
8,
8,
3,
3,
2,
2,
5,
17,
16,
16,
18,
7,
8,
8,
1,
1,
6,
6,
0,
0,
1,
1,
10,
10,
12,
12,
15,
15,
15,
4,
5,
5,
2,
2,
4,
4,
8,
8,
16,
16,
12,
12,
3,
3,
3,
3,
3,
3,
7,
7,
4,
15,
14,
14,
5,
5,
4,
4,
6,
6,
0,
0,
1,
1,
-1,
-1,
4,
4,
8,
8,
7,
7,
0,
0,
0,
0,
3,
3,
10,
10,
12,
12,
6,
6,
13,
13,
13,
2,
7,
7,
14,
14,
13,
13,
10,
10,
6,
6,
5,
5,
-1,
-1,
3,
3,
0,
0,
3,
3,
6,
6,
7,
7,
4,
4,
4,
4,
10,
10,
8,
8,
5,
5,
-1,
-1,
4,
4,
6,
6,
11,
11,
4,
4,
2,
2,
11,
11,
8,
8,
10,
10,
2,
2,
0,
0,
0,
0,
0,
0,
3,
3,
3,
3,
2,
2,
8,
8,
14,
14,
12,
0,
5,
16,
15,
15,
11,
11,
2,
2,
0,
0,
4,
4,
11,
11,
2,
2,
7,
7,
11,
11,
16,
1,
2,
14,
14,
14,
16,
16,
19,
19,
13,
13,
5,
5,
4,
4,
11,
11,
7,
7,
6,
6,
13,
13,
12,
0,
1,
1,
1,
1,
2,
2,
7,
7,
7,
7,
2,
2,
2,
2,
-1,
-1,
2,
14,
13,
13,
12,
12,
5,
5,
10,
10,
2,
2,
11,
25,
25,
14,
15,
0,
1,
1,
6,
6,
11,
11,
14,
14,
14,
14,
8,
8,
8,
8,
11,
0,
3,
3,
10,
10,
13,
13,
6,
6,
4,
4,
4,
4,
2,
2,
6,
6,
6,
6,
9,
9,
10,
10,
6,
6,
3,
14,
13,
13,
13,
0,
0,
0,
2,
2,
8,
8,
8,
8,
7,
7,
6,
6,
5,
5,
6,
6,
11,
11,
7,
7,
2,
2,
9,
9,
1,
1,
0,
12,
11,
11,
13,
13,
7,
7,
5,
18,
17,
17,
13,
13,
6,
6,
0,
0,
4,
4,
6,
6,
1,
1,
-1,
-1,
0,
0,
7,
22,
22,
22,
30,
30,
23,
2,
2,
17,
16,
34,
33,
21,
21,
0,
2,
2,
8,
8,
10,
10,
1,
1,
4,
4,
5,
5,
2,
2,
-1,
-1,
8,
8,
14,
14,
10,
10,
6,
6,
5,
5,
6,
6,
1,
1,
7,
7,
6,
6,
7,
7,
5,
17,
17,
17,
21,
21,
12,
-1,
1,
12,
12,
12,
13,
13,
10,
10,
8,
8,
7,
7,
0,
0,
0,
0,
2,
2,
12,
12,
17,
17,
11,
11,
5,
5,
1,
1,
1,
1,
1,
1,
2,
2,
6,
6,
11,
11,
10,
10,
7,
7,
2,
2,
2,
2,
5,
5,
11,
11,
12,
12,
6,
6,
2,
2,
2,
2,
1,
1,
2,
2,
2,
2,
6,
6,
2,
2,
6,
6,
5,
5,
6,
6,
7,
7,
6,
6,
1,
1,
1,
1,
2,
2,
-1,
-1,
4,
4,
8,
8,
9,
9,
6,
6,
0,
0,
6,
6,
7,
7,
0,
0,
5,
5,
9,
9,
6,
6,
2,
2,
11,
11,
8,
8,
4,
4,
1,
1,
4,
4,
0,
0,
1,
1,
8,
8,
8,
8,
6,
6,
12,
12,
13,
0,
1,
1,
1,
1,
5,
5,
3,
3,
9,
9,
6,
6,
2,
2,
2,
14,
13,
13,
10,
10,
7,
7,
6,
6,
0,
0,
8,
8,
14,
14,
14,
14,
18,
18,
25,
25,
25,
25,
20,
2,
3,
14,
14,
14,
19,
19,
15,
15,
16,
16,
17,
17,
10,
-1,
0,
0,
0,
0,
0,
0,
2,
2,
3,
3,
-1,
-1,
2,
25,
24,
39,
38,
38,
29,
2,
3,
3,
11,
11,
14,
14,
15,
15,
7,
7,
0,
0,
-1,
-1,
8,
8,
6,
6,
5,
5,
6,
27,
27,
27,
32,
19,
19,
7,
8,
8,
2,
2,
8,
8,
13,
13,
14,
14,
14,
14,
5,
5,
2,
2,
0,
0,
-1,
-1,
2,
2,
-1,
-1,
0,
0,
1,
1,
5,
5,
10,
10,
16,
32,
31,
31,
26,
5,
6,
6,
7,
7,
12,
12,
15,
15,
13,
13,
5,
5,
2,
2,
0,
0,
5,
5,
2,
2,
1,
1,
0,
0,
-1,
-1,
0,
0,
3,
3,
8,
8,
15,
15,
18,
18,
10,
-1,
0,
0,
4,
4,
4,
4,
4,
4,
0,
0,
2,
2,
2,
2,
6,
6,
0,
0,
-1,
-1,
2,
2,
2,
2,
6,
6,
0,
0,
2,
2,
0,
0,
3,
3,
3,
3,
6,
6,
11,
11,
8,
8,
8,
8,
6,
23,
23,
23,
17,
0,
2,
2,
4,
4,
6,
6,
3,
3,
4,
4,
7,
7,
11,
11,
5,
5,
6,
22,
21,
21,
30,
30,
23,
23,
19,
7,
8,
8,
6,
6,
16,
16,
18,
18,
19,
19,
20,
20,
13,
2,
2,
2,
0,
0,
10,
10,
17,
17,
14,
14,
14,
14,
15,
15,
5,
5,
5,
5,
10,
10,
8,
8,
7,
7,
12,
12,
6,
6,
1,
1,
7,
7,
11,
11,
6,
6,
6,
6,
3,
3,
0,
0,
2,
2,
-1,
-1,
4,
4,
12,
12,
12,
12,
6,
6,
0,
0,
-1,
-1,
0,
0,
0,
0,
0,
0,
1,
1,
3,
3,
4,
4,
8,
8,
10,
10,
15,
15,
11,
-1,
-1,
-1,
7,
7,
11,
11,
12,
12,
16,
16,
20,
20,
21,
6,
6,
22,
22,
34,
34,
34,
32,
21,
22,
6,
7,
7,
7,
7,
13,
13,
13,
13,
11,
0,
0,
12,
11,
11,
13,
13,
6,
6,
0,
0,
-1,
-1,
1,
1,
-1,
-1,
3,
3,
7,
7,
9,
9,
8,
8,
1,
12,
11,
11,
14,
14,
8,
8,
4,
4,
2,
2,
5,
5,
1,
1,
3,
14,
13,
13,
16,
16,
8,
8,
3,
3,
5,
5,
3,
3,
4,
4,
7,
7,
12,
12,
16,
16,
8,
8,
-1,
-1,
4,
4,
1,
1,
6,
6,
7,
25,
25,
25,
31,
16,
16,
0,
2,
13,
11,
11,
14,
14,
12,
12,
11,
11,
1,
1,
9,
9,
7,
7,
-1,
-1,
0,
0,
7,
7,
7,
7,
1,
1,
6,
6,
9,
9,
0,
0,
3,
3,
9,
20,
19,
19,
