EMG_S1/DS0180.CSV

Memory Length,4000,
Trigger Level,0.00000e+00,
Source,CH1,
Probe,1.0X,
Vertical Units,V,
Vertical Scale,1.00000e+00,
Vertical Position,4.00000e-02,
Horizontal Units,S,
Horizontal Scale,1.00000e-01,
Horizontal Position,0.0000000e+00,
Horizontal Mode,Roll Mode,
Waveform Last Dot Address,4000,
Sampling Period,4.00000e-04,
Firmware,V1.14,
Time, ,
Mode,Fast,
Waveform Data,
7,
7,
13,
13,
10,
-1,
0,
0,
2,
2,
3,
3,
4,
4,
0,
0,
2,
2,
1,
1,
5,
5,
10,
10,
11,
11,
11,
11,
8,
8,
0,
0,
0,
0,
2,
2,
0,
0,
10,
10,
11,
11,
7,
7,
0,
0,
5,
5,
13,
13,
19,
19,
22,
10,
10,
10,
3,
3,
8,
8,
4,
4,
5,
5,
7,
7,
7,
7,
5,
28,
28,
28,
34,
19,
20,
20,
11,
11,
15,
15,
20,
2,
2,
15,
15,
15,
20,
20,
23,
23,
23,
23,
16,
16,
9,
9,
2,
2,
0,
0,
3,
3,
5,
5,
6,
6,
8,
8,
8,
8,
7,
7,
8,
8,
11,
11,
8,
8,
2,
2,
0,
0,
4,
4,
4,
4,
5,
5,
5,
5,
3,
3,
1,
14,
13,
24,
24,
24,
26,
26,
19,
1,
3,
15,
14,
14,
8,
8,
6,
6,
14,
14,
15,
0,
1,
1,
1,
1,
7,
7,
8,
8,
6,
6,
3,
3,
0,
0,
7,
7,
3,
3,
0,
0,
3,
3,
5,
5,
3,
3,
7,
7,
10,
10,
8,
8,
5,
5,
3,
3,
5,
5,
3,
3,
0,
0,
3,
3,
4,
4,
1,
1,
0,
0,
2,
2,
9,
9,
18,
18,
13,
0,
4,
4,
12,
12,
13,
13,
11,
11,
19,
19,
25,
25,
22,
10,
11,
11,
13,
38,
38,
38,
34,
6,
7,
7,
1,
1,
2,
2,
11,
11,
15,
3,
4,
4,
10,
10,
17,
17,
19,
19,
17,
17,
14,
0,
3,
3,
8,
8,
5,
16,
16,
28,
28,
28,
24,
9,
9,
9,
1,
1,
9,
9,
9,
9,
9,
9,
5,
5,
0,
0,
0,
0,
5,
5,
11,
11,
8,
8,
3,
3,
-1,
-1,
3,
3,
10,
10,
14,
14,
9,
9,
2,
2,
1,
1,
5,
5,
7,
7,
10,
10,
11,
11,
2,
2,
1,
1,
6,
6,
11,
11,
6,
6,
0,
0,
-1,
-1,
3,
3,
8,
8,
10,
10,
8,
8,
4,
4,
1,
1,
0,
0,
1,
1,
2,
2,
3,
3,
9,
9,
11,
11,
4,
4,
6,
6,
3,
3,
3,
3,
-1,
-1,
2,
2,
1,
1,
2,
2,
2,
2,
0,
0,
3,
3,
4,
4,
2,
2,
2,
2,
0,
0,
3,
3,
0,
0,
8,
8,
3,
3,
4,
4,
1,
1,
6,
6,
9,
9,
1,
16,
16,
16,
24,
24,
25,
25,
16,
0,
2,
14,
14,
14,
18,
5,
5,
5,
1,
1,
1,
1,
0,
0,
2,
2,
0,
0,
1,
1,
3,
3,
9,
9,
7,
7,
2,
2,
-1,
-1,
-1,
-1,
0,
0,
1,
1,
6,
6,
10,
10,
11,
11,
10,
10,
7,
7,
7,
7,
9,
9,
8,
8,
3,
3,
3,
3,
1,
1,
5,
5,
5,
5,
6,
6,
13,
13,
12,
12,
6,
6,
0,
0,
0,
0,
5,
5,
5,
5,
5,
5,
5,
5,
2,
2,
1,
1,
5,
5,
7,
7,
4,
4,
-1,
-1,
0,
0,
2,
2,
4,
4,
1,
1,
2,
2,
3,
3,
2,
2,
2,
2,
-1,
-1,
1,
1,
5,
5,
8,
8,
11,
11,
5,
5,
4,
4,
5,
5,
3,
3,
2,
2,
0,
0,
1,
1,
0,
0,
4,
4,
3,
3,
5,
5,
1,
1,
2,
2,
6,
6,
7,
7,
10,
10,
13,
13,
9,
9,
1,
1,
7,
7,
3,
3,
3,
3,
0,
0,
3,
3,
2,
2,
2,
2,
11,
11,
10,
10,
7,
7,
1,
1,
0,
0,
1,
1,
1,
1,
6,
6,
6,
6,
6,
6,
6,
6,
8,
8,
16,
16,
18,
2,
3,
3,
13,
13,
14,
14,
13,
26,
25,
42,
42,
30,
31,
10,
10,
10,
4,
18,
16,
16,
15,
15,
8,
8,
7,
7,
11,
11,
9,
9,
14,
14,
18,
18,
20,
20,
14,
0,
1,
1,
8,
8,
16,
16,
18,
18,
14,
14,
7,
7,
8,
8,
9,
9,
2,
2,
5,
5,
8,
8,
8,
8,
6,
6,
8,
8,
6,
21,
20,
20,
19,
19,
13,
2,
2,
2,
2,
2,
2,
2,
6,
6,
9,
9,
15,
15,
17,
17,
14,
14,
4,
4,
1,
1,
6,
6,
11,
11,
15,
15,
9,
9,
4,
4,
5,
5,
10,
10,
6,
6,
8,
8,
0,
11,
11,
11,
13,
2,
4,
4,
5,
5,
-1,
-1,
2,
2,
6,
6,
15,
33,
32,
32,
35,
24,
24,
6,
6,
6,
16,
16,
22,
22,
25,
25,
21,
21,
15,
15,
10,
10,
5,
5,
0,
0,
4,
4,
8,
8,
12,
12,
18,
18,
22,
8,
8,
8,
3,
3,
11,
11,
7,
7,
0,
0,
6,
6,
9,
9,
14,
14,
11,
11,
7,
7,
6,
6,
5,
5,
5,
5,
3,
24,
23,
23,
29,
29,
21,
21,
14,
1,
2,
22,
21,
36,
35,
16,
16,
3,
9,
9,
6,
6,
0,
0,
1,
1,
5,
5,
11,
11,
14,
14,
6,
6,
13,
13,
12,
12,
19,
19,
25,
5,
6,
6,
2,
2,
3,
3,
1,
1,
1,
1,
10,
10,
14,
14,
11,
11,
7,
7,
7,
7,
0,
0,
0,
0,
5,
5,
5,
5,
10,
10,
7,
7,
0,
0,
4,
4,
4,
4,
1,
1,
-1,
-1,
0,
0,
1,
1,
2,
2,
1,
1,
6,
6,
6,
6,
7,
7,
5,
5,
1,
1,
3,
3,
3,
3,
0,
0,
1,
1,
4,
4,
5,
5,
0,
0,
5,
5,
7,
7,
9,
9,
6,
6,
3,
3,
0,
0,
7,
7,
8,
8,
5,
5,
4,
4,
7,
7,
7,
7,
0,
0,
1,
1,
-1,
-1,
1,
1,
4,
4,
6,
6,
6,
6,
2,
2,
6,
17,
16,
16,
24,
24,
21,
21,
11,
-1,
2,
2,
5,
5,
10,
10,
16,
16,
15,
15,
10,
10,
1,
1,
4,
4,
6,
6,
0,
0,
-1,
-1,
-1,
-1,
0,
0,
7,
7,
4,
4,
9,
9,
7,
7,
7,
7,
7,
7,
6,
6,
0,
0,
3,
3,
4,
4,
3,
3,
2,
2,
0,
0,
0,
0,
1,
1,
1,
1,
-1,
-1,
2,
2,
2,
2,
8,
8,
8,
8,
7,
7,
3,
3,
0,
0,
3,
3,
9,
9,
10,
10,
6,
6,
2,
2,
1,
1,
6,
6,
11,
11,
10,
10,
8,
8,
10,
10,
14,
14,
6,
6,
5,
18,
18,
18,
20,
20,
12,
12,
6,
6,
4,
4,
2,
14,
14,
14,
16,
16,
9,
9,
2,
2,
2,
2,
-1,
-1,
-1,
-1,
-1,
-1,
2,
2,
4,
4,
1,
1,
4,
4,
-1,
-1,
0,
0,
5,
5,
3,
3,
6,
6,
3,
3,
1,
1,
6,
6,
12,
12,
8,
8,
0,
0,
-1,
-1,
3,
3,
0,
0,
0,
0,
1,
1,
4,
4,
3,
3,
8,
8,
15,
15,
13,
13,
10,
10,
6,
6,
0,
0,
-1,
14,
13,
24,
24,
24,
21,
21,
12,
12,
10,
10,
8,
8,
3,
3,
-1,
-1,
3,
3,
0,
0,
0,
0,
2,
2,
9,
26,
26,
40,
39,
39,
40,
27,
27,
10,
11,
0,
3,
15,
15,
15,
16,
16,
17,
17,
14,
14,
10,
10,
8,
8,
9,
9,
7,
7,
6,
6,
11,
11,
16,
16,
11,
-1,
1,
16,
16,
43,
43,
60,
60,
48,
48,
23,
24,
6,
6,
6,
16,
16,
25,
25,
23,
23,
19,
19,
22,
22,
18,
18,
13,
13,
8,
8,
3,
3,
0,
0,
0,
0,
7,
7,
9,
9,
8,
8,
14,
14,
13,
13,
14,
14,
15,
15,
9,
9,
-1,
-1,
7,
7,
9,
9,
8,
8,
6,
6,
3,
16,
15,
15,
18,
18,
10,
10,
0,
0,
7,
18,
17,
17,
19,
6,
6,
6,
8,
8,
8,
8,
6,
6,
8,
8,
6,
6,
6,
6,
10,
10,
6,
6,
4,
4,
12,
12,
15,
15,
14,
14,
14,
14,
4,
4,
3,
3,
11,
27,
27,
27,
27,
10,
11,
0,
5,
5,
5,
5,
-1,
-1,
1,
1,
4,
4,
3,
3,
4,
4,
6,
6,
3,
3,
0,
0,
4,
4,
2,
2,
1,
1,
-1,
-1,
0,
0,
3,
3,
6,
6,
8,
8,
7,
7,
6,
6,
6,
6,
2,
2,
1,
1,
0,
0,
0,
0,
2,
2,
3,
3,
0,
0,
4,
4,
4,
4,
1,
1,
-1,
-1,
4,
4,
3,
3,
2,
2,
0,
0,
6,
6,
5,
5,
0,
0,
6,
6,
3,
3,
4,
4,
6,
6,
0,
0,
2,
2,
6,
6,
8,
8,
7,
7,
4,
4,
4,
4,
2,
2,
-1,
-1,
0,
0,
5,
5,
5,
5,
4,
4,
2,
2,
4,
4,
0,
0,
4,
4,
0,
0,
7,
7,
1,
1,
3,
3,
8,
23,
22,
22,
13,
-1,
1,
1,
0,
0,
2,
2,
2,
2,
6,
6,
3,
3,
4,
4,
8,
8,
15,
15,
18,
18,
23,
23,
17,
2,
6,
6,
14,
27,
27,
47,
47,
47,
54,
43,
43,
31,
32,
9,
9,
9,
10,
10,
17,
17,
26,
26,
34,
34,
40,
40,
39,
39,
30,
13,
13,
1,
1,
1,
1,
1,
2,
2,
4,
4,
6,
19,
18,
30,
30,
30,
29,
29,
25,
25,
23,
12,
12,
12,
3,
3,
4,
4,
10,
10,
13,
13,
10,
10,
5,
5,
-1,
-1,
2,
2,
3,
3,
6,
6,
2,
2,
7,
7,
13,
13,
10,
-1,
14,
14,
14,
14,
20,
20,
13,
13,
4,
4,
0,
0,
1,
1,
4,
4,
4,
4,
0,
0,
9,
9,
18,
18,
23,
23,
17,
17,
7,
7,
2,
14,
13,
13,
17,
17,
15,
15,
13,
13,
16,
16,
17,
4,
4,
4,
4,
4,
0,
0,
-1,
-1,
3,
3,
5,
5,
5,
5,
5,
5,
10,
10,
4,
4,
0,
0,
4,
4,
3,
16,
15,
15,
17,
17,
12,
0,
0,
0,
1,
1,
2,
2,
2,
2,
2,
2,
6,
19,
19,
19,
23,
23,
24,
24,
26,
26,
32,
32,
35,
15,
15,
4,
18,
37,
37,
37,
36,
36,
27,
27,
18,
18,
14,
14,
18,
18,
15,
1,
3,
19,
18,
18,
18,
18,
14,
14,
13,
2,
3,
3,
4,
4,
2,
2,
6,
6,
13,
13,
18,
18,
18,
18,
12,
12,
10,
10,
2,
2,
7,
7,
17,
6,
6,
6,
9,
9,
18,
18,
19,
4,
5,
16,
15,
29,
28,
28,
28,
28,
26,
26,
25,
14,
15,
1,
1,
1,
4,
4,
9,
9,
12,
12,
10,
10,
14,
14,
22,
22,
23,
11,
12,
12,
9,
9,
6,
6,
6,
6,
5,
5,
0,
0,
3,
18,
17,
17,
21,
4,
5,
5,
4,
23,
22,
11,
11,
11,
20,
33,
33,
33,
32,
32,
25,
25,
19,
19,
12,
12,
4,
4,
6,
6,
14,
14,
8,
8,
6,
6,
5,
5,
10,
10,
10,
10,
7,
7,
11,
11,
15,
15,
14,
14,
6,
6,
0,
0,
9,
9,
15,
15,
12,
1,
2,
2,
4,
4,
11,
11,
18,
18,
13,
13,
6,
6,
0,
0,
5,
5,
11,
11,
15,
15,
15,
15,
9,
9,
7,
7,
4,
4,
4,
4,
5,
5,
0,
0,
8,
8,
8,
8,
10,
10,
15,
15,
15,
15,
11,
11,
8,
8,
2,
2,
9,
9,
0,
0,
-1,
10,
10,
10,
14,
2,
5,
20,
19,
4,
5,
5,
9,
9,
9,
9,
6,
6,
1,
1,
2,
2,
3,
3,
0,
0,
4,
4,
9,
9,
12,
1,
2,
2,
8,
8,
13,
13,
6,
6,
3,
18,
17,
17,
18,
18,
10,
-1,
0,
0,
7,
7,
11,
11,
15,
15,
10,
10,
7,
7,
4,
4,
5,
26,
24,
24,
32,
32,
27,
27,
27,
27,
22,
2,
3,
18,
18,
31,
30,
30,
31,
31,
32,
18,
19,
4,
4,
4,
6,
6,
1,
12,
12,
12,
15,
15,
12,
12,
10,
10,
9,
9,
10,
10,
6,
6,
6,
6,
6,
6,
10,
32,
31,
31,
25,
8,
9,
9,
3,
22,
20,
33,
32,
32,
27,
12,
12,
-1,
1,
1,
6,
22,
21,
21,
22,
1,
2,
15,
14,
14,
18,
18,
14,
14,
13,
25,
24,
24,
31,
16,
17,
2,
2,
2,
7,
7,
11,
11,
2,
2,
5,
5,
10,
10,
7,
7,
0,
0,
5,
5,
2,
2,
-1,
-1,
2,
2,
1,
1,
6,
6,
10,
-1,
1,
1,
6,
6,
6,
6,
5,
5,
2,
2,
11,
11,
4,
4,
-1,
-1,
4,
4,
2,
2,
-1,
-1,
-1,
-1,
3,
3,
6,
6,
8,
8,
7,
7,
0,
0,
3,
3,
2,
2,
3,
3,
3,
3,
1,
1,
0,
0,
1,
1,
2,
2,
0,
0,
-1,
-1,
2,
2,
1,
1,
3,
3,
1,
1,
9,
9,
12,
12,
14,
14,
13,
0,
2,
2,
6,
6,
5,
5,
6,
6,
0,
0,
-1,
-1,
7,
18,
17,
17,
14,
14,
9,
9,
5,
5,
5,
5,
10,
47,
46,
63,
61,
41,
41,
3,
4,
19,
19,
19,
28,
28,
24,
24,
10,
10,
10,
10,
6,
6,
10,
10,
1,
1,
5,
5,
3,
17,
16,
32,
32,
14,
14,
14,
18,
34,
33,
33,
25,
25,
18,
18,
13,
13,
8,
8,
1,
12,
11,
11,
8,
8,
6,
6,
9,
9,
12,
12,
17,
17,
21,
21,
18,
18,
20,
20,
23,
23,
14,
-1,
0,
0,
-1,
-1,
2,
2,
7,
7,
4,
26,
26,
26,
34,
34,
32,
32,
31,
16,
16,
0,
2,
2,
6,
6,
0,
0,
0,
0,
8,
8,
16,
16,
12,
12,
8,
8,
9,
9,
13,
28,
27,
27,
30,
17,
18,
0,
0,
0,
8,
8,
13,
13,
13,
13,
13,
13,
10,
10,
12,
12,
14,
14,
6,
6,
2,
2,
9,
9,
10,
10,
6,
6,
8,
8,
11,
11,
8,
8,
0,
0,
4,
4,
5,
5,
4,
4,
3,
3,
0,
0,
1,
1,
1,
1,
4,
4,
5,
5,
2,
2,
2,
2,
0,
0,
-1,
-1,
2,
2,
3,
3,
-1,
-1,
2,
2,
0,
0,
-1,
17,
16,
16,
24,
13,
14,
14,
8,
8,
7,
7,
1,
1,
6,
17,
16,
16,
20,
20,
10,
10,
2,
2,
7,
7,
1,
1,
-1,
-1,
2,
2,
2,
2,
1,
1,
4,
4,
12,
12,
11,
11,
9,
9,
9,
9,
6,
6,
0,
0,
1,
1,
8,
8,
8,
8,
5,
22,
22,
22,
28,
28,
27,
10,
10,
10,
13,
24,
23,
23,
18,
18,
8,
8,
5,
5,
4,
4,
6,
6,
12,
12,
14,
14,
13,
0,
2,
22,
22,
38,
37,
37,
30,
11,
11,
0,
6,
23,
22,
33,
32,
32,
27,
27,
19,
19,
23,
23,
18,
2,
5,
16,
16,
16,
13,
13,
6,
6,
3,
3,
2,
15,
14,
14,
11,
11,
7,
18,
18,
18,
20,
20,
13,
13,
6,
6,
0,
0,
4,
4,
7,
7,
5,
5,
6,
6,
8,
8,
9,
9,
7,
7,
8,
8,
7,
7,
2,
2,
4,
4,
2,
2,
1,
1,
0,
0,
0,
0,
-1,
-1,
0,
0,
0,
0,
2,
2,
2,
2,
4,
4,
1,
1,
2,
2,
6,
6,
7,
7,
6,
22,
22,
22,
19,
3,
3,
3,
8,
8,
3,
3,
4,
4,
9,
9,
6,
6,
1,
1,
6,
6,
8,
8,
6,
6,
4,
4,
2,
2,
-1,
-1,
2,
2,
3,
3,
1,
1,
0,
0,
2,
2,
3,
3,
5,
5,
2,
2,
0,
0,
2,
2,
1,
1,
5,
5,
4,
4,
3,
3,
8,
8,
15,
15,
9,
9,
2,
2,
2,
2,
2,
2,
0,
0,
6,
6,
5,
5,
1,
1,
8,
8,
9,
9,
10,
10,
10,
10,
7,
7,
2,
2,
-1,
-1,
2,
2,
11,
11,
14,
14,
14,
14,
9,
9,
0,
0,
5,
5,
4,
4,
2,
2,
3,
3,
5,
5,
6,
6,
1,
1,
-1,
-1,
2,
2,
7,
7,
10,
10,
12,
24,
23,
23,
28,
15,
16,
0,
1,
1,
7,
7,
6,
17,
16,
29,
28,
28,
30,
30,
20,
20,
11,
11,
4,
4,
0,
0,
4,
4,
9,
9,
11,
11,
12,
12,
13,
13,
14,
14,
12,
12,
8,
8,
6,
6,
4,
4,
0,
0,
0,
0,
2,
2,
0,
0,
3,
3,
2,
2,
7,
7,
7,
7,
0,
0,
9,
9,
16,
16,
13,
0,
2,
16,
15,
15,
21,
21,
12,
12,
3,
3,
12,
12,
16,
16,
9,
9,
-1,
-1,
6,
6,
9,
9,
4,
4,
10,
10,
11,
11,
11,
11,
19,
6,
7,
7,
9,
9,
1,
1,
6,
24,
24,
24,
18,
18,
10,
10,
12,
12,
7,
7,
7,
7,
14,
14,
12,
12,
6,
6,
0,
0,
-1,
-1,
-1,
-1,
0,
0,
6,
6,
1,
1,
1,
1,
4,
4,
3,
3,
0,
0,
3,
3,
1,
1,
3,
3,
1,
1,
0,
0,
1,
1,
-1,
-1,
2,
2,
2,
2,
0,
0,
0,
0,
-1,
-1,
3,
3,
5,
5,
5,
5,
0,
0,
-1,
-1,
6,
6,
4,
4,
3,
3,
2,
2,
0,
0,
3,
3,
2,
2,
0,
0,
4,
4,
6,
6,
1,
1,
3,
3,
0,
0,
2,
2,
2,
2,
6,
6,
6,
6,
10,
33,
32,
32,
35,
13,
13,
0,
4,
4,
12,
12,
14,
14,
15,
15,
12,
12,
9,
9,
14,
2,
2,
18,
16,
16,
22,
22,
17,
6,
7,
19,
19,
19,
24,
8,
8,
8,
5,
17,
16,
16,
22,
22,
16,
16,
10,
10,
16,
16,
14,
14,
6,
6,
4,
4,
-1,
12,
11,
26,
25,
25,
31,
31,
24,
2,
3,
17,
16,
16,
13,
1,
8,
27,
26,
26,
23,
8,
8,
8,
1,
1,
6,
18,
18,
18,
24,
13,
14,
0,
1,
1,
1,
1,
5,
5,
7,
7,
15,
15,
9,
9,
10,
10,
8,
8,
0,
0,
5,
5,
6,
6,
3,
3,
1,
1,
3,
3,
5,
5,
5,
5,
1,
1,
6,
6,
0,
0,
6,
17,
16,
16,
15,
15,
12,
12,
12,
12,
7,
7,
3,
3,
3,
3,
9,
9,
11,
11,
14,
14,
10,
10,
4,
4,
0,
0,
-1,
-1,
0,
0,
-1,
-1,
0,
0,
6,
6,
5,
5,
2,
2,
0,
0,
3,
3,
6,
6,
5,
5,
3,
3,
1,
1,
-1,
-1,
0,
0,
0,
0,
4,
4,
1,
1,
-1,
-1,
0,
0,
-1,
-1,
4,
16,
15,
15,
14,
14,
8,
8,
14,
14,
19,
19,
20,
8,
9,
9,
7,
31,
31,
31,
37,
37,
28,
9,
9,
9,
0,
0,
4,
4,
2,
2,
6,
6,
10,
10,
6,
6,
5,
5,
8,
8,
0,
0,
1,
1,
9,
9,
17,
17,
22,
11,
12,
12,
2,
2,
-1,
-1,
4,
4,
0,
0,
0,
0,
5,
5,
8,
8,
14,
14,
8,
8,
4,
4,
7,
7,
0,
13,
13,
13,
16,
5,
5,
5,
7,
22,
20,
36,
35,
35,
40,
20,
21,
2,
3,
3,
11,
24,
23,
23,
19,
19,
15,
15,
7,
7,
16,
16,
19,
19,
9,
9,
4,
4,
4,
4,
10,
10,
13,
13,
13,
13,
13,
13,
12,
12,
3,
3,
2,
2,
4,
4,
6,
6,
9,
9,
10,
10,
9,
9,
12,
12,
9,
9,
11,
11,
14,
14,
19,
19,
15,
15,
7,
7,
0,
0,
5,
5,
6,
6,
12,
12,
15,
15,
7,
7,
7,
7,
7,
7,
7,
7,
4,
4,
0,
0,
5,
5,
10,
10,
10,
10,
5,
5,
6,
6,
8,
8,
8,
8,
2,
2,
3,
3,
7,
7,
1,
1,
4,
4,
12,
12,
15,
15,
9,
9,
4,
4,
13,
13,
15,
15,
13,
13,
7,
7,
4,
4,
-1,
-1,
1,
1,
0,
0,
0,
0,
0,
0,
2,
2,
7,
7,
14,
14,
17,
17,
17,
17,
16,
16,
18,
18,
17,
6,
6,
6,
8,
19,
19,
19,
22,
22,
16,
16,
9,
9,
3,
3,
2,
2,
3,
3,
3,
3,
6,
6,
0,
0,
3,
3,
-1,
-1,
1,
1,
9,
9,
14,
14,
20,
20,
16,
16,
16,
16,
24,
24,
22,
2,
2,
15,
15,
15,
22,
22,
16,
16,
13,
13,
16,
5,
5,
5,
1,
1,
2,
2,
8,
8,
13,
13,
21,
21,
11,
11,
8,
20,
19,
37,
36,
36,
41,
41,
36,
36,
28,
15,
16,
1,
2,
18,
17,
33,
32,
32,
23,
11,
12,
12,
7,
7,
6,
6,
8,
8,
13,
13,
22,
22,
16,
2,
4,
20,
19,
19,
22,
8,
8,
8,
0,
0,
3,
3,
11,
11,
9,
9,
0,
0,
2,
2,
5,
5,
10,
10,
13,
13,
10,
10,
19,
19,
17,
3,
3,
3,
2,
2,
4,
4,
11,
11,
8,
8,
1,
1,
2,
2,
0,
0,
-1,
-1,
1,
1,
3,
3,
5,
5,
0,
0,
6,
6,
6,
6,
4,
4,
-1,
-1,
6,
6,
13,
13,
19,
19,
16,
16,
12,
12,
7,
7,
4,
4,
6,
6,
3,
3,
11,
11,
15,
15,
10,
10,
4,
4,
-1,
-1,
-2,
-2,
1,
1,
-1,
-1,
-2,
-2,
3,
3,
5,
5,
6,
6,
7,
7,
5,
5,
7,
7,
14,
14,
8,
8,
2,
2,
2,
2,
-1,
-1,
4,
4,
11,
11,
13,
13,
6,
6,
3,
14,
14,
26,
26,
26,
25,
6,
8,
8,
7,
7,
8,
8,
10,
10,
10,
10,
7,
7,
4,
4,
6,
6,
4,
4,
1,
1,
2,
2,
4,
4,
6,
6,
3,
3,
5,
5,
7,
7,
16,
16,
26,
26,
30,
30,
31,
19,
20,
1,
3,
3,
11,
11,
16,
16,
20,
20,
23,
23,
20,
20,
13,
1,
2,
2,
7,
7,
11,
11,
14,
14,
11,
11,
3,
3,
0,
0,
3,
3,
0,
0,
2,
2,
4,
4,
3,
3,
3,
3,
7,
7,
0,
0,
1,
1,
0,
0,
9,
9,
6,
6,
6,
6,
11,
11,
6,
6,
10,
10,
7,
7,
4,
4,
13,
13,
9,
9,
8,
22,
22,
22,
24,
13,
14,
0,
2,
15,
14,
14,
21,
21,
25,
25,
22,
11,
12,
-1,
0,
0,
5,
5,
14,
14,
22,
22,
23,
8,
8,
8,
2,
2,
3,
3,
5,
5,
-1,
-1,
1,
1,
3,
3,
7,
7,
0,
0,
4,
4,
2,
2,
4,
4,
8,
8,
10,
10,
11,
11,
6,
6,
1,
1,
8,
8,
9,
9,
7,
7,
0,
0,
0,
0,
0,
0,
-1,
-1,
2,
2,
0,
0,
0,
0,
6,
6,
1,
1,
10,
10,
16,
16,
22,
22,
22,
10,
10,
10,
3,
3,
2,
2,
6,
6,
5,
5,
11,
11,
14,
14,
15,
15,
14,
14,
8,
8,
3,
3,
-1,
-1,
1,
1,
5,
5,
8,
8,
11,
11,
12,
12,
8,
8,
6,
6,
6,
6,
6,
6,
6,
6,
1,
1,
2,
2,
1,
1,
-1,
-1,
4,
4,
10,
10,
10,
10,
8,
8,
14,
3,
3,
15,
14,
14,
23,
23,
24,
24,
23,
23,
27,
16,
16,
2,
7,
24,
23,
23,
28,
28,
22,
5,
6,
6,
3,
3,
11,
11,
9,
9,
3,
3,
0,
0,
1,
1,
2,
2,
5,
5,
12,
12,
19,
19,
14,
14,
5,
5,
3,
3,
4,
4,
6,
6,
2,
2,
0,
0,
0,
0,
0,
0,
-1,
-1,
0,
0,
5,
5,
7,
7,
0,
11,
10,
10,
12,
12,
5,
5,
2,
2,
-1,
-1,
3,
3,
8,
8,
8,
8,
7,
7,
1,
1,
-1,
-1,
5,
5,
5,
5,
0,
0,
6,
6,
3,
3,
2,
2,
1,
1,
2,
2,
0,
0,
2,
2,
3,
3,
6,
6,
8,
8,
14,
14,
14,
14,
6,
6,
0,
0,
9,
9,
13,
13,
9,
9,
6,
6,
8,
8,
0,
0,
0,
0,
-1,
-1,
4,
4,
9,
21,
20,
20,
14,
14,
7,
7,
2,
2,
3,
3,
