EMG_S1/DS0170.CSV

Memory Length,4000,
Trigger Level,0.00000e+00,
Source,CH1,
Probe,1.0X,
Vertical Units,V,
Vertical Scale,1.00000e+00,
Vertical Position,4.00000e-02,
Horizontal Units,S,
Horizontal Scale,1.00000e-01,
Horizontal Position,0.0000000e+00,
Horizontal Mode,Roll Mode,
Waveform Last Dot Address,4000,
Sampling Period,4.00000e-04,
Firmware,V1.14,
Time, ,
Mode,Fast,
Waveform Data,
-1,
-1,
0,
0,
0,
0,
5,
5,
8,
8,
7,
7,
10,
10,
8,
8,
2,
2,
3,
3,
6,
6,
9,
9,
8,
8,
6,
6,
2,
2,
0,
0,
7,
7,
12,
1,
2,
18,
17,
17,
11,
11,
5,
5,
15,
15,
24,
24,
23,
23,
24,
6,
6,
6,
0,
0,
0,
14,
13,
27,
26,
26,
25,
25,
22,
22,
17,
5,
5,
5,
-1,
-1,
-1,
-1,
3,
3,
3,
14,
13,
13,
15,
27,
26,
26,
26,
12,
12,
1,
1,
1,
7,
7,
10,
-1,
0,
0,
5,
5,
12,
12,
15,
15,
15,
15,
7,
7,
3,
3,
3,
3,
7,
7,
2,
2,
0,
0,
0,
0,
4,
4,
10,
10,
3,
14,
14,
26,
24,
24,
19,
7,
8,
8,
5,
5,
1,
1,
10,
10,
8,
8,
3,
3,
11,
11,
7,
7,
5,
5,
5,
5,
6,
6,
11,
11,
11,
11,
4,
4,
1,
1,
6,
6,
7,
7,
1,
1,
7,
7,
14,
14,
5,
5,
0,
0,
0,
0,
0,
0,
5,
21,
20,
20,
18,
2,
2,
2,
0,
0,
3,
3,
5,
5,
1,
1,
2,
2,
4,
15,
14,
14,
17,
17,
12,
12,
10,
10,
7,
7,
1,
1,
5,
5,
0,
0,
4,
4,
2,
2,
0,
20,
19,
32,
30,
15,
16,
-1,
0,
0,
3,
3,
8,
8,
5,
5,
7,
7,
10,
10,
4,
4,
7,
18,
16,
16,
15,
15,
8,
8,
7,
7,
7,
7,
5,
5,
0,
0,
1,
1,
0,
0,
3,
3,
6,
6,
2,
2,
4,
4,
5,
5,
4,
4,
4,
4,
0,
0,
3,
3,
1,
14,
12,
12,
14,
14,
18,
18,
14,
0,
1,
12,
11,
11,
13,
13,
4,
4,
4,
16,
15,
15,
13,
13,
16,
16,
19,
7,
7,
7,
2,
2,
8,
8,
10,
10,
7,
7,
6,
6,
3,
3,
6,
6,
8,
8,
6,
6,
0,
0,
0,
15,
15,
15,
24,
24,
26,
26,
24,
24,
31,
31,
24,
3,
3,
19,
19,
19,
23,
23,
22,
22,
24,
24,
21,
21,
15,
15,
10,
10,
6,
6,
0,
0,
5,
5,
1,
1,
3,
3,
8,
8,
9,
9,
19,
45,
44,
44,
54,
35,
35,
4,
5,
5,
8,
8,
0,
0,
2,
16,
16,
16,
22,
22,
20,
20,
12,
12,
2,
2,
2,
2,
1,
1,
2,
2,
1,
1,
2,
2,
1,
1,
4,
4,
8,
8,
7,
7,
5,
5,
6,
6,
5,
5,
0,
0,
0,
0,
0,
15,
14,
14,
19,
5,
5,
5,
2,
2,
4,
4,
11,
11,
8,
8,
13,
13,
10,
10,
14,
14,
17,
5,
22,
45,
44,
44,
35,
18,
18,
5,
6,
6,
8,
19,
19,
19,
27,
27,
23,
23,
15,
1,
2,
2,
10,
10,
14,
2,
2,
2,
-1,
-1,
0,
0,
3,
3,
0,
0,
1,
1,
3,
3,
11,
26,
26,
26,
23,
23,
15,
0,
2,
2,
8,
8,
2,
2,
4,
4,
3,
3,
5,
5,
0,
0,
9,
9,
11,
11,
10,
10,
15,
15,
8,
8,
4,
4,
6,
19,
18,
18,
13,
13,
10,
10,
8,
8,
8,
8,
4,
4,
3,
3,
1,
1,
7,
7,
15,
15,
18,
6,
8,
8,
3,
25,
24,
36,
35,
12,
13,
2,
8,
8,
15,
15,
11,
11,
2,
2,
5,
5,
10,
10,
1,
1,
11,
11,
14,
14,
9,
9,
0,
0,
-1,
-1,
3,
3,
1,
1,
2,
2,
3,
14,
13,
0,
1,
1,
7,
7,
7,
7,
10,
10,
9,
9,
4,
4,
-1,
-1,
0,
0,
10,
10,
5,
5,
7,
7,
0,
12,
11,
11,
19,
19,
20,
20,
16,
2,
2,
2,
3,
3,
3,
3,
2,
2,
5,
5,
7,
7,
9,
9,
3,
3,
5,
5,
10,
10,
7,
7,
11,
11,
15,
15,
9,
9,
7,
7,
2,
2,
12,
32,
32,
32,
31,
7,
7,
7,
13,
13,
10,
10,
4,
4,
7,
7,
11,
11,
10,
10,
2,
2,
3,
3,
3,
3,
6,
6,
8,
8,
0,
0,
5,
5,
2,
2,
9,
27,
26,
37,
34,
7,
7,
7,
5,
5,
5,
5,
5,
5,
8,
19,
18,
18,
20,
20,
19,
19,
19,
8,
8,
8,
1,
1,
0,
0,
-1,
-1,
7,
7,
6,
6,
14,
33,
32,
21,
21,
2,
2,
2,
1,
1,
2,
2,
3,
3,
1,
1,
4,
4,
7,
7,
0,
0,
4,
4,
9,
9,
13,
13,
6,
6,
3,
3,
3,
16,
15,
15,
16,
16,
9,
9,
7,
7,
4,
4,
0,
0,
2,
2,
0,
0,
4,
4,
5,
5,
3,
3,
2,
2,
-1,
-1,
7,
7,
7,
7,
2,
2,
6,
6,
15,
15,
16,
3,
4,
4,
10,
10,
16,
1,
2,
14,
14,
14,
7,
7,
5,
5,
11,
26,
26,
26,
23,
2,
2,
2,
11,
0,
3,
3,
9,
9,
2,
18,
18,
18,
18,
18,
15,
15,
11,
0,
5,
5,
10,
10,
11,
11,
3,
3,
4,
4,
6,
6,
5,
5,
2,
2,
1,
1,
4,
4,
8,
8,
8,
8,
8,
8,
4,
4,
3,
3,
7,
7,
0,
11,
10,
10,
18,
18,
15,
2,
6,
48,
48,
61,
58,
32,
32,
3,
6,
26,
26,
26,
30,
16,
18,
7,
7,
7,
10,
10,
9,
9,
10,
10,
2,
2,
3,
3,
8,
8,
8,
8,
2,
2,
1,
1,
6,
6,
0,
0,
0,
18,
17,
17,
23,
23,
19,
19,
12,
12,
11,
11,
8,
8,
6,
6,
11,
11,
19,
3,
4,
22,
22,
22,
16,
4,
19,
31,
24,
5,
16,
39,
38,
20,
21,
3,
9,
9,
18,
18,
18,
18,
20,
20,
13,
13,
6,
6,
3,
3,
1,
1,
3,
3,
-1,
-1,
-1,
-1,
2,
2,
0,
17,
17,
32,
32,
32,
29,
14,
15,
15,
7,
7,
0,
0,
6,
6,
3,
3,
10,
10,
3,
3,
10,
29,
29,
29,
27,
3,
4,
4,
7,
7,
9,
20,
19,
35,
33,
4,
5,
5,
10,
10,
6,
6,
4,
4,
12,
12,
4,
4,
8,
23,
23,
23,
31,
31,
29,
8,
9,
44,
44,
66,
66,
50,
50,
13,
13,
2,
12,
12,
18,
5,
6,
6,
0,
16,
16,
29,
28,
28,
19,
3,
3,
3,
5,
5,
0,
0,
10,
10,
16,
4,
4,
17,
16,
16,
15,
1,
4,
4,
2,
17,
16,
16,
20,
20,
22,
3,
3,
19,
18,
18,
26,
7,
7,
29,
29,
44,
42,
12,
12,
12,
16,
16,
22,
22,
29,
29,
25,
4,
13,
47,
47,
32,
32,
3,
3,
16,
16,
16,
23,
23,
32,
32,
26,
4,
6,
22,
22,
22,
19,
19,
22,
35,
33,
11,
12,
-2,
-1,
-1,
0,
0,
8,
8,
11,
11,
14,
14,
12,
12,
12,
12,
13,
0,
1,
1,
8,
8,
9,
9,
6,
6,
6,
6,
3,
3,
2,
2,
0,
0,
0,
0,
5,
5,
5,
5,
9,
9,
17,
30,
28,
14,
15,
2,
3,
3,
1,
1,
6,
6,
7,
7,
2,
2,
-1,
26,
26,
45,
44,
44,
43,
21,
8,
45,
44,
66,
65,
65,
66,
13,
14,
28,
27,
27,
34,
34,
34,
34,
31,
20,
21,
3,
3,
3,
6,
6,
3,
3,
6,
6,
10,
10,
2,
14,
14,
14,
22,
34,
34,
19,
19,
3,
4,
20,
20,
20,
20,
2,
3,
21,
19,
19,
20,
20,
19,
19,
22,
10,
10,
10,
16,
16,
12,
12,
7,
22,
22,
22,
17,
2,
6,
6,
9,
9,
3,
3,
0,
14,
14,
14,
6,
6,
2,
2,
7,
7,
3,
3,
0,
0,
0,
0,
0,
15,
15,
2,
6,
21,
21,
32,
32,
49,
49,
38,
38,
16,
17,
1,
3,
20,
20,
39,
39,
50,
49,
33,
33,
33,
28,
8,
8,
58,
57,
57,
51,
24,
24,
0,
2,
2,
5,
5,
8,
8,
3,
3,
0,
0,
0,
0,
9,
9,
10,
10,
12,
12,
19,
19,
10,
-1,
2,
2,
7,
7,
7,
7,
9,
9,
11,
11,
7,
7,
3,
3,
5,
5,
10,
10,
2,
2,
11,
11,
4,
4,
6,
6,
13,
13,
14,
14,
11,
11,
10,
10,
5,
5,
1,
1,
8,
8,
11,
11,
7,
7,
9,
9,
6,
6,
1,
1,
0,
0,
0,
0,
8,
8,
0,
0,
4,
4,
3,
3,
0,
12,
11,
11,
18,
18,
10,
-1,
1,
1,
2,
15,
15,
15,
24,
11,
12,
0,
12,
46,
45,
56,
55,
40,
40,
10,
10,
10,
7,
18,
18,
32,
31,
31,
37,
37,
32,
19,
19,
19,
15,
15,
11,
11,
6,
6,
3,
14,
12,
12,
12,
-1,
0,
19,
19,
30,
29,
41,
40,
27,
27,
27,
18,
2,
3,
14,
12,
12,
9,
9,
18,
18,
20,
20,
21,
21,
23,
4,
8,
32,
31,
19,
19,
7,
8,
8,
1,
1,
3,
3,
-1,
-1,
3,
3,
0,
0,
3,
3,
1,
1,
2,
2,
0,
0,
3,
3,
2,
2,
5,
24,
24,
39,
38,
38,
29,
10,
10,
58,
57,
57,
66,
66,
67,
14,
14,
28,
28,
44,
43,
43,
48,
48,
41,
27,
28,
28,
22,
22,
15,
2,
7,
22,
22,
22,
15,
1,
4,
4,
1,
14,
14,
14,
10,
-1,
0,
0,
2,
2,
3,
14,
13,
2,
3,
3,
-1,
-1,
0,
0,
6,
6,
13,
13,
16,
16,
8,
8,
0,
0,
6,
6,
11,
11,
14,
14,
14,
14,
11,
11,
5,
5,
-1,
-1,
-1,
-1,
1,
1,
4,
4,
7,
26,
26,
47,
46,
46,
37,
21,
22,
2,
3,
3,
11,
11,
14,
14,
14,
14,
12,
12,
10,
10,
7,
7,
4,
4,
0,
0,
2,
2,
-1,
-1,
-1,
-1,
1,
1,
0,
0,
0,
0,
1,
1,
0,
0,
2,
2,
2,
18,
18,
18,
18,
3,
7,
19,
18,
2,
7,
20,
18,
18,
13,
13,
6,
6,
0,
0,
2,
2,
12,
12,
8,
8,
2,
2,
4,
4,
9,
9,
12,
12,
7,
7,
4,
4,
12,
0,
2,
2,
11,
11,
16,
16,
17,
17,
11,
11,
3,
3,
0,
0,
0,
0,
7,
22,
22,
22,
14,
14,
6,
6,
6,
6,
7,
7,
8,
8,
0,
0,
-1,
-1,
0,
0,
8,
8,
11,
26,
25,
12,
12,
12,
7,
7,
4,
4,
9,
9,
14,
14,
5,
5,
2,
2,
9,
9,
12,
12,
7,
7,
2,
2,
1,
1,
3,
3,
0,
0,
5,
5,
8,
8,
2,
2,
0,
0,
-1,
-1,
5,
5,
11,
11,
11,
11,
4,
4,
-1,
-1,
1,
1,
1,
1,
0,
0,
3,
3,
12,
24,
23,
10,
10,
10,
4,
4,
1,
1,
8,
8,
12,
12,
7,
7,
11,
11,
3,
3,
6,
6,
13,
2,
2,
19,
18,
18,
16,
3,
3,
3,
10,
23,
22,
22,
16,
0,
2,
2,
8,
8,
4,
4,
0,
0,
3,
3,
2,
2,
0,
0,
0,
0,
0,
0,
4,
4,
2,
2,
2,
2,
2,
2,
0,
0,
3,
3,
7,
7,
3,
3,
2,
2,
6,
6,
6,
6,
4,
4,
1,
16,
15,
15,
22,
4,
5,
5,
9,
9,
9,
9,
3,
3,
1,
1,
2,
2,
0,
0,
6,
6,
5,
5,
2,
2,
0,
0,
5,
5,
3,
3,
-1,
-1,
1,
1,
0,
0,
0,
0,
2,
2,
3,
3,
3,
3,
6,
6,
10,
10,
8,
8,
4,
4,
0,
0,
2,
2,
5,
5,
11,
11,
9,
9,
7,
7,
9,
9,
11,
11,
15,
15,
18,
2,
2,
2,
5,
5,
10,
10,
10,
10,
0,
11,
11,
11,
10,
10,
2,
2,
11,
11,
10,
-1,
2,
2,
8,
8,
0,
0,
-1,
-1,
4,
4,
7,
7,
2,
2,
8,
8,
4,
4,
12,
12,
21,
21,
14,
14,
14,
14,
10,
10,
6,
22,
22,
22,
25,
25,
21,
2,
5,
29,
29,
16,
18,
2,
5,
5,
10,
10,
12,
12,
13,
13,
7,
7,
6,
22,
21,
21,
16,
16,
6,
6,
0,
0,
2,
2,
8,
8,
6,
6,
7,
7,
2,
14,
14,
14,
19,
19,
17,
17,
10,
10,
11,
11,
7,
7,
1,
1,
8,
8,
14,
14,
18,
18,
14,
14,
7,
7,
3,
3,
1,
1,
6,
6,
0,
0,
3,
3,
6,
6,
0,
0,
-1,
-1,
6,
6,
10,
10,
3,
3,
5,
27,
27,
27,
33,
20,
21,
1,
3,
14,
12,
12,
12,
12,
12,
12,
13,
13,
14,
14,
16,
16,
16,
16,
12,
12,
3,
3,
-1,
-1,
0,
0,
7,
7,
11,
11,
8,
22,
22,
22,
28,
16,
18,
18,
18,
18,
11,
0,
3,
14,
14,
14,
18,
18,
8,
8,
6,
6,
8,
8,
6,
6,
1,
1,
10,
10,
7,
7,
0,
0,
2,
2,
1,
1,
1,
1,
0,
0,
1,
1,
1,
1,
0,
0,
1,
1,
-1,
11,
11,
11,
6,
22,
22,
22,
19,
19,
16,
0,
0,
0,
2,
2,
7,
7,
6,
6,
10,
10,
15,
15,
10,
10,
3,
3,
0,
0,
0,
0,
10,
10,
20,
20,
22,
2,
2,
2,
10,
37,
35,
59,
58,
39,
39,
7,
7,
7,
9,
9,
18,
18,
26,
26,
26,
26,
33,
33,
23,
3,
9,
25,
24,
24,
21,
5,
6,
6,
1,
1,
0,
0,
7,
7,
10,
10,
6,
6,
3,
14,
13,
13,
10,
10,
7,
7,
3,
21,
21,
32,
31,
20,
21,
2,
6,
6,
14,
2,
3,
3,
4,
4,
2,
2,
0,
0,
1,
1,
0,
0,
0,
0,
1,
12,
11,
11,
10,
10,
3,
3,
8,
8,
5,
25,
24,
24,
22,
11,
12,
12,
20,
20,
18,
0,
2,
13,
12,
12,
22,
22,
22,
22,
14,
14,
10,
10,
9,
9,
9,
9,
4,
16,
16,
16,
21,
21,
26,
26,
29,
16,
17,
2,
4,
4,
14,
14,
20,
2,
3,
3,
3,
3,
4,
4,
6,
6,
8,
8,
2,
2,
4,
4,
0,
0,
0,
13,
12,
12,
9,
9,
3,
3,
6,
6,
12,
26,
26,
42,
42,
42,
48,
19,
20,
3,
13,
28,
28,
28,
32,
32,
42,
31,
31,
31,
26,
26,
29,
6,
14,
41,
40,
40,
42,
20,
21,
6,
7,
7,
3,
3,
2,
2,
9,
9,
10,
10,
8,
8,
5,
5,
12,
12,
2,
2,
0,
0,
7,
7,
4,
4,
0,
0,
-1,
-1,
2,
2,
2,
2,
5,
5,
10,
10,
3,
3,
5,
5,
0,
0,
6,
6,
4,
4,
10,
10,
8,
8,
6,
26,
26,
26,
24,
36,
36,
6,
7,
42,
42,
42,
45,
21,
22,
22,
23,
23,
15,
2,
6,
22,
21,
21,
30,
30,
32,
12,
13,
13,
4,
21,
21,
34,
33,
11,
11,
11,
15,
15,
22,
8,
9,
9,
0,
0,
1,
1,
2,
2,
9,
9,
18,
18,
27,
27,
21,
21,
11,
11,
2,
2,
7,
7,
12,
12,
16,
16,
14,
14,
12,
12,
12,
0,
0,
0,
6,
6,
4,
4,
10,
10,
15,
15,
9,
9,
8,
8,
10,
10,
3,
3,
-1,
-1,
-1,
-1,
-1,
-1,
2,
2,
2,
2,
11,
11,
11,
11,
6,
6,
2,
2,
4,
4,
10,
10,
10,
10,
5,
5,
-1,
-1,
2,
2,
0,
0,
-1,
-1,
2,
2,
3,
3,
4,
4,
10,
10,
12,
-1,
1,
1,
0,
15,
15,
32,
31,
31,
24,
2,
2,
17,
16,
30,
28,
28,
26,
5,
5,
18,
17,
5,
6,
6,
11,
23,
23,
23,
31,
20,
21,
7,
7,
24,
24,
57,
56,
56,
49,
16,
16,
0,
2,
14,
13,
13,
21,
21,
22,
7,
8,
8,
11,
24,
23,
23,
16,
4,
4,
4,
-1,
-1,
0,
0,
0,
0,
-1,
-1,
2,
2,
5,
5,
10,
10,
3,
3,
7,
7,
3,
3,
0,
0,
2,
2,
1,
1,
-1,
-1,
0,
0,
-1,
-1,
1,
1,
1,
1,
2,
2,
0,
0,
3,
3,
4,
4,
6,
6,
10,
10,
14,
14,
8,
8,
14,
14,
8,
8,
5,
16,
15,
15,
15,
15,
16,
16,
11,
0,
7,
7,
10,
10,
6,
6,
5,
5,
11,
11,
13,
13,
6,
6,
-1,
-1,
3,
3,
0,
12,
12,
12,
19,
19,
25,
25,
25,
6,
7,
22,
22,
49,
48,
48,
50,
22,
22,
3,
11,
25,
23,
12,
12,
-1,
0,
0,
3,
3,
11,
11,
11,
11,
6,
6,
2,
2,
0,
0,
-1,
-1,
6,
6,
8,
8,
0,
0,
7,
7,
7,
7,
-1,
-1,
8,
8,
15,
15,
16,
16,
7,
7,
8,
8,
2,
2,
9,
9,
10,
10,
8,
8,
6,
6,
8,
8,
9,
9,
15,
15,
10,
10,
9,
9,
4,
4,
4,
20,
20,
20,
26,
13,
13,
-1,
1,
1,
4,
4,
4,
4,
0,
0,
0,
0,
0,
0,
7,
18,
17,
3,
3,
31,
30,
30,
32,
13,
14,
2,
8,
21,
20,
31,
30,
30,
25,
8,
9,
9,
18,
33,
32,
32,
26,
10,
11,
11,
11,
11,
16,
33,
32,
19,
19,
5,
23,
40,
38,
19,
19,
3,
7,
7,
6,
6,
0,
0,
2,
2,
0,
0,
0,
0,
3,
3,
2,
2,
3,
3,
3,
3,
1,
1,
4,
4,
0,
0,
0,
0,
0,
0,
-1,
10,
10,
10,
15,
15,
5,
5,
5,
5,
2,
2,
4,
4,
5,
5,
-1,
-1,
5,
5,
6,
6,
7,
7,
7,
21,
20,
20,
11,
-1,
0,
0,
3,
3,
6,
6,
4,
4,
2,
2,
-1,
-1,
-1,
-1,
0,
0,
3,
3,
5,
5,
12,
1,
1,
15,
14,
14,
19,
19,
22,
11,
11,
-1,
0,
0,
5,
5,
1,
1,
6,
6,
2,
2,
6,
6,
10,
10,
13,
13,
6,
6,
0,
0,
0,
0,
0,
0,
2,
2,
0,
0,
7,
7,
9,
9,
5,
5,
6,
6,
4,
4,
9,
9,
7,
7,
3,
3,
0,
0,
1,
1,
2,
2,
2,
2,
2,
2,
1,
1,
0,
0,
0,
0,
0,
0,
2,
2,
8,
8,
6,
6,
0,
0,
0,
0,
-1,
-1,
0,
0,
3,
3,
7,
7,
2,
2,
7,
7,
3,
14,
13,
28,
27,
27,
23,
3,
3,
3,
11,
11,
19,
19,
24,
24,
26,
26,
18,
2,
4,
26,
25,
25,
28,
12,
13,
13,
6,
6,
0,
0,
2,
2,
10,
10,
6,
6,
1,
1,
4,
4,
3,
3,
0,
0,
-1,
-1,
2,
2,
6,
6,
9,
9,
7,
7,
1,
1,
2,
2,
2,
2,
9,
9,
5,
5,
14,
14,
18,
18,
10,
23,
23,
23,
23,
9,
9,
9,
0,
0,
10,
10,
15,
15,
18,
18,
15,
4,
5,
5,
3,
3,
2,
2,
3,
3,
0,
0,
8,
8,
3,
3,
6,
6,
6,
6,
6,
6,
3,
3,
0,
0,
1,
1,
3,
3,
9,
9,
15,
15,
14,
2,
2,
2,
0,
0,
3,
3,
6,
6,
3,
3,
0,
0,
2,
2,
2,
2,
3,
3,
10,
10,
15,
15,
10,
10,
3,
3,
4,
4,
5,
5,
1,
1,
4,
4,
6,
6,
5,
5,
1,
1,
1,
20,
20,
32,
30,
16,
17,
17,
19,
19,
17,
2,
2,
19,
19,
19,
21,
6,
7,
7,
11,
11,
19,
19,
10,
10,
6,
6,
2,
2,
0,
0,
5,
5,
5,
5,
6,
6,
10,
10,
12,
12,
11,
11,
6,
6,
3,
3,
3,
3,
7,
7,
9,
9,
5,
5,
6,
6,
1,
1,
7,
7,
16,
16,
17,
17,
17,
1,
2,
2,
11,
11,
18,
18,
19,
19,
13,
13,
6,
6,
3,
3,
4,
4,
10,
10,
10,
10,
10,
10,
3,
3,
5,
5,
12,
12,
14,
14,
14,
14,
13,
13,
20,
6,
7,
7,
14,
14,
21,
21,
24,
24,
16,
2,
4,
19,
18,
18,
13,
0,
2,
15,
14,
14,
16,
5,
6,
6,
4,
4,
13,
13,
14,
14,
16,
16,
18,
18,
11,
0,
1,
13,
12,
12,
18,
18,
19,
4,
5,
16,
15,
27,
25,
7,
8,
8,
6,
6,
1,
1,
7,
7,
1,
1,
5,
16,
15,
27,
27,
16,
16,
0,
2,
15,
15,
40,
39,
39,
41,
29,
29,
29,
19,
3,
3,
3,
4,
4,
10,
10,
20,
20,
29,
29,
29,
29,
22,
11,
13,
13,
5,
5,
2,
2,
7,
7,
12,
12,
10,
10,
1,
1,
2,
2,
6,
6,
7,
7,
11,
11,
18,
18,
15,
15,
13,
13,
11,
11,
11,
0,
2,
2,
8,
8,
5,
5,
2,
2,
10,
10,
11,
11,
14,
14,
15,
15,
15,
15,
12,
12,
8,
8,
1,
1,
10,
27,
27,
40,
39,
39,
42,
31,
31,
8,
9,
9,
10,
23,
22,
22,
25,
25,
20,
20,
19,
19,
13,
2,
2,
2,
6,
6,
10,
10,
7,
7,
4,
4,
3,
3,
10,
10,
2,
23,
22,
22,
22,
22,
23,
8,
8,
8,
10,
10,
11,
11,
3,
3,
5,
21,
20,
4,
5,
19,
18,
30,
29,
29,
23,
23,
16,
0,
1,
1,
9,
9,
18,
18,
22,
22,
20,
20,
17,
17,
13,
13,
13,
2,
6,
26,
26,
26,
24,
11,
12,
12,
2,
2,
0,
0,
7,
7,
1,
14,
12,
12,
17,
17,
10,
10,
12,
12,
15,
0,
2,
15,
14,
14,
16,
16,
7,
7,
2,
2,
6,
6,
4,
4,
4,
4,
12,
12,
8,
8,
1,
1,
3,
3,
1,
1,
2,
2,
-1,
-1,
0,
0,
2,
2,
-1,
-1,
-1,
-1,
2,
2,
7,
7,
1,
1,
3,
3,
8,
8,
4,
4,
6,
6,
9,
9,
2,
2,
2,
2,
4,
4,
10,
10,
6,
17,
17,
32,
31,
14,
15,
2,
9,
9,
15,
0,
1,
1,
9,
35,
33,
33,
25,
7,
24,
24,
30,
12,
12,
12,
5,
5,
3,
3,
9,
24,
23,
10,
10,
10,
3,
3,
3,
3,
0,
0,
5,
5,
3,
3,
0,
0,
2,
2,
5,
5,
14,
14,
19,
19,
15,
2,
6,
28,
27,
27,
29,
14,
14,
14,
11,
11,
10,
10,
2,
2,
-1,
-1,
0,
0,
0,
0,
8,
8,
8,
8,
5,
5,
11,
11,
12,
26,
25,
25,
31,
31,
29,
6,
15,
55,
54,
42,
42,
17,
18,
18,
8,
8,
4,
4,
0,
0,
8,
30,
30,
30,
39,
20,
22,
2,
3,
23,
22,
44,
43,
43,
44,
22,
23,
3,
7,
23,
23,
23,
28,
28,
22,
22,
12,
12,
7,
7,
-1,
-1,
1,
1,
2,
2,
6,
6,
13,
24,
23,
23,
21,
21,
12,
0,
0,
0,
4,
4,
4,
4,
8,
8,
16,
16,
14,
14,
12,
12,
5,
5,
10,
26,
26,
26,
26,
26,
19,
7,
8,
8,
2,
14,
14,
14,
13,
0,
1,
1,
2,
2,
3,
3,
0,
0,
0,
0,
3,
3,
0,
0,
4,
4,
2,
2,
-1,
-1,
0,
0,
1,
1,
0,
0,
3,
3,
1,
1,
0,
0,
8,
8,
2,
2,
0,
0,
5,
5,
13,
13,
11,
11,
6,
6,
3,
3,
6,
6,
0,
0,
1,
1,
6,
6,
8,
8,
8,
8,
1,
1,
0,
0,
0,
0,
5,
5,
10,
10,
7,
7,
3,
3,
8,
19,
18,
32,
31,
5,
5,
5,
13,
13,
10,
10,
2,
13,
12,
0,
2,
19,
18,
18,
18,
18,
11,
11,
12,
12,
9,
9,
0,
11,
10,
10,
16,
28,
27,
38,
37,
37,
36,
16,
16,
1,
2,
2,
5,
5,
11,
11,
13,
13,
19,
19,
27,
27,
32,
32,
30,
30,
22,
3,
7,
42,
42,
42,
47,
28,
29,
11,
12,
0,
2,
2,
2,
2,
5,
5,
4,
4,
2,
2,
2,
2,
6,
6,
1,
1,
7,
7,
4,
4,
5,
5,
0,
0,
7,
7,
4,
4,
