EMG_S1/DS0134.CSV

Memory Length,4000,
Trigger Level,0.00000e+00,
Source,CH1,
Probe,1.0X,
Vertical Units,V,
Vertical Scale,1.00000e+00,
Vertical Position,4.00000e-02,
Horizontal Units,S,
Horizontal Scale,1.00000e-01,
Horizontal Position,0.0000000e+00,
Horizontal Mode,Roll Mode,
Waveform Last Dot Address,4000,
Sampling Period,4.00000e-04,
Firmware,V1.14,
Time, ,
Mode,Fast,
Waveform Data,
18,
18,
13,
13,
9,
9,
0,
0,
9,
9,
16,
16,
17,
17,
15,
15,
15,
15,
7,
7,
2,
2,
0,
0,
2,
2,
6,
6,
6,
6,
0,
0,
7,
24,
23,
23,
20,
8,
9,
9,
2,
2,
7,
20,
18,
18,
24,
24,
26,
14,
15,
0,
0,
12,
11,
24,
24,
24,
21,
21,
11,
11,
4,
4,
0,
11,
10,
10,
15,
15,
11,
11,
7,
7,
2,
18,
16,
30,
30,
30,
27,
10,
10,
10,
7,
18,
17,
17,
20,
20,
15,
15,
9,
9,
3,
3,
12,
12,
14,
3,
3,
3,
0,
0,
6,
6,
13,
13,
11,
0,
2,
2,
8,
8,
9,
9,
4,
4,
-1,
-1,
2,
2,
6,
6,
0,
0,
8,
8,
7,
7,
0,
0,
3,
3,
3,
3,
4,
4,
1,
1,
0,
0,
5,
5,
5,
5,
10,
10,
10,
10,
5,
5,
1,
1,
3,
3,
8,
8,
3,
3,
6,
6,
13,
13,
14,
14,
7,
7,
0,
0,
1,
1,
1,
1,
6,
6,
1,
1,
6,
6,
11,
11,
5,
5,
0,
0,
0,
0,
4,
4,
6,
6,
7,
7,
4,
4,
6,
6,
3,
3,
5,
5,
8,
8,
8,
8,
10,
10,
11,
0,
2,
2,
6,
6,
9,
9,
8,
8,
4,
4,
6,
6,
11,
11,
10,
10,
2,
2,
6,
6,
11,
11,
11,
0,
1,
1,
2,
2,
10,
10,
19,
19,
14,
1,
6,
6,
11,
11,
11,
11,
8,
8,
2,
2,
2,
2,
1,
1,
2,
2,
10,
10,
11,
0,
2,
2,
1,
1,
6,
6,
0,
0,
3,
3,
7,
7,
8,
8,
8,
8,
11,
0,
2,
2,
10,
10,
11,
11,
7,
7,
8,
8,
0,
0,
5,
5,
7,
7,
5,
5,
0,
0,
1,
1,
2,
2,
2,
2,
-1,
-1,
4,
4,
2,
14,
12,
12,
3,
3,
1,
1,
0,
0,
-1,
-1,
5,
5,
7,
7,
3,
3,
2,
2,
6,
6,
0,
0,
4,
4,
2,
2,
-1,
-1,
0,
0,
0,
0,
1,
1,
-1,
-1,
0,
0,
0,
0,
0,
0,
0,
0,
3,
3,
4,
4,
6,
6,
9,
9,
11,
11,
4,
4,
6,
6,
12,
12,
11,
11,
6,
6,
0,
0,
6,
6,
9,
9,
16,
16,
20,
8,
8,
8,
0,
0,
-1,
-1,
8,
19,
18,
18,
18,
18,
14,
14,
9,
9,
0,
0,
6,
6,
7,
7,
5,
5,
8,
8,
11,
11,
10,
10,
7,
7,
6,
6,
0,
0,
1,
1,
2,
2,
4,
4,
2,
2,
4,
4,
3,
3,
1,
1,
2,
2,
0,
0,
0,
0,
0,
0,
0,
0,
4,
4,
11,
11,
15,
15,
11,
11,
2,
2,
6,
6,
13,
13,
11,
11,
18,
18,
26,
5,
5,
5,
12,
12,
10,
10,
2,
2,
0,
0,
5,
5,
3,
3,
6,
6,
8,
8,
2,
2,
0,
0,
0,
0,
1,
1,
1,
1,
2,
2,
0,
0,
0,
0,
4,
4,
7,
7,
4,
4,
8,
8,
5,
5,
1,
1,
1,
1,
3,
3,
11,
11,
7,
7,
0,
0,
2,
2,
1,
1,
7,
7,
7,
7,
2,
15,
14,
14,
15,
0,
1,
1,
2,
13,
12,
12,
16,
16,
22,
22,
16,
0,
2,
2,
11,
11,
14,
14,
11,
11,
12,
12,
14,
14,
9,
9,
0,
0,
0,
0,
1,
1,
0,
0,
3,
3,
8,
8,
5,
5,
8,
8,
8,
8,
3,
3,
-1,
-1,
-1,
-1,
-1,
-1,
-1,
-1,
1,
1,
2,
2,
5,
5,
9,
9,
7,
7,
0,
0,
6,
6,
8,
8,
11,
11,
8,
8,
2,
2,
0,
0,
4,
4,
11,
11,
16,
16,
11,
11,
5,
5,
0,
0,
3,
3,
4,
20,
19,
19,
27,
8,
8,
8,
13,
13,
18,
18,
24,
24,
18,
18,
13,
13,
3,
3,
2,
2,
2,
2,
1,
1,
0,
0,
-1,
-1,
-1,
-1,
7,
7,
13,
13,
17,
17,
10,
-1,
2,
2,
6,
6,
6,
6,
6,
6,
9,
9,
0,
0,
4,
4,
6,
6,
3,
3,
2,
2,
8,
8,
6,
6,
3,
3,
0,
0,
2,
2,
7,
7,
13,
13,
11,
11,
11,
11,
5,
5,
7,
7,
3,
3,
-1,
-1,
-1,
-1,
5,
5,
2,
2,
-1,
-1,
-1,
-1,
2,
2,
4,
4,
4,
4,
0,
0,
2,
2,
4,
4,
1,
1,
-1,
-1,
0,
0,
1,
1,
4,
4,
1,
1,
1,
1,
2,
2,
-1,
-1,
3,
3,
4,
4,
0,
0,
2,
2,
0,
0,
8,
8,
6,
6,
1,
1,
0,
0,
5,
5,
7,
7,
15,
15,
14,
14,
6,
6,
6,
6,
4,
4,
3,
3,
8,
8,
3,
16,
15,
15,
22,
22,
20,
6,
7,
7,
2,
2,
3,
3,
13,
13,
13,
13,
3,
3,
0,
0,
0,
0,
0,
0,
1,
1,
-1,
-1,
-1,
-1,
0,
0,
5,
5,
4,
4,
1,
1,
1,
1,
4,
4,
0,
0,
2,
2,
6,
6,
8,
8,
12,
12,
18,
18,
18,
18,
17,
17,
11,
11,
4,
4,
13,
26,
24,
24,
25,
25,
25,
13,
13,
13,
6,
6,
5,
5,
0,
16,
16,
32,
32,
32,
25,
6,
6,
6,
0,
0,
1,
1,
2,
2,
4,
4,
11,
11,
11,
11,
8,
8,
6,
6,
0,
0,
6,
6,
6,
6,
10,
10,
10,
10,
3,
3,
0,
0,
4,
4,
2,
2,
0,
0,
7,
7,
6,
6,
2,
2,
0,
12,
11,
11,
18,
18,
11,
11,
8,
26,
25,
25,
28,
28,
19,
19,
11,
0,
0,
0,
2,
2,
9,
9,
14,
14,
17,
17,
13,
13,
7,
7,
3,
3,
0,
0,
0,
0,
0,
0,
-1,
-1,
2,
2,
0,
0,
4,
4,
7,
7,
4,
4,
0,
0,
-1,
-1,
3,
3,
-1,
-1,
4,
4,
11,
11,
11,
11,
7,
7,
6,
6,
1,
1,
5,
5,
5,
5,
0,
0,
3,
3,
-2,
-2,
2,
2,
3,
3,
7,
7,
11,
11,
10,
10,
2,
2,
6,
6,
14,
14,
17,
17,
10,
-1,
1,
1,
5,
5,
4,
4,
1,
1,
2,
2,
2,
2,
8,
8,
14,
3,
4,
4,
7,
7,
10,
10,
4,
4,
0,
0,
4,
4,
7,
7,
7,
7,
16,
16,
19,
7,
8,
8,
7,
7,
14,
14,
13,
13,
11,
11,
5,
5,
2,
2,
8,
8,
8,
8,
2,
2,
4,
4,
2,
2,
3,
3,
-1,
-1,
-1,
-1,
0,
0,
2,
2,
6,
6,
6,
6,
0,
0,
1,
1,
3,
3,
6,
6,
8,
8,
0,
0,
9,
9,
11,
11,
7,
7,
6,
6,
9,
9,
6,
6,
-1,
-1,
1,
1,
2,
2,
3,
3,
9,
9,
14,
14,
6,
6,
2,
2,
0,
0,
5,
5,
14,
14,
18,
18,
14,
-1,
1,
1,
10,
21,
20,
20,
19,
6,
7,
7,
2,
2,
0,
0,
7,
7,
15,
15,
14,
1,
2,
2,
8,
8,
14,
14,
14,
14,
11,
11,
7,
7,
3,
3,
1,
1,
7,
7,
8,
8,
10,
21,
21,
21,
22,
22,
20,
20,
20,
20,
12,
12,
5,
5,
5,
5,
4,
4,
2,
2,
7,
21,
20,
20,
27,
27,
23,
23,
17,
17,
8,
8,
7,
7,
5,
18,
16,
16,
24,
24,
24,
11,
12,
1,
2,
2,
-1,
-1,
-1,
-1,
3,
3,
5,
5,
2,
2,
9,
9,
5,
5,
0,
0,
-1,
-1,
1,
1,
-1,
-1,
6,
6,
11,
11,
11,
0,
3,
3,
10,
10,
3,
3,
3,
3,
8,
8,
5,
5,
2,
2,
0,
0,
4,
4,
6,
6,
8,
8,
5,
5,
2,
2,
2,
2,
0,
0,
8,
8,
7,
7,
10,
10,
13,
13,
12,
12,
14,
14,
10,
10,
3,
3,
0,
0,
4,
4,
11,
11,
16,
16,
15,
15,
9,
9,
8,
8,
6,
6,
0,
0,
6,
6,
10,
10,
16,
16,
12,
12,
11,
11,
21,
21,
14,
0,
3,
3,
6,
6,
7,
7,
14,
14,
14,
14,
6,
6,
3,
3,
0,
0,
-1,
-1,
5,
5,
0,
16,
16,
16,
17,
6,
7,
7,
6,
6,
8,
8,
7,
7,
0,
0,
2,
2,
2,
2,
0,
0,
7,
7,
1,
1,
9,
9,
14,
14,
16,
3,
3,
3,
12,
25,
24,
24,
28,
28,
26,
14,
14,
3,
5,
5,
4,
19,
18,
18,
27,
27,
30,
30,
26,
26,
16,
1,
4,
4,
14,
14,
11,
11,
10,
10,
10,
10,
12,
12,
5,
5,
0,
0,
-1,
-1,
8,
20,
20,
20,
20,
20,
18,
18,
19,
19,
15,
0,
3,
19,
18,
18,
20,
20,
15,
15,
5,
5,
-1,
-1,
3,
3,
4,
4,
0,
0,
0,
0,
0,
0,
2,
2,
6,
6,
6,
6,
0,
0,
8,
8,
10,
10,
8,
8,
5,
5,
3,
3,
7,
7,
3,
3,
0,
0,
0,
0,
-2,
-2,
-1,
-1,
-1,
-1,
0,
0,
0,
0,
2,
2,
0,
0,
0,
0,
-1,
-1,
1,
1,
3,
3,
0,
0,
5,
5,
6,
6,
0,
0,
0,
0,
0,
0,
0,
0,
2,
2,
-1,
-1,
-1,
-1,
3,
3,
3,
3,
2,
2,
9,
9,
13,
13,
8,
8,
3,
16,
16,
16,
18,
18,
10,
-1,
0,
0,
2,
2,
0,
0,
0,
0,
0,
0,
-1,
-1,
0,
0,
0,
0,
6,
6,
8,
8,
10,
-1,
1,
1,
8,
8,
13,
13,
16,
16,
16,
2,
5,
21,
20,
20,
28,
28,
26,
26,
21,
21,
19,
6,
6,
18,
17,
28,
28,
28,
23,
23,
17,
17,
16,
16,
14,
3,
4,
4,
4,
4,
1,
1,
4,
15,
14,
14,
19,
19,
14,
14,
8,
8,
0,
0,
0,
0,
0,
0,
0,
0,
4,
4,
11,
11,
13,
13,
12,
12,
12,
0,
0,
0,
5,
5,
10,
10,
13,
13,
12,
12,
8,
8,
4,
4,
3,
3,
-1,
-1,
0,
0,
3,
3,
3,
3,
7,
7,
6,
6,
6,
6,
6,
6,
0,
0,
-1,
-1,
2,
2,
0,
0,
4,
4,
0,
0,
4,
4,
6,
6,
0,
0,
4,
4,
6,
6,
2,
2,
-1,
-1,
2,
2,
2,
2,
7,
7,
2,
2,
7,
7,
10,
10,
14,
14,
9,
9,
2,
2,
6,
6,
1,
13,
12,
12,
6,
6,
12,
12,
22,
22,
18,
18,
11,
11,
4,
4,
-1,
-1,
4,
4,
5,
5,
3,
3,
0,
0,
4,
4,
0,
0,
8,
8,
16,
16,
15,
15,
23,
38,
38,
38,
29,
7,
7,
7,
8,
8,
17,
17,
27,
27,
32,
32,
30,
30,
23,
12,
13,
13,
9,
9,
4,
4,
11,
27,
26,
26,
20,
4,
5,
5,
5,
5,
10,
10,
13,
13,
7,
7,
5,
5,
0,
0,
2,
2,
1,
1,
2,
2,
-1,
-1,
3,
3,
6,
6,
3,
3,
0,
0,
6,
6,
10,
10,
14,
14,
11,
-1,
1,
1,
6,
17,
16,
16,
24,
12,
12,
12,
6,
6,
2,
2,
5,
5,
14,
14,
8,
8,
4,
4,
3,
3,
0,
0,
3,
3,
5,
5,
3,
3,
0,
0,
-1,
-1,
-1,
-1,
6,
6,
7,
7,
6,
6,
1,
1,
5,
5,
2,
2,
-1,
-1,
2,
2,
9,
21,
20,
20,
26,
26,
32,
32,
25,
2,
3,
3,
9,
9,
10,
10,
15,
15,
20,
20,
21,
21,
14,
0,
1,
1,
3,
3,
-1,
-1,
7,
7,
5,
5,
5,
5,
3,
3,
3,
3,
11,
11,
8,
8,
5,
5,
2,
2,
1,
1,
4,
4,
12,
28,
27,
27,
32,
16,
17,
3,
4,
4,
3,
3,
4,
4,
7,
7,
15,
15,
16,
16,
9,
9,
8,
8,
5,
5,
6,
6,
6,
6,
3,
3,
9,
9,
14,
14,
10,
10,
9,
9,
9,
9,
5,
5,
4,
4,
7,
7,
12,
12,
13,
13,
7,
7,
6,
6,
7,
7,
4,
4,
2,
2,
7,
7,
8,
8,
10,
21,
20,
20,
22,
22,
21,
21,
20,
2,
3,
14,
11,
11,
15,
15,
13,
13,
17,
17,
20,
20,
13,
13,
8,
8,
1,
1,
1,
1,
0,
0,
8,
8,
14,
14,
20,
20,
17,
17,
11,
11,
15,
15,
23,
10,
10,
10,
10,
10,
10,
10,
10,
10,
13,
13,
7,
7,
6,
23,
23,
3,
3,
15,
15,
15,
15,
3,
3,
3,
5,
5,
5,
5,
3,
3,
8,
8,
9,
9,
3,
3,
-1,
-1,
6,
6,
6,
6,
3,
3,
5,
5,
9,
9,
6,
6,
3,
3,
4,
16,
15,
15,
15,
15,
6,
6,
8,
8,
2,
2,
10,
10,
8,
8,
0,
0,
0,
0,
2,
2,
7,
7,
8,
8,
6,
6,
2,
2,
4,
4,
2,
2,
2,
2,
1,
1,
0,
0,
0,
0,
5,
5,
6,
6,
2,
2,
9,
21,
20,
20,
21,
21,
21,
21,
27,
27,
20,
6,
6,
6,
13,
13,
18,
18,
21,
21,
17,
17,
9,
9,
3,
3,
0,
0,
1,
1,
5,
5,
1,
1,
1,
1,
2,
2,
2,
2,
-1,
-1,
0,
0,
3,
3,
2,
2,
6,
6,
14,
14,
18,
6,
7,
7,
0,
0,
-1,
-1,
1,
1,
6,
6,
0,
0,
6,
6,
1,
1,
5,
5,
8,
8,
5,
5,
3,
3,
9,
9,
8,
8,
2,
14,
13,
13,
17,
17,
12,
0,
1,
1,
8,
8,
9,
9,
8,
8,
6,
6,
11,
11,
13,
13,
9,
9,
6,
6,
2,
2,
4,
4,
4,
4,
2,
2,
-1,
-1,
1,
1,
4,
4,
10,
10,
11,
11,
2,
2,
4,
4,
0,
0,
4,
4,
5,
5,
6,
6,
1,
1,
1,
1,
0,
0,
2,
2,
6,
6,
12,
12,
12,
12,
13,
13,
13,
13,
8,
8,
4,
4,
0,
0,
1,
17,
17,
28,
27,
27,
20,
20,
18,
18,
25,
25,
22,
1,
2,
2,
9,
9,
13,
13,
11,
11,
14,
14,
15,
2,
2,
2,
-1,
-1,
3,
3,
2,
2,
0,
0,
1,
1,
-1,
-1,
5,
5,
8,
8,
5,
5,
2,
2,
10,
10,
12,
12,
13,
13,
10,
10,
2,
2,
10,
10,
14,
14,
14,
14,
15,
15,
9,
9,
5,
5,
1,
1,
4,
4,
7,
19,
19,
19,
27,
27,
22,
22,
20,
20,
21,
21,
14,
14,
6,
6,
3,
27,
26,
39,
38,
38,
35,
35,
29,
29,
20,
3,
3,
3,
8,
8,
15,
15,
13,
13,
16,
16,
12,
12,
7,
7,
6,
6,
6,
6,
3,
3,
2,
2,
0,
0,
0,
0,
2,
2,
0,
12,
12,
12,
18,
18,
12,
12,
6,
6,
6,
6,
0,
13,
12,
12,
16,
16,
11,
11,
6,
6,
6,
6,
2,
2,
-1,
-1,
1,
1,
1,
1,
2,
2,
0,
0,
3,
3,
3,
3,
0,
0,
3,
3,
7,
7,
6,
6,
0,
0,
3,
3,
2,
2,
9,
9,
10,
10,
19,
19,
25,
8,
9,
9,
3,
16,
16,
16,
11,
0,
3,
3,
6,
6,
15,
15,
12,
12,
5,
5,
4,
4,
3,
3,
-1,
-1,
-1,
-1,
1,
1,
0,
0,
1,
1,
3,
3,
12,
12,
13,
13,
14,
14,
11,
11,
4,
4,
-1,
-1,
1,
1,
3,
3,
7,
7,
8,
8,
3,
3,
5,
5,
10,
10,
8,
8,
10,
10,
11,
11,
14,
14,
14,
14,
5,
5,
10,
10,
14,
14,
15,
27,
26,
38,
38,
38,
39,
22,
22,
2,
5,
25,
24,
24,
31,
31,
25,
10,
11,
11,
11,
11,
14,
14,
11,
11,
7,
7,
12,
12,
7,
7,
0,
0,
4,
16,
16,
30,
28,
28,
30,
30,
24,
10,
10,
10,
8,
8,
5,
5,
3,
3,
4,
4,
3,
3,
6,
6,
13,
13,
12,
12,
10,
10,
6,
6,
1,
1,
7,
7,
11,
11,
14,
14,
22,
22,
28,
28,
19,
0,
1,
1,
10,
21,
20,
20,
24,
24,
24,
24,
14,
14,
7,
7,
3,
3,
0,
0,
2,
2,
7,
7,
3,
3,
4,
4,
5,
5,
8,
22,
22,
22,
21,
21,
11,
11,
10,
10,
8,
8,
0,
0,
2,
2,
5,
5,
7,
7,
8,
8,
7,
7,
6,
6,
5,
5,
5,
5,
3,
3,
2,
2,
0,
0,
8,
8,
11,
11,
6,
6,
1,
1,
6,
6,
0,
0,
1,
1,
5,
5,
4,
4,
1,
1,
2,
2,
3,
3,
0,
0,
-1,
-1,
6,
6,
3,
3,
0,
0,
3,
3,
-1,
-1,
8,
23,
22,
35,
34,
34,
27,
10,
11,
0,
1,
20,
19,
32,
32,
32,
31,
31,
24,
24,
18,
3,
3,
3,
2,
2,
6,
6,
9,
9,
7,
7,
14,
14,
8,
8,
3,
3,
1,
1,
3,
3,
3,
3,
8,
8,
14,
14,
16,
2,
2,
2,
3,
3,
6,
6,
8,
8,
10,
10,
7,
7,
2,
2,
2,
2,
3,
3,
6,
6,
0,
0,
7,
7,
3,
3,
0,
0,
3,
3,
2,
2,
5,
5,
14,
14,
23,
23,
29,
29,
25,
5,
6,
6,
9,
9,
18,
18,
24,
24,
22,
22,
16,
16,
16,
5,
5,
5,
-1,
-1,
5,
5,
0,
0,
4,
4,
10,
10,
16,
16,
23,
23,
22,
22,
13,
13,
5,
5,
4,
4,
3,
3,
1,
1,
-1,
-1,
2,
2,
-1,
-1,
2,
2,
-1,
-1,
2,
2,
0,
0,
0,
0,
3,
3,
5,
5,
2,
2,
5,
5,
0,
0,
2,
2,
3,
3,
5,
5,
1,
1,
1,
1,
-1,
-1,
1,
1,
8,
8,
3,
3,
2,
2,
10,
10,
10,
10,
1,
1,
2,
2,
-1,
-1,
3,
3,
-1,
-1,
3,
3,
10,
10,
5,
5,
0,
0,
2,
2,
6,
6,
3,
3,
11,
11,
18,
18,
14,
0,
2,
14,
13,
13,
18,
18,
9,
9,
7,
7,
8,
8,
6,
6,
2,
2,
1,
1,
6,
6,
7,
7,
1,
1,
0,
0,
0,
0,
3,
3,
3,
14,
14,
14,
16,
16,
13,
13,
6,
6,
15,
15,
21,
10,
11,
0,
3,
15,
15,
15,
23,
23,
18,
18,
8,
8,
0,
0,
2,
2,
2,
2,
5,
5,
0,
14,
14,
14,
12,
12,
8,
8,
3,
3,
6,
6,
7,
7,
0,
0,
2,
2,
0,
0,
2,
2,
6,
6,
1,
1,
2,
2,
3,
3,
0,
14,
13,
13,
20,
20,
18,
18,
10,
-1,
1,
1,
8,
8,
8,
8,
6,
6,
3,
3,
1,
1,
3,
3,
3,
3,
4,
15,
14,
14,
11,
11,
7,
7,
10,
10,
2,
2,
6,
6,
6,
6,
7,
7,
10,
10,
1,
1,
1,
1,
0,
0,
3,
14,
14,
14,
16,
16,
16,
16,
17,
1,
2,
15,
15,
15,
16,
16,
12,
12,
17,
17,
16,
16,
6,
6,
3,
3,
8,
8,
6,
6,
6,
6,
5,
5,
8,
8,
14,
14,
11,
11,
7,
7,
4,
4,
2,
2,
1,
1,
1,
1,
3,
3,
8,
8,
10,
10,
1,
1,
0,
0,
1,
1,
2,
2,
11,
26,
25,
25,
33,
33,
30,
12,
13,
0,
4,
21,
20,
20,
22,
22,
17,
17,
21,
21,
20,
20,
20,
20,
15,
15,
9,
9,
0,
0,
7,
7,
11,
11,
14,
14,
18,
18,
24,
37,
37,
37,
30,
4,
4,
4,
9,
9,
13,
13,
8,
8,
2,
2,
12,
12,
16,
4,
5,
5,
0,
0,
3,
3,
0,
0,
8,
8,
3,
3,
7,
7,
11,
11,
8,
8,
9,
9,
6,
6,
3,
3,
11,
11,
10,
10,
7,
7,
6,
6,
5,
5,
1,
1,
1,
1,
6,
6,
7,
7,
5,
5,
7,
7,
7,
7,
0,
0,
-1,
-1,
3,
3,
7,
7,
3,
3,
-1,
-1,
2,
17,
16,
16,
19,
2,
2,
2,
10,
10,
11,
11,
7,
7,
4,
4,
3,
3,
2,
2,
2,
13,
11,
11,
15,
2,
2,
2,
8,
8,
7,
7,
8,
8,
7,
7,
0,
0,
2,
2,
1,
1,
1,
1,
4,
4,
8,
8,
9,
9,
10,
10,
13,
13,
11,
11,
5,
5,
-1,
-1,
5,
5,
14,
14,
14,
14,
15,
15,
10,
10,
6,
6,
5,
5,
6,
6,
2,
2,
8,
8,
16,
16,
23,
23,
25,
14,
15,
15,
15,
15,
23,
12,
13,
2,
7,
20,
19,
19,
25,
25,
24,
24,
19,
19,
15,
15,
12,
12,
2,
2,
0,
0,
2,
2,
6,
6,
9,
9,
16,
16,
22,
22,
18,
6,
7,
7,
8,
8,
3,
3,
7,
7,
6,
6,
0,
0,
0,
0,
4,
4,
11,
11,
18,
18,
15,
4,
5,
5,
2,
2,
8,
8,
11,
11,
19,
19,
16,
16,
9,
9,
8,
8,
8,
8,
3,
3,
1,
1,
7,
7,
8,
8,
12,
12,
16,
16,
15,
4,
5,
5,
2,
2,
0,
0,
1,
1,
3,
3,
2,
2,
4,
4,
2,
2,
2,
2,
8,
8,
5,
5,
0,
0,
0,
0,
-1,
-1,
0,
0,
3,
3,
12,
12,
19,
6,
6,
6,
6,
6,
4,
4,
2,
2,
0,
0,
5,
5,
0,
0,
0,
0,
3,
3,
6,
6,
9,
9,
8,
8,
0,
11,
11,
11,
15,
15,
10,
10,
5,
5,
7,
7,
10,
10,
10,
10,
7,
7,
1,
1,
2,
2,
6,
6,
7,
7,
5,
5,
5,
5,
10,
10,
10,
10,
5,
5,
2,
2,
7,
7,
14,
14,
11,
11,
9,
9,
5,
5,
14,
14,
14,
14,
8,
8,
16,
16,
10,
-1,
-1,
-1,
0,
0,
8,
8,
5,
5,
7,
7,
6,
28,
27,
27,
31,
31,
28,
28,
20,
20,
12,
-1,
0,
0,
4,
4,
7,
7,
15,
15,
19,
19,
21,
21,
26,
26,
27,
27,
24,
24,
15,
4,
4,
4,
1,
1,
-1,
-1,
7,
7,
11,
11,
13,
13,
12,
12,
12,
12,
12,
12,
6,
6,
0,
0,
-1,
-1,
0,
0,
0,
0,
5,
5,
10,
10,
7,
7,
5,
5,
3,
3,
2,
2,
2,
2,
3,
3,
2,
2,
-1,
-1,
3,
3,
10,
10,
4,
4,
7,
7,
9,
9,
10,
10,
6,
6,
3,
3,
11,
11,
14,
14,
15,
15,
14,
14,
8,
8,
4,
4,
1,
1,
2,
2,
9,
9,
3,
3,
0,
0,
2,
2,
2,
2,
3,
3,
4,
4,
2,
2,
10,
10,
15,
15,
16,
16,
21,
21,
18,
3,
4,
4,
10,
10,
13,
13,
9,
9,
11,
11,
11,
-1,
0,
0,
2,
2,
3,
3,
3,
3,
2,
2,
3,
3,
3,
3,
3,
3,
0,
0,
2,
2,
2,
2,
6,
6,
10,
10,
13,
13,
14,
14,
12,
12,
9,
9,
7,
7,
6,
6,
7,
7,
2,
2,
8,
8,
9,
9,
10,
10,
14,
14,
9,
9,
6,
6,
2,
2,
-1,
-1,
2,
2,
-1,
-1,
1,
1,
8,
8,
11,
11,
10,
10,
13,
13,
15,
15,
8,
8,
0,
0,
5,
5,
3,
3,
9,
9,
15,
15,
17,
17,
12,
1,
1,
18,
17,
32,
31,
31,
22,
22,
16,
16,
17,
4,
4,
4,
7,
7,
15,
15,
13,
13,
15,
15,
18,
3,
3,
3,
11,
11,
12,
0,
2,
2,
7,
7,
8,
8,
7,
7,
4,
4,
1,
1,
3,
3,
11,
11,
16,
16,
11,
11,
3,
3,
0,
0,
0,
0,
6,
6,
1,
1,
10,
10,
11,
11,
4,
4,
6,
6,
10,
10,
0,
0,
-1,
-1,
2,
2,
1,
1,
3,
3,
7,
7,
10,
10,
11,
11,
3,
3,
1,
1,
0,
0,
1,
1,
1,
1,
1,
1,
-1,
-1,
0,
0,
5,
5,
11,
11,
10,
10,
4,
4,
1,
1,
0,
0,
3,
3,
5,
5,
4,
4,
0,
0,
2,
2,
1,
1,
7,
7,
14,
14,
18,
18,
16,
16,
18,
7,
7,
7,
3,
3,
7,
7,
15,
15,
18,
18,
18,
18,
