EMG_S1/DS0178.CSV

Memory Length,4000,
Trigger Level,0.00000e+00,
Source,CH1,
Probe,1.0X,
Vertical Units,V,
Vertical Scale,1.00000e+00,
Vertical Position,4.00000e-02,
Horizontal Units,S,
Horizontal Scale,1.00000e-01,
Horizontal Position,0.0000000e+00,
Horizontal Mode,Roll Mode,
Waveform Last Dot Address,4000,
Sampling Period,4.00000e-04,
Firmware,V1.14,
Time, ,
Mode,Fast,
Waveform Data,
-1,
-1,
1,
1,
8,
8,
13,
13,
12,
12,
15,
15,
13,
2,
3,
3,
6,
6,
8,
8,
3,
3,
2,
2,
7,
7,
10,
10,
13,
13,
15,
15,
6,
6,
4,
4,
8,
8,
6,
6,
4,
4,
1,
1,
4,
4,
4,
4,
2,
2,
3,
3,
6,
6,
2,
2,
7,
7,
1,
1,
6,
6,
12,
12,
16,
16,
13,
-1,
0,
0,
4,
4,
7,
7,
13,
13,
12,
12,
10,
10,
3,
3,
0,
0,
6,
6,
0,
0,
6,
6,
8,
8,
3,
15,
15,
36,
36,
24,
24,
2,
4,
4,
13,
13,
12,
12,
12,
12,
11,
11,
7,
7,
3,
3,
3,
3,
2,
2,
8,
8,
10,
10,
3,
3,
2,
2,
2,
2,
8,
8,
10,
10,
7,
7,
1,
1,
8,
8,
10,
10,
0,
0,
0,
0,
4,
4,
13,
13,
11,
11,
7,
7,
5,
5,
8,
8,
5,
5,
2,
2,
10,
10,
8,
8,
5,
5,
5,
5,
8,
8,
4,
4,
0,
0,
6,
6,
5,
5,
0,
0,
7,
7,
6,
6,
0,
0,
4,
4,
3,
3,
2,
2,
0,
0,
10,
10,
10,
10,
4,
4,
1,
1,
5,
5,
2,
2,
-1,
-1,
7,
7,
5,
5,
5,
5,
7,
7,
7,
7,
5,
5,
0,
0,
1,
1,
7,
7,
10,
10,
12,
12,
6,
6,
0,
0,
-1,
-1,
1,
1,
7,
21,
20,
20,
14,
0,
2,
2,
6,
6,
4,
4,
13,
13,
14,
14,
14,
14,
9,
9,
2,
14,
13,
13,
17,
17,
22,
22,
24,
24,
22,
22,
13,
0,
2,
2,
7,
7,
13,
13,
4,
4,
-1,
13,
12,
12,
22,
22,
26,
26,
33,
33,
39,
22,
22,
2,
2,
2,
9,
9,
5,
16,
15,
30,
30,
30,
27,
14,
15,
15,
20,
20,
23,
7,
7,
7,
8,
8,
11,
11,
8,
8,
7,
7,
7,
19,
18,
18,
25,
8,
9,
9,
4,
4,
0,
0,
-1,
-1,
2,
2,
6,
6,
4,
4,
2,
2,
0,
0,
1,
1,
3,
3,
0,
0,
0,
0,
6,
6,
2,
2,
0,
0,
1,
1,
11,
26,
25,
13,
13,
13,
6,
6,
8,
8,
3,
18,
17,
17,
10,
10,
6,
6,
12,
12,
14,
0,
1,
1,
10,
10,
15,
15,
7,
7,
0,
0,
1,
1,
3,
3,
3,
3,
3,
3,
0,
0,
6,
6,
9,
9,
19,
19,
17,
6,
6,
6,
1,
1,
6,
6,
5,
5,
2,
2,
7,
7,
10,
10,
4,
4,
3,
3,
6,
6,
3,
3,
12,
23,
22,
22,
26,
26,
28,
28,
25,
2,
3,
15,
15,
15,
14,
14,
16,
16,
20,
8,
9,
9,
0,
0,
1,
1,
4,
4,
5,
5,
6,
6,
7,
7,
7,
7,
-1,
-1,
-1,
-1,
1,
1,
8,
8,
3,
3,
6,
6,
14,
14,
11,
11,
10,
10,
1,
1,
6,
6,
0,
0,
0,
0,
5,
5,
5,
5,
0,
0,
6,
6,
11,
11,
21,
21,
12,
1,
2,
2,
5,
5,
12,
12,
15,
15,
13,
13,
9,
9,
10,
10,
7,
7,
-1,
-1,
6,
6,
13,
13,
15,
15,
8,
8,
-1,
-1,
4,
4,
6,
6,
4,
16,
15,
27,
27,
27,
31,
42,
42,
25,
25,
5,
16,
27,
26,
26,
18,
18,
22,
34,
34,
34,
33,
33,
24,
3,
3,
3,
6,
6,
8,
8,
12,
12,
17,
17,
15,
15,
11,
11,
8,
8,
5,
5,
0,
0,
2,
2,
1,
1,
3,
3,
6,
6,
1,
1,
10,
10,
11,
11,
5,
5,
14,
29,
28,
28,
36,
14,
15,
2,
6,
18,
18,
18,
17,
6,
6,
6,
-1,
-1,
6,
18,
16,
16,
16,
16,
12,
12,
6,
6,
6,
6,
14,
14,
14,
3,
3,
3,
1,
1,
1,
1,
5,
5,
4,
4,
2,
2,
2,
2,
6,
6,
7,
7,
2,
2,
3,
3,
2,
2,
1,
1,
3,
3,
2,
2,
6,
6,
6,
6,
1,
1,
1,
1,
7,
7,
6,
6,
4,
4,
5,
5,
-1,
-1,
7,
7,
5,
5,
-1,
-1,
2,
2,
4,
4,
0,
0,
-1,
-1,
-1,
-1,
2,
2,
6,
6,
0,
0,
5,
5,
7,
7,
12,
12,
13,
13,
7,
7,
4,
4,
4,
4,
-1,
-1,
3,
3,
1,
14,
14,
14,
16,
16,
7,
7,
7,
18,
17,
17,
11,
11,
8,
25,
24,
24,
25,
25,
20,
20,
14,
14,
5,
5,
0,
0,
5,
5,
6,
6,
2,
2,
10,
10,
10,
-1,
2,
2,
8,
27,
26,
52,
51,
51,
57,
37,
37,
5,
6,
27,
27,
40,
39,
39,
33,
33,
24,
24,
21,
21,
16,
16,
13,
13,
8,
8,
0,
0,
7,
7,
11,
11,
11,
11,
13,
13,
12,
12,
12,
12,
13,
13,
11,
11,
9,
9,
8,
8,
6,
6,
-1,
-1,
3,
3,
5,
17,
16,
16,
8,
8,
2,
2,
3,
3,
5,
5,
6,
6,
6,
23,
22,
22,
22,
10,
11,
11,
1,
1,
7,
7,
14,
26,
26,
26,
29,
29,
24,
13,
14,
14,
5,
5,
1,
1,
4,
4,
10,
10,
11,
11,
14,
14,
10,
10,
7,
7,
7,
7,
7,
7,
11,
11,
15,
15,
12,
0,
1,
1,
4,
4,
6,
6,
5,
5,
5,
5,
8,
8,
7,
7,
1,
1,
0,
0,
6,
6,
8,
8,
9,
9,
13,
13,
12,
12,
6,
6,
1,
1,
6,
6,
7,
7,
12,
12,
15,
4,
5,
5,
4,
4,
4,
4,
7,
7,
2,
2,
8,
8,
12,
12,
6,
6,
0,
0,
1,
1,
-1,
-1,
2,
2,
0,
0,
-1,
-1,
5,
5,
5,
5,
0,
0,
6,
6,
11,
11,
18,
18,
17,
17,
7,
7,
0,
0,
6,
6,
14,
14,
8,
8,
0,
0,
6,
6,
9,
9,
3,
3,
11,
11,
15,
15,
14,
14,
12,
12,
4,
4,
2,
2,
6,
6,
8,
8,
7,
7,
2,
2,
4,
4,
11,
11,
5,
5,
7,
18,
17,
17,
26,
26,
28,
28,
35,
21,
22,
2,
2,
2,
0,
0,
10,
23,
22,
22,
28,
28,
26,
26,
21,
21,
15,
15,
9,
9,
5,
5,
3,
15,
14,
14,
15,
15,
7,
7,
3,
3,
2,
2,
1,
1,
9,
20,
20,
20,
14,
3,
3,
3,
1,
1,
4,
4,
11,
11,
7,
7,
1,
1,
10,
10,
17,
17,
14,
0,
2,
2,
7,
7,
5,
5,
9,
9,
7,
7,
1,
1,
-1,
-1,
1,
1,
0,
0,
4,
4,
0,
0,
10,
10,
6,
6,
4,
4,
11,
11,
9,
9,
3,
3,
0,
0,
1,
1,
3,
3,
-2,
-2,
3,
3,
0,
0,
4,
4,
1,
1,
1,
1,
2,
2,
4,
4,
1,
1,
10,
10,
15,
15,
12,
12,
5,
5,
0,
0,
-1,
-1,
5,
5,
10,
10,
7,
7,
4,
4,
4,
4,
0,
0,
-1,
-1,
0,
0,
1,
1,
2,
2,
2,
2,
8,
8,
12,
12,
10,
10,
10,
10,
14,
14,
14,
2,
3,
3,
9,
9,
15,
15,
17,
6,
6,
6,
1,
1,
9,
9,
6,
6,
1,
1,
4,
4,
0,
0,
1,
1,
9,
21,
20,
20,
15,
15,
6,
6,
6,
6,
0,
0,
4,
4,
1,
1,
1,
1,
1,
1,
4,
4,
12,
12,
13,
0,
3,
3,
11,
11,
6,
6,
1,
20,
20,
20,
24,
4,
4,
15,
15,
15,
22,
22,
19,
19,
11,
11,
3,
3,
6,
6,
8,
8,
4,
4,
-1,
-1,
6,
6,
8,
8,
11,
11,
16,
16,
20,
20,
15,
4,
5,
5,
6,
6,
6,
6,
4,
4,
0,
11,
10,
10,
13,
13,
8,
8,
4,
4,
2,
14,
12,
12,
15,
2,
3,
3,
8,
8,
11,
11,
9,
9,
7,
7,
3,
3,
1,
1,
8,
8,
11,
11,
8,
8,
2,
2,
1,
1,
0,
0,
0,
0,
-1,
-1,
2,
2,
9,
9,
10,
10,
4,
4,
8,
8,
2,
32,
31,
42,
40,
23,
23,
2,
3,
3,
7,
7,
7,
7,
7,
7,
0,
0,
2,
2,
4,
4,
9,
9,
8,
8,
1,
1,
3,
3,
1,
1,
0,
0,
6,
6,
5,
5,
3,
3,
2,
2,
0,
0,
-1,
-1,
2,
2,
6,
6,
3,
3,
4,
4,
7,
7,
4,
4,
2,
2,
2,
2,
4,
4,
2,
15,
14,
29,
28,
28,
29,
14,
15,
0,
3,
18,
17,
17,
22,
22,
16,
5,
6,
6,
8,
8,
9,
9,
6,
6,
12,
30,
29,
48,
48,
48,
39,
3,
4,
4,
0,
0,
1,
15,
14,
14,
6,
6,
0,
0,
0,
0,
0,
16,
15,
37,
37,
37,
44,
31,
31,
20,
20,
8,
8,
8,
9,
9,
16,
16,
19,
40,
40,
40,
43,
30,
31,
31,
28,
28,
20,
1,
3,
3,
12,
12,
18,
18,
15,
15,
11,
11,
8,
8,
1,
1,
0,
0,
0,
0,
0,
0,
3,
3,
4,
4,
8,
8,
2,
2,
-1,
-1,
2,
2,
4,
4,
0,
0,
-1,
-1,
-1,
-1,
-1,
-1,
4,
4,
6,
6,
1,
1,
5,
5,
9,
9,
6,
6,
7,
7,
6,
6,
0,
0,
4,
4,
8,
8,
13,
13,
11,
11,
7,
7,
4,
4,
3,
3,
11,
11,
15,
15,
19,
19,
25,
25,
16,
1,
4,
16,
16,
16,
16,
16,
10,
10,
4,
4,
2,
2,
1,
1,
-1,
-1,
1,
1,
0,
0,
-1,
-1,
0,
0,
-1,
-1,
-1,
-1,
3,
3,
10,
10,
11,
11,
4,
4,
-1,
-1,
0,
0,
-1,
-1,
-1,
-1,
-1,
-1,
-1,
-1,
0,
0,
2,
2,
8,
8,
11,
11,
2,
2,
1,
1,
-1,
12,
11,
11,
17,
17,
14,
14,
7,
7,
0,
0,
4,
4,
6,
6,
6,
6,
3,
3,
6,
20,
19,
19,
17,
17,
17,
17,
24,
24,
16,
2,
5,
27,
27,
40,
40,
40,
43,
43,
42,
10,
10,
23,
22,
53,
52,
52,
60,
40,
40,
19,
19,
2,
5,
26,
24,
35,
34,
34,
31,
31,
27,
27,
24,
3,
5,
5,
10,
10,
18,
31,
30,
30,
33,
9,
10,
10,
6,
6,
5,
5,
10,
10,
3,
3,
11,
11,
3,
3,
-1,
-1,
4,
4,
9,
9,
14,
14,
8,
8,
2,
2,
0,
0,
7,
7,
15,
15,
12,
12,
13,
13,
8,
8,
0,
0,
3,
3,
6,
6,
5,
5,
4,
4,
1,
1,
7,
7,
10,
10,
10,
10,
0,
11,
11,
11,
9,
9,
-1,
-1,
4,
4,
7,
7,
6,
6,
3,
3,
-1,
-1,
0,
0,
-1,
-1,
0,
0,
0,
0,
5,
5,
7,
7,
5,
5,
6,
6,
2,
2,
-1,
-1,
0,
0,
5,
5,
3,
3,
-1,
-1,
-1,
-1,
2,
2,
8,
8,
9,
9,
3,
3,
0,
0,
8,
8,
11,
11,
7,
7,
2,
2,
3,
3,
5,
5,
2,
2,
0,
0,
0,
0,
3,
3,
7,
7,
10,
10,
7,
7,
7,
7,
2,
2,
0,
0,
0,
0,
3,
3,
4,
4,
0,
0,
7,
7,
9,
9,
1,
1,
-1,
-1,
5,
5,
0,
0,
2,
2,
10,
10,
2,
2,
5,
5,
9,
9,
12,
12,
14,
14,
13,
13,
4,
4,
0,
0,
4,
4,
12,
12,
7,
7,
4,
4,
6,
6,
6,
6,
5,
5,
0,
0,
0,
0,
0,
0,
0,
0,
2,
2,
3,
3,
0,
0,
2,
2,
3,
3,
7,
7,
13,
48,
47,
47,
47,
6,
6,
18,
17,
17,
15,
15,
10,
10,
6,
6,
10,
10,
7,
22,
21,
21,
24,
24,
29,
29,
22,
9,
9,
9,
0,
0,
1,
1,
9,
23,
22,
22,
30,
30,
23,
9,
9,
9,
7,
7,
8,
8,
6,
6,
-1,
-1,
1,
1,
4,
4,
6,
6,
5,
5,
4,
4,
4,
4,
0,
0,
2,
2,
-1,
-1,
5,
5,
10,
10,
11,
11,
3,
16,
15,
15,
21,
21,
18,
18,
14,
14,
12,
12,
14,
14,
12,
12,
16,
16,
10,
10,
16,
32,
32,
32,
28,
17,
18,
18,
10,
10,
6,
6,
2,
2,
4,
4,
2,
2,
6,
6,
7,
7,
0,
0,
0,
0,
7,
7,
11,
11,
13,
13,
15,
15,
15,
15,
7,
7,
11,
11,
14,
0,
1,
1,
2,
2,
2,
2,
6,
6,
9,
9,
4,
4,
2,
2,
3,
3,
11,
11,
11,
-1,
1,
1,
3,
3,
2,
2,
6,
6,
6,
6,
3,
3,
11,
11,
6,
6,
5,
5,
4,
4,
4,
4,
7,
7,
11,
11,
10,
10,
7,
7,
8,
33,
33,
33,
32,
20,
21,
21,
18,
18,
25,
25,
22,
3,
4,
22,
22,
35,
34,
34,
34,
34,
26,
26,
18,
18,
14,
14,
8,
8,
3,
3,
4,
4,
10,
10,
11,
11,
13,
13,
17,
17,
14,
14,
12,
12,
8,
8,
6,
6,
7,
7,
2,
2,
1,
1,
4,
4,
3,
3,
-1,
-1,
4,
4,
4,
4,
0,
0,
8,
8,
6,
6,
2,
2,
1,
1,
11,
0,
2,
2,
9,
9,
0,
0,
4,
4,
3,
14,
12,
12,
14,
3,
3,
3,
3,
3,
7,
7,
14,
14,
8,
8,
4,
4,
7,
7,
11,
11,
20,
20,
18,
18,
10,
10,
7,
7,
0,
0,
2,
2,
0,
0,
4,
4,
12,
12,
10,
10,
12,
26,
25,
25,
24,
11,
11,
11,
14,
14,
11,
0,
4,
17,
15,
15,
22,
22,
16,
16,
11,
11,
11,
11,
14,
14,
13,
13,
4,
4,
5,
5,
10,
10,
14,
14,
16,
16,
17,
17,
14,
14,
10,
10,
11,
11,
15,
15,
8,
8,
7,
7,
15,
15,
18,
18,
16,
16,
11,
11,
5,
5,
3,
3,
8,
8,
15,
15,
12,
12,
7,
7,
2,
2,
7,
7,
1,
1,
1,
1,
7,
7,
7,
7,
2,
2,
2,
2,
0,
0,
-1,
-1,
4,
22,
20,
20,
25,
25,
15,
15,
14,
2,
4,
4,
9,
9,
15,
15,
18,
6,
6,
6,
8,
8,
12,
12,
6,
6,
5,
5,
7,
7,
6,
6,
8,
8,
7,
7,
6,
6,
2,
2,
5,
5,
13,
13,
13,
13,
13,
13,
20,
20,
20,
8,
8,
8,
6,
21,
20,
20,
23,
6,
6,
6,
0,
0,
9,
9,
15,
15,
16,
16,
10,
-1,
0,
0,
9,
9,
10,
10,
12,
12,
10,
10,
1,
1,
0,
0,
8,
8,
11,
11,
3,
3,
3,
3,
6,
6,
2,
2,
-1,
-1,
-1,
-1,
1,
1,
6,
6,
7,
7,
9,
9,
7,
7,
4,
4,
2,
2,
0,
0,
-2,
-2,
-1,
-1,
1,
1,
0,
0,
0,
0,
0,
0,
0,
0,
-1,
-1,
0,
0,
0,
0,
2,
2,
-1,
-1,
4,
4,
1,
1,
9,
9,
3,
14,
14,
14,
6,
6,
4,
4,
4,
16,
15,
3,
3,
18,
18,
18,
20,
2,
2,
2,
8,
8,
3,
3,
8,
8,
3,
3,
1,
1,
0,
0,
0,
0,
9,
26,
26,
26,
23,
12,
13,
0,
1,
19,
19,
19,
24,
12,
12,
-1,
0,
0,
0,
0,
3,
3,
2,
2,
4,
4,
5,
5,
0,
0,
-1,
-1,
1,
1,
-1,
-1,
0,
0,
2,
2,
5,
5,
6,
20,
19,
19,
20,
20,
13,
13,
6,
6,
0,
0,
5,
5,
0,
0,
7,
7,
9,
9,
5,
5,
2,
2,
2,
2,
2,
14,
13,
13,
9,
9,
2,
2,
2,
15,
14,
14,
16,
4,
6,
6,
-1,
-1,
2,
2,
0,
0,
-1,
-1,
-1,
-1,
-1,
-1,
-1,
-1,
4,
4,
11,
11,
17,
17,
24,
24,
29,
12,
13,
2,
7,
7,
4,
4,
0,
15,
14,
14,
21,
10,
10,
10,
3,
3,
3,
3,
0,
0,
-1,
-1,
2,
2,
0,
0,
2,
2,
0,
0,
6,
6,
9,
9,
5,
5,
3,
3,
11,
11,
4,
4,
9,
9,
10,
10,
6,
6,
0,
0,
3,
3,
0,
11,
11,
11,
13,
0,
0,
0,
8,
8,
8,
8,
6,
6,
3,
3,
7,
7,
1,
1,
2,
2,
4,
4,
2,
2,
1,
1,
5,
5,
6,
6,
13,
13,
5,
5,
2,
2,
7,
7,
8,
8,
4,
4,
5,
5,
9,
9,
2,
24,
23,
23,
22,
6,
7,
7,
5,
5,
2,
2,
6,
6,
7,
7,
3,
3,
4,
4,
8,
8,
9,
9,
14,
14,
16,
16,
12,
12,
12,
12,
8,
8,
2,
2,
8,
8,
12,
12,
15,
15,
9,
9,
1,
1,
0,
11,
11,
11,
17,
17,
14,
14,
11,
11,
11,
11,
3,
3,
4,
4,
10,
10,
11,
11,
5,
5,
3,
3,
5,
5,
2,
2,
6,
6,
6,
6,
-1,
-1,
6,
6,
5,
5,
6,
6,
3,
3,
2,
2,
0,
0,
0,
0,
4,
20,
19,
19,
23,
23,
20,
5,
5,
5,
14,
14,
18,
18,
19,
19,
17,
2,
3,
17,
17,
17,
20,
20,
17,
17,
11,
11,
2,
2,
6,
6,
11,
11,
14,
14,
7,
7,
5,
19,
19,
19,
20,
20,
16,
16,
12,
12,
5,
5,
0,
0,
0,
0,
-1,
-1,
0,
0,
0,
0,
3,
3,
7,
7,
5,
5,
2,
2,
4,
4,
9,
9,
6,
6,
6,
6,
10,
10,
13,
13,
4,
4,
4,
4,
5,
5,
1,
1,
0,
0,
3,
3,
1,
1,
2,
2,
4,
18,
17,
17,
10,
10,
2,
2,
2,
2,
2,
2,
4,
4,
8,
8,
6,
6,
2,
2,
1,
1,
11,
11,
9,
9,
17,
17,
10,
-1,
1,
1,
3,
3,
-1,
16,
15,
32,
31,
31,
22,
22,
14,
14,
15,
15,
12,
12,
6,
6,
8,
28,
28,
28,
35,
35,
28,
28,
32,
19,
19,
3,
9,
40,
40,
64,
63,
63,
66,
53,
54,
26,
27,
2,
3,
17,
16,
32,
32,
46,
46,
46,
46,
35,
35,
22,
22,
10,
12,
12,
12,
12,
10,
-1,
1,
12,
12,
12,
17,
17,
12,
25,
24,
24,
27,
14,
14,
14,
11,
11,
16,
16,
14,
2,
3,
3,
1,
1,
8,
8,
10,
10,
10,
10,
7,
7,
0,
0,
-1,
-1,
3,
3,
0,
0,
0,
0,
8,
21,
20,
20,
11,
-1,
0,
0,
0,
12,
11,
11,
10,
10,
6,
6,
14,
14,
21,
21,
15,
15,
11,
11,
8,
8,
3,
3,
10,
10,
14,
25,
24,
24,
28,
28,
22,
1,
2,
2,
10,
10,
10,
10,
13,
13,
16,
16,
12,
12,
10,
10,
2,
2,
9,
9,
10,
10,
5,
5,
3,
3,
2,
2,
2,
2,
3,
14,
13,
13,
15,
15,
15,
15,
7,
42,
41,
66,
66,
66,
67,
36,
36,
4,
5,
30,
30,
46,
46,
46,
39,
39,
34,
34,
36,
36,
42,
42,
43,
9,
10,
26,
26,
26,
24,
6,
6,
6,
6,
6,
7,
20,
20,
32,
31,
31,
25,
14,
15,
29,
28,
28,
37,
24,
26,
5,
12,
31,
31,
31,
32,
32,
34,
34,
40,
26,
27,
6,
7,
7,
14,
33,
32,
32,
30,
30,
26,
7,
7,
7,
8,
8,
8,
8,
0,
0,
1,
1,
8,
8,
4,
4,
9,
9,
15,
0,
0,
0,
0,
14,
14,
2,
3,
19,
18,
29,
29,
29,
23,
2,
5,
26,
26,
43,
42,
42,
35,
14,
14,
2,
8,
8,
15,
15,
8,
8,
6,
6,
10,
10,
11,
11,
10,
10,
8,
8,
6,
6,
4,
4,
0,
0,
7,
7,
11,
11,
14,
14,
19,
19,
27,
27,
21,
7,
7,
7,
2,
2,
10,
10,
13,
13,
14,
14,
13,
13,
6,
6,
1,
1,
2,
2,
1,
1,
-1,
-1,
2,
15,
15,
15,
14,
14,
7,
7,
7,
7,
3,
3,
-1,
-1,
2,
2,
5,
5,
9,
9,
7,
7,
0,
0,
2,
2,
1,
1,
8,
8,
14,
14,
10,
10,
7,
7,
4,
4,
1,
1,
5,
5,
1,
1,
5,
5,
3,
3,
11,
11,
5,
5,
-1,
12,
11,
26,
25,
25,
22,
2,
3,
22,
21,
21,
29,
29,
32,
32,
24,
24,
18,
18,
14,
1,
4,
4,
13,
13,
16,
16,
19,
19,
18,
7,
8,
8,
0,
0,
3,
3,
6,
6,
9,
9,
8,
8,
0,
0,
6,
6,
13,
13,
14,
1,
5,
23,
23,
23,
27,
27,
23,
11,
12,
12,
3,
3,
1,
1,
1,
1,
3,
3,
3,
18,
18,
18,
28,
28,
23,
6,
7,
7,
0,
0,
-1,
-1,
6,
26,
25,
25,
30,
19,
19,
19,
12,
12,
6,
6,
3,
3,
8,
8,
16,
16,
10,
10,
2,
2,
2,
2,
8,
8,
9,
9,
4,
4,
2,
2,
4,
4,
5,
5,
10,
10,
5,
25,
25,
36,
35,
24,
25,
25,
17,
17,
9,
9,
2,
2,
10,
10,
13,
13,
8,
8,
9,
9,
6,
6,
8,
8,
6,
6,
5,
16,
15,
15,
10,
10,
2,
2,
0,
0,
0,
0,
7,
7,
9,
9,
6,
6,
7,
7,
9,
9,
7,
7,
6,
6,
6,
25,
25,
43,
42,
42,
51,
51,
42,
11,
11,
11,
8,
8,
13,
29,
28,
41,
40,
40,
39,
39,
32,
32,
28,
16,
17,
5,
6,
6,
2,
2,
11,
11,
16,
16,
10,
10,
12,
12,
15,
15,
12,
24,
23,
23,
30,
30,
23,
6,
6,
6,
2,
2,
11,
11,
11,
11,
6,
6,
-1,
-1,
5,
5,
0,
0,
2,
2,
2,
2,
0,
0,
4,
4,
-1,
-1,
6,
6,
7,
7,
0,
0,
2,
2,
1,
1,
2,
2,
7,
7,
4,
4,
0,
0,
1,
1,
6,
6,
8,
8,
1,
1,
2,
2,
0,
0,
0,
0,
7,
7,
11,
11,
9,
9,
0,
0,
-1,
-1,
0,
0,
3,
3,
4,
4,
5,
5,
5,
5,
1,
1,
4,
4,
4,
4,
6,
6,
6,
6,
3,
14,
13,
13,
20,
3,
3,
18,
16,
16,
13,
13,
11,
11,
10,
10,
3,
3,
2,
2,
8,
8,
15,
32,
30,
47,
47,
28,
28,
2,
2,
14,
14,
14,
23,
23,
30,
30,
35,
35,
27,
12,
13,
13,
6,
6,
5,
29,
29,
46,
45,
45,
40,
28,
29,
8,
9,
9,
14,
14,
15,
15,
11,
11,
15,
15,
18,
18,
18,
18,
10,
10,
5,
5,
4,
4,
0,
0,
3,
3,
8,
8,
11,
11,
11,
11,
10,
10,
9,
9,
7,
7,
4,
4,
-1,
-1,
2,
2,
-1,
-1,
0,
0,
3,
3,
8,
8,
11,
11,
18,
18,
21,
7,
7,
7,
12,
12,
10,
10,
7,
7,
9,
9,
14,
31,
30,
30,
24,
24,
15,
15,
8,
8,
4,
4,
4,
4,
0,
0,
6,
6,
16,
16,
16,
16,
9,
9,
6,
6,
5,
5,
3,
3,
3,
3,
1,
1,
0,
0,
6,
6,
7,
7,
6,
6,
2,
2,
0,
0,
0,
0,
2,
2,
4,
4,
2,
2,
-1,
-1,
3,
3,
2,
2,
-1,
-1,
2,
2,
2,
2,
0,
0,
1,
1,
2,
2,
-1,
-1,
-1,
-1,
1,
1,
5,
5,
7,
7,
14,
14,
16,
16,
12,
0,
1,
1,
10,
10,
8,
8,
7,
7,
8,
8,
3,
3,
-1,
-1,
1,
1,
5,
5,
2,
2,
-1,
-1,
2,
2,
2,
2,
6,
6,
4,
4,
6,
6,
4,
4,
2,
2,
7,
7,
7,
7,
15,
27,
26,
26,
24,
6,
7,
7,
13,
13,
20,
20,
21,
21,
11,
11,
2,
2,
6,
6,
0,
0,
0,
0,
4,
4,
0,
21,
20,
35,
33,
7,
7,
7,
12,
12,
9,
9,
6,
6,
9,
9,
16,
16,
22,
22,
16,
16,
10,
10,
2,
23,
22,
38,
37,
26,
27,
27,
22,
42,
42,
31,
31,
3,
4,
4,
9,
9,
15,
15,
22,
22,
26,
26,
24,
24,
19,
3,
5,
5,
0,
0,
1,
15,
15,
29,
28,
28,
30,
10,
