EMG_S1/DS0176.CSV

Memory Length,4000,
Trigger Level,0.00000e+00,
Source,CH1,
Probe,1.0X,
Vertical Units,V,
Vertical Scale,1.00000e+00,
Vertical Position,4.00000e-02,
Horizontal Units,S,
Horizontal Scale,1.00000e-01,
Horizontal Position,0.0000000e+00,
Horizontal Mode,Roll Mode,
Waveform Last Dot Address,4000,
Sampling Period,4.00000e-04,
Firmware,V1.14,
Time, ,
Mode,Fast,
Waveform Data,
10,
-1,
2,
2,
4,
4,
-1,
-1,
8,
8,
2,
2,
0,
0,
0,
0,
0,
0,
2,
2,
3,
3,
0,
0,
-1,
-1,
7,
7,
11,
11,
2,
17,
16,
35,
34,
18,
18,
2,
7,
24,
23,
23,
19,
19,
11,
11,
11,
11,
4,
4,
7,
7,
14,
14,
9,
9,
7,
7,
6,
6,
0,
0,
6,
6,
1,
1,
-1,
-1,
1,
1,
1,
1,
1,
1,
0,
0,
0,
0,
6,
6,
6,
6,
9,
9,
7,
7,
4,
4,
5,
5,
0,
0,
3,
3,
5,
5,
10,
10,
15,
15,
21,
21,
23,
3,
4,
23,
22,
22,
24,
24,
26,
26,
35,
35,
42,
54,
54,
42,
42,
15,
15,
4,
23,
58,
56,
56,
66,
49,
50,
30,
30,
19,
19,
19,
11,
11,
2,
2,
9,
9,
6,
6,
1,
1,
0,
0,
0,
23,
22,
42,
41,
41,
36,
21,
22,
10,
11,
0,
6,
17,
16,
16,
16,
16,
22,
5,
5,
5,
9,
23,
23,
23,
19,
19,
16,
16,
13,
2,
3,
3,
7,
7,
12,
12,
16,
16,
17,
17,
14,
14,
7,
7,
2,
2,
3,
16,
15,
15,
23,
23,
19,
8,
9,
9,
3,
3,
7,
7,
0,
0,
4,
4,
6,
6,
-1,
-1,
0,
0,
2,
2,
4,
4,
0,
0,
6,
6,
8,
8,
12,
12,
6,
6,
6,
6,
10,
10,
2,
2,
2,
2,
0,
0,
0,
0,
2,
2,
3,
3,
1,
1,
5,
5,
11,
11,
8,
8,
2,
2,
6,
6,
6,
6,
2,
2,
3,
3,
-1,
-1,
7,
7,
8,
8,
4,
4,
0,
0,
2,
2,
10,
10,
5,
5,
5,
5,
11,
-1,
0,
0,
3,
3,
10,
10,
2,
14,
14,
34,
33,
33,
40,
27,
27,
12,
13,
0,
1,
1,
6,
6,
13,
13,
17,
17,
18,
18,
15,
15,
13,
13,
9,
9,
1,
1,
6,
6,
11,
11,
10,
10,
11,
11,
7,
7,
0,
11,
10,
10,
15,
15,
15,
2,
4,
19,
18,
18,
16,
16,
12,
12,
11,
11,
7,
7,
9,
9,
6,
6,
2,
18,
18,
18,
23,
12,
12,
1,
4,
4,
6,
6,
2,
2,
6,
6,
10,
10,
16,
16,
23,
23,
17,
0,
1,
1,
5,
5,
8,
8,
16,
16,
20,
20,
10,
10,
4,
4,
6,
6,
9,
9,
0,
0,
5,
5,
9,
9,
9,
9,
7,
7,
6,
6,
6,
6,
0,
0,
4,
4,
7,
7,
6,
6,
13,
13,
19,
8,
8,
8,
3,
3,
6,
6,
3,
3,
5,
5,
9,
9,
13,
13,
12,
12,
5,
5,
4,
4,
2,
2,
-2,
-2,
0,
0,
-1,
-1,
0,
0,
4,
4,
9,
9,
12,
12,
8,
8,
0,
0,
-1,
-1,
3,
3,
5,
5,
0,
0,
1,
1,
5,
5,
5,
5,
1,
1,
8,
8,
6,
6,
1,
15,
15,
15,
23,
9,
10,
10,
4,
4,
3,
3,
3,
3,
0,
0,
0,
0,
10,
10,
14,
14,
11,
11,
19,
19,
21,
21,
12,
12,
3,
23,
23,
44,
44,
44,
40,
27,
28,
4,
5,
5,
10,
10,
15,
15,
16,
16,
8,
8,
6,
6,
4,
4,
-1,
-1,
7,
7,
5,
5,
0,
0,
6,
6,
5,
5,
0,
0,
-1,
-1,
0,
0,
1,
1,
0,
0,
-1,
-1,
0,
0,
0,
0,
-1,
-1,
3,
3,
3,
3,
0,
0,
8,
8,
7,
7,
2,
2,
0,
0,
4,
4,
6,
6,
5,
5,
6,
6,
2,
2,
6,
6,
7,
7,
2,
13,
12,
24,
24,
24,
16,
16,
18,
18,
22,
22,
15,
2,
7,
20,
19,
19,
21,
21,
18,
18,
22,
22,
26,
26,
16,
-1,
0,
0,
0,
0,
0,
0,
8,
8,
10,
10,
11,
11,
6,
6,
8,
8,
10,
10,
1,
13,
13,
34,
32,
32,
37,
23,
23,
23,
14,
14,
12,
12,
13,
13,
11,
11,
11,
33,
32,
32,
30,
30,
24,
24,
19,
19,
12,
12,
8,
8,
7,
7,
0,
0,
8,
8,
14,
14,
19,
19,
20,
7,
8,
8,
0,
0,
0,
0,
3,
3,
6,
21,
20,
20,
18,
7,
9,
9,
1,
1,
6,
6,
9,
9,
11,
11,
11,
11,
11,
11,
4,
4,
3,
3,
1,
1,
1,
1,
1,
1,
2,
2,
5,
5,
6,
6,
12,
12,
19,
19,
14,
-1,
1,
1,
-1,
-1,
2,
2,
2,
2,
0,
0,
3,
3,
3,
3,
1,
1,
1,
1,
7,
7,
8,
8,
1,
1,
0,
0,
1,
1,
1,
1,
1,
1,
3,
3,
0,
0,
3,
3,
-1,
-1,
1,
1,
0,
0,
1,
1,
4,
4,
8,
8,
10,
10,
3,
3,
-1,
-1,
7,
7,
13,
13,
8,
8,
6,
6,
2,
2,
2,
2,
3,
3,
6,
6,
2,
2,
-1,
-1,
2,
2,
6,
6,
13,
13,
19,
19,
10,
-1,
0,
0,
6,
6,
4,
4,
9,
9,
9,
46,
45,
45,
48,
22,
22,
2,
5,
5,
15,
15,
16,
2,
4,
4,
13,
2,
5,
26,
25,
25,
23,
23,
15,
15,
11,
11,
6,
6,
-1,
12,
11,
27,
27,
27,
36,
36,
43,
43,
42,
18,
19,
1,
3,
24,
23,
41,
41,
41,
40,
26,
27,
10,
10,
-1,
2,
2,
-1,
-1,
3,
3,
2,
2,
0,
0,
5,
5,
2,
2,
9,
21,
20,
20,
27,
27,
25,
11,
11,
11,
3,
3,
0,
0,
5,
5,
4,
4,
3,
3,
5,
5,
8,
8,
8,
8,
2,
2,
0,
0,
9,
9,
16,
16,
7,
7,
7,
7,
11,
11,
5,
5,
2,
2,
2,
2,
1,
1,
2,
2,
-1,
-1,
1,
1,
4,
4,
5,
5,
0,
0,
1,
1,
10,
10,
10,
10,
6,
6,
2,
2,
-1,
-1,
-1,
-1,
-1,
-1,
1,
1,
4,
4,
9,
9,
12,
12,
15,
15,
11,
22,
22,
35,
33,
16,
16,
16,
8,
8,
5,
5,
6,
6,
1,
14,
13,
13,
16,
16,
16,
16,
15,
1,
3,
21,
20,
20,
25,
14,
14,
0,
2,
2,
9,
9,
12,
12,
8,
8,
4,
4,
2,
2,
1,
1,
4,
4,
6,
6,
3,
3,
0,
0,
-1,
-1,
4,
4,
1,
1,
0,
0,
1,
1,
10,
32,
31,
31,
23,
4,
5,
5,
12,
12,
16,
3,
16,
36,
34,
11,
12,
12,
9,
9,
12,
12,
8,
8,
10,
24,
23,
23,
26,
26,
16,
16,
8,
8,
2,
2,
1,
1,
2,
2,
2,
20,
20,
31,
31,
31,
38,
38,
31,
17,
18,
3,
4,
4,
1,
1,
-1,
10,
10,
10,
19,
19,
21,
21,
23,
23,
16,
4,
5,
5,
2,
2,
6,
6,
8,
8,
8,
8,
8,
8,
5,
5,
4,
4,
5,
5,
6,
6,
3,
3,
1,
1,
5,
5,
4,
4,
-1,
-1,
-1,
-1,
-1,
-1,
0,
0,
-1,
-1,
0,
0,
0,
0,
0,
0,
-1,
-1,
0,
0,
2,
2,
3,
3,
0,
0,
3,
3,
2,
2,
9,
9,
16,
16,
13,
-1,
1,
1,
0,
0,
-1,
-1,
-1,
-1,
3,
3,
3,
3,
3,
3,
0,
0,
0,
0,
4,
4,
2,
2,
9,
9,
16,
16,
7,
22,
22,
38,
38,
38,
32,
19,
19,
19,
12,
0,
2,
2,
9,
9,
7,
7,
12,
12,
19,
19,
16,
16,
16,
2,
2,
2,
3,
3,
0,
14,
14,
14,
22,
22,
20,
20,
20,
20,
22,
22,
20,
2,
3,
27,
26,
40,
39,
39,
40,
26,
27,
3,
5,
27,
26,
26,
24,
11,
12,
0,
4,
4,
8,
8,
2,
18,
17,
17,
16,
16,
19,
19,
26,
11,
12,
1,
7,
18,
18,
18,
20,
20,
20,
20,
18,
18,
16,
16,
19,
8,
8,
22,
21,
48,
47,
47,
43,
30,
31,
10,
10,
10,
6,
6,
10,
10,
2,
18,
18,
31,
31,
31,
31,
31,
28,
28,
28,
28,
21,
3,
3,
3,
4,
4,
8,
8,
16,
16,
20,
20,
19,
19,
25,
25,
16,
16,
8,
8,
0,
0,
1,
1,
4,
4,
-1,
-1,
5,
5,
7,
7,
2,
2,
11,
11,
13,
13,
8,
8,
7,
7,
12,
12,
11,
11,
5,
5,
3,
3,
2,
2,
3,
3,
3,
3,
2,
2,
-1,
-1,
6,
6,
13,
13,
8,
8,
3,
3,
5,
5,
3,
3,
6,
6,
15,
2,
3,
21,
19,
32,
30,
9,
9,
9,
4,
4,
6,
6,
8,
8,
3,
3,
0,
0,
0,
0,
2,
2,
0,
0,
0,
0,
7,
7,
3,
3,
0,
0,
3,
3,
-1,
-1,
6,
6,
6,
6,
5,
5,
1,
1,
-1,
-1,
3,
3,
6,
6,
11,
11,
16,
1,
3,
3,
7,
7,
7,
20,
20,
20,
15,
1,
2,
22,
20,
20,
29,
16,
17,
17,
8,
8,
6,
6,
11,
39,
38,
38,
36,
9,
9,
9,
15,
26,
26,
26,
17,
0,
3,
3,
10,
10,
6,
6,
0,
0,
4,
4,
6,
6,
7,
7,
8,
8,
10,
10,
8,
8,
6,
6,
0,
21,
20,
34,
33,
33,
32,
32,
27,
14,
14,
2,
3,
3,
6,
17,
17,
17,
24,
24,
16,
0,
2,
2,
8,
8,
7,
7,
0,
0,
4,
4,
6,
6,
7,
7,
7,
7,
4,
4,
4,
4,
11,
11,
10,
10,
5,
5,
0,
0,
4,
4,
1,
1,
0,
0,
1,
1,
4,
4,
0,
0,
8,
8,
9,
9,
6,
6,
7,
7,
9,
9,
6,
6,
4,
19,
18,
18,
18,
18,
16,
16,
8,
8,
7,
7,
2,
2,
4,
4,
6,
6,
7,
7,
3,
3,
2,
2,
10,
10,
8,
8,
10,
10,
11,
0,
0,
0,
8,
8,
10,
10,
6,
6,
6,
6,
3,
16,
15,
15,
10,
10,
4,
4,
2,
2,
2,
2,
10,
10,
10,
10,
6,
6,
5,
5,
15,
15,
17,
17,
14,
14,
13,
13,
16,
16,
7,
7,
6,
18,
17,
17,
23,
23,
31,
31,
30,
13,
13,
13,
5,
5,
2,
13,
12,
12,
10,
-1,
0,
0,
0,
0,
6,
6,
4,
4,
6,
6,
12,
12,
17,
17,
17,
6,
6,
6,
1,
1,
6,
6,
5,
5,
10,
10,
16,
16,
14,
14,
5,
5,
0,
0,
2,
2,
0,
0,
4,
4,
4,
22,
21,
35,
35,
35,
27,
2,
2,
19,
19,
32,
32,
32,
24,
24,
14,
0,
3,
14,
13,
13,
12,
12,
7,
7,
7,
7,
2,
2,
5,
5,
4,
4,
6,
6,
8,
8,
7,
7,
3,
3,
2,
2,
7,
23,
22,
22,
25,
2,
3,
14,
13,
13,
18,
18,
11,
-1,
1,
1,
5,
5,
2,
2,
2,
2,
0,
0,
8,
8,
11,
11,
3,
3,
1,
1,
2,
2,
3,
3,
2,
2,
-1,
-1,
-1,
-1,
0,
0,
10,
10,
6,
6,
4,
4,
3,
14,
13,
13,
20,
20,
25,
25,
34,
16,
17,
2,
6,
6,
14,
14,
21,
21,
26,
26,
28,
13,
13,
13,
5,
5,
6,
6,
1,
1,
5,
5,
1,
16,
15,
26,
25,
25,
24,
24,
18,
18,
17,
6,
6,
6,
6,
6,
13,
13,
18,
18,
14,
14,
10,
10,
6,
6,
6,
23,
22,
22,
20,
20,
11,
11,
12,
12,
12,
12,
14,
30,
30,
18,
18,
3,
14,
29,
28,
28,
30,
30,
33,
33,
32,
32,
24,
12,
12,
12,
6,
6,
1,
1,
8,
22,
21,
35,
34,
49,
48,
48,
50,
13,
13,
13,
16,
16,
22,
22,
23,
23,
22,
22,
15,
0,
1,
14,
13,
13,
16,
16,
12,
12,
9,
9,
11,
11,
10,
10,
2,
17,
16,
16,
19,
19,
10,
-1,
1,
1,
1,
14,
14,
14,
22,
22,
15,
0,
2,
20,
18,
18,
27,
27,
19,
8,
8,
8,
4,
4,
11,
29,
28,
28,
31,
31,
29,
13,
14,
0,
1,
1,
1,
1,
3,
3,
2,
2,
4,
4,
7,
7,
10,
10,
7,
7,
10,
10,
16,
16,
19,
7,
8,
8,
-1,
-1,
5,
5,
13,
13,
8,
8,
1,
1,
3,
3,
0,
0,
0,
0,
0,
0,
-1,
-1,
7,
18,
18,
30,
30,
30,
33,
33,
26,
26,
31,
31,
27,
10,
10,
10,
16,
37,
36,
36,
40,
40,
34,
14,
15,
15,
8,
8,
14,
14,
12,
12,
3,
3,
3,
3,
8,
8,
2,
13,
12,
12,
20,
20,
21,
21,
15,
15,
7,
7,
7,
7,
8,
8,
11,
11,
8,
8,
3,
14,
13,
13,
15,
15,
8,
8,
1,
12,
12,
29,
29,
29,
31,
15,
15,
15,
7,
7,
1,
14,
13,
13,
20,
20,
23,
23,
24,
24,
14,
0,
0,
0,
0,
0,
7,
7,
13,
2,
2,
2,
4,
21,
20,
20,
27,
27,
25,
25,
22,
10,
10,
10,
8,
19,
18,
30,
29,
15,
15,
2,
8,
20,
19,
19,
21,
21,
11,
0,
1,
1,
4,
4,
5,
5,
7,
7,
11,
11,
2,
2,
4,
4,
9,
9,
4,
4,
0,
0,
-1,
-1,
2,
2,
3,
3,
2,
2,
0,
0,
0,
0,
-1,
-1,
5,
5,
10,
10,
8,
8,
5,
5,
0,
0,
0,
0,
1,
1,
3,
3,
1,
1,
8,
8,
1,
1,
0,
0,
3,
3,
8,
8,
15,
15,
14,
14,
7,
7,
0,
0,
0,
0,
2,
2,
11,
11,
9,
9,
8,
8,
12,
0,
1,
1,
10,
10,
12,
12,
9,
9,
15,
28,
27,
27,
23,
1,
2,
2,
10,
10,
14,
14,
19,
8,
8,
8,
9,
9,
4,
4,
3,
3,
10,
10,
15,
15,
15,
15,
16,
16,
7,
7,
3,
14,
12,
12,
17,
17,
14,
14,
11,
11,
9,
9,
0,
0,
4,
4,
13,
13,
8,
8,
8,
8,
7,
7,
8,
8,
2,
2,
0,
0,
5,
5,
9,
9,
5,
5,
3,
3,
6,
6,
4,
4,
0,
0,
2,
2,
-1,
-1,
6,
6,
4,
4,
0,
0,
3,
3,
7,
7,
5,
5,
2,
2,
0,
0,
0,
0,
2,
2,
9,
9,
6,
6,
10,
10,
11,
0,
2,
2,
1,
1,
10,
23,
21,
4,
12,
29,
28,
13,
14,
2,
8,
8,
11,
0,
1,
1,
10,
10,
8,
8,
11,
0,
5,
5,
10,
10,
4,
4,
7,
7,
8,
8,
0,
0,
-1,
-1,
7,
7,
7,
7,
1,
1,
6,
6,
1,
1,
5,
5,
11,
11,
4,
4,
4,
4,
6,
6,
13,
13,
13,
13,
14,
14,
13,
1,
5,
18,
16,
16,
24,
24,
18,
0,
1,
1,
6,
6,
2,
2,
3,
17,
15,
15,
16,
2,
4,
4,
4,
4,
1,
1,
3,
3,
8,
8,
8,
8,
6,
6,
4,
4,
3,
3,
8,
8,
3,
3,
2,
2,
0,
0,
6,
6,
15,
15,
8,
8,
0,
0,
9,
23,
23,
23,
17,
17,
15,
15,
7,
7,
11,
23,
23,
23,
30,
30,
27,
27,
28,
28,
23,
9,
10,
10,
12,
45,
45,
66,
64,
50,
50,
7,
8,
21,
20,
20,
26,
26,
21,
21,
16,
16,
13,
13,
10,
10,
6,
6,
3,
3,
-1,
-1,
5,
5,
5,
5,
4,
4,
7,
7,
13,
13,
20,
20,
18,
3,
3,
3,
-1,
-1,
1,
1,
4,
4,
4,
4,
4,
4,
1,
1,
7,
7,
4,
4,
10,
10,
17,
17,
16,
16,
6,
6,
5,
5,
0,
15,
14,
14,
22,
22,
31,
31,
31,
11,
11,
-1,
0,
0,
0,
0,
7,
7,
12,
12,
16,
2,
4,
4,
13,
0,
2,
2,
10,
10,
18,
18,
19,
19,
18,
18,
16,
3,
3,
3,
8,
8,
13,
13,
17,
17,
22,
22,
23,
12,
14,
2,
2,
2,
0,
0,
5,
5,
7,
7,
8,
8,
5,
5,
3,
3,
9,
9,
17,
29,
28,
8,
8,
8,
7,
7,
8,
8,
11,
0,
1,
1,
-1,
-1,
4,
4,
7,
7,
10,
10,
4,
4,
9,
9,
13,
13,
6,
6,
5,
5,
3,
3,
2,
2,
6,
6,
0,
0,
7,
7,
1,
1,
0,
0,
-1,
-1,
-1,
-1,
3,
3,
5,
5,
6,
6,
2,
2,
7,
7,
11,
11,
6,
6,
3,
3,
0,
11,
11,
11,
11,
-1,
0,
0,
6,
6,
4,
4,
3,
3,
1,
1,
2,
2,
6,
6,
-1,
10,
9,
9,
10,
10,
13,
2,
3,
31,
30,
30,
38,
27,
28,
28,
18,
6,
6,
6,
6,
6,
2,
2,
4,
16,
15,
15,
16,
16,
19,
19,
25,
25,
27,
15,
15,
0,
1,
1,
-1,
-1,
3,
18,
18,
32,
32,
32,
31,
20,
21,
6,
7,
7,
0,
0,
0,
0,
7,
7,
7,
7,
0,
0,
8,
8,
8,
8,
0,
0,
7,
7,
15,
15,
11,
0,
4,
15,
14,
14,
14,
14,
14,
14,
6,
6,
-1,
-1,
0,
0,
6,
6,
15,
15,
11,
11,
7,
7,
4,
4,
2,
2,
7,
7,
6,
6,
2,
2,
6,
6,
7,
7,
2,
2,
5,
5,
10,
10,
7,
7,
2,
2,
6,
6,
2,
2,
1,
21,
20,
20,
18,
4,
4,
4,
-1,
-1,
1,
1,
8,
8,
9,
9,
9,
9,
5,
5,
4,
4,
7,
7,
8,
8,
16,
16,
19,
19,
16,
16,
22,
22,
26,
8,
9,
9,
2,
2,
5,
5,
10,
10,
19,
19,
23,
23,
18,
18,
15,
15,
11,
11,
18,
18,
21,
21,
16,
2,
5,
40,
40,
51,
50,
50,
44,
28,
28,
6,
7,
7,
8,
8,
12,
12,
11,
11,
11,
11,
6,
6,
4,
4,
5,
5,
2,
2,
4,
4,
2,
2,
3,
3,
1,
1,
6,
6,
11,
11,
14,
14,
14,
14,
11,
11,
7,
7,
8,
8,
15,
29,
28,
12,
13,
0,
3,
3,
5,
5,
4,
4,
2,
2,
5,
17,
17,
17,
23,
23,
18,
18,
12,
12,
14,
14,
10,
-1,
0,
0,
6,
23,
23,
36,
35,
35,
35,
17,
18,
0,
0,
0,
2,
2,
4,
4,
8,
8,
9,
9,
7,
7,
5,
5,
0,
0,
-1,
-1,
5,
5,
8,
8,
9,
9,
2,
2,
0,
0,
-1,
-1,
6,
6,
0,
0,
3,
3,
3,
14,
12,
12,
5,
5,
3,
3,
8,
8,
4,
4,
2,
2,
8,
8,
3,
3,
2,
2,
6,
6,
6,
6,
4,
4,
11,
11,
12,
12,
3,
3,
12,
26,
26,
15,
15,
0,
2,
2,
3,
3,
4,
4,
3,
3,
8,
21,
20,
20,
24,
7,
7,
7,
8,
8,
13,
13,
13,
13,
11,
11,
10,
10,
10,
10,
13,
13,
11,
11,
6,
6,
8,
27,
27,
39,
38,
15,
16,
-1,
1,
1,
5,
5,
6,
6,
0,
0,
1,
1,
4,
4,
5,
5,
3,
3,
3,
3,
6,
6,
-1,
-1,
3,
3,
1,
1,
6,
6,
10,
10,
5,
5,
4,
4,
11,
25,
24,
24,
16,
1,
6,
6,
8,
8,
6,
6,
7,
7,
15,
15,
21,
8,
9,
9,
7,
19,
19,
8,
8,
8,
-1,
-1,
6,
6,
15,
15,
16,
2,
6,
32,
31,
42,
42,
42,
39,
27,
28,
28,
19,
19,
12,
12,
5,
5,
4,
17,
17,
28,
27,
27,
32,
32,
36,
36,
34,
34,
30,
30,
20,
2,
7,
7,
14,
14,
11,
11,
11,
11,
13,
13,
14,
14,
10,
10,
1,
1,
3,
3,
1,
1,
2,
2,
1,
1,
1,
1,
2,
2,
2,
2,
1,
1,
-1,
-1,
-1,
-1,
-1,
-1,
0,
15,
15,
15,
9,
9,
1,
1,
3,
3,
7,
7,
2,
2,
-1,
-1,
0,
0,
4,
4,
6,
6,
9,
9,
7,
7,
4,
4,
1,
1,
1,
1,
7,
7,
5,
5,
8,
8,
5,
5,
0,
0,
4,
4,
8,
8,
6,
6,
-1,
-1,
-1,
-1,
2,
2,
1,
1,
0,
14,
13,
13,
16,
3,
4,
4,
3,
22,
21,
34,
34,
34,
39,
22,
22,
1,
3,
15,
15,
31,
30,
30,
29,
16,
17,
17,
16,
5,
6,
6,
6,
6,
8,
8,
14,
14,
19,
19,
15,
0,
2,
2,
7,
7,
5,
5,
10,
10,
3,
3,
0,
0,
0,
0,
6,
6,
6,
6,
3,
3,
0,
0,
0,
0,
0,
0,
-1,
-1,
0,
0,
2,
2,
0,
0,
5,
5,
8,
8,
14,
14,
5,
5,
0,
0,
9,
9,
9,
9,
3,
3,
12,
12,
7,
7,
6,
6,
11,
11,
5,
5,
9,
9,
6,
6,
8,
8,
14,
14,
14,
14,
14,
14,
8,
8,
0,
0,
3,
3,
2,
2,
8,
8,
6,
6,
3,
3,
7,
7,
12,
12,
15,
15,
10,
-1,
0,
12,
12,
12,
9,
9,
2,
2,
6,
6,
10,
10,
17,
17,
16,
16,
7,
7,
6,
6,
2,
2,
9,
9,
14,
14,
15,
15,
7,
7,
2,
2,
4,
4,
3,
3,
5,
5,
8,
8,
2,
2,
10,
10,
8,
8,
4,
4,
7,
7,
6,
6,
1,
1,
-1,
-1,
0,
0,
1,
1,
2,
2,
3,
3,
1,
1,
0,
0,
3,
3,
-1,
-1,
2,
2,
6,
6,
13,
13,
8,
8,
5,
5,
0,
0,
3,
3,
4,
4,
6,
6,
0,
0,
3,
3,
0,
0,
0,
0,
4,
4,
4,
4,
1,
1,
0,
0,
-1,
-1,
-1,
-1,
-2,
-2,
4,
4,
2,
2,
3,
3,
0,
0,
2,
2,
5,
5,
7,
7,
7,
7,
2,
2,
4,
4,
5,
5,
4,
4,
0,
0,
2,
2,
3,
3,
6,
6,
8,
8,
7,
7,
0,
0,
2,
2,
-1,
-1,
0,
0,
-2,
-2,
2,
2,
7,
7,
7,
7,
13,
13,
8,
8,
7,
7,
6,
6,
12,
12,
16,
4,
6,
18,
17,
30,
29,
29,
24,
2,
3,
18,
17,
17,
26,
26,
23,
8,
9,
9,
3,
14,
13,
13,
18,
18,
15,
2,
3,
3,
0,
0,
1,
1,
9,
23,
23,
23,
21,
21,
20,
9,
10,
10,
15,
28,
27,
12,
13,
13,
13,
13,
22,
22,
19,
7,
7,
7,
-1,
-1,
0,
0,
8,
8,
4,
4,
8,
8,
13,
13,
21,
21,
23,
23,
18,
7,
8,
8,
1,
1,
2,
2,
6,
6,
5,
5,
8,
8,
15,
15,
16,
16,
11,
11,
4,
4,
0,
0,
-1,
-1,
-1,
10,
10,
10,
9,
9,
4,
4,
6,
6,
4,
4,
5,
5,
1,
1,
0,
0,
1,
1,
-1,
-1,
3,
3,
5,
5,
6,
6,
7,
7,
8,
8,
6,
6,
2,
2,
8,
8,
12,
12,
7,
7,
1,
1,
1,
1,
2,
2,
0,
0,
3,
3,
1,
1,
-1,
-1,
5,
5,
9,
9,
4,
4,
7,
7,
5,
5,
1,
1,
3,
3,
1,
13,
12,
12,
9,
9,
7,
19,
18,
4,
15,
57,
57,
57,
65,
27,
28,
6,
16,
32,
30,
30,
39,
39,
38,
26,
27,
16,
16,
16,
11,
-1,
0,
0,
6,
6,
15,
15,
21,
21,
16,
16,
9,
9,
2,
2,
0,
12,
12,
12,
10,
10,
1,
1,
1,
1,
2,
2,
2,
2,
2,
2,
6,
6,
1,
1,
9,
9,
7,
7,
0,
0,
8,
8,
2,
2,
0,
0,
3,
3,
3,
3,
12,
12,
15,
15,
19,
2,
2,
2,
10,
10,
13,
13,
13,
13,
5,
5,
1,
1,
4,
4,
7,
7,
3,
3,
6,
6,
11,
11,
16,
16,
9,
9,
1,
1,
4,
4,
4,
4,
0,
0,
2,
2,
8,
8,
7,
7,
2,
2,
0,
0,
7,
21,
20,
20,
14,
14,
7,
7,
12,
12,
16,
16,
11,
-1,
0,
0,
2,
2,
2,
2,
11,
11,
20,
20,
16,
16,
9,
9,
1,
1,
6,
6,
2,
2,
10,
10,
10,
10,
1,
1,
6,
6,
13,
13,
17,
17,
9,
9,
0,
0,
3,
3,
0,
0,
7,
7,
6,
6,
0,
0,
2,
2,
-1,
-1,
6,
6,
13,
13,
9,
9,
1,
1,
6,
6,
