EMG_S1/DS0166.CSV

Memory Length,4000,
Trigger Level,0.00000e+00,
Source,CH1,
Probe,1.0X,
Vertical Units,V,
Vertical Scale,1.00000e+00,
Vertical Position,4.00000e-02,
Horizontal Units,S,
Horizontal Scale,1.00000e-01,
Horizontal Position,0.0000000e+00,
Horizontal Mode,Roll Mode,
Waveform Last Dot Address,4000,
Sampling Period,4.00000e-04,
Firmware,V1.14,
Time, ,
Mode,Fast,
Waveform Data,
0,
0,
0,
0,
6,
6,
1,
1,
0,
0,
2,
2,
0,
0,
0,
0,
5,
5,
7,
7,
6,
6,
2,
2,
-1,
-1,
0,
0,
5,
5,
6,
6,
14,
27,
27,
27,
21,
1,
2,
2,
10,
10,
12,
12,
13,
13,
14,
14,
16,
16,
8,
8,
4,
4,
3,
3,
-1,
-1,
3,
3,
8,
8,
10,
10,
8,
8,
7,
7,
8,
8,
7,
7,
6,
6,
5,
5,
6,
6,
3,
3,
0,
12,
11,
11,
13,
2,
2,
2,
4,
4,
1,
1,
-1,
-1,
0,
0,
0,
0,
4,
4,
8,
8,
10,
10,
0,
0,
9,
9,
11,
0,
2,
14,
14,
14,
12,
12,
3,
3,
3,
3,
4,
4,
1,
1,
-1,
-1,
-2,
-2,
1,
1,
-1,
-1,
0,
0,
2,
2,
1,
1,
7,
7,
3,
3,
-1,
-1,
-1,
-1,
0,
0,
0,
0,
-1,
-1,
1,
1,
0,
0,
1,
1,
-1,
-1,
0,
0,
-1,
-1,
3,
3,
10,
10,
4,
4,
0,
0,
6,
6,
7,
7,
0,
0,
5,
16,
15,
15,
16,
16,
10,
10,
2,
19,
18,
39,
39,
39,
34,
11,
11,
0,
6,
17,
16,
16,
24,
24,
28,
7,
7,
7,
10,
10,
13,
0,
1,
1,
6,
6,
4,
4,
-1,
-1,
0,
0,
0,
0,
8,
8,
12,
12,
10,
10,
4,
4,
4,
4,
2,
2,
1,
1,
0,
0,
1,
1,
1,
1,
0,
0,
1,
1,
3,
3,
2,
2,
0,
0,
1,
1,
-1,
-1,
-1,
-1,
1,
1,
2,
2,
2,
2,
5,
5,
-1,
-1,
8,
8,
16,
16,
15,
4,
4,
4,
1,
1,
0,
0,
6,
6,
12,
12,
10,
10,
6,
6,
3,
19,
18,
18,
20,
7,
7,
7,
1,
1,
5,
5,
10,
10,
11,
11,
7,
7,
5,
5,
2,
2,
-1,
-1,
-1,
-1,
3,
3,
4,
4,
3,
3,
7,
7,
10,
10,
10,
10,
6,
6,
8,
8,
1,
1,
5,
5,
4,
4,
1,
1,
1,
1,
2,
2,
10,
10,
10,
10,
0,
12,
10,
10,
14,
14,
10,
10,
6,
6,
-1,
-1,
1,
1,
3,
3,
9,
9,
10,
10,
12,
12,
19,
19,
20,
8,
9,
9,
1,
1,
8,
8,
13,
13,
12,
12,
11,
11,
8,
8,
0,
0,
4,
4,
0,
0,
-1,
-1,
2,
2,
2,
2,
-1,
-1,
0,
0,
1,
1,
4,
4,
8,
8,
2,
2,
0,
0,
3,
3,
-1,
-1,
2,
2,
8,
8,
9,
9,
6,
6,
4,
4,
0,
0,
6,
6,
10,
10,
14,
14,
11,
0,
0,
11,
10,
10,
15,
15,
18,
18,
17,
17,
11,
11,
6,
6,
2,
2,
0,
0,
7,
7,
9,
9,
16,
16,
11,
0,
1,
1,
-1,
-1,
-1,
-1,
5,
5,
12,
12,
4,
4,
-1,
-1,
-1,
-1,
1,
1,
-1,
-1,
6,
6,
2,
2,
3,
3,
2,
2,
0,
0,
3,
3,
1,
1,
0,
0,
3,
3,
2,
2,
3,
3,
2,
2,
3,
3,
11,
11,
11,
11,
11,
0,
0,
0,
9,
9,
10,
10,
6,
6,
11,
11,
11,
40,
39,
39,
41,
19,
20,
2,
8,
20,
20,
20,
27,
27,
21,
9,
10,
10,
3,
3,
0,
0,
3,
3,
1,
1,
2,
2,
1,
1,
1,
1,
7,
7,
8,
8,
3,
3,
-1,
-1,
0,
0,
3,
3,
4,
4,
7,
7,
8,
8,
7,
7,
8,
8,
7,
7,
1,
1,
2,
2,
6,
6,
7,
7,
6,
6,
7,
7,
8,
8,
10,
10,
10,
10,
7,
7,
4,
4,
0,
0,
0,
0,
7,
7,
7,
7,
9,
9,
5,
5,
6,
6,
11,
11,
10,
10,
11,
11,
11,
11,
10,
10,
3,
3,
0,
0,
3,
3,
-1,
-1,
0,
0,
4,
4,
3,
3,
2,
2,
0,
0,
-1,
-1,
0,
0,
-1,
-1,
1,
1,
0,
0,
0,
0,
2,
2,
2,
2,
0,
0,
6,
6,
10,
10,
3,
3,
2,
2,
6,
6,
13,
13,
16,
16,
14,
14,
6,
6,
0,
0,
-1,
-1,
-1,
-1,
-2,
-2,
3,
3,
8,
8,
3,
3,
3,
3,
0,
0,
4,
4,
3,
3,
2,
2,
0,
0,
4,
4,
4,
4,
1,
1,
5,
5,
7,
7,
6,
6,
-1,
10,
10,
22,
21,
21,
19,
19,
10,
-1,
1,
1,
3,
3,
5,
5,
4,
4,
3,
3,
3,
3,
2,
2,
4,
4,
0,
0,
0,
0,
-1,
-1,
3,
3,
9,
9,
7,
7,
0,
0,
-1,
-1,
7,
28,
28,
40,
39,
25,
26,
6,
7,
7,
6,
6,
13,
13,
15,
15,
18,
18,
19,
19,
18,
18,
16,
1,
2,
13,
11,
11,
9,
9,
8,
8,
7,
7,
13,
13,
21,
21,
25,
6,
6,
6,
5,
5,
13,
13,
11,
11,
4,
4,
1,
1,
1,
1,
0,
0,
0,
0,
1,
1,
6,
6,
4,
4,
7,
7,
5,
5,
3,
3,
10,
10,
9,
9,
4,
4,
0,
0,
0,
0,
3,
3,
4,
4,
5,
5,
8,
8,
4,
4,
0,
0,
3,
3,
0,
0,
2,
2,
3,
3,
1,
1,
0,
0,
0,
0,
5,
5,
3,
3,
2,
2,
12,
12,
5,
5,
4,
4,
3,
3,
6,
6,
8,
8,
2,
2,
0,
0,
6,
6,
10,
10,
10,
10,
4,
4,
9,
9,
18,
18,
13,
13,
3,
3,
6,
6,
10,
-1,
2,
2,
10,
10,
6,
6,
-1,
-1,
8,
8,
9,
9,
6,
6,
3,
3,
4,
4,
10,
10,
12,
12,
12,
12,
6,
6,
1,
1,
2,
2,
2,
2,
3,
3,
7,
7,
9,
9,
8,
8,
4,
4,
0,
0,
2,
2,
3,
3,
2,
2,
-1,
-1,
2,
2,
5,
5,
5,
5,
2,
2,
-1,
-1,
5,
5,
4,
4,
2,
2,
2,
2,
10,
10,
16,
16,
12,
12,
6,
6,
1,
1,
6,
6,
10,
10,
11,
11,
12,
12,
5,
5,
0,
0,
6,
6,
7,
7,
4,
4,
3,
3,
0,
0,
7,
7,
2,
2,
1,
1,
2,
2,
4,
4,
6,
6,
5,
5,
10,
10,
8,
8,
0,
0,
0,
0,
0,
0,
0,
0,
3,
3,
0,
0,
0,
0,
2,
2,
3,
3,
1,
1,
9,
9,
6,
6,
2,
2,
0,
0,
0,
0,
2,
2,
-1,
-1,
3,
3,
3,
3,
3,
3,
7,
7,
6,
6,
10,
10,
10,
10,
2,
2,
2,
2,
4,
4,
11,
11,
8,
8,
1,
1,
9,
9,
11,
11,
9,
9,
2,
15,
15,
15,
9,
9,
2,
2,
1,
19,
19,
32,
31,
19,
19,
1,
2,
14,
14,
14,
22,
22,
14,
14,
14,
14,
10,
10,
6,
6,
0,
0,
6,
6,
10,
10,
8,
8,
14,
14,
24,
24,
18,
1,
3,
14,
13,
13,
10,
10,
6,
6,
5,
5,
6,
6,
6,
6,
1,
1,
2,
2,
0,
0,
4,
4,
7,
7,
11,
11,
11,
11,
8,
8,
6,
6,
2,
2,
-1,
-1,
2,
2,
6,
6,
5,
5,
2,
2,
11,
23,
22,
22,
16,
4,
5,
5,
2,
2,
2,
2,
3,
3,
11,
11,
17,
17,
12,
-1,
1,
1,
1,
1,
4,
4,
2,
2,
-1,
-1,
0,
0,
2,
2,
3,
3,
0,
0,
5,
5,
9,
9,
11,
11,
11,
11,
4,
4,
4,
4,
6,
6,
5,
5,
3,
3,
3,
3,
1,
1,
1,
1,
5,
5,
13,
13,
20,
20,
11,
0,
4,
4,
12,
12,
6,
6,
0,
0,
4,
4,
8,
8,
2,
2,
0,
0,
2,
2,
-1,
-1,
0,
0,
-1,
-1,
1,
1,
0,
0,
0,
0,
4,
4,
3,
3,
-1,
-1,
1,
1,
9,
9,
6,
6,
3,
3,
11,
11,
8,
8,
7,
7,
6,
6,
15,
15,
18,
18,
15,
15,
8,
8,
0,
0,
-1,
-1,
2,
2,
3,
3,
3,
3,
4,
4,
7,
7,
7,
7,
6,
6,
4,
16,
16,
16,
22,
22,
13,
1,
2,
2,
5,
5,
10,
10,
11,
11,
9,
9,
4,
4,
0,
0,
0,
0,
2,
2,
3,
3,
5,
5,
3,
3,
0,
0,
0,
0,
-1,
-1,
3,
3,
7,
7,
11,
11,
13,
13,
12,
12,
20,
20,
24,
5,
5,
19,
18,
18,
22,
22,
22,
22,
31,
16,
17,
2,
8,
23,
23,
23,
22,
22,
20,
20,
11,
-1,
0,
0,
6,
6,
13,
13,
16,
16,
16,
16,
10,
-1,
0,
0,
6,
6,
5,
5,
5,
5,
6,
6,
7,
7,
9,
9,
9,
9,
3,
3,
8,
8,
14,
14,
13,
13,
6,
6,
3,
3,
5,
5,
1,
1,
4,
4,
10,
10,
10,
10,
3,
3,
0,
0,
1,
1,
-1,
-1,
0,
0,
2,
2,
7,
7,
9,
9,
8,
8,
1,
1,
2,
2,
4,
4,
2,
2,
-1,
-1,
3,
3,
2,
2,
0,
0,
-1,
-1,
6,
6,
5,
5,
5,
5,
3,
3,
0,
0,
1,
1,
6,
6,
0,
0,
0,
0,
1,
1,
3,
3,
0,
0,
-1,
-1,
0,
0,
0,
0,
0,
0,
0,
0,
0,
0,
0,
0,
0,
0,
0,
0,
1,
1,
7,
7,
8,
8,
8,
8,
9,
9,
5,
5,
2,
2,
0,
0,
-1,
-1,
7,
7,
9,
9,
15,
15,
9,
9,
1,
1,
-1,
-1,
6,
6,
12,
12,
5,
5,
2,
2,
3,
3,
0,
0,
5,
5,
10,
10,
7,
7,
11,
23,
22,
22,
16,
16,
7,
7,
4,
4,
9,
9,
1,
1,
9,
9,
6,
6,
2,
2,
1,
1,
-1,
-1,
8,
8,
16,
16,
13,
0,
2,
2,
8,
8,
0,
0,
4,
4,
0,
0,
3,
3,
7,
7,
5,
5,
3,
3,
-1,
-1,
1,
1,
0,
0,
2,
2,
4,
4,
5,
5,
8,
8,
6,
6,
-1,
-1,
-1,
-1,
0,
0,
3,
3,
0,
0,
6,
6,
6,
6,
5,
5,
8,
23,
22,
22,
16,
0,
1,
1,
5,
5,
3,
3,
3,
3,
7,
7,
6,
6,
5,
5,
2,
2,
-1,
-1,
1,
1,
0,
0,
3,
3,
8,
8,
8,
8,
6,
6,
2,
2,
3,
3,
-1,
-1,
1,
1,
-1,
-1,
0,
0,
0,
0,
-1,
-1,
1,
1,
1,
1,
2,
2,
2,
2,
4,
4,
0,
0,
5,
17,
15,
15,
24,
24,
20,
20,
10,
-1,
0,
0,
5,
5,
0,
0,
4,
4,
12,
12,
14,
14,
14,
14,
16,
16,
10,
10,
4,
4,
6,
6,
12,
28,
27,
27,
19,
4,
6,
6,
3,
3,
11,
11,
11,
11,
4,
4,
-1,
-1,
-1,
-1,
1,
1,
0,
0,
3,
3,
5,
5,
5,
5,
10,
10,
13,
13,
7,
7,
1,
1,
6,
6,
7,
7,
10,
10,
9,
9,
8,
8,
3,
3,
2,
2,
6,
6,
6,
6,
6,
6,
2,
14,
14,
14,
11,
0,
5,
5,
7,
7,
3,
3,
6,
6,
0,
0,
3,
3,
5,
5,
2,
2,
5,
5,
7,
7,
7,
7,
6,
6,
3,
3,
0,
0,
2,
2,
2,
2,
0,
0,
0,
0,
3,
3,
5,
5,
4,
26,
26,
40,
39,
39,
30,
10,
11,
-1,
2,
2,
8,
8,
16,
16,
18,
18,
14,
14,
9,
9,
1,
1,
1,
1,
3,
3,
9,
9,
1,
1,
0,
0,
1,
1,
0,
0,
3,
3,
6,
6,
8,
8,
5,
5,
5,
5,
2,
2,
-1,
-1,
0,
0,
0,
0,
0,
0,
1,
1,
1,
1,
4,
4,
6,
6,
3,
3,
3,
3,
5,
5,
0,
0,
2,
2,
-1,
-1,
5,
5,
1,
1,
7,
7,
2,
17,
16,
16,
13,
-1,
0,
0,
5,
5,
10,
10,
0,
0,
9,
9,
15,
15,
15,
15,
10,
10,
1,
1,
0,
0,
5,
5,
-1,
-1,
7,
7,
9,
9,
11,
11,
11,
11,
11,
11,
11,
11,
9,
9,
4,
4,
0,
0,
1,
1,
10,
10,
10,
10,
0,
0,
0,
0,
2,
2,
2,
2,
0,
0,
-1,
-1,
0,
0,
0,
0,
0,
0,
2,
2,
0,
0,
-1,
-1,
3,
3,
4,
4,
2,
2,
2,
2,
7,
7,
7,
7,
3,
3,
-1,
-1,
3,
3,
1,
1,
0,
0,
-1,
-1,
0,
0,
1,
1,
2,
2,
0,
0,
0,
0,
-1,
-1,
2,
2,
1,
1,
0,
0,
0,
0,
6,
6,
9,
9,
11,
11,
9,
9,
6,
6,
3,
3,
6,
6,
4,
4,
10,
10,
6,
6,
5,
5,
0,
0,
-1,
-1,
5,
5,
9,
9,
1,
1,
7,
7,
4,
4,
5,
5,
-1,
-1,
6,
18,
18,
35,
35,
35,
26,
1,
2,
2,
8,
8,
9,
9,
8,
8,
10,
10,
18,
18,
17,
17,
13,
13,
13,
2,
3,
32,
31,
31,
38,
26,
26,
10,
10,
10,
3,
3,
11,
11,
13,
13,
12,
12,
8,
8,
6,
6,
1,
14,
13,
13,
15,
15,
12,
12,
10,
10,
5,
5,
-1,
-1,
3,
3,
7,
7,
4,
4,
0,
0,
2,
2,
4,
4,
3,
3,
0,
0,
6,
6,
5,
5,
0,
0,
-1,
-1,
1,
1,
3,
3,
6,
6,
0,
0,
0,
0,
3,
3,
6,
6,
6,
6,
0,
0,
2,
2,
2,
2,
8,
8,
8,
8,
7,
7,
10,
10,
16,
16,
20,
20,
10,
10,
10,
10,
15,
15,
17,
17,
14,
14,
5,
5,
-1,
-1,
3,
3,
9,
9,
6,
6,
0,
0,
7,
7,
6,
6,
6,
6,
1,
1,
10,
10,
15,
15,
10,
10,
1,
1,
3,
3,
-1,
-1,
2,
2,
-1,
-1,
0,
0,
4,
4,
4,
4,
-1,
-1,
-1,
-1,
-1,
-1,
2,
2,
0,
11,
11,
23,
23,
12,
12,
-1,
2,
2,
9,
9,
12,
12,
7,
7,
0,
0,
3,
3,
2,
2,
3,
3,
5,
5,
7,
7,
3,
3,
3,
3,
8,
8,
8,
8,
3,
3,
1,
1,
0,
0,
2,
2,
4,
4,
2,
2,
0,
0,
3,
18,
17,
17,
18,
18,
24,
35,
34,
21,
22,
3,
8,
23,
22,
22,
24,
24,
24,
24,
22,
22,
16,
16,
10,
10,
4,
4,
0,
0,
0,
0,
5,
5,
8,
19,
18,
18,
19,
19,
11,
11,
5,
5,
0,
0,
0,
0,
2,
2,
-1,
-1,
2,
2,
4,
4,
9,
9,
6,
6,
1,
1,
1,
1,
7,
7,
12,
12,
5,
5,
7,
7,
7,
7,
2,
2,
1,
1,
9,
9,
8,
8,
7,
7,
5,
5,
8,
8,
18,
18,
18,
18,
12,
12,
3,
3,
-1,
-1,
-1,
-1,
8,
8,
12,
12,
2,
2,
12,
12,
6,
6,
4,
4,
5,
5,
12,
12,
8,
8,
2,
2,
4,
4,
5,
5,
9,
9,
8,
8,
5,
5,
0,
0,
6,
6,
13,
13,
4,
4,
4,
4,
0,
0,
1,
1,
7,
7,
3,
3,
0,
0,
2,
2,
8,
8,
6,
6,
7,
7,
3,
3,
1,
1,
1,
1,
0,
0,
0,
0,
9,
9,
8,
8,
3,
3,
3,
3,
-1,
-1,
6,
6,
7,
7,
12,
12,
18,
6,
6,
6,
0,
0,
0,
0,
0,
0,
2,
2,
4,
16,
16,
16,
13,
0,
1,
1,
6,
6,
8,
8,
9,
9,
7,
7,
1,
1,
4,
4,
0,
0,
10,
10,
9,
9,
1,
1,
3,
3,
8,
8,
3,
3,
-1,
-1,
4,
4,
1,
1,
2,
2,
4,
4,
6,
18,
17,
17,
18,
7,
8,
8,
9,
9,
6,
6,
8,
8,
0,
15,
14,
14,
18,
18,
8,
8,
3,
3,
4,
4,
0,
0,
5,
5,
2,
14,
14,
14,
18,
3,
4,
4,
0,
0,
0,
0,
0,
0,
2,
2,
6,
6,
4,
4,
3,
3,
3,
3,
9,
9,
9,
9,
8,
8,
5,
5,
4,
4,
0,
0,
2,
2,
-1,
-1,
6,
6,
7,
7,
-1,
-1,
4,
4,
2,
2,
6,
6,
7,
7,
4,
4,
2,
2,
0,
0,
1,
1,
2,
2,
8,
8,
10,
10,
2,
2,
2,
2,
8,
8,
10,
10,
5,
5,
0,
0,
3,
3,
3,
3,
5,
5,
5,
5,
7,
7,
2,
2,
0,
0,
0,
0,
6,
6,
1,
1,
0,
0,
2,
2,
5,
5,
2,
2,
8,
8,
9,
9,
14,
14,
21,
21,
18,
18,
9,
9,
13,
13,
21,
10,
10,
10,
8,
22,
21,
21,
23,
23,
21,
21,
15,
15,
14,
14,
10,
10,
3,
3,
2,
14,
13,
13,
12,
12,
3,
3,
0,
0,
-1,
-1,
1,
1,
10,
10,
11,
11,
4,
4,
13,
13,
11,
11,
7,
7,
2,
2,
-1,
-1,
3,
3,
3,
3,
-1,
-1,
2,
2,
5,
5,
7,
7,
8,
8,
12,
12,
10,
10,
2,
2,
6,
6,
11,
0,
2,
2,
6,
6,
4,
4,
2,
14,
14,
42,
42,
42,
41,
11,
12,
12,
6,
6,
0,
15,
14,
26,
26,
26,
27,
27,
20,
20,
15,
15,
11,
11,
6,
6,
0,
0,
5,
5,
10,
10,
8,
8,
11,
11,
12,
12,
8,
8,
5,
5,
4,
4,
7,
7,
8,
8,
7,
7,
5,
5,
0,
0,
9,
9,
9,
9,
1,
1,
3,
3,
10,
10,
11,
11,
8,
8,
7,
7,
3,
3,
4,
4,
6,
6,
2,
2,
0,
12,
11,
11,
9,
9,
1,
1,
0,
0,
-1,
-1,
0,
0,
2,
2,
2,
2,
2,
2,
6,
6,
11,
11,
5,
5,
2,
2,
8,
8,
6,
6,
0,
0,
2,
2,
4,
4,
12,
12,
13,
13,
11,
11,
12,
0,
0,
0,
6,
6,
9,
9,
4,
4,
1,
1,
2,
2,
3,
3,
4,
4,
6,
6,
8,
8,
1,
13,
13,
13,
15,
15,
6,
6,
6,
6,
2,
2,
1,
1,
1,
1,
2,
2,
2,
2,
3,
3,
0,
0,
-1,
-1,
1,
1,
0,
0,
2,
2,
4,
4,
8,
8,
8,
8,
2,
2,
2,
2,
0,
0,
1,
1,
6,
6,
6,
6,
0,
0,
2,
2,
3,
3,
1,
1,
-1,
-1,
8,
8,
8,
8,
2,
2,
-1,
13,
13,
13,
17,
17,
17,
5,
5,
5,
0,
0,
3,
3,
5,
5,
9,
9,
13,
13,
14,
14,
7,
7,
7,
7,
14,
1,
2,
25,
25,
43,
43,
31,
31,
5,
6,
6,
3,
3,
8,
8,
6,
6,
10,
10,
13,
13,
10,
10,
5,
5,
2,
2,
-1,
14,
14,
14,
17,
17,
13,
13,
10,
10,
2,
2,
6,
6,
8,
8,
10,
10,
2,
2,
6,
6,
5,
5,
6,
6,
2,
2,
3,
3,
0,
0,
0,
0,
3,
3,
3,
3,
3,
3,
-1,
-1,
-1,
-1,
4,
4,
-1,
-1,
5,
5,
10,
10,
8,
8,
4,
4,
4,
4,
12,
12,
19,
19,
12,
1,
6,
6,
15,
15,
15,
15,
14,
14,
13,
13,
11,
11,
8,
8,
4,
4,
0,
0,
7,
7,
11,
11,
15,
15,
19,
19,
13,
13,
11,
11,
11,
11,
3,
3,
0,
0,
7,
7,
7,
7,
4,
4,
-1,
-1,
1,
1,
-1,
-1,
3,
3,
0,
0,
6,
6,
4,
4,
2,
2,
0,
0,
-2,
-2,
2,
2,
0,
0,
0,
0,
-1,
-1,
3,
17,
17,
17,
22,
22,
16,
16,
7,
7,
1,
1,
1,
1,
5,
5,
7,
7,
4,
4,
3,
3,
3,
3,
3,
3,
1,
1,
3,
3,
3,
3,
0,
0,
0,
0,
0,
0,
6,
6,
11,
11,
16,
16,
14,
14,
6,
6,
0,
0,
-1,
-1,
0,
0,
2,
2,
5,
5,
8,
8,
7,
7,
1,
1,
-1,
-1,
-1,
-1,
0,
0,
0,
0,
6,
6,
5,
5,
1,
1,
1,
1,
2,
2,
-1,
-1,
1,
1,
-1,
-1,
3,
3,
1,
1,
3,
3,
0,
0,
7,
7,
4,
4,
10,
-1,
0,
0,
0,
0,
4,
4,
6,
6,
1,
18,
18,
18,
24,
12,
13,
13,
7,
7,
0,
0,
4,
4,
5,
5,
9,
9,
9,
9,
6,
6,
9,
9,
12,
12,
7,
7,
4,
4,
0,
0,
6,
6,
7,
7,
10,
10,
10,
10,
10,
10,
3,
3,
3,
3,
10,
10,
7,
7,
5,
5,
1,
1,
3,
3,
3,
3,
0,
0,
1,
1,
1,
1,
0,
0,
2,
2,
0,
0,
2,
18,
18,
18,
12,
12,
4,
18,
18,
46,
45,
45,
43,
11,
11,
11,
13,
13,
18,
18,
16,
16,
11,
11,
11,
11,
9,
9,
8,
8,
2,
2,
11,
11,
8,
8,
1,
1,
5,
5,
3,
3,
0,
0,
10,
10,
13,
13,
10,
10,
9,
9,
5,
5,
-1,
-1,
1,
1,
4,
4,
3,
3,
-1,
-1,
2,
2,
3,
3,
1,
1,
6,
6,
5,
5,
-1,
-1,
2,
2,
2,
2,
8,
8,
7,
7,
7,
7,
0,
0,
0,
0,
2,
2,
1,
1,
0,
0,
-1,
-1,
3,
3,
3,
3,
1,
1,
5,
5,
6,
6,
2,
2,
9,
9,
15,
15,
13,
13,
8,
8,
3,
3,
6,
6,
7,
7,
7,
7,
13,
-1,
0,
0,
6,
6,
4,
4,
1,
1,
4,
4,
5,
5,
5,
5,
5,
5,
0,
11,
10,
22,
22,
22,
18,
1,
1,
1,
8,
8,
12,
12,
2,
2,
5,
5,
15,
15,
21,
9,
10,
10,
5,
5,
12,
12,
17,
17,
17,
17,
12,
1,
2,
2,
7,
7,
6,
6,
2,
2,
10,
10,
12,
12,
11,
11,
6,
6,
0,
0,
3,
3,
2,
2,
0,
0,
0,
0,
3,
3,
2,
2,
4,
4,
5,
5,
1,
1,
3,
3,
7,
7,
0,
0,
0,
0,
-1,
-1,
0,
0,
0,
0,
2,
2,
3,
16,
15,
15,
21,
21,
16,
16,
9,
9,
4,
4,
6,
6,
14,
14,
18,
18,
16,
0,
1,
1,
6,
6,
7,
7,
1,
1,
-1,
-1,
-1,
-1,
2,
2,
4,
4,
1,
1,
0,
0,
8,
8,
13,
13,
17,
17,
20,
8,
9,
9,
3,
3,
10,
10,
8,
8,
4,
4,
2,
2,
4,
4,
2,
2,
0,
0,
1,
1,
3,
3,
5,
5,
5,
5,
-1,
-1,
2,
2,
0,
0,
7,
7,
8,
8,
4,
4,
1,
1,
2,
2,
1,
1,
1,
1,
2,
2,
0,
0,
5,
5,
3,
3,
0,
0,
8,
8,
15,
15,
14,
14,
11,
11,
7,
7,
2,
2,
4,
4,
11,
11,
20,
20,
23,
9,
9,
9,
1,
14,
13,
24,
23,
23,
20,
7,
7,
7,
0,
0,
3,
3,
0,
0,
4,
4,
3,
3,
2,
2,
9,
9,
9,
9,
4,
4,
-1,
-1,
0,
0,
2,
2,
-1,
-1,
1,
1,
8,
8,
11,
11,
7,
7,
6,
6,
1,
1,
6,
6,
2,
14,
13,
13,
10,
10,
2,
2,
3,
3,
1,
1,
5,
5,
7,
7,
2,
2,
0,
0,
-1,
-1,
5,
5,
7,
7,
9,
9,
7,
7,
6,
6,
0,
14,
12,
12,
3,
3,
2,
2,
6,
6,
3,
3,
2,
2,
3,
3,
4,
4,
3,
3,
10,
10,
11,
11,
11,
11,
2,
2,
-1,
-1,
1,
1,
11,
11,
18,
18,
12,
12,
10,
10,
10,
10,
10,
10,
6,
6,
0,
0,
7,
7,
9,
9,
9,
9,
9,
9,
2,
2,
6,
6,
9,
9,
2,
2,
-1,
-1,
3,
3,
8,
8,
10,
-1,
1,
1,
11,
11,
11,
11,
8,
8,
3,
3,
2,
2,
1,
1,
1,
1,
0,
0,
1,
1,
0,
0,
2,
2,
3,
3,
4,
19,
19,
19,
16,
16,
10,
10,
12,
1,
2,
2,
7,
7,
10,
10,
6,
6,
4,
4,
6,
6,
8,
8,
12,
12,
9,
9,
0,
0,
3,
3,
7,
7,
7,
7,
4,
4,
6,
6,
5,
5,
4,
4,
8,
8,
5,
5,
0,
0,
2,
2,
3,
3,
6,
6,
6,
6,
6,
6,
2,
2,
7,
7,
1,
1,
0,
0,
3,
3,
0,
0,
5,
5,
6,
6,
