EMG_S1/DS0127.CSV

Memory Length,4000,
Trigger Level,0.00000e+00,
Source,CH1,
Probe,1.0X,
Vertical Units,V,
Vertical Scale,1.00000e+00,
Vertical Position,4.00000e-02,
Horizontal Units,S,
Horizontal Scale,1.00000e-01,
Horizontal Position,0.0000000e+00,
Horizontal Mode,Roll Mode,
Waveform Last Dot Address,4000,
Sampling Period,4.00000e-04,
Firmware,V1.14,
Time, ,
Mode,Fast,
Waveform Data,
3,
3,
1,
1,
4,
4,
3,
3,
2,
2,
3,
3,
4,
4,
6,
6,
0,
0,
-1,
-1,
0,
0,
4,
4,
6,
6,
3,
3,
9,
9,
10,
10,
14,
14,
8,
8,
2,
2,
6,
20,
19,
19,
23,
23,
18,
18,
9,
9,
5,
5,
10,
10,
5,
5,
3,
3,
3,
3,
2,
2,
-1,
-1,
7,
7,
10,
10,
5,
5,
1,
1,
5,
5,
0,
0,
5,
5,
0,
0,
-1,
-1,
1,
1,
6,
6,
0,
0,
2,
2,
3,
3,
2,
2,
2,
2,
0,
0,
0,
15,
14,
14,
19,
19,
13,
13,
4,
4,
8,
8,
10,
10,
4,
4,
0,
14,
13,
13,
21,
21,
21,
21,
15,
15,
5,
5,
4,
4,
8,
8,
11,
11,
9,
9,
6,
6,
1,
1,
2,
2,
0,
0,
-1,
-1,
0,
0,
8,
8,
11,
11,
9,
9,
1,
1,
3,
3,
4,
4,
2,
2,
1,
1,
3,
3,
3,
3,
0,
0,
0,
0,
0,
0,
-1,
-1,
-1,
-1,
4,
4,
5,
5,
6,
6,
9,
9,
6,
6,
0,
0,
0,
0,
6,
6,
6,
6,
1,
1,
0,
0,
-1,
-1,
-1,
-1,
0,
0,
1,
1,
3,
3,
5,
5,
5,
5,
0,
0,
2,
2,
0,
0,
2,
2,
0,
0,
3,
3,
6,
6,
6,
6,
2,
2,
0,
17,
16,
16,
20,
20,
11,
11,
5,
5,
8,
8,
13,
13,
18,
7,
7,
7,
7,
7,
16,
16,
20,
20,
17,
17,
16,
16,
10,
10,
6,
6,
1,
1,
0,
0,
2,
2,
8,
8,
11,
11,
11,
11,
14,
14,
21,
9,
10,
10,
5,
5,
10,
10,
8,
8,
6,
6,
1,
1,
1,
1,
2,
2,
2,
2,
6,
6,
7,
7,
4,
4,
-1,
-1,
2,
2,
-1,
-1,
6,
6,
14,
3,
4,
4,
8,
8,
6,
6,
3,
3,
-1,
-1,
0,
0,
3,
3,
5,
5,
5,
5,
0,
0,
-1,
-1,
2,
2,
1,
1,
7,
7,
11,
11,
9,
9,
3,
3,
5,
5,
6,
6,
4,
4,
2,
2,
7,
7,
4,
4,
0,
0,
1,
1,
10,
10,
9,
9,
7,
7,
2,
2,
7,
7,
16,
16,
16,
16,
23,
23,
28,
7,
8,
8,
15,
30,
30,
30,
27,
16,
18,
18,
8,
8,
1,
15,
15,
33,
32,
32,
41,
41,
35,
4,
4,
17,
16,
16,
17,
17,
18,
18,
17,
17,
20,
20,
11,
-1,
0,
0,
7,
7,
6,
6,
2,
2,
8,
8,
14,
2,
2,
2,
6,
6,
2,
2,
2,
2,
0,
0,
-1,
-1,
1,
1,
3,
3,
3,
3,
9,
9,
13,
13,
4,
4,
3,
3,
3,
3,
0,
0,
4,
4,
11,
11,
8,
8,
2,
2,
7,
7,
11,
11,
12,
12,
9,
9,
2,
2,
0,
0,
6,
6,
8,
8,
6,
6,
7,
7,
6,
6,
3,
3,
3,
3,
1,
1,
2,
2,
11,
11,
15,
15,
8,
8,
0,
0,
-1,
-1,
2,
2,
10,
10,
9,
9,
2,
2,
1,
1,
0,
0,
1,
1,
2,
13,
11,
11,
4,
19,
18,
18,
21,
21,
16,
16,
13,
2,
2,
2,
5,
5,
8,
8,
7,
7,
5,
5,
6,
6,
6,
6,
5,
5,
5,
5,
9,
9,
13,
13,
10,
10,
4,
4,
8,
8,
11,
11,
14,
14,
14,
1,
5,
19,
18,
18,
21,
21,
17,
17,
21,
21,
18,
18,
11,
11,
7,
7,
2,
2,
7,
23,
22,
22,
28,
28,
30,
30,
20,
7,
8,
8,
1,
1,
5,
5,
2,
2,
9,
9,
16,
16,
3,
3,
1,
1,
4,
4,
7,
7,
7,
7,
5,
5,
0,
0,
-1,
-1,
2,
2,
3,
3,
6,
6,
2,
2,
3,
3,
6,
6,
1,
1,
2,
2,
3,
3,
2,
2,
1,
1,
2,
2,
10,
10,
17,
17,
8,
8,
8,
8,
12,
12,
3,
3,
-1,
-1,
5,
5,
8,
8,
10,
10,
2,
2,
5,
5,
4,
4,
3,
3,
2,
2,
9,
9,
10,
10,
0,
0,
-1,
-1,
2,
2,
4,
4,
8,
8,
14,
14,
13,
13,
10,
10,
6,
6,
0,
0,
-2,
-2,
3,
3,
4,
4,
2,
2,
1,
1,
1,
1,
4,
4,
0,
0,
5,
5,
0,
0,
4,
4,
6,
6,
4,
4,
-1,
-1,
6,
6,
3,
3,
3,
3,
8,
8,
8,
8,
3,
3,
-1,
-1,
0,
0,
3,
3,
2,
2,
0,
14,
12,
30,
29,
29,
27,
27,
20,
6,
6,
6,
8,
8,
15,
15,
12,
-1,
2,
2,
4,
4,
0,
0,
7,
7,
10,
10,
8,
8,
1,
1,
5,
5,
0,
0,
4,
4,
5,
5,
-1,
-1,
0,
0,
5,
5,
3,
3,
0,
0,
0,
0,
2,
2,
0,
0,
6,
6,
1,
1,
3,
3,
2,
2,
2,
2,
6,
6,
0,
0,
3,
3,
4,
4,
5,
5,
0,
0,
0,
0,
4,
4,
12,
12,
19,
19,
17,
6,
6,
6,
13,
24,
23,
23,
22,
22,
17,
6,
6,
6,
2,
2,
2,
2,
8,
8,
8,
8,
2,
2,
-1,
-1,
3,
3,
0,
0,
6,
21,
20,
20,
26,
26,
24,
11,
12,
0,
5,
18,
16,
16,
26,
26,
20,
4,
4,
4,
11,
11,
11,
0,
1,
1,
3,
3,
6,
6,
7,
7,
8,
8,
9,
9,
2,
2,
5,
5,
7,
7,
10,
10,
16,
16,
17,
17,
14,
14,
8,
8,
2,
2,
0,
0,
2,
2,
6,
6,
5,
5,
8,
8,
3,
3,
1,
1,
0,
0,
2,
2,
2,
2,
0,
0,
6,
6,
15,
15,
18,
5,
6,
6,
0,
0,
9,
9,
11,
11,
2,
2,
4,
17,
16,
16,
19,
19,
15,
15,
11,
11,
7,
7,
0,
11,
11,
11,
15,
15,
17,
17,
17,
17,
10,
10,
0,
0,
7,
7,
6,
6,
0,
0,
2,
2,
6,
6,
5,
5,
4,
4,
3,
3,
2,
2,
3,
3,
8,
8,
7,
7,
10,
10,
18,
18,
22,
7,
8,
8,
-1,
-1,
4,
4,
11,
11,
8,
8,
0,
0,
3,
3,
6,
6,
8,
8,
7,
7,
5,
5,
13,
13,
9,
9,
10,
10,
15,
15,
12,
12,
11,
0,
1,
15,
15,
15,
25,
25,
30,
30,
25,
14,
14,
14,
5,
5,
1,
1,
0,
11,
11,
11,
18,
18,
16,
5,
6,
6,
0,
0,
0,
0,
-1,
-1,
1,
1,
7,
7,
6,
6,
0,
0,
4,
4,
5,
5,
0,
0,
5,
5,
8,
8,
13,
13,
16,
16,
9,
9,
5,
5,
3,
3,
0,
0,
9,
9,
7,
7,
4,
4,
2,
2,
8,
8,
15,
0,
2,
2,
10,
10,
8,
8,
1,
1,
1,
1,
5,
5,
8,
8,
0,
0,
2,
2,
-1,
-1,
0,
0,
0,
0,
2,
2,
7,
7,
11,
11,
8,
8,
5,
5,
1,
1,
2,
2,
-1,
-1,
-1,
-1,
-1,
-1,
3,
3,
2,
24,
23,
23,
22,
6,
6,
6,
10,
10,
15,
15,
13,
13,
4,
4,
6,
6,
1,
1,
6,
6,
-1,
-1,
4,
4,
2,
2,
-1,
-1,
4,
4,
0,
0,
2,
2,
8,
8,
8,
8,
0,
12,
12,
12,
21,
21,
26,
26,
26,
26,
29,
29,
34,
21,
22,
4,
17,
43,
43,
43,
40,
27,
27,
27,
18,
18,
14,
14,
10,
10,
3,
3,
2,
2,
9,
9,
16,
16,
13,
13,
12,
12,
13,
13,
15,
15,
15,
15,
9,
9,
6,
6,
3,
3,
4,
4,
2,
2,
1,
13,
12,
12,
10,
10,
5,
5,
7,
7,
5,
5,
-1,
-1,
4,
4,
3,
3,
-1,
-1,
4,
4,
8,
8,
10,
10,
5,
5,
1,
1,
9,
9,
10,
10,
2,
2,
1,
1,
3,
3,
2,
2,
0,
0,
1,
1,
8,
8,
7,
7,
2,
2,
-1,
-1,
0,
0,
2,
2,
2,
2,
0,
0,
4,
4,
4,
4,
-1,
-1,
0,
0,
0,
0,
0,
0,
4,
4,
7,
7,
0,
0,
7,
7,
3,
3,
-1,
-1,
-1,
-1,
-1,
-1,
0,
0,
5,
5,
12,
12,
20,
20,
18,
4,
5,
5,
0,
0,
3,
3,
6,
6,
11,
11,
10,
10,
6,
6,
6,
6,
9,
9,
12,
12,
15,
15,
9,
9,
10,
21,
20,
20,
28,
39,
38,
27,
28,
7,
8,
8,
6,
18,
17,
17,
12,
12,
4,
4,
7,
7,
14,
14,
15,
15,
7,
7,
11,
11,
13,
-1,
0,
0,
-1,
-1,
6,
6,
7,
7,
11,
11,
17,
17,
8,
8,
0,
0,
0,
0,
3,
3,
0,
0,
4,
4,
6,
6,
5,
5,
4,
4,
2,
2,
-1,
-1,
3,
3,
5,
5,
5,
5,
2,
2,
2,
2,
0,
0,
5,
5,
7,
7,
13,
13,
18,
18,
23,
23,
20,
7,
7,
7,
0,
0,
2,
2,
8,
8,
10,
10,
7,
7,
11,
11,
11,
11,
7,
7,
3,
3,
10,
10,
2,
2,
6,
6,
8,
8,
2,
2,
-1,
-1,
5,
5,
0,
0,
0,
17,
16,
16,
25,
25,
21,
10,
10,
10,
6,
6,
4,
4,
7,
7,
14,
14,
10,
10,
6,
6,
1,
15,
14,
30,
29,
29,
26,
3,
6,
22,
21,
21,
23,
23,
19,
19,
18,
18,
16,
5,
6,
6,
12,
24,
23,
23,
18,
18,
13,
13,
19,
31,
31,
31,
28,
8,
8,
8,
16,
30,
30,
30,
38,
38,
31,
19,
20,
9,
9,
9,
0,
22,
21,
21,
29,
29,
35,
35,
37,
37,
29,
5,
5,
5,
6,
6,
3,
3,
2,
15,
14,
14,
20,
20,
19,
19,
15,
15,
7,
7,
0,
0,
3,
3,
10,
10,
8,
8,
3,
3,
0,
11,
11,
11,
20,
20,
24,
24,
26,
13,
14,
3,
3,
3,
2,
2,
3,
3,
4,
4,
0,
0,
1,
1,
2,
2,
6,
6,
0,
14,
12,
12,
3,
3,
12,
12,
18,
18,
19,
19,
15,
0,
1,
15,
15,
15,
12,
-1,
0,
0,
6,
6,
7,
7,
2,
2,
1,
1,
7,
25,
24,
24,
22,
10,
11,
11,
11,
11,
6,
6,
1,
1,
1,
1,
7,
7,
10,
10,
9,
9,
1,
1,
0,
0,
2,
2,
5,
5,
-1,
-1,
0,
0,
0,
0,
3,
3,
3,
3,
1,
1,
5,
5,
3,
3,
1,
1,
0,
0,
2,
2,
0,
0,
0,
0,
5,
5,
14,
14,
12,
12,
8,
8,
18,
18,
27,
11,
12,
12,
17,
29,
29,
29,
28,
10,
11,
-1,
0,
0,
6,
6,
6,
6,
0,
0,
3,
3,
3,
3,
3,
3,
6,
6,
2,
2,
6,
6,
0,
0,
8,
8,
16,
16,
26,
39,
38,
38,
34,
12,
12,
-1,
2,
2,
8,
8,
16,
16,
19,
19,
17,
17,
16,
16,
18,
18,
14,
14,
6,
6,
0,
0,
2,
2,
7,
7,
13,
13,
20,
20,
29,
29,
24,
7,
7,
7,
0,
0,
9,
21,
20,
20,
16,
16,
8,
8,
0,
0,
4,
4,
7,
7,
10,
10,
12,
0,
2,
2,
4,
4,
0,
0,
5,
5,
4,
4,
4,
4,
8,
8,
2,
2,
0,
0,
3,
3,
0,
0,
4,
4,
1,
1,
1,
1,
-1,
-1,
4,
4,
10,
10,
15,
15,
14,
14,
4,
4,
0,
0,
0,
0,
7,
7,
8,
8,
7,
7,
6,
6,
2,
2,
3,
3,
6,
6,
3,
3,
2,
2,
7,
7,
1,
1,
6,
6,
5,
5,
0,
0,
2,
2,
8,
8,
9,
9,
3,
3,
6,
6,
0,
0,
3,
3,
3,
3,
0,
0,
2,
2,
8,
8,
15,
15,
14,
1,
1,
1,
3,
3,
10,
10,
15,
15,
14,
14,
11,
0,
1,
1,
2,
2,
2,
13,
12,
12,
13,
2,
3,
3,
2,
2,
4,
4,
3,
3,
12,
12,
7,
7,
13,
13,
11,
11,
18,
39,
39,
39,
43,
11,
12,
12,
13,
13,
22,
22,
27,
27,
34,
23,
23,
6,
7,
7,
0,
0,
4,
4,
3,
3,
3,
3,
6,
6,
10,
10,
7,
7,
7,
7,
6,
6,
3,
3,
3,
3,
3,
3,
2,
2,
1,
1,
2,
2,
-1,
-1,
5,
5,
0,
0,
4,
4,
1,
1,
0,
0,
3,
3,
6,
6,
2,
2,
0,
0,
4,
4,
1,
1,
6,
6,
0,
0,
0,
0,
0,
0,
8,
8,
10,
10,
1,
1,
10,
10,
13,
13,
9,
9,
11,
11,
6,
6,
1,
1,
0,
0,
0,
0,
1,
15,
15,
15,
17,
17,
18,
18,
8,
8,
2,
2,
7,
7,
3,
3,
3,
3,
1,
1,
0,
0,
0,
14,
13,
25,
24,
24,
15,
2,
12,
27,
26,
26,
22,
22,
14,
3,
4,
4,
4,
4,
12,
12,
7,
7,
2,
2,
6,
6,
15,
15,
12,
12,
7,
7,
2,
2,
8,
8,
17,
17,
23,
12,
13,
0,
2,
2,
1,
1,
3,
3,
4,
4,
7,
7,
4,
4,
-1,
-1,
1,
1,
5,
5,
6,
6,
3,
3,
3,
3,
-1,
-1,
-1,
-1,
5,
5,
7,
7,
5,
5,
3,
3,
4,
4,
4,
4,
2,
2,
1,
1,
-1,
-1,
1,
1,
1,
1,
-1,
-1,
1,
1,
-1,
-1,
4,
4,
3,
3,
7,
7,
13,
13,
7,
7,
3,
3,
0,
0,
0,
0,
3,
3,
10,
10,
5,
5,
2,
2,
0,
0,
8,
8,
15,
15,
16,
0,
1,
13,
12,
12,
16,
16,
14,
14,
7,
7,
0,
0,
2,
2,
11,
11,
16,
16,
11,
11,
3,
3,
6,
6,
3,
3,
0,
0,
4,
4,
7,
7,
7,
7,
7,
7,
0,
0,
4,
4,
0,
0,
-1,
-1,
9,
21,
20,
20,
29,
13,
14,
2,
9,
21,
20,
8,
9,
9,
14,
14,
8,
8,
2,
2,
6,
6,
2,
2,
0,
0,
10,
10,
4,
4,
8,
8,
16,
0,
2,
2,
8,
8,
7,
7,
1,
1,
3,
3,
8,
8,
3,
3,
2,
2,
3,
3,
4,
4,
11,
11,
10,
10,
3,
3,
-1,
-1,
2,
2,
2,
2,
-1,
-1,
2,
2,
0,
0,
5,
5,
4,
4,
1,
1,
0,
0,
0,
0,
-1,
-1,
2,
2,
6,
6,
5,
5,
3,
3,
-1,
-1,
2,
2,
11,
11,
12,
12,
13,
26,
25,
25,
16,
0,
4,
4,
13,
13,
19,
19,
15,
15,
14,
14,
12,
12,
4,
4,
4,
4,
4,
4,
3,
3,
7,
7,
10,
10,
11,
11,
6,
6,
1,
1,
4,
4,
6,
6,
6,
6,
0,
0,
1,
1,
2,
2,
7,
7,
6,
6,
2,
2,
2,
2,
2,
2,
-1,
-1,
2,
2,
4,
4,
2,
2,
2,
2,
4,
4,
9,
9,
9,
9,
1,
1,
6,
6,
12,
12,
12,
12,
9,
9,
8,
8,
3,
3,
0,
0,
-1,
-1,
0,
11,
10,
10,
19,
6,
6,
6,
4,
4,
11,
11,
16,
16,
14,
3,
3,
3,
2,
2,
7,
7,
8,
8,
11,
11,
14,
14,
15,
15,
8,
8,
9,
9,
14,
14,
7,
7,
3,
3,
0,
0,
6,
6,
1,
1,
0,
0,
1,
1,
0,
0,
7,
7,
0,
0,
2,
2,
2,
2,
3,
3,
3,
3,
1,
1,
2,
2,
2,
2,
0,
0,
-1,
-1,
2,
2,
6,
6,
15,
15,
16,
16,
13,
13,
6,
6,
0,
0,
5,
5,
2,
2,
6,
6,
10,
10,
12,
12,
5,
5,
-1,
-1,
4,
4,
7,
7,
8,
8,
2,
2,
3,
3,
8,
8,
1,
1,
1,
1,
7,
7,
10,
-1,
0,
0,
1,
1,
1,
13,
13,
13,
14,
14,
10,
10,
0,
0,
0,
0,
0,
0,
0,
0,
1,
1,
3,
3,
7,
7,
3,
3,
2,
2,
2,
2,
2,
13,
12,
27,
26,
26,
23,
23,
17,
2,
5,
5,
13,
13,
4,
4,
2,
2,
8,
8,
16,
16,
14,
14,
8,
8,
0,
0,
3,
3,
13,
13,
15,
15,
15,
15,
6,
6,
0,
0,
0,
0,
-1,
-1,
3,
3,
2,
2,
0,
0,
0,
0,
0,
0,
0,
0,
0,
0,
2,
2,
0,
0,
-2,
-2,
0,
0,
3,
3,
2,
2,
0,
0,
-1,
-1,
4,
4,
7,
7,
4,
4,
8,
8,
12,
12,
9,
9,
2,
2,
5,
5,
1,
1,
2,
2,
2,
2,
0,
0,
2,
2,
3,
14,
14,
14,
21,
5,
6,
6,
3,
22,
21,
21,
30,
19,
20,
20,
13,
1,
3,
3,
2,
2,
3,
3,
2,
2,
9,
9,
19,
19,
16,
16,
10,
10,
6,
6,
10,
23,
22,
22,
26,
3,
5,
18,
17,
17,
25,
25,
29,
29,
22,
9,
9,
9,
3,
3,
13,
13,
13,
13,
18,
18,
15,
15,
11,
11,
10,
10,
3,
3,
0,
0,
5,
5,
1,
1,
7,
7,
11,
0,
1,
1,
7,
7,
11,
11,
3,
3,
-1,
-1,
4,
4,
11,
11,
12,
12,
13,
13,
11,
11,
4,
4,
5,
5,
1,
18,
18,
39,
39,
39,
43,
43,
40,
9,
9,
9,
15,
15,
21,
21,
17,
17,
16,
16,
15,
15,
14,
14,
14,
14,
9,
9,
0,
0,
7,
7,
16,
16,
19,
6,
6,
6,
0,
0,
1,
1,
0,
0,
2,
2,
0,
0,
0,
0,
6,
6,
0,
0,
2,
2,
3,
3,
7,
7,
2,
2,
2,
2,
6,
6,
9,
21,
20,
20,
18,
3,
4,
4,
1,
1,
8,
8,
8,
8,
11,
11,
14,
14,
15,
15,
11,
11,
8,
8,
8,
8,
1,
16,
15,
15,
15,
15,
5,
5,
2,
2,
0,
0,
4,
4,
9,
9,
10,
10,
5,
5,
0,
0,
0,
0,
0,
0,
0,
0,
2,
2,
2,
2,
2,
2,
3,
3,
6,
6,
6,
6,
7,
7,
0,
0,
8,
8,
12,
12,
12,
12,
12,
12,
7,
7,
2,
2,
7,
7,
13,
13,
6,
6,
9,
9,
12,
12,
20,
20,
22,
8,
8,
8,
14,
14,
21,
6,
6,
6,
1,
22,
22,
40,
40,
40,
35,
19,
19,
19,
10,
10,
6,
6,
0,
0,
0,
0,
1,
1,
3,
3,
6,
6,
8,
8,
12,
12,
17,
17,
18,
18,
12,
12,
8,
8,
7,
7,
6,
6,
2,
2,
2,
2,
0,
0,
-1,
-1,
1,
1,
0,
0,
5,
5,
8,
8,
8,
8,
11,
11,
3,
3,
5,
5,
12,
12,
17,
17,
14,
14,
7,
7,
5,
5,
2,
15,
14,
14,
19,
19,
11,
11,
7,
7,
7,
7,
3,
3,
2,
2,
8,
8,
8,
8,
7,
7,
10,
10,
10,
10,
14,
14,
12,
-1,
0,
0,
2,
2,
0,
0,
2,
2,
2,
2,
8,
8,
9,
9,
8,
8,
8,
8,
0,
0,
0,
0,
2,
2,
4,
4,
6,
6,
0,
0,
9,
9,
13,
13,
15,
15,
14,
2,
2,
2,
6,
6,
13,
13,
18,
18,
19,
19,
9,
9,
0,
0,
10,
10,
19,
19,
21,
21,
22,
35,
34,
34,
27,
3,
7,
22,
21,
21,
19,
19,
17,
17,
20,
20,
23,
23,
16,
4,
4,
4,
3,
3,
1,
1,
0,
0,
5,
5,
4,
4,
6,
17,
17,
17,
20,
20,
24,
24,
20,
20,
22,
22,
25,
25,
33,
33,
25,
3,
9,
31,
30,
30,
33,
33,
27,
27,
18,
18,
18,
18,
16,
16,
11,
11,
4,
4,
2,
13,
12,
12,
21,
21,
21,
21,
13,
13,
6,
6,
6,
6,
2,
2,
0,
0,
2,
2,
-1,
-1,
3,
3,
1,
1,
1,
1,
0,
0,
0,
0,
0,
0,
-1,
-1,
0,
0,
2,
2,
0,
0,
7,
7,
9,
9,
9,
9,
0,
0,
8,
8,
8,
8,
4,
4,
3,
3,
6,
6,
1,
1,
7,
7,
7,
7,
13,
13,
11,
11,
5,
5,
1,
1,
3,
3,
6,
6,
0,
0,
2,
2,
3,
3,
5,
5,
0,
0,
6,
6,
8,
8,
1,
1,
8,
8,
2,
2,
1,
1,
0,
0,
-1,
-1,
2,
2,
4,
4,
8,
8,
6,
6,
0,
0,
0,
0,
3,
3,
2,
2,
0,
0,
3,
3,
8,
8,
4,
4,
0,
0,
5,
5,
10,
10,
9,
9,
2,
2,
1,
1,
6,
6,
11,
11,
9,
9,
0,
0,
-1,
-1,
2,
2,
5,
5,
1,
1,
-1,
-1,
-1,
-1,
7,
7,
8,
8,
0,
0,
0,
0,
3,
3,
0,
0,
-1,
-1,
-1,
-1,
-1,
-1,
3,
16,
16,
16,
19,
19,
10,
-1,
1,
1,
9,
9,
11,
11,
6,
6,
4,
4,
-1,
-1,
0,
0,
3,
3,
4,
4,
4,
4,
11,
11,
1,
1,
10,
10,
12,
12,
6,
6,
2,
2,
0,
0,
5,
16,
16,
16,
16,
16,
11,
11,
11,
0,
2,
2,
6,
6,
7,
7,
4,
4,
0,
0,
2,
2,
5,
5,
0,
0,
0,
0,
1,
1,
1,
1,
4,
4,
3,
3,
2,
2,
-2,
-2,
5,
5,
12,
1,
1,
1,
11,
28,
27,
27,
23,
11,
11,
0,
7,
24,
23,
23,
26,
15,
15,
4,
4,
4,
8,
8,
11,
11,
10,
10,
1,
1,
11,
11,
11,
11,
13,
13,
21,
21,
24,
24,
16,
5,
5,
5,
1,
1,
0,
0,
7,
7,
14,
14,
15,
15,
5,
5,
0,
0,
5,
5,
3,
3,
-1,
-1,
1,
1,
1,
1,
0,
0,
0,
0,
3,
3,
6,
6,
2,
2,
2,
2,
1,
1,
0,
0,
8,
8,
8,
8,
8,
8,
0,
0,
7,
7,
2,
2,
11,
11,
5,
5,
4,
4,
7,
7,
5,
5,
4,
4,
9,
9,
4,
4,
2,
2,
1,
1,
2,
2,
7,
7,
10,
10,
5,
5,
8,
8,
5,
5,
0,
0,
4,
4,
8,
8,
10,
-1,
1,
13,
11,
11,
17,
17,
10,
10,
8,
8,
8,
8,
0,
0,
3,
16,
15,
15,
13,
13,
7,
7,
7,
7,
4,
4,
14,
14,
16,
16,
7,
7,
2,
2,
6,
6,
0,
0,
3,
3,
9,
9,
15,
15,
13,
13,
8,
8,
6,
6,
3,
3,
4,
4,
6,
6,
6,
6,
6,
6,
7,
7,
10,
10,
19,
19,
16,
16,
8,
8,
6,
6,
2,
2,
3,
3,
4,
4,
2,
2,
4,
4,
8,
8,
8,
8,
0,
0,
-1,
-1,
7,
7,
5,
5,
0,
0,
2,
2,
-1,
-1,
4,
4,
6,
6,
10,
10,
11,
0,
2,
2,
-1,
-1,
3,
3,
6,
6,
1,
1,
1,
1,
2,
2,
0,
0,
4,
4,
3,
3,
1,
1,
4,
4,
0,
0,
5,
5,
10,
10,
10,
10,
7,
7,
8,
8,
16,
5,
5,
5,
7,
7,
13,
13,
12,
12,
8,
8,
6,
6,
5,
5,
2,
2,
-1,
-1,
2,
2,
8,
8,
5,
5,
-1,
-1,
0,
0,
2,
2,
0,
0,
2,
2,
6,
6,
3,
3,
4,
4,
10,
10,
20,
20,
11,
11,
6,
6,
8,
8,
3,
3,
11,
11,
6,
6,
3,
3,
0,
0,
2,
2,
7,
7,
9,
9,
8,
8,
8,
8,
7,
7,
1,
1,
0,
0,
2,
2,
7,
7,
8,
8,
5,
5,
7,
7,
15,
15,
10,
10,
2,
2,
2,
2,
3,
3,
3,
3,
-1,
-1,
2,
2,
2,
2,
1,
1,
-1,
-1,
0,
0,
1,
1,
2,
2,
12,
12,
7,
7,
1,
1,
5,
5,
8,
8,
8,
8,
4,
4,
-1,
-1,
7,
7,
15,
15,
6,
6,
0,
0,
2,
2,
7,
7,
8,
8,
8,
8,
0,
0,
7,
7,
7,
7,
2,
2,
1,
1,
0,
0,
1,
18,
18,
18,
23,
11,
11,
0,
1,
1,
8,
19,
19,
19,
20,
20,
11,
11,
5,
5,
1,
1,
11,
11,
14,
14,
12,
12,
11,
11,
6,
6,
8,
8,
1,
1,
7,
7,
9,
9,
9,
9,
7,
7,
3,
3,
0,
0,
3,
3,
6,
6,
8,
8,
3,
3,
2,
2,
4,
4,
