EMG_S1/DS0146.CSV

Memory Length,4000,
Trigger Level,0.00000e+00,
Source,CH1,
Probe,1.0X,
Vertical Units,V,
Vertical Scale,1.00000e+00,
Vertical Position,4.00000e-02,
Horizontal Units,S,
Horizontal Scale,1.00000e-01,
Horizontal Position,0.0000000e+00,
Horizontal Mode,Roll Mode,
Waveform Last Dot Address,4000,
Sampling Period,4.00000e-04,
Firmware,V1.14,
Time, ,
Mode,Fast,
Waveform Data,
2,
2,
0,
0,
8,
8,
7,
7,
4,
4,
1,
1,
8,
8,
3,
3,
0,
0,
4,
4,
6,
6,
8,
8,
5,
5,
2,
2,
4,
4,
0,
0,
3,
3,
3,
3,
0,
0,
8,
8,
4,
4,
2,
2,
3,
3,
3,
3,
4,
4,
2,
2,
4,
4,
7,
7,
10,
10,
11,
11,
8,
8,
0,
0,
4,
4,
12,
12,
11,
0,
1,
1,
0,
0,
1,
1,
0,
0,
4,
4,
7,
7,
8,
8,
11,
11,
7,
7,
0,
0,
5,
5,
4,
4,
14,
14,
18,
5,
5,
5,
2,
2,
6,
6,
8,
8,
6,
6,
4,
4,
7,
7,
6,
6,
0,
0,
1,
1,
0,
0,
6,
6,
9,
9,
4,
4,
2,
2,
0,
0,
2,
2,
7,
7,
10,
10,
9,
9,
0,
0,
3,
3,
3,
3,
3,
3,
2,
2,
0,
0,
2,
2,
8,
8,
7,
7,
4,
4,
2,
2,
7,
7,
9,
9,
3,
3,
4,
4,
0,
0,
-1,
-1,
2,
2,
7,
7,
11,
11,
11,
11,
6,
6,
1,
1,
-1,
-1,
-2,
-2,
1,
1,
0,
0,
3,
3,
5,
5,
1,
1,
2,
2,
5,
5,
3,
3,
3,
3,
4,
4,
3,
3,
0,
0,
1,
1,
2,
2,
2,
2,
2,
2,
3,
3,
0,
0,
1,
1,
3,
3,
0,
0,
2,
15,
14,
14,
22,
11,
12,
12,
6,
6,
2,
2,
0,
0,
1,
1,
4,
4,
9,
9,
11,
11,
5,
5,
6,
6,
3,
3,
5,
5,
9,
9,
14,
14,
9,
9,
0,
0,
6,
6,
6,
6,
0,
0,
2,
2,
1,
1,
-1,
-1,
2,
2,
3,
3,
1,
1,
5,
5,
0,
0,
4,
4,
7,
7,
7,
7,
8,
8,
6,
6,
7,
7,
10,
10,
5,
5,
0,
0,
8,
8,
12,
12,
10,
10,
8,
8,
0,
0,
0,
0,
3,
3,
1,
1,
0,
0,
4,
16,
16,
16,
15,
1,
1,
1,
6,
6,
0,
0,
7,
7,
9,
9,
1,
1,
0,
0,
3,
3,
5,
5,
2,
2,
4,
4,
4,
4,
7,
7,
4,
4,
2,
2,
3,
3,
1,
1,
5,
5,
5,
5,
5,
5,
2,
2,
2,
2,
3,
3,
2,
2,
2,
2,
4,
4,
0,
0,
2,
2,
-1,
-1,
0,
0,
-1,
-1,
0,
0,
-1,
-1,
1,
1,
3,
3,
4,
4,
4,
4,
9,
9,
1,
1,
3,
3,
3,
3,
-1,
-1,
-1,
-1,
-1,
-1,
0,
0,
6,
6,
1,
12,
11,
11,
9,
9,
1,
1,
10,
10,
14,
0,
3,
3,
6,
6,
0,
0,
-1,
-1,
0,
0,
-1,
-1,
0,
0,
1,
1,
0,
0,
2,
2,
0,
0,
0,
0,
3,
3,
4,
4,
2,
2,
1,
1,
0,
0,
-1,
-1,
0,
0,
3,
3,
2,
2,
0,
0,
1,
1,
2,
2,
0,
12,
11,
11,
18,
18,
12,
0,
2,
2,
4,
4,
7,
7,
5,
5,
6,
6,
3,
3,
-1,
-1,
0,
0,
2,
2,
-1,
-1,
2,
2,
7,
7,
11,
11,
7,
7,
4,
4,
2,
2,
0,
0,
2,
2,
2,
2,
7,
7,
1,
1,
2,
2,
5,
5,
6,
6,
3,
3,
-1,
-1,
1,
1,
-1,
-1,
-1,
-1,
5,
5,
4,
4,
3,
3,
3,
3,
0,
0,
8,
8,
4,
4,
3,
3,
0,
0,
0,
0,
0,
0,
5,
5,
5,
5,
2,
2,
-1,
-1,
2,
2,
4,
4,
4,
4,
14,
14,
10,
10,
2,
2,
-1,
-1,
1,
1,
0,
0,
2,
2,
3,
3,
0,
0,
2,
2,
2,
2,
-1,
-1,
1,
1,
0,
0,
4,
4,
5,
5,
1,
1,
1,
1,
1,
1,
0,
0,
2,
2,
4,
4,
3,
3,
0,
0,
5,
5,
2,
2,
2,
2,
5,
5,
14,
14,
10,
10,
10,
10,
1,
1,
5,
5,
2,
2,
-1,
-1,
3,
3,
6,
6,
9,
9,
7,
7,
0,
0,
3,
3,
3,
3,
2,
2,
-1,
-1,
2,
2,
-1,
-1,
4,
16,
16,
16,
21,
10,
10,
10,
3,
14,
12,
12,
14,
14,
10,
10,
2,
2,
6,
6,
10,
10,
11,
11,
7,
7,
0,
0,
2,
2,
2,
2,
0,
0,
2,
2,
2,
2,
1,
1,
-1,
-1,
2,
2,
0,
0,
0,
0,
-1,
-1,
-1,
-1,
2,
2,
3,
3,
2,
2,
2,
2,
0,
0,
2,
2,
3,
3,
3,
3,
2,
2,
0,
0,
0,
0,
0,
0,
1,
1,
1,
1,
0,
0,
0,
0,
0,
0,
-1,
-1,
3,
3,
0,
0,
2,
2,
-1,
-1,
1,
1,
3,
3,
-1,
-1,
6,
6,
4,
4,
-1,
-1,
-1,
-1,
2,
2,
7,
7,
6,
6,
2,
2,
1,
1,
3,
3,
2,
2,
8,
8,
8,
8,
7,
7,
0,
0,
1,
1,
4,
15,
15,
15,
19,
6,
6,
6,
7,
7,
2,
2,
2,
2,
1,
1,
4,
4,
8,
8,
7,
7,
3,
3,
2,
2,
10,
10,
9,
9,
11,
11,
11,
11,
5,
5,
3,
14,
14,
14,
22,
22,
17,
6,
7,
7,
1,
1,
7,
7,
6,
6,
8,
8,
8,
8,
1,
1,
-1,
-1,
-1,
-1,
2,
2,
4,
4,
4,
4,
11,
11,
12,
12,
8,
8,
6,
6,
0,
0,
5,
5,
3,
3,
-1,
-1,
0,
0,
-1,
-1,
0,
0,
0,
0,
1,
1,
2,
2,
1,
1,
-1,
-1,
0,
0,
0,
0,
3,
3,
0,
0,
1,
1,
2,
2,
1,
1,
2,
2,
6,
6,
7,
7,
3,
3,
-1,
-1,
2,
2,
0,
0,
0,
0,
0,
0,
5,
5,
10,
10,
6,
6,
0,
0,
3,
3,
6,
6,
3,
3,
0,
0,
0,
0,
-1,
-1,
1,
1,
2,
2,
0,
0,
0,
0,
4,
4,
5,
5,
5,
5,
5,
5,
2,
2,
2,
2,
-1,
-1,
-1,
-1,
6,
6,
7,
7,
0,
0,
0,
0,
-1,
-1,
2,
2,
3,
3,
0,
0,
5,
5,
5,
5,
3,
3,
-1,
-1,
1,
1,
0,
0,
1,
1,
2,
2,
-1,
-1,
2,
2,
10,
10,
15,
15,
11,
11,
6,
6,
5,
5,
-1,
-1,
0,
0,
2,
2,
5,
5,
6,
6,
8,
8,
6,
6,
0,
0,
6,
6,
10,
10,
8,
8,
1,
1,
3,
3,
-1,
-1,
1,
1,
2,
2,
2,
2,
9,
9,
5,
5,
2,
2,
3,
3,
0,
0,
0,
0,
0,
0,
0,
0,
3,
3,
0,
0,
1,
1,
2,
2,
1,
1,
3,
3,
6,
6,
6,
6,
11,
11,
9,
9,
3,
3,
-1,
-1,
1,
1,
-1,
-1,
-1,
-1,
3,
3,
5,
5,
6,
6,
7,
7,
5,
5,
5,
5,
0,
0,
4,
4,
3,
3,
3,
3,
5,
5,
7,
7,
10,
10,
8,
8,
7,
7,
4,
4,
7,
7,
6,
6,
9,
9,
1,
1,
0,
0,
1,
1,
3,
3,
5,
5,
11,
11,
4,
4,
2,
2,
6,
6,
9,
9,
5,
5,
0,
0,
-1,
-1,
2,
2,
0,
0,
0,
0,
2,
2,
6,
6,
6,
6,
3,
3,
1,
1,
1,
1,
-1,
-1,
0,
0,
0,
0,
0,
0,
-1,
-1,
-1,
-1,
0,
0,
-1,
-1,
0,
0,
-1,
-1,
6,
6,
10,
10,
2,
14,
13,
13,
16,
16,
21,
21,
21,
21,
13,
2,
3,
3,
6,
6,
13,
13,
3,
3,
3,
3,
8,
8,
11,
11,
12,
12,
9,
9,
2,
2,
-1,
-1,
0,
0,
2,
2,
2,
2,
3,
3,
10,
10,
16,
16,
16,
16,
11,
11,
6,
6,
3,
3,
2,
2,
4,
4,
3,
3,
4,
4,
5,
5,
2,
2,
-1,
-1,
0,
0,
3,
3,
7,
7,
2,
2,
-1,
-1,
0,
0,
1,
1,
0,
0,
2,
2,
2,
2,
0,
0,
-1,
-1,
2,
2,
-1,
-1,
0,
0,
-1,
-1,
-1,
-1,
0,
0,
1,
1,
2,
2,
6,
6,
3,
3,
4,
4,
-1,
-1,
4,
15,
14,
14,
7,
7,
1,
1,
1,
1,
0,
0,
-1,
-1,
0,
0,
5,
5,
4,
4,
8,
8,
9,
9,
3,
3,
0,
0,
7,
7,
10,
10,
10,
10,
9,
9,
8,
8,
9,
9,
8,
8,
2,
2,
5,
5,
10,
10,
10,
10,
9,
9,
5,
5,
3,
3,
3,
3,
0,
11,
10,
10,
8,
8,
3,
3,
0,
0,
6,
6,
-1,
-1,
-1,
-1,
2,
2,
2,
2,
-1,
10,
9,
25,
24,
24,
23,
6,
6,
6,
10,
23,
22,
22,
18,
7,
7,
7,
2,
2,
0,
0,
1,
1,
0,
0,
0,
0,
3,
3,
4,
4,
2,
2,
2,
2,
11,
27,
27,
27,
29,
18,
18,
18,
15,
15,
9,
9,
0,
14,
14,
14,
17,
17,
19,
19,
14,
3,
5,
5,
2,
2,
3,
3,
5,
5,
10,
10,
8,
8,
0,
0,
9,
22,
21,
21,
25,
14,
14,
0,
1,
1,
4,
4,
3,
3,
0,
0,
2,
2,
6,
6,
6,
6,
4,
4,
7,
7,
7,
7,
2,
2,
11,
11,
14,
14,
9,
9,
2,
2,
-1,
-1,
3,
3,
0,
0,
0,
0,
-1,
10,
9,
9,
16,
16,
17,
17,
16,
16,
10,
10,
4,
4,
14,
14,
15,
15,
20,
20,
16,
16,
8,
8,
1,
1,
5,
16,
16,
16,
11,
11,
6,
6,
8,
8,
8,
8,
5,
5,
9,
9,
16,
16,
13,
1,
1,
1,
2,
2,
2,
14,
13,
13,
19,
19,
20,
20,
16,
16,
8,
8,
2,
2,
-1,
-1,
-1,
-1,
1,
1,
3,
3,
6,
6,
8,
8,
13,
13,
21,
21,
20,
20,
18,
18,
10,
10,
2,
2,
6,
6,
10,
10,
13,
13,
11,
11,
8,
8,
3,
3,
3,
3,
3,
3,
0,
0,
0,
0,
2,
2,
4,
4,
7,
7,
1,
1,
4,
4,
4,
4,
4,
4,
1,
1,
2,
2,
3,
3,
4,
4,
8,
8,
15,
15,
14,
14,
5,
5,
7,
7,
9,
9,
3,
3,
0,
0,
3,
3,
-1,
-1,
7,
7,
0,
14,
14,
14,
12,
0,
1,
1,
5,
5,
6,
6,
4,
4,
2,
2,
-1,
-1,
4,
4,
13,
13,
11,
11,
1,
1,
5,
5,
6,
6,
6,
6,
10,
10,
6,
6,
5,
5,
4,
4,
1,
1,
5,
5,
8,
8,
7,
7,
2,
2,
6,
6,
12,
12,
9,
9,
2,
2,
1,
1,
6,
6,
4,
4,
6,
6,
10,
10,
7,
7,
2,
2,
10,
10,
6,
6,
0,
0,
0,
0,
5,
5,
1,
16,
15,
15,
15,
0,
2,
2,
2,
2,
0,
0,
2,
2,
3,
3,
1,
1,
0,
0,
3,
3,
6,
6,
-1,
-1,
7,
7,
8,
8,
6,
6,
1,
1,
0,
0,
0,
0,
-1,
-1,
3,
3,
7,
7,
7,
7,
0,
0,
0,
0,
0,
0,
10,
10,
6,
6,
5,
18,
18,
18,
16,
2,
6,
17,
16,
16,
10,
10,
0,
0,
0,
0,
5,
5,
13,
13,
16,
16,
8,
8,
0,
0,
0,
15,
15,
15,
21,
3,
3,
3,
3,
3,
10,
24,
23,
23,
14,
2,
8,
8,
12,
-1,
2,
2,
6,
6,
15,
15,
8,
8,
0,
0,
9,
26,
26,
26,
35,
35,
28,
2,
3,
16,
16,
16,
19,
19,
17,
17,
9,
9,
2,
2,
1,
1,
10,
10,
5,
5,
4,
4,
10,
10,
8,
8,
3,
3,
2,
2,
2,
2,
8,
8,
14,
3,
3,
3,
12,
12,
6,
6,
8,
8,
3,
3,
3,
3,
7,
7,
12,
12,
4,
4,
-1,
-1,
2,
2,
6,
6,
8,
8,
6,
6,
2,
2,
1,
1,
1,
1,
1,
1,
3,
3,
2,
2,
1,
1,
3,
3,
3,
3,
0,
0,
2,
2,
1,
1,
7,
7,
11,
0,
2,
2,
1,
15,
14,
14,
21,
21,
15,
2,
5,
19,
19,
19,
24,
24,
20,
2,
3,
3,
11,
11,
11,
11,
6,
6,
2,
2,
2,
2,
3,
3,
6,
6,
5,
5,
-1,
-1,
0,
0,
2,
2,
-1,
-1,
1,
1,
1,
1,
2,
2,
6,
17,
16,
16,
21,
21,
17,
5,
5,
5,
0,
0,
1,
1,
3,
3,
6,
6,
10,
10,
10,
10,
6,
6,
11,
11,
8,
8,
8,
8,
13,
13,
10,
10,
2,
2,
5,
5,
6,
6,
15,
15,
10,
10,
9,
9,
4,
4,
0,
0,
9,
9,
2,
2,
11,
11,
5,
5,
8,
8,
3,
3,
8,
8,
8,
8,
6,
6,
0,
0,
3,
3,
2,
2,
1,
1,
10,
10,
15,
15,
23,
23,
21,
7,
7,
7,
7,
7,
10,
10,
10,
10,
10,
10,
11,
11,
11,
-1,
2,
2,
5,
5,
4,
4,
6,
6,
2,
2,
0,
0,
-1,
-1,
7,
7,
4,
4,
4,
17,
16,
16,
8,
8,
2,
2,
9,
9,
12,
12,
18,
18,
12,
0,
4,
16,
14,
14,
20,
20,
20,
6,
7,
7,
4,
4,
9,
9,
5,
5,
14,
14,
20,
20,
16,
16,
10,
-1,
0,
0,
1,
1,
3,
3,
0,
0,
2,
2,
1,
1,
4,
4,
5,
5,
4,
4,
5,
5,
2,
2,
2,
2,
0,
0,
1,
1,
2,
2,
0,
0,
6,
22,
22,
22,
16,
5,
6,
6,
1,
1,
-1,
-1,
1,
1,
4,
4,
5,
5,
8,
8,
13,
13,
4,
4,
4,
4,
13,
2,
3,
3,
6,
6,
13,
26,
26,
26,
30,
30,
22,
7,
7,
7,
1,
14,
13,
13,
20,
20,
15,
15,
16,
16,
14,
14,
8,
8,
0,
0,
3,
3,
10,
10,
8,
8,
8,
8,
10,
10,
6,
6,
5,
5,
5,
5,
3,
3,
0,
0,
0,
0,
-1,
-1,
2,
2,
11,
11,
10,
10,
3,
3,
2,
2,
-1,
-1,
3,
3,
7,
7,
8,
8,
7,
7,
0,
0,
2,
2,
3,
3,
5,
5,
6,
6,
3,
3,
-1,
-1,
3,
3,
7,
7,
5,
5,
0,
12,
11,
11,
12,
12,
16,
16,
9,
9,
2,
2,
5,
5,
7,
7,
5,
5,
3,
3,
0,
0,
6,
6,
10,
10,
1,
14,
13,
13,
21,
3,
5,
22,
22,
10,
11,
0,
0,
0,
3,
3,
6,
6,
10,
10,
9,
9,
5,
5,
1,
1,
2,
2,
6,
6,
7,
7,
1,
1,
7,
7,
2,
2,
-1,
-1,
4,
4,
7,
7,
0,
0,
2,
2,
2,
2,
1,
1,
6,
6,
2,
2,
0,
0,
4,
4,
3,
3,
0,
0,
2,
2,
-1,
-1,
2,
2,
6,
6,
0,
0,
4,
4,
12,
12,
6,
6,
4,
4,
0,
0,
5,
5,
10,
10,
11,
11,
3,
14,
12,
12,
16,
2,
2,
2,
0,
0,
5,
5,
12,
12,
8,
8,
0,
0,
3,
3,
11,
11,
14,
14,
8,
8,
7,
7,
2,
2,
-1,
-1,
2,
2,
3,
3,
-1,
-1,
5,
5,
4,
4,
1,
1,
2,
2,
3,
3,
7,
7,
6,
6,
0,
0,
5,
5,
4,
4,
-1,
-1,
2,
2,
6,
6,
3,
3,
2,
2,
0,
0,
3,
3,
5,
5,
7,
7,
0,
0,
3,
3,
1,
1,
1,
1,
5,
5,
4,
4,
4,
4,
5,
5,
5,
32,
31,
42,
40,
18,
18,
1,
4,
4,
12,
12,
19,
19,
19,
19,
10,
10,
16,
16,
21,
8,
9,
9,
2,
2,
7,
19,
19,
19,
14,
14,
10,
10,
11,
11,
11,
11,
5,
5,
5,
5,
5,
5,
0,
0,
1,
1,
0,
0,
1,
1,
7,
7,
3,
3,
0,
0,
3,
3,
-1,
-1,
2,
2,
6,
6,
10,
10,
11,
11,
5,
5,
14,
30,
30,
30,
25,
4,
5,
5,
3,
3,
2,
2,
2,
2,
6,
6,
3,
3,
6,
6,
4,
4,
4,
4,
8,
8,
5,
5,
3,
3,
2,
2,
1,
1,
-1,
-1,
6,
6,
10,
10,
10,
10,
7,
7,
1,
1,
10,
-1,
0,
0,
2,
2,
7,
7,
11,
11,
4,
4,
2,
2,
7,
7,
0,
0,
4,
4,
11,
11,
16,
2,
3,
14,
12,
12,
5,
5,
0,
0,
2,
2,
7,
7,
6,
6,
1,
1,
0,
0,
2,
2,
0,
0,
-1,
-1,
0,
0,
9,
9,
8,
8,
10,
10,
11,
11,
11,
27,
27,
27,
18,
6,
6,
6,
4,
18,
17,
17,
7,
7,
9,
26,
26,
26,
24,
2,
2,
2,
8,
8,
4,
4,
2,
2,
7,
7,
6,
6,
7,
7,
8,
8,
5,
5,
3,
3,
0,
0,
2,
2,
3,
3,
1,
1,
3,
3,
1,
1,
1,
19,
19,
19,
28,
28,
27,
14,
14,
2,
7,
7,
15,
15,
7,
7,
3,
3,
5,
5,
8,
8,
9,
9,
5,
5,
0,
0,
2,
2,
0,
0,
1,
1,
2,
2,
7,
7,
3,
3,
0,
0,
5,
5,
8,
8,
2,
2,
6,
19,
18,
18,
23,
23,
14,
3,
5,
5,
2,
2,
8,
8,
9,
9,
8,
8,
9,
9,
6,
6,
7,
7,
2,
2,
-1,
-1,
6,
6,
10,
10,
8,
8,
6,
6,
0,
0,
3,
3,
3,
3,
1,
1,
7,
7,
10,
10,
6,
6,
-1,
-1,
1,
1,
2,
2,
0,
0,
0,
0,
0,
0,
2,
2,
0,
0,
0,
0,
0,
0,
5,
5,
1,
1,
0,
0,
1,
1,
5,
5,
-1,
-1,
1,
1,
0,
11,
11,
11,
7,
7,
2,
2,
3,
3,
6,
6,
8,
8,
2,
2,
0,
15,
15,
15,
23,
10,
10,
10,
1,
1,
0,
0,
0,
0,
2,
2,
0,
0,
1,
14,
13,
13,
23,
5,
6,
18,
17,
17,
18,
6,
7,
7,
2,
13,
12,
12,
14,
0,
2,
2,
7,
7,
11,
11,
11,
11,
15,
15,
7,
7,
0,
0,
8,
8,
9,
9,
2,
2,
3,
3,
4,
4,
3,
3,
5,
5,
2,
2,
-1,
-1,
-1,
-1,
7,
7,
8,
8,
4,
4,
5,
5,
9,
9,
8,
8,
4,
4,
6,
6,
5,
5,
3,
3,
7,
7,
9,
23,
22,
22,
16,
4,
5,
5,
6,
6,
4,
4,
7,
7,
7,
7,
4,
4,
5,
5,
2,
2,
5,
5,
8,
8,
9,
9,
2,
2,
7,
7,
10,
10,
2,
2,
1,
1,
2,
2,
5,
5,
0,
0,
7,
7,
11,
11,
10,
10,
6,
20,
19,
19,
22,
10,
10,
10,
3,
3,
4,
4,
5,
5,
2,
2,
-1,
-1,
2,
2,
5,
5,
3,
3,
3,
3,
6,
6,
6,
6,
6,
6,
5,
5,
-1,
-1,
2,
2,
2,
2,
3,
3,
-1,
-1,
4,
4,
8,
8,
8,
8,
13,
13,
13,
13,
10,
10,
1,
1,
6,
6,
4,
4,
3,
3,
2,
2,
0,
0,
2,
2,
4,
4,
3,
3,
2,
2,
1,
1,
1,
1,
0,
0,
3,
3,
5,
5,
2,
2,
2,
2,
3,
3,
2,
2,
0,
0,
2,
2,
5,
5,
6,
6,
2,
2,
6,
23,
23,
23,
27,
13,
14,
-1,
2,
2,
5,
5,
6,
6,
7,
7,
4,
4,
8,
8,
2,
2,
0,
0,
-1,
-1,
0,
0,
3,
3,
5,
5,
0,
0,
5,
5,
6,
6,
6,
6,
2,
2,
2,
2,
5,
5,
7,
7,
2,
2,
5,
5,
1,
1,
10,
10,
10,
10,
3,
3,
-1,
-1,
4,
4,
4,
4,
1,
1,
0,
0,
6,
6,
14,
3,
3,
3,
7,
7,
9,
9,
4,
4,
1,
1,
0,
0,
1,
1,
1,
1,
-1,
-1,
2,
2,
1,
1,
2,
2,
1,
1,
5,
5,
2,
2,
3,
14,
13,
13,
17,
17,
10,
-1,
0,
0,
1,
1,
2,
2,
0,
0,
2,
2,
2,
2,
-1,
-1,
0,
0,
2,
2,
3,
3,
6,
6,
5,
5,
5,
5,
8,
8,
5,
5,
5,
5,
1,
1,
-1,
-1,
-1,
-1,
1,
1,
-1,
-1,
4,
4,
5,
5,
4,
4,
5,
5,
2,
2,
0,
0,
6,
6,
3,
3,
6,
6,
15,
15,
9,
9,
7,
7,
9,
9,
4,
4,
0,
0,
-1,
-1,
2,
2,
10,
10,
14,
14,
18,
18,
16,
16,
8,
8,
2,
2,
1,
1,
5,
5,
9,
9,
14,
14,
14,
14,
6,
6,
5,
5,
6,
6,
7,
7,
6,
6,
2,
2,
0,
0,
1,
1,
1,
1,
-1,
-1,
3,
3,
2,
2,
6,
6,
10,
10,
2,
23,
23,
23,
24,
10,
11,
11,
9,
9,
13,
13,
7,
7,
1,
16,
16,
16,
12,
-1,
1,
1,
8,
8,
12,
12,
14,
14,
5,
5,
1,
1,
6,
6,
10,
10,
9,
9,
8,
8,
4,
4,
2,
2,
0,
0,
7,
7,
6,
6,
0,
0,
7,
7,
5,
5,
0,
0,
4,
4,
3,
3,
1,
1,
4,
4,
7,
7,
4,
4,
2,
2,
0,
0,
-1,
-1,
1,
1,
1,
1,
0,
0,
3,
3,
3,
3,
2,
2,
-1,
-1,
2,
2,
-1,
-1,
0,
0,
-1,
-1,
-1,
-1,
-1,
-1,
-1,
-1,
1,
1,
1,
1,
2,
2,
1,
1,
2,
2,
4,
4,
3,
3,
3,
3,
5,
5,
3,
3,
2,
15,
14,
14,
12,
0,
2,
19,
19,
19,
20,
20,
20,
8,
9,
9,
10,
10,
11,
11,
7,
7,
9,
9,
11,
-1,
-1,
-1,
4,
4,
-1,
-1,
-1,
-1,
1,
1,
2,
2,
5,
5,
5,
5,
4,
4,
7,
18,
17,
32,
31,
31,
24,
3,
3,
3,
6,
6,
12,
12,
17,
17,
14,
14,
11,
11,
9,
9,
7,
7,
3,
3,
5,
5,
10,
10,
5,
5,
3,
3,
5,
5,
4,
4,
2,
2,
5,
5,
7,
7,
8,
8,
9,
9,
6,
6,
0,
0,
5,
5,
3,
3,
2,
2,
2,
2,
3,
3,
0,
0,
3,
3,
-1,
-1,
3,
3,
0,
0,
2,
2,
1,
1,
0,
0,
2,
2,
-1,
-1,
-1,
-1,
0,
0,
2,
2,
0,
0,
1,
1,
0,
0,
1,
12,
11,
11,
11,
11,
3,
3,
2,
2,
3,
3,
0,
0,
0,
0,
1,
1,
5,
5,
0,
16,
16,
16,
20,
5,
6,
6,
3,
3,
-1,
-1,
3,
3,
7,
7,
15,
15,
19,
6,
6,
6,
4,
4,
7,
7,
4,
4,
4,
4,
5,
5,
6,
6,
2,
2,
3,
3,
6,
6,
7,
7,
6,
6,
4,
4,
1,
1,
4,
4,
5,
5,
0,
0,
3,
3,
8,
8,
9,
9,
3,
3,
0,
0,
6,
6,
7,
7,
3,
3,
3,
3,
-1,
-1,
2,
2,
3,
3,
0,
0,
-1,
-1,
2,
2,
4,
4,
0,
0,
-1,
-1,
-1,
-1,
4,
4,
11,
11,
7,
7,
1,
1,
4,
4,
0,
0,
-1,
-1,
7,
7,
5,
5,
5,
5,
12,
12,
10,
-1,
-1,
-1,
2,
2,
2,
2,
9,
9,
4,
4,
5,
5,
7,
7,
0,
0,
4,
4,
7,
7,
3,
3,
-1,
-1,
0,
0,
1,
1,
2,
2,
2,
2,
6,
6,
6,
6,
3,
3,
0,
0,
7,
7,
12,
12,
11,
0,
1,
1,
7,
7,
12,
12,
14,
14,
5,
5,
5,
5,
0,
0,
3,
3,
4,
4,
8,
8,
18,
18,
10,
10,
3,
3,
-1,
-1,
3,
3,
4,
4,
-1,
-1,
2,
2,
0,
0,
4,
4,
2,
2,
3,
3,
4,
4,
0,
0,
3,
3,
7,
7,
6,
6,
7,
7,
12,
12,
8,
8,
0,
11,
10,
10,
14,
3,
3,
3,
6,
6,
4,
4,
8,
8,
15,
0,
1,
1,
2,
2,
0,
0,
2,
2,
6,
6,
5,
5,
3,
3,
1,
1,
4,
4,
-1,
-1,
4,
4,
0,
0,
6,
6,
7,
7,
7,
7,
11,
11,
6,
6,
2,
2,
2,
2,
2,
2,
0,
12,
12,
12,
13,
13,
6,
6,
6,
6,
6,
6,
0,
0,
5,
5,
6,
6,
4,
4,
2,
2,
-1,
-1,
0,
0,
3,
3,
5,
5,
2,
2,
0,
0,
