EMG_S1/DS0126.CSV

Memory Length,4000,
Trigger Level,0.00000e+00,
Source,CH1,
Probe,1.0X,
Vertical Units,V,
Vertical Scale,1.00000e+00,
Vertical Position,4.00000e-02,
Horizontal Units,S,
Horizontal Scale,1.00000e-01,
Horizontal Position,0.0000000e+00,
Horizontal Mode,Roll Mode,
Waveform Last Dot Address,4000,
Sampling Period,4.00000e-04,
Firmware,V1.14,
Time, ,
Mode,Fast,
Waveform Data,
0,
0,
3,
3,
0,
0,
4,
4,
3,
3,
8,
8,
10,
10,
8,
8,
4,
4,
0,
14,
12,
12,
15,
15,
11,
11,
3,
3,
6,
6,
16,
27,
26,
26,
30,
19,
19,
2,
2,
2,
6,
6,
15,
15,
20,
20,
22,
22,
16,
5,
6,
6,
3,
3,
5,
5,
3,
3,
6,
6,
13,
13,
14,
2,
4,
4,
1,
1,
5,
5,
8,
8,
2,
2,
2,
2,
7,
7,
10,
10,
11,
11,
8,
8,
8,
8,
5,
5,
3,
3,
5,
5,
11,
11,
7,
7,
5,
5,
2,
2,
2,
2,
3,
3,
4,
4,
3,
3,
0,
0,
4,
4,
6,
6,
2,
2,
0,
0,
-1,
-1,
7,
24,
23,
23,
32,
17,
17,
5,
5,
5,
2,
2,
6,
6,
14,
14,
18,
18,
15,
15,
12,
12,
5,
5,
3,
3,
0,
17,
16,
16,
13,
2,
3,
3,
-1,
-1,
-1,
-1,
0,
0,
5,
5,
4,
4,
0,
0,
3,
3,
4,
4,
0,
0,
0,
0,
0,
0,
0,
0,
0,
0,
-1,
-1,
4,
4,
6,
6,
7,
7,
6,
6,
2,
2,
1,
1,
2,
2,
3,
3,
0,
0,
3,
3,
3,
3,
5,
5,
3,
3,
0,
0,
4,
4,
3,
3,
8,
19,
18,
4,
6,
6,
2,
2,
3,
3,
3,
3,
7,
7,
7,
7,
3,
3,
12,
12,
9,
9,
1,
1,
9,
9,
8,
8,
2,
2,
1,
14,
13,
24,
23,
8,
9,
9,
9,
9,
11,
11,
8,
8,
7,
7,
7,
7,
3,
3,
10,
10,
10,
10,
1,
1,
5,
5,
0,
0,
6,
6,
8,
8,
3,
3,
5,
5,
8,
8,
13,
24,
24,
24,
17,
2,
4,
4,
10,
10,
11,
11,
11,
11,
10,
10,
9,
9,
5,
5,
3,
3,
1,
1,
2,
2,
2,
2,
-1,
-1,
3,
3,
3,
3,
2,
2,
5,
5,
7,
18,
18,
18,
17,
17,
11,
11,
7,
7,
6,
6,
-1,
-1,
5,
5,
10,
10,
2,
2,
3,
3,
-1,
-1,
5,
5,
7,
7,
6,
6,
0,
0,
2,
2,
-1,
-1,
2,
2,
3,
3,
9,
9,
5,
5,
0,
0,
6,
6,
8,
8,
-1,
-1,
0,
0,
2,
2,
2,
2,
0,
0,
3,
3,
7,
7,
5,
5,
5,
5,
6,
6,
4,
4,
10,
10,
12,
12,
5,
5,
3,
3,
1,
1,
-1,
-1,
4,
4,
11,
11,
7,
7,
3,
3,
2,
2,
9,
9,
11,
0,
1,
1,
9,
9,
14,
14,
7,
7,
7,
7,
6,
6,
1,
13,
12,
12,
15,
15,
23,
37,
36,
25,
26,
14,
15,
1,
2,
22,
21,
21,
26,
26,
21,
21,
20,
20,
16,
16,
13,
13,
8,
8,
0,
0,
1,
1,
4,
4,
13,
13,
14,
14,
14,
14,
7,
7,
4,
4,
7,
7,
3,
3,
0,
0,
5,
5,
3,
3,
7,
7,
12,
12,
7,
7,
3,
3,
2,
2,
1,
1,
3,
3,
2,
2,
3,
3,
7,
7,
14,
14,
9,
9,
1,
1,
6,
6,
7,
7,
3,
3,
1,
1,
6,
6,
8,
8,
7,
7,
0,
0,
3,
3,
3,
3,
10,
10,
10,
10,
1,
1,
3,
3,
5,
5,
3,
3,
3,
3,
1,
1,
3,
3,
-1,
-1,
-1,
-1,
0,
0,
6,
6,
6,
6,
1,
1,
1,
1,
3,
3,
1,
1,
-1,
-1,
5,
5,
8,
8,
16,
16,
16,
3,
4,
4,
5,
5,
4,
4,
0,
0,
-1,
-1,
0,
0,
6,
6,
4,
4,
1,
1,
6,
6,
7,
7,
5,
5,
3,
3,
-1,
-1,
-1,
-1,
0,
0,
3,
3,
3,
3,
10,
-1,
0,
0,
3,
3,
8,
8,
2,
2,
2,
14,
13,
25,
24,
24,
27,
6,
6,
6,
1,
1,
3,
3,
6,
6,
4,
4,
5,
5,
6,
6,
5,
5,
3,
15,
14,
31,
30,
18,
19,
2,
2,
2,
0,
0,
-1,
-1,
3,
3,
6,
6,
4,
4,
1,
1,
3,
3,
5,
5,
2,
2,
0,
0,
0,
0,
6,
6,
10,
10,
6,
6,
-1,
-1,
-1,
-1,
0,
14,
13,
13,
16,
16,
20,
20,
15,
3,
4,
4,
4,
4,
8,
8,
11,
11,
8,
8,
5,
5,
7,
7,
8,
8,
5,
5,
2,
2,
0,
0,
7,
7,
8,
8,
12,
12,
17,
17,
13,
13,
12,
12,
6,
6,
4,
4,
11,
11,
3,
3,
0,
0,
4,
4,
7,
7,
3,
3,
0,
0,
5,
5,
8,
8,
2,
2,
0,
0,
2,
2,
2,
2,
8,
8,
5,
5,
0,
0,
7,
7,
10,
10,
3,
3,
10,
10,
2,
19,
18,
4,
13,
26,
24,
8,
9,
9,
2,
2,
4,
4,
0,
12,
11,
24,
23,
6,
7,
20,
19,
19,
14,
14,
8,
8,
2,
2,
2,
2,
2,
2,
3,
3,
0,
0,
5,
5,
1,
1,
0,
0,
2,
2,
6,
6,
2,
2,
0,
0,
0,
0,
4,
4,
11,
11,
12,
12,
12,
12,
8,
8,
1,
1,
2,
2,
2,
2,
3,
20,
19,
19,
10,
10,
8,
19,
18,
18,
18,
3,
3,
3,
2,
2,
0,
0,
4,
4,
6,
6,
13,
13,
7,
7,
12,
12,
20,
20,
11,
11,
2,
2,
-1,
-1,
-1,
-1,
3,
3,
2,
2,
-1,
-1,
-1,
-1,
0,
0,
3,
3,
3,
3,
6,
6,
4,
4,
1,
1,
3,
3,
7,
7,
5,
5,
0,
0,
6,
6,
6,
6,
5,
5,
2,
2,
-1,
-1,
2,
2,
2,
2,
1,
1,
2,
2,
6,
6,
5,
22,
21,
21,
25,
25,
19,
2,
3,
17,
17,
29,
27,
3,
5,
17,
16,
3,
4,
4,
5,
5,
1,
1,
2,
2,
4,
4,
6,
6,
11,
11,
2,
2,
0,
12,
11,
11,
14,
14,
7,
7,
3,
3,
12,
12,
21,
10,
10,
10,
6,
6,
8,
8,
8,
8,
9,
9,
0,
0,
10,
10,
6,
6,
4,
4,
6,
6,
6,
6,
3,
3,
3,
3,
1,
1,
0,
0,
-1,
-1,
0,
0,
1,
1,
0,
0,
7,
7,
14,
14,
6,
6,
0,
0,
8,
8,
8,
8,
0,
0,
3,
3,
8,
8,
3,
3,
-1,
-1,
5,
5,
11,
0,
1,
1,
4,
4,
0,
0,
2,
19,
19,
19,
29,
29,
26,
7,
8,
8,
6,
6,
15,
15,
16,
16,
18,
18,
18,
18,
10,
10,
7,
7,
5,
5,
7,
7,
2,
2,
9,
9,
14,
14,
16,
16,
13,
13,
10,
10,
8,
8,
4,
15,
14,
14,
12,
12,
8,
8,
3,
3,
-1,
-1,
1,
1,
3,
21,
20,
20,
17,
17,
16,
16,
11,
0,
4,
4,
12,
12,
8,
8,
13,
13,
8,
8,
0,
0,
4,
4,
0,
0,
5,
5,
6,
6,
11,
11,
16,
16,
19,
3,
5,
5,
0,
0,
7,
7,
7,
7,
0,
0,
6,
6,
6,
6,
5,
5,
4,
4,
2,
2,
11,
11,
10,
10,
3,
3,
12,
12,
11,
11,
3,
3,
0,
0,
5,
16,
15,
26,
25,
25,
30,
30,
30,
30,
35,
19,
19,
5,
22,
40,
39,
39,
32,
16,
16,
4,
5,
5,
5,
5,
7,
7,
6,
6,
11,
11,
19,
7,
7,
7,
9,
22,
21,
21,
22,
22,
21,
7,
8,
8,
1,
1,
3,
3,
5,
5,
7,
7,
16,
16,
16,
16,
10,
10,
5,
5,
5,
5,
7,
7,
8,
8,
9,
9,
11,
11,
12,
12,
11,
11,
4,
4,
2,
2,
0,
0,
6,
6,
0,
0,
2,
2,
7,
7,
15,
15,
11,
11,
8,
8,
5,
5,
0,
0,
8,
8,
15,
15,
21,
3,
4,
24,
24,
24,
26,
26,
24,
24,
16,
16,
16,
1,
2,
2,
0,
0,
10,
10,
3,
3,
3,
3,
2,
2,
-1,
-1,
5,
5,
3,
3,
8,
8,
15,
15,
7,
7,
14,
14,
9,
9,
4,
4,
7,
24,
23,
34,
34,
34,
32,
21,
22,
5,
6,
6,
2,
2,
8,
8,
15,
15,
14,
14,
9,
9,
12,
26,
26,
26,
32,
20,
20,
6,
6,
6,
7,
32,
31,
31,
39,
28,
30,
10,
11,
11,
9,
9,
15,
2,
2,
2,
8,
8,
6,
6,
1,
1,
11,
11,
5,
5,
5,
5,
12,
24,
24,
24,
25,
7,
8,
8,
1,
1,
4,
4,
2,
14,
13,
25,
24,
24,
15,
15,
6,
6,
3,
3,
10,
10,
3,
3,
6,
6,
1,
1,
5,
5,
4,
4,
2,
2,
0,
0,
3,
14,
13,
13,
8,
8,
3,
3,
9,
9,
16,
16,
7,
7,
0,
0,
8,
8,
15,
15,
15,
0,
0,
0,
-1,
-1,
0,
0,
0,
0,
5,
5,
14,
14,
7,
7,
4,
19,
18,
18,
19,
19,
13,
2,
3,
3,
6,
6,
9,
31,
31,
31,
40,
55,
55,
55,
50,
18,
18,
6,
20,
40,
39,
39,
43,
43,
37,
24,
25,
12,
12,
1,
2,
2,
1,
1,
-1,
-1,
7,
7,
14,
14,
8,
8,
8,
8,
15,
15,
11,
11,
15,
15,
19,
8,
8,
8,
10,
10,
10,
10,
6,
6,
2,
13,
13,
13,
12,
12,
3,
3,
10,
26,
26,
26,
20,
7,
8,
8,
2,
2,
-1,
-1,
7,
20,
19,
19,
26,
14,
15,
15,
6,
6,
2,
2,
0,
0,
4,
4,
0,
0,
4,
4,
6,
6,
3,
3,
0,
0,
0,
0,
0,
0,
3,
3,
0,
0,
6,
6,
5,
5,
0,
0,
-1,
-1,
6,
6,
8,
8,
3,
3,
0,
0,
0,
0,
0,
0,
1,
1,
5,
5,
6,
6,
5,
5,
7,
7,
2,
2,
4,
4,
3,
3,
4,
4,
4,
4,
3,
3,
0,
0,
0,
0,
2,
2,
-1,
-1,
0,
0,
2,
2,
2,
2,
0,
0,
0,
0,
2,
2,
-1,
-1,
1,
1,
6,
6,
1,
1,
-1,
-1,
3,
3,
11,
11,
18,
18,
14,
14,
7,
7,
7,
7,
12,
1,
5,
24,
23,
23,
25,
25,
20,
20,
14,
14,
12,
12,
10,
10,
15,
4,
5,
5,
10,
10,
10,
10,
15,
15,
14,
14,
23,
39,
39,
61,
60,
48,
48,
12,
12,
12,
18,
38,
38,
38,
46,
46,
43,
31,
31,
11,
12,
-1,
1,
1,
2,
2,
2,
2,
9,
9,
4,
4,
4,
4,
2,
2,
5,
16,
15,
15,
15,
15,
17,
32,
32,
32,
31,
19,
19,
3,
9,
9,
16,
16,
8,
8,
5,
5,
7,
19,
18,
18,
18,
18,
14,
2,
4,
4,
4,
4,
3,
3,
10,
10,
14,
1,
2,
2,
7,
7,
12,
12,
18,
18,
27,
27,
30,
7,
8,
8,
-1,
-1,
8,
8,
17,
17,
12,
1,
2,
2,
2,
2,
6,
6,
9,
9,
1,
1,
5,
5,
1,
1,
7,
7,
0,
0,
0,
0,
7,
7,
0,
0,
6,
6,
4,
4,
1,
1,
2,
2,
8,
8,
4,
4,
-1,
-1,
-1,
-1,
-1,
-1,
0,
11,
11,
11,
14,
14,
14,
14,
12,
12,
8,
8,
0,
0,
1,
1,
3,
3,
1,
1,
3,
3,
4,
4,
-1,
-1,
0,
0,
3,
3,
1,
1,
0,
0,
2,
2,
2,
2,
0,
0,
5,
5,
15,
15,
12,
1,
5,
16,
15,
15,
17,
17,
7,
7,
9,
24,
23,
23,
17,
17,
10,
10,
17,
17,
14,
2,
7,
18,
16,
16,
22,
22,
16,
3,
3,
3,
3,
3,
3,
3,
2,
2,
1,
1,
1,
1,
6,
6,
6,
6,
5,
5,
1,
12,
12,
12,
17,
17,
9,
9,
5,
5,
0,
0,
3,
3,
0,
21,
21,
36,
36,
36,
38,
25,
26,
5,
14,
38,
37,
37,
43,
43,
44,
31,
31,
16,
17,
6,
6,
6,
2,
2,
3,
3,
7,
7,
8,
8,
9,
9,
11,
11,
8,
8,
12,
12,
16,
16,
16,
16,
15,
15,
16,
16,
22,
22,
20,
4,
5,
5,
3,
3,
4,
4,
8,
8,
16,
16,
21,
21,
16,
0,
0,
0,
-1,
-1,
3,
3,
-1,
-1,
4,
4,
3,
3,
4,
4,
2,
24,
24,
24,
30,
16,
16,
3,
3,
3,
7,
7,
8,
8,
10,
10,
10,
10,
10,
10,
8,
8,
0,
0,
4,
4,
7,
7,
5,
5,
1,
1,
3,
3,
6,
6,
10,
10,
11,
11,
4,
4,
6,
17,
17,
17,
19,
19,
17,
2,
7,
23,
23,
23,
22,
22,
18,
18,
16,
16,
18,
3,
3,
3,
9,
9,
7,
7,
7,
7,
1,
1,
0,
0,
5,
5,
12,
12,
20,
9,
9,
9,
1,
1,
10,
10,
18,
18,
18,
0,
1,
1,
7,
21,
20,
20,
25,
25,
15,
1,
1,
1,
1,
1,
4,
4,
7,
7,
2,
2,
2,
2,
4,
4,
6,
6,
1,
1,
2,
2,
9,
9,
12,
12,
10,
10,
16,
16,
9,
9,
0,
0,
5,
5,
0,
0,
2,
2,
3,
3,
0,
0,
9,
9,
7,
7,
7,
7,
14,
14,
13,
13,
11,
11,
5,
5,
0,
0,
2,
2,
3,
3,
10,
10,
11,
11,
2,
2,
-2,
-2,
2,
2,
1,
1,
9,
24,
23,
23,
25,
6,
6,
6,
5,
5,
10,
10,
15,
15,
5,
5,
5,
5,
12,
12,
13,
13,
17,
17,
18,
18,
10,
10,
9,
9,
17,
17,
13,
0,
0,
0,
8,
8,
17,
17,
26,
26,
34,
20,
20,
5,
6,
6,
1,
1,
2,
2,
4,
4,
2,
2,
0,
0,
3,
3,
11,
11,
3,
3,
1,
1,
3,
3,
2,
2,
3,
3,
5,
5,
3,
3,
8,
8,
11,
11,
20,
20,
26,
26,
23,
23,
14,
1,
7,
7,
14,
14,
17,
17,
17,
17,
17,
17,
10,
10,
10,
10,
16,
16,
11,
11,
8,
8,
5,
5,
-1,
17,
16,
31,
29,
29,
29,
14,
14,
-1,
0,
0,
5,
5,
4,
4,
1,
1,
5,
5,
14,
14,
16,
16,
16,
3,
3,
3,
0,
0,
4,
4,
11,
11,
20,
34,
33,
20,
20,
0,
2,
2,
7,
7,
2,
2,
7,
26,
25,
25,
23,
7,
7,
7,
0,
0,
4,
4,
3,
3,
1,
1,
8,
8,
16,
16,
11,
11,
8,
8,
2,
2,
11,
11,
15,
0,
1,
12,
11,
34,
33,
44,
44,
24,
25,
2,
3,
3,
0,
15,
15,
26,
25,
25,
19,
19,
18,
18,
14,
14,
8,
8,
9,
9,
2,
2,
9,
9,
16,
16,
19,
19,
16,
16,
7,
7,
5,
5,
7,
7,
1,
1,
10,
10,
14,
14,
8,
8,
6,
6,
1,
1,
3,
3,
12,
12,
13,
13,
7,
7,
9,
9,
3,
3,
0,
0,
0,
0,
1,
1,
2,
2,
6,
6,
7,
7,
0,
14,
13,
13,
15,
15,
10,
10,
14,
14,
6,
6,
7,
7,
7,
7,
2,
2,
-1,
-1,
4,
16,
15,
32,
31,
31,
35,
10,
10,
-1,
0,
0,
5,
17,
16,
16,
20,
20,
21,
21,
18,
18,
10,
10,
1,
1,
0,
0,
0,
0,
7,
7,
7,
7,
5,
5,
9,
9,
12,
12,
11,
11,
6,
6,
2,
2,
3,
3,
7,
7,
2,
2,
1,
1,
5,
5,
0,
14,
14,
14,
6,
6,
3,
3,
8,
8,
13,
13,
15,
15,
17,
17,
12,
0,
3,
3,
12,
12,
16,
16,
12,
12,
6,
6,
5,
5,
10,
10,
7,
7,
3,
3,
3,
3,
2,
2,
0,
0,
3,
3,
4,
4,
13,
13,
10,
10,
6,
6,
3,
3,
0,
11,
11,
11,
16,
16,
7,
7,
0,
0,
0,
0,
0,
0,
8,
8,
7,
7,
10,
10,
3,
3,
10,
10,
10,
-1,
0,
0,
-1,
-1,
5,
5,
9,
9,
5,
5,
0,
0,
1,
1,
7,
7,
15,
15,
12,
12,
12,
12,
2,
2,
7,
7,
9,
9,
11,
11,
13,
13,
16,
16,
21,
21,
14,
0,
0,
0,
4,
4,
7,
7,
14,
14,
15,
15,
18,
18,
25,
25,
16,
0,
0,
0,
7,
7,
1,
14,
14,
14,
10,
10,
5,
5,
14,
14,
13,
13,
7,
7,
0,
0,
0,
0,
-1,
-1,
7,
7,
4,
4,
6,
6,
8,
8,
-1,
-1,
5,
5,
4,
4,
6,
6,
6,
6,
9,
9,
4,
4,
1,
1,
6,
6,
6,
6,
0,
0,
0,
0,
3,
3,
6,
6,
3,
3,
-1,
-1,
-1,
-1,
1,
1,
4,
4,
6,
6,
0,
0,
9,
9,
16,
16,
18,
18,
15,
15,
9,
9,
14,
14,
11,
11,
8,
8,
16,
16,
20,
20,
14,
3,
4,
4,
6,
6,
9,
9,
10,
10,
9,
9,
4,
4,
0,
14,
14,
26,
26,
26,
26,
15,
15,
15,
14,
14,
13,
13,
11,
0,
2,
17,
17,
17,
14,
3,
4,
4,
2,
2,
10,
10,
9,
9,
3,
3,
3,
3,
9,
9,
7,
7,
3,
3,
2,
2,
4,
4,
14,
14,
7,
7,
0,
0,
0,
0,
2,
2,
1,
1,
0,
0,
3,
3,
3,
3,
4,
4,
8,
8,
5,
5,
4,
4,
-1,
-1,
7,
7,
14,
14,
14,
14,
13,
13,
11,
0,
1,
1,
2,
2,
1,
1,
1,
1,
2,
2,
-1,
-1,
3,
3,
6,
6,
5,
5,
8,
8,
4,
4,
0,
0,
1,
1,
3,
3,
6,
6,
10,
10,
7,
7,
3,
3,
4,
4,
4,
4,
9,
21,
21,
21,
18,
4,
4,
4,
5,
5,
3,
3,
-1,
-1,
1,
1,
11,
11,
15,
15,
11,
11,
7,
7,
1,
1,
-1,
-1,
1,
1,
5,
5,
5,
5,
10,
10,
15,
15,
8,
8,
0,
0,
0,
0,
-2,
-2,
-1,
-1,
1,
1,
0,
0,
3,
3,
11,
11,
18,
18,
19,
19,
11,
0,
5,
5,
15,
15,
20,
20,
23,
23,
30,
19,
20,
6,
7,
7,
5,
18,
17,
35,
34,
34,
32,
32,
32,
32,
35,
35,
34,
16,
16,
3,
15,
34,
34,
34,
41,
41,
36,
19,
19,
19,
12,
12,
11,
11,
2,
2,
7,
7,
6,
6,
7,
7,
10,
10,
11,
11,
15,
15,
14,
14,
11,
11,
14,
14,
10,
10,
6,
6,
-1,
-1,
2,
2,
2,
2,
2,
2,
4,
4,
3,
3,
0,
0,
0,
0,
2,
2,
6,
6,
8,
8,
7,
7,
4,
4,
0,
0,
6,
6,
13,
13,
16,
16,
11,
11,
7,
7,
7,
7,
1,
1,
1,
1,
5,
5,
7,
7,
3,
3,
5,
5,
4,
4,
1,
1,
8,
8,
8,
8,
6,
6,
0,
0,
2,
2,
2,
2,
0,
0,
2,
2,
5,
5,
2,
2,
-1,
-1,
4,
4,
3,
3,
4,
4,
2,
2,
1,
1,
-1,
-1,
0,
0,
0,
0,
4,
4,
7,
7,
6,
6,
0,
0,
4,
4,
6,
6,
1,
1,
1,
1,
4,
4,
7,
7,
11,
11,
5,
5,
1,
1,
4,
4,
8,
8,
6,
6,
2,
2,
3,
3,
0,
0,
2,
2,
6,
6,
7,
7,
10,
10,
6,
6,
0,
0,
1,
1,
-1,
-1,
0,
0,
8,
8,
13,
13,
6,
6,
-1,
-1,
4,
4,
8,
8,
10,
10,
7,
7,
12,
12,
19,
19,
12,
0,
6,
6,
12,
12,
8,
8,
7,
7,
4,
4,
1,
1,
0,
0,
-1,
-1,
1,
1,
2,
2,
2,
2,
5,
16,
16,
16,
22,
2,
3,
3,
0,
0,
2,
2,
3,
3,
5,
5,
5,
5,
8,
8,
5,
5,
4,
4,
6,
6,
9,
9,
4,
4,
11,
11,
15,
4,
5,
5,
1,
1,
1,
1,
2,
2,
6,
6,
0,
0,
5,
5,
4,
4,
1,
1,
10,
10,
16,
16,
11,
-1,
0,
0,
2,
2,
11,
11,
9,
9,
8,
8,
7,
7,
4,
4,
6,
6,
12,
12,
16,
16,
16,
16,
13,
0,
2,
2,
0,
0,
4,
4,
0,
0,
3,
15,
13,
13,
19,
19,
15,
3,
3,
3,
2,
2,
1,
1,
8,
8,
1,
1,
4,
4,
8,
8,
6,
6,
10,
10,
6,
6,
4,
4,
0,
0,
4,
4,
10,
10,
18,
18,
27,
27,
22,
22,
17,
3,
4,
15,
14,
25,
24,
24,
22,
22,
20,
20,
14,
14,
6,
6,
0,
0,
7,
7,
8,
8,
7,
7,
3,
3,
2,
2,
6,
6,
5,
5,
2,
2,
5,
5,
10,
10,
10,
10,
6,
6,
4,
4,
4,
4,
2,
2,
10,
10,
5,
5,
-1,
-1,
2,
2,
5,
5,
1,
1,
0,
0,
0,
0,
4,
4,
2,
2,
3,
3,
7,
7,
11,
11,
14,
14,
6,
6,
2,
2,
0,
0,
10,
10,
11,
11,
4,
4,
7,
7,
16,
16,
12,
12,
7,
7,
8,
8,
2,
2,
10,
10,
10,
10,
6,
6,
10,
10,
5,
5,
5,
5,
2,
17,
16,
16,
16,
16,
9,
9,
0,
15,
14,
14,
23,
23,
20,
20,
18,
18,
12,
-1,
1,
1,
5,
5,
6,
6,
12,
12,
11,
11,
13,
13,
13,
13,
12,
12,
9,
9,
6,
6,
-1,
-1,
0,
0,
-1,
-1,
2,
2,
3,
3,
4,
4,
8,
8,
5,
5,
0,
0,
6,
6,
6,
6,
2,
2,
4,
4,
0,
11,
10,
10,
14,
14,
18,
4,
5,
5,
0,
0,
1,
1,
0,
0,
5,
5,
10,
10,
10,
10,
8,
8,
6,
6,
0,
0,
0,
0,
-1,
-1,
0,
0,
0,
0,
6,
6,
12,
12,
6,
6,
7,
7,
11,
11,
8,
8,
3,
3,
0,
0,
-1,
-1,
3,
3,
3,
3,
0,
0,
0,
0,
4,
4,
3,
3,
6,
6,
12,
12,
10,
10,
6,
6,
2,
2,
-1,
-1,
4,
4,
7,
7,
11,
11,
8,
8,
14,
14,
10,
-1,
1,
1,
7,
7,
7,
7,
6,
6,
6,
6,
0,
0,
4,
4,
10,
10,
12,
0,
1,
1,
8,
8,
4,
4,
3,
3,
10,
10,
11,
11,
7,
7,
-1,
-1,
2,
2,
8,
8,
13,
13,
13,
13,
6,
6,
3,
3,
0,
0,
0,
0,
3,
3,
1,
1,
1,
1,
4,
4,
7,
7,
7,
7,
0,
0,
4,
4,
1,
1,
1,
1,
1,
1,
0,
0,
0,
0,
-1,
-1,
0,
0,
0,
0,
8,
8,
14,
14,
13,
13,
8,
8,
14,
14,
11,
11,
10,
23,
22,
22,
16,
5,
6,
6,
5,
5,
7,
7,
3,
3,
1,
1,
2,
2,
0,
0,
-1,
-1,
2,
2,
6,
6,
9,
9,
10,
10,
7,
7,
6,
6,
5,
5,
2,
2,
2,
2,
1,
1,
3,
3,
8,
8,
7,
7,
14,
14,
8,
8,
1,
1,
9,
9,
17,
17,
12,
12,
4,
4,
0,
0,
2,
2,
4,
4,
2,
2,
1,
1,
-1,
-1,
6,
6,
6,
6,
10,
10,
12,
12,
6,
6,
0,
0,
-1,
-1,
0,
0,
3,
3,
6,
6,
1,
1,
3,
3,
8,
8,
1,
1,
10,
10,
16,
16,
11,
11,
8,
8,
3,
3,
4,
15,
15,
26,
26,
26,
22,
8,
8,
8,
3,
3,
6,
6,
8,
8,
10,
10,
10,
10,
6,
6,
0,
0,
1,
1,
4,
4,
4,
4,
5,
5,
4,
4,
0,
0,
-1,
-1,
0,
0,
1,
1,
10,
10,
9,
9,
8,
8,
4,
4,
3,
3,
4,
4,
0,
0,
5,
5,
6,
6,
4,
4,
6,
6,
7,
7,
4,
4,
-1,
-1,
2,
2,
3,
3,
3,
3,
4,
4,
6,
17,
16,
16,
14,
1,
2,
2,
0,
0,
2,
2,
0,
0,
5,
5,
14,
14,
10,
10,
5,
5,
11,
11,
6,
6,
0,
0,
4,
4,
6,
6,
2,
2,
9,
9,
2,
2,
-1,
-1,
-1,
-1,
6,
6,
2,
2,
4,
4,
1,
1,
0,
0,
2,
2,
2,
2,
5,
5,
3,
3,
-1,
-1,
-1,
-1,
4,
4,
10,
10,
6,
6,
7,
7,
3,
3,
2,
2,
0,
0,
0,
0,
3,
15,
15,
15,
10,
-1,
1,
1,
5,
5,
