EMG_S1/DS0167.CSV

Memory Length,4000,
Trigger Level,0.00000e+00,
Source,CH1,
Probe,1.0X,
Vertical Units,V,
Vertical Scale,1.00000e+00,
Vertical Position,4.00000e-02,
Horizontal Units,S,
Horizontal Scale,1.00000e-01,
Horizontal Position,0.0000000e+00,
Horizontal Mode,Roll Mode,
Waveform Last Dot Address,4000,
Sampling Period,4.00000e-04,
Firmware,V1.14,
Time, ,
Mode,Fast,
Waveform Data,
0,
0,
5,
5,
6,
6,
6,
6,
4,
4,
2,
2,
3,
3,
2,
2,
4,
4,
1,
1,
1,
1,
0,
0,
2,
2,
2,
2,
2,
2,
3,
3,
5,
5,
7,
7,
10,
10,
6,
6,
1,
1,
6,
6,
3,
3,
4,
4,
0,
12,
11,
11,
12,
12,
3,
3,
6,
6,
1,
1,
6,
6,
13,
13,
10,
10,
8,
8,
12,
12,
7,
7,
5,
5,
6,
6,
3,
3,
4,
4,
12,
-1,
1,
1,
8,
8,
2,
2,
3,
3,
7,
7,
2,
2,
-1,
-1,
-1,
-1,
0,
0,
2,
2,
6,
6,
7,
7,
2,
2,
0,
0,
0,
0,
1,
1,
0,
0,
2,
2,
1,
1,
2,
2,
9,
9,
7,
7,
8,
8,
12,
12,
13,
0,
3,
15,
15,
15,
19,
19,
24,
24,
22,
22,
14,
1,
2,
2,
8,
26,
25,
25,
26,
14,
14,
14,
11,
11,
10,
10,
3,
3,
4,
4,
11,
11,
12,
12,
8,
8,
4,
4,
0,
0,
0,
0,
2,
2,
0,
0,
-1,
-1,
-1,
-1,
-1,
-1,
-1,
-1,
0,
0,
5,
5,
9,
9,
11,
11,
13,
13,
6,
6,
1,
1,
8,
8,
10,
10,
4,
4,
2,
2,
5,
5,
7,
7,
12,
12,
13,
13,
5,
5,
-1,
-1,
3,
3,
3,
3,
3,
3,
4,
4,
0,
0,
4,
4,
5,
5,
6,
6,
13,
13,
20,
20,
15,
15,
12,
1,
2,
2,
2,
2,
7,
7,
3,
3,
1,
1,
1,
1,
1,
1,
1,
1,
1,
1,
2,
2,
5,
5,
1,
1,
0,
0,
0,
0,
4,
4,
9,
9,
10,
10,
6,
6,
4,
4,
1,
1,
2,
2,
-1,
-1,
0,
0,
-1,
-1,
2,
2,
4,
4,
2,
2,
6,
6,
7,
7,
4,
4,
6,
6,
2,
2,
0,
0,
0,
0,
3,
3,
7,
7,
11,
11,
6,
6,
0,
0,
5,
5,
10,
10,
8,
8,
7,
7,
4,
4,
11,
27,
27,
27,
24,
10,
10,
10,
7,
7,
10,
10,
2,
2,
1,
1,
1,
1,
6,
6,
6,
6,
14,
14,
21,
21,
12,
12,
3,
3,
0,
0,
4,
4,
7,
7,
5,
5,
2,
2,
8,
8,
14,
14,
7,
7,
-1,
-1,
4,
4,
5,
5,
11,
11,
11,
11,
2,
2,
0,
0,
0,
0,
0,
0,
6,
6,
5,
5,
0,
0,
4,
4,
2,
2,
2,
2,
7,
7,
7,
7,
6,
6,
3,
3,
1,
1,
3,
3,
6,
6,
3,
3,
6,
6,
12,
12,
4,
4,
4,
4,
6,
6,
9,
9,
11,
11,
5,
5,
2,
2,
7,
7,
8,
8,
3,
3,
6,
6,
3,
3,
4,
4,
2,
2,
0,
0,
3,
3,
4,
4,
-1,
-1,
-1,
-1,
0,
0,
5,
5,
6,
6,
4,
4,
3,
3,
0,
0,
0,
0,
6,
6,
5,
5,
3,
3,
0,
0,
5,
5,
3,
3,
-1,
-1,
2,
2,
2,
2,
5,
5,
11,
11,
16,
16,
8,
8,
4,
4,
3,
26,
26,
38,
37,
18,
19,
2,
6,
6,
12,
12,
10,
10,
11,
11,
6,
6,
1,
1,
0,
0,
2,
2,
8,
8,
7,
7,
2,
2,
1,
1,
1,
1,
-1,
-1,
4,
4,
2,
2,
4,
4,
7,
7,
8,
8,
10,
10,
10,
10,
3,
3,
3,
3,
6,
6,
0,
0,
-1,
-1,
0,
0,
6,
6,
7,
7,
2,
2,
4,
4,
4,
4,
3,
3,
3,
3,
6,
21,
20,
20,
17,
17,
13,
13,
9,
9,
2,
2,
3,
3,
3,
3,
5,
5,
-1,
-1,
0,
0,
2,
2,
6,
6,
5,
17,
17,
17,
22,
22,
20,
20,
10,
-1,
0,
0,
0,
0,
6,
6,
6,
6,
5,
5,
10,
10,
6,
6,
8,
8,
9,
9,
9,
9,
13,
13,
8,
8,
4,
4,
-1,
-1,
3,
3,
4,
4,
6,
6,
7,
7,
0,
0,
5,
5,
7,
7,
0,
0,
1,
1,
5,
5,
8,
8,
6,
17,
16,
16,
13,
13,
8,
8,
2,
2,
3,
14,
14,
14,
15,
15,
11,
11,
12,
12,
8,
8,
0,
14,
14,
29,
28,
28,
30,
9,
9,
9,
11,
11,
9,
9,
3,
3,
5,
5,
8,
8,
6,
6,
2,
2,
4,
16,
15,
15,
11,
-1,
0,
0,
0,
0,
6,
6,
7,
7,
12,
12,
10,
-1,
1,
1,
8,
8,
11,
11,
8,
8,
1,
1,
2,
2,
7,
7,
4,
4,
7,
7,
11,
11,
2,
2,
2,
2,
0,
0,
3,
3,
0,
0,
-1,
-1,
3,
3,
5,
5,
3,
3,
3,
3,
9,
9,
11,
0,
1,
1,
4,
4,
2,
2,
3,
3,
0,
0,
9,
9,
10,
10,
6,
6,
4,
4,
11,
11,
11,
0,
0,
0,
9,
9,
4,
4,
2,
2,
-1,
-1,
4,
4,
8,
8,
2,
2,
1,
1,
0,
0,
0,
0,
2,
2,
0,
0,
0,
0,
0,
21,
21,
21,
27,
13,
14,
14,
4,
4,
4,
4,
14,
3,
3,
3,
3,
3,
5,
20,
19,
19,
17,
17,
8,
8,
4,
4,
3,
3,
0,
0,
3,
3,
6,
6,
3,
16,
15,
15,
15,
15,
20,
20,
18,
18,
12,
12,
2,
2,
3,
3,
8,
8,
8,
8,
9,
9,
9,
9,
3,
3,
-1,
-1,
-1,
-1,
-1,
-1,
1,
1,
10,
10,
14,
14,
7,
7,
1,
1,
2,
2,
8,
8,
0,
0,
6,
6,
4,
4,
-1,
-1,
2,
2,
0,
0,
0,
0,
-1,
-1,
5,
5,
7,
7,
0,
0,
6,
6,
8,
8,
3,
14,
12,
12,
10,
-1,
1,
1,
0,
0,
-1,
-1,
1,
1,
9,
9,
8,
8,
6,
6,
4,
4,
2,
2,
0,
0,
7,
23,
22,
22,
14,
2,
5,
5,
9,
9,
2,
2,
-1,
-1,
8,
8,
14,
14,
13,
13,
17,
17,
10,
10,
7,
7,
12,
12,
5,
5,
11,
11,
14,
14,
8,
8,
2,
2,
-1,
-1,
1,
1,
1,
1,
2,
2,
3,
3,
0,
0,
-1,
-1,
1,
18,
18,
32,
31,
31,
27,
27,
22,
22,
15,
15,
12,
0,
3,
20,
19,
19,
25,
25,
27,
27,
24,
13,
14,
14,
6,
6,
2,
2,
3,
3,
2,
2,
1,
1,
4,
4,
13,
13,
17,
17,
15,
15,
15,
15,
10,
10,
13,
13,
7,
7,
-1,
-1,
0,
0,
1,
1,
6,
6,
8,
8,
10,
10,
9,
9,
0,
0,
2,
2,
2,
2,
0,
0,
-1,
-1,
-1,
-1,
5,
5,
0,
0,
10,
10,
16,
16,
11,
0,
1,
1,
1,
1,
0,
0,
1,
1,
0,
0,
0,
0,
2,
2,
4,
4,
2,
2,
0,
0,
1,
1,
2,
2,
6,
6,
1,
1,
0,
0,
0,
0,
3,
3,
6,
6,
7,
7,
5,
5,
1,
1,
1,
1,
7,
7,
6,
6,
3,
3,
3,
3,
10,
10,
14,
2,
2,
2,
10,
10,
17,
17,
14,
-1,
0,
12,
11,
11,
11,
11,
10,
10,
10,
10,
4,
4,
6,
6,
1,
1,
6,
6,
10,
10,
10,
10,
5,
5,
8,
8,
12,
12,
7,
7,
2,
2,
-1,
-1,
3,
3,
5,
5,
3,
3,
3,
3,
5,
5,
1,
1,
4,
4,
9,
9,
6,
6,
14,
14,
13,
13,
4,
4,
0,
0,
2,
2,
0,
0,
2,
2,
3,
3,
10,
10,
7,
7,
7,
7,
0,
14,
13,
28,
26,
26,
22,
6,
7,
7,
5,
5,
1,
1,
-1,
-1,
-1,
-1,
7,
7,
10,
10,
8,
8,
6,
6,
4,
4,
-1,
-1,
7,
7,
4,
4,
1,
1,
2,
2,
1,
1,
-1,
-1,
0,
0,
2,
2,
-1,
-1,
4,
4,
6,
6,
0,
0,
2,
2,
3,
3,
3,
17,
17,
32,
31,
31,
26,
2,
3,
3,
5,
5,
9,
9,
12,
12,
14,
14,
17,
17,
13,
13,
8,
8,
1,
1,
5,
5,
3,
3,
6,
6,
7,
7,
6,
6,
4,
4,
3,
3,
4,
4,
4,
4,
0,
0,
2,
2,
0,
0,
1,
1,
4,
4,
5,
5,
2,
2,
0,
0,
0,
0,
-1,
-1,
3,
3,
2,
2,
3,
3,
2,
2,
-1,
-1,
2,
2,
-1,
-1,
0,
0,
4,
4,
10,
10,
14,
14,
7,
7,
3,
3,
6,
6,
0,
0,
3,
3,
5,
5,
0,
0,
-1,
-1,
-1,
-1,
1,
1,
3,
3,
0,
0,
3,
3,
4,
4,
-1,
-1,
0,
0,
2,
2,
0,
0,
9,
9,
3,
3,
5,
5,
5,
5,
5,
20,
20,
58,
58,
47,
47,
6,
6,
26,
26,
26,
32,
32,
28,
28,
23,
9,
10,
10,
2,
2,
2,
2,
2,
15,
15,
2,
2,
16,
16,
30,
28,
28,
31,
31,
26,
14,
14,
1,
2,
2,
7,
7,
12,
12,
14,
14,
16,
16,
10,
10,
5,
5,
5,
5,
7,
7,
1,
1,
1,
1,
0,
0,
3,
3,
10,
24,
23,
23,
28,
28,
27,
14,
14,
0,
3,
3,
10,
10,
6,
6,
5,
5,
10,
10,
14,
14,
7,
7,
2,
2,
0,
0,
3,
3,
1,
1,
1,
1,
2,
2,
1,
1,
5,
5,
0,
0,
0,
0,
5,
5,
8,
8,
16,
16,
22,
22,
16,
16,
11,
11,
8,
8,
0,
0,
8,
8,
10,
10,
10,
10,
14,
14,
11,
11,
6,
6,
4,
4,
-1,
-1,
-1,
-1,
0,
0,
1,
1,
0,
0,
5,
5,
4,
4,
-1,
-1,
-1,
-1,
8,
8,
8,
8,
17,
17,
11,
11,
2,
2,
1,
1,
0,
0,
-1,
-1,
1,
1,
6,
6,
8,
8,
6,
6,
3,
3,
7,
7,
4,
4,
2,
2,
2,
13,
13,
13,
16,
16,
8,
8,
0,
15,
14,
31,
30,
14,
15,
2,
6,
6,
3,
3,
3,
3,
8,
8,
9,
9,
4,
4,
5,
5,
11,
11,
3,
3,
-1,
-1,
0,
0,
7,
7,
8,
8,
0,
0,
8,
8,
13,
13,
10,
10,
7,
7,
0,
0,
2,
2,
1,
1,
3,
3,
2,
2,
0,
0,
0,
0,
1,
1,
1,
1,
3,
3,
7,
7,
7,
7,
6,
6,
3,
3,
-1,
-1,
3,
3,
4,
4,
4,
4,
5,
5,
8,
8,
10,
10,
0,
13,
12,
12,
14,
3,
3,
3,
-1,
-1,
7,
7,
10,
-1,
2,
2,
5,
5,
1,
1,
6,
6,
13,
13,
9,
9,
3,
3,
-1,
-1,
3,
3,
10,
10,
12,
12,
9,
9,
1,
1,
1,
1,
8,
8,
13,
13,
14,
14,
15,
15,
12,
12,
3,
3,
0,
0,
0,
0,
-1,
-1,
0,
0,
1,
14,
12,
32,
31,
31,
30,
4,
8,
31,
30,
30,
26,
8,
8,
8,
3,
3,
2,
14,
13,
13,
10,
10,
4,
4,
2,
2,
7,
7,
0,
0,
-1,
-1,
5,
5,
10,
10,
11,
11,
12,
0,
0,
0,
7,
7,
7,
7,
16,
16,
20,
20,
15,
15,
11,
11,
6,
6,
0,
0,
10,
10,
12,
12,
4,
4,
-1,
-1,
-1,
-1,
-1,
-1,
3,
3,
7,
7,
1,
1,
-1,
-1,
4,
4,
10,
10,
7,
7,
6,
6,
2,
2,
-1,
-1,
0,
0,
0,
0,
0,
0,
4,
4,
0,
0,
2,
2,
4,
4,
3,
3,
1,
1,
-1,
-1,
2,
2,
1,
1,
7,
7,
15,
15,
14,
0,
0,
0,
6,
6,
6,
6,
3,
3,
1,
1,
2,
2,
2,
2,
1,
1,
5,
5,
0,
0,
-1,
-1,
2,
2,
1,
13,
12,
12,
12,
12,
3,
3,
4,
4,
12,
0,
1,
1,
2,
2,
-1,
-1,
0,
0,
0,
0,
5,
5,
0,
0,
9,
9,
14,
14,
9,
9,
-1,
-1,
7,
7,
16,
16,
12,
12,
14,
32,
32,
32,
29,
8,
8,
8,
9,
9,
19,
19,
18,
18,
12,
12,
10,
10,
13,
13,
9,
9,
4,
4,
0,
0,
4,
4,
8,
8,
13,
13,
14,
14,
23,
23,
26,
10,
10,
10,
0,
0,
7,
7,
4,
4,
6,
6,
10,
10,
1,
1,
10,
10,
0,
0,
10,
10,
5,
5,
10,
10,
12,
1,
4,
15,
15,
15,
13,
2,
3,
3,
12,
12,
14,
14,
10,
10,
5,
20,
19,
7,
7,
7,
10,
28,
28,
28,
34,
19,
19,
2,
6,
6,
15,
15,
15,
15,
9,
9,
9,
9,
8,
8,
8,
8,
7,
7,
0,
0,
3,
3,
0,
0,
5,
5,
10,
10,
12,
12,
12,
12,
4,
4,
2,
2,
6,
6,
4,
4,
6,
6,
10,
10,
14,
14,
18,
18,
11,
0,
1,
1,
4,
4,
2,
2,
-1,
-1,
4,
4,
11,
11,
16,
16,
14,
14,
10,
10,
8,
8,
6,
6,
0,
0,
2,
2,
2,
2,
5,
5,
13,
13,
10,
-1,
1,
1,
6,
6,
15,
15,
16,
4,
6,
6,
-1,
-1,
2,
2,
11,
11,
13,
0,
1,
1,
1,
1,
-1,
-1,
6,
6,
11,
11,
13,
13,
9,
9,
5,
5,
0,
0,
0,
0,
-1,
-1,
0,
0,
1,
1,
2,
2,
2,
2,
-1,
-1,
0,
0,
7,
7,
6,
6,
3,
16,
15,
15,
18,
18,
11,
11,
1,
1,
9,
9,
9,
9,
11,
11,
7,
7,
7,
7,
8,
8,
0,
0,
7,
7,
16,
33,
33,
33,
39,
7,
7,
27,
27,
38,
36,
14,
14,
0,
3,
3,
7,
7,
4,
20,
19,
19,
13,
-1,
2,
2,
6,
6,
15,
15,
20,
20,
11,
11,
5,
5,
0,
0,
0,
0,
-1,
-1,
-1,
-1,
6,
6,
7,
7,
2,
2,
0,
0,
0,
0,
3,
3,
6,
6,
3,
3,
1,
1,
0,
0,
3,
3,
1,
1,
1,
1,
1,
1,
4,
4,
2,
2,
8,
8,
11,
11,
4,
4,
4,
4,
4,
4,
0,
0,
0,
0,
-1,
-1,
1,
1,
3,
3,
1,
1,
5,
5,
4,
4,
6,
6,
10,
10,
5,
5,
-1,
-1,
0,
0,
4,
4,
0,
0,
2,
2,
5,
5,
13,
13,
16,
16,
19,
19,
14,
2,
4,
4,
1,
1,
4,
4,
2,
2,
7,
7,
7,
7,
6,
6,
3,
3,
0,
0,
-1,
-1,
-1,
-1,
-1,
-1,
1,
1,
-1,
-1,
5,
5,
1,
1,
1,
1,
4,
4,
8,
8,
9,
9,
3,
3,
-1,
-1,
0,
0,
-1,
-1,
1,
1,
0,
0,
0,
0,
-1,
-1,
2,
2,
2,
2,
1,
1,
2,
2,
8,
8,
6,
6,
3,
3,
-1,
-1,
0,
0,
1,
1,
0,
0,
5,
5,
6,
6,
3,
3,
0,
0,
2,
2,
6,
6,
7,
7,
3,
3,
-1,
-1,
2,
2,
3,
3,
2,
2,
2,
2,
3,
3,
2,
2,
7,
7,
7,
7,
0,
0,
-2,
-2,
0,
0,
5,
5,
10,
10,
15,
15,
11,
11,
7,
30,
30,
30,
31,
17,
17,
17,
9,
9,
8,
8,
0,
0,
6,
6,
14,
14,
19,
19,
20,
20,
15,
15,
10,
10,
3,
3,
2,
2,
4,
4,
0,
0,
0,
0,
6,
6,
13,
25,
25,
25,
26,
7,
7,
7,
6,
6,
3,
3,
8,
8,
7,
7,
5,
5,
2,
2,
6,
6,
15,
15,
8,
8,
2,
2,
6,
6,
4,
4,
2,
2,
4,
4,
3,
3,
2,
2,
2,
2,
1,
1,
6,
6,
9,
9,
2,
2,
5,
18,
18,
18,
23,
23,
14,
0,
6,
18,
18,
18,
16,
16,
12,
12,
8,
8,
0,
0,
3,
3,
8,
8,
15,
15,
21,
21,
18,
6,
6,
6,
4,
4,
9,
9,
9,
9,
7,
7,
3,
3,
0,
0,
1,
1,
1,
1,
0,
0,
-1,
-1,
0,
0,
0,
0,
3,
3,
5,
5,
4,
4,
5,
5,
2,
2,
6,
6,
0,
0,
2,
2,
6,
6,
7,
7,
2,
2,
4,
4,
7,
7,
2,
2,
10,
34,
34,
34,
27,
4,
4,
4,
12,
12,
16,
16,
15,
28,
28,
28,
33,
33,
28,
11,
11,
0,
5,
5,
11,
11,
11,
11,
6,
6,
3,
3,
6,
6,
6,
6,
10,
10,
15,
15,
14,
14,
6,
6,
0,
0,
-1,
-1,
0,
0,
2,
2,
1,
1,
0,
0,
6,
6,
10,
10,
8,
8,
4,
4,
3,
3,
0,
0,
2,
2,
10,
10,
16,
16,
14,
14,
5,
5,
2,
2,
3,
3,
2,
2,
3,
3,
4,
4,
5,
5,
3,
3,
0,
0,
3,
3,
3,
3,
2,
2,
0,
0,
0,
0,
2,
2,
2,
2,
-1,
-1,
1,
1,
-1,
-1,
1,
1,
6,
6,
5,
5,
-1,
-1,
2,
2,
1,
1,
-1,
-1,
0,
0,
0,
0,
-1,
-1,
0,
0,
1,
1,
0,
0,
7,
7,
1,
1,
0,
0,
2,
2,
10,
10,
16,
16,
14,
14,
13,
2,
2,
2,
5,
5,
0,
0,
0,
0,
2,
2,
3,
3,
0,
0,
2,
2,
6,
6,
8,
8,
8,
8,
11,
11,
6,
6,
1,
1,
10,
22,
21,
21,
21,
2,
2,
2,
8,
8,
12,
12,
9,
9,
8,
8,
5,
5,
2,
2,
6,
22,
22,
22,
26,
26,
19,
19,
10,
10,
5,
5,
5,
5,
-1,
10,
10,
10,
14,
14,
18,
18,
16,
4,
6,
6,
3,
3,
0,
0,
4,
4,
2,
2,
2,
2,
8,
8,
11,
11,
10,
10,
6,
6,
5,
5,
0,
0,
2,
2,
-1,
-1,
0,
0,
1,
1,
-1,
-1,
0,
0,
4,
4,
10,
10,
15,
15,
13,
2,
3,
3,
1,
1,
2,
2,
6,
6,
7,
7,
6,
6,
4,
4,
0,
0,
5,
5,
3,
3,
3,
3,
0,
0,
5,
5,
5,
5,
6,
6,
7,
7,
7,
7,
4,
4,
3,
3,
1,
1,
-1,
-1,
-1,
-1,
2,
2,
0,
0,
0,
0,
5,
5,
7,
7,
6,
6,
11,
11,
3,
3,
1,
1,
2,
2,
6,
6,
1,
1,
10,
10,
13,
13,
7,
7,
0,
0,
0,
0,
2,
2,
0,
0,
-1,
-1,
4,
4,
6,
6,
0,
0,
1,
1,
1,
1,
-1,
-1,
-1,
-1,
0,
0,
1,
1,
1,
1,
1,
1,
5,
5,
7,
7,
5,
5,
4,
4,
0,
0,
0,
11,
11,
11,
13,
13,
8,
8,
3,
3,
11,
29,
28,
28,
35,
17,
17,
-1,
0,
0,
2,
2,
8,
19,
18,
18,
19,
19,
14,
14,
8,
8,
4,
4,
0,
0,
1,
1,
0,
0,
0,
0,
0,
0,
2,
23,
22,
36,
35,
35,
29,
12,
13,
0,
1,
1,
10,
24,
23,
23,
22,
22,
15,
2,
3,
3,
3,
3,
-1,
-1,
-1,
11,
10,
10,
11,
0,
2,
2,
2,
2,
-1,
-1,
6,
6,
7,
7,
7,
7,
0,
0,
5,
5,
2,
2,
4,
4,
0,
0,
-2,
-2,
4,
4,
8,
8,
9,
9,
1,
14,
14,
14,
12,
12,
7,
7,
8,
19,
18,
18,
15,
0,
1,
1,
10,
10,
17,
17,
16,
16,
12,
1,
2,
2,
1,
1,
8,
8,
15,
15,
17,
17,
11,
0,
2,
18,
16,
16,
16,
1,
2,
2,
2,
2,
0,
0,
6,
6,
12,
12,
8,
8,
3,
15,
14,
14,
10,
-1,
1,
1,
6,
6,
3,
25,
24,
35,
34,
23,
24,
9,
10,
-1,
-1,
-1,
6,
6,
13,
13,
15,
15,
12,
12,
9,
9,
8,
8,
8,
8,
0,
0,
2,
2,
4,
4,
5,
5,
0,
0,
5,
5,
5,
5,
3,
3,
2,
2,
3,
3,
6,
6,
11,
11,
8,
8,
8,
8,
13,
13,
7,
7,
-1,
-1,
2,
2,
0,
0,
7,
7,
16,
16,
14,
14,
11,
11,
12,
12,
6,
6,
1,
1,
2,
2,
2,
2,
12,
12,
14,
14,
6,
6,
-1,
-1,
1,
1,
0,
0,
5,
5,
3,
3,
2,
2,
7,
7,
6,
6,
5,
5,
10,
10,
2,
2,
7,
7,
-1,
-1,
5,
5,
3,
16,
15,
15,
15,
15,
7,
7,
0,
0,
2,
2,
4,
4,
12,
12,
14,
0,
1,
1,
-1,
-1,
0,
0,
2,
2,
11,
25,
23,
8,
8,
8,
11,
11,
8,
8,
0,
0,
-1,
-1,
3,
3,
2,
2,
12,
24,
23,
23,
13,
2,
16,
16,
22,
10,
10,
10,
6,
6,
0,
0,
4,
4,
10,
10,
5,
5,
0,
0,
0,
0,
-1,
-1,
0,
0,
0,
0,
-1,
-1,
3,
3,
6,
6,
5,
5,
8,
8,
7,
7,
10,
10,
10,
10,
1,
1,
7,
7,
4,
4,
-1,
-1,
-1,
-1,
1,
1,
3,
3,
1,
1,
-1,
-1,
-1,
-1,
3,
3,
0,
0,
7,
7,
1,
1,
3,
3,
4,
4,
7,
7,
4,
4,
0,
0,
0,
0,
1,
1,
5,
5,
6,
6,
2,
2,
0,
0,
-1,
-1,
3,
3,
7,
7,
3,
3,
0,
0,
7,
19,
18,
18,
15,
4,
6,
6,
-1,
-1,
3,
3,
9,
9,
10,
10,
7,
7,
5,
5,
4,
4,
1,
1,
0,
0,
0,
0,
0,
0,
0,
0,
7,
7,
10,
10,
11,
11,
9,
9,
4,
4,
0,
0,
1,
1,
1,
1,
1,
1,
2,
2,
3,
3,
2,
2,
-1,
-1,
1,
1,
4,
4,
2,
2,
2,
2,
-1,
-1,
0,
0,
0,
0,
0,
0,
0,
0,
0,
0,
2,
2,
1,
1,
1,
1,
5,
5,
6,
6,
2,
2,
0,
0,
2,
2,
0,
0,
3,
3,
3,
3,
1,
1,
3,
3,
6,
6,
8,
8,
0,
0,
6,
6,
0,
0,
2,
2,
4,
4,
2,
2,
11,
11,
8,
8,
3,
3,
9,
9,
8,
8,
8,
8,
7,
7,
12,
0,
3,
16,
16,
16,
25,
25,
21,
1,
2,
2,
11,
11,
13,
13,
11,
11,
11,
11,
10,
10,
10,
10,
2,
2,
10,
10,
15,
15,
12,
12,
2,
2,
2,
2,
0,
0,
-1,
-1,
2,
14,
12,
12,
16,
16,
10,
10,
5,
5,
7,
7,
3,
3,
6,
6,
14,
14,
12,
12,
6,
6,
0,
0,
9,
9,
6,
6,
1,
1,
5,
5,
8,
8,
9,
9,
8,
8,
5,
5,
-1,
-1,
0,
0,
6,
6,
9,
9,
10,
10,
12,
12,
8,
8,
8,
8,
9,
9,
7,
7,
3,
3,
-1,
-1,
-1,
-1,
6,
6,
5,
5,
-1,
-1,
-1,
-1,
0,
0,
0,
0,
0,
0,
9,
9,
2,
2,
5,
5,
0,
0,
0,
0,
0,
0,
1,
1,
1,
1,
0,
0,
-1,
-1,
-1,
-1,
0,
0,
0,
0,
0,
0,
4,
4,
9,
9,
8,
8,
6,
6,
3,
3,
2,
2,
0,
0,
2,
2,
2,
2,
3,
3,
6,
6,
6,
6,
2,
2,
0,
0,
10,
10,
19,
19,
16,
3,
4,
4,
5,
5,
8,
8,
10,
10,
3,
3,
6,
6,
7,
7,
4,
4,
1,
1,
6,
6,
3,
14,
14,
14,
16,
16,
8,
8,
3,
3,
2,
2,
5,
5,
11,
11,
12,
12,
9,
9,
5,
5,
2,
2,
7,
7,
2,
2,
1,
1,
3,
3,
0,
0,
-1,
-1,
0,
0,
0,
0,
2,
2,
9,
9,
6,
6,
13,
13,
13,
2,
3,
3,
13,
13,
14,
2,
7,
20,
19,
19,
18,
18,
15,
4,
5,
5,
3,
3,
6,
6,
2,
2,
-1,
-1,
0,
0,
1,
1,
4,
4,
8,
8,
1,
15,
15,
15,
23,
23,
22,
10,
10,
10,
4,
4,
1,
1,
8,
8,
7,
7,
6,
6,
4,
4,
0,
0,
0,
0,
0,
0,
1,
1,
4,
4,
-1,
-1,
0,
0,
7,
7,
3,
3,
4,
4,
8,
8,
8,
8,
7,
7,
4,
4,
0,
0,
4,
4,
0,
0,
8,
8,
14,
14,
11,
0,
3,
3,
4,
4,
-1,
-1,
1,
1,
4,
4,
7,
7,
4,
4,
3,
3,
2,
2,
0,
0,
1,
1,
3,
3,
1,
1,
0,
0,
0,
0,
0,
0,
-1,
-1,
-1,
-1,
0,
0,
1,
1,
2,
2,
6,
6,
15,
15,
20,
20,
11,
11,
4,
4,
