EMG_S1/DS0138.CSV

Memory Length,4000,
Trigger Level,0.00000e+00,
Source,CH1,
Probe,1.0X,
Vertical Units,V,
Vertical Scale,1.00000e+00,
Vertical Position,4.00000e-02,
Horizontal Units,S,
Horizontal Scale,1.00000e-01,
Horizontal Position,0.0000000e+00,
Horizontal Mode,Roll Mode,
Waveform Last Dot Address,4000,
Sampling Period,4.00000e-04,
Firmware,V1.14,
Time, ,
Mode,Fast,
Waveform Data,
1,
1,
9,
9,
14,
14,
15,
15,
15,
15,
14,
14,
6,
6,
1,
1,
5,
5,
6,
6,
10,
10,
10,
10,
8,
8,
7,
7,
3,
3,
0,
0,
1,
1,
8,
8,
15,
15,
10,
10,
2,
2,
2,
2,
11,
11,
14,
14,
7,
7,
5,
5,
2,
2,
11,
11,
6,
6,
0,
0,
5,
5,
2,
13,
11,
11,
9,
9,
0,
0,
2,
2,
0,
0,
0,
0,
0,
0,
2,
2,
0,
0,
2,
2,
0,
13,
12,
12,
15,
0,
2,
2,
9,
9,
0,
0,
0,
0,
2,
2,
10,
10,
13,
13,
4,
4,
-1,
-1,
1,
1,
3,
3,
11,
31,
31,
31,
36,
13,
14,
1,
5,
5,
1,
12,
12,
12,
6,
6,
10,
21,
20,
20,
24,
24,
18,
6,
7,
7,
2,
2,
2,
2,
3,
3,
3,
3,
-1,
-1,
7,
19,
19,
19,
22,
22,
16,
16,
11,
11,
2,
2,
7,
7,
13,
13,
6,
6,
4,
4,
1,
1,
1,
1,
3,
3,
13,
13,
22,
22,
13,
13,
4,
4,
1,
1,
7,
7,
8,
8,
0,
0,
-1,
-1,
7,
7,
14,
14,
15,
15,
9,
9,
5,
5,
0,
0,
4,
4,
7,
7,
6,
6,
9,
9,
10,
10,
16,
28,
27,
27,
25,
11,
11,
11,
8,
23,
22,
22,
19,
2,
2,
2,
6,
6,
2,
2,
8,
8,
12,
12,
9,
9,
8,
8,
7,
7,
2,
2,
3,
3,
5,
5,
13,
13,
20,
20,
15,
15,
7,
7,
0,
0,
5,
5,
5,
5,
2,
2,
0,
0,
5,
5,
0,
19,
18,
18,
25,
25,
23,
23,
22,
22,
15,
1,
2,
21,
20,
31,
30,
19,
19,
19,
14,
14,
18,
7,
8,
8,
4,
4,
0,
0,
7,
7,
9,
9,
1,
1,
2,
2,
4,
4,
7,
7,
11,
11,
5,
5,
4,
15,
14,
14,
19,
19,
11,
11,
5,
5,
7,
7,
0,
0,
4,
4,
11,
11,
14,
14,
10,
-1,
3,
16,
16,
16,
19,
8,
8,
8,
0,
0,
3,
3,
8,
8,
11,
0,
1,
1,
5,
5,
1,
1,
8,
8,
2,
2,
2,
2,
2,
2,
2,
2,
0,
0,
-1,
-1,
1,
1,
-1,
-1,
1,
1,
4,
4,
11,
11,
14,
14,
6,
6,
3,
3,
2,
2,
9,
9,
12,
0,
1,
1,
10,
10,
15,
15,
10,
10,
0,
0,
0,
0,
1,
1,
2,
2,
7,
7,
1,
1,
6,
6,
14,
14,
9,
9,
-1,
-1,
5,
5,
6,
6,
5,
5,
11,
11,
12,
12,
10,
10,
3,
3,
7,
7,
0,
0,
7,
7,
5,
5,
4,
4,
9,
9,
6,
6,
8,
8,
8,
8,
8,
8,
0,
0,
2,
2,
8,
8,
7,
7,
8,
23,
22,
22,
29,
29,
22,
5,
5,
23,
23,
42,
41,
41,
34,
21,
22,
2,
3,
3,
9,
9,
8,
8,
13,
13,
18,
18,
15,
15,
11,
0,
1,
18,
18,
18,
18,
0,
2,
2,
5,
5,
2,
2,
2,
2,
0,
0,
-2,
-2,
4,
4,
2,
2,
3,
3,
3,
3,
3,
3,
0,
0,
6,
6,
3,
3,
8,
19,
18,
18,
11,
11,
1,
1,
4,
4,
10,
10,
14,
0,
0,
0,
1,
1,
4,
4,
4,
15,
14,
14,
11,
11,
11,
11,
11,
11,
7,
7,
4,
4,
13,
13,
12,
12,
11,
11,
7,
7,
2,
2,
0,
0,
2,
2,
5,
5,
4,
4,
4,
4,
3,
3,
8,
20,
19,
19,
23,
23,
16,
16,
6,
6,
0,
0,
0,
11,
11,
11,
10,
10,
6,
6,
3,
3,
11,
11,
10,
10,
6,
6,
0,
0,
10,
10,
9,
9,
3,
3,
10,
10,
12,
12,
3,
3,
3,
3,
5,
5,
2,
2,
7,
7,
11,
11,
11,
11,
4,
4,
3,
3,
6,
6,
5,
5,
2,
2,
5,
5,
6,
6,
3,
3,
0,
0,
5,
5,
2,
25,
24,
38,
37,
26,
27,
3,
5,
30,
28,
28,
38,
38,
38,
38,
30,
14,
14,
-1,
1,
1,
7,
7,
6,
6,
4,
4,
0,
0,
6,
6,
10,
10,
10,
10,
12,
12,
20,
20,
14,
14,
6,
6,
-1,
-1,
1,
1,
0,
0,
-1,
-1,
5,
5,
1,
1,
8,
8,
5,
5,
3,
3,
6,
6,
0,
0,
0,
0,
2,
2,
4,
4,
0,
0,
6,
6,
4,
4,
5,
5,
-1,
-1,
5,
5,
2,
2,
2,
2,
-1,
-1,
1,
1,
0,
0,
2,
2,
1,
1,
2,
2,
4,
4,
2,
2,
0,
0,
3,
3,
3,
3,
0,
0,
0,
0,
3,
3,
-1,
-1,
2,
2,
4,
4,
9,
9,
12,
12,
12,
12,
8,
8,
1,
1,
6,
6,
7,
7,
11,
11,
6,
6,
2,
2,
1,
1,
1,
1,
1,
1,
7,
7,
8,
8,
1,
1,
4,
4,
10,
10,
18,
18,
16,
5,
6,
6,
0,
0,
4,
4,
0,
0,
4,
4,
3,
3,
4,
4,
3,
3,
0,
0,
0,
0,
0,
0,
0,
0,
4,
4,
7,
7,
7,
7,
15,
15,
12,
0,
2,
2,
7,
7,
5,
5,
7,
7,
6,
6,
3,
3,
5,
5,
8,
8,
1,
16,
15,
15,
8,
8,
-1,
-1,
4,
4,
4,
4,
-1,
17,
16,
16,
19,
5,
6,
6,
10,
10,
6,
22,
21,
21,
15,
0,
3,
3,
7,
7,
10,
10,
5,
5,
2,
2,
2,
2,
1,
1,
8,
8,
6,
6,
12,
12,
3,
16,
15,
15,
13,
13,
10,
10,
6,
6,
1,
1,
2,
2,
2,
2,
1,
1,
0,
0,
5,
5,
7,
7,
8,
8,
10,
10,
11,
11,
13,
13,
10,
-1,
0,
0,
5,
5,
2,
2,
2,
2,
9,
9,
6,
6,
2,
19,
18,
18,
23,
9,
9,
9,
7,
20,
19,
19,
19,
6,
6,
6,
0,
0,
-1,
-1,
2,
2,
8,
8,
10,
10,
19,
19,
21,
2,
4,
17,
16,
16,
18,
0,
0,
0,
7,
7,
4,
4,
-1,
-1,
2,
2,
7,
7,
2,
2,
0,
0,
3,
3,
7,
7,
7,
7,
0,
0,
0,
0,
-1,
-1,
0,
0,
3,
3,
0,
0,
0,
0,
3,
3,
6,
6,
10,
10,
10,
10,
14,
14,
7,
7,
8,
8,
6,
6,
0,
11,
10,
10,
18,
18,
13,
0,
1,
1,
2,
2,
5,
5,
10,
10,
8,
8,
11,
11,
4,
4,
2,
2,
4,
4,
2,
2,
2,
13,
12,
12,
19,
19,
25,
11,
12,
12,
19,
19,
16,
2,
2,
2,
1,
1,
1,
1,
10,
10,
15,
15,
20,
20,
14,
0,
1,
1,
8,
8,
10,
10,
11,
11,
10,
10,
3,
3,
3,
3,
2,
2,
0,
0,
4,
4,
7,
7,
8,
8,
2,
2,
2,
2,
2,
2,
0,
0,
1,
1,
0,
0,
-1,
-1,
-1,
-1,
1,
1,
9,
9,
12,
12,
9,
9,
12,
0,
1,
14,
13,
13,
17,
17,
15,
1,
2,
13,
12,
12,
15,
15,
15,
15,
14,
14,
6,
6,
1,
1,
4,
4,
11,
11,
18,
18,
23,
7,
8,
8,
1,
1,
0,
0,
1,
1,
6,
6,
12,
0,
0,
0,
4,
4,
8,
8,
6,
6,
8,
8,
17,
17,
18,
18,
27,
27,
24,
9,
10,
10,
9,
9,
14,
14,
22,
22,
26,
26,
26,
15,
16,
16,
10,
10,
3,
19,
19,
19,
20,
6,
7,
7,
0,
14,
13,
24,
20,
2,
4,
4,
0,
0,
2,
2,
3,
15,
15,
35,
35,
35,
34,
18,
19,
6,
6,
6,
4,
4,
2,
2,
0,
14,
14,
14,
19,
19,
23,
23,
23,
23,
15,
4,
6,
6,
6,
6,
4,
4,
7,
7,
2,
2,
4,
4,
6,
18,
17,
17,
23,
23,
22,
22,
18,
1,
2,
2,
0,
0,
2,
2,
9,
9,
13,
13,
11,
11,
6,
6,
2,
2,
6,
6,
7,
7,
8,
8,
15,
15,
6,
6,
16,
16,
22,
22,
20,
20,
26,
26,
16,
16,
7,
7,
2,
2,
4,
4,
7,
7,
5,
5,
1,
1,
2,
2,
1,
1,
4,
4,
2,
2,
2,
2,
-1,
-1,
3,
3,
6,
6,
3,
3,
3,
3,
2,
2,
4,
4,
10,
10,
14,
14,
6,
6,
4,
4,
4,
4,
6,
6,
10,
10,
17,
17,
23,
23,
25,
4,
4,
4,
10,
23,
22,
22,
24,
24,
26,
26,
26,
13,
13,
2,
8,
20,
19,
19,
23,
23,
30,
18,
19,
1,
2,
2,
3,
14,
12,
12,
19,
8,
8,
8,
2,
2,
8,
8,
14,
14,
5,
5,
2,
2,
0,
0,
3,
3,
8,
8,
7,
7,
6,
6,
6,
6,
6,
6,
4,
4,
9,
20,
19,
19,
21,
4,
4,
4,
10,
10,
14,
14,
8,
8,
8,
8,
13,
13,
14,
14,
15,
15,
15,
3,
3,
3,
6,
6,
5,
5,
0,
0,
6,
6,
6,
6,
7,
18,
18,
18,
19,
19,
15,
15,
11,
11,
8,
8,
5,
5,
10,
10,
15,
15,
9,
9,
2,
2,
10,
10,
14,
14,
20,
20,
19,
19,
17,
6,
7,
7,
7,
7,
5,
5,
2,
2,
6,
6,
4,
4,
13,
13,
14,
14,
11,
11,
3,
3,
6,
6,
8,
8,
7,
7,
11,
11,
10,
10,
3,
3,
10,
10,
14,
2,
3,
3,
2,
2,
10,
10,
7,
7,
8,
21,
20,
20,
19,
7,
8,
8,
0,
0,
7,
7,
11,
11,
8,
8,
5,
5,
2,
2,
2,
2,
-1,
-1,
4,
4,
12,
12,
5,
5,
7,
7,
12,
12,
7,
7,
4,
4,
8,
8,
4,
4,
7,
7,
7,
7,
7,
7,
6,
6,
3,
3,
0,
0,
10,
10,
9,
9,
5,
5,
4,
4,
1,
1,
5,
5,
11,
0,
6,
6,
15,
0,
1,
1,
5,
5,
4,
4,
4,
4,
6,
6,
11,
11,
6,
6,
3,
3,
-1,
-1,
8,
8,
8,
8,
0,
0,
5,
5,
9,
9,
11,
11,
9,
9,
9,
9,
1,
1,
0,
0,
2,
2,
8,
8,
8,
8,
4,
4,
7,
7,
10,
10,
2,
2,
-1,
-1,
6,
6,
2,
2,
5,
5,
2,
14,
13,
13,
15,
3,
4,
4,
3,
3,
8,
8,
14,
14,
8,
8,
6,
6,
0,
0,
9,
9,
9,
9,
7,
7,
0,
0,
1,
1,
6,
6,
10,
10,
12,
12,
14,
1,
4,
23,
23,
23,
30,
30,
27,
14,
14,
-1,
0,
0,
3,
3,
5,
5,
13,
13,
19,
19,
20,
20,
14,
2,
10,
10,
18,
18,
10,
-1,
1,
1,
-1,
-1,
0,
0,
3,
3,
0,
0,
2,
2,
9,
9,
13,
13,
5,
5,
0,
0,
-1,
-1,
1,
1,
-1,
-1,
3,
3,
1,
1,
0,
0,
6,
6,
8,
8,
5,
5,
7,
7,
9,
9,
6,
6,
0,
0,
3,
3,
7,
7,
6,
6,
3,
3,
-1,
-1,
2,
2,
7,
7,
6,
6,
2,
14,
14,
14,
7,
7,
0,
0,
2,
2,
10,
10,
3,
3,
7,
7,
8,
8,
10,
10,
0,
0,
8,
8,
4,
4,
0,
0,
8,
8,
11,
11,
11,
0,
0,
14,
13,
13,
8,
8,
8,
8,
10,
10,
10,
10,
5,
5,
5,
20,
19,
19,
26,
26,
19,
6,
6,
6,
14,
14,
15,
4,
5,
5,
0,
0,
2,
2,
-1,
-1,
4,
4,
8,
8,
6,
6,
6,
6,
9,
9,
12,
12,
12,
-1,
-1,
-1,
8,
8,
9,
9,
5,
5,
6,
6,
0,
0,
0,
0,
3,
3,
0,
0,
4,
4,
7,
7,
2,
2,
-1,
-1,
0,
0,
9,
9,
11,
11,
2,
2,
2,
2,
0,
0,
6,
6,
6,
6,
3,
3,
3,
3,
12,
12,
14,
14,
6,
6,
0,
0,
0,
0,
3,
3,
4,
4,
6,
6,
1,
1,
7,
7,
10,
10,
13,
13,
6,
6,
-1,
-1,
2,
2,
5,
5,
12,
12,
16,
16,
10,
-1,
0,
0,
8,
8,
14,
14,
19,
19,
14,
1,
2,
16,
16,
28,
27,
27,
32,
32,
24,
5,
5,
5,
0,
16,
15,
15,
16,
1,
2,
16,
15,
28,
27,
27,
31,
31,
32,
32,
29,
29,
23,
23,
16,
2,
5,
5,
13,
13,
23,
23,
31,
31,
25,
25,
19,
8,
9,
9,
3,
3,
12,
12,
14,
14,
5,
5,
-1,
-1,
6,
6,
5,
5,
3,
3,
1,
18,
16,
16,
16,
0,
1,
1,
0,
0,
2,
2,
5,
5,
6,
6,
0,
0,
3,
3,
1,
1,
1,
1,
0,
0,
2,
2,
7,
24,
24,
50,
50,
50,
42,
22,
22,
3,
3,
3,
12,
12,
16,
16,
14,
14,
8,
8,
8,
8,
14,
14,
17,
17,
21,
3,
4,
4,
0,
0,
6,
6,
12,
1,
2,
14,
14,
14,
16,
16,
22,
22,
16,
4,
5,
5,
1,
1,
8,
8,
6,
6,
2,
18,
17,
17,
14,
1,
5,
5,
10,
10,
12,
1,
3,
16,
15,
15,
23,
37,
37,
37,
31,
6,
6,
6,
10,
10,
13,
13,
10,
10,
16,
27,
26,
26,
24,
24,
26,
15,
15,
4,
6,
6,
1,
1,
9,
9,
18,
18,
12,
12,
13,
13,
12,
12,
10,
10,
7,
7,
6,
6,
5,
5,
3,
3,
5,
5,
0,
0,
-1,
-1,
0,
0,
4,
4,
5,
5,
10,
10,
8,
8,
3,
3,
2,
2,
6,
6,
11,
11,
10,
10,
6,
6,
-1,
-1,
7,
7,
6,
6,
3,
3,
3,
3,
4,
4,
5,
5,
0,
0,
1,
1,
3,
3,
3,
3,
8,
8,
7,
7,
3,
3,
9,
9,
6,
6,
1,
1,
8,
8,
7,
19,
18,
18,
16,
4,
5,
5,
3,
3,
0,
0,
5,
5,
0,
0,
2,
2,
10,
10,
12,
12,
10,
10,
4,
4,
0,
14,
13,
13,
21,
6,
6,
6,
8,
8,
16,
30,
29,
29,
23,
10,
11,
11,
4,
4,
7,
19,
18,
18,
22,
22,
13,
0,
3,
3,
10,
10,
14,
14,
12,
12,
10,
10,
12,
12,
17,
17,
14,
14,
12,
12,
6,
6,
9,
9,
10,
10,
6,
6,
14,
14,
12,
12,
3,
3,
0,
0,
9,
9,
14,
14,
6,
6,
-1,
-1,
0,
0,
-1,
-1,
1,
1,
4,
4,
9,
9,
8,
8,
16,
16,
23,
3,
3,
3,
8,
8,
5,
5,
12,
1,
3,
23,
22,
35,
35,
35,
30,
6,
7,
7,
14,
26,
24,
24,
17,
4,
6,
6,
1,
1,
2,
2,
6,
6,
12,
12,
6,
6,
7,
7,
8,
8,
5,
5,
12,
12,
12,
12,
13,
2,
3,
3,
0,
0,
4,
4,
0,
0,
0,
0,
0,
0,
-1,
-1,
7,
7,
6,
6,
1,
1,
3,
3,
1,
1,
5,
5,
10,
10,
13,
2,
8,
20,
18,
18,
21,
21,
23,
23,
23,
23,
27,
11,
12,
12,
10,
10,
17,
17,
21,
21,
22,
22,
23,
23,
28,
28,
29,
29,
19,
3,
3,
21,
20,
40,
39,
39,
47,
47,
47,
23,
24,
5,
14,
31,
30,
30,
33,
33,
26,
11,
12,
12,
5,
5,
2,
2,
0,
0,
2,
2,
2,
2,
10,
10,
15,
15,
15,
15,
15,
15,
16,
16,
17,
17,
22,
10,
10,
10,
2,
2,
6,
6,
9,
9,
5,
19,
18,
18,
24,
24,
22,
22,
22,
11,
13,
0,
2,
2,
7,
7,
4,
4,
2,
14,
13,
13,
13,
13,
3,
3,
8,
21,
21,
21,
27,
27,
28,
28,
23,
23,
21,
8,
8,
8,
5,
5,
7,
7,
13,
13,
19,
19,
18,
18,
18,
18,
8,
8,
2,
2,
1,
1,
7,
7,
10,
10,
4,
4,
2,
2,
5,
5,
2,
2,
5,
5,
14,
14,
19,
19,
19,
8,
9,
9,
0,
0,
7,
22,
21,
21,
19,
6,
6,
6,
4,
4,
11,
32,
32,
32,
24,
6,
7,
7,
2,
2,
1,
14,
14,
14,
18,
18,
16,
16,
10,
10,
12,
12,
10,
10,
1,
1,
2,
2,
0,
0,
5,
5,
12,
12,
14,
14,
17,
2,
3,
3,
6,
6,
9,
9,
16,
5,
6,
6,
5,
5,
7,
7,
4,
4,
13,
13,
8,
8,
0,
0,
1,
1,
3,
3,
4,
4,
1,
1,
2,
2,
5,
5,
11,
11,
13,
0,
2,
15,
14,
14,
21,
21,
19,
8,
9,
9,
1,
1,
1,
1,
7,
7,
5,
5,
1,
1,
4,
4,
2,
2,
10,
10,
15,
15,
9,
9,
0,
0,
9,
9,
9,
9,
7,
7,
12,
12,
13,
1,
5,
24,
23,
23,
14,
2,
6,
6,
8,
8,
0,
0,
1,
1,
8,
8,
1,
13,
12,
12,
17,
17,
10,
10,
6,
6,
2,
2,
4,
4,
6,
6,
11,
11,
11,
11,
8,
8,
2,
2,
8,
8,
6,
6,
2,
2,
0,
0,
8,
8,
14,
14,
11,
11,
7,
7,
5,
5,
0,
0,
2,
2,
1,
1,
2,
2,
8,
8,
1,
14,
13,
13,
12,
12,
6,
6,
1,
1,
3,
3,
-1,
-1,
4,
4,
0,
0,
7,
7,
13,
13,
13,
13,
5,
5,
3,
3,
4,
4,
0,
0,
0,
0,
-1,
-1,
2,
2,
11,
11,
16,
16,
10,
10,
4,
4,
6,
6,
8,
8,
7,
7,
5,
5,
9,
9,
5,
5,
7,
7,
15,
15,
12,
12,
10,
10,
5,
5,
6,
6,
6,
6,
3,
3,
9,
9,
14,
14,
10,
10,
2,
2,
12,
12,
3,
3,
2,
2,
0,
0,
5,
5,
5,
5,
4,
18,
17,
17,
23,
7,
7,
18,
17,
31,
30,
30,
39,
39,
34,
10,
10,
10,
2,
2,
3,
3,
12,
12,
2,
14,
13,
30,
29,
29,
35,
35,
26,
7,
7,
7,
-1,
-1,
8,
8,
4,
16,
15,
15,
17,
17,
9,
9,
7,
7,
8,
8,
6,
6,
2,
2,
0,
0,
3,
3,
7,
7,
8,
8,
5,
5,
2,
2,
7,
7,
5,
5,
12,
12,
7,
7,
3,
3,
2,
2,
8,
8,
12,
12,
8,
8,
7,
7,
3,
3,
0,
0,
4,
4,
9,
9,
9,
9,
1,
1,
5,
5,
3,
3,
7,
7,
3,
3,
1,
1,
3,
3,
0,
0,
2,
2,
6,
6,
9,
9,
13,
13,
14,
14,
16,
16,
26,
26,
20,
2,
3,
15,
14,
14,
22,
22,
14,
14,
8,
8,
6,
6,
6,
6,
3,
3,
6,
6,
3,
3,
-1,
-1,
4,
4,
9,
9,
11,
11,
8,
8,
6,
6,
2,
2,
6,
25,
24,
24,
23,
23,
16,
16,
15,
15,
6,
6,
-1,
-1,
5,
5,
1,
1,
0,
0,
7,
7,
7,
7,
0,
0,
0,
0,
1,
20,
20,
20,
23,
2,
3,
19,
18,
18,
27,
27,
25,
14,
14,
14,
4,
4,
1,
1,
-1,
-1,
6,
6,
0,
0,
0,
12,
12,
12,
9,
9,
11,
11,
14,
14,
14,
14,
11,
11,
10,
10,
8,
8,
16,
16,
16,
0,
1,
1,
8,
19,
18,
18,
22,
22,
18,
18,
13,
13,
10,
10,
8,
8,
4,
4,
5,
16,
15,
15,
20,
20,
23,
23,
18,
2,
2,
2,
0,
0,
7,
7,
10,
10,
10,
10,
5,
5,
14,
30,
30,
30,
26,
26,
18,
2,
2,
22,
20,
20,
21,
3,
4,
4,
1,
1,
3,
3,
1,
1,
0,
0,
2,
2,
-1,
-1,
1,
1,
9,
9,
6,
6,
8,
8,
3,
3,
2,
2,
0,
0,
3,
3,
1,
1,
-1,
-1,
0,
0,
1,
1,
-1,
-1,
0,
0,
3,
3,
0,
0,
7,
7,
6,
6,
8,
8,
10,
10,
1,
1,
2,
2,
6,
6,
7,
7,
7,
7,
6,
6,
3,
3,
13,
13,
14,
14,
19,
19,
19,
19,
9,
9,
6,
6,
9,
9,
2,
2,
3,
3,
-1,
-1,
4,
4,
12,
12,
14,
14,
20,
20,
12,
12,
3,
3,
9,
25,
24,
24,
19,
8,
8,
8,
7,
7,
4,
4,
1,
1,
0,
0,
4,
4,
4,
4,
0,
0,
0,
0,
3,
3,
10,
10,
10,
10,
2,
2,
0,
0,
6,
6,
5,
5,
6,
22,
22,
43,
42,
59,
59,
43,
43,
6,
6,
28,
27,
27,
31,
31,
34,
34,
30,
30,
20,
20,
13,
13,
8,
8,
5,
5,
7,
7,
6,
6,
2,
2,
22,
22,
22,
22,
27,
27,
25,
12,
13,
13,
8,
8,
2,
13,
11,
11,
10,
10,
0,
0,
6,
6,
6,
6,
10,
10,
12,
12,
8,
8,
1,
1,
4,
4,
9,
9,
7,
7,
2,
2,
4,
4,
2,
2,
7,
7,
12,
12,
11,
11,
11,
0,
2,
2,
6,
6,
11,
11,
18,
18,
19,
19,
20,
20,
17,
2,
2,
2,
3,
3,
7,
7,
9,
9,
15,
15,
12,
0,
1,
1,
-1,
-1,
4,
4,
1,
1,
0,
0,
4,
4,
11,
11,
11,
11,
4,
4,
6,
6,
5,
5,
0,
0,
8,
8,
9,
9,
10,
10,
0,
0,
5,
5,
14,
14,
22,
22,
25,
25,
21,
5,
6,
6,
7,
7,
14,
14,
18,
18,
19,
19,
18,
18,
15,
0,
2,
13,
12,
12,
13,
2,
3,
3,
3,
3,
6,
6,
2,
14,
12,
12,
12,
12,
12,
12,
14,
14,
16,
4,
5,
5,
7,
7,
8,
8,
10,
10,
7,
7,
0,
0,
1,
1,
-1,
-1,
-1,
-1,
3,
3,
-1,
-1,
1,
1,
4,
4,
1,
1,
2,
2,
0,
0,
6,
6,
11,
11,
11,
11,
6,
6,
4,
4,
7,
7,
3,
3,
1,
1,
6,
6,
10,
10,
14,
-1,
1,
12,
12,
12,
6,
6,
5,
5,
2,
2,
7,
7,
7,
7,
7,
7,
9,
9,
2,
14,
13,
13,
16,
16,
10,
10,
0,
0,
3,
3,
3,
3,
5,
5,
15,
15,
18,
4,
6,
6,
6,
6,
2,
2,
5,
5,
7,
7,
0,
0,
8,
8,
16,
16,
7,
7,
1,
1,
0,
0,
5,
5,
12,
12,
21,
10,
10,
10,
8,
20,
20,
20,
24,
24,
21,
21,
14,
14,
8,
8,
1,
1,
4,
4,
5,
5,
9,
9,
10,
10,
8,
8,
7,
7,
9,
9,
13,
26,
25,
25,
18,
2,
2,
2,
6,
6,
10,
10,
1,
1,
1,
1,
3,
3,
9,
9,
13,
13,
10,
10,
4,
4,
2,
2,
1,
1,
0,
0,
2,
2,
0,
0,
5,
5,
7,
7,
8,
8,
10,
10,
7,
7,
2,
2,
-1,
-1,
-1,
-1,
4,
4,
0,
0,
3,
3,
7,
7,
2,
2,
0,
0,
1,
1,
1,
1,
6,
6,
3,
3,
6,
6,
9,
9,
11,
11,
10,
10,
7,
7,
0,
0,
7,
7,
8,
8,
0,
0,
9,
9,
2,
2,
11,
11,
19,
6,
7,
7,
4,
4,
1,
1,
11,
11,
15,
15,
13,
13,
9,
9,
6,
6,
0,
0,
2,
2,
3,
3,
3,
3,
3,
3,
4,
4,
5,
5,
4,
4,
-1,
-1,
0,
0,
0,
0,
2,
2,
5,
5,
15,
15,
13,
1,
2,
2,
3,
3,
1,
1,
0,
11,
10,
10,
11,
11,
4,
4,
7,
18,
18,
18,
16,
16,
7,
7,
11,
11,
21,
21,
17,
17,
15,
15,
22,
22,
24,
9,
10,
10,
17,
32,
32,
32,
31,
31,
24,
24,
18,
18,
12,
12,
9,
9,
3,
3,
8,
8,
4,
4,
14,
14,
13,
13,
15,
15,
21,
21,
14,
14,
6,
6,
-1,
-1,
0,
0,
1,
1,
4,
4,
2,
2,
2,
2,
1,
1,
0,
0,
5,
5,
2,
2,
2,
2,
1,
1,
0,
0,
2,
2,
1,
1,
0,
0,
3,
3,
0,
0,
0,
0,
2,
2,
6,
6,
7,
7,
0,
0,
4,
4,
2,
2,
0,
0,
9,
9,
16,
16,
8,
8,
2,
2,
3,
14,
14,
14,
13,
0,
1,
1,
7,
7,
7,
7,
6,
6,
1,
1,
10,
10,
14,
14,
10,
-1,
