EMG_S1/DS0136.CSV

Memory Length,4000,
Trigger Level,0.00000e+00,
Source,CH1,
Probe,1.0X,
Vertical Units,V,
Vertical Scale,1.00000e+00,
Vertical Position,4.00000e-02,
Horizontal Units,S,
Horizontal Scale,1.00000e-01,
Horizontal Position,0.0000000e+00,
Horizontal Mode,Roll Mode,
Waveform Last Dot Address,4000,
Sampling Period,4.00000e-04,
Firmware,V1.14,
Time, ,
Mode,Fast,
Waveform Data,
-1,
-1,
0,
0,
3,
3,
2,
2,
5,
5,
4,
4,
0,
0,
0,
0,
3,
3,
0,
0,
8,
8,
5,
5,
0,
0,
3,
3,
5,
5,
8,
8,
3,
3,
3,
3,
7,
7,
11,
11,
10,
10,
3,
3,
9,
22,
22,
22,
26,
14,
14,
0,
3,
3,
10,
10,
9,
9,
2,
2,
6,
6,
6,
6,
2,
2,
3,
3,
2,
2,
2,
2,
3,
3,
-1,
-1,
0,
0,
4,
4,
8,
8,
7,
7,
1,
1,
2,
2,
4,
4,
1,
1,
-1,
-1,
1,
1,
6,
6,
8,
8,
7,
7,
6,
6,
14,
14,
23,
23,
14,
2,
9,
24,
24,
24,
23,
10,
11,
0,
3,
16,
15,
15,
20,
20,
12,
12,
12,
12,
20,
20,
10,
10,
6,
6,
4,
4,
13,
13,
18,
18,
18,
3,
4,
4,
7,
7,
11,
11,
10,
10,
7,
7,
1,
1,
0,
0,
0,
0,
5,
18,
17,
17,
23,
23,
23,
7,
8,
8,
3,
3,
12,
12,
12,
12,
7,
7,
4,
4,
0,
0,
0,
0,
0,
0,
0,
13,
12,
12,
17,
17,
15,
4,
5,
5,
8,
8,
14,
14,
16,
16,
18,
18,
13,
0,
1,
1,
6,
6,
8,
8,
9,
9,
8,
8,
2,
2,
-1,
-1,
2,
2,
5,
5,
10,
10,
14,
14,
7,
7,
2,
2,
0,
0,
1,
1,
2,
2,
0,
0,
0,
0,
0,
0,
0,
0,
0,
0,
3,
3,
2,
2,
2,
2,
-1,
-1,
2,
2,
1,
1,
0,
0,
-1,
-1,
1,
1,
0,
0,
8,
8,
14,
14,
21,
21,
22,
8,
8,
8,
8,
8,
14,
14,
14,
14,
15,
15,
13,
13,
8,
8,
6,
6,
0,
0,
5,
5,
8,
8,
8,
8,
7,
7,
4,
4,
5,
5,
4,
4,
5,
5,
2,
2,
0,
0,
1,
1,
6,
6,
3,
3,
4,
4,
3,
3,
0,
0,
7,
7,
16,
16,
19,
19,
20,
20,
15,
2,
3,
3,
8,
8,
10,
10,
13,
13,
11,
0,
2,
2,
6,
6,
3,
3,
3,
3,
7,
7,
1,
1,
5,
5,
5,
5,
0,
0,
4,
4,
7,
7,
3,
3,
0,
0,
4,
4,
-1,
-1,
-1,
-1,
4,
4,
4,
4,
4,
16,
16,
16,
16,
16,
11,
11,
11,
11,
8,
8,
11,
11,
3,
3,
7,
7,
11,
11,
9,
9,
10,
10,
6,
6,
4,
4,
4,
4,
0,
0,
0,
0,
1,
1,
-1,
-1,
0,
0,
5,
5,
8,
8,
8,
8,
3,
3,
0,
0,
-1,
-1,
5,
5,
6,
6,
2,
2,
2,
2,
1,
1,
1,
12,
11,
23,
22,
22,
17,
2,
3,
18,
17,
17,
22,
11,
12,
0,
1,
1,
5,
5,
2,
2,
0,
0,
7,
7,
8,
8,
1,
1,
3,
3,
0,
0,
0,
0,
5,
5,
4,
4,
4,
4,
4,
4,
4,
4,
6,
6,
9,
9,
8,
8,
4,
4,
0,
0,
-1,
-1,
0,
0,
-1,
-1,
0,
0,
3,
3,
3,
3,
1,
1,
0,
0,
0,
0,
2,
2,
0,
0,
1,
1,
5,
5,
4,
4,
0,
0,
2,
2,
0,
14,
13,
13,
8,
8,
6,
6,
12,
12,
16,
16,
13,
13,
7,
7,
10,
10,
2,
19,
19,
19,
24,
24,
20,
20,
14,
14,
11,
11,
6,
6,
0,
0,
3,
3,
6,
6,
11,
11,
16,
16,
15,
15,
7,
7,
1,
1,
1,
1,
1,
1,
6,
6,
9,
9,
8,
8,
3,
3,
0,
0,
5,
5,
8,
8,
7,
7,
0,
0,
0,
0,
0,
0,
0,
0,
1,
1,
-1,
-1,
0,
0,
1,
1,
6,
6,
5,
5,
2,
2,
5,
5,
5,
5,
2,
2,
11,
24,
23,
23,
25,
6,
6,
6,
11,
11,
15,
15,
7,
7,
0,
0,
0,
0,
5,
5,
10,
10,
5,
5,
0,
0,
2,
2,
11,
11,
19,
4,
4,
4,
6,
6,
6,
6,
7,
7,
6,
6,
8,
8,
7,
7,
7,
7,
0,
0,
2,
2,
6,
6,
10,
10,
9,
9,
5,
5,
6,
6,
8,
8,
14,
14,
14,
14,
6,
6,
7,
7,
4,
4,
1,
1,
2,
2,
3,
3,
8,
8,
9,
9,
13,
13,
4,
4,
10,
10,
7,
7,
1,
1,
2,
2,
3,
3,
11,
11,
6,
6,
2,
2,
1,
1,
6,
6,
2,
2,
1,
1,
6,
6,
0,
0,
0,
0,
-1,
-1,
-1,
-1,
0,
0,
0,
0,
5,
5,
8,
8,
8,
8,
7,
7,
6,
6,
0,
0,
0,
0,
-1,
-1,
3,
3,
5,
5,
3,
3,
4,
4,
0,
0,
0,
0,
-1,
-1,
5,
5,
11,
11,
10,
10,
13,
13,
16,
4,
5,
5,
10,
10,
17,
17,
25,
25,
24,
6,
6,
6,
7,
7,
8,
8,
4,
4,
2,
2,
6,
6,
11,
11,
18,
18,
19,
19,
12,
12,
7,
7,
1,
1,
7,
7,
15,
15,
19,
19,
19,
19,
15,
15,
7,
7,
4,
4,
2,
2,
11,
11,
18,
18,
20,
20,
20,
20,
16,
16,
7,
7,
2,
2,
9,
9,
10,
10,
4,
4,
2,
2,
3,
3,
2,
2,
0,
0,
2,
2,
2,
2,
1,
1,
3,
3,
10,
10,
18,
18,
14,
3,
4,
4,
2,
2,
10,
10,
16,
16,
9,
9,
7,
7,
6,
6,
1,
1,
8,
8,
9,
9,
5,
5,
2,
2,
0,
0,
-1,
-1,
5,
5,
8,
8,
2,
2,
1,
1,
6,
6,
1,
1,
0,
0,
4,
4,
3,
3,
1,
1,
7,
7,
4,
4,
-1,
-1,
2,
2,
-1,
-1,
1,
1,
0,
0,
-1,
-1,
1,
1,
4,
4,
10,
10,
15,
26,
26,
26,
22,
4,
4,
4,
8,
19,
18,
18,
14,
14,
11,
11,
8,
8,
10,
10,
13,
13,
12,
12,
10,
-1,
0,
0,
6,
6,
14,
14,
22,
22,
22,
10,
10,
10,
0,
0,
1,
1,
3,
3,
0,
0,
-1,
-1,
-1,
-1,
0,
0,
4,
4,
6,
6,
3,
3,
0,
0,
1,
1,
7,
7,
5,
5,
0,
0,
1,
14,
13,
13,
15,
0,
0,
0,
8,
8,
10,
10,
10,
10,
12,
12,
6,
6,
0,
0,
4,
4,
4,
4,
3,
3,
0,
0,
4,
4,
6,
23,
23,
23,
28,
16,
16,
2,
6,
20,
19,
19,
19,
19,
13,
13,
5,
5,
3,
3,
4,
4,
0,
0,
2,
2,
2,
2,
-1,
-1,
5,
5,
8,
8,
11,
11,
10,
10,
6,
6,
8,
8,
0,
0,
6,
6,
5,
5,
4,
18,
17,
17,
13,
-1,
0,
0,
7,
7,
10,
10,
2,
2,
6,
6,
3,
3,
5,
5,
8,
8,
10,
10,
16,
16,
15,
3,
4,
4,
0,
11,
10,
10,
14,
14,
9,
9,
10,
10,
9,
9,
10,
10,
17,
17,
14,
-1,
0,
13,
12,
12,
15,
2,
2,
2,
0,
0,
5,
5,
7,
7,
2,
2,
3,
3,
10,
10,
6,
6,
6,
6,
10,
-1,
1,
1,
2,
2,
2,
2,
7,
7,
7,
7,
0,
0,
3,
3,
4,
4,
11,
11,
18,
18,
14,
14,
6,
6,
4,
4,
0,
0,
10,
10,
11,
11,
10,
10,
8,
8,
10,
10,
8,
8,
6,
6,
4,
4,
2,
2,
6,
6,
13,
13,
15,
15,
8,
8,
9,
9,
12,
12,
12,
12,
6,
6,
6,
6,
5,
5,
6,
6,
7,
7,
2,
2,
0,
0,
5,
5,
0,
0,
5,
5,
3,
3,
2,
2,
9,
9,
18,
18,
16,
3,
3,
3,
2,
2,
6,
6,
14,
25,
24,
24,
23,
4,
5,
5,
6,
6,
9,
9,
5,
5,
8,
8,
8,
8,
4,
4,
2,
2,
2,
2,
2,
2,
4,
4,
4,
4,
0,
0,
9,
9,
11,
11,
2,
2,
3,
3,
5,
5,
6,
6,
1,
1,
0,
0,
1,
1,
0,
0,
1,
1,
4,
4,
8,
8,
17,
17,
14,
14,
10,
10,
3,
3,
5,
5,
2,
2,
1,
1,
7,
7,
14,
14,
19,
8,
8,
8,
3,
3,
7,
7,
8,
8,
6,
6,
12,
12,
12,
0,
0,
0,
6,
6,
10,
10,
10,
10,
1,
1,
-1,
-1,
1,
1,
2,
2,
0,
16,
16,
16,
25,
25,
17,
17,
9,
9,
2,
2,
9,
9,
0,
0,
0,
0,
7,
7,
6,
6,
0,
0,
-1,
-1,
2,
16,
14,
14,
20,
8,
9,
9,
0,
0,
1,
1,
5,
18,
18,
18,
24,
24,
16,
2,
2,
2,
1,
1,
0,
0,
5,
5,
10,
10,
9,
9,
6,
6,
11,
11,
16,
16,
10,
-1,
0,
0,
2,
2,
0,
0,
1,
1,
9,
9,
9,
9,
5,
5,
2,
2,
2,
16,
16,
16,
12,
12,
5,
5,
11,
11,
14,
14,
8,
8,
4,
16,
16,
16,
18,
18,
21,
21,
24,
24,
16,
4,
4,
4,
-1,
-1,
-1,
-1,
4,
4,
7,
7,
17,
17,
20,
20,
22,
22,
24,
24,
18,
3,
4,
4,
6,
19,
18,
18,
25,
25,
21,
21,
19,
8,
9,
9,
3,
3,
9,
9,
2,
2,
8,
8,
11,
11,
14,
26,
25,
25,
17,
2,
6,
18,
17,
17,
20,
20,
19,
19,
18,
18,
13,
13,
10,
10,
7,
7,
2,
2,
4,
4,
11,
11,
16,
16,
17,
17,
15,
15,
8,
8,
5,
5,
7,
7,
11,
0,
1,
1,
6,
6,
8,
8,
8,
8,
4,
4,
0,
0,
8,
8,
7,
7,
3,
3,
0,
0,
9,
9,
13,
2,
3,
3,
12,
12,
16,
16,
9,
9,
8,
8,
3,
3,
0,
0,
0,
0,
0,
0,
-1,
-1,
5,
5,
5,
5,
1,
1,
1,
1,
11,
11,
17,
17,
25,
12,
13,
-1,
2,
2,
11,
11,
16,
16,
10,
10,
7,
7,
9,
9,
0,
0,
2,
2,
1,
1,
2,
2,
12,
12,
17,
4,
5,
19,
19,
31,
29,
29,
23,
23,
17,
17,
7,
7,
2,
2,
11,
11,
16,
16,
11,
11,
14,
14,
21,
21,
28,
28,
20,
1,
3,
3,
11,
11,
4,
4,
-1,
-1,
5,
5,
9,
9,
9,
9,
6,
6,
8,
8,
11,
11,
8,
8,
5,
5,
0,
0,
6,
6,
13,
13,
17,
17,
17,
17,
7,
7,
6,
21,
20,
20,
16,
2,
8,
8,
16,
16,
12,
12,
7,
7,
4,
4,
8,
8,
10,
10,
11,
11,
7,
7,
0,
11,
10,
24,
23,
23,
30,
30,
30,
30,
21,
3,
3,
3,
5,
5,
3,
3,
1,
1,
6,
6,
12,
12,
16,
16,
22,
22,
20,
20,
15,
15,
12,
1,
2,
2,
3,
3,
2,
2,
5,
5,
4,
4,
10,
10,
19,
19,
24,
24,
27,
27,
31,
31,
30,
8,
9,
9,
12,
23,
22,
22,
30,
14,
15,
0,
1,
1,
2,
2,
5,
5,
8,
8,
6,
6,
5,
5,
3,
3,
1,
1,
2,
2,
3,
3,
0,
0,
4,
4,
11,
11,
18,
29,
29,
41,
40,
40,
37,
12,
13,
2,
6,
17,
17,
17,
25,
25,
27,
27,
22,
11,
12,
12,
11,
11,
14,
14,
8,
8,
3,
3,
1,
1,
8,
8,
7,
7,
6,
6,
11,
11,
6,
6,
1,
1,
4,
15,
14,
26,
25,
25,
18,
5,
5,
5,
3,
14,
13,
26,
25,
25,
18,
3,
12,
28,
28,
28,
23,
23,
18,
18,
15,
15,
9,
9,
11,
11,
12,
12,
7,
7,
2,
2,
-1,
-1,
6,
6,
7,
7,
4,
4,
6,
6,
11,
11,
11,
11,
11,
11,
10,
10,
8,
19,
19,
19,
27,
27,
23,
8,
9,
9,
0,
14,
13,
13,
19,
19,
20,
20,
21,
21,
15,
15,
17,
6,
8,
8,
8,
8,
10,
10,
9,
9,
8,
8,
3,
3,
2,
13,
12,
12,
19,
3,
3,
3,
6,
6,
9,
9,
7,
7,
5,
5,
3,
3,
1,
1,
5,
5,
6,
6,
6,
6,
7,
7,
8,
8,
0,
0,
6,
6,
6,
6,
5,
5,
0,
0,
2,
2,
8,
8,
9,
9,
15,
15,
23,
23,
16,
0,
1,
1,
9,
9,
10,
10,
8,
8,
9,
9,
10,
10,
10,
10,
10,
10,
2,
2,
0,
0,
1,
1,
-1,
-1,
2,
2,
1,
1,
1,
1,
6,
6,
11,
11,
4,
4,
4,
4,
2,
21,
21,
37,
36,
36,
36,
36,
29,
11,
12,
12,
6,
18,
16,
39,
38,
38,
41,
41,
33,
33,
28,
28,
19,
7,
8,
8,
0,
0,
-1,
-1,
0,
0,
4,
4,
8,
8,
16,
31,
30,
30,
34,
34,
25,
25,
20,
20,
16,
16,
11,
11,
8,
8,
1,
1,
7,
7,
10,
10,
16,
16,
6,
6,
2,
2,
8,
8,
18,
18,
18,
18,
18,
18,
24,
12,
12,
-1,
0,
0,
9,
9,
18,
18,
27,
27,
23,
6,
7,
7,
2,
2,
0,
0,
2,
2,
0,
0,
10,
10,
13,
13,
10,
10,
7,
7,
7,
7,
3,
3,
0,
0,
6,
6,
11,
11,
15,
15,
10,
10,
6,
6,
12,
12,
10,
10,
4,
4,
9,
9,
10,
10,
12,
12,
10,
10,
5,
5,
7,
18,
16,
16,
17,
17,
9,
9,
8,
23,
22,
22,
16,
4,
5,
5,
3,
22,
21,
21,
22,
8,
10,
10,
19,
19,
25,
14,
14,
-1,
-1,
-1,
7,
7,
13,
13,
8,
8,
1,
1,
4,
4,
12,
12,
19,
19,
16,
16,
8,
8,
1,
1,
3,
3,
7,
7,
10,
10,
9,
9,
8,
8,
4,
4,
5,
5,
7,
7,
4,
4,
6,
6,
5,
5,
0,
0,
2,
2,
3,
3,
0,
0,
3,
3,
4,
4,
3,
3,
2,
2,
3,
16,
15,
15,
22,
22,
13,
-1,
1,
1,
10,
10,
6,
6,
4,
4,
10,
10,
15,
15,
9,
9,
0,
0,
5,
5,
8,
8,
2,
2,
2,
2,
1,
1,
1,
1,
-1,
-1,
2,
2,
10,
10,
10,
10,
5,
5,
4,
4,
3,
15,
15,
15,
7,
7,
3,
3,
0,
0,
7,
7,
9,
9,
10,
10,
10,
10,
3,
3,
-1,
-1,
3,
18,
18,
18,
27,
27,
21,
8,
9,
9,
3,
3,
11,
11,
12,
12,
7,
7,
5,
5,
6,
6,
8,
8,
10,
10,
9,
9,
7,
7,
2,
2,
8,
20,
18,
18,
20,
20,
23,
11,
12,
0,
1,
1,
3,
3,
0,
11,
11,
25,
24,
24,
30,
6,
7,
18,
17,
17,
24,
24,
24,
24,
18,
18,
15,
15,
18,
18,
8,
8,
1,
1,
5,
5,
2,
2,
8,
8,
17,
17,
19,
19,
16,
16,
14,
14,
13,
13,
12,
0,
2,
2,
8,
8,
10,
10,
13,
13,
6,
6,
0,
0,
2,
2,
2,
2,
8,
8,
0,
0,
8,
8,
9,
9,
10,
10,
6,
6,
1,
1,
-1,
-1,
1,
1,
1,
1,
2,
2,
2,
2,
9,
9,
9,
9,
4,
4,
10,
10,
16,
16,
14,
14,
7,
7,
-1,
-1,
2,
2,
0,
0,
1,
1,
0,
0,
4,
4,
7,
7,
8,
8,
8,
8,
7,
7,
4,
4,
7,
7,
9,
9,
5,
5,
4,
4,
6,
6,
2,
2,
6,
6,
2,
2,
1,
1,
7,
7,
9,
9,
2,
2,
5,
5,
7,
7,
2,
2,
5,
5,
13,
13,
15,
3,
4,
4,
2,
2,
2,
2,
1,
1,
2,
2,
8,
8,
8,
8,
3,
3,
0,
0,
3,
3,
7,
7,
11,
11,
19,
19,
21,
10,
11,
11,
8,
8,
14,
14,
15,
15,
15,
15,
13,
13,
6,
6,
2,
2,
8,
8,
16,
16,
22,
22,
16,
0,
2,
2,
9,
9,
12,
12,
14,
14,
7,
7,
0,
0,
3,
3,
2,
2,
4,
4,
5,
5,
4,
4,
-1,
-1,
0,
0,
1,
1,
7,
7,
12,
12,
14,
14,
7,
7,
2,
2,
0,
13,
12,
12,
14,
3,
4,
4,
5,
5,
6,
6,
-1,
-1,
0,
0,
6,
6,
7,
7,
0,
0,
2,
2,
5,
5,
7,
7,
4,
4,
1,
1,
0,
0,
4,
4,
5,
5,
6,
6,
15,
15,
15,
4,
4,
4,
5,
5,
8,
8,
4,
4,
0,
0,
0,
0,
-1,
-1,
0,
0,
5,
5,
13,
13,
6,
6,
-1,
-1,
-1,
-1,
4,
4,
11,
11,
11,
11,
6,
6,
2,
2,
0,
0,
3,
3,
2,
2,
3,
16,
16,
16,
25,
25,
19,
8,
9,
9,
3,
3,
6,
6,
2,
2,
3,
3,
3,
3,
10,
10,
14,
14,
7,
7,
6,
6,
12,
12,
13,
13,
6,
6,
4,
4,
5,
5,
7,
7,
9,
9,
10,
10,
10,
10,
12,
12,
9,
9,
11,
11,
6,
6,
-1,
-1,
2,
2,
2,
2,
0,
0,
6,
6,
13,
27,
27,
27,
22,
3,
4,
15,
14,
32,
32,
32,
36,
36,
41,
22,
23,
6,
7,
25,
24,
24,
24,
4,
6,
35,
34,
53,
52,
52,
55,
44,
45,
26,
27,
10,
10,
-1,
0,
0,
5,
5,
11,
11,
19,
19,
21,
21,
23,
23,
23,
23,
17,
17,
17,
17,
18,
7,
8,
8,
5,
5,
5,
5,
-1,
-1,
3,
3,
2,
2,
3,
3,
4,
4,
1,
1,
-1,
-1,
6,
6,
10,
10,
1,
1,
8,
8,
10,
10,
8,
8,
4,
4,
0,
0,
0,
0,
2,
2,
0,
0,
1,
1,
8,
8,
16,
16,
13,
13,
8,
8,
3,
3,
0,
0,
3,
3,
10,
10,
7,
7,
6,
6,
2,
2,
1,
1,
1,
1,
1,
1,
2,
2,
0,
0,
0,
0,
-1,
-1,
-1,
-1,
3,
3,
11,
11,
18,
18,
22,
22,
21,
21,
12,
1,
5,
5,
14,
14,
12,
12,
9,
9,
8,
8,
12,
12,
10,
10,
3,
3,
2,
2,
6,
6,
9,
9,
14,
14,
5,
5,
-1,
-1,
4,
4,
3,
3,
3,
3,
-1,
-1,
3,
3,
0,
0,
2,
2,
3,
3,
4,
4,
6,
6,
0,
0,
8,
8,
13,
13,
7,
7,
0,
0,
0,
0,
1,
1,
6,
6,
2,
2,
3,
3,
7,
7,
9,
9,
8,
8,
1,
1,
8,
8,
5,
5,
-1,
-1,
4,
4,
2,
15,
15,
30,
29,
43,
42,
26,
27,
2,
2,
2,
0,
0,
3,
3,
6,
6,
11,
36,
36,
36,
39,
39,
35,
35,
28,
28,
21,
8,
9,
9,
3,
3,
11,
11,
17,
17,
20,
20,
21,
21,
20,
20,
21,
21,
18,
18,
12,
12,
5,
5,
2,
2,
-1,
-1,
0,
0,
0,
0,
1,
1,
3,
3,
10,
10,
13,
13,
7,
7,
2,
2,
1,
1,
5,
5,
4,
4,
3,
3,
2,
2,
3,
3,
4,
4,
0,
0,
6,
6,
6,
6,
7,
7,
5,
5,
2,
2,
-1,
-1,
2,
2,
11,
11,
16,
16,
18,
18,
15,
4,
6,
6,
1,
1,
8,
8,
2,
2,
4,
4,
8,
8,
3,
19,
19,
19,
26,
26,
23,
10,
11,
11,
4,
4,
0,
0,
1,
1,
0,
0,
-1,
-1,
2,
2,
6,
6,
10,
10,
15,
15,
16,
16,
16,
16,
9,
9,
2,
2,
2,
2,
5,
5,
2,
2,
7,
7,
12,
12,
11,
0,
0,
0,
3,
3,
5,
5,
8,
8,
10,
10,
18,
18,
19,
19,
17,
4,
5,
5,
4,
4,
6,
6,
2,
16,
15,
30,
29,
29,
26,
26,
27,
27,
34,
23,
24,
24,
19,
2,
3,
26,
25,
41,
40,
40,
42,
42,
40,
26,
26,
7,
8,
8,
2,
2,
7,
7,
8,
8,
8,
8,
8,
8,
10,
10,
11,
11,
8,
8,
4,
4,
4,
4,
8,
8,
7,
7,
4,
4,
6,
6,
10,
10,
7,
7,
1,
1,
-1,
-1,
0,
0,
0,
0,
1,
1,
4,
4,
5,
5,
5,
5,
4,
4,
1,
1,
1,
1,
2,
2,
-1,
-1,
2,
2,
2,
2,
5,
5,
4,
4,
2,
2,
4,
4,
8,
8,
5,
5,
3,
3,
5,
5,
-1,
-1,
0,
0,
1,
1,
1,
1,
3,
3,
11,
11,
12,
12,
11,
11,
5,
5,
3,
3,
11,
11,
13,
13,
8,
8,
1,
1,
7,
7,
12,
12,
14,
14,
15,
4,
6,
6,
5,
5,
12,
12,
18,
18,
18,
18,
16,
16,
9,
9,
4,
4,
0,
0,
3,
3,
8,
8,
9,
9,
9,
9,
13,
13,
14,
14,
11,
11,
7,
7,
2,
2,
5,
5,
10,
-1,
2,
2,
6,
6,
9,
9,
10,
10,
6,
6,
0,
0,
2,
2,
5,
5,
7,
7,
8,
8,
4,
4,
3,
3,
7,
7,
16,
16,
25,
25,
18,
18,
12,
12,
5,
5,
8,
8,
17,
17,
8,
8,
2,
2,
1,
1,
2,
2,
3,
3,
7,
7,
3,
3,
1,
15,
15,
15,
24,
24,
25,
25,
18,
3,
5,
5,
14,
14,
24,
24,
24,
24,
20,
20,
12,
12,
6,
6,
3,
3,
1,
1,
10,
10,
16,
16,
18,
18,
15,
15,
10,
10,
2,
2,
0,
0,
-1,
-1,
-1,
-1,
0,
0,
-1,
-1,
-1,
-1,
-1,
-1,
0,
0,
0,
0,
5,
5,
7,
7,
3,
3,
-1,
-1,
-1,
-1,
0,
0,
2,
2,
6,
6,
8,
8,
6,
6,
2,
2,
6,
6,
9,
9,
4,
4,
0,
0,
0,
0,
0,
0,
6,
6,
14,
14,
15,
15,
5,
5,
0,
0,
10,
10,
13,
0,
0,
11,
11,
11,
14,
14,
10,
10,
6,
6,
3,
3,
11,
11,
12,
12,
11,
11,
10,
10,
15,
15,
12,
0,
2,
14,
13,
13,
12,
12,
7,
7,
8,
8,
8,
8,
6,
6,
5,
5,
4,
4,
2,
2,
1,
1,
2,
2,
1,
1,
-1,
-1,
-1,
-1,
2,
2,
-1,
-1,
0,
0,
-1,
-1,
2,
2,
3,
3,
1,
1,
0,
0,
0,
0,
0,
0,
1,
1,
0,
0,
2,
2,
6,
6,
7,
7,
6,
6,
2,
2,
9,
9,
15,
15,
7,
7,
0,
0,
2,
2,
0,
0,
10,
10,
16,
3,
3,
3,
0,
0,
0,
0,
2,
2,
3,
3,
0,
0,
1,
1,
3,
3,
3,
3,
5,
5,
14,
14,
14,
14,
10,
10,
2,
2,
5,
5,
0,
0,
2,
2,
0,
0,
0,
0,
5,
5,
9,
9,
10,
10,
8,
8,
7,
7,
6,
6,
3,
3,
3,
3,
-1,
-1,
-2,
-2,
1,
1,
0,
0,
2,
2,
8,
8,
10,
10,
5,
5,
4,
4,
14,
14,
14,
1,
2,
2,
1,
1,
0,
0,
2,
2,
6,
6,
1,
1,
2,
2,
-1,
-1,
2,
2,
1,
1,
0,
0,
-1,
-1,
-1,
-1,
-1,
-1,
0,
0,
1,
1,
6,
6,
15,
15,
8,
8,
3,
3,
-1,
-1,
3,
3,
5,
5,
0,
0,
2,
2,
0,
0,
0,
0,
2,
2,
6,
6,
5,
5,
0,
0,
-1,
-1,
2,
2,
3,
3,
3,
3,
0,
0,
0,
0,
0,
0,
1,
1,
2,
2,
1,
1,
0,
0,
1,
1,
6,
6,
3,
3,
2,
2,
1,
1,
1,
1,
-1,
-1,
0,
0,
10,
10,
7,
7,
0,
0,
1,
1,
0,
0,
0,
0,
3,
3,
1,
1,
0,
0,
4,
4,
4,
4,
5,
5,
5,
5,
1,
1,
0,
0,
2,
2,
2,
14,
14,
14,
17,
17,
12,
12,
7,
7,
9,
9,
10,
10,
9,
9,
8,
8,
3,
15,
14,
14,
16,
16,
17,
17,
15,
15,
17,
17,
12,
12,
7,
7,
7,
7,
6,
6,
0,
0,
3,
16,
16,
16,
26,
26,
27,
27,
20,
20,
14,
14,
14,
14,
14,
14,
5,
5,
0,
11,
11,
11,
15,
15,
11,
11,
10,
10,
2,
2,
0,
0,
0,
0,
0,
0,
3,
3,
1,
1,
5,
16,
15,
15,
15,
0,
1,
16,
16,
16,
17,
17,
10,
10,
4,
4,
2,
2,
10,
10,
14,
14,
12,
12,
9,
9,
7,
7,
3,
3,
0,
0,
-1,
-1,
