EMG_S1/DS0172.CSV

Memory Length,4000
Trigger Level,0.00E+00
Source,CH1
Probe,1.0X
Vertical Units,V
Vertical Scale,1.00E+00
Vertical Position,4.00E-02
Horizontal Units,S
Horizontal Scale,1.00E-01
Horizontal Position,0.00E+00
Horizontal Mode,Roll Mode
Waveform Last Dot Address,3980
Sampling Period,4.00E-04
Firmware,V1.14
Time, 
Mode,Fast
Waveform Data,
3,
3,
5,
5,
11,
11,
10,
10,
1,
1,
10,
10,
19,
19,
25,
25,
16,
16,
14,
14,
7,
7,
8,
8,
13,
13,
5,
5,
7,
18,
17,
17,
21,
21,
26,
26,
26,
11,
11,
0,
3,
18,
16,
16,
15,
15,
19,
19,
16,
16,
9,
9,
3,
3,
0,
0,
1,
1,
3,
3,
0,
0,
0,
0,
2,
2,
2,
2,
8,
8,
2,
2,
7,
7,
8,
8,
7,
18,
17,
17,
22,
4,
4,
4,
10,
10,
13,
13,
8,
8,
8,
8,
3,
14,
12,
12,
10,
10,
1,
1,
9,
9,
7,
7,
7,
7,
10,
10,
8,
8,
8,
8,
0,
14,
14,
14,
13,
0,
2,
2,
12,
35,
35,
35,
36,
14,
14,
2,
8,
19,
18,
18,
20,
20,
16,
16,
9,
9,
5,
5,
0,
0,
6,
6,
3,
3,
5,
5,
8,
8,
0,
0,
2,
2,
2,
2,
5,
5,
8,
8,
7,
7,
14,
14,
10,
10,
6,
6,
8,
8,
1,
1,
10,
10,
7,
7,
0,
0,
-1,
-1,
0,
0,
3,
3,
9,
9,
3,
3,
3,
3,
5,
5,
3,
3,
2,
2,
0,
0,
1,
1,
0,
0,
0,
0,
2,
2,
1,
1,
2,
2,
-1,
-1,
3,
3,
4,
4,
0,
11,
11,
11,
13,
0,
1,
1,
4,
4,
4,
4,
1,
1,
1,
1,
2,
2,
9,
9,
3,
20,
19,
19,
26,
26,
16,
0,
1,
19,
18,
18,
24,
8,
9,
9,
5,
18,
16,
16,
8,
8,
7,
7,
5,
5,
2,
2,
0,
0,
6,
6,
1,
1,
0,
0,
0,
0,
4,
4,
0,
0,
4,
4,
2,
2,
2,
2,
4,
4,
10,
10,
4,
4,
5,
5,
8,
8,
11,
11,
9,
9,
1,
19,
18,
32,
30,
17,
17,
3,
4,
4,
5,
5,
7,
7,
3,
3,
9,
9,
6,
6,
0,
0,
2,
2,
7,
7,
1,
1,
9,
9,
18,
18,
16,
16,
12,
12,
6,
6,
3,
3,
1,
1,
3,
3,
5,
5,
9,
20,
20,
20,
26,
26,
17,
0,
1,
1,
2,
2,
3,
3,
4,
4,
0,
0,
6,
6,
2,
2,
7,
7,
2,
14,
13,
1,
2,
2,
8,
19,
18,
18,
13,
1,
6,
6,
11,
11,
10,
10,
6,
6,
14,
25,
24,
24,
20,
1,
3,
17,
16,
16,
20,
20,
17,
17,
16,
16,
11,
11,
6,
6,
2,
2,
0,
0,
3,
3,
7,
7,
7,
7,
9,
9,
6,
6,
0,
0,
1,
1,
6,
6,
9,
9,
17,
17,
12,
1,
2,
2,
6,
6,
5,
5,
-1,
-1,
4,
4,
7,
7,
11,
11,
6,
6,
0,
0,
-1,
-1,
4,
4,
1,
1,
0,
0,
2,
2,
-1,
-1,
2,
2,
1,
1,
-1,
-1,
-1,
-1,
2,
2,
2,
2,
8,
8,
9,
9,
7,
7,
10,
10,
7,
7,
0,
0,
1,
1,
2,
2,
0,
0,
0,
0,
9,
9,
6,
6,
1,
1,
0,
0,
4,
4,
6,
6,
1,
1,
8,
8,
10,
10,
3,
3,
0,
0,
-1,
-1,
2,
2,
1,
1,
2,
2,
0,
0,
2,
2,
-1,
11,
11,
11,
8,
8,
6,
6,
9,
9,
16,
16,
17,
17,
9,
9,
4,
4,
11,
11,
15,
15,
20,
20,
12,
1,
4,
4,
4,
4,
10,
10,
18,
18,
13,
13,
5,
5,
15,
27,
26,
26,
16,
3,
3,
3,
0,
0,
-1,
-1,
2,
2,
3,
3,
2,
2,
1,
1,
0,
0,
0,
0,
0,
0,
4,
4,
0,
11,
10,
10,
15,
15,
10,
10,
0,
0,
5,
5,
13,
13,
10,
10,
1,
1,
4,
4,
2,
2,
1,
1,
-1,
-1,
2,
2,
10,
10,
6,
6,
5,
5,
4,
4,
1,
1,
2,
2,
5,
5,
3,
3,
6,
6,
10,
10,
9,
9,
3,
3,
3,
3,
11,
11,
12,
12,
13,
13,
6,
6,
1,
1,
2,
2,
6,
6,
12,
12,
9,
9,
1,
1,
8,
8,
11,
11,
7,
7,
4,
4,
2,
2,
2,
2,
3,
3,
3,
3,
0,
0,
1,
1,
0,
0,
3,
3,
8,
8,
9,
9,
2,
2,
3,
3,
6,
6,
5,
5,
1,
1,
0,
0,
2,
2,
6,
6,
1,
1,
0,
11,
10,
10,
17,
17,
8,
8,
1,
1,
0,
0,
6,
6,
6,
6,
3,
3,
10,
10,
3,
3,
5,
5,
12,
12,
15,
15,
12,
12,
5,
5,
-1,
15,
14,
25,
23,
11,
11,
11,
8,
8,
16,
2,
3,
24,
23,
23,
26,
14,
14,
0,
2,
2,
4,
4,
8,
8,
8,
8,
11,
11,
8,
8,
5,
5,
11,
11,
7,
7,
0,
0,
5,
5,
5,
5,
3,
3,
5,
5,
0,
0,
6,
6,
9,
9,
0,
0,
-1,
-1,
6,
6,
3,
3,
5,
5,
4,
20,
19,
19,
24,
24,
15,
15,
7,
7,
0,
0,
7,
7,
8,
8,
6,
6,
8,
8,
8,
8,
3,
3,
0,
0,
-1,
-1,
3,
3,
5,
5,
2,
2,
2,
2,
4,
4,
1,
1,
3,
3,
8,
8,
8,
8,
11,
11,
16,
16,
11,
11,
7,
7,
11,
0,
0,
13,
12,
12,
15,
3,
4,
4,
1,
1,
5,
5,
10,
23,
23,
23,
23,
8,
9,
9,
12,
12,
21,
21,
22,
22,
17,
2,
4,
4,
4,
4,
3,
3,
6,
6,
15,
3,
4,
4,
8,
8,
12,
12,
12,
12,
15,
15,
16,
16,
10,
10,
4,
4,
2,
19,
18,
18,
19,
5,
6,
6,
0,
0,
4,
4,
-1,
14,
12,
25,
24,
24,
21,
21,
14,
0,
1,
1,
7,
7,
9,
9,
7,
7,
9,
9,
5,
5,
3,
3,
3,
3,
2,
2,
1,
1,
0,
0,
1,
1,
5,
5,
4,
4,
0,
0,
4,
4,
2,
2,
4,
4,
4,
4,
4,
4,
5,
5,
6,
6,
10,
10,
6,
6,
2,
2,
3,
3,
2,
2,
0,
0,
-1,
-1,
1,
1,
1,
1,
-1,
-1,
0,
0,
0,
0,
1,
1,
2,
2,
0,
0,
1,
1,
0,
0,
2,
2,
4,
4,
5,
5,
3,
3,
2,
2,
7,
7,
8,
8,
11,
0,
4,
17,
15,
15,
7,
7,
7,
7,
14,
14,
13,
0,
1,
12,
11,
11,
10,
10,
8,
8,
8,
8,
7,
7,
4,
4,
4,
4,
11,
11,
9,
9,
3,
3,
9,
9,
13,
13,
13,
2,
10,
22,
21,
21,
27,
27,
27,
5,
6,
6,
8,
8,
8,
8,
3,
3,
-1,
-1,
5,
5,
11,
-1,
0,
0,
3,
14,
13,
13,
16,
16,
6,
6,
2,
2,
6,
6,
16,
16,
16,
16,
11,
0,
2,
2,
2,
2,
0,
0,
6,
6,
9,
9,
10,
10,
16,
16,
17,
4,
4,
4,
2,
2,
1,
1,
4,
4,
7,
7,
5,
5,
0,
0,
3,
3,
2,
2,
0,
0,
3,
3,
6,
6,
2,
2,
0,
0,
0,
0,
6,
6,
6,
6,
0,
0,
0,
0,
-1,
-1,
-1,
-1,
2,
2,
0,
0,
0,
0,
0,
0,
6,
6,
3,
3,
0,
0,
2,
2,
4,
4,
0,
0,
2,
2,
4,
4,
3,
3,
10,
10,
8,
8,
12,
12,
12,
12,
3,
3,
3,
3,
8,
8,
11,
0,
2,
2,
6,
6,
1,
1,
9,
9,
3,
3,
7,
7,
4,
4,
7,
7,
3,
3,
7,
7,
4,
4,
1,
1,
4,
16,
15,
15,
22,
8,
8,
8,
0,
0,
2,
2,
8,
8,
13,
13,
14,
14,
15,
15,
15,
15,
8,
8,
8,
22,
22,
22,
21,
21,
13,
13,
10,
10,
9,
9,
7,
7,
3,
3,
7,
7,
4,
4,
6,
6,
4,
4,
6,
19,
19,
19,
17,
17,
8,
8,
0,
0,
3,
3,
3,
3,
0,
0,
6,
6,
3,
3,
-1,
-1,
3,
3,
-1,
-1,
9,
29,
29,
16,
16,
3,
3,
3,
2,
2,
-1,
-1,
3,
3,
8,
8,
11,
11,
11,
11,
8,
8,
7,
7,
0,
0,
8,
8,
6,
6,
3,
3,
1,
1,
-1,
-1,
1,
1,
3,
3,
-1,
-1,
1,
1,
-1,
-1,
-1,
-1,
7,
18,
18,
18,
22,
22,
17,
2,
2,
2,
9,
9,
11,
11,
3,
3,
2,
2,
4,
4,
12,
12,
13,
13,
11,
11,
3,
3,
4,
4,
9,
9,
6,
6,
4,
15,
15,
15,
21,
21,
17,
6,
6,
6,
0,
0,
0,
0,
4,
4,
8,
8,
12,
12,
7,
7,
4,
4,
-1,
-1,
-1,
-1,
-1,
-1,
0,
12,
12,
12,
21,
21,
24,
24,
14,
2,
8,
26,
24,
11,
11,
0,
1,
1,
2,
2,
7,
7,
2,
2,
3,
3,
5,
5,
2,
2,
0,
0,
5,
23,
22,
22,
30,
30,
22,
5,
5,
5,
6,
6,
11,
11,
8,
8,
8,
8,
6,
6,
6,
6,
8,
8,
13,
13,
17,
17,
12,
12,
14,
0,
1,
14,
13,
13,
15,
15,
14,
14,
15,
15,
11,
11,
8,
8,
13,
13,
14,
14,
8,
8,
3,
3,
11,
11,
9,
9,
4,
4,
-1,
-1,
2,
2,
-1,
-1,
-1,
-1,
-1,
-1,
0,
0,
0,
0,
3,
3,
1,
1,
0,
0,
1,
1,
0,
0,
0,
0,
2,
2,
-1,
-1,
2,
2,
9,
9,
7,
7,
5,
5,
2,
2,
1,
1,
2,
2,
-1,
-1,
2,
2,
1,
1,
0,
0,
4,
4,
6,
6,
4,
4,
3,
3,
8,
24,
23,
23,
23,
6,
6,
6,
1,
12,
11,
11,
17,
17,
13,
13,
6,
6,
4,
4,
6,
6,
0,
0,
-1,
-1,
0,
0,
7,
7,
10,
-1,
0,
0,
5,
5,
12,
12,
11,
11,
2,
2,
0,
0,
2,
2,
4,
4,
0,
0,
5,
5,
10,
10,
7,
7,
0,
0,
2,
2,
3,
3,
4,
4,
7,
7,
8,
8,
13,
13,
11,
11,
14,
2,
10,
36,
35,
35,
38,
38,
28,
11,
13,
1,
5,
5,
13,
13,
13,
13,
10,
10,
12,
12,
7,
7,
3,
3,
0,
0,
3,
3,
5,
5,
10,
10,
4,
4,
0,
0,
4,
18,
17,
17,
18,
18,
14,
14,
20,
20,
16,
2,
2,
2,
6,
6,
9,
9,
9,
9,
10,
10,
14,
14,
17,
17,
7,
7,
2,
2,
8,
8,
13,
13,
17,
17,
14,
14,
8,
8,
7,
7,
2,
2,
8,
8,
4,
4,
12,
12,
16,
3,
3,
3,
3,
3,
8,
8,
14,
14,
21,
21,
22,
22,
14,
2,
14,
34,
33,
33,
25,
6,
6,
6,
-1,
-1,
5,
5,
4,
4,
0,
0,
0,
0,
2,
2,
2,
2,
6,
6,
10,
10,
1,
1,
3,
3,
2,
2,
-1,
-1,
3,
3,
11,
11,
9,
9,
0,
0,
6,
6,
7,
7,
5,
5,
4,
4,
5,
5,
0,
0,
1,
1,
4,
4,
5,
5,
4,
4,
2,
2,
2,
2,
9,
9,
14,
14,
7,
7,
1,
1,
3,
3,
2,
2,
2,
2,
9,
9,
8,
8,
1,
1,
9,
9,
5,
5,
12,
12,
14,
14,
17,
17,
13,
13,
17,
31,
30,
16,
16,
-1,
0,
0,
6,
6,
7,
7,
3,
18,
18,
18,
13,
0,
2,
2,
8,
8,
11,
-1,
0,
0,
6,
6,
5,
5,
2,
14,
13,
13,
12,
12,
4,
4,
13,
13,
20,
20,
13,
2,
2,
2,
0,
0,
2,
2,
2,
2,
4,
4,
4,
4,
6,
6,
5,
5,
8,
8,
7,
7,
4,
4,
-1,
-1,
6,
6,
10,
10,
6,
6,
6,
6,
2,
2,
5,
5,
0,
0,
-1,
-1,
0,
0,
3,
3,
0,
0,
1,
1,
4,
4,
4,
4,
9,
9,
6,
6,
1,
1,
3,
3,
9,
9,
5,
5,
9,
9,
15,
15,
7,
7,
9,
22,
22,
22,
16,
16,
11,
-1,
2,
2,
7,
7,
13,
13,
14,
14,
13,
13,
7,
7,
-1,
-1,
1,
1,
0,
0,
-1,
-1,
1,
1,
-1,
-1,
3,
3,
8,
8,
9,
9,
10,
10,
8,
8,
14,
14,
8,
8,
2,
2,
0,
0,
2,
2,
5,
5,
0,
0,
2,
2,
4,
4,
3,
3,
-1,
-1,
-1,
-1,
3,
3,
10,
10,
14,
14,
12,
1,
2,
25,
25,
25,
24,
11,
12,
12,
12,
12,
6,
6,
-1,
-1,
1,
1,
4,
4,
10,
10,
15,
15,
16,
16,
13,
13,
8,
8,
2,
2,
4,
4,
10,
10,
13,
13,
12,
12,
9,
9,
0,
0,
3,
3,
2,
2,
6,
6,
7,
7,
5,
16,
16,
16,
26,
14,
15,
0,
3,
16,
15,
27,
26,
26,
25,
25,
22,
22,
15,
2,
6,
20,
20,
20,
12,
-1,
0,
0,
7,
7,
15,
15,
18,
18,
13,
-1,
0,
0,
2,
2,
8,
8,
13,
13,
6,
6,
2,
2,
-1,
-1,
-1,
-1,
0,
0,
1,
1,
2,
2,
5,
5,
0,
0,
5,
5,
0,
0,
9,
9,
18,
18,
10,
10,
3,
3,
0,
0,
-1,
-1,
0,
0,
3,
3,
7,
7,
7,
7,
5,
5,
3,
3,
12,
12,
13,
13,
13,
13,
8,
8,
6,
6,
6,
6,
3,
3,
7,
7,
1,
1,
3,
3,
3,
3,
0,
0,
0,
0,
0,
0,
3,
3,
5,
5,
4,
4,
10,
10,
7,
7,
3,
3,
0,
0,
2,
2,
-1,
-1,
2,
2,
4,
4,
4,
4,
10,
10,
14,
2,
10,
26,
24,
24,
18,
0,
2,
2,
10,
10,
13,
13,
11,
11,
8,
8,
10,
10,
7,
7,
1,
1,
6,
6,
15,
15,
23,
23,
15,
-1,
0,
0,
4,
4,
5,
5,
1,
1,
-1,
-1,
0,
0,
1,
1,
-1,
-1,
2,
2,
1,
1,
4,
4,
4,
4,
0,
0,
2,
2,
2,
2,
5,
5,
12,
12,
6,
6,
2,
2,
2,
2,
6,
6,
10,
10,
4,
4,
5,
5,
2,
2,
0,
0,
3,
3,
6,
6,
7,
7,
5,
5,
3,
3,
5,
18,
17,
17,
17,
17,
9,
9,
6,
6,
13,
13,
5,
5,
6,
6,
9,
9,
7,
7,
7,
7,
7,
7,
8,
36,
35,
51,
48,
20,
22,
3,
4,
4,
9,
9,
9,
9,
0,
0,
1,
14,
14,
14,
11,
-1,
0,
0,
-1,
-1,
9,
9,
17,
17,
15,
15,
14,
2,
2,
22,
21,
34,
33,
13,
13,
2,
3,
3,
0,
0,
3,
3,
2,
2,
1,
1,
2,
2,
0,
0,
5,
5,
6,
6,
4,
4,
4,
4,
2,
2,
2,
2,
3,
3,
2,
2,
0,
0,
3,
3,
4,
4,
3,
3,
6,
6,
7,
7,
8,
29,
29,
29,
29,
15,
15,
0,
2,
15,
15,
15,
18,
18,
15,
15,
11,
11,
8,
8,
4,
4,
0,
0,
4,
4,
5,
5,
-1,
-1,
6,
6,
8,
8,
5,
5,
4,
4,
3,
17,
16,
28,
27,
13,
14,
2,
7,
7,
11,
11,
14,
14,
8,
8,
6,
6,
8,
8,
6,
6,
1,
1,
3,
3,
11,
11,
11,
11,
2,
2,
7,
7,
11,
11,
7,
7,
-1,
-1,
7,
19,
19,
19,
22,
22,
15,
15,
6,
6,
7,
7,
10,
10,
8,
8,
8,
8,
4,
4,
4,
4,
3,
3,
6,
6,
12,
12,
14,
14,
10,
-1,
0,
0,
4,
4,
8,
8,
11,
11,
9,
9,
2,
2,
3,
3,
5,
5,
10,
10,
8,
8,
2,
15,
14,
2,
8,
27,
27,
27,
25,
25,
16,
0,
1,
15,
14,
14,
17,
17,
12,
12,
9,
9,
6,
6,
3,
3,
4,
4,
3,
3,
2,
2,
7,
18,
17,
17,
24,
24,
19,
19,
9,
9,
0,
0,
8,
8,
14,
14,
10,
10,
6,
6,
1,
1,
4,
4,
13,
13,
9,
9,
0,
0,
6,
6,
6,
6,
3,
3,
3,
3,
4,
4,
2,
2,
7,
22,
20,
20,
19,
2,
2,
2,
10,
10,
16,
16,
14,
0,
1,
1,
6,
6,
3,
3,
-1,
-1,
6,
6,
11,
11,
9,
9,
8,
8,
11,
11,
5,
5,
1,
1,
8,
8,
9,
9,
5,
5,
7,
7,
9,
9,
2,
2,
0,
14,
13,
13,
13,
1,
2,
2,
-1,
-1,
2,
2,
0,
0,
-1,
-1,
-1,
-1,
0,
0,
6,
6,
6,
6,
1,
1,
2,
2,
2,
2,
7,
7,
7,
7,
1,
1,
5,
5,
11,
11,
6,
6,
8,
22,
22,
11,
11,
-1,
1,
1,
7,
7,
4,
4,
5,
5,
6,
6,
4,
4,
0,
0,
2,
2,
3,
3,
3,
3,
9,
9,
14,
14,
10,
10,
4,
4,
0,
0,
8,
8,
6,
6,
2,
2,
5,
5,
6,
6,
2,
2,
-1,
-1,
2,
2,
8,
8,
6,
6,
0,
0,
3,
3,
8,
8,
10,
10,
7,
7,
0,
0,
2,
2,
0,
0,
2,
2,
-1,
-1,
4,
4,
3,
3,
2,
2,
1,
1,
6,
6,
6,
6,
3,
3,
5,
5,
-1,
-1,
2,
2,
4,
4,
8,
8,
3,
3,
3,
3,
11,
11,
12,
0,
1,
1,
0,
0,
1,
1,
-1,
-1,
2,
2,
0,
0,
-1,
-1,
8,
8,
14,
2,
2,
14,
14,
14,
11,
-1,
0,
0,
0,
0,
0,
0,
-1,
-1,
0,
0,
5,
5,
6,
6,
3,
3,
-1,
-1,
-1,
-1,
3,
3,
5,
5,
3,
3,
4,
4,
9,
9,
2,
2,
2,
2,
6,
6,
8,
8,
9,
9,
3,
3,
4,
4,
11,
11,
14,
14,
19,
34,
33,
33,
33,
8,
8,
8,
8,
8,
13,
13,
15,
15,
18,
18,
24,
24,
33,
33,
30,
6,
6,
6,
7,
24,
23,
44,
44,
32,
32,
5,
6,
6,
0,
0,
2,
2,
8,
8,
10,
10,
8,
8,
4,
4,
3,
3,
0,
0,
2,
2,
3,
3,
1,
1,
3,
3,
0,
0,
0,
0,
6,
6,
16,
16,
7,
7,
0,
0,
8,
8,
11,
11,
12,
12,
9,
9,
1,
1,
4,
4,
6,
6,
11,
11,
17,
17,
17,
17,
8,
8,
5,
5,
4,
4,
0,
0,
-1,
-1,
4,
4,
12,
12,
14,
14,
18,
18,
17,
17,
8,
8,
3,
3,
2,
2,
0,
0,
-1,
-1,
-1,
-1,
7,
7,
10,
10,
9,
9,
8,
8,
0,
0,
4,
4,
2,
2,
1,
1,
3,
3,
2,
2,
0,
0,
6,
6,
4,
15,
15,
15,
13,
2,
2,
2,
0,
0,
0,
0,
1,
1,
0,
0,
0,
0,
4,
4,
8,
8,
7,
7,
4,
4,
1,
1,
5,
5,
7,
7,
6,
6,
5,
5,
6,
6,
4,
4,
-1,
-1,
4,
4,
7,
7,
2,
2,
2,
2,
2,
2,
1,
1,
4,
4,
8,
8,
3,
16,
15,
15,
17,
17,
8,
8,
0,
0,
0,
0,
1,
1,
3,
14,
13,
13,
16,
16,
8,
8,
0,
0,
6,
6,
15,
26,
25,
25,
25,
13,
14,
0,
3,
17,
16,
16,
17,
17,
8,
8,
1,
1,
-1,
-1,
0,
0,
2,
2,
0,
0,
-1,
-1,
3,
3,
12,
12,
18,
18,
23,
11,
11,
0,
6,
6,
13,
13,
16,
16,
21,
21,
22,
6,
7,
7,
-1,
-1,
3,
3,
9,
9,
6,
6,
0,
0,
2,
2,
1,
1,
4,
4,
3,
3,
5,
5,
14,
14,
22,
22,
18,
5,
6,
6,
2,
2,
6,
6,
8,
8,
12,
12,
16,
16,
15,
15,
8,
8,
4,
4,
2,
16,
15,
15,
21,
21,
20,
8,
8,
8,
1,
1,
9,
9,
10,
-1,
2,
2,
6,
6,
3,
3,
3,
3,
2,
2,
3,
3,
0,
0,
-1,
-1,
0,
0,
0,
0,
-1,
-1,
1,
1,
4,
4,
0,
0,
0,
0,
1,
1,
3,
3,
0,
0,
0,
0,
9,
9,
5,
5,
1,
1,
1,
1,
6,
6,
13,
13,
10,
10,
5,
5,
1,
1,
4,
4,
-1,
-1,
4,
4,
7,
7,
9,
9,
8,
8,
7,
7,
7,
7,
2,
2,
10,
10,
13,
13,
6,
6,
1,
1,
3,
3,
7,
7,
0,
14,
13,
28,
28,
28,
25,
10,
11,
0,
4,
4,
0,
0,
3,
3,
10,
10,
12,
12,
12,
12,
7,
7,
4,
4,
7,
7,
13,
2,
5,
17,
16,
16,
18,
18,
18,
18,
16,
16,
15,
15,
11,
11,
9,
9,
5,
5,
6,
6,
0,
0,
4,
4,
4,
4,
3,
3,
11,
22,
21,
21,
17,
17,
9,
9,
3,
3,
3,
3,
0,
0,
1,
1,
5,
5,
10,
10,
8,
8,
8,
8,
11,
11,
8,
8,
2,
2,
2,
2,
6,
6,
2,
2,
2,
2,
6,
6,
4,
4,
7,
7,
5,
5,
3,
3,
10,
10,
13,
13,
10,
-1,
0,
0,
3,
3,
2,
2,
5,
5,
0,
0,
7,
7,
12,
12,
13,
13,
5,
5,
5,
5,
9,
9,
8,
8,
1,
14,
14,
14,
9,
9,
4,
4,
5,
5,
0,
0,
5,
5,
0,
0,
0,
0,
1,
1,
-1,
-1,
0,
0,
0,
0,
3,
3,
6,
6,
5,
5,
0,
0,
3,
3,
7,
7,
1,
1,
8,
8,
7,
7,
5,
5,
4,
4,
0,
0,
3,
3,
5,
5,
3,
3,
1,
1,
-1,
-1,
0,
0,
2,
2,
4,
4,
4,
4,
7,
7,
6,
6,
0,
0,
1,
19,
19,
19,
21,
9,
10,
-1,
0,
0,
8,
8,
13,
13,
16,
16,
14,
14,
9,
9,
4,
4,
0,
0,
2,
2,
5,
5,
1,
1,
1,
1,
7,
7,
14,
14,
7,
7,
5,
5,
7,
7,
3,
3,
1,
1,
4,
4,
5,
5,
0,
0,
0,
0,
2,
2,
0,
0,
3,
3,
3,
3,
7,
7,
11,
11,
8,
8,
0,
0,
7,
7,
10,
10,
5,
5,
2,
2,
3,
3,
3,
3,
0,
12,
11,
11,
21,
21,
25,
14,
14,
0,
4,
4,
6,
6,
8,
8,
9,
9,
4,
4,
2,
2,
7,
7,
10,
10,
0,
16,
15,
15,
25,
25,
21,
8,
8,
8,
8,
8,
14,
14,
6,
6,
6,
6,
11,
11,
9,
9,
3,
3,
0,
0,
-1,
-1,
0,
0,
-1,
-1,
3,
3,
6,
6,
10,
10,
13,
13,
14,
14,
10,
10,
0,
0,
6,
6,
6,
6,
2,
2,
8,
21,
20,
20,
14,
14,
8,
8,
2,
2,
12,
12,
11,
11,
7,
7,
9,
9,
5,
5,
0,
0,
2,
2,
1,
1,
9,
9,
9,
9,
4,
4,
1,
1,
0,
0,
2,
2,
3,
3,
2,
2,
0,
0,
2,
2,
2,
2,
5,
5,
6,
6,
1,
1,
6,
6,
5,
5,
3,
3,
1,
1,
0,
0,
6,
6,
8,
8,
6,
6,
2,
2,
1,
1,
5,
5,
0,
0,
1,
1,
4,
4,
7,
7,
3,
3,
0,
0,
1,
1,
7,
7,
13,
13,
7,
7,
0,
0,
-1,
-1,
6,
6,
5,
5,
0,
0,
6,
6,
-1,
-1,
2,
2,
10,
10,
6,
6,
8,
19,
18,
5,
5,
5,
-1,
-1,
3,
3,
2,
2,
5,
5,
12,
23,
23,
23,
17,
17,
10,
-1,
2,
14,
14,
14,
16,
16,
12,
12,
7,
7,
2,
2,
5,
5,
0,
0,
1,
1,
9,
9,
14,
14,
14,
14,
8,
8,
0,
0,
3,
3,
6,
6,
3,
3,
11,
11,
11,
11,
7,
7,
12,
12,
6,
6,
3,
3,
6,
6,
5,
5,
11,
11,
10,
10,
4,
4,
0,
0,
0,
0,
0,
0,
0,
0,
-1,
-1,
3,
3,
4,
4,
5,
5,
6,
6,
6,
6,
2,
2,
0,
0,
0,
0,
2,
2,
0,
0,
2,
2,
1,
1,
2,
2,
8,
8,
3,
3,
2,
2,
0,
0,
1,
1,
-1,
-1,
2,
2,
5,
5,
6,
6,
0,
0,
3,
3,
6,
6,
5,
5,
1,
14,
14,
14,
18,
2,
5,
16,
15,
15,
22,
22,
14,
0,
2,
5,
5,
6,
6,
0,
0,
3,
3,
6,
6,
5,
5,
1,
14,
14,
14,
18,
2,
5,
