EMG_S1/DS0179.CSV

Memory Length,4000,
Trigger Level,0.00000e+00,
Source,CH1,
Probe,1.0X,
Vertical Units,V,
Vertical Scale,1.00000e+00,
Vertical Position,4.00000e-02,
Horizontal Units,S,
Horizontal Scale,1.00000e-01,
Horizontal Position,0.0000000e+00,
Horizontal Mode,Roll Mode,
Waveform Last Dot Address,4000,
Sampling Period,4.00000e-04,
Firmware,V1.14,
Time, ,
Mode,Fast,
Waveform Data,
0,
0,
-1,
-1,
12,
12,
12,
12,
13,
13,
11,
11,
10,
10,
14,
2,
8,
19,
18,
18,
11,
-1,
3,
21,
20,
34,
34,
34,
32,
32,
23,
11,
12,
12,
4,
4,
0,
0,
8,
8,
14,
14,
16,
16,
15,
15,
13,
13,
9,
9,
13,
13,
10,
10,
7,
20,
20,
20,
20,
5,
5,
5,
8,
8,
7,
7,
8,
8,
7,
7,
7,
7,
16,
16,
18,
18,
20,
20,
14,
0,
3,
3,
7,
7,
3,
3,
0,
0,
-1,
-1,
0,
0,
1,
1,
3,
3,
1,
1,
5,
5,
3,
3,
2,
2,
3,
3,
4,
16,
15,
15,
19,
19,
27,
27,
22,
1,
2,
15,
14,
14,
21,
21,
14,
2,
3,
3,
0,
0,
2,
2,
9,
9,
11,
11,
8,
8,
0,
0,
9,
9,
15,
15,
13,
0,
1,
1,
2,
2,
5,
5,
1,
1,
11,
11,
17,
17,
12,
12,
3,
3,
0,
0,
7,
7,
8,
8,
2,
2,
10,
10,
3,
3,
-1,
-1,
1,
1,
7,
7,
8,
8,
3,
3,
4,
4,
5,
5,
0,
0,
2,
2,
6,
6,
11,
11,
4,
4,
13,
13,
17,
17,
14,
14,
5,
5,
5,
19,
18,
32,
32,
32,
33,
9,
9,
9,
7,
18,
17,
17,
20,
20,
19,
19,
10,
-1,
0,
15,
15,
29,
28,
28,
29,
29,
31,
8,
9,
21,
21,
21,
31,
31,
29,
18,
19,
19,
13,
13,
8,
8,
8,
8,
7,
7,
1,
1,
0,
0,
3,
18,
18,
32,
32,
46,
45,
45,
41,
41,
33,
21,
22,
3,
4,
4,
11,
25,
25,
25,
27,
27,
24,
24,
25,
25,
28,
28,
23,
23,
16,
2,
2,
16,
16,
30,
30,
30,
24,
24,
15,
4,
5,
5,
3,
3,
7,
7,
0,
0,
-1,
-1,
1,
1,
6,
18,
17,
17,
22,
22,
12,
-1,
0,
0,
0,
0,
0,
0,
-1,
-1,
2,
2,
9,
9,
18,
18,
12,
12,
4,
4,
1,
1,
-1,
-1,
0,
0,
7,
7,
9,
9,
6,
6,
0,
0,
0,
0,
-1,
-1,
-1,
-1,
1,
1,
3,
3,
2,
2,
9,
9,
13,
13,
6,
6,
3,
3,
2,
2,
0,
0,
0,
0,
6,
6,
10,
10,
1,
1,
6,
6,
9,
9,
8,
8,
8,
8,
10,
10,
0,
0,
10,
10,
16,
0,
2,
2,
6,
6,
10,
10,
13,
13,
12,
0,
1,
1,
7,
7,
7,
7,
7,
7,
6,
6,
3,
3,
7,
7,
0,
0,
1,
1,
-1,
-1,
-1,
-1,
1,
1,
0,
0,
0,
0,
3,
3,
4,
4,
14,
14,
12,
0,
6,
6,
13,
13,
7,
7,
0,
0,
2,
2,
6,
6,
5,
5,
3,
3,
6,
6,
7,
7,
7,
7,
2,
2,
0,
0,
3,
3,
-1,
-1,
4,
4,
10,
10,
5,
17,
16,
16,
25,
25,
24,
24,
18,
2,
3,
18,
18,
35,
34,
34,
33,
14,
15,
15,
14,
14,
14,
1,
4,
4,
13,
13,
14,
14,
20,
20,
19,
19,
15,
3,
3,
21,
20,
35,
34,
17,
18,
18,
14,
14,
16,
0,
2,
14,
12,
12,
21,
21,
21,
21,
23,
23,
21,
10,
10,
10,
2,
23,
23,
23,
33,
33,
33,
18,
18,
0,
2,
2,
9,
9,
6,
6,
3,
3,
2,
2,
4,
4,
6,
6,
0,
0,
1,
1,
3,
3,
5,
5,
3,
3,
10,
10,
4,
4,
5,
5,
11,
11,
16,
16,
12,
12,
2,
2,
2,
2,
10,
10,
13,
13,
10,
10,
3,
3,
1,
1,
2,
2,
0,
0,
7,
7,
6,
6,
10,
10,
14,
14,
10,
10,
4,
4,
-1,
-1,
3,
3,
4,
4,
3,
3,
9,
9,
1,
1,
8,
8,
4,
4,
13,
13,
15,
15,
15,
2,
2,
2,
6,
6,
0,
0,
1,
1,
8,
8,
11,
11,
14,
14,
16,
16,
14,
14,
14,
14,
6,
6,
4,
4,
13,
13,
8,
8,
6,
6,
6,
6,
6,
6,
1,
17,
16,
16,
23,
9,
10,
10,
7,
7,
15,
15,
15,
15,
11,
11,
4,
4,
2,
2,
7,
7,
3,
3,
3,
3,
11,
11,
16,
32,
32,
32,
37,
21,
22,
5,
5,
5,
5,
5,
10,
10,
1,
1,
1,
17,
17,
17,
23,
23,
22,
22,
17,
5,
5,
5,
0,
0,
9,
22,
22,
22,
18,
18,
13,
13,
6,
6,
7,
7,
9,
9,
9,
9,
7,
7,
3,
3,
4,
23,
22,
22,
28,
28,
30,
13,
14,
2,
9,
24,
22,
22,
14,
14,
9,
9,
11,
11,
10,
10,
4,
4,
-1,
-1,
0,
0,
7,
7,
11,
11,
7,
7,
10,
10,
9,
9,
1,
1,
8,
8,
8,
8,
2,
2,
4,
18,
17,
17,
15,
3,
5,
5,
6,
6,
2,
2,
2,
2,
5,
5,
0,
11,
10,
10,
16,
16,
26,
26,
22,
2,
2,
14,
14,
14,
23,
23,
23,
23,
20,
8,
9,
9,
8,
8,
18,
18,
18,
18,
14,
14,
7,
7,
1,
1,
5,
5,
10,
10,
17,
17,
14,
1,
1,
1,
6,
6,
5,
5,
5,
5,
4,
4,
3,
3,
8,
21,
20,
31,
30,
19,
19,
1,
3,
3,
10,
10,
11,
11,
10,
10,
11,
11,
14,
14,
8,
8,
0,
0,
2,
2,
2,
2,
1,
1,
-1,
-1,
6,
6,
9,
9,
7,
7,
5,
5,
6,
6,
2,
2,
5,
5,
2,
2,
5,
5,
13,
13,
9,
9,
5,
5,
10,
10,
3,
3,
3,
3,
6,
6,
4,
4,
7,
7,
6,
6,
1,
1,
6,
6,
6,
6,
12,
12,
8,
8,
7,
18,
18,
18,
26,
26,
19,
1,
2,
2,
1,
14,
13,
27,
27,
27,
20,
20,
12,
-1,
0,
0,
18,
18,
18,
18,
8,
8,
9,
9,
2,
2,
7,
7,
4,
18,
18,
18,
20,
20,
12,
12,
6,
6,
3,
3,
-1,
-1,
3,
17,
17,
17,
12,
12,
6,
17,
16,
16,
6,
6,
0,
0,
6,
6,
8,
8,
15,
15,
15,
1,
3,
3,
10,
10,
17,
17,
22,
22,
22,
22,
19,
19,
18,
18,
8,
8,
13,
31,
31,
31,
34,
34,
26,
15,
16,
16,
9,
9,
1,
1,
2,
2,
4,
4,
7,
7,
10,
10,
10,
10,
12,
12,
13,
13,
13,
13,
12,
12,
15,
15,
11,
11,
5,
5,
3,
3,
7,
7,
7,
7,
11,
11,
13,
13,
5,
5,
0,
0,
7,
7,
14,
14,
13,
0,
0,
0,
8,
8,
10,
10,
7,
7,
6,
6,
6,
6,
3,
3,
9,
9,
7,
7,
6,
6,
2,
15,
14,
29,
28,
8,
8,
8,
12,
12,
16,
16,
9,
9,
4,
4,
5,
5,
5,
5,
1,
1,
4,
4,
11,
11,
14,
14,
7,
7,
1,
1,
7,
7,
8,
8,
2,
2,
1,
1,
6,
6,
12,
12,
8,
8,
6,
6,
8,
8,
3,
3,
8,
8,
4,
4,
0,
11,
11,
11,
9,
9,
1,
15,
14,
32,
31,
31,
22,
1,
2,
2,
11,
11,
6,
6,
2,
2,
6,
6,
8,
8,
16,
16,
14,
2,
13,
26,
26,
26,
22,
22,
16,
1,
1,
15,
15,
15,
13,
0,
0,
0,
0,
0,
8,
8,
13,
13,
8,
8,
4,
4,
2,
2,
0,
0,
6,
6,
6,
6,
2,
2,
1,
1,
2,
22,
22,
22,
31,
31,
33,
33,
32,
18,
19,
2,
5,
16,
15,
26,
26,
26,
27,
27,
26,
26,
17,
1,
2,
2,
3,
3,
1,
12,
11,
11,
20,
20,
11,
0,
2,
2,
0,
0,
5,
5,
12,
12,
10,
10,
0,
0,
7,
7,
15,
15,
16,
16,
8,
8,
5,
5,
10,
10,
11,
11,
2,
2,
9,
9,
14,
14,
8,
8,
2,
2,
0,
0,
-1,
-1,
3,
3,
1,
1,
9,
9,
11,
0,
1,
15,
15,
15,
22,
22,
20,
7,
7,
7,
4,
22,
21,
21,
20,
5,
5,
5,
0,
0,
2,
2,
6,
6,
3,
3,
7,
7,
6,
6,
4,
16,
15,
15,
16,
16,
8,
8,
8,
8,
3,
3,
-1,
-1,
0,
0,
-1,
-1,
2,
2,
4,
4,
2,
2,
0,
0,
0,
0,
2,
2,
11,
11,
15,
15,
19,
19,
15,
0,
3,
14,
13,
13,
15,
15,
15,
15,
8,
8,
3,
3,
4,
4,
0,
0,
3,
3,
1,
1,
2,
2,
4,
4,
5,
5,
0,
0,
-2,
-2,
2,
2,
7,
7,
11,
11,
12,
12,
5,
5,
0,
0,
6,
6,
6,
6,
0,
0,
7,
7,
9,
9,
1,
1,
8,
8,
14,
14,
7,
7,
0,
0,
3,
3,
10,
10,
15,
15,
14,
14,
6,
6,
1,
1,
0,
0,
3,
3,
6,
6,
10,
10,
15,
15,
11,
11,
4,
4,
1,
1,
0,
0,
3,
3,
4,
4,
3,
3,
5,
29,
29,
29,
32,
32,
32,
18,
18,
2,
5,
5,
9,
9,
9,
9,
11,
11,
3,
3,
1,
1,
6,
6,
10,
10,
12,
12,
12,
12,
14,
14,
8,
8,
6,
18,
18,
18,
26,
26,
23,
8,
9,
9,
4,
4,
9,
9,
10,
10,
12,
12,
14,
14,
8,
8,
0,
0,
2,
2,
2,
2,
11,
50,
49,
49,
54,
27,
28,
3,
4,
4,
5,
19,
18,
18,
25,
25,
22,
22,
18,
18,
13,
0,
0,
0,
4,
4,
4,
4,
6,
6,
5,
5,
0,
0,
2,
2,
1,
1,
8,
8,
9,
9,
9,
9,
9,
9,
4,
4,
6,
6,
10,
10,
5,
5,
-1,
-1,
1,
1,
0,
0,
1,
1,
5,
5,
7,
7,
4,
4,
7,
7,
2,
2,
5,
5,
3,
3,
2,
2,
4,
4,
6,
6,
6,
6,
6,
6,
6,
6,
5,
5,
3,
3,
0,
0,
3,
3,
4,
4,
7,
7,
13,
13,
14,
14,
8,
8,
5,
5,
5,
5,
-1,
-1,
4,
4,
13,
13,
15,
15,
10,
10,
4,
4,
6,
32,
31,
43,
42,
42,
34,
13,
13,
1,
8,
26,
26,
26,
26,
26,
20,
20,
11,
-1,
2,
2,
4,
4,
6,
6,
15,
15,
12,
12,
14,
2,
4,
23,
22,
22,
25,
25,
22,
22,
19,
6,
6,
6,
1,
1,
8,
8,
16,
16,
7,
7,
10,
21,
19,
19,
15,
4,
5,
5,
7,
7,
4,
4,
2,
2,
1,
1,
8,
8,
8,
8,
9,
9,
10,
10,
13,
13,
6,
6,
-1,
-1,
-1,
-1,
4,
4,
3,
19,
18,
32,
32,
49,
48,
62,
62,
48,
48,
15,
15,
26,
26,
40,
39,
39,
49,
49,
52,
36,
36,
19,
21,
7,
7,
7,
5,
5,
10,
10,
6,
6,
6,
6,
10,
10,
6,
6,
10,
10,
12,
12,
9,
9,
13,
13,
14,
14,
10,
10,
1,
1,
2,
2,
3,
3,
1,
1,
5,
5,
2,
2,
12,
12,
9,
9,
4,
4,
3,
3,
6,
6,
9,
9,
2,
2,
4,
4,
7,
7,
8,
8,
5,
5,
1,
1,
2,
2,
3,
3,
0,
0,
1,
18,
18,
31,
30,
18,
19,
4,
6,
6,
4,
4,
11,
11,
11,
11,
11,
11,
10,
10,
6,
6,
5,
5,
3,
3,
2,
2,
-1,
-1,
4,
4,
10,
10,
12,
12,
10,
10,
9,
9,
12,
12,
8,
8,
0,
0,
8,
8,
10,
10,
6,
6,
2,
2,
0,
0,
-1,
-1,
3,
3,
7,
7,
5,
5,
13,
34,
33,
33,
34,
13,
13,
-1,
0,
11,
10,
23,
22,
22,
21,
21,
18,
18,
14,
14,
13,
13,
12,
12,
3,
3,
5,
5,
2,
2,
11,
32,
32,
32,
37,
37,
35,
12,
14,
2,
12,
23,
22,
22,
22,
9,
9,
9,
-1,
-1,
8,
8,
16,
16,
15,
0,
1,
1,
4,
4,
7,
28,
28,
28,
33,
33,
31,
31,
22,
6,
22,
63,
63,
63,
66,
66,
65,
19,
7,
30,
29,
51,
51,
51,
47,
47,
42,
42,
35,
35,
27,
27,
22,
1,
2,
2,
5,
5,
7,
7,
15,
15,
16,
16,
20,
20,
19,
7,
8,
8,
6,
6,
6,
6,
2,
2,
0,
0,
0,
0,
2,
2,
1,
1,
0,
0,
0,
0,
5,
5,
5,
5,
3,
3,
0,
0,
0,
0,
1,
1,
2,
2,
3,
3,
-1,
-1,
3,
3,
3,
3,
3,
3,
3,
3,
4,
4,
1,
1,
8,
8,
7,
7,
0,
0,
1,
1,
1,
1,
1,
1,
2,
2,
6,
6,
2,
2,
10,
10,
18,
18,
20,
20,
11,
0,
2,
2,
9,
9,
10,
10,
6,
6,
7,
7,
6,
6,
0,
0,
2,
2,
5,
5,
10,
10,
4,
4,
3,
3,
9,
9,
10,
10,
0,
0,
6,
6,
10,
10,
8,
8,
6,
6,
4,
4,
2,
2,
1,
1,
3,
3,
2,
2,
7,
7,
12,
12,
7,
7,
2,
2,
-1,
-1,
3,
3,
5,
5,
1,
1,
7,
7,
11,
11,
12,
12,
3,
3,
6,
6,
14,
14,
14,
2,
4,
4,
3,
3,
8,
8,
14,
14,
17,
17,
16,
2,
3,
3,
0,
0,
0,
0,
0,
0,
6,
17,
16,
16,
14,
2,
3,
3,
0,
0,
0,
0,
2,
2,
3,
3,
4,
4,
8,
8,
12,
12,
9,
9,
2,
2,
11,
11,
18,
18,
28,
57,
56,
68,
66,
53,
53,
8,
9,
43,
43,
55,
54,
34,
34,
10,
10,
10,
2,
13,
12,
12,
8,
8,
6,
20,
19,
19,
22,
22,
16,
16,
9,
9,
11,
32,
31,
31,
37,
18,
19,
8,
8,
8,
7,
7,
2,
2,
-1,
-1,
-1,
-1,
3,
3,
3,
3,
1,
1,
0,
0,
2,
2,
6,
6,
8,
8,
5,
5,
2,
2,
0,
0,
-1,
-1,
0,
0,
0,
0,
2,
2,
4,
4,
1,
1,
-1,
-1,
-1,
-1,
0,
0,
1,
1,
-1,
-1,
6,
6,
9,
9,
4,
4,
2,
2,
0,
0,
2,
2,
0,
0,
-1,
-1,
1,
1,
0,
0,
1,
1,
1,
1,
-1,
-1,
0,
0,
0,
0,
1,
1,
0,
0,
3,
3,
2,
2,
1,
1,
1,
1,
1,
1,
1,
1,
2,
2,
0,
0,
3,
3,
2,
2,
-1,
-1,
2,
2,
2,
2,
-1,
-1,
2,
2,
6,
6,
15,
15,
10,
-1,
0,
0,
0,
0,
-1,
-1,
2,
2,
0,
0,
0,
0,
6,
20,
19,
19,
18,
6,
6,
6,
7,
7,
13,
25,
24,
24,
25,
13,
13,
2,
3,
3,
3,
3,
3,
3,
6,
6,
5,
5,
8,
8,
15,
15,
21,
21,
19,
19,
14,
14,
13,
2,
3,
19,
19,
39,
39,
39,
33,
16,
16,
16,
26,
26,
29,
12,
13,
0,
3,
3,
4,
4,
10,
21,
20,
20,
26,
26,
24,
24,
16,
16,
7,
7,
5,
5,
6,
6,
0,
0,
3,
3,
9,
9,
10,
10,
12,
12,
12,
12,
9,
9,
9,
9,
14,
14,
18,
18,
12,
12,
2,
2,
3,
3,
0,
0,
2,
2,
5,
5,
3,
3,
1,
1,
10,
10,
12,
12,
12,
12,
6,
6,
3,
3,
2,
2,
-1,
-1,
0,
0,
1,
1,
2,
2,
4,
4,
9,
9,
13,
13,
10,
10,
11,
11,
7,
7,
0,
0,
2,
2,
4,
4,
3,
3,
3,
3,
0,
0,
1,
1,
-1,
-1,
4,
4,
5,
5,
1,
1,
5,
5,
9,
9,
10,
10,
8,
8,
2,
2,
0,
0,
9,
9,
10,
10,
2,
2,
8,
8,
1,
1,
4,
4,
1,
1,
6,
6,
0,
0,
3,
3,
9,
9,
9,
9,
6,
6,
2,
2,
-2,
-2,
4,
4,
6,
6,
7,
7,
9,
9,
7,
7,
4,
4,
1,
1,
0,
0,
0,
0,
1,
1,
3,
3,
7,
22,
20,
31,
30,
30,
23,
12,
13,
1,
5,
16,
15,
15,
18,
18,
21,
21,
14,
1,
4,
21,
20,
36,
35,
35,
28,
9,
9,
9,
5,
5,
7,
32,
32,
32,
34,
19,
19,
5,
6,
6,
14,
14,
21,
21,
16,
16,
9,
9,
15,
33,
33,
33,
23,
23,
20,
20,
21,
21,
19,
19,
17,
17,
10,
-1,
1,
1,
4,
4,
6,
6,
5,
5,
7,
7,
5,
5,
-1,
-1,
1,
1,
0,
0,
4,
4,
0,
0,
0,
0,
8,
8,
7,
7,
2,
2,
0,
0,
-1,
-1,
2,
2,
5,
5,
11,
11,
18,
18,
13,
0,
3,
3,
6,
6,
1,
14,
13,
13,
15,
0,
2,
2,
7,
7,
14,
14,
18,
18,
16,
16,
10,
10,
6,
6,
1,
1,
6,
20,
19,
19,
27,
27,
25,
11,
11,
0,
1,
1,
1,
1,
0,
0,
1,
1,
0,
0,
2,
2,
11,
11,
15,
15,
12,
12,
5,
5,
0,
0,
0,
0,
1,
1,
4,
4,
9,
9,
12,
12,
8,
8,
2,
2,
-1,
-1,
1,
1,
1,
1,
-1,
-1,
0,
0,
3,
3,
2,
2,
2,
2,
2,
2,
2,
2,
7,
7,
5,
5,
3,
3,
0,
0,
3,
3,
0,
0,
1,
1,
1,
1,
7,
7,
1,
1,
3,
3,
4,
4,
-1,
-1,
3,
3,
2,
2,
10,
10,
8,
8,
0,
0,
6,
6,
7,
7,
3,
3,
0,
0,
5,
19,
18,
18,
17,
1,
3,
3,
12,
12,
15,
15,
16,
16,
11,
11,
2,
2,
0,
0,
5,
5,
8,
8,
11,
11,
13,
13,
11,
11,
5,
5,
4,
4,
4,
4,
2,
2,
-1,
-1,
0,
0,
3,
3,
0,
0,
0,
0,
-1,
-1,
-1,
-1,
-1,
-1,
-1,
-1,
0,
0,
3,
3,
9,
9,
13,
0,
2,
19,
18,
18,
18,
18,
12,
12,
4,
4,
11,
11,
14,
14,
13,
13,
14,
14,
5,
5,
14,
28,
28,
28,
31,
31,
27,
27,
19,
2,
2,
24,
24,
24,
33,
17,
17,
1,
3,
3,
7,
7,
7,
7,
0,
0,
7,
7,
3,
3,
7,
7,
7,
7,
13,
13,
6,
6,
3,
15,
14,
14,
20,
32,
32,
44,
43,
32,
32,
4,
4,
18,
17,
17,
27,
27,
30,
18,
20,
2,
5,
5,
11,
0,
3,
14,
12,
12,
7,
7,
0,
0,
-1,
-1,
0,
0,
3,
3,
4,
4,
4,
4,
6,
6,
5,
5,
5,
5,
2,
2,
3,
3,
2,
2,
-1,
-1,
-1,
-1,
-1,
-1,
0,
0,
1,
1,
-1,
-1,
-1,
-1,
-1,
-1,
0,
0,
0,
0,
1,
1,
2,
2,
0,
0,
7,
7,
9,
9,
5,
5,
4,
4,
10,
10,
14,
14,
9,
9,
0,
13,
12,
12,
14,
14,
11,
11,
7,
7,
3,
3,
0,
0,
8,
8,
12,
12,
14,
14,
6,
6,
3,
3,
4,
4,
4,
4,
4,
4,
1,
1,
6,
6,
11,
11,
6,
6,
7,
7,
8,
8,
8,
19,
19,
19,
15,
15,
12,
27,
27,
27,
29,
11,
11,
0,
4,
4,
14,
14,
15,
15,
15,
15,
14,
14,
16,
16,
20,
20,
14,
14,
7,
7,
2,
2,
1,
1,
2,
2,
9,
21,
20,
20,
26,
26,
24,
12,
12,
0,
6,
6,
15,
15,
14,
14,
7,
7,
5,
5,
6,
6,
6,
6,
2,
2,
7,
7,
12,
26,
26,
26,
27,
27,
26,
10,
10,
-1,
5,
22,
21,
21,
23,
5,
5,
5,
3,
3,
2,
2,
11,
11,
13,
0,
2,
2,
3,
3,
4,
4,
7,
7,
3,
3,
2,
2,
4,
4,
7,
7,
0,
0,
0,
0,
0,
0,
0,
0,
4,
4,
4,
4,
5,
5,
5,
26,
26,
26,
28,
14,
14,
0,
2,
2,
7,
7,
6,
6,
2,
2,
-1,
-1,
6,
6,
10,
10,
11,
11,
17,
17,
12,
12,
10,
24,
23,
23,
24,
24,
16,
16,
9,
9,
4,
4,
-1,
-1,
1,
1,
6,
6,
14,
14,
10,
10,
10,
10,
1,
1,
2,
2,
2,
2,
0,
0,
3,
3,
5,
5,
6,
6,
-1,
-1,
8,
8,
13,
32,
31,
43,
42,
42,
34,
11,
11,
11,
17,
39,
39,
27,
27,
10,
10,
10,
7,
7,
7,
7,
9,
9,
10,
10,
10,
10,
1,
1,
0,
0,
7,
7,
11,
11,
11,
11,
6,
6,
6,
6,
11,
11,
16,
4,
5,
5,
6,
6,
3,
3,
2,
2,
0,
0,
7,
7,
14,
14,
8,
8,
12,
12,
11,
-1,
0,
0,
2,
2,
4,
15,
15,
15,
21,
21,
18,
5,
5,
5,
6,
6,
7,
7,
2,
2,
5,
5,
9,
9,
6,
6,
16,
16,
24,
10,
11,
-1,
2,
2,
2,
2,
12,
12,
16,
16,
14,
14,
7,
7,
4,
16,
15,
15,
16,
16,
10,
10,
7,
7,
3,
14,
13,
13,
11,
11,
10,
10,
2,
2,
6,
6,
0,
0,
2,
2,
2,
2,
0,
0,
4,
4,
4,
4,
0,
0,
3,
3,
0,
0,
6,
6,
2,
2,
2,
2,
7,
7,
13,
13,
12,
12,
6,
6,
3,
3,
7,
7,
11,
11,
16,
29,
29,
41,
41,
41,
42,
17,
17,
5,
18,
35,
34,
34,
42,
42,
39,
28,
29,
29,
19,
5,
6,
6,
12,
12,
19,
19,
12,
12,
7,
7,
1,
1,
5,
5,
10,
10,
6,
6,
2,
2,
7,
7,
13,
13,
12,
12,
8,
8,
0,
0,
5,
5,
7,
7,
6,
6,
8,
8,
9,
9,
5,
5,
0,
0,
8,
8,
11,
11,
16,
16,
22,
22,
19,
19,
11,
0,
1,
15,
14,
14,
23,
23,
23,
12,
12,
12,
4,
4,
0,
0,
8,
8,
6,
6,
4,
4,
3,
3,
2,
2,
-1,
-1,
2,
2,
0,
0,
2,
2,
2,
2,
5,
5,
6,
6,
0,
0,
5,
5,
6,
6,
4,
18,
18,
18,
19,
19,
15,
15,
11,
0,
2,
2,
2,
2,
5,
5,
6,
6,
4,
4,
6,
6,
9,
9,
15,
15,
18,
18,
11,
11,
3,
3,
0,
0,
6,
6,
3,
3,
1,
1,
9,
9,
7,
7,
6,
6,
10,
10,
8,
33,
33,
63,
62,
62,
54,
28,
28,
16,
19,
19,
16,
2,
2,
23,
23,
38,
38,
38,
36,
36,
29,
15,
15,
1,
3,
3,
1,
1,
7,
7,
0,
12,
11,
11,
14,
14,
8,
8,
0,
0,
5,
5,
0,
0,
0,
0,
6,
6,
4,
4,
-1,
-1,
0,
0,
0,
11,
10,
10,
18,
18,
14,
14,
6,
6,
0,
0,
2,
2,
0,
0,
2,
2,
6,
6,
7,
7,
4,
4,
10,
10,
7,
7,
9,
9,
8,
8,
1,
1,
1,
1,
1,
1,
0,
0,
7,
7,
11,
11,
5,
5,
0,
0,
4,
4,
3,
3,
11,
0,
3,
18,
18,
18,
24,
13,
13,
0,
0,
0,
5,
5,
10,
10,
10,
10,
9,
9,
3,
3,
2,
2,
0,
0,
1,
1,
2,
2,
0,
0,
4,
4,
8,
8,
4,
4,
1,
1,
2,
2,
8,
8,
11,
11,
14,
14,
24,
24,
26,
13,
14,
1,
7,
22,
20,
20,
24,
24,
26,
26,
27,
27,
23,
12,
13,
13,
8,
8,
7,
25,
24,
24,
28,
28,
23,
8,
10,
10,
11,
11,
16,
16,
7,
7,
2,
2,
2,
2,
-2,
-2,
3,
3,
8,
8,
10,
10,
6,
6,
4,
4,
3,
3,
7,
7,
14,
3,
4,
4,
7,
7,
9,
9,
16,
30,
30,
30,
32,
32,
25,
11,
11,
0,
2,
2,
7,
7,
10,
10,
3,
20,
19,
33,
32,
32,
37,
37,
35,
35,
29,
9,
10,
10,
9,
9,
10,
10,
11,
11,
15,
15,
14,
14,
20,
20,
19,
19,
13,
13,
6,
6,
9,
9,
13,
13,
6,
6,
6,
6,
11,
11,
10,
10,
3,
3,
0,
0,
4,
4,
2,
2,
4,
4,
6,
6,
7,
7,
5,
5,
3,
3,
-1,
-1,
0,
0,
0,
13,
12,
27,
26,
26,
32,
20,
20,
0,
1,
1,
0,
0,
4,
4,
8,
8,
11,
25,
25,
25,
21,
21,
16,
16,
7,
7,
