EMG_S1/DS0161.CSV

Memory Length,4000,
Trigger Level,0.00000e+00,
Source,CH1,
Probe,1.0X,
Vertical Units,V,
Vertical Scale,1.00000e+00,
Vertical Position,4.00000e-02,
Horizontal Units,S,
Horizontal Scale,1.00000e-01,
Horizontal Position,0.0000000e+00,
Horizontal Mode,Roll Mode,
Waveform Last Dot Address,4000,
Sampling Period,4.00000e-04,
Firmware,V1.14,
Time, ,
Mode,Fast,
Waveform Data,
12,
12,
8,
8,
5,
5,
7,
7,
9,
9,
2,
2,
0,
0,
2,
2,
3,
3,
1,
1,
4,
4,
5,
5,
1,
1,
4,
4,
1,
12,
12,
12,
5,
5,
0,
20,
18,
18,
24,
13,
14,
0,
1,
1,
1,
1,
0,
13,
12,
12,
19,
19,
19,
19,
16,
16,
16,
0,
1,
1,
5,
5,
4,
16,
15,
15,
12,
12,
7,
7,
0,
0,
3,
3,
-1,
-1,
8,
8,
18,
18,
18,
4,
4,
4,
2,
2,
1,
1,
0,
0,
1,
1,
2,
2,
1,
1,
4,
4,
6,
6,
3,
3,
2,
2,
1,
1,
1,
1,
0,
0,
-1,
-1,
0,
0,
3,
3,
8,
8,
11,
11,
8,
8,
5,
5,
2,
2,
-1,
-1,
-1,
-1,
0,
0,
-1,
-1,
0,
0,
1,
1,
3,
3,
5,
5,
5,
5,
0,
0,
2,
2,
-1,
10,
9,
9,
18,
18,
16,
16,
10,
10,
13,
13,
5,
5,
5,
5,
4,
4,
5,
5,
14,
14,
18,
6,
6,
6,
3,
3,
6,
6,
4,
4,
0,
0,
0,
0,
-1,
-1,
0,
0,
4,
4,
5,
5,
8,
8,
6,
6,
2,
2,
8,
8,
1,
1,
6,
6,
9,
9,
10,
10,
4,
4,
3,
3,
7,
7,
4,
4,
12,
0,
1,
1,
0,
0,
5,
5,
1,
12,
12,
12,
12,
12,
9,
9,
7,
7,
3,
3,
0,
0,
8,
8,
15,
26,
25,
25,
18,
6,
6,
6,
4,
4,
7,
7,
4,
4,
1,
1,
3,
3,
1,
1,
1,
1,
0,
0,
1,
1,
2,
2,
6,
6,
4,
4,
9,
9,
10,
10,
8,
8,
5,
5,
4,
4,
0,
0,
3,
3,
6,
6,
2,
2,
0,
0,
2,
2,
8,
8,
0,
0,
1,
1,
-1,
-1,
0,
0,
0,
0,
2,
2,
2,
2,
0,
0,
2,
2,
-1,
-1,
2,
2,
2,
2,
5,
5,
14,
14,
15,
15,
9,
9,
3,
3,
0,
0,
8,
8,
10,
10,
8,
8,
0,
0,
6,
6,
9,
9,
5,
5,
3,
3,
1,
1,
6,
6,
16,
16,
18,
7,
7,
7,
0,
0,
0,
0,
1,
1,
-1,
-1,
-1,
-1,
0,
0,
-1,
-1,
2,
2,
0,
0,
2,
2,
-1,
-1,
3,
3,
9,
9,
2,
2,
3,
3,
12,
12,
20,
20,
23,
8,
8,
8,
10,
10,
16,
16,
10,
10,
12,
12,
17,
17,
11,
-1,
1,
1,
4,
4,
11,
11,
3,
3,
1,
1,
8,
8,
1,
19,
19,
19,
23,
23,
15,
15,
9,
9,
5,
5,
0,
14,
13,
13,
20,
8,
8,
8,
9,
9,
19,
19,
14,
3,
3,
3,
0,
0,
6,
6,
12,
12,
12,
12,
7,
7,
1,
1,
1,
1,
1,
1,
2,
2,
6,
6,
7,
7,
5,
5,
6,
6,
2,
2,
1,
1,
2,
2,
7,
7,
0,
0,
6,
6,
10,
10,
6,
6,
9,
9,
12,
12,
4,
4,
4,
4,
3,
3,
8,
8,
13,
13,
12,
12,
6,
6,
1,
1,
0,
0,
5,
5,
4,
4,
1,
1,
4,
4,
11,
11,
10,
10,
6,
6,
8,
8,
11,
11,
7,
7,
2,
2,
-1,
-1,
0,
0,
0,
0,
4,
4,
5,
5,
0,
0,
2,
2,
0,
12,
11,
11,
7,
7,
0,
0,
0,
0,
0,
0,
5,
5,
13,
13,
14,
1,
2,
20,
20,
20,
24,
24,
17,
0,
2,
2,
8,
8,
14,
14,
12,
1,
2,
2,
2,
2,
9,
9,
6,
6,
4,
4,
2,
2,
7,
7,
9,
9,
6,
6,
3,
3,
2,
14,
13,
25,
24,
24,
15,
2,
11,
26,
25,
25,
26,
14,
14,
0,
0,
0,
6,
6,
7,
7,
3,
3,
2,
2,
8,
8,
8,
8,
1,
1,
-1,
-1,
0,
0,
8,
21,
20,
20,
19,
3,
4,
4,
0,
14,
14,
26,
26,
26,
24,
7,
9,
9,
3,
3,
3,
3,
0,
0,
1,
1,
6,
6,
9,
9,
5,
5,
6,
6,
5,
5,
-1,
-1,
8,
8,
14,
14,
8,
8,
0,
0,
2,
2,
2,
2,
1,
1,
10,
10,
11,
11,
7,
7,
2,
2,
0,
0,
5,
5,
2,
2,
4,
4,
6,
6,
5,
5,
6,
6,
5,
5,
1,
1,
0,
0,
6,
6,
4,
4,
1,
1,
8,
8,
18,
18,
15,
15,
5,
5,
4,
4,
1,
12,
11,
0,
3,
3,
5,
5,
0,
0,
4,
4,
9,
9,
6,
6,
2,
2,
6,
6,
0,
0,
3,
3,
0,
13,
12,
12,
8,
8,
13,
13,
15,
1,
3,
3,
8,
8,
5,
5,
10,
10,
18,
18,
20,
20,
15,
0,
2,
2,
0,
0,
1,
1,
3,
3,
7,
7,
6,
6,
2,
2,
4,
4,
5,
5,
4,
4,
0,
0,
0,
0,
2,
2,
4,
4,
8,
8,
12,
12,
8,
8,
4,
4,
0,
0,
0,
0,
3,
3,
2,
2,
0,
0,
-1,
-1,
2,
2,
0,
0,
7,
7,
9,
9,
2,
17,
16,
16,
20,
20,
20,
20,
16,
2,
2,
2,
11,
11,
13,
13,
14,
14,
12,
12,
2,
2,
0,
0,
6,
6,
9,
9,
3,
3,
9,
9,
2,
2,
0,
0,
5,
5,
13,
13,
13,
13,
6,
6,
5,
19,
19,
31,
30,
30,
23,
8,
8,
8,
5,
5,
14,
14,
11,
11,
2,
2,
2,
2,
0,
0,
7,
7,
0,
0,
-1,
-1,
0,
0,
0,
0,
-1,
-1,
1,
1,
-1,
-1,
3,
3,
9,
9,
11,
11,
8,
8,
-1,
-1,
-1,
-1,
2,
2,
6,
6,
0,
0,
6,
6,
2,
2,
2,
2,
4,
4,
2,
2,
2,
2,
8,
8,
8,
8,
2,
2,
2,
2,
5,
5,
12,
1,
3,
3,
5,
5,
7,
7,
8,
8,
6,
6,
5,
5,
-1,
-1,
1,
1,
2,
2,
4,
4,
6,
21,
21,
21,
16,
2,
3,
3,
6,
6,
11,
0,
0,
0,
8,
8,
8,
8,
11,
11,
14,
3,
5,
5,
3,
3,
2,
2,
6,
6,
2,
2,
0,
0,
-1,
-1,
4,
4,
2,
2,
6,
6,
1,
1,
0,
0,
2,
2,
10,
25,
24,
10,
10,
10,
2,
2,
0,
0,
2,
2,
2,
2,
0,
0,
5,
5,
6,
6,
11,
11,
14,
14,
8,
8,
5,
5,
2,
2,
3,
3,
8,
8,
3,
3,
0,
0,
1,
1,
5,
5,
5,
5,
2,
25,
25,
47,
46,
46,
46,
20,
20,
4,
11,
11,
17,
17,
16,
16,
14,
14,
12,
12,
11,
11,
14,
14,
15,
15,
9,
9,
6,
6,
0,
0,
9,
9,
16,
16,
12,
12,
9,
9,
6,
6,
2,
2,
4,
4,
4,
4,
4,
4,
0,
0,
5,
5,
0,
11,
10,
10,
16,
16,
14,
14,
8,
8,
5,
20,
19,
19,
20,
5,
6,
6,
3,
3,
6,
6,
0,
0,
2,
2,
1,
1,
1,
1,
1,
1,
5,
5,
11,
22,
21,
21,
21,
21,
23,
23,
15,
0,
1,
1,
7,
7,
9,
9,
11,
11,
4,
4,
0,
0,
3,
3,
10,
10,
7,
7,
3,
3,
2,
2,
0,
0,
6,
6,
7,
7,
3,
3,
6,
6,
10,
10,
2,
2,
0,
0,
6,
6,
10,
10,
1,
1,
1,
1,
0,
0,
0,
0,
0,
0,
2,
2,
3,
3,
0,
0,
3,
3,
2,
2,
9,
9,
4,
4,
1,
1,
5,
5,
10,
10,
16,
16,
19,
19,
10,
10,
5,
5,
11,
11,
12,
12,
14,
0,
1,
1,
3,
3,
7,
7,
8,
8,
6,
6,
0,
0,
-1,
-1,
7,
7,
11,
11,
4,
4,
0,
0,
1,
1,
0,
0,
2,
2,
1,
1,
6,
6,
8,
8,
3,
3,
6,
6,
12,
12,
19,
19,
21,
1,
2,
2,
6,
6,
7,
7,
12,
12,
11,
11,
10,
10,
3,
3,
12,
12,
11,
11,
7,
7,
6,
6,
0,
0,
4,
4,
9,
9,
12,
12,
4,
4,
0,
0,
6,
6,
13,
13,
12,
0,
2,
2,
2,
2,
0,
0,
4,
4,
2,
2,
4,
4,
3,
3,
0,
0,
3,
3,
5,
5,
5,
5,
6,
6,
1,
1,
0,
0,
2,
2,
3,
3,
11,
11,
6,
6,
0,
16,
16,
27,
26,
11,
12,
0,
7,
7,
16,
16,
15,
15,
18,
18,
14,
2,
2,
2,
0,
0,
7,
18,
16,
16,
10,
10,
5,
5,
7,
7,
0,
0,
9,
9,
9,
9,
6,
6,
2,
2,
5,
5,
0,
0,
2,
2,
3,
3,
8,
8,
0,
0,
-1,
-1,
-1,
-1,
2,
2,
4,
4,
10,
10,
4,
4,
1,
1,
4,
4,
3,
3,
-1,
-1,
0,
0,
0,
0,
-1,
-1,
4,
4,
2,
14,
13,
13,
14,
-1,
1,
1,
1,
1,
0,
0,
8,
8,
16,
16,
9,
9,
10,
10,
10,
10,
3,
3,
12,
12,
14,
14,
9,
9,
2,
16,
16,
16,
16,
16,
7,
7,
3,
3,
9,
9,
10,
10,
10,
10,
13,
13,
9,
9,
2,
17,
16,
16,
18,
18,
13,
13,
8,
8,
0,
0,
0,
0,
-1,
-1,
0,
0,
0,
0,
3,
3,
0,
0,
0,
0,
2,
2,
1,
1,
2,
2,
0,
0,
2,
2,
6,
6,
6,
6,
6,
6,
0,
0,
2,
2,
2,
2,
6,
6,
6,
6,
0,
0,
0,
0,
0,
0,
5,
16,
15,
15,
10,
10,
1,
1,
2,
2,
7,
7,
4,
4,
0,
0,
2,
2,
3,
3,
2,
2,
7,
7,
11,
11,
7,
7,
-1,
-1,
1,
1,
0,
0,
1,
1,
2,
2,
1,
1,
1,
1,
0,
0,
0,
0,
1,
1,
0,
0,
2,
2,
2,
2,
1,
1,
6,
6,
4,
4,
0,
0,
-1,
-1,
0,
0,
3,
3,
-1,
-1,
4,
4,
11,
11,
10,
10,
1,
1,
2,
2,
7,
7,
6,
6,
2,
2,
4,
4,
12,
12,
14,
14,
12,
12,
6,
6,
0,
0,
-1,
-1,
1,
1,
-1,
-1,
3,
3,
12,
12,
11,
0,
1,
1,
4,
4,
3,
18,
18,
30,
29,
13,
14,
14,
5,
5,
0,
0,
7,
7,
10,
10,
11,
11,
12,
12,
8,
8,
7,
7,
7,
7,
2,
2,
0,
0,
8,
8,
14,
14,
6,
6,
0,
0,
0,
0,
2,
2,
10,
31,
31,
31,
34,
12,
12,
12,
15,
15,
22,
22,
19,
19,
19,
19,
13,
0,
2,
2,
4,
4,
0,
0,
6,
6,
2,
2,
7,
7,
3,
3,
4,
4,
0,
0,
2,
2,
0,
0,
1,
1,
3,
3,
5,
5,
8,
8,
6,
6,
2,
2,
2,
2,
3,
3,
7,
7,
0,
0,
3,
3,
-1,
-1,
2,
2,
0,
0,
3,
3,
2,
2,
0,
0,
1,
1,
2,
2,
3,
3,
2,
2,
4,
4,
5,
5,
5,
5,
1,
1,
1,
1,
5,
5,
4,
4,
6,
6,
10,
-1,
0,
0,
7,
7,
5,
5,
1,
1,
6,
6,
3,
3,
-1,
-1,
2,
2,
1,
1,
0,
0,
0,
0,
0,
0,
0,
0,
6,
6,
11,
11,
14,
2,
2,
26,
26,
42,
42,
42,
33,
16,
17,
0,
1,
1,
3,
3,
12,
25,
24,
24,
21,
21,
11,
11,
8,
8,
3,
3,
-1,
-1,
1,
1,
4,
4,
4,
4,
5,
5,
6,
6,
4,
4,
7,
7,
12,
12,
7,
7,
4,
4,
2,
2,
2,
2,
10,
10,
6,
6,
7,
7,
7,
7,
2,
2,
7,
7,
5,
5,
5,
5,
4,
4,
2,
2,
6,
6,
7,
7,
10,
10,
8,
8,
2,
2,
3,
3,
2,
2,
6,
6,
3,
3,
3,
3,
1,
1,
5,
5,
7,
7,
5,
5,
2,
2,
0,
0,
0,
0,
-1,
-1,
2,
2,
4,
4,
4,
4,
2,
2,
0,
0,
1,
1,
4,
4,
8,
8,
8,
8,
2,
2,
1,
1,
3,
3,
3,
3,
1,
1,
0,
0,
6,
6,
7,
7,
4,
4,
5,
5,
0,
0,
0,
0,
2,
2,
5,
5,
2,
2,
1,
1,
5,
5,
6,
6,
4,
4,
6,
6,
9,
9,
6,
6,
0,
0,
6,
6,
6,
6,
3,
3,
0,
0,
7,
7,
6,
6,
2,
2,
6,
6,
9,
9,
2,
19,
18,
18,
25,
3,
3,
3,
13,
13,
14,
14,
10,
10,
5,
5,
2,
2,
0,
0,
1,
1,
2,
2,
2,
2,
6,
6,
10,
10,
7,
7,
6,
6,
5,
5,
10,
10,
6,
6,
5,
5,
11,
11,
12,
12,
10,
10,
2,
25,
25,
40,
39,
24,
26,
3,
4,
18,
17,
17,
22,
22,
26,
8,
9,
9,
0,
0,
-1,
-1,
1,
1,
2,
2,
4,
4,
6,
6,
1,
1,
1,
1,
8,
8,
7,
7,
6,
6,
8,
8,
7,
7,
5,
5,
0,
0,
1,
1,
1,
1,
2,
2,
8,
8,
4,
20,
19,
19,
14,
3,
4,
4,
4,
4,
7,
7,
7,
7,
6,
6,
8,
8,
10,
10,
10,
10,
5,
5,
1,
1,
4,
4,
10,
10,
14,
14,
13,
13,
6,
6,
3,
3,
6,
6,
4,
4,
2,
2,
0,
0,
0,
0,
3,
3,
7,
7,
4,
4,
3,
3,
0,
0,
7,
7,
6,
6,
0,
0,
6,
6,
2,
2,
2,
2,
7,
7,
10,
10,
7,
7,
0,
0,
3,
3,
0,
0,
3,
3,
2,
2,
5,
5,
3,
3,
-1,
-1,
4,
4,
2,
2,
0,
0,
4,
4,
5,
5,
4,
4,
6,
6,
0,
0,
5,
5,
1,
1,
5,
5,
3,
3,
2,
2,
2,
2,
2,
2,
4,
4,
12,
12,
11,
11,
6,
6,
0,
0,
2,
2,
0,
0,
2,
2,
0,
0,
2,
2,
2,
2,
2,
2,
5,
5,
5,
5,
2,
2,
5,
5,
4,
4,
2,
2,
1,
1,
0,
0,
2,
2,
0,
0,
-1,
-1,
6,
6,
8,
8,
8,
8,
5,
5,
0,
0,
3,
3,
8,
8,
4,
4,
3,
3,
1,
1,
0,
0,
2,
2,
0,
0,
8,
8,
7,
7,
3,
3,
0,
0,
4,
4,
10,
10,
10,
10,
10,
10,
10,
10,
4,
4,
3,
3,
2,
2,
2,
2,
1,
1,
0,
0,
10,
10,
7,
7,
4,
4,
8,
8,
11,
11,
7,
7,
3,
3,
5,
5,
5,
5,
0,
0,
2,
2,
3,
3,
5,
5,
8,
8,
8,
8,
5,
5,
-1,
-1,
5,
5,
4,
4,
2,
2,
5,
5,
5,
5,
2,
2,
0,
0,
1,
1,
1,
1,
2,
2,
0,
0,
2,
2,
5,
5,
2,
2,
2,
2,
4,
4,
0,
0,
0,
0,
3,
3,
1,
1,
3,
3,
3,
3,
5,
5,
1,
1,
2,
2,
0,
0,
6,
6,
5,
5,
-1,
-1,
0,
0,
0,
0,
0,
0,
2,
2,
6,
6,
1,
1,
-1,
-1,
7,
7,
16,
5,
6,
6,
-1,
-1,
0,
0,
3,
3,
3,
3,
8,
8,
14,
14,
9,
9,
5,
5,
3,
3,
1,
1,
9,
25,
24,
24,
25,
12,
13,
13,
6,
6,
4,
4,
0,
0,
5,
5,
8,
8,
5,
5,
6,
6,
5,
5,
3,
3,
0,
0,
0,
0,
1,
1,
0,
0,
6,
6,
7,
7,
4,
4,
2,
2,
0,
0,
3,
3,
2,
2,
0,
0,
5,
5,
5,
5,
0,
0,
1,
1,
4,
4,
8,
8,
5,
5,
3,
3,
12,
12,
19,
19,
16,
16,
8,
8,
4,
4,
11,
11,
2,
2,
2,
2,
0,
0,
3,
3,
4,
4,
4,
4,
6,
6,
2,
2,
4,
4,
5,
5,
4,
4,
2,
2,
2,
2,
6,
6,
4,
4,
2,
2,
4,
4,
1,
1,
4,
22,
21,
21,
27,
15,
15,
0,
2,
2,
6,
6,
6,
6,
3,
3,
-1,
-1,
3,
3,
3,
3,
5,
5,
7,
7,
0,
0,
-1,
-1,
2,
2,
1,
1,
0,
0,
3,
3,
3,
3,
6,
6,
2,
2,
3,
3,
-1,
-1,
8,
19,
18,
18,
11,
-1,
0,
19,
18,
47,
47,
47,
39,
7,
7,
7,
6,
6,
7,
7,
11,
11,
17,
17,
18,
18,
12,
12,
8,
8,
2,
2,
0,
0,
9,
9,
14,
14,
6,
6,
1,
1,
6,
6,
1,
1,
8,
8,
7,
7,
8,
8,
7,
7,
3,
3,
1,
1,
0,
0,
0,
0,
-1,
-1,
-1,
-1,
3,
3,
-1,
-1,
3,
3,
7,
7,
2,
2,
1,
1,
-1,
-1,
0,
0,
1,
1,
4,
4,
3,
14,
14,
14,
15,
2,
3,
3,
9,
9,
14,
14,
13,
13,
12,
12,
9,
9,
0,
0,
9,
9,
15,
15,
13,
13,
9,
9,
5,
5,
2,
2,
6,
6,
19,
19,
18,
18,
11,
11,
3,
3,
2,
2,
8,
8,
9,
9,
10,
10,
8,
8,
7,
7,
1,
1,
5,
5,
8,
8,
1,
1,
-1,
-1,
-1,
-1,
-1,
15,
14,
14,
19,
8,
8,
8,
2,
2,
0,
0,
0,
0,
3,
3,
10,
10,
4,
4,
4,
4,
14,
14,
17,
0,
3,
3,
8,
8,
9,
9,
6,
6,
5,
5,
4,
4,
1,
1,
-1,
-1,
2,
2,
8,
8,
10,
10,
6,
6,
0,
0,
0,
0,
0,
0,
-1,
-1,
-2,
-2,
3,
3,
8,
8,
8,
8,
1,
1,
0,
0,
0,
0,
5,
5,
7,
7,
3,
3,
1,
1,
0,
0,
-1,
-1,
1,
1,
1,
1,
1,
1,
8,
8,
5,
5,
1,
1,
4,
4,
-1,
-1,
-1,
-1,
3,
3,
0,
0,
2,
2,
0,
0,
6,
6,
3,
3,
3,
3,
0,
0,
7,
7,
10,
10,
4,
4,
0,
0,
4,
4,
4,
4,
8,
8,
5,
5,
-1,
-1,
-1,
-1,
0,
0,
0,
0,
0,
0,
5,
5,
0,
0,
5,
18,
16,
16,
18,
6,
7,
7,
1,
1,
11,
11,
14,
14,
5,
5,
4,
4,
10,
10,
15,
15,
9,
9,
0,
0,
0,
0,
0,
0,
1,
1,
0,
0,
0,
0,
-1,
-1,
6,
6,
6,
6,
6,
6,
2,
2,
0,
0,
5,
5,
7,
7,
6,
6,
3,
3,
6,
6,
11,
11,
13,
13,
4,
4,
0,
13,
12,
12,
4,
4,
14,
14,
12,
12,
8,
8,
3,
3,
2,
2,
8,
8,
10,
10,
5,
5,
2,
2,
7,
7,
6,
6,
1,
1,
3,
3,
2,
20,
20,
20,
27,
27,
18,
7,
8,
8,
0,
0,
9,
9,
10,
10,
6,
6,
6,
6,
0,
0,
6,
6,
2,
2,
-2,
-2,
0,
0,
-1,
-1,
-1,
-1,
0,
0,
0,
0,
0,
0,
2,
2,
1,
1,
5,
5,
-1,
-1,
4,
4,
2,
2,
4,
4,
0,
0,
0,
0,
0,
0,
2,
2,
5,
5,
4,
4,
2,
2,
3,
3,
2,
2,
5,
5,
8,
8,
1,
1,
4,
4,
3,
3,
6,
6,
0,
0,
-1,
-1,
2,
2,
-1,
-1,
0,
0,
3,
3,
8,
8,
1,
1,
5,
20,
19,
19,
21,
1,
3,
3,
6,
6,
5,
5,
2,
2,
7,
7,
12,
12,
14,
2,
3,
3,
5,
5,
6,
6,
-1,
-1,
5,
5,
6,
6,
3,
3,
1,
1,
4,
4,
6,
6,
12,
12,
6,
6,
2,
2,
9,
9,
6,
6,
8,
8,
11,
11,
3,
3,
0,
0,
0,
0,
0,
0,
-1,
-1,
1,
1,
0,
0,
2,
2,
0,
0,
6,
6,
7,
7,
0,
0,
4,
4,
2,
2,
3,
3,
12,
12,
10,
10,
0,
0,
3,
3,
5,
5,
4,
4,
3,
3,
3,
3,
-1,
-1,
3,
3,
4,
4,
2,
2,
-1,
-1,
1,
1,
1,
1,
1,
1,
2,
2,
6,
6,
7,
7,
6,
6,
9,
9,
12,
12,
5,
5,
6,
6,
8,
8,
8,
8,
5,
5,
6,
6,
6,
6,
3,
3,
7,
7,
13,
13,
5,
5,
1,
1,
2,
2,
-1,
-1,
1,
1,
1,
1,
0,
0,
0,
0,
3,
3,
0,
0,
4,
4,
7,
7,
6,
6,
5,
5,
0,
0,
5,
5,
0,
0,
3,
3,
6,
6,
2,
2,
4,
4,
9,
25,
24,
24,
25,
10,
10,
10,
7,
7,
14,
14,
8,
8,
2,
2,
2,
2,
2,
2,
5,
5,
5,
5,
2,
2,
0,
0,
0,
0,
1,
1,
2,
2,
2,
2,
1,
1,
3,
3,
9,
9,
8,
8,
4,
4,
-1,
-1,
-1,
-1,
0,
0,
0,
0,
0,
0,
0,
0,
1,
1,
3,
3,
6,
6,
8,
8,
1,
1,
1,
1,
4,
4,
5,
5,
2,
2,
6,
6,
8,
8,
5,
5,
0,
0,
3,
3,
2,
2,
4,
4,
10,
10,
1,
14,
13,
13,
19,
19,
13,
2,
4,
4,
2,
2,
9,
9,
10,
10,
3,
3,
0,
0,
3,
3,
0,
0,
-1,
-1,
4,
4,
2,
2,
9,
9,
0,
0,
1,
1,
9,
25,
24,
24,
19,
8,
9,
9,
4,
4,
6,
6,
0,
0,
-1,
-1,
0,
0,
0,
11,
10,
10,
13,
13,
4,
4,
1,
1,
0,
0,
3,
3,
12,
12,
13,
13,
7,
7,
2,
2,
3,
3,
-1,
-1,
-1,
-1,
1,
1,
3,
3,
0,
0,
2,
2,
1,
1,
2,
2,
0,
0,
1,
1,
0,
0,
-1,
-1,
6,
6,
9,
9,
2,
2,
8,
8,
6,
6,
3,
3,
0,
0,
-1,
-1,
2,
2,
3,
3,
2,
2,
2,
2,
-1,
-1,
4,
4,
0,
0,
4,
4,
10,
10,
10,
10,
1,
1,
10,
10,
2,
2,
7,
7,
9,
9,
2,
2,
4,
4,
13,
13,
10,
10,
2,
2,
1,
1,
2,
2,
0,
0,
-1,
-1,
0,
0,
2,
2,
3,
3,
3,
3,
3,
3,
3,
3,
6,
6,
6,
6,
3,
3,
2,
2,
2,
2,
1,
1,
0,
0,
0,
0,
-1,
-1,
2,
2,
2,
2,
-1,
-1,
6,
6,
7,
7,
0,
0,
5,
5,
5,
5,
0,
0,
-1,
-1,
0,
0,
1,
1,
0,
0,
-1,
-1,
-1,
-1,
-1,
-1,
-1,
-1,
-1,
-1,
1,
1,
0,
0,
0,
15,
14,
14,
20,
20,
19,
5,
6,
6,
3,
3,
10,
10,
8,
8,
0,
0,
2,
2,
7,
7,
10,
10,
7,
7,
2,
2,
3,
3,
2,
2,
6,
6,
7,
7,
5,
5,
0,
0,
-1,
-1,
1,
1,
0,
0,
2,
2,
2,
2,
0,
0,
4,
4,
6,
23,
22,
22,
23,
8,
8,
8,
3,
14,
13,
13,
6,
6,
2,
2,
5,
5,
9,
9,
1,
1,
2,
2,
3,
3,
7,
7,
5,
5,
0,
0,
0,
0,
3,
3,
6,
6,
15,
15,
12,
0,
2,
2,
3,
3,
7,
7,
11,
11,
7,
7,
2,
2,
1,
1,
5,
5,
12,
12,
6,
6,
0,
0,
3,
3,
0,
0,
6,
6,
6,
6,
1,
1,
10,
10,
11,
-1,
0,
0,
9,
20,
20,
20,
17,
17,
8,
8,
0,
0,
4,
4,
0,
0,
2,
2,
1,
1,
5,
5,
11,
11,
6,
6,
2,
2,
2,
2,
6,
6,
9,
9,
7,
7,
0,
0,
4,
4,
2,
2,
4,
4,
3,
3,
11,
23,
22,
22,
14,
14,
8,
8,
2,
2,
2,
2,
8,
8,
13,
13,
11,
11,
8,
8,
4,
4,
0,
0,
2,
2,
4,
4,
7,
7,
5,
5,
1,
1,
0,
0,
2,
2,
3,
3,
3,
14,
14,
14,
22,
22,
16,
5,
6,
6,
1,
1,
7,
7,
8,
8,
8,
8,
7,
7,
5,
5,
2,
2,
0,
0,
4,
4,
3,
3,
6,
6,
10,
10,
7,
7,
1,
1,
4,
4,
7,
7,
13,
2,
2,
2,
7,
7,
10,
10,
6,
6,
14,
14,
19,
19,
9,
9,
10,
23,
22,
22,
13,
13,
9,
9,
2,
2,
8,
8,
8,
8,
13,
13,
15,
15,
11,
0,
2,
2,
6,
6,
9,
9,
8,
8,
0,
0,
2,
2,
3,
3,
0,
0,
0,
0,
3,
3,
1,
1,
