EMG_S1/DS0164.CSV

Memory Length,4000,
Trigger Level,0.00000e+00,
Source,CH1,
Probe,1.0X,
Vertical Units,V,
Vertical Scale,1.00000e+00,
Vertical Position,4.00000e-02,
Horizontal Units,S,
Horizontal Scale,1.00000e-01,
Horizontal Position,0.0000000e+00,
Horizontal Mode,Roll Mode,
Waveform Last Dot Address,4000,
Sampling Period,4.00000e-04,
Firmware,V1.14,
Time, ,
Mode,Fast,
Waveform Data,
26,
26,
20,
20,
10,
10,
3,
3,
-1,
-1,
2,
2,
11,
11,
18,
18,
16,
16,
16,
16,
14,
14,
11,
0,
2,
2,
5,
5,
4,
4,
0,
0,
8,
8,
17,
17,
19,
19,
16,
16,
17,
17,
15,
3,
12,
12,
15,
15,
9,
9,
7,
7,
12,
12,
14,
14,
17,
17,
17,
17,
16,
16,
15,
15,
7,
7,
3,
3,
7,
24,
24,
24,
27,
27,
22,
22,
14,
14,
5,
5,
6,
6,
5,
5,
-1,
-1,
-1,
-1,
2,
2,
4,
4,
1,
1,
1,
1,
0,
0,
3,
3,
0,
0,
4,
4,
3,
15,
14,
14,
17,
6,
7,
7,
4,
4,
9,
9,
11,
11,
16,
16,
12,
0,
2,
2,
0,
0,
0,
0,
8,
8,
16,
16,
16,
16,
11,
11,
4,
4,
-1,
-1,
3,
3,
8,
8,
9,
9,
1,
1,
9,
9,
14,
14,
8,
8,
0,
0,
2,
2,
8,
8,
12,
12,
11,
11,
7,
7,
0,
0,
5,
5,
9,
9,
10,
10,
6,
6,
2,
2,
-1,
-1,
0,
0,
3,
3,
8,
8,
8,
8,
7,
7,
1,
1,
1,
1,
4,
4,
1,
1,
-1,
-1,
2,
2,
11,
11,
13,
-1,
1,
1,
10,
10,
6,
6,
0,
11,
11,
11,
11,
0,
1,
1,
7,
7,
12,
12,
16,
16,
16,
0,
1,
1,
6,
6,
5,
5,
9,
9,
12,
12,
7,
7,
3,
3,
0,
0,
6,
6,
6,
6,
0,
0,
6,
21,
20,
20,
26,
9,
10,
-1,
3,
3,
10,
10,
7,
7,
0,
0,
1,
1,
1,
1,
3,
3,
11,
11,
12,
-1,
0,
0,
5,
5,
11,
11,
5,
5,
8,
20,
19,
19,
13,
2,
3,
3,
1,
1,
7,
7,
10,
10,
7,
7,
4,
4,
2,
2,
6,
6,
8,
8,
1,
1,
3,
3,
3,
3,
12,
23,
23,
34,
32,
20,
20,
1,
2,
2,
7,
7,
6,
6,
6,
6,
9,
9,
15,
15,
11,
11,
2,
2,
7,
7,
12,
12,
12,
12,
2,
2,
2,
14,
13,
13,
20,
20,
16,
16,
12,
12,
20,
31,
30,
30,
24,
7,
7,
7,
10,
23,
23,
23,
21,
21,
14,
14,
5,
5,
4,
4,
0,
0,
5,
5,
6,
6,
2,
2,
9,
9,
11,
11,
4,
4,
0,
0,
2,
2,
4,
4,
5,
5,
2,
2,
7,
7,
12,
12,
10,
10,
9,
9,
6,
6,
9,
9,
7,
7,
2,
2,
3,
3,
8,
8,
7,
7,
4,
4,
4,
4,
2,
2,
7,
7,
7,
7,
7,
7,
2,
14,
13,
13,
7,
7,
-1,
11,
10,
10,
10,
-1,
0,
0,
0,
0,
2,
2,
-1,
-1,
6,
6,
11,
11,
7,
7,
8,
8,
7,
7,
6,
6,
0,
0,
8,
8,
7,
7,
8,
8,
16,
16,
22,
8,
8,
8,
0,
0,
3,
3,
0,
0,
2,
2,
2,
2,
0,
0,
7,
7,
7,
7,
6,
6,
16,
16,
11,
11,
7,
7,
15,
15,
15,
15,
11,
11,
6,
20,
19,
19,
11,
0,
3,
3,
11,
11,
2,
2,
1,
1,
4,
4,
7,
7,
10,
10,
8,
8,
6,
6,
10,
10,
19,
19,
14,
2,
11,
25,
24,
24,
24,
11,
12,
12,
5,
5,
0,
0,
3,
3,
4,
4,
3,
21,
21,
21,
26,
11,
13,
-1,
0,
0,
2,
2,
3,
3,
0,
0,
-1,
-1,
8,
8,
8,
8,
1,
1,
5,
5,
2,
2,
0,
0,
1,
1,
-1,
-1,
0,
0,
0,
0,
1,
1,
2,
2,
3,
3,
4,
4,
4,
4,
0,
0,
9,
9,
11,
11,
16,
16,
3,
3,
0,
0,
4,
4,
2,
2,
0,
0,
5,
5,
9,
9,
11,
11,
6,
6,
1,
1,
0,
12,
12,
26,
25,
25,
20,
7,
8,
8,
0,
0,
4,
4,
7,
7,
10,
10,
10,
10,
5,
5,
5,
5,
4,
4,
4,
4,
2,
2,
-1,
-1,
2,
2,
2,
2,
0,
0,
3,
3,
11,
11,
5,
5,
8,
8,
6,
6,
9,
9,
11,
11,
8,
8,
9,
9,
1,
1,
5,
5,
11,
11,
18,
18,
17,
17,
7,
7,
6,
6,
6,
6,
7,
7,
1,
1,
7,
7,
4,
4,
3,
3,
11,
31,
31,
31,
35,
19,
20,
3,
10,
25,
25,
25,
29,
18,
19,
3,
3,
3,
-1,
-1,
-1,
-1,
-1,
-1,
1,
1,
4,
4,
2,
2,
0,
0,
0,
0,
4,
4,
10,
10,
12,
12,
6,
6,
0,
0,
2,
2,
7,
7,
6,
6,
1,
1,
1,
1,
2,
2,
3,
3,
6,
6,
2,
2,
0,
0,
9,
9,
12,
12,
6,
6,
4,
4,
8,
8,
15,
0,
1,
1,
7,
7,
3,
3,
4,
4,
5,
5,
1,
1,
8,
8,
8,
8,
0,
0,
6,
6,
3,
3,
0,
0,
-1,
-1,
0,
0,
6,
6,
8,
8,
3,
3,
10,
10,
14,
14,
10,
10,
7,
7,
11,
0,
1,
1,
3,
3,
2,
2,
10,
10,
15,
15,
10,
10,
3,
3,
9,
9,
2,
2,
0,
16,
15,
15,
6,
6,
0,
0,
1,
1,
8,
8,
16,
16,
11,
11,
7,
7,
0,
0,
7,
7,
5,
5,
2,
2,
4,
4,
6,
6,
2,
2,
6,
19,
18,
2,
3,
14,
13,
13,
4,
4,
7,
7,
7,
7,
0,
0,
2,
2,
5,
5,
0,
0,
2,
2,
8,
8,
2,
2,
2,
2,
0,
0,
0,
0,
3,
14,
14,
31,
30,
30,
37,
24,
24,
3,
9,
26,
24,
24,
27,
27,
23,
23,
21,
21,
12,
12,
6,
6,
0,
0,
2,
2,
4,
4,
9,
9,
8,
8,
10,
10,
12,
12,
6,
6,
2,
2,
2,
2,
0,
0,
0,
0,
2,
2,
2,
2,
3,
3,
7,
7,
5,
5,
0,
0,
0,
0,
3,
3,
-1,
-1,
-1,
-1,
2,
2,
0,
0,
0,
0,
0,
0,
2,
2,
2,
2,
9,
9,
8,
8,
3,
3,
4,
4,
5,
5,
9,
9,
4,
4,
8,
8,
5,
5,
1,
1,
0,
0,
8,
8,
3,
3,
-1,
-1,
0,
0,
6,
6,
12,
12,
4,
4,
4,
4,
10,
10,
11,
11,
8,
8,
5,
5,
5,
5,
9,
9,
7,
7,
1,
1,
4,
4,
8,
8,
3,
3,
6,
6,
10,
10,
14,
14,
16,
16,
20,
35,
34,
34,
38,
7,
7,
7,
17,
17,
22,
22,
21,
21,
25,
25,
28,
28,
22,
22,
15,
2,
3,
18,
17,
17,
20,
20,
19,
19,
18,
0,
0,
0,
0,
0,
1,
1,
1,
1,
-1,
-1,
0,
0,
-1,
-1,
4,
4,
5,
5,
2,
2,
-1,
-1,
3,
3,
4,
4,
5,
5,
7,
7,
10,
10,
11,
11,
10,
10,
7,
7,
-1,
-1,
3,
3,
-1,
-1,
3,
3,
3,
3,
1,
12,
11,
11,
11,
11,
5,
5,
3,
3,
7,
7,
2,
2,
4,
4,
6,
6,
3,
3,
4,
4,
13,
13,
7,
7,
0,
0,
0,
0,
5,
16,
16,
16,
10,
10,
6,
20,
19,
19,
18,
18,
14,
14,
14,
14,
16,
16,
14,
0,
2,
2,
10,
10,
15,
15,
17,
17,
10,
10,
6,
6,
1,
1,
8,
8,
1,
1,
6,
6,
3,
3,
7,
7,
8,
8,
11,
11,
3,
3,
7,
7,
11,
11,
10,
10,
7,
7,
2,
2,
-1,
-1,
1,
1,
7,
22,
21,
21,
27,
7,
7,
7,
0,
0,
0,
0,
3,
15,
15,
15,
13,
13,
5,
5,
11,
11,
6,
6,
11,
24,
23,
23,
29,
29,
19,
7,
7,
7,
-1,
-1,
0,
0,
2,
2,
5,
5,
2,
2,
7,
7,
16,
16,
19,
3,
4,
4,
2,
2,
0,
0,
0,
0,
-1,
-1,
1,
1,
4,
4,
10,
10,
10,
10,
18,
18,
12,
12,
6,
6,
6,
6,
5,
5,
6,
22,
21,
21,
14,
3,
4,
4,
3,
3,
0,
0,
1,
1,
8,
8,
16,
16,
7,
7,
5,
5,
10,
10,
11,
11,
2,
2,
1,
1,
2,
2,
4,
4,
1,
1,
1,
1,
1,
1,
4,
4,
7,
7,
7,
7,
1,
1,
-1,
-1,
-1,
-1,
-1,
-1,
-2,
-2,
0,
0,
0,
0,
0,
0,
7,
7,
5,
5,
5,
5,
6,
6,
5,
5,
15,
15,
21,
21,
12,
12,
4,
4,
5,
5,
10,
10,
8,
8,
7,
7,
15,
15,
17,
17,
9,
9,
1,
1,
2,
2,
8,
8,
7,
7,
1,
1,
0,
0,
1,
1,
-1,
-1,
1,
1,
5,
5,
13,
13,
20,
3,
3,
3,
3,
3,
5,
5,
8,
8,
7,
7,
6,
20,
18,
6,
7,
7,
3,
3,
-1,
-1,
5,
5,
0,
17,
17,
17,
17,
17,
14,
3,
4,
19,
19,
19,
27,
27,
18,
18,
16,
16,
8,
8,
1,
1,
1,
1,
-1,
-1,
3,
3,
-1,
-1,
-1,
27,
26,
60,
60,
38,
38,
11,
12,
0,
2,
19,
18,
30,
27,
9,
9,
9,
3,
3,
11,
11,
18,
18,
9,
9,
4,
4,
7,
7,
14,
14,
16,
16,
16,
16,
16,
16,
16,
16,
12,
0,
6,
21,
20,
20,
17,
17,
16,
16,
21,
21,
30,
30,
27,
16,
17,
6,
7,
7,
5,
16,
15,
15,
23,
23,
30,
30,
26,
26,
19,
5,
6,
6,
6,
6,
12,
12,
9,
9,
9,
9,
6,
6,
7,
7,
8,
8,
4,
4,
0,
0,
1,
1,
8,
20,
19,
19,
20,
3,
3,
3,
11,
11,
16,
16,
12,
12,
17,
4,
5,
18,
18,
18,
18,
6,
7,
7,
2,
2,
7,
7,
11,
11,
6,
6,
4,
4,
3,
3,
0,
0,
6,
6,
9,
9,
10,
10,
7,
7,
2,
2,
4,
4,
10,
10,
4,
4,
1,
1,
2,
2,
7,
7,
7,
7,
2,
2,
1,
1,
0,
19,
18,
29,
28,
13,
14,
2,
8,
23,
22,
22,
20,
20,
13,
0,
4,
4,
11,
11,
7,
7,
6,
6,
10,
10,
3,
3,
0,
0,
5,
5,
5,
5,
2,
2,
3,
3,
1,
1,
4,
4,
2,
2,
1,
1,
3,
3,
1,
1,
0,
0,
0,
0,
2,
2,
6,
6,
2,
2,
7,
18,
17,
17,
11,
-1,
0,
0,
0,
0,
3,
3,
2,
2,
1,
1,
10,
10,
10,
10,
7,
7,
6,
6,
4,
4,
1,
1,
1,
1,
5,
5,
7,
7,
7,
7,
2,
2,
4,
4,
2,
14,
14,
14,
15,
3,
3,
3,
3,
3,
5,
5,
5,
5,
2,
2,
6,
6,
3,
3,
0,
0,
8,
8,
8,
8,
8,
22,
21,
21,
26,
15,
15,
0,
0,
0,
7,
20,
18,
18,
17,
17,
8,
8,
5,
5,
10,
10,
6,
6,
1,
1,
-1,
-1,
4,
4,
2,
2,
6,
6,
10,
10,
6,
6,
15,
15,
17,
17,
15,
15,
14,
1,
2,
2,
2,
2,
6,
6,
6,
6,
3,
3,
10,
10,
19,
30,
29,
29,
24,
3,
8,
36,
36,
52,
52,
30,
31,
2,
3,
3,
6,
6,
0,
0,
0,
12,
11,
11,
15,
15,
8,
8,
3,
3,
5,
5,
11,
11,
11,
0,
0,
11,
10,
10,
14,
14,
14,
14,
11,
11,
8,
8,
3,
3,
6,
6,
13,
13,
15,
15,
14,
14,
14,
14,
15,
15,
13,
13,
3,
3,
7,
7,
15,
15,
16,
1,
3,
19,
19,
19,
11,
11,
7,
7,
12,
12,
10,
10,
1,
1,
6,
6,
12,
12,
17,
17,
18,
18,
10,
10,
0,
11,
10,
10,
14,
3,
4,
4,
2,
2,
7,
7,
4,
4,
7,
7,
1,
1,
8,
22,
21,
21,
22,
22,
12,
0,
4,
4,
12,
12,
6,
6,
3,
3,
12,
12,
13,
13,
9,
9,
10,
10,
8,
8,
3,
16,
15,
15,
15,
4,
4,
4,
5,
5,
11,
11,
8,
8,
3,
3,
8,
8,
2,
2,
10,
10,
8,
8,
0,
0,
0,
0,
6,
6,
0,
0,
6,
6,
4,
4,
4,
4,
8,
8,
10,
10,
0,
0,
8,
8,
15,
15,
17,
17,
11,
11,
6,
6,
2,
2,
0,
0,
2,
2,
8,
8,
15,
15,
14,
14,
11,
11,
14,
14,
13,
1,
2,
2,
5,
5,
8,
8,
10,
10,
2,
2,
1,
1,
2,
2,
1,
1,
0,
0,
-1,
-1,
2,
2,
6,
6,
15,
15,
14,
14,
9,
9,
2,
2,
7,
7,
13,
13,
17,
17,
12,
12,
6,
6,
11,
11,
7,
7,
3,
3,
7,
7,
11,
11,
3,
16,
15,
15,
12,
12,
6,
6,
5,
5,
5,
5,
9,
22,
22,
22,
21,
7,
8,
8,
2,
2,
8,
8,
13,
13,
10,
10,
8,
8,
2,
2,
7,
7,
11,
0,
2,
14,
13,
13,
18,
18,
18,
18,
12,
-1,
2,
2,
8,
8,
8,
8,
2,
2,
4,
4,
5,
19,
19,
19,
16,
5,
6,
6,
6,
6,
9,
9,
0,
0,
7,
7,
8,
8,
9,
9,
7,
7,
3,
3,
1,
1,
5,
5,
3,
3,
4,
4,
8,
8,
9,
9,
3,
3,
9,
9,
11,
11,
17,
17,
12,
1,
6,
6,
15,
15,
10,
10,
6,
6,
10,
10,
8,
8,
5,
5,
6,
6,
2,
2,
6,
6,
1,
1,
-1,
-1,
-2,
-2,
3,
3,
4,
4,
6,
6,
7,
7,
4,
4,
1,
1,
2,
2,
3,
3,
2,
2,
5,
5,
3,
3,
1,
14,
13,
13,
8,
8,
-1,
-1,
2,
2,
2,
2,
3,
3,
3,
3,
5,
5,
3,
3,
3,
3,
4,
4,
4,
4,
-1,
-1,
2,
2,
4,
4,
1,
1,
8,
8,
17,
17,
15,
2,
6,
23,
22,
22,
25,
25,
27,
5,
7,
40,
40,
40,
44,
44,
34,
4,
4,
4,
8,
8,
12,
23,
22,
22,
19,
19,
12,
0,
0,
11,
10,
10,
2,
2,
7,
7,
2,
2,
2,
2,
3,
3,
10,
10,
11,
11,
7,
7,
3,
3,
3,
3,
6,
6,
8,
8,
2,
2,
0,
0,
-1,
-1,
-1,
-1,
2,
2,
1,
1,
10,
10,
2,
2,
5,
5,
7,
7,
0,
14,
12,
12,
6,
6,
8,
8,
6,
6,
0,
0,
8,
8,
9,
9,
4,
4,
7,
7,
11,
11,
3,
3,
5,
5,
2,
2,
-2,
-2,
6,
6,
14,
14,
8,
8,
7,
7,
7,
7,
4,
4,
2,
2,
5,
5,
1,
1,
9,
9,
14,
14,
12,
-1,
0,
0,
5,
5,
11,
11,
7,
7,
5,
5,
14,
2,
13,
31,
30,
16,
16,
2,
3,
3,
3,
17,
16,
16,
15,
3,
3,
3,
4,
4,
13,
28,
28,
28,
24,
3,
9,
27,
26,
26,
30,
30,
29,
29,
21,
2,
5,
17,
15,
4,
4,
4,
10,
24,
23,
23,
20,
8,
8,
8,
0,
0,
1,
1,
7,
7,
6,
6,
7,
7,
1,
1,
2,
2,
0,
0,
8,
8,
9,
9,
12,
12,
17,
17,
8,
8,
6,
6,
0,
0,
8,
8,
18,
18,
25,
25,
18,
18,
8,
8,
5,
5,
10,
-1,
2,
2,
4,
4,
11,
11,
20,
3,
3,
3,
2,
2,
1,
13,
12,
12,
19,
19,
26,
26,
23,
11,
13,
0,
0,
14,
14,
25,
24,
24,
21,
21,
13,
13,
16,
16,
23,
5,
5,
5,
1,
1,
1,
1,
10,
10,
15,
15,
14,
14,
15,
15,
11,
11,
5,
5,
0,
0,
1,
1,
0,
0,
4,
18,
16,
16,
13,
13,
10,
10,
10,
10,
0,
11,
11,
11,
9,
9,
6,
6,
6,
6,
2,
2,
2,
17,
15,
15,
7,
7,
6,
6,
14,
14,
11,
0,
2,
2,
3,
3,
-1,
-1,
8,
8,
10,
-1,
0,
0,
8,
8,
7,
7,
-1,
-1,
0,
0,
2,
2,
9,
9,
14,
14,
21,
21,
14,
3,
4,
4,
3,
3,
0,
0,
4,
16,
15,
15,
16,
16,
10,
10,
10,
10,
7,
30,
29,
46,
45,
24,
26,
3,
3,
3,
5,
5,
15,
15,
21,
21,
16,
16,
10,
10,
10,
10,
10,
10,
10,
10,
10,
10,
8,
8,
0,
17,
16,
16,
19,
19,
25,
25,
29,
29,
26,
37,
37,
37,
37,
15,
15,
4,
20,
32,
31,
14,
15,
-1,
1,
16,
16,
27,
26,
26,
31,
31,
31,
31,
24,
12,
12,
1,
7,
20,
19,
19,
16,
16,
18,
30,
29,
29,
20,
20,
16,
16,
12,
12,
15,
15,
15,
15,
8,
8,
7,
7,
16,
16,
17,
17,
15,
1,
1,
1,
0,
0,
0,
12,
11,
11,
8,
8,
0,
0,
-1,
-1,
0,
0,
4,
4,
7,
7,
9,
9,
7,
7,
4,
4,
6,
6,
3,
3,
0,
0,
0,
0,
-1,
-1,
1,
1,
1,
1,
8,
8,
12,
12,
3,
3,
2,
2,
1,
15,
15,
15,
19,
2,
3,
3,
2,
2,
6,
6,
3,
3,
2,
2,
2,
2,
1,
1,
0,
0,
6,
6,
15,
27,
26,
26,
31,
16,
16,
3,
9,
9,
13,
13,
11,
11,
9,
9,
7,
7,
4,
4,
3,
3,
8,
8,
4,
4,
3,
3,
0,
11,
11,
11,
14,
14,
10,
10,
5,
5,
1,
1,
5,
5,
2,
2,
3,
3,
7,
7,
2,
2,
-1,
11,
10,
21,
21,
21,
16,
1,
2,
2,
5,
5,
6,
6,
2,
2,
11,
11,
17,
17,
16,
16,
17,
17,
14,
14,
6,
6,
3,
3,
1,
1,
10,
10,
17,
17,
25,
25,
25,
25,
17,
0,
0,
0,
3,
3,
9,
9,
3,
3,
11,
22,
22,
22,
22,
2,
2,
2,
6,
6,
7,
7,
6,
6,
2,
2,
3,
3,
5,
5,
2,
13,
12,
12,
13,
13,
8,
8,
6,
6,
9,
9,
11,
11,
3,
3,
6,
6,
14,
14,
15,
15,
13,
13,
10,
10,
5,
5,
7,
7,
10,
22,
20,
20,
19,
19,
21,
7,
8,
8,
8,
8,
12,
12,
4,
4,
8,
8,
11,
0,
2,
2,
9,
9,
3,
3,
0,
0,
2,
2,
6,
6,
7,
7,
2,
2,
0,
0,
3,
3,
6,
6,
6,
6,
3,
3,
0,
0,
0,
0,
1,
1,
9,
9,
9,
9,
8,
8,
7,
7,
2,
2,
0,
0,
3,
3,
0,
0,
9,
9,
15,
15,
19,
19,
18,
3,
12,
12,
17,
17,
16,
16,
11,
11,
15,
15,
16,
16,
21,
8,
8,
8,
17,
17,
21,
8,
9,
9,
7,
19,
18,
18,
18,
18,
11,
-1,
0,
0,
6,
17,
17,
30,
30,
18,
18,
0,
2,
2,
6,
6,
5,
5,
6,
6,
4,
4,
11,
11,
12,
12,
5,
25,
24,
40,
40,
24,
25,
4,
9,
24,
23,
23,
19,
19,
14,
3,
4,
4,
1,
1,
-1,
-1,
0,
0,
0,
0,
4,
4,
4,
4,
1,
12,
11,
0,
2,
2,
10,
10,
9,
9,
3,
3,
2,
2,
0,
0,
0,
0,
5,
5,
3,
3,
0,
0,
1,
1,
0,
0,
0,
0,
-1,
-1,
-1,
-1,
7,
7,
6,
6,
2,
2,
3,
3,
1,
1,
2,
2,
3,
3,
1,
1,
2,
2,
0,
0,
1,
1,
0,
0,
5,
5,
10,
10,
3,
3,
2,
2,
6,
18,
16,
16,
15,
15,
15,
15,
13,
0,
0,
0,
8,
8,
11,
11,
5,
5,
-1,
-1,
1,
1,
3,
3,
7,
7,
10,
10,
6,
6,
2,
2,
5,
5,
2,
2,
3,
3,
2,
2,
9,
9,
3,
3,
-1,
-1,
5,
5,
5,
5,
1,
1,
6,
6,
0,
0,
10,
10,
10,
10,
11,
11,
10,
10,
8,
8,
11,
11,
12,
12,
4,
4,
11,
22,
21,
21,
22,
22,
24,
10,
10,
10,
4,
4,
6,
6,
0,
0,
3,
3,
2,
2,
2,
2,
8,
31,
31,
45,
44,
30,
30,
3,
4,
15,
14,
14,
19,
19,
10,
10,
4,
4,
13,
13,
15,
0,
1,
1,
7,
7,
7,
7,
7,
7,
3,
3,
5,
5,
6,
6,
11,
0,
4,
4,
11,
11,
13,
13,
16,
16,
14,
14,
18,
7,
8,
8,
15,
26,
26,
26,
21,
1,
2,
15,
15,
15,
22,
22,
18,
7,
8,
8,
1,
1,
9,
9,
13,
13,
14,
14,
12,
12,
6,
6,
3,
3,
7,
7,
2,
2,
8,
8,
8,
8,
7,
7,
6,
6,
3,
3,
0,
0,
1,
1,
0,
0,
4,
4,
6,
6,
2,
2,
2,
2,
8,
8,
5,
5,
-1,
-1,
6,
6,
6,
6,
0,
0,
8,
8,
10,
10,
7,
7,
11,
11,
16,
16,
17,
17,
8,
8,
0,
17,
17,
17,
22,
11,
13,
-1,
1,
1,
0,
0,
1,
12,
11,
11,
7,
7,
0,
0,
1,
1,
6,
6,
10,
10,
6,
6,
2,
2,
9,
9,
10,
10,
6,
6,
9,
9,
8,
8,
3,
3,
7,
7,
0,
0,
7,
7,
10,
-1,
3,
14,
13,
13,
10,
10,
2,
17,
17,
17,
22,
22,
13,
0,
5,
5,
14,
14,
8,
8,
0,
0,
6,
6,
8,
8,
7,
7,
6,
6,
2,
13,
12,
23,
23,
23,
20,
7,
7,
7,
11,
25,
25,
25,
32,
14,
15,
0,
2,
13,
12,
12,
19,
19,
13,
13,
5,
5,
6,
20,
19,
19,
20,
8,
9,
9,
1,
1,
0,
0,
4,
4,
0,
0,
4,
4,
-1,
-1,
2,
2,
7,
7,
7,
7,
4,
4,
0,
0,
-1,
-1,
2,
2,
0,
0,
5,
5,
3,
3,
7,
7,
13,
13,
10,
10,
4,
4,
5,
5,
9,
9,
4,
4,
5,
5,
9,
32,
31,
31,
30,
8,
8,
8,
8,
20,
19,
19,
18,
18,
13,
13,
16,
16,
16,
16,
9,
9,
1,
1,
4,
4,
1,
12,
11,
11,
20,
20,
23,
23,
18,
6,
6,
6,
5,
5,
2,
2,
0,
0,
0,
0,
1,
1,
0,
0,
2,
2,
0,
0,
-2,
-2,
-1,
-1,
4,
4,
7,
7,
2,
2,
8,
8,
11,
11,
5,
5,
0,
0,
3,
3,
6,
6,
2,
2,
4,
4,
1,
1,
-1,
-1,
5,
5,
7,
7,
8,
8,
4,
4,
7,
7,
5,
5,
9,
9,
10,
10,
18,
6,
7,
7,
12,
12,
18,
18,
9,
9,
2,
2,
3,
3,
10,
30,
29,
29,
31,
6,
7,
7,
3,
18,
17,
17,
23,
12,
12,
12,
11,
11,
12,
1,
8,
8,
12,
12,
12,
12,
11,
11,
5,
5,
1,
1,
8,
8,
16,
16,
10,
10,
3,
3,
1,
1,
8,
8,
12,
12,
8,
8,
7,
7,
16,
16,
13,
13,
4,
4,
-1,
-1,
3,
3,
9,
9,
10,
10,
7,
7,
4,
4,
5,
5,
0,
0,
9,
9,
10,
10,
9,
9,
11,
11,
16,
16,
12,
12,
8,
8,
3,
3,
9,
9,
14,
14,
14,
14,
10,
10,
11,
11,
11,
11,
9,
9,
6,
6,
8,
8,
3,
3,
8,
8,
15,
15,
20,
20,
21,
21,
17,
17,
27,
15,
16,
0,
2,
2,
5,
5,
11,
11,
12,
12,
11,
11,
10,
10,
1,
1,
3,
3,
7,
7,
0,
0,
2,
2,
4,
4,
1,
1,
0,
0,
1,
1,
0,
0,
0,
0,
-1,
11,
10,
10,
9,
9,
2,
2,
7,
7,
14,
14,
8,
8,
4,
4,
14,
14,
13,
0,
3,
3,
8,
8,
7,
7,
0,
0,
4,
4,
1,
1,
3,
3,
0,
0,
0,
0,
2,
2,
0,
0,
9,
9,
10,
10,
5,
5,
0,
0,
2,
2,
2,
2,
7,
18,
18,
29,
29,
29,
20,
5,
6,
6,
1,
1,
7,
7,
4,
4,
6,
18,
18,
18,
21,
21,
15,
15,
9,
9,
8,
8,
9,
9,
7,
7,
7,
7,
2,
2,
11,
11,
20,
20,
26,
26,
19,
19,
14,
14,
18,
18,
15,
0,
2,
19,
19,
30,
30,
11,
12,
1,
9,
36,
36,
36,
45,
25,
26,
3,
9,
29,
28,
28,
32,
32,
27,
27,
