EMG_S1/DS0160.CSV

Memory Length,4000,
Trigger Level,0.00000e+00,
Source,CH1,
Probe,1.0X,
Vertical Units,V,
Vertical Scale,1.00000e+00,
Vertical Position,4.00000e-02,
Horizontal Units,S,
Horizontal Scale,1.00000e-01,
Horizontal Position,0.0000000e+00,
Horizontal Mode,Roll Mode,
Waveform Last Dot Address,4000,
Sampling Period,4.00000e-04,
Firmware,V1.14,
Time, ,
Mode,Fast,
Waveform Data,
1,
1,
3,
15,
14,
14,
21,
21,
23,
23,
21,
21,
14,
3,
4,
4,
9,
9,
16,
16,
21,
21,
15,
1,
2,
2,
5,
5,
6,
6,
13,
13,
6,
6,
0,
0,
0,
0,
2,
2,
1,
1,
2,
2,
3,
3,
12,
12,
18,
18,
26,
26,
27,
7,
7,
7,
8,
8,
14,
14,
11,
0,
0,
0,
2,
2,
11,
11,
10,
10,
4,
4,
3,
3,
1,
1,
-1,
-1,
3,
3,
5,
5,
0,
0,
1,
1,
0,
0,
0,
0,
4,
4,
8,
8,
14,
26,
25,
25,
34,
16,
16,
2,
2,
13,
11,
11,
20,
20,
16,
16,
12,
12,
10,
10,
8,
8,
6,
6,
7,
7,
6,
6,
9,
9,
3,
3,
11,
11,
16,
16,
14,
14,
20,
20,
16,
16,
11,
11,
2,
2,
6,
6,
10,
10,
11,
11,
5,
5,
0,
0,
4,
4,
7,
7,
4,
4,
-1,
-1,
3,
3,
1,
1,
2,
2,
2,
2,
0,
0,
2,
2,
5,
5,
2,
2,
2,
2,
6,
6,
2,
2,
5,
5,
10,
10,
5,
5,
-1,
-1,
1,
1,
0,
0,
7,
7,
10,
10,
18,
18,
16,
16,
8,
8,
2,
14,
13,
13,
16,
16,
12,
12,
3,
3,
10,
10,
11,
0,
0,
0,
5,
5,
4,
4,
-1,
-1,
-1,
-1,
2,
2,
6,
6,
8,
8,
2,
2,
8,
8,
9,
9,
0,
14,
13,
27,
26,
26,
31,
18,
20,
3,
3,
3,
5,
5,
13,
13,
15,
15,
10,
10,
13,
13,
15,
15,
8,
8,
2,
2,
1,
1,
7,
7,
11,
11,
11,
11,
6,
6,
-1,
-1,
1,
1,
-1,
-1,
2,
2,
2,
2,
0,
0,
-1,
-1,
2,
2,
4,
4,
14,
14,
14,
0,
1,
1,
5,
5,
2,
2,
6,
6,
8,
8,
8,
8,
2,
2,
2,
2,
1,
1,
3,
3,
2,
2,
1,
1,
1,
1,
2,
2,
10,
10,
12,
12,
7,
7,
-1,
-1,
7,
7,
13,
13,
10,
10,
8,
8,
5,
26,
25,
25,
34,
23,
24,
24,
16,
16,
21,
21,
22,
11,
11,
11,
10,
10,
14,
14,
9,
9,
15,
15,
14,
14,
8,
8,
2,
2,
0,
0,
1,
1,
-1,
12,
12,
12,
14,
14,
8,
8,
6,
6,
9,
9,
11,
11,
13,
13,
5,
5,
-1,
-1,
-1,
-1,
6,
6,
10,
10,
7,
7,
3,
3,
0,
0,
1,
1,
1,
1,
0,
0,
1,
1,
1,
1,
1,
1,
-1,
-1,
-1,
-1,
-1,
-1,
2,
2,
8,
8,
13,
13,
6,
6,
2,
2,
7,
7,
8,
8,
6,
6,
5,
5,
1,
1,
3,
3,
-1,
-1,
0,
0,
0,
0,
3,
3,
8,
8,
10,
10,
11,
0,
1,
1,
3,
15,
15,
15,
13,
0,
1,
1,
7,
7,
11,
11,
8,
8,
0,
0,
3,
3,
0,
0,
1,
1,
10,
10,
6,
6,
6,
6,
10,
10,
10,
10,
8,
8,
4,
4,
3,
3,
5,
5,
11,
11,
11,
11,
4,
4,
3,
3,
5,
5,
6,
6,
4,
4,
-1,
-1,
0,
0,
2,
2,
1,
1,
-1,
-1,
2,
2,
-1,
-1,
0,
0,
9,
9,
12,
12,
6,
6,
0,
0,
0,
0,
7,
7,
2,
2,
2,
2,
-1,
-1,
6,
6,
11,
11,
4,
4,
10,
10,
10,
10,
14,
14,
18,
18,
18,
18,
17,
2,
2,
14,
13,
28,
28,
28,
30,
30,
22,
22,
15,
2,
3,
21,
20,
20,
21,
21,
19,
19,
10,
10,
1,
1,
3,
3,
5,
5,
3,
3,
0,
0,
-1,
-1,
2,
2,
6,
6,
3,
3,
0,
0,
6,
6,
8,
19,
19,
19,
16,
3,
4,
4,
0,
0,
1,
1,
4,
4,
3,
3,
7,
7,
2,
2,
7,
20,
19,
19,
18,
32,
31,
31,
28,
3,
4,
27,
27,
40,
39,
39,
34,
19,
19,
2,
3,
3,
2,
2,
7,
7,
13,
13,
7,
7,
-1,
-1,
0,
0,
3,
3,
1,
1,
0,
0,
6,
21,
20,
20,
22,
9,
9,
9,
1,
1,
0,
0,
4,
4,
10,
10,
12,
12,
14,
14,
6,
6,
-1,
-1,
1,
1,
7,
7,
2,
2,
10,
10,
14,
14,
7,
7,
2,
2,
1,
1,
3,
3,
3,
3,
3,
3,
6,
6,
11,
-1,
0,
0,
5,
5,
0,
0,
1,
1,
6,
6,
5,
5,
4,
4,
8,
8,
1,
1,
3,
3,
5,
5,
5,
16,
15,
15,
24,
24,
21,
21,
12,
12,
7,
7,
7,
7,
4,
4,
1,
1,
4,
4,
13,
36,
35,
63,
63,
63,
61,
20,
21,
5,
17,
36,
36,
48,
47,
34,
34,
8,
8,
8,
10,
10,
18,
18,
15,
0,
4,
21,
21,
21,
15,
2,
15,
26,
23,
0,
2,
2,
4,
4,
8,
8,
8,
8,
11,
11,
9,
9,
2,
2,
11,
11,
18,
7,
7,
7,
8,
22,
22,
22,
24,
24,
19,
2,
3,
16,
16,
27,
26,
26,
23,
23,
15,
15,
11,
11,
3,
3,
11,
11,
19,
19,
15,
15,
10,
10,
1,
1,
4,
4,
6,
6,
2,
2,
3,
3,
1,
1,
4,
4,
3,
3,
0,
0,
1,
1,
7,
7,
12,
12,
15,
15,
13,
13,
7,
7,
6,
6,
2,
2,
12,
12,
16,
28,
27,
39,
38,
26,
27,
2,
2,
2,
11,
24,
23,
23,
29,
11,
11,
-1,
0,
11,
10,
10,
8,
8,
0,
0,
6,
6,
0,
0,
-1,
-1,
5,
5,
1,
1,
6,
6,
2,
2,
4,
4,
4,
4,
5,
5,
0,
0,
7,
7,
3,
16,
15,
1,
2,
2,
10,
10,
4,
4,
0,
0,
3,
30,
29,
29,
34,
34,
24,
24,
14,
2,
10,
35,
34,
34,
36,
36,
33,
33,
32,
21,
22,
2,
43,
43,
42,
42,
46,
23,
24,
3,
8,
8,
14,
3,
10,
27,
27,
27,
30,
16,
17,
2,
5,
5,
15,
30,
28,
28,
30,
16,
16,
16,
10,
10,
4,
4,
0,
0,
1,
1,
6,
6,
10,
10,
18,
18,
21,
21,
21,
8,
8,
8,
12,
12,
12,
0,
2,
13,
12,
23,
22,
22,
19,
19,
10,
10,
3,
15,
14,
14,
19,
2,
3,
15,
14,
14,
21,
21,
16,
2,
13,
46,
45,
45,
43,
26,
27,
3,
5,
19,
18,
33,
32,
32,
27,
16,
17,
17,
12,
0,
2,
2,
9,
20,
19,
19,
11,
11,
4,
4,
0,
0,
6,
6,
8,
8,
2,
15,
15,
15,
23,
23,
21,
7,
7,
7,
6,
18,
17,
17,
16,
16,
11,
11,
5,
5,
3,
3,
2,
2,
5,
5,
3,
3,
-1,
-1,
4,
4,
5,
5,
7,
7,
5,
5,
5,
5,
5,
5,
9,
9,
6,
6,
3,
3,
5,
5,
2,
2,
-1,
-1,
4,
4,
6,
6,
0,
0,
4,
4,
5,
5,
0,
0,
1,
1,
0,
0,
-2,
-2,
3,
3,
5,
5,
6,
6,
2,
2,
3,
3,
3,
3,
5,
5,
0,
16,
15,
15,
16,
16,
15,
15,
17,
17,
7,
7,
0,
0,
6,
6,
8,
8,
5,
5,
6,
6,
10,
10,
12,
12,
5,
5,
0,
0,
10,
10,
9,
9,
5,
5,
3,
3,
6,
6,
9,
9,
11,
32,
32,
32,
27,
2,
3,
3,
11,
11,
8,
8,
17,
17,
21,
21,
15,
15,
20,
20,
12,
0,
4,
4,
9,
9,
1,
1,
6,
6,
12,
1,
3,
26,
26,
52,
52,
52,
45,
14,
15,
2,
6,
6,
15,
15,
11,
11,
9,
9,
17,
17,
22,
22,
21,
7,
7,
7,
15,
15,
20,
5,
6,
6,
12,
12,
5,
5,
8,
8,
6,
6,
10,
10,
6,
6,
6,
6,
6,
6,
15,
31,
29,
17,
18,
0,
2,
2,
6,
6,
2,
2,
2,
2,
0,
0,
6,
6,
13,
0,
4,
16,
16,
16,
20,
20,
25,
25,
19,
19,
13,
-1,
0,
0,
7,
7,
13,
13,
17,
17,
17,
17,
9,
9,
5,
5,
0,
0,
7,
7,
11,
0,
0,
14,
13,
13,
16,
16,
10,
10,
7,
7,
1,
1,
3,
3,
0,
0,
0,
0,
8,
8,
6,
6,
6,
6,
10,
10,
6,
6,
14,
14,
7,
7,
5,
5,
12,
12,
7,
7,
9,
9,
4,
4,
-1,
-1,
-1,
-1,
0,
0,
0,
0,
5,
5,
6,
6,
3,
3,
5,
5,
2,
2,
0,
0,
0,
0,
9,
25,
25,
25,
23,
2,
3,
14,
12,
12,
8,
8,
8,
8,
13,
13,
6,
6,
0,
0,
-2,
-2,
5,
5,
5,
5,
6,
6,
4,
15,
14,
14,
6,
6,
6,
6,
7,
7,
12,
47,
47,
47,
41,
18,
18,
2,
2,
2,
8,
8,
2,
2,
1,
21,
21,
21,
28,
28,
27,
27,
22,
11,
11,
-1,
1,
1,
10,
10,
14,
26,
25,
25,
22,
7,
8,
8,
11,
11,
16,
16,
18,
3,
3,
14,
13,
13,
16,
16,
16,
16,
19,
19,
10,
10,
3,
3,
7,
7,
7,
7,
2,
2,
1,
1,
1,
15,
15,
15,
13,
13,
14,
14,
11,
11,
6,
6,
5,
5,
3,
3,
2,
2,
2,
2,
1,
1,
3,
3,
12,
12,
18,
18,
28,
28,
24,
24,
15,
15,
10,
10,
6,
6,
14,
14,
9,
9,
10,
10,
10,
10,
4,
4,
7,
19,
18,
18,
18,
18,
13,
2,
9,
32,
32,
32,
34,
13,
14,
14,
16,
16,
22,
10,
10,
10,
10,
10,
10,
10,
2,
2,
6,
6,
12,
12,
19,
19,
15,
4,
4,
4,
2,
2,
0,
0,
0,
0,
1,
1,
2,
2,
11,
11,
12,
-1,
0,
0,
1,
1,
3,
3,
2,
2,
-1,
10,
10,
21,
20,
5,
5,
5,
1,
1,
8,
8,
7,
7,
0,
0,
6,
6,
10,
10,
11,
11,
10,
10,
9,
9,
5,
5,
0,
0,
2,
2,
5,
5,
6,
6,
7,
7,
12,
12,
18,
18,
20,
20,
18,
18,
15,
15,
20,
20,
22,
2,
3,
3,
12,
25,
25,
25,
27,
27,
20,
20,
14,
14,
12,
12,
10,
10,
2,
2,
-1,
-1,
1,
1,
0,
0,
3,
3,
9,
9,
9,
9,
6,
6,
13,
13,
15,
15,
5,
5,
13,
13,
16,
16,
16,
16,
16,
2,
3,
23,
22,
22,
22,
22,
13,
2,
11,
23,
22,
10,
10,
10,
11,
11,
21,
21,
12,
12,
4,
4,
4,
4,
-1,
-1,
2,
2,
-1,
-1,
2,
2,
2,
2,
2,
2,
6,
6,
10,
-1,
2,
2,
8,
8,
2,
2,
7,
7,
15,
15,
18,
18,
12,
1,
5,
5,
8,
8,
2,
2,
2,
14,
14,
14,
12,
0,
3,
3,
11,
11,
7,
7,
1,
1,
3,
3,
8,
8,
14,
3,
3,
3,
4,
4,
3,
3,
-1,
-1,
3,
3,
10,
10,
6,
6,
-1,
-1,
2,
2,
0,
0,
6,
6,
11,
11,
14,
3,
3,
3,
2,
2,
5,
5,
7,
21,
20,
7,
8,
8,
10,
10,
18,
18,
26,
26,
16,
0,
2,
2,
11,
11,
15,
2,
2,
2,
2,
16,
15,
27,
26,
10,
10,
10,
6,
6,
13,
13,
10,
10,
7,
7,
1,
1,
3,
3,
5,
5,
3,
3,
8,
8,
4,
4,
6,
6,
6,
6,
6,
6,
10,
10,
7,
7,
1,
1,
11,
11,
15,
15,
21,
21,
16,
0,
0,
0,
0,
0,
0,
0,
8,
8,
14,
14,
8,
8,
2,
2,
2,
2,
2,
2,
-1,
-1,
0,
0,
-1,
-1,
-1,
-1,
4,
4,
4,
4,
1,
1,
3,
3,
3,
3,
3,
3,
10,
-1,
1,
1,
5,
5,
4,
4,
7,
7,
7,
7,
0,
0,
0,
0,
-1,
-1,
3,
3,
1,
1,
0,
0,
-1,
-1,
-1,
-1,
1,
1,
0,
0,
3,
3,
-1,
-1,
1,
1,
4,
4,
0,
0,
0,
0,
4,
4,
6,
6,
1,
1,
-1,
-1,
0,
0,
2,
2,
6,
6,
10,
10,
16,
16,
10,
10,
5,
5,
7,
7,
4,
4,
8,
8,
15,
30,
30,
30,
35,
21,
22,
5,
6,
17,
16,
27,
26,
26,
20,
20,
20,
6,
7,
7,
11,
11,
20,
20,
22,
2,
4,
30,
30,
46,
44,
22,
23,
2,
3,
3,
8,
8,
-1,
-1,
5,
5,
14,
14,
24,
24,
20,
1,
2,
14,
13,
13,
16,
16,
15,
15,
14,
14,
14,
14,
13,
13,
13,
13,
8,
8,
1,
1,
4,
16,
15,
30,
29,
29,
32,
32,
30,
15,
16,
0,
3,
3,
5,
5,
0,
11,
10,
10,
20,
20,
14,
2,
3,
3,
3,
3,
12,
1,
5,
5,
13,
-1,
1,
1,
3,
3,
5,
5,
9,
9,
7,
7,
9,
9,
7,
7,
2,
2,
2,
2,
2,
2,
1,
1,
9,
9,
12,
12,
6,
6,
0,
0,
7,
7,
13,
13,
14,
14,
17,
17,
11,
11,
11,
11,
14,
14,
15,
15,
9,
9,
6,
6,
1,
1,
2,
2,
0,
0,
1,
1,
2,
2,
6,
6,
6,
6,
0,
0,
6,
6,
15,
15,
5,
5,
10,
10,
19,
19,
17,
4,
5,
5,
12,
12,
18,
18,
11,
11,
4,
4,
2,
15,
14,
14,
18,
7,
8,
8,
0,
0,
0,
0,
0,
0,
4,
15,
15,
33,
32,
32,
26,
6,
6,
6,
0,
0,
4,
4,
6,
6,
14,
14,
20,
20,
12,
12,
5,
5,
10,
10,
18,
18,
13,
0,
3,
3,
11,
11,
12,
12,
13,
13,
4,
4,
9,
9,
7,
7,
2,
2,
0,
12,
11,
24,
24,
24,
29,
29,
23,
23,
24,
24,
20,
3,
6,
33,
33,
33,
34,
34,
28,
14,
14,
1,
4,
4,
5,
5,
1,
1,
9,
9,
9,
9,
2,
2,
0,
0,
0,
0,
6,
18,
17,
17,
15,
15,
11,
11,
15,
15,
12,
12,
5,
5,
0,
0,
-1,
-1,
-1,
-1,
4,
4,
0,
0,
4,
4,
1,
1,
5,
5,
5,
5,
5,
17,
16,
16,
17,
1,
2,
2,
0,
0,
1,
17,
17,
17,
26,
39,
39,
39,
41,
21,
22,
3,
8,
21,
21,
21,
31,
31,
23,
23,
15,
15,
15,
15,
14,
14,
8,
8,
0,
0,
2,
2,
10,
10,
15,
15,
10,
10,
6,
6,
2,
2,
0,
0,
5,
5,
7,
7,
5,
5,
5,
5,
6,
6,
0,
0,
4,
4,
4,
4,
1,
1,
7,
7,
8,
8,
11,
11,
6,
6,
0,
12,
11,
11,
15,
15,
6,
6,
2,
2,
1,
1,
4,
4,
6,
6,
11,
11,
10,
10,
3,
3,
1,
1,
6,
6,
3,
3,
6,
6,
4,
4,
2,
2,
10,
10,
10,
10,
9,
9,
6,
6,
0,
13,
13,
13,
18,
18,
19,
19,
13,
0,
2,
2,
0,
0,
5,
5,
10,
10,
3,
15,
15,
15,
17,
0,
2,
2,
6,
6,
10,
10,
6,
6,
0,
0,
6,
6,
7,
7,
6,
6,
0,
0,
2,
2,
7,
7,
10,
10,
6,
6,
7,
7,
5,
5,
5,
5,
8,
8,
6,
6,
2,
2,
2,
2,
5,
5,
4,
4,
2,
2,
0,
0,
0,
0,
6,
6,
7,
7,
3,
3,
2,
2,
4,
4,
1,
1,
-1,
-1,
-1,
-1,
6,
6,
9,
9,
1,
1,
6,
6,
12,
12,
10,
10,
4,
4,
4,
4,
8,
8,
10,
10,
7,
7,
4,
4,
3,
3,
5,
5,
14,
14,
13,
13,
19,
19,
17,
17,
7,
7,
0,
0,
-1,
-1,
7,
7,
10,
10,
10,
10,
6,
6,
8,
8,
5,
5,
0,
0,
4,
4,
6,
6,
5,
5,
2,
2,
4,
4,
5,
5,
12,
12,
3,
3,
9,
9,
8,
8,
4,
4,
4,
4,
0,
0,
1,
1,
11,
11,
2,
16,
16,
16,
16,
16,
11,
11,
8,
8,
5,
23,
23,
23,
29,
8,
8,
8,
16,
28,
27,
27,
26,
26,
17,
17,
12,
12,
6,
6,
6,
18,
17,
17,
19,
6,
7,
7,
16,
40,
39,
51,
50,
50,
48,
25,
25,
3,
6,
18,
18,
18,
18,
18,
14,
14,
10,
10,
11,
11,
10,
10,
8,
8,
6,
6,
3,
3,
7,
7,
2,
2,
0,
0,
0,
0,
2,
2,
4,
4,
8,
8,
4,
4,
0,
0,
5,
5,
10,
10,
11,
11,
7,
7,
5,
5,
4,
4,
1,
1,
0,
0,
8,
8,
14,
14,
10,
10,
7,
7,
5,
5,
4,
4,
2,
2,
0,
0,
7,
7,
9,
9,
8,
8,
7,
7,
9,
9,
12,
12,
8,
8,
0,
0,
3,
3,
1,
1,
0,
0,
1,
1,
1,
1,
0,
0,
4,
4,
6,
6,
4,
4,
3,
3,
1,
1,
8,
8,
6,
6,
0,
0,
4,
4,
8,
8,
7,
7,
2,
2,
5,
5,
9,
9,
8,
8,
0,
12,
11,
11,
14,
14,
8,
8,
4,
4,
2,
2,
0,
0,
6,
6,
11,
11,
10,
-1,
0,
0,
-1,
-1,
-1,
-1,
7,
7,
8,
8,
3,
3,
0,
0,
-1,
-1,
7,
20,
19,
19,
27,
27,
23,
10,
10,
10,
2,
2,
9,
9,
13,
13,
16,
16,
16,
16,
16,
16,
13,
13,
8,
8,
3,
3,
3,
23,
23,
34,
34,
34,
34,
19,
20,
6,
6,
6,
10,
22,
22,
22,
22,
22,
14,
14,
5,
5,
0,
0,
9,
9,
14,
14,
7,
7,
0,
0,
-1,
-1,
0,
0,
2,
14,
13,
13,
10,
10,
1,
1,
3,
19,
18,
35,
34,
34,
29,
8,
8,
8,
2,
2,
10,
24,
23,
23,
20,
2,
2,
2,
10,
10,
6,
6,
4,
4,
1,
1,
5,
5,
9,
9,
0,
0,
2,
2,
-1,
-1,
4,
4,
-1,
-1,
5,
5,
10,
10,
12,
12,
10,
10,
5,
5,
2,
2,
6,
6,
1,
1,
2,
2,
0,
0,
8,
8,
12,
1,
2,
2,
0,
0,
3,
3,
9,
9,
9,
9,
3,
3,
0,
0,
3,
3,
4,
4,
6,
6,
5,
5,
2,
2,
0,
0,
9,
9,
14,
14,
16,
16,
20,
20,
14,
0,
0,
0,
4,
4,
0,
0,
6,
6,
3,
3,
-1,
-1,
-1,
-1,
0,
13,
12,
24,
22,
22,
14,
14,
10,
10,
6,
6,
0,
0,
2,
2,
9,
22,
22,
22,
29,
29,
23,
23,
17,
3,
4,
4,
10,
10,
13,
13,
8,
8,
13,
13,
7,
7,
3,
3,
0,
0,
8,
8,
14,
1,
2,
15,
15,
15,
16,
16,
12,
12,
2,
23,
23,
46,
45,
45,
40,
26,
26,
6,
6,
6,
8,
23,
22,
22,
23,
23,
27,
27,
26,
26,
17,
4,
4,
4,
2,
2,
12,
12,
18,
18,
19,
8,
8,
8,
2,
2,
3,
3,
5,
5,
0,
0,
2,
2,
8,
8,
0,
0,
5,
5,
3,
3,
5,
5,
1,
1,
6,
6,
2,
2,
-1,
-1,
4,
4,
7,
7,
7,
7,
2,
2,
2,
2,
3,
3,
7,
7,
-1,
-1,
2,
2,
2,
2,
3,
3,
3,
3,
0,
0,
0,
0,
0,
0,
-1,
-1,
6,
6,
0,
0,
8,
8,
5,
5,
0,
0,
1,
1,
2,
2,
8,
8,
3,
3,
6,
6,
2,
2,
0,
0,
0,
0,
0,
0,
0,
0,
2,
2,
3,
3,
12,
12,
11,
11,
8,
8,
10,
10,
0,
12,
11,
11,
11,
11,
6,
6,
0,
0,
8,
8,
13,
13,
7,
7,
6,
6,
9,
9,
6,
6,
8,
22,
21,
4,
4,
4,
11,
11,
12,
12,
13,
13,
13,
13,
8,
8,
0,
0,
3,
3,
6,
6,
0,
0,
2,
13,
12,
12,
20,
20,
22,
22,
26,
26,
23,
8,
10,
10,
4,
4,
1,
18,
18,
31,
30,
30,
31,
31,
24,
11,
11,
11,
4,
4,
3,
3,
8,
8,
9,
9,
3,
3,
7,
18,
18,
18,
10,
10,
4,
4,
3,
3,
7,
7,
1,
1,
10,
10,
18,
18,
15,
15,
10,
10,
6,
6,
2,
2,
0,
0,
8,
8,
13,
13,
11,
11,
12,
12,
10,
10,
7,
7,
2,
2,
-2,
-2,
1,
1,
5,
5,
3,
3,
5,
5,
6,
6,
14,
14,
20,
8,
8,
8,
0,
0,
0,
0,
4,
4,
9,
9,
2,
13,
11,
11,
11,
-1,
1,
1,
8,
8,
16,
16,
11,
-1,
0,
0,
1,
1,
3,
3,
3,
3,
0,
0,
9,
9,
6,
6,
-1,
-1,
0,
0,
2,
2,
6,
6,
8,
8,
9,
9,
7,
7,
4,
4,
11,
11,
10,
10,
6,
6,
0,
0,
-1,
-1,
2,
2,
-1,
-1,
6,
6,
1,
1,
2,
2,
8,
8,
9,
9,
3,
3,
-1,
-1,
3,
3,
3,
3,
0,
0,
-1,
-1,
0,
0,
8,
8,
12,
12,
4,
4,
2,
2,
3,
3,
2,
2,
4,
4,
2,
2,
3,
3,
4,
18,
17,
17,
18,
6,
6,
6,
2,
2,
8,
8,
13,
13,
8,
8,
2,
2,
0,
0,
5,
5,
9,
9,
2,
2,
8,
8,
6,
6,
12,
12,
14,
14,
19,
19,
18,
6,
6,
6,
6,
6,
14,
14,
16,
16,
10,
10,
7,
7,
5,
5,
2,
2,
4,
4,
9,
9,
7,
7,
3,
3,
7,
7,
9,
9,
3,
3,
5,
5,
13,
13,
17,
17,
9,
9,
9,
28,
27,
27,
25,
2,
2,
2,
2,
2,
7,
18,
17,
17,
10,
10,
5,
5,
14,
14,
15,
15,
14,
14,
8,
8,
3,
3,
5,
5,
5,
5,
0,
0,
-1,
-1,
5,
5,
14,
14,
11,
0,
3,
3,
12,
12,
12,
12,
20,
20,
20,
20,
19,
19,
15,
15,
6,
6,
1,
1,
6,
6,
7,
7,
3,
3,
5,
5,
10,
10,
15,
15,
14,
14,
11,
11,
8,
8,
3,
3,
-2,
-2,
5,
5,
11,
11,
13,
13,
12,
12,
11,
11,
6,
6,
5,
5,
5,
5,
2,
2,
-1,
-1,
0,
0,
3,
3,
4,
4,
2,
2,
7,
7,
6,
6,
1,
1,
6,
6,
2,
14,
13,
24,
23,
23,
14,
14,
18,
18,
18,
3,
10,
30,
30,
30,
23,
23,
19,
19,
12,
12,
5,
5,
2,
2,
3,
3,
0,
0,
8,
8,
16,
16,
11,
11,
3,
3,
0,
0,
2,
2,
0,
0,
3,
3,
9,
9,
14,
14,
9,
9,
0,
0,
3,
3,
3,
3,
5,
5,
8,
8,
0,
0,
5,
5,
5,
5,
5,
5,
0,
0,
-1,
-1,
-1,
-1,
0,
0,
0,
0,
0,
0,
2,
2,
6,
6,
5,
5,
2,
2,
3,
3,
-1,
-1,
2,
2,
6,
6,
8,
8,
4,
4,
4,
4,
7,
7,
2,
2,
8,
8,
0,
0,
6,
6,
5,
5,
4,
4,
4,
4,
2,
2,
0,
0,
-1,
-1,
-1,
-1,
4,
4,
5,
5,
7,
7,
2,
2,
1,
1,
1,
1,
-1,
-1,
3,
3,
8,
8,
8,
8,
8,
8,
1,
1,
7,
7,
10,
10,
1,
1,
-1,
-1,
-1,
-1,
4,
4,
8,
8,
3,
3,
2,
2,
0,
0,
-1,
-1,
0,
0,
2,
2,
4,
4,
7,
7,
5,
5,
10,
10,
11,
11,
14,
14,
13,
2,
2,
14,
13,
13,
14,
14,
13,
0,
1,
15,
14,
14,
10,
10,
5,
5,
5,
5,
5,
5,
12,
12,
10,
10,
7,
7,
3,
3,
1,
1,
5,
5,
11,
11,
13,
13,
8,
8,
3,
3,
0,
0,
-1,
-1,
0,
0,
6,
6,
10,
10,
11,
11,
8,
8,
6,
6,
0,
0,
-1,
-1,
6,
6,
14,
14,
10,
10,
4,
4,
3,
3,
6,
6,
5,
5,
1,
1,
7,
7,
4,
4,
7,
7,
3,
3,
4,
4,
10,
10,
7,
7,
2,
2,
3,
3,
1,
1,
0,
0,
8,
8,
16,
16,
11,
11,
11,
11,
12,
12,
3,
3,
2,
2,
4,
4,
6,
6,
8,
8,
3,
3,
-1,
-1,
0,
0,
2,
2,
0,
0,
0,
0,
6,
6,
7,
7,
-1,
-1,
-1,
-1,
