EMG_S1/DS0168.CSV

Memory Length,4000,
Trigger Level,0.00000e+00,
Source,CH1,
Probe,1.0X,
Vertical Units,V,
Vertical Scale,1.00000e+00,
Vertical Position,4.00000e-02,
Horizontal Units,S,
Horizontal Scale,1.00000e-01,
Horizontal Position,0.0000000e+00,
Horizontal Mode,Roll Mode,
Waveform Last Dot Address,4000,
Sampling Period,4.00000e-04,
Firmware,V1.14,
Time, ,
Mode,Fast,
Waveform Data,
9,
9,
9,
25,
23,
23,
22,
10,
11,
0,
1,
14,
13,
13,
18,
18,
21,
21,
19,
8,
8,
8,
4,
4,
0,
0,
5,
5,
14,
14,
14,
14,
12,
12,
4,
4,
2,
2,
-2,
-2,
2,
2,
4,
4,
-1,
-1,
4,
4,
0,
0,
5,
5,
3,
3,
0,
0,
-1,
-1,
6,
6,
14,
14,
6,
6,
0,
0,
2,
2,
6,
6,
16,
16,
10,
10,
5,
5,
0,
0,
1,
1,
3,
3,
0,
0,
6,
6,
5,
5,
4,
4,
5,
5,
3,
3,
3,
3,
1,
1,
0,
0,
0,
0,
3,
3,
6,
6,
6,
6,
1,
1,
1,
1,
2,
2,
0,
0,
0,
0,
-1,
-1,
3,
3,
5,
5,
1,
1,
0,
0,
3,
3,
7,
7,
3,
3,
7,
7,
9,
9,
2,
2,
4,
4,
3,
3,
0,
0,
6,
6,
5,
5,
6,
6,
10,
10,
5,
5,
2,
2,
0,
0,
7,
7,
6,
6,
12,
12,
21,
21,
18,
2,
3,
3,
7,
7,
9,
9,
8,
8,
7,
7,
5,
5,
3,
3,
7,
7,
1,
1,
2,
2,
6,
6,
14,
14,
16,
16,
11,
11,
2,
2,
-1,
-1,
2,
2,
6,
6,
5,
5,
5,
5,
0,
11,
10,
10,
14,
14,
11,
11,
3,
3,
3,
3,
6,
6,
10,
10,
8,
8,
4,
4,
8,
8,
3,
3,
1,
1,
2,
2,
4,
4,
3,
3,
4,
4,
2,
2,
4,
4,
1,
13,
12,
12,
14,
14,
11,
0,
2,
2,
8,
8,
9,
9,
2,
2,
7,
7,
0,
0,
5,
5,
6,
6,
9,
9,
2,
2,
8,
8,
6,
6,
-1,
-1,
1,
1,
-1,
-1,
0,
0,
2,
2,
0,
0,
6,
6,
15,
15,
23,
23,
17,
3,
4,
4,
1,
1,
8,
8,
16,
16,
16,
16,
14,
14,
10,
-1,
0,
0,
3,
3,
5,
5,
6,
6,
7,
7,
4,
4,
2,
2,
4,
4,
3,
3,
3,
3,
6,
6,
9,
9,
7,
7,
0,
0,
3,
3,
1,
1,
0,
0,
3,
3,
5,
5,
2,
2,
0,
0,
7,
7,
8,
8,
10,
10,
7,
7,
3,
3,
9,
9,
12,
12,
14,
14,
12,
12,
9,
9,
4,
4,
6,
6,
11,
11,
12,
12,
9,
9,
3,
3,
-1,
-1,
0,
0,
0,
0,
0,
0,
2,
2,
4,
4,
0,
0,
2,
2,
10,
10,
9,
-2,
-1,
-1,
7,
7,
11,
11,
5,
5,
2,
2,
5,
5,
11,
11,
7,
7,
1,
1,
0,
0,
0,
0,
4,
4,
4,
4,
1,
1,
6,
6,
14,
14,
10,
-1,
0,
0,
0,
0,
2,
2,
0,
0,
1,
1,
0,
0,
2,
2,
6,
6,
6,
6,
0,
0,
9,
9,
11,
11,
10,
10,
14,
14,
11,
0,
1,
1,
10,
10,
5,
5,
-1,
-1,
1,
1,
8,
8,
9,
9,
6,
6,
0,
0,
4,
4,
3,
3,
4,
4,
4,
4,
5,
5,
3,
3,
3,
3,
0,
0,
3,
3,
4,
4,
6,
6,
1,
13,
12,
23,
22,
22,
23,
23,
17,
4,
5,
5,
10,
10,
15,
15,
6,
6,
0,
0,
1,
1,
4,
4,
6,
6,
5,
5,
5,
5,
6,
6,
1,
1,
2,
2,
8,
8,
5,
5,
0,
0,
-1,
-1,
-1,
-1,
0,
0,
6,
6,
9,
9,
5,
5,
4,
4,
2,
2,
-1,
-1,
2,
2,
5,
5,
4,
4,
6,
6,
5,
5,
4,
4,
1,
1,
5,
5,
5,
5,
2,
2,
7,
7,
10,
10,
8,
8,
0,
0,
1,
1,
8,
8,
10,
10,
13,
13,
10,
10,
2,
2,
10,
22,
21,
21,
18,
6,
6,
6,
9,
9,
9,
9,
5,
5,
2,
2,
8,
8,
0,
0,
8,
8,
6,
6,
5,
19,
17,
17,
14,
1,
2,
2,
0,
0,
-1,
-1,
3,
3,
3,
3,
6,
6,
14,
14,
9,
9,
3,
3,
4,
4,
-1,
-1,
7,
7,
2,
19,
18,
18,
19,
19,
20,
20,
15,
15,
23,
3,
6,
21,
20,
20,
19,
19,
19,
8,
8,
8,
8,
8,
1,
1,
4,
4,
3,
3,
5,
5,
4,
4,
1,
1,
5,
5,
5,
5,
3,
3,
6,
18,
17,
17,
15,
2,
3,
3,
-1,
-1,
3,
3,
2,
2,
-1,
-1,
-1,
-1,
5,
5,
3,
3,
2,
2,
-1,
-1,
8,
8,
2,
2,
11,
11,
8,
8,
3,
3,
-1,
-1,
0,
0,
5,
5,
9,
9,
11,
11,
6,
6,
0,
0,
0,
0,
2,
2,
0,
0,
1,
1,
4,
4,
-1,
10,
9,
26,
26,
26,
25,
6,
7,
7,
0,
0,
2,
2,
0,
0,
0,
0,
3,
3,
11,
11,
11,
11,
7,
7,
2,
2,
1,
1,
2,
2,
6,
6,
4,
4,
6,
6,
6,
6,
12,
0,
2,
2,
4,
4,
11,
11,
12,
12,
2,
2,
4,
4,
6,
6,
6,
6,
6,
6,
8,
8,
5,
5,
3,
3,
0,
0,
2,
2,
0,
0,
3,
3,
11,
26,
25,
25,
25,
11,
11,
-1,
2,
2,
8,
8,
7,
7,
5,
5,
8,
8,
15,
15,
9,
9,
11,
11,
7,
7,
-1,
-1,
0,
0,
1,
1,
4,
4,
3,
3,
0,
0,
4,
4,
5,
5,
0,
0,
2,
2,
-1,
-1,
0,
0,
7,
7,
5,
5,
-1,
-1,
0,
0,
0,
0,
6,
6,
3,
3,
-1,
-1,
2,
2,
5,
5,
-1,
-1,
1,
1,
7,
7,
3,
3,
0,
0,
10,
21,
20,
20,
16,
2,
4,
4,
3,
3,
4,
4,
0,
0,
2,
2,
6,
6,
5,
5,
3,
3,
6,
6,
3,
3,
2,
13,
12,
12,
7,
7,
8,
8,
16,
3,
3,
3,
10,
10,
8,
8,
10,
10,
11,
0,
1,
1,
0,
0,
6,
6,
7,
7,
0,
0,
6,
6,
11,
11,
7,
7,
5,
5,
0,
21,
20,
20,
23,
2,
4,
4,
10,
10,
12,
12,
9,
9,
0,
0,
3,
3,
9,
9,
12,
12,
3,
3,
0,
0,
7,
7,
4,
4,
2,
2,
6,
6,
10,
10,
8,
8,
7,
7,
1,
1,
4,
16,
16,
33,
32,
32,
28,
3,
4,
4,
7,
7,
12,
12,
8,
8,
9,
9,
11,
11,
12,
12,
6,
6,
3,
3,
2,
2,
2,
2,
5,
5,
7,
7,
10,
10,
12,
12,
11,
0,
2,
2,
4,
4,
8,
8,
5,
5,
8,
8,
12,
12,
14,
14,
22,
22,
13,
0,
2,
2,
-2,
-2,
4,
4,
14,
14,
16,
16,
10,
10,
1,
1,
7,
21,
20,
20,
16,
0,
1,
1,
8,
8,
11,
11,
12,
12,
6,
6,
5,
5,
2,
2,
8,
8,
16,
16,
24,
24,
21,
5,
5,
5,
2,
2,
0,
0,
7,
7,
11,
11,
10,
10,
15,
15,
16,
16,
17,
0,
2,
2,
8,
8,
12,
12,
18,
7,
8,
8,
5,
5,
6,
6,
4,
4,
6,
20,
19,
19,
11,
11,
4,
4,
0,
0,
2,
2,
0,
0,
0,
0,
0,
0,
-1,
-1,
4,
4,
1,
1,
4,
4,
11,
11,
20,
20,
11,
11,
5,
5,
2,
2,
10,
23,
22,
34,
33,
21,
21,
4,
4,
4,
6,
6,
13,
13,
16,
16,
14,
14,
20,
20,
20,
2,
4,
26,
26,
52,
51,
51,
48,
11,
12,
12,
19,
19,
27,
27,
22,
22,
21,
6,
7,
7,
2,
2,
-1,
-1,
1,
1,
2,
2,
5,
5,
9,
9,
10,
10,
3,
3,
7,
7,
0,
0,
4,
4,
5,
5,
9,
9,
6,
6,
-1,
-1,
1,
1,
1,
1,
8,
8,
6,
6,
2,
2,
9,
9,
6,
6,
4,
4,
8,
8,
11,
11,
12,
12,
3,
3,
5,
5,
14,
14,
16,
16,
19,
3,
3,
26,
25,
25,
30,
11,
11,
11,
10,
10,
17,
2,
5,
19,
18,
2,
3,
3,
0,
0,
0,
0,
1,
1,
-1,
-1,
4,
4,
6,
6,
8,
8,
6,
6,
0,
0,
3,
3,
10,
10,
14,
14,
11,
11,
6,
6,
5,
5,
5,
5,
2,
2,
-1,
-1,
6,
6,
12,
12,
10,
10,
2,
2,
6,
6,
9,
9,
1,
1,
1,
1,
3,
3,
1,
1,
8,
8,
7,
7,
0,
0,
1,
1,
1,
1,
3,
3,
0,
0,
7,
7,
15,
15,
12,
0,
2,
2,
7,
7,
3,
3,
2,
2,
1,
1,
2,
2,
0,
0,
2,
2,
0,
0,
8,
8,
8,
8,
7,
7,
2,
2,
5,
5,
9,
9,
3,
3,
6,
6,
10,
10,
6,
6,
4,
4,
6,
6,
0,
0,
5,
5,
5,
5,
-1,
15,
14,
26,
24,
8,
8,
8,
5,
5,
9,
9,
9,
9,
7,
7,
14,
14,
13,
13,
13,
13,
7,
7,
2,
2,
8,
45,
45,
66,
65,
34,
34,
4,
6,
6,
15,
0,
1,
1,
3,
3,
0,
0,
3,
22,
21,
33,
32,
32,
31,
31,
24,
24,
14,
14,
5,
5,
5,
5,
9,
9,
11,
11,
14,
14,
12,
12,
10,
10,
14,
14,
14,
14,
7,
7,
3,
3,
2,
2,
2,
2,
2,
2,
2,
2,
11,
11,
9,
9,
3,
3,
6,
6,
2,
2,
1,
1,
8,
8,
7,
7,
1,
1,
4,
4,
5,
5,
8,
8,
10,
10,
8,
8,
6,
6,
11,
11,
17,
17,
22,
22,
21,
21,
14,
0,
0,
0,
8,
8,
6,
6,
0,
0,
2,
2,
-1,
-1,
4,
4,
8,
8,
6,
6,
3,
3,
0,
0,
8,
8,
8,
8,
3,
3,
5,
5,
1,
1,
0,
0,
0,
0,
0,
0,
0,
0,
9,
9,
10,
10,
6,
6,
5,
5,
4,
4,
0,
0,
-1,
-1,
0,
0,
1,
1,
0,
0,
0,
0,
2,
2,
-1,
10,
9,
9,
14,
14,
5,
5,
12,
35,
34,
34,
34,
16,
17,
0,
2,
13,
13,
13,
13,
13,
13,
13,
13,
13,
14,
2,
2,
13,
13,
13,
12,
-1,
0,
0,
0,
0,
2,
2,
4,
4,
0,
0,
4,
4,
5,
5,
6,
6,
8,
8,
6,
6,
0,
0,
3,
3,
3,
3,
-1,
-1,
8,
8,
11,
11,
2,
2,
2,
2,
12,
12,
12,
12,
11,
11,
3,
3,
2,
2,
3,
3,
-1,
-1,
8,
8,
1,
1,
9,
9,
16,
16,
6,
6,
10,
10,
4,
4,
7,
7,
5,
5,
3,
3,
10,
10,
9,
9,
7,
7,
9,
9,
4,
4,
2,
2,
6,
6,
9,
9,
5,
5,
0,
0,
3,
3,
6,
6,
0,
0,
2,
2,
3,
3,
7,
7,
4,
4,
10,
10,
8,
8,
0,
0,
-1,
-1,
3,
3,
-1,
-1,
2,
2,
1,
1,
4,
4,
3,
3,
6,
6,
9,
9,
0,
0,
8,
8,
8,
8,
0,
0,
2,
2,
4,
16,
15,
15,
12,
12,
5,
5,
0,
0,
2,
2,
-1,
-1,
2,
2,
1,
1,
4,
4,
0,
0,
0,
0,
3,
3,
1,
1,
2,
2,
5,
5,
-1,
-1,
-1,
-1,
2,
2,
8,
8,
7,
7,
10,
10,
6,
6,
2,
2,
4,
4,
7,
7,
6,
6,
0,
0,
2,
2,
4,
4,
5,
5,
6,
6,
5,
5,
8,
8,
0,
0,
-1,
-1,
4,
4,
-1,
-1,
1,
1,
5,
18,
17,
17,
25,
25,
20,
20,
13,
1,
6,
24,
22,
22,
17,
17,
8,
8,
2,
2,
8,
20,
20,
20,
16,
16,
9,
9,
5,
5,
1,
16,
15,
29,
28,
28,
19,
3,
3,
22,
21,
32,
31,
19,
20,
1,
2,
2,
6,
6,
10,
10,
12,
12,
11,
11,
9,
9,
5,
5,
0,
0,
7,
7,
7,
7,
6,
6,
7,
7,
6,
6,
2,
2,
0,
0,
3,
3,
0,
13,
12,
12,
18,
18,
16,
16,
9,
9,
1,
1,
6,
6,
11,
11,
14,
1,
4,
4,
11,
11,
3,
3,
1,
1,
3,
3,
7,
7,
8,
8,
4,
4,
1,
1,
0,
0,
3,
3,
4,
4,
4,
4,
3,
3,
2,
2,
3,
3,
0,
0,
3,
3,
3,
3,
9,
9,
11,
0,
1,
1,
6,
26,
25,
54,
54,
54,
47,
6,
7,
7,
14,
14,
10,
10,
10,
10,
17,
17,
26,
26,
26,
15,
15,
3,
4,
4,
3,
3,
4,
4,
0,
0,
0,
0,
4,
4,
3,
3,
6,
6,
15,
15,
18,
18,
10,
10,
3,
3,
4,
4,
1,
1,
4,
4,
7,
7,
5,
5,
0,
0,
2,
2,
2,
2,
9,
9,
13,
13,
10,
10,
5,
5,
7,
7,
13,
13,
9,
9,
7,
7,
1,
1,
10,
10,
8,
8,
10,
22,
21,
21,
20,
5,
6,
6,
2,
2,
8,
8,
10,
10,
5,
5,
2,
2,
0,
0,
6,
6,
8,
8,
6,
6,
1,
1,
0,
0,
3,
3,
0,
0,
7,
7,
11,
11,
14,
14,
10,
10,
7,
7,
3,
3,
3,
3,
11,
11,
10,
-1,
2,
2,
11,
11,
19,
19,
22,
10,
10,
10,
4,
18,
17,
17,
22,
22,
22,
22,
14,
14,
10,
10,
0,
0,
6,
6,
30,
30,
29,
29,
21,
3,
7,
7,
5,
5,
10,
21,
20,
20,
18,
0,
2,
2,
10,
10,
12,
0,
1,
1,
8,
8,
1,
1,
2,
2,
-1,
-1,
6,
6,
12,
12,
3,
3,
2,
2,
6,
6,
0,
0,
7,
7,
5,
5,
2,
2,
8,
8,
13,
13,
10,
10,
7,
7,
7,
7,
4,
4,
-1,
-1,
1,
1,
2,
2,
-1,
-1,
1,
1,
0,
0,
1,
1,
3,
3,
6,
6,
3,
3,
-1,
-1,
4,
4,
6,
6,
3,
3,
3,
18,
18,
29,
28,
16,
16,
3,
4,
4,
-1,
-1,
0,
0,
5,
5,
13,
13,
16,
16,
17,
17,
14,
14,
8,
8,
2,
2,
2,
2,
8,
8,
11,
11,
14,
14,
8,
8,
0,
0,
-1,
-1,
7,
7,
13,
13,
12,
12,
8,
8,
6,
6,
3,
3,
11,
11,
8,
8,
6,
6,
0,
0,
3,
3,
1,
1,
4,
4,
6,
6,
3,
3,
-1,
-1,
3,
3,
0,
0,
2,
15,
14,
14,
5,
5,
8,
8,
16,
16,
10,
10,
9,
9,
7,
7,
4,
4,
11,
11,
12,
12,
11,
-1,
1,
15,
14,
14,
16,
16,
6,
6,
0,
0,
3,
3,
2,
2,
1,
1,
0,
0,
0,
0,
-1,
-1,
4,
4,
5,
5,
3,
3,
5,
5,
10,
10,
14,
14,
6,
6,
0,
0,
2,
2,
3,
3,
4,
4,
0,
0,
7,
7,
5,
5,
1,
1,
0,
0,
4,
4,
4,
4,
14,
14,
13,
13,
13,
13,
10,
10,
13,
32,
32,
32,
41,
27,
27,
6,
6,
6,
8,
8,
15,
15,
19,
19,
20,
20,
12,
12,
8,
8,
5,
5,
-1,
-1,
1,
1,
2,
2,
3,
3,
10,
10,
10,
10,
6,
6,
5,
5,
5,
5,
4,
4,
3,
3,
6,
6,
8,
8,
5,
5,
5,
5,
5,
18,
17,
17,
23,
23,
30,
6,
10,
46,
46,
46,
43,
15,
16,
2,
7,
7,
12,
12,
14,
14,
12,
12,
8,
8,
7,
7,
4,
4,
0,
0,
0,
0,
5,
5,
9,
9,
7,
7,
2,
2,
4,
4,
4,
4,
2,
2,
6,
6,
4,
4,
0,
0,
2,
2,
0,
0,
1,
1,
3,
3,
4,
4,
5,
5,
2,
2,
-1,
-1,
0,
0,
2,
2,
3,
3,
2,
2,
2,
2,
7,
7,
3,
3,
7,
7,
6,
6,
-1,
-1,
5,
21,
21,
21,
25,
25,
18,
2,
5,
16,
15,
15,
16,
16,
15,
15,
15,
15,
7,
7,
-1,
-1,
3,
3,
6,
6,
5,
5,
3,
3,
5,
5,
8,
8,
9,
9,
5,
5,
3,
3,
3,
3,
-1,
-1,
0,
0,
-1,
-1,
2,
2,
2,
2,
-1,
-1,
2,
2,
-1,
-1,
3,
3,
2,
2,
6,
6,
14,
14,
16,
5,
5,
5,
5,
5,
6,
6,
3,
3,
5,
5,
5,
5,
8,
8,
5,
5,
-1,
-1,
2,
2,
6,
6,
6,
6,
7,
7,
2,
2,
1,
1,
-1,
-1,
3,
3,
6,
6,
4,
4,
6,
6,
0,
0,
3,
3,
0,
0,
0,
21,
21,
40,
39,
39,
34,
6,
7,
7,
13,
13,
20,
20,
21,
21,
21,
21,
18,
18,
12,
12,
18,
2,
3,
24,
23,
37,
35,
35,
30,
9,
9,
9,
4,
4,
14,
14,
17,
17,
14,
14,
7,
7,
3,
17,
17,
17,
14,
14,
5,
5,
2,
2,
7,
7,
2,
18,
17,
17,
15,
15,
11,
11,
5,
5,
0,
0,
6,
6,
12,
12,
14,
14,
13,
13,
16,
16,
15,
15,
7,
7,
3,
19,
18,
18,
27,
27,
11,
11,
12,
12,
2,
2,
0,
0,
2,
2,
2,
2,
11,
11,
12,
12,
14,
14,
7,
7,
6,
6,
1,
1,
9,
31,
30,
30,
32,
10,
10,
10,
4,
4,
11,
11,
14,
14,
22,
11,
11,
-1,
0,
0,
2,
2,
5,
5,
3,
3,
7,
7,
6,
6,
2,
2,
1,
1,
9,
9,
6,
6,
5,
5,
2,
18,
17,
17,
23,
23,
14,
2,
2,
2,
2,
2,
6,
6,
6,
6,
5,
5,
4,
4,
2,
2,
1,
1,
7,
7,
7,
7,
1,
1,
-1,
-1,
1,
1,
-1,
-1,
-1,
-1,
-1,
-1,
-1,
-1,
1,
1,
3,
3,
1,
1,
5,
5,
8,
8,
7,
7,
11,
32,
30,
30,
26,
11,
12,
12,
9,
9,
0,
11,
11,
11,
16,
16,
8,
8,
11,
11,
14,
14,
9,
9,
4,
4,
6,
6,
5,
5,
1,
1,
8,
8,
7,
7,
10,
10,
10,
10,
6,
6,
2,
2,
0,
0,
0,
0,
2,
2,
2,
2,
1,
1,
3,
3,
4,
4,
6,
6,
1,
1,
2,
2,
2,
2,
10,
10,
11,
-1,
0,
0,
-1,
-1,
0,
0,
7,
7,
14,
2,
11,
34,
34,
34,
26,
7,
7,
7,
7,
7,
14,
14,
19,
19,
16,
16,
14,
14,
8,
8,
0,
0,
4,
4,
5,
5,
9,
9,
6,
6,
8,
19,
18,
18,
15,
15,
11,
11,
4,
4,
9,
9,
9,
9,
6,
6,
3,
3,
1,
1,
7,
7,
3,
3,
11,
11,
14,
14,
6,
6,
6,
6,
15,
15,
6,
6,
11,
11,
18,
18,
18,
18,
9,
9,
0,
0,
2,
2,
8,
8,
13,
13,
12,
12,
8,
8,
4,
4,
1,
1,
8,
8,
8,
8,
3,
3,
0,
0,
3,
3,
4,
4,
0,
12,
12,
12,
18,
18,
11,
11,
11,
11,
4,
4,
6,
6,
5,
5,
2,
2,
-1,
-1,
7,
7,
10,
10,
6,
6,
2,
2,
7,
7,
7,
7,
5,
5,
4,
4,
5,
5,
7,
7,
11,
11,
14,
3,
4,
4,
1,
25,
24,
24,
28,
28,
22,
22,
16,
16,
10,
-1,
2,
2,
10,
10,
12,
0,
0,
0,
9,
9,
11,
0,
1,
1,
11,
11,
20,
20,
26,
6,
6,
6,
14,
14,
15,
15,
9,
9,
8,
8,
13,
13,
15,
15,
6,
6,
6,
6,
14,
14,
13,
13,
6,
6,
5,
5,
5,
5,
0,
0,
5,
5,
8,
8,
11,
11,
11,
11,
8,
8,
4,
4,
-1,
-1,
1,
1,
3,
3,
0,
0,
3,
3,
8,
8,
5,
5,
11,
11,
20,
20,
22,
8,
9,
9,
3,
3,
2,
2,
6,
6,
13,
13,
11,
11,
8,
8,
8,
8,
11,
11,
3,
3,
3,
3,
7,
7,
9,
9,
8,
8,
11,
11,
18,
18,
15,
1,
3,
20,
20,
20,
19,
19,
15,
2,
3,
23,
22,
22,
27,
15,
16,
5,
5,
5,
4,
4,
14,
14,
14,
14,
9,
9,
3,
3,
5,
5,
11,
11,
13,
13,
5,
5,
2,
2,
-1,
-1,
6,
6,
8,
8,
1,
1,
2,
2,
5,
5,
5,
5,
5,
5,
3,
3,
0,
0,
1,
1,
0,
0,
0,
0,
0,
0,
0,
0,
3,
3,
0,
0,
2,
2,
4,
15,
14,
26,
25,
8,
9,
9,
9,
9,
2,
2,
5,
5,
3,
3,
-1,
-1,
2,
2,
6,
6,
6,
6,
8,
8,
7,
7,
-1,
-1,
1,
1,
4,
4,
0,
0,
5,
5,
8,
8,
0,
0,
9,
9,
14,
14,
11,
11,
2,
2,
0,
0,
0,
0,
7,
7,
8,
8,
8,
8,
8,
8,
2,
2,
1,
1,
4,
4,
5,
5,
6,
6,
6,
6,
6,
6,
2,
2,
0,
0,
0,
0,
3,
3,
7,
7,
4,
4,
0,
0,
0,
0,
0,
0,
3,
3,
2,
2,
2,
2,
5,
5,
3,
3,
0,
0,
-1,
-1,
2,
2,
2,
2,
0,
12,
11,
11,
11,
11,
3,
3,
2,
2,
4,
4,
7,
7,
14,
14,
11,
0,
6,
20,
19,
19,
16,
16,
12,
12,
7,
7,
0,
0,
6,
6,
10,
10,
8,
8,
11,
11,
15,
15,
7,
7,
1,
1,
8,
8,
14,
14,
15,
15,
12,
12,
6,
6,
0,
0,
5,
5,
9,
9,
9,
9,
1,
1,
0,
0,
-1,
-1,
3,
14,
13,
32,
32,
32,
32,
14,
14,
0,
3,
14,
13,
24,
24,
24,
16,
1,
2,
2,
4,
4,
11,
11,
12,
12,
7,
7,
5,
5,
13,
13,
3,
3,
-1,
-1,
-1,
-1,
-1,
-1,
7,
7,
8,
8,
6,
6,
7,
7,
10,
10,
14,
14,
13,
13,
7,
7,
0,
0,
3,
3,
2,
2,
7,
7,
13,
13,
14,
14,
16,
0,
3,
14,
13,
13,
12,
0,
3,
3,
2,
2,
-1,
-1,
8,
8,
5,
5,
4,
4,
7,
7,
10,
10,
2,
14,
14,
14,
24,
24,
19,
19,
12,
12,
3,
3,
3,
3,
7,
7,
6,
6,
6,
6,
6,
6,
3,
3,
3,
3,
5,
5,
1,
1,
2,
2,
1,
1,
0,
0,
6,
6,
3,
3,
1,
1,
2,
2,
8,
8,
11,
11,
8,
8,
0,
0,
-1,
-1,
-1,
-1,
0,
0,
-1,
-1,
1,
1,
2,
2,
0,
0,
9,
9,
13,
13,
3,
3,
2,
2,
6,
6,
5,
5,
9,
24,
23,
23,
14,
3,
3,
3,
3,
3,
5,
5,
9,
9,
10,
10,
4,
4,
2,
2,
7,
7,
14,
14,
20,
20,
18,
18,
10,
-1,
1,
1,
7,
7,
11,
11,
20,
20,
20,
5,
6,
6,
4,
4,
3,
3,
3,
3,
4,
4,
0,
0,
4,
4,
5,
5,
5,
5,
0,
0,
4,
4,
12,
12,
8,
8,
8,
8,
8,
8,
3,
3,
9,
9,
8,
8,
1,
1,
2,
2,
5,
5,
8,
8,
5,
5,
1,
15,
15,
15,
15,
15,
18,
4,
5,
5,
4,
4,
2,
2,
6,
6,
2,
2,
3,
3,
6,
6,
0,
0,
-1,
-1,
0,
0,
0,
11,
10,
10,
10,
10,
1,
1,
-1,
-1,
-1,
-1,
4,
4,
7,
7,
6,
6,
6,
6,
2,
2,
3,
3,
6,
6,
4,
4,
-1,
-1,
-1,
-1,
1,
1,
4,
4,
-1,
-1,
2,
2,
7,
7,
12,
12,
7,
7,
0,
0,
1,
1,
7,
7,
14,
3,
3,
22,
21,
32,
31,
31,
23,
0,
2,
2,
6,
6,
7,
7,
9,
9,
11,
11,
10,
10,
5,
5,
3,
3,
-1,
-1,
0,
0,
-1,
-1,
4,
4,
5,
5,
0,
0,
3,
14,
13,
13,
13,
13,
10,
10,
8,
8,
3,
3,
5,
5,
2,
2,
0,
0,
-1,
-1,
2,
2,
8,
8,
0,
0,
2,
2,
2,
2,
0,
0,
3,
3,
4,
4,
3,
3,
2,
17,
16,
16,
16,
1,
1,
1,
3,
3,
4,
4,
10,
10,
6,
6,
2,
2,
0,
0,
0,
0,
7,
7,
8,
8,
1,
1,
-1,
-1,
4,
4,
0,
0,
0,
0,
2,
2,
2,
2,
8,
8,
3,
3,
3,
3,
6,
6,
2,
2,
0,
0,
4,
4,
4,
4,
5,
5,
7,
7,
9,
9,
3,
3,
2,
2,
5,
5,
