EMG_S1/DS0153.CSV

Memory Length,4000,
Trigger Level,0.00000e+00,
Source,CH1,
Probe,1.0X,
Vertical Units,V,
Vertical Scale,1.00000e+00,
Vertical Position,4.00000e-02,
Horizontal Units,S,
Horizontal Scale,1.00000e-01,
Horizontal Position,0.0000000e+00,
Horizontal Mode,Roll Mode,
Waveform Last Dot Address,4000,
Sampling Period,4.00000e-04,
Firmware,V1.14,
Time, ,
Mode,Fast,
Waveform Data,
2,
2,
11,
11,
11,
11,
6,
6,
0,
0,
1,
1,
1,
1,
5,
5,
2,
2,
2,
2,
5,
16,
16,
16,
10,
10,
4,
4,
1,
1,
5,
5,
1,
1,
3,
3,
5,
5,
2,
2,
7,
7,
6,
6,
-1,
-1,
1,
1,
0,
0,
6,
6,
6,
6,
3,
3,
11,
11,
11,
11,
10,
10,
1,
1,
9,
9,
12,
12,
11,
0,
5,
23,
23,
10,
10,
10,
3,
3,
0,
0,
-1,
-1,
0,
14,
13,
13,
9,
20,
19,
31,
30,
6,
6,
20,
20,
20,
25,
25,
28,
28,
26,
13,
13,
2,
8,
8,
8,
8,
13,
26,
25,
5,
6,
6,
6,
6,
11,
11,
6,
6,
6,
6,
16,
16,
18,
18,
10,
10,
3,
3,
0,
0,
3,
3,
6,
6,
14,
14,
10,
10,
3,
3,
7,
7,
3,
3,
2,
2,
5,
5,
5,
5,
0,
0,
7,
7,
6,
6,
4,
4,
14,
14,
11,
0,
3,
20,
20,
6,
6,
6,
3,
3,
3,
3,
0,
0,
4,
4,
-1,
-1,
2,
14,
12,
12,
10,
10,
3,
3,
0,
0,
8,
8,
7,
7,
6,
6,
12,
12,
10,
10,
13,
13,
8,
8,
11,
11,
14,
1,
5,
17,
16,
27,
27,
42,
41,
30,
32,
10,
10,
10,
10,
23,
22,
11,
11,
-1,
0,
0,
3,
3,
9,
9,
10,
10,
8,
8,
4,
4,
2,
2,
4,
4,
5,
5,
11,
11,
11,
11,
11,
11,
15,
15,
14,
2,
3,
3,
7,
7,
10,
10,
7,
7,
8,
8,
11,
11,
14,
14,
10,
10,
6,
6,
8,
8,
15,
30,
30,
30,
24,
24,
28,
28,
34,
13,
13,
13,
12,
26,
24,
24,
18,
18,
10,
10,
6,
6,
3,
3,
2,
2,
10,
10,
14,
14,
6,
6,
-1,
-1,
9,
9,
9,
9,
6,
6,
0,
13,
12,
25,
24,
13,
14,
14,
7,
7,
4,
4,
4,
4,
6,
6,
4,
4,
10,
10,
16,
16,
16,
16,
9,
9,
6,
6,
6,
6,
2,
15,
15,
26,
25,
25,
15,
0,
3,
3,
7,
7,
5,
5,
3,
3,
11,
11,
9,
9,
0,
0,
4,
4,
6,
6,
5,
5,
0,
0,
5,
5,
4,
4,
4,
4,
-1,
-1,
7,
18,
18,
18,
11,
0,
3,
3,
8,
8,
13,
13,
16,
16,
8,
8,
-1,
-1,
6,
18,
16,
16,
15,
15,
16,
16,
9,
9,
0,
16,
15,
15,
21,
10,
11,
-1,
1,
1,
3,
3,
9,
23,
22,
22,
19,
5,
5,
5,
4,
4,
7,
7,
8,
8,
5,
5,
9,
9,
15,
15,
8,
8,
3,
14,
12,
12,
13,
13,
18,
18,
23,
23,
20,
5,
5,
5,
5,
5,
12,
12,
19,
19,
20,
20,
17,
3,
3,
3,
8,
8,
8,
8,
7,
7,
7,
7,
6,
6,
8,
8,
8,
8,
10,
10,
14,
1,
2,
13,
12,
12,
7,
7,
7,
7,
7,
7,
0,
0,
4,
4,
6,
6,
4,
4,
4,
4,
1,
1,
2,
2,
2,
2,
3,
3,
-1,
-1,
3,
3,
5,
5,
0,
0,
7,
7,
8,
8,
10,
10,
4,
4,
7,
7,
8,
8,
14,
2,
3,
23,
22,
22,
20,
2,
3,
3,
4,
4,
7,
7,
7,
7,
1,
1,
5,
5,
6,
6,
9,
9,
4,
4,
3,
3,
8,
8,
0,
0,
0,
0,
2,
2,
1,
1,
7,
7,
5,
5,
3,
3,
6,
6,
7,
20,
19,
19,
15,
2,
2,
2,
3,
3,
5,
5,
3,
3,
2,
2,
0,
0,
7,
7,
8,
8,
6,
6,
3,
3,
2,
2,
3,
3,
0,
0,
0,
0,
1,
1,
3,
14,
12,
12,
11,
11,
7,
7,
0,
0,
0,
0,
5,
5,
3,
3,
-1,
-1,
0,
0,
6,
6,
4,
4,
9,
9,
16,
4,
4,
4,
6,
6,
10,
10,
5,
5,
6,
6,
6,
6,
3,
3,
-1,
-1,
3,
3,
2,
2,
1,
12,
12,
24,
23,
23,
15,
2,
3,
3,
3,
3,
5,
5,
5,
5,
6,
6,
4,
4,
3,
3,
2,
2,
0,
0,
2,
2,
9,
9,
8,
8,
4,
4,
6,
6,
3,
3,
6,
6,
12,
12,
8,
8,
0,
0,
2,
2,
-1,
-1,
-1,
-1,
8,
21,
20,
20,
25,
14,
15,
2,
8,
19,
18,
18,
19,
19,
10,
-1,
0,
0,
0,
0,
0,
0,
2,
2,
-1,
-1,
7,
7,
13,
13,
8,
8,
15,
15,
18,
0,
2,
2,
2,
16,
16,
16,
14,
14,
8,
8,
11,
11,
9,
9,
1,
14,
13,
13,
15,
2,
2,
2,
1,
1,
4,
4,
0,
14,
14,
14,
15,
2,
2,
2,
0,
12,
12,
12,
18,
18,
13,
2,
3,
3,
1,
1,
6,
6,
6,
6,
2,
2,
6,
6,
6,
6,
10,
10,
8,
8,
2,
2,
0,
0,
-1,
-1,
2,
2,
7,
7,
10,
10,
11,
11,
10,
10,
10,
10,
0,
0,
2,
2,
-1,
-1,
0,
0,
4,
4,
0,
0,
5,
5,
8,
8,
-1,
-1,
1,
1,
2,
2,
3,
3,
3,
3,
13,
13,
9,
9,
2,
2,
5,
5,
5,
5,
0,
0,
0,
0,
2,
2,
1,
1,
2,
2,
10,
23,
23,
23,
30,
10,
10,
10,
8,
8,
7,
7,
3,
3,
0,
0,
2,
13,
12,
12,
17,
17,
16,
16,
8,
8,
2,
2,
4,
4,
5,
5,
12,
12,
12,
12,
11,
11,
14,
14,
5,
5,
3,
3,
11,
11,
10,
10,
1,
1,
6,
6,
3,
3,
0,
0,
3,
14,
13,
13,
20,
20,
24,
8,
9,
9,
6,
6,
1,
1,
8,
8,
0,
0,
5,
5,
1,
1,
9,
9,
14,
14,
9,
9,
0,
0,
6,
6,
13,
13,
8,
8,
3,
3,
7,
18,
16,
16,
8,
8,
2,
2,
0,
0,
4,
18,
17,
17,
22,
22,
13,
2,
2,
2,
-1,
-1,
-1,
-1,
2,
2,
1,
1,
4,
4,
8,
8,
11,
11,
4,
4,
0,
0,
3,
3,
2,
2,
0,
0,
0,
0,
0,
0,
0,
0,
1,
1,
1,
1,
0,
11,
10,
10,
6,
6,
4,
4,
2,
2,
-1,
-1,
0,
11,
11,
11,
12,
12,
7,
7,
4,
4,
3,
3,
4,
4,
4,
4,
5,
5,
0,
0,
2,
2,
11,
11,
13,
13,
7,
7,
1,
1,
10,
10,
15,
15,
10,
10,
10,
10,
7,
7,
10,
21,
19,
6,
6,
6,
9,
9,
14,
14,
9,
9,
0,
0,
6,
6,
8,
8,
8,
8,
4,
4,
4,
4,
2,
2,
11,
11,
18,
6,
7,
7,
0,
0,
0,
0,
1,
1,
2,
2,
4,
4,
8,
8,
5,
5,
0,
0,
3,
3,
3,
3,
3,
3,
7,
7,
7,
7,
8,
8,
4,
4,
1,
1,
5,
5,
6,
6,
-1,
-1,
4,
4,
8,
8,
2,
2,
6,
6,
2,
2,
5,
5,
6,
6,
13,
13,
14,
14,
12,
1,
6,
6,
9,
9,
0,
0,
-2,
-2,
2,
2,
1,
1,
0,
0,
3,
3,
1,
1,
1,
1,
4,
4,
8,
8,
0,
0,
5,
5,
7,
7,
3,
3,
-1,
-1,
0,
0,
0,
0,
3,
3,
3,
3,
9,
9,
11,
11,
2,
2,
4,
4,
3,
3,
0,
0,
3,
3,
4,
4,
6,
6,
12,
0,
0,
0,
2,
2,
0,
0,
3,
14,
12,
12,
14,
14,
5,
17,
15,
15,
16,
16,
8,
8,
3,
3,
7,
7,
14,
14,
18,
18,
14,
14,
10,
10,
8,
8,
0,
0,
1,
1,
0,
0,
0,
0,
1,
1,
2,
2,
3,
3,
10,
10,
10,
10,
15,
15,
13,
13,
11,
11,
10,
10,
2,
2,
2,
2,
-1,
-1,
3,
3,
6,
6,
7,
7,
7,
7,
3,
3,
-1,
-1,
1,
1,
4,
4,
0,
0,
2,
2,
8,
8,
3,
3,
2,
2,
3,
3,
2,
2,
1,
1,
1,
1,
0,
0,
-1,
-1,
2,
2,
8,
8,
16,
16,
12,
1,
6,
6,
14,
14,
7,
7,
7,
7,
7,
7,
2,
2,
2,
15,
14,
14,
19,
7,
8,
8,
3,
3,
2,
2,
1,
17,
16,
16,
23,
3,
3,
22,
21,
21,
18,
18,
10,
10,
0,
0,
5,
5,
8,
8,
1,
13,
11,
11,
16,
4,
4,
4,
2,
2,
-1,
-1,
0,
0,
3,
3,
2,
2,
3,
3,
6,
6,
5,
5,
4,
4,
9,
9,
8,
8,
2,
2,
11,
11,
5,
5,
14,
14,
11,
0,
4,
4,
7,
7,
3,
3,
1,
1,
4,
4,
7,
7,
1,
13,
12,
12,
15,
3,
4,
4,
5,
5,
3,
3,
0,
0,
6,
6,
2,
2,
0,
0,
6,
6,
0,
0,
4,
4,
5,
5,
4,
4,
0,
0,
2,
2,
0,
0,
3,
3,
2,
2,
3,
3,
3,
3,
1,
1,
9,
9,
7,
7,
12,
12,
8,
8,
-1,
-1,
0,
0,
4,
4,
1,
1,
2,
2,
0,
0,
6,
6,
7,
7,
5,
5,
7,
7,
4,
4,
0,
0,
0,
0,
-1,
-1,
-1,
-1,
2,
2,
3,
3,
1,
13,
12,
12,
19,
19,
18,
7,
7,
7,
1,
1,
2,
2,
-1,
-1,
3,
3,
1,
1,
4,
4,
8,
8,
4,
4,
1,
1,
3,
3,
5,
5,
0,
0,
4,
4,
4,
4,
4,
4,
0,
0,
0,
0,
0,
0,
2,
2,
2,
2,
1,
1,
2,
16,
15,
30,
28,
28,
21,
7,
8,
8,
2,
2,
5,
5,
6,
6,
7,
7,
0,
0,
6,
6,
1,
1,
10,
10,
13,
13,
11,
11,
12,
12,
5,
5,
2,
2,
-1,
-1,
1,
1,
1,
1,
8,
8,
15,
15,
9,
9,
0,
0,
-1,
-1,
5,
5,
7,
7,
11,
11,
7,
7,
9,
20,
20,
20,
21,
8,
8,
8,
8,
24,
23,
23,
24,
24,
14,
14,
5,
5,
3,
3,
-1,
-1,
-1,
-1,
0,
11,
11,
11,
10,
10,
2,
2,
-1,
-1,
2,
2,
1,
1,
0,
0,
3,
3,
3,
3,
2,
2,
0,
15,
14,
25,
24,
24,
17,
17,
8,
8,
5,
5,
4,
4,
10,
10,
7,
7,
4,
4,
3,
3,
1,
1,
3,
3,
0,
0,
0,
0,
0,
0,
4,
4,
7,
7,
13,
13,
8,
8,
2,
2,
11,
11,
4,
4,
0,
0,
6,
6,
10,
10,
8,
8,
0,
0,
6,
6,
9,
9,
12,
12,
14,
14,
10,
10,
3,
3,
-1,
-1,
0,
0,
5,
5,
2,
2,
0,
0,
1,
1,
8,
8,
8,
8,
0,
0,
1,
1,
6,
6,
6,
6,
0,
0,
6,
6,
4,
4,
11,
25,
25,
25,
18,
5,
5,
5,
3,
3,
6,
6,
10,
10,
15,
15,
10,
10,
3,
3,
0,
0,
8,
8,
13,
13,
10,
10,
3,
3,
0,
0,
-1,
-1,
-1,
-1,
5,
5,
6,
6,
5,
5,
3,
3,
8,
8,
10,
10,
10,
10,
8,
29,
28,
28,
35,
35,
27,
13,
13,
-1,
0,
0,
6,
6,
9,
9,
4,
4,
0,
0,
2,
2,
8,
8,
14,
14,
14,
14,
12,
12,
6,
6,
5,
5,
8,
8,
4,
4,
3,
3,
9,
9,
6,
6,
2,
2,
0,
0,
0,
0,
3,
3,
4,
4,
0,
0,
2,
15,
14,
14,
20,
2,
2,
2,
-1,
-1,
3,
3,
3,
3,
8,
8,
10,
10,
6,
6,
5,
5,
4,
4,
2,
2,
0,
0,
2,
2,
3,
3,
11,
11,
14,
14,
15,
15,
5,
5,
5,
5,
5,
5,
0,
0,
-1,
-1,
-1,
-1,
2,
2,
7,
7,
4,
4,
8,
20,
19,
19,
17,
4,
5,
5,
4,
4,
10,
10,
13,
13,
7,
7,
2,
2,
0,
0,
5,
5,
11,
11,
7,
7,
2,
15,
15,
15,
24,
5,
6,
6,
15,
15,
18,
18,
15,
15,
11,
11,
6,
6,
1,
1,
-1,
-1,
2,
2,
1,
1,
1,
1,
2,
2,
11,
11,
18,
5,
5,
5,
14,
14,
21,
21,
14,
14,
9,
9,
10,
10,
6,
6,
3,
3,
4,
4,
0,
11,
11,
11,
20,
20,
20,
20,
16,
5,
6,
6,
5,
5,
10,
10,
10,
10,
7,
7,
0,
0,
3,
3,
9,
9,
8,
8,
3,
3,
2,
2,
5,
5,
1,
1,
0,
0,
0,
0,
7,
7,
13,
13,
8,
8,
1,
1,
8,
8,
12,
12,
14,
2,
3,
3,
8,
8,
14,
14,
14,
14,
12,
12,
6,
6,
0,
0,
2,
2,
6,
20,
19,
6,
7,
7,
4,
4,
4,
4,
6,
6,
9,
9,
3,
3,
-1,
-1,
-1,
11,
10,
10,
2,
2,
0,
0,
0,
0,
-1,
-1,
7,
26,
26,
26,
33,
11,
13,
2,
7,
20,
20,
20,
19,
19,
16,
16,
8,
8,
2,
2,
2,
2,
1,
1,
1,
1,
0,
0,
2,
2,
4,
4,
5,
5,
6,
6,
12,
12,
16,
29,
28,
28,
27,
6,
7,
7,
15,
15,
21,
21,
17,
17,
8,
8,
11,
11,
16,
16,
8,
8,
2,
2,
2,
2,
1,
1,
4,
4,
0,
0,
8,
8,
2,
2,
9,
9,
16,
16,
10,
10,
8,
8,
10,
10,
0,
0,
7,
7,
12,
12,
14,
14,
13,
13,
8,
8,
0,
11,
11,
22,
21,
21,
17,
5,
6,
6,
0,
0,
5,
5,
3,
3,
7,
7,
11,
11,
17,
17,
23,
23,
15,
15,
9,
9,
0,
0,
4,
4,
7,
7,
14,
14,
5,
5,
2,
2,
2,
2,
-1,
13,
13,
13,
14,
14,
5,
5,
7,
7,
2,
2,
7,
7,
9,
9,
14,
14,
10,
10,
1,
1,
7,
7,
10,
10,
7,
7,
7,
7,
10,
10,
8,
8,
0,
0,
0,
0,
5,
5,
7,
7,
1,
1,
7,
7,
0,
12,
12,
12,
10,
10,
5,
5,
9,
9,
17,
17,
15,
0,
2,
2,
6,
6,
6,
6,
3,
3,
10,
10,
19,
19,
18,
18,
18,
18,
15,
15,
12,
0,
5,
17,
16,
16,
17,
17,
14,
14,
11,
11,
12,
12,
7,
7,
5,
5,
0,
0,
1,
1,
0,
0,
9,
23,
22,
22,
26,
14,
14,
0,
3,
3,
12,
12,
13,
13,
4,
19,
18,
18,
23,
2,
3,
3,
7,
7,
1,
1,
2,
2,
3,
3,
-1,
-1,
3,
3,
5,
5,
6,
6,
10,
10,
7,
7,
3,
3,
-1,
-1,
1,
1,
-1,
-1,
0,
0,
1,
1,
5,
5,
5,
5,
4,
4,
6,
6,
5,
5,
4,
4,
12,
12,
17,
17,
13,
13,
6,
6,
0,
11,
10,
10,
6,
6,
3,
3,
6,
6,
7,
7,
8,
8,
7,
7,
0,
0,
0,
0,
3,
3,
2,
2,
10,
10,
4,
4,
3,
3,
5,
5,
6,
6,
7,
7,
2,
2,
10,
10,
12,
1,
2,
26,
26,
41,
40,
17,
17,
1,
4,
4,
14,
14,
13,
13,
10,
10,
2,
2,
1,
1,
5,
5,
10,
10,
8,
8,
1,
1,
4,
4,
4,
4,
1,
1,
0,
0,
0,
0,
8,
8,
15,
15,
17,
17,
16,
16,
13,
13,
7,
7,
5,
5,
14,
14,
18,
18,
14,
14,
5,
5,
0,
0,
0,
0,
3,
3,
0,
0,
1,
14,
13,
13,
8,
8,
1,
1,
2,
2,
4,
4,
4,
4,
9,
9,
3,
3,
0,
0,
6,
6,
11,
11,
6,
6,
1,
1,
9,
9,
15,
15,
16,
5,
6,
6,
2,
2,
5,
5,
6,
6,
8,
8,
12,
12,
6,
6,
0,
0,
3,
3,
3,
3,
0,
0,
3,
3,
1,
1,
1,
1,
2,
2,
-1,
-1,
1,
1,
-1,
-1,
0,
0,
5,
5,
3,
3,
9,
9,
0,
0,
3,
3,
2,
2,
11,
11,
10,
10,
2,
21,
20,
20,
16,
-1,
0,
0,
-1,
-1,
3,
3,
10,
10,
18,
18,
20,
20,
20,
9,
9,
9,
0,
0,
7,
7,
13,
13,
16,
16,
18,
18,
19,
19,
18,
7,
7,
7,
9,
9,
16,
16,
16,
16,
15,
15,
16,
16,
11,
0,
1,
1,
2,
2,
3,
3,
7,
7,
11,
11,
6,
6,
0,
14,
13,
13,
22,
22,
24,
24,
32,
15,
15,
2,
8,
20,
20,
20,
17,
17,
15,
15,
18,
18,
23,
23,
22,
11,
12,
-1,
2,
2,
2,
2,
3,
3,
11,
11,
19,
31,
30,
30,
26,
26,
18,
18,
9,
9,
14,
14,
12,
1,
7,
7,
13,
-1,
1,
1,
4,
17,
16,
29,
29,
29,
19,
4,
4,
4,
1,
1,
9,
9,
1,
14,
13,
13,
11,
0,
6,
32,
31,
47,
46,
46,
45,
17,
17,
3,
13,
13,
22,
22,
22,
22,
20,
8,
8,
8,
0,
0,
4,
4,
3,
3,
3,
3,
10,
10,
5,
5,
2,
2,
5,
16,
16,
16,
21,
21,
11,
11,
7,
7,
11,
11,
8,
8,
8,
20,
19,
8,
9,
9,
3,
3,
4,
4,
0,
0,
5,
5,
13,
13,
14,
14,
14,
14,
6,
6,
9,
9,
18,
18,
19,
19,
13,
13,
6,
6,
4,
4,
11,
11,
8,
8,
3,
3,
8,
8,
10,
10,
12,
12,
11,
11,
14,
14,
7,
7,
0,
11,
10,
10,
11,
-1,
0,
0,
9,
9,
1,
1,
4,
16,
15,
15,
6,
6,
0,
0,
2,
2,
7,
7,
12,
12,
5,
5,
3,
3,
5,
5,
0,
0,
-1,
-1,
7,
7,
6,
6,
1,
1,
5,
5,
-1,
-1,
4,
4,
10,
10,
13,
0,
1,
13,
12,
12,
10,
10,
5,
5,
7,
7,
14,
29,
28,
28,
37,
19,
20,
5,
6,
6,
1,
1,
11,
27,
26,
26,
26,
15,
16,
16,
22,
4,
6,
40,
39,
39,
37,
10,
10,
10,
10,
30,
28,
28,
35,
35,
27,
12,
12,
32,
31,
64,
64,
52,
52,
6,
7,
30,
30,
30,
34,
3,
4,
4,
5,
5,
5,
5,
2,
2,
11,
11,
10,
10,
2,
2,
2,
2,
5,
5,
1,
1,
10,
10,
9,
23,
22,
47,
46,
23,
23,
6,
22,
22,
27,
27,
23,
23,
21,
21,
16,
16,
14,
2,
14,
14,
15,
-1,
0,
35,
35,
50,
48,
25,
26,
4,
11,
34,
32,
32,
42,
29,
30,
2,
3,
18,
17,
32,
30,
14,
14,
14,
20,
20,
24,
24,
24,
24,
19,
5,
23,
46,
44,
26,
26,
2,
2,
2,
4,
4,
1,
14,
13,
2,
6,
18,
17,
17,
9,
9,
10,
10,
12,
12,
3,
22,
22,
22,
12,
0,
3,
14,
13,
13,
4,
4,
2,
2,
3,
3,
10,
10,
7,
7,
2,
2,
2,
2,
5,
5,
5,
5,
1,
1,
8,
8,
14,
2,
2,
2,
11,
11,
14,
2,
6,
6,
12,
12,
18,
34,
33,
33,
25,
25,
15,
32,
31,
31,
26,
4,
9,
33,
32,
32,
37,
37,
34,
11,
11,
11,
8,
8,
15,
0,
1,
1,
10,
25,
24,
24,
25,
7,
7,
29,
29,
29,
28,
15,
18,
2,
3,
18,
18,
7,
7,
7,
11,
11,
16,
16,
16,
16,
16,
16,
18,
18,
13,
2,
11,
11,
19,
19,
16,
16,
16,
0,
1,
1,
7,
7,
7,
7,
3,
3,
2,
2,
12,
1,
4,
27,
26,
26,
25,
11,
11,
11,
16,
3,
3,
15,
15,
15,
6,
19,
19,
39,
38,
38,
39,
18,
18,
18,
10,
10,
2,
24,
24,
24,
26,
26,
23,
23,
18,
18,
11,
26,
25,
25,
31,
31,
21,
2,
6,
26,
26,
26,
30,
41,
40,
19,
20,
0,
1,
1,
11,
11,
18,
18,
8,
8,
0,
0,
6,
6,
12,
12,
6,
6,
0,
0,
-1,
-1,
0,
0,
2,
2,
3,
3,
9,
9,
9,
9,
8,
8,
16,
3,
3,
3,
-1,
-1,
0,
0,
5,
5,
5,
16,
15,
3,
6,
6,
14,
14,
9,
9,
10,
10,
6,
6,
12,
12,
13,
13,
15,
0,
3,
3,
3,
3,
0,
0,
2,
2,
-1,
-1,
3,
3,
1,
1,
2,
2,
8,
8,
14,
14,
15,
15,
18,
18,
14,
0,
1,
1,
-1,
-1,
3,
3,
10,
10,
16,
16,
22,
22,
22,
8,
9,
9,
13,
13,
16,
2,
7,
7,
2,
27,
27,
42,
40,
26,
27,
3,
3,
19,
18,
18,
21,
10,
10,
10,
7,
7,
10,
10,
6,
6,
0,
0,
8,
8,
9,
9,
6,
6,
6,
6,
3,
3,
3,
3,
0,
11,
10,
10,
18,
18,
22,
6,
6,
6,
0,
0,
0,
0,
-1,
-1,
8,
8,
14,
1,
3,
22,
21,
21,
18,
1,
3,
3,
2,
2,
-1,
-1,
0,
0,
-2,
-2,
1,
1,
6,
6,
12,
12,
12,
0,
1,
1,
0,
0,
1,
1,
4,
4,
0,
0,
4,
4,
1,
1,
1,
1,
2,
2,
5,
5,
1,
1,
1,
1,
4,
4,
2,
31,
31,
19,
19,
5,
18,
48,
47,
47,
45,
21,
21,
6,
7,
7,
7,
18,
17,
17,
18,
18,
15,
15,
22,
22,
24,
24,
20,
6,
7,
24,
23,
39,
38,
20,
21,
10,
10,
10,
3,
3,
4,
4,
7,
7,
6,
6,
1,
1,
0,
0,
6,
6,
10,
31,
31,
17,
18,
2,
5,
5,
7,
7,
10,
10,
11,
22,
22,
22,
17,
17,
18,
18,
10,
10,
6,
23,
22,
22,
22,
22,
21,
21,
18,
6,
6,
6,
9,
9,
18,
18,
21,
21,
14,
2,
3,
3,
2,
2,
0,
0,
7,
7,
0,
0,
4,
4,
7,
7,
8,
8,
7,
7,
3,
3,
2,
2,
3,
3,
-1,
-1,
1,
16,
16,
44,
44,
44,
49,
18,
18,
3,
10,
27,
26,
26,
30,
30,
31,
31,
33,
33,
28,
10,
10,
-1,
0,
0,
8,
8,
15,
15,
10,
10,
14,
14,
12,
12,
14,
14,
8,
8,
0,
0,
8,
8,
4,
4,
-1,
-1,
-1,
-1,
3,
3,
11,
11,
2,
2,
12,
12,
9,
9,
0,
0,
2,
2,
7,
7,
4,
4,
6,
6,
12,
12,
9,
9,
0,
0,
2,
2,
0,
0,
3,
3,
2,
2,
9,
9,
14,
14,
9,
9,
2,
2,
5,
5,
8,
8,
2,
2,
1,
1,
1,
1,
3,
3,
2,
16,
15,
15,
17,
17,
7,
7,
6,
6,
1,
1,
6,
6,
7,
7,
5,
5,
0,
0,
3,
3,
4,
4,
-1,
-1,
5,
5,
6,
6,
2,
2,
8,
8,
6,
6,
4,
4,
5,
5,
12,
12,
9,
9,
11,
11,
1,
13,
12,
12,
13,
0,
1,
1,
2,
2,
3,
3,
8,
8,
14,
14,
20,
7,
8,
8,
6,
6,
9,
9,
2,
2,
2,
2,
3,
3,
3,
3,
9,
9,
16,
16,
10,
10,
0,
0,
0,
0,
7,
7,
12,
12,
11,
11,
7,
7,
3,
3,
0,
0,
4,
16,
16,
16,
22,
22,
17,
4,
4,
18,
18,
35,
34,
34,
38,
38,
28,
5,
5,
5,
7,
7,
14,
14,
21,
10,
10,
10,
12,
12,
13,
13,
10,
10,
3,
3,
4,
4,
5,
5,
7,
7,
2,
2,
9,
9,
17,
17,
13,
2,
3,
3,
2,
2,
6,
6,
3,
3,
0,
0,
2,
2,
4,
4,
1,
1,
5,
5,
8,
8,
7,
7,
0,
11,
10,
10,
7,
7,
-1,
-1,
0,
0,
7,
7,
15,
15,
8,
8,
1,
16,
16,
16,
9,
9,
11,
22,
21,
7,
7,
7,
7,
7,
16,
2,
2,
14,
12,
12,
13,
13,
17,
6,
7,
7,
5,
5,
15,
15,
18,
18,
13,
13,
6,
6,
3,
3,
3,
3,
6,
6,
13,
0,
0,
0,
9,
9,
16,
16,
17,
17,
20,
20,
18,
29,
28,
28,
27,
27,
17,
1,
4,
16,
15,
15,
20,
20,
23,
23,
19,
19,
15,
15,
11,
11,
7,
7,
3,
3,
1,
1,
4,
4,
10,
10,
13,
13,
6,
6,
7,
7,
5,
5,
8,
8,
15,
15,
10,
10,
12,
12,
6,
6,
