EMG_S1/DS0122.CSV

Memory Length,4000,
Trigger Level,0.00000e+00,
Source,CH1,
Probe,1.0X,
Vertical Units,V,
Vertical Scale,1.00000e+00,
Vertical Position,4.00000e-02,
Horizontal Units,S,
Horizontal Scale,1.00000e-01,
Horizontal Position,0.0000000e+00,
Horizontal Mode,Roll Mode,
Waveform Last Dot Address,4000,
Sampling Period,4.00000e-04,
Firmware,V1.14,
Time, ,
Mode,Fast,
Waveform Data,
11,
11,
11,
11,
7,
7,
6,
6,
4,
4,
2,
13,
12,
12,
15,
15,
19,
19,
10,
10,
3,
3,
5,
5,
5,
5,
3,
3,
3,
3,
5,
5,
11,
11,
19,
32,
30,
12,
12,
12,
6,
6,
9,
9,
15,
15,
15,
15,
10,
10,
1,
1,
2,
2,
3,
3,
3,
3,
4,
4,
2,
2,
3,
3,
0,
0,
0,
0,
4,
4,
11,
11,
14,
14,
17,
17,
15,
15,
11,
11,
13,
13,
10,
10,
2,
2,
7,
7,
4,
4,
2,
2,
6,
6,
11,
11,
9,
9,
9,
9,
7,
7,
3,
3,
7,
7,
0,
0,
7,
7,
12,
12,
7,
7,
10,
10,
3,
3,
5,
5,
10,
10,
8,
8,
2,
2,
2,
2,
2,
2,
2,
2,
2,
2,
0,
0,
0,
0,
6,
6,
0,
11,
11,
11,
12,
12,
5,
5,
-1,
-1,
5,
5,
2,
2,
1,
1,
4,
4,
3,
3,
-1,
-1,
1,
1,
0,
0,
0,
0,
5,
5,
9,
9,
12,
12,
10,
10,
1,
1,
0,
0,
-1,
-1,
8,
8,
6,
6,
11,
11,
9,
9,
0,
12,
12,
12,
13,
0,
1,
1,
6,
6,
7,
7,
4,
4,
5,
5,
11,
11,
15,
15,
10,
-1,
-1,
-1,
-1,
-1,
1,
1,
2,
2,
6,
6,
14,
14,
14,
14,
14,
14,
7,
7,
0,
0,
2,
2,
0,
0,
2,
2,
0,
0,
-1,
-1,
0,
0,
2,
2,
2,
2,
3,
3,
9,
9,
8,
8,
5,
5,
0,
0,
3,
3,
0,
0,
0,
0,
0,
0,
0,
0,
-1,
-1,
4,
4,
7,
7,
7,
7,
6,
6,
3,
3,
0,
0,
4,
4,
7,
7,
11,
11,
6,
6,
8,
8,
8,
8,
0,
0,
7,
7,
5,
5,
-1,
-1,
2,
2,
-1,
-1,
6,
6,
8,
8,
2,
2,
-1,
-1,
2,
2,
0,
0,
0,
0,
-1,
-1,
0,
0,
3,
3,
0,
0,
6,
6,
10,
10,
14,
3,
3,
3,
4,
4,
6,
6,
15,
15,
7,
7,
12,
12,
22,
22,
18,
3,
3,
3,
-1,
-1,
-1,
-1,
6,
28,
27,
27,
31,
4,
6,
6,
6,
6,
7,
7,
14,
14,
18,
18,
18,
18,
10,
-1,
0,
0,
7,
7,
3,
3,
1,
1,
0,
0,
8,
8,
14,
14,
15,
15,
9,
9,
0,
0,
2,
2,
9,
9,
8,
8,
2,
2,
0,
0,
-1,
-1,
-1,
-1,
2,
2,
6,
6,
7,
7,
7,
7,
4,
4,
2,
2,
-2,
-2,
0,
0,
2,
2,
6,
6,
11,
11,
8,
8,
1,
1,
-1,
-1,
2,
2,
6,
6,
2,
2,
0,
0,
4,
4,
3,
3,
11,
11,
15,
15,
7,
7,
1,
1,
1,
1,
2,
2,
3,
3,
0,
0,
8,
8,
11,
11,
7,
7,
4,
4,
6,
6,
0,
0,
3,
3,
5,
5,
4,
4,
-1,
-1,
3,
3,
4,
4,
4,
4,
7,
7,
9,
9,
8,
8,
6,
6,
4,
4,
0,
0,
2,
2,
5,
5,
0,
0,
0,
0,
0,
0,
10,
10,
10,
10,
7,
7,
7,
7,
5,
5,
4,
4,
-1,
-1,
6,
18,
17,
17,
22,
22,
20,
20,
12,
-1,
0,
0,
6,
6,
12,
12,
10,
10,
7,
7,
2,
2,
1,
1,
1,
1,
2,
2,
5,
5,
9,
9,
0,
0,
3,
3,
3,
3,
6,
6,
4,
4,
13,
30,
29,
10,
12,
0,
2,
2,
2,
2,
10,
10,
15,
15,
13,
13,
6,
6,
3,
3,
3,
3,
10,
10,
7,
7,
7,
7,
11,
11,
16,
16,
12,
12,
28,
16,
16,
16,
6,
6,
0,
0,
8,
8,
10,
10,
8,
8,
11,
11,
14,
14,
14,
14,
9,
9,
7,
7,
7,
7,
3,
3,
3,
3,
4,
4,
6,
6,
8,
8,
8,
8,
2,
2,
8,
8,
17,
17,
18,
3,
4,
4,
1,
1,
8,
8,
13,
13,
12,
12,
11,
0,
0,
0,
5,
5,
4,
4,
2,
2,
10,
10,
13,
13,
11,
11,
7,
7,
1,
1,
7,
7,
1,
1,
0,
0,
6,
6,
0,
13,
11,
11,
18,
31,
31,
31,
30,
14,
15,
-1,
0,
0,
2,
2,
4,
4,
5,
5,
9,
9,
17,
28,
27,
27,
18,
2,
2,
16,
16,
16,
18,
18,
19,
19,
29,
43,
42,
25,
25,
6,
18,
40,
40,
40,
45,
33,
33,
21,
22,
3,
3,
3,
10,
30,
30,
30,
35,
35,
31,
31,
27,
9,
10,
10,
11,
11,
19,
19,
16,
16,
10,
10,
5,
5,
2,
2,
0,
0,
2,
2,
0,
0,
3,
3,
11,
11,
5,
5,
0,
0,
6,
6,
1,
1,
2,
2,
8,
8,
5,
5,
0,
0,
1,
1,
0,
0,
6,
6,
4,
4,
8,
8,
7,
7,
6,
6,
2,
2,
5,
5,
7,
7,
1,
1,
9,
9,
13,
13,
22,
22,
24,
6,
6,
19,
18,
18,
23,
23,
17,
17,
9,
9,
0,
15,
14,
14,
22,
22,
18,
3,
3,
3,
8,
8,
-1,
-1,
5,
5,
14,
14,
16,
5,
5,
5,
-1,
-1,
4,
4,
7,
7,
4,
4,
5,
5,
7,
7,
0,
0,
2,
2,
0,
0,
1,
1,
0,
0,
2,
2,
-1,
-1,
-2,
-2,
1,
1,
4,
4,
14,
27,
26,
26,
34,
20,
20,
2,
5,
16,
14,
14,
19,
19,
12,
12,
6,
6,
7,
7,
4,
4,
5,
5,
5,
5,
1,
1,
4,
4,
10,
10,
12,
12,
7,
7,
3,
3,
2,
2,
12,
24,
23,
36,
36,
24,
25,
2,
2,
2,
4,
4,
2,
2,
2,
2,
0,
0,
1,
1,
8,
8,
10,
10,
4,
4,
0,
0,
0,
0,
-1,
-1,
3,
3,
-1,
-1,
2,
2,
6,
6,
7,
7,
2,
2,
0,
0,
-1,
-1,
4,
4,
8,
8,
8,
8,
6,
6,
14,
14,
16,
4,
6,
6,
4,
4,
5,
5,
2,
2,
0,
11,
11,
11,
17,
17,
16,
16,
7,
7,
1,
1,
8,
25,
25,
25,
15,
-1,
0,
0,
4,
4,
0,
0,
2,
2,
2,
2,
9,
9,
11,
11,
11,
11,
11,
11,
6,
6,
0,
0,
6,
6,
14,
14,
14,
14,
7,
7,
6,
6,
9,
9,
16,
16,
11,
-1,
0,
0,
1,
1,
0,
0,
7,
7,
3,
3,
2,
2,
-1,
-1,
0,
0,
3,
3,
7,
7,
6,
6,
0,
0,
7,
7,
11,
11,
6,
6,
7,
7,
15,
15,
6,
6,
8,
8,
1,
1,
0,
0,
8,
8,
8,
8,
10,
10,
7,
7,
7,
7,
9,
9,
0,
16,
15,
15,
16,
16,
10,
10,
10,
10,
18,
18,
17,
4,
6,
6,
10,
10,
14,
14,
9,
9,
5,
5,
5,
5,
5,
5,
9,
9,
7,
7,
10,
24,
22,
7,
7,
7,
-1,
-1,
7,
7,
4,
4,
2,
14,
13,
13,
10,
10,
3,
3,
5,
5,
10,
10,
16,
16,
15,
4,
5,
5,
0,
0,
3,
3,
3,
3,
-1,
-1,
1,
1,
0,
0,
3,
3,
-1,
-1,
0,
0,
3,
3,
0,
0,
3,
3,
9,
9,
11,
11,
21,
21,
18,
18,
10,
10,
12,
12,
6,
6,
6,
6,
15,
15,
18,
18,
18,
18,
13,
13,
6,
6,
0,
0,
7,
7,
1,
1,
9,
9,
7,
7,
4,
4,
8,
8,
9,
9,
9,
9,
6,
6,
14,
14,
14,
2,
2,
2,
4,
4,
2,
2,
-1,
-1,
0,
0,
8,
8,
1,
1,
6,
6,
0,
0,
8,
8,
2,
2,
11,
11,
14,
14,
8,
8,
5,
5,
8,
8,
7,
7,
2,
16,
16,
16,
19,
19,
13,
13,
10,
10,
17,
17,
21,
2,
3,
3,
7,
7,
5,
5,
12,
12,
10,
10,
2,
2,
4,
4,
1,
1,
0,
0,
1,
1,
0,
0,
7,
7,
8,
8,
1,
1,
1,
1,
4,
4,
5,
5,
9,
9,
8,
8,
1,
1,
5,
5,
7,
7,
10,
10,
1,
12,
11,
11,
18,
18,
14,
14,
5,
5,
-1,
-1,
0,
0,
6,
6,
1,
1,
10,
10,
6,
6,
4,
16,
15,
15,
14,
0,
3,
14,
13,
13,
11,
11,
11,
11,
2,
2,
7,
7,
7,
7,
2,
2,
3,
3,
0,
0,
1,
1,
6,
6,
4,
4,
1,
1,
3,
3,
3,
3,
7,
7,
10,
10,
7,
7,
3,
3,
0,
0,
4,
4,
3,
3,
-1,
-1,
-1,
-1,
-1,
-1,
-1,
-1,
6,
6,
2,
2,
5,
5,
8,
8,
2,
2,
2,
2,
7,
7,
8,
8,
6,
6,
5,
5,
11,
11,
8,
8,
1,
1,
0,
0,
1,
1,
-1,
-1,
6,
17,
17,
17,
25,
25,
18,
1,
2,
13,
12,
12,
8,
8,
11,
11,
10,
10,
0,
0,
5,
5,
3,
3,
1,
1,
1,
1,
2,
22,
21,
21,
17,
2,
4,
4,
14,
14,
6,
6,
-1,
-1,
2,
2,
4,
4,
0,
0,
5,
5,
1,
1,
-1,
-1,
3,
3,
0,
0,
8,
8,
12,
12,
7,
7,
5,
5,
5,
5,
6,
6,
6,
6,
3,
3,
6,
6,
12,
12,
9,
9,
5,
5,
2,
2,
2,
2,
2,
2,
0,
0,
3,
3,
9,
9,
10,
10,
4,
4,
6,
6,
5,
5,
-1,
-1,
1,
14,
13,
24,
22,
8,
9,
9,
6,
6,
0,
16,
15,
15,
22,
22,
15,
15,
7,
7,
6,
6,
2,
2,
2,
2,
-1,
-1,
0,
0,
1,
1,
-1,
-1,
3,
20,
19,
19,
23,
23,
19,
19,
18,
18,
20,
20,
15,
4,
6,
6,
2,
2,
5,
23,
23,
23,
31,
31,
31,
31,
25,
14,
14,
3,
3,
3,
2,
14,
12,
12,
19,
19,
15,
15,
8,
8,
11,
11,
13,
13,
12,
12,
11,
11,
2,
2,
6,
6,
8,
8,
2,
15,
15,
15,
18,
18,
10,
10,
3,
3,
5,
5,
12,
0,
3,
20,
19,
6,
7,
7,
4,
4,
0,
0,
4,
18,
17,
17,
18,
18,
21,
21,
29,
12,
13,
0,
4,
16,
16,
27,
26,
26,
28,
17,
18,
2,
6,
6,
16,
16,
11,
-1,
1,
1,
11,
11,
12,
12,
8,
8,
0,
0,
7,
7,
16,
16,
20,
20,
18,
18,
13,
13,
7,
7,
8,
8,
0,
0,
7,
7,
2,
2,
7,
7,
8,
8,
16,
3,
3,
16,
15,
26,
26,
26,
32,
32,
30,
10,
11,
0,
3,
3,
12,
12,
18,
18,
14,
14,
12,
12,
5,
5,
1,
1,
1,
1,
2,
2,
0,
0,
0,
0,
6,
23,
22,
22,
27,
27,
21,
21,
21,
21,
13,
1,
4,
22,
22,
33,
33,
33,
33,
22,
23,
10,
10,
10,
3,
14,
14,
14,
20,
20,
20,
1,
2,
2,
7,
7,
2,
2,
3,
3,
4,
4,
2,
15,
15,
15,
22,
22,
16,
2,
2,
2,
8,
8,
15,
15,
16,
16,
11,
11,
6,
6,
3,
3,
3,
3,
2,
2,
-1,
10,
9,
9,
11,
11,
11,
11,
18,
18,
24,
24,
15,
2,
2,
2,
2,
2,
8,
8,
15,
15,
15,
15,
14,
0,
0,
14,
13,
27,
26,
39,
38,
8,
8,
19,
18,
18,
17,
17,
17,
17,
21,
21,
19,
6,
7,
7,
-1,
-1,
3,
3,
8,
8,
5,
21,
20,
20,
24,
11,
11,
-1,
0,
0,
2,
2,
2,
2,
0,
18,
17,
17,
19,
1,
2,
2,
2,
2,
4,
4,
6,
6,
11,
11,
14,
14,
7,
7,
3,
3,
3,
3,
1,
1,
0,
0,
0,
0,
-1,
-1,
6,
6,
12,
12,
10,
10,
0,
0,
-1,
-1,
3,
3,
12,
12,
12,
12,
3,
3,
0,
0,
-1,
-1,
6,
6,
8,
8,
4,
4,
6,
6,
9,
9,
7,
7,
1,
1,
-1,
-1,
1,
1,
4,
4,
0,
0,
6,
17,
16,
16,
23,
23,
18,
7,
7,
7,
8,
8,
8,
8,
12,
29,
28,
28,
21,
2,
3,
19,
19,
8,
8,
8,
1,
1,
0,
0,
0,
0,
10,
10,
11,
11,
1,
1,
4,
4,
9,
9,
3,
14,
13,
13,
13,
13,
3,
3,
-1,
16,
15,
15,
24,
24,
22,
22,
26,
26,
17,
6,
6,
6,
7,
7,
15,
15,
8,
8,
0,
0,
3,
3,
7,
7,
12,
0,
1,
1,
0,
0,
0,
0,
4,
4,
3,
3,
7,
7,
9,
9,
2,
2,
-1,
-1,
2,
2,
2,
2,
0,
0,
1,
1,
0,
0,
-2,
-2,
2,
2,
1,
1,
4,
4,
0,
0,
1,
1,
7,
7,
13,
13,
3,
3,
6,
6,
1,
1,
11,
11,
12,
12,
3,
3,
6,
6,
3,
3,
3,
3,
8,
22,
21,
21,
16,
2,
7,
19,
16,
16,
11,
11,
7,
7,
8,
8,
16,
16,
15,
15,
8,
8,
4,
4,
4,
16,
15,
15,
11,
-1,
2,
2,
3,
3,
4,
4,
11,
11,
2,
2,
3,
3,
0,
0,
1,
1,
3,
3,
4,
4,
10,
10,
15,
15,
11,
11,
7,
7,
3,
3,
5,
5,
0,
0,
1,
1,
1,
1,
1,
1,
2,
2,
2,
2,
2,
2,
7,
7,
5,
5,
6,
17,
16,
16,
13,
0,
2,
2,
10,
10,
11,
11,
13,
13,
8,
8,
6,
6,
3,
3,
7,
7,
5,
5,
14,
14,
15,
4,
5,
5,
-1,
-1,
0,
0,
3,
3,
9,
9,
1,
15,
14,
14,
17,
17,
7,
7,
2,
2,
2,
14,
13,
13,
19,
19,
23,
23,
18,
0,
1,
1,
4,
4,
6,
6,
8,
8,
2,
2,
-1,
-1,
3,
16,
16,
16,
20,
20,
19,
19,
14,
14,
7,
7,
3,
3,
4,
4,
14,
14,
14,
14,
8,
8,
0,
0,
5,
5,
1,
1,
7,
7,
10,
10,
5,
5,
0,
0,
7,
7,
14,
14,
15,
15,
13,
13,
14,
14,
8,
8,
0,
0,
3,
3,
8,
8,
3,
3,
6,
6,
6,
6,
8,
8,
13,
13,
17,
17,
18,
5,
6,
6,
14,
14,
19,
19,
21,
34,
33,
33,
35,
35,
26,
26,
20,
3,
6,
6,
15,
15,
20,
31,
30,
30,
23,
10,
10,
10,
5,
5,
8,
8,
7,
7,
4,
4,
6,
6,
1,
1,
3,
3,
7,
7,
8,
8,
8,
8,
3,
3,
8,
8,
12,
12,
8,
8,
2,
2,
-1,
-1,
4,
4,
7,
7,
4,
17,
17,
17,
15,
15,
11,
11,
7,
7,
3,
3,
4,
4,
13,
13,
18,
18,
10,
10,
7,
7,
16,
16,
14,
1,
3,
3,
0,
14,
14,
14,
12,
12,
6,
6,
0,
0,
2,
2,
6,
6,
3,
3,
3,
3,
4,
4,
1,
1,
8,
8,
7,
7,
1,
1,
9,
9,
16,
16,
20,
20,
18,
18,
20,
20,
16,
16,
8,
8,
0,
0,
3,
3,
-1,
16,
16,
40,
40,
27,
27,
15,
15,
15,
16,
16,
8,
8,
1,
1,
3,
3,
9,
9,
10,
10,
13,
13,
10,
10,
10,
10,
10,
10,
12,
12,
5,
5,
2,
2,
7,
7,
16,
16,
19,
19,
23,
8,
8,
8,
11,
11,
18,
18,
21,
21,
21,
21,
15,
15,
13,
13,
8,
8,
0,
11,
10,
10,
16,
16,
16,
16,
20,
8,
8,
8,
3,
3,
2,
2,
0,
12,
11,
11,
2,
2,
8,
8,
11,
11,
13,
13,
6,
6,
7,
7,
1,
14,
12,
12,
9,
9,
5,
5,
11,
11,
13,
13,
7,
7,
1,
1,
9,
9,
10,
10,
3,
3,
3,
3,
6,
6,
4,
4,
3,
3,
6,
6,
2,
2,
2,
2,
-1,
-1,
-1,
-1,
0,
0,
2,
2,
7,
7,
6,
6,
0,
0,
2,
2,
2,
2,
2,
2,
4,
17,
16,
16,
14,
0,
2,
14,
13,
13,
11,
11,
7,
7,
9,
9,
12,
12,
16,
16,
16,
16,
8,
8,
11,
11,
20,
20,
14,
14,
7,
7,
0,
0,
5,
5,
8,
8,
14,
14,
6,
6,
0,
0,
-1,
-1,
3,
3,
5,
17,
16,
16,
23,
8,
8,
8,
0,
0,
3,
3,
6,
6,
0,
0,
3,
3,
0,
0,
0,
0,
0,
0,
5,
5,
4,
4,
1,
1,
2,
2,
7,
7,
1,
1,
5,
5,
6,
6,
0,
0,
3,
18,
18,
39,
38,
38,
34,
4,
5,
22,
22,
22,
22,
22,
16,
16,
9,
9,
13,
13,
6,
6,
5,
5,
11,
11,
11,
11,
6,
6,
-1,
-1,
1,
1,
4,
4,
2,
2,
-1,
-1,
1,
1,
2,
2,
1,
1,
3,
3,
2,
2,
3,
3,
1,
1,
0,
0,
3,
3,
0,
0,
5,
5,
7,
7,
10,
22,
21,
21,
19,
0,
0,
0,
2,
2,
7,
7,
11,
11,
9,
9,
14,
14,
7,
7,
1,
1,
6,
6,
6,
6,
6,
6,
3,
3,
1,
1,
2,
2,
3,
3,
7,
7,
8,
8,
0,
0,
2,
2,
2,
2,
4,
4,
8,
8,
3,
3,
1,
1,
2,
2,
11,
11,
10,
10,
12,
12,
2,
2,
4,
16,
16,
16,
19,
6,
6,
6,
13,
13,
17,
17,
10,
10,
4,
4,
8,
8,
12,
0,
4,
4,
8,
8,
2,
2,
6,
6,
7,
7,
3,
3,
2,
2,
8,
8,
12,
0,
1,
1,
1,
1,
7,
7,
4,
4,
-1,
-1,
4,
4,
1,
1,
1,
15,
15,
15,
19,
8,
10,
10,
5,
5,
3,
3,
6,
6,
11,
11,
8,
8,
7,
7,
4,
4,
3,
3,
5,
5,
5,
5,
5,
5,
0,
0,
0,
0,
3,
3,
12,
26,
26,
26,
17,
2,
2,
2,
3,
3,
5,
5,
8,
8,
2,
2,
6,
6,
11,
11,
5,
5,
13,
27,
26,
26,
32,
32,
22,
4,
5,
5,
15,
26,
25,
25,
34,
34,
34,
20,
21,
3,
10,
26,
25,
25,
27,
27,
23,
23,
15,
15,
6,
6,
0,
0,
10,
10,
10,
10,
7,
7,
4,
4,
4,
4,
5,
5,
3,
3,
2,
2,
6,
6,
14,
14,
18,
18,
16,
16,
14,
14,
7,
7,
8,
8,
0,
0,
9,
9,
12,
12,
16,
16,
20,
20,
14,
14,
13,
13,
16,
16,
8,
8,
0,
0,
2,
2,
9,
9,
12,
12,
15,
15,
19,
32,
31,
31,
28,
15,
15,
0,
1,
1,
2,
2,
10,
21,
19,
19,
21,
21,
17,
17,
12,
12,
8,
8,
5,
5,
0,
0,
6,
6,
10,
10,
13,
13,
9,
9,
1,
1,
4,
4,
11,
11,
10,
10,
7,
7,
5,
5,
7,
7,
1,
1,
1,
1,
7,
7,
9,
9,
8,
8,
6,
6,
2,
2,
2,
2,
3,
3,
2,
2,
2,
2,
1,
1,
1,
1,
3,
3,
0,
0,
3,
3,
1,
1,
0,
0,
0,
0,
0,
0,
0,
0,
1,
1,
11,
11,
12,
12,
13,
13,
19,
19,
16,
16,
10,
-1,
0,
0,
2,
2,
2,
14,
14,
14,
17,
17,
17,
17,
16,
16,
15,
15,
9,
9,
0,
0,
6,
6,
8,
8,
12,
12,
9,
9,
8,
8,
4,
4,
4,
4,
2,
2,
2,
2,
8,
8,
6,
6,
0,
0,
4,
4,
5,
5,
3,
3,
2,
2,
2,
2,
0,
12,
11,
11,
14,
14,
10,
10,
8,
8,
12,
12,
5,
5,
1,
1,
7,
7,
9,
9,
11,
11,
14,
14,
18,
18,
12,
12,
4,
4,
2,
2,
2,
16,
16,
32,
31,
31,
22,
10,
10,
-1,
0,
0,
-1,
-1,
6,
6,
3,
3,
5,
5,
10,
10,
9,
9,
5,
5,
2,
2,
4,
4,
6,
6,
5,
5,
0,
0,
1,
1,
5,
5,
6,
6,
5,
5,
8,
8,
16,
16,
14,
14,
7,
7,
2,
2,
0,
0,
5,
5,
5,
5,
0,
0,
3,
3,
9,
9,
10,
10,
2,
2,
4,
4,
6,
6,
2,
2,
1,
1,
0,
0,
0,
0,
2,
14,
13,
13,
17,
17,
14,
14,
8,
8,
8,
8,
7,
7,
2,
2,
3,
3,
9,
9,
7,
7,
6,
6,
10,
10,
10,
10,
6,
6,
0,
0,
-1,
-1,
1,
1,
8,
8,
15,
15,
15,
15,
9,
9,
2,
2,
0,
0,
2,
2,
3,
3,
4,
4,
2,
14,
14,
14,
10,
10,
2,
13,
12,
12,
18,
18,
16,
16,
11,
11,
8,
8,
1,
12,
11,
11,
16,
16,
13,
13,
7,
7,
3,
3,
7,
7,
8,
8,
2,
2,
8,
8,
1,
1,
6,
6,
0,
0,
2,
2,
2,
2,
2,
2,
5,
5,
7,
7,
0,
0,
0,
0,
0,
0,
4,
4,
10,
10,
7,
7,
0,
0,
2,
2,
1,
1,
4,
4,
5,
5,
-1,
-1,
3,
3,
5,
5,
0,
0,
2,
2,
2,
2,
0,
0,
1,
1,
2,
2,
0,
0,
1,
1,
8,
8,
0,
0,
1,
16,
15,
15,
15,
1,
5,
5,
11,
11,
7,
7,
0,
0,
1,
1,
-1,
-1,
0,
0,
4,
4,
-1,
-1,
6,
6,
7,
7,
1,
1,
-1,
-1,
0,
0,
1,
1,
5,
5,
10,
10,
10,
10,
8,
8,
5,
5,
1,
1,
-1,
-1,
1,
1,
0,
0,
6,
6,
6,
6,
2,
2,
0,
0,
2,
2,
1,
1,
2,
2,
6,
6,
6,
6,
1,
1,
6,
6,
2,
2,
9,
9,
8,
8,
0,
0,
1,
1,
2,
16,
16,
36,
35,
35,
33,
33,
25,
12,
12,
12,
10,
32,
31,
31,
38,
27,
28,
28,
20,
9,
10,
-1,
2,
2,
6,
6,
12,
12,
12,
12,
6,
6,
5,
5,
5,
5,
3,
3,
0,
0,
0,
0,
2,
2,
4,
4,
7,
7,
10,
10,
7,
7,
0,
0,
1,
1,
-1,
-1,
-1,
-1,
0,
0,
2,
2,
4,
4,
0,
0,
-1,
-1,
2,
2,
4,
4,
0,
0,
0,
0,
6,
6,
8,
8,
10,
10,
6,
6,
2,
2,
8,
8,
8,
8,
6,
6,
0,
0,
7,
7,
7,
7,
0,
0,
0,
0,
2,
2,
8,
8,
7,
7,
0,
0,
0,
0,
4,
4,
11,
11,
11,
11,
8,
8,
0,
0,
1,
1,
2,
2,
3,
3,
6,
6,
10,
10,
14,
14,
12,
12,
10,
10,
8,
8,
14,
1,
2,
2,
7,
7,
6,
6,
4,
4,
5,
5,
8,
8,
10,
10,
10,
10,
1,
1,
5,
5,
4,
4,
2,
2,
7,
7,
5,
5,
6,
6,
14,
14,
15,
15,
11,
11,
5,
5,
-1,
-1,
0,
0,
5,
5,
0,
0,
9,
9,
14,
14,
15,
15,
10,
10,
2,
14,
13,
13,
15,
15,
18,
18,
9,
9,
0,
0,
2,
18,
18,
18,
22,
2,
2,
2,
10,
10,
10,
10,
14,
14,
20,
20,
18,
18,
18,
4,
5,
5,
4,
4,
5,
5,
5,
5,
6,
6,
3,
3,
5,
5,
9,
9,
15,
15,
9,
9,
1,
1,
2,
2,
10,
10,
11,
0,
1,
1,
2,
2,
6,
6,
5,
5,
0,
0,
4,
4,
4,
4,
1,
1,
-1,
-1,
1,
1,
0,
0,
2,
2,
1,
1,
3,
3,
0,
0,
8,
8,
9,
9,
-1,
-1,
6,
6,
11,
11,
8,
8,
0,
0,
2,
2,
3,
3,
3,
3,
3,
3,
3,
3,
1,
1,
1,
1,
1,
1,
8,
8,
6,
6,
10,
10,
18,
18,
13,
0,
1,
1,
7,
7,
4,
4,
1,
1,
1,
1,
6,
6,
9,
9,
5,
5,
4,
4,
3,
3,
5,
5,
6,
6,
0,
0,
4,
4,
3,
3,
11,
0,
2,
15,
14,
14,
15,
4,
6,
6,
8,
8,
14,
14,
8,
8,
2,
2,
1,
1,
-1,
-1,
-1,
-1,
1,
1,
0,
0,
7,
20,
20,
20,
23,
23,
15,
1,
5,
5,
13,
13,
16,
16,
9,
9,
4,
4,
5,
5,
5,
5,
3,
3,
0,
0,
-1,
-1,
4,
4,
9,
9,
8,
8,
0,
0,
-1,
-1,
5,
5,
13,
13,
18,
18,
17,
17,
12,
0,
2,
2,
11,
11,
14,
14,
15,
15,
