EMG_S1/DS0165.CSV

Memory Length,4000,
Trigger Level,0.00000e+00,
Source,CH1,
Probe,1.0X,
Vertical Units,V,
Vertical Scale,1.00000e+00,
Vertical Position,4.00000e-02,
Horizontal Units,S,
Horizontal Scale,1.00000e-01,
Horizontal Position,0.0000000e+00,
Horizontal Mode,Roll Mode,
Waveform Last Dot Address,4000,
Sampling Period,4.00000e-04,
Firmware,V1.14,
Time, ,
Mode,Fast,
Waveform Data,
4,
4,
1,
1,
-1,
-1,
0,
0,
-1,
-1,
8,
8,
8,
8,
2,
2,
2,
2,
0,
0,
3,
3,
8,
8,
11,
11,
19,
19,
23,
23,
15,
0,
2,
2,
12,
12,
16,
16,
17,
17,
14,
14,
9,
9,
0,
0,
3,
3,
0,
0,
4,
4,
1,
1,
-1,
-1,
0,
0,
0,
0,
2,
17,
16,
27,
26,
26,
20,
20,
10,
10,
3,
3,
9,
9,
7,
7,
8,
8,
14,
14,
12,
12,
3,
3,
5,
5,
6,
6,
10,
10,
0,
0,
2,
2,
-1,
-1,
3,
3,
5,
5,
4,
4,
0,
0,
-1,
-1,
1,
1,
0,
0,
-1,
-1,
-1,
-1,
4,
4,
3,
3,
7,
7,
10,
-1,
0,
0,
4,
4,
-1,
-1,
2,
2,
9,
9,
9,
9,
9,
9,
10,
21,
19,
19,
19,
19,
19,
7,
8,
8,
4,
17,
17,
34,
33,
33,
29,
12,
12,
12,
9,
9,
1,
13,
12,
12,
16,
16,
10,
10,
6,
6,
3,
3,
2,
2,
0,
0,
-1,
-1,
0,
0,
0,
0,
-1,
-1,
2,
2,
11,
22,
22,
22,
23,
9,
10,
10,
4,
4,
13,
13,
12,
12,
8,
8,
11,
-1,
0,
0,
8,
8,
4,
4,
4,
4,
8,
8,
4,
4,
1,
1,
11,
11,
16,
5,
6,
6,
5,
5,
12,
12,
20,
20,
16,
2,
5,
26,
26,
26,
23,
3,
3,
3,
4,
4,
9,
9,
12,
12,
8,
8,
1,
1,
1,
1,
1,
1,
3,
3,
3,
3,
1,
1,
0,
0,
1,
1,
7,
7,
4,
4,
4,
4,
14,
14,
19,
19,
18,
18,
9,
9,
2,
2,
8,
8,
13,
13,
11,
0,
1,
1,
9,
9,
12,
12,
4,
4,
8,
8,
11,
11,
12,
12,
3,
3,
0,
0,
0,
0,
2,
2,
3,
3,
8,
8,
5,
5,
-1,
-1,
2,
2,
11,
11,
18,
18,
19,
19,
13,
2,
3,
3,
0,
0,
4,
4,
6,
6,
-1,
-1,
3,
3,
7,
7,
9,
9,
6,
6,
1,
1,
2,
2,
0,
0,
8,
8,
17,
17,
14,
14,
9,
9,
10,
10,
6,
6,
12,
12,
10,
10,
4,
4,
0,
0,
3,
3,
6,
6,
3,
3,
5,
5,
11,
11,
19,
19,
19,
8,
8,
8,
2,
2,
5,
5,
10,
10,
4,
4,
2,
2,
4,
4,
1,
1,
9,
9,
4,
4,
7,
7,
7,
7,
2,
2,
3,
3,
4,
4,
2,
2,
2,
2,
3,
3,
5,
5,
11,
11,
14,
14,
8,
8,
-1,
-1,
6,
6,
7,
7,
-1,
-1,
0,
0,
2,
2,
4,
4,
-1,
-1,
4,
4,
1,
1,
5,
5,
-1,
-1,
5,
5,
0,
0,
9,
9,
17,
17,
18,
5,
6,
6,
0,
0,
1,
1,
10,
26,
26,
37,
36,
25,
26,
8,
9,
9,
2,
2,
4,
4,
10,
10,
13,
13,
10,
10,
4,
4,
-1,
-1,
0,
0,
7,
7,
16,
16,
10,
10,
13,
13,
6,
6,
6,
21,
20,
20,
26,
26,
31,
42,
41,
26,
27,
4,
4,
4,
11,
22,
21,
21,
30,
30,
26,
26,
20,
20,
14,
3,
4,
4,
0,
0,
4,
4,
11,
11,
15,
15,
17,
17,
13,
13,
10,
10,
5,
5,
1,
1,
4,
4,
5,
5,
0,
0,
3,
3,
0,
0,
-1,
-1,
3,
3,
0,
0,
4,
4,
2,
2,
3,
3,
0,
0,
8,
8,
13,
13,
11,
11,
12,
12,
8,
8,
0,
0,
8,
8,
13,
13,
13,
13,
3,
3,
3,
3,
6,
6,
3,
3,
6,
6,
7,
7,
0,
0,
-1,
12,
11,
11,
10,
21,
19,
42,
42,
42,
43,
17,
7,
7,
8,
8,
5,
5,
0,
0,
0,
0,
4,
4,
2,
2,
2,
2,
0,
0,
0,
0,
1,
1,
-1,
-1,
0,
12,
12,
32,
31,
31,
36,
15,
15,
2,
7,
22,
21,
21,
25,
25,
22,
22,
14,
14,
10,
10,
3,
3,
2,
2,
-1,
-1,
0,
0,
2,
2,
6,
6,
7,
18,
17,
17,
12,
12,
18,
18,
20,
20,
16,
16,
18,
18,
16,
16,
6,
6,
16,
29,
28,
28,
23,
1,
2,
2,
6,
6,
3,
3,
6,
6,
2,
2,
3,
3,
8,
8,
6,
6,
3,
3,
4,
4,
2,
2,
6,
6,
12,
12,
11,
11,
5,
5,
0,
0,
1,
1,
-1,
-1,
-1,
-1,
2,
2,
4,
4,
6,
6,
5,
5,
3,
3,
0,
0,
7,
7,
8,
8,
-1,
-1,
-1,
-1,
2,
2,
1,
1,
0,
0,
1,
1,
3,
16,
15,
15,
14,
14,
6,
6,
3,
3,
-1,
-1,
0,
0,
1,
1,
6,
6,
6,
6,
3,
3,
6,
6,
0,
0,
7,
7,
4,
4,
4,
4,
3,
3,
7,
23,
23,
5,
6,
31,
31,
31,
39,
24,
25,
2,
3,
14,
13,
13,
18,
18,
15,
15,
13,
13,
8,
8,
4,
4,
0,
0,
1,
1,
0,
0,
0,
0,
4,
4,
9,
9,
11,
11,
7,
7,
5,
5,
3,
3,
1,
1,
3,
3,
3,
3,
0,
0,
0,
0,
3,
3,
6,
6,
5,
5,
1,
1,
7,
7,
13,
13,
15,
15,
13,
13,
7,
7,
5,
16,
16,
16,
10,
10,
7,
7,
6,
6,
8,
8,
14,
14,
6,
18,
17,
17,
21,
21,
16,
16,
18,
6,
7,
7,
7,
7,
9,
9,
7,
7,
0,
0,
3,
3,
10,
10,
7,
7,
-1,
-1,
5,
5,
11,
11,
12,
12,
10,
10,
0,
0,
2,
2,
0,
0,
2,
2,
6,
6,
2,
2,
2,
2,
8,
8,
13,
13,
13,
0,
1,
1,
1,
1,
1,
1,
4,
4,
5,
16,
16,
16,
10,
10,
4,
15,
14,
14,
15,
15,
11,
11,
11,
11,
9,
9,
4,
4,
2,
2,
3,
3,
0,
0,
2,
2,
3,
3,
7,
7,
12,
12,
12,
12,
9,
9,
10,
10,
10,
10,
7,
7,
2,
2,
0,
0,
1,
1,
0,
0,
2,
2,
2,
2,
3,
3,
7,
7,
9,
9,
2,
2,
7,
7,
3,
3,
0,
0,
-1,
-1,
-1,
-1,
3,
3,
-1,
-1,
4,
4,
3,
3,
2,
2,
5,
5,
4,
4,
2,
2,
1,
1,
2,
2,
0,
0,
8,
8,
14,
14,
8,
8,
2,
2,
3,
15,
14,
14,
17,
2,
2,
14,
13,
13,
7,
7,
2,
2,
4,
4,
1,
1,
9,
9,
2,
2,
1,
1,
0,
0,
0,
0,
-1,
-1,
6,
6,
14,
14,
18,
7,
8,
8,
0,
0,
6,
6,
11,
11,
14,
14,
12,
12,
3,
3,
8,
31,
31,
31,
37,
37,
31,
11,
11,
11,
11,
26,
26,
26,
22,
22,
18,
18,
19,
19,
18,
18,
11,
11,
7,
7,
0,
0,
10,
10,
17,
17,
21,
21,
14,
2,
2,
14,
13,
27,
26,
26,
28,
14,
15,
0,
2,
2,
2,
2,
6,
18,
17,
17,
26,
26,
26,
26,
19,
19,
13,
13,
7,
7,
1,
1,
3,
3,
1,
1,
9,
9,
14,
14,
13,
13,
14,
14,
17,
17,
19,
19,
12,
12,
9,
9,
3,
3,
-1,
-1,
3,
3,
7,
7,
4,
4,
2,
2,
6,
6,
11,
11,
7,
7,
-1,
-1,
2,
2,
-1,
-1,
1,
1,
-1,
-1,
6,
6,
10,
10,
12,
12,
7,
7,
1,
1,
1,
1,
1,
1,
4,
4,
8,
8,
12,
12,
15,
3,
4,
19,
18,
29,
29,
29,
32,
20,
20,
4,
4,
4,
2,
2,
10,
10,
4,
4,
2,
2,
4,
15,
14,
14,
13,
13,
10,
10,
12,
12,
8,
8,
1,
1,
5,
5,
6,
6,
10,
10,
13,
13,
15,
15,
18,
18,
10,
10,
2,
2,
2,
2,
-1,
10,
9,
9,
13,
13,
4,
4,
4,
4,
10,
10,
3,
3,
0,
0,
0,
13,
12,
12,
17,
17,
10,
10,
0,
0,
3,
3,
6,
6,
11,
11,
7,
7,
6,
6,
10,
10,
10,
10,
12,
12,
11,
11,
6,
6,
0,
0,
7,
7,
10,
-1,
1,
1,
5,
5,
4,
4,
0,
0,
3,
3,
1,
1,
4,
4,
8,
8,
3,
3,
-1,
-1,
5,
5,
1,
1,
8,
8,
14,
14,
14,
14,
18,
18,
21,
4,
5,
5,
10,
10,
14,
14,
15,
15,
5,
5,
0,
0,
2,
2,
0,
0,
2,
2,
0,
0,
-1,
-1,
7,
7,
10,
10,
11,
11,
3,
3,
10,
36,
36,
47,
46,
46,
40,
8,
8,
8,
8,
8,
16,
16,
18,
18,
17,
17,
20,
20,
17,
17,
8,
8,
4,
17,
16,
16,
15,
0,
0,
0,
5,
5,
2,
2,
-1,
-1,
-1,
-1,
1,
1,
0,
0,
0,
0,
0,
0,
5,
5,
11,
11,
11,
11,
5,
5,
0,
0,
0,
0,
0,
0,
1,
1,
4,
4,
2,
2,
1,
1,
7,
7,
13,
13,
5,
5,
5,
5,
4,
4,
3,
14,
13,
13,
19,
7,
7,
7,
7,
7,
2,
2,
7,
7,
1,
13,
11,
11,
11,
11,
8,
8,
8,
8,
4,
4,
0,
0,
-1,
-1,
0,
0,
-1,
-1,
3,
3,
7,
7,
4,
4,
4,
4,
7,
7,
7,
7,
8,
8,
8,
8,
2,
2,
-1,
-1,
0,
0,
1,
1,
5,
5,
2,
2,
0,
0,
1,
1,
2,
2,
12,
12,
8,
8,
2,
2,
0,
0,
5,
5,
9,
9,
8,
31,
30,
30,
29,
29,
30,
30,
32,
21,
22,
6,
6,
6,
4,
22,
34,
34,
33,
33,
32,
32,
27,
27,
18,
18,
14,
14,
6,
6,
0,
0,
4,
4,
7,
7,
6,
6,
6,
26,
25,
25,
24,
24,
22,
22,
24,
24,
18,
1,
2,
2,
7,
7,
13,
13,
12,
12,
11,
11,
9,
9,
4,
4,
4,
4,
6,
6,
7,
7,
2,
2,
1,
1,
6,
6,
5,
5,
6,
6,
6,
6,
6,
6,
4,
4,
2,
2,
6,
6,
5,
5,
3,
3,
2,
2,
1,
1,
7,
7,
6,
6,
1,
1,
0,
0,
9,
9,
10,
-1,
0,
0,
2,
16,
16,
16,
21,
9,
9,
9,
2,
2,
3,
3,
5,
5,
10,
10,
17,
17,
11,
11,
7,
7,
6,
6,
7,
7,
8,
8,
11,
11,
6,
6,
3,
3,
6,
23,
22,
33,
32,
32,
30,
16,
17,
3,
4,
4,
3,
3,
11,
11,
15,
15,
10,
10,
6,
19,
18,
18,
23,
23,
18,
18,
17,
17,
12,
0,
0,
0,
3,
3,
6,
6,
4,
4,
1,
1,
0,
0,
6,
6,
6,
6,
5,
5,
4,
4,
6,
18,
16,
16,
16,
16,
10,
-1,
0,
13,
12,
12,
18,
18,
18,
3,
11,
27,
27,
14,
14,
1,
4,
4,
7,
7,
4,
4,
2,
2,
5,
5,
0,
0,
0,
0,
7,
7,
13,
13,
9,
9,
8,
8,
14,
14,
4,
4,
1,
1,
3,
3,
4,
4,
4,
4,
4,
4,
10,
10,
8,
8,
0,
0,
9,
9,
14,
14,
14,
14,
21,
21,
20,
9,
10,
10,
10,
10,
8,
8,
15,
29,
28,
28,
29,
29,
23,
23,
14,
14,
6,
6,
12,
24,
23,
10,
11,
0,
4,
4,
1,
1,
3,
17,
17,
17,
26,
26,
19,
0,
1,
1,
6,
6,
9,
9,
6,
6,
7,
7,
11,
11,
8,
8,
0,
0,
0,
0,
1,
1,
2,
2,
6,
17,
16,
16,
14,
14,
9,
9,
10,
10,
6,
6,
0,
0,
2,
2,
2,
2,
0,
0,
5,
5,
0,
0,
2,
2,
0,
0,
8,
8,
8,
8,
7,
7,
0,
0,
6,
6,
7,
7,
7,
7,
8,
8,
7,
7,
3,
3,
1,
1,
6,
6,
10,
10,
13,
13,
19,
19,
12,
12,
3,
3,
0,
0,
2,
2,
3,
3,
10,
10,
2,
2,
3,
3,
-1,
-1,
2,
2,
1,
1,
-1,
-1,
2,
2,
0,
0,
1,
1,
-1,
-1,
-1,
10,
9,
9,
14,
0,
1,
1,
5,
5,
8,
8,
14,
14,
13,
0,
1,
14,
14,
14,
16,
16,
12,
12,
6,
6,
6,
6,
6,
6,
6,
6,
0,
0,
2,
2,
2,
2,
8,
8,
17,
17,
14,
14,
7,
7,
8,
8,
7,
7,
0,
0,
0,
0,
5,
5,
0,
0,
7,
7,
12,
12,
12,
12,
11,
11,
6,
6,
0,
0,
-1,
-1,
-1,
-1,
5,
5,
7,
7,
8,
8,
17,
17,
16,
16,
10,
10,
6,
6,
8,
8,
4,
4,
5,
5,
6,
6,
3,
3,
9,
9,
14,
14,
18,
18,
14,
3,
3,
3,
1,
15,
15,
28,
27,
27,
30,
30,
28,
8,
8,
8,
11,
11,
17,
17,
16,
16,
11,
11,
9,
9,
8,
8,
6,
6,
0,
0,
0,
0,
3,
3,
0,
0,
3,
3,
-1,
20,
19,
36,
36,
36,
32,
18,
19,
5,
5,
5,
9,
25,
24,
24,
27,
15,
16,
0,
2,
2,
11,
11,
5,
5,
3,
3,
2,
14,
14,
14,
12,
12,
6,
6,
0,
0,
7,
7,
8,
8,
8,
8,
8,
8,
6,
6,
11,
11,
6,
6,
8,
8,
17,
17,
18,
18,
15,
15,
0,
0,
0,
0,
5,
5,
4,
4,
0,
14,
14,
14,
18,
3,
4,
4,
6,
6,
4,
4,
4,
4,
7,
7,
7,
7,
2,
2,
8,
8,
15,
0,
2,
2,
10,
10,
12,
12,
5,
5,
1,
1,
2,
2,
0,
0,
9,
9,
5,
5,
8,
8,
13,
13,
21,
21,
19,
4,
4,
4,
9,
20,
19,
19,
12,
-1,
2,
2,
-1,
-1,
4,
4,
6,
6,
0,
0,
7,
7,
10,
10,
3,
3,
0,
0,
0,
0,
3,
3,
0,
0,
3,
3,
0,
12,
11,
11,
14,
14,
8,
8,
5,
5,
4,
4,
5,
5,
6,
6,
6,
6,
5,
5,
5,
5,
8,
8,
7,
7,
7,
7,
5,
5,
5,
5,
0,
0,
4,
18,
17,
29,
28,
28,
23,
2,
3,
3,
6,
6,
8,
8,
8,
8,
6,
6,
0,
0,
2,
2,
-1,
-1,
0,
0,
7,
7,
9,
9,
11,
27,
26,
15,
15,
1,
5,
5,
13,
13,
9,
9,
3,
3,
0,
0,
0,
0,
0,
0,
0,
0,
5,
5,
11,
11,
16,
16,
11,
-1,
0,
0,
5,
5,
6,
6,
3,
14,
14,
14,
12,
0,
0,
14,
13,
13,
17,
17,
10,
-1,
2,
2,
0,
0,
6,
6,
2,
2,
5,
5,
7,
7,
1,
1,
4,
4,
10,
10,
15,
15,
14,
14,
6,
6,
2,
2,
1,
1,
0,
0,
3,
3,
0,
0,
-1,
-1,
1,
1,
0,
0,
2,
2,
-1,
-1,
1,
1,
1,
1,
4,
4,
10,
10,
3,
3,
3,
3,
0,
0,
5,
5,
4,
4,
2,
2,
1,
1,
1,
1,
0,
0,
0,
0,
0,
0,
4,
4,
3,
3,
5,
5,
8,
8,
10,
10,
18,
3,
3,
3,
4,
4,
5,
5,
0,
0,
8,
8,
14,
14,
6,
6,
3,
3,
4,
4,
-1,
-1,
6,
6,
10,
10,
9,
9,
10,
10,
18,
18,
18,
6,
6,
6,
3,
3,
2,
2,
12,
12,
21,
21,
19,
6,
6,
6,
6,
6,
7,
7,
2,
31,
30,
57,
55,
39,
39,
6,
6,
6,
14,
14,
13,
13,
6,
6,
13,
13,
17,
17,
24,
24,
26,
26,
23,
23,
13,
0,
1,
1,
5,
5,
2,
2,
3,
3,
8,
23,
22,
22,
30,
30,
28,
17,
17,
2,
2,
2,
2,
2,
-1,
-1,
2,
2,
7,
7,
5,
5,
3,
3,
1,
1,
8,
8,
9,
9,
8,
8,
8,
8,
5,
5,
9,
9,
13,
13,
10,
10,
3,
3,
-1,
-1,
1,
1,
0,
0,
2,
2,
9,
9,
7,
7,
0,
0,
-1,
-1,
5,
5,
6,
6,
0,
0,
6,
6,
7,
7,
2,
2,
0,
0,
8,
8,
7,
7,
1,
1,
2,
2,
4,
4,
3,
3,
6,
6,
8,
8,
1,
1,
1,
1,
2,
2,
3,
3,
0,
0,
4,
4,
8,
8,
2,
2,
4,
4,
2,
2,
0,
0,
2,
2,
0,
0,
7,
7,
12,
12,
6,
6,
3,
3,
6,
6,
11,
11,
13,
13,
9,
9,
3,
3,
0,
0,
1,
1,
2,
2,
0,
0,
-1,
-1,
1,
14,
14,
14,
21,
21,
14,
14,
8,
8,
5,
5,
0,
0,
6,
6,
11,
11,
2,
2,
3,
3,
5,
5,
7,
7,
3,
3,
1,
1,
4,
4,
4,
4,
4,
4,
2,
2,
0,
0,
-1,
-1,
6,
6,
8,
8,
4,
4,
2,
2,
5,
5,
-1,
-1,
6,
6,
6,
6,
1,
1,
6,
6,
8,
8,
0,
0,
4,
4,
0,
15,
14,
14,
15,
2,
9,
9,
8,
8,
0,
0,
3,
3,
8,
8,
3,
3,
6,
6,
7,
7,
14,
14,
12,
12,
7,
7,
4,
4,
6,
6,
11,
11,
16,
16,
17,
17,
16,
16,
18,
7,
8,
8,
5,
26,
26,
38,
38,
38,
35,
35,
27,
27,
24,
10,
11,
0,
2,
2,
11,
11,
16,
16,
20,
20,
27,
27,
26,
26,
17,
6,
6,
6,
3,
3,
1,
1,
7,
7,
8,
8,
8,
8,
9,
9,
11,
11,
11,
11,
9,
9,
8,
8,
2,
2,
-1,
-1,
4,
4,
10,
10,
8,
8,
2,
2,
1,
1,
3,
3,
5,
5,
4,
4,
2,
2,
6,
6,
13,
13,
10,
-1,
3,
14,
14,
14,
18,
7,
8,
8,
5,
5,
3,
3,
7,
7,
2,
2,
2,
2,
6,
6,
4,
4,
0,
0,
5,
5,
6,
6,
6,
6,
9,
9,
6,
6,
-1,
-1,
1,
1,
-1,
-1,
2,
2,
7,
7,
7,
7,
3,
3,
1,
1,
4,
4,
4,
16,
15,
15,
14,
14,
6,
6,
15,
26,
26,
26,
19,
4,
5,
5,
6,
6,
9,
20,
19,
19,
27,
27,
22,
22,
18,
18,
9,
9,
7,
7,
11,
11,
4,
4,
8,
8,
17,
17,
10,
-1,
2,
2,
7,
7,
4,
4,
7,
7,
7,
7,
6,
6,
7,
7,
0,
12,
11,
11,
6,
6,
0,
14,
14,
25,
24,
13,
13,
13,
5,
5,
6,
6,
8,
8,
1,
1,
10,
10,
13,
13,
16,
16,
18,
18,
14,
14,
10,
10,
5,
5,
0,
0,
2,
2,
8,
8,
10,
10,
12,
12,
16,
16,
11,
11,
3,
3,
1,
1,
2,
2,
0,
0,
4,
4,
1,
1,
1,
1,
2,
2,
4,
4,
0,
0,
1,
1,
11,
11,
16,
3,
4,
4,
2,
2,
11,
27,
27,
27,
18,
-1,
1,
1,
5,
5,
13,
13,
6,
6,
4,
4,
4,
4,
0,
0,
1,
1,
0,
0,
2,
2,
7,
7,
1,
1,
10,
10,
6,
6,
2,
2,
1,
1,
4,
4,
4,
4,
2,
2,
4,
4,
1,
1,
10,
10,
8,
8,
6,
6,
4,
4,
4,
4,
2,
2,
3,
3,
3,
3,
3,
3,
-1,
-1,
1,
1,
-1,
-1,
1,
1,
2,
2,
0,
0,
0,
0,
0,
0,
1,
1,
0,
0,
5,
5,
5,
5,
0,
0,
5,
5,
2,
15,
15,
15,
18,
5,
6,
6,
-1,
-1,
4,
4,
5,
5,
2,
2,
12,
12,
21,
21,
17,
2,
4,
22,
21,
21,
27,
27,
25,
25,
18,
2,
2,
2,
10,
21,
20,
20,
25,
25,
19,
19,
10,
10,
7,
7,
0,
0,
3,
3,
2,
2,
6,
6,
1,
12,
12,
12,
16,
16,
18,
5,
5,
5,
5,
5,
14,
14,
12,
12,
7,
7,
0,
0,
2,
2,
2,
2,
8,
8,
7,
7,
0,
0,
4,
4,
3,
3,
-1,
-1,
8,
8,
13,
13,
10,
10,
5,
5,
1,
1,
0,
0,
0,
0,
4,
16,
16,
16,
16,
0,
2,
2,
5,
5,
6,
6,
8,
8,
0,
0,
-1,
10,
9,
25,
24,
24,
21,
21,
11,
11,
2,
2,
4,
4,
6,
6,
-1,
-1,
2,
2,
3,
3,
0,
12,
11,
11,
12,
12,
10,
-1,
0,
0,
8,
8,
10,
10,
8,
8,
7,
7,
2,
2,
6,
27,
26,
26,
30,
7,
7,
7,
11,
25,
24,
24,
26,
26,
21,
21,
18,
18,
11,
11,
3,
3,
0,
0,
7,
7,
13,
13,
14,
14,
18,
18,
15,
15,
16,
16,
16,
16,
8,
8,
1,
1,
2,
2,
7,
7,
12,
12,
10,
10,
6,
6,
5,
5,
6,
6,
9,
9,
3,
16,
15,
15,
22,
11,
12,
-1,
1,
1,
4,
4,
4,
4,
2,
2,
11,
11,
10,
-1,
1,
1,
0,
0,
6,
6,
3,
3,
2,
2,
9,
9,
13,
13,
9,
9,
6,
6,
5,
5,
-1,
-1,
3,
3,
9,
9,
12,
12,
14,
14,
11,
-1,
2,
2,
0,
0,
4,
4,
3,
3,
2,
2,
0,
0,
2,
2,
2,
2,
3,
3,
-1,
-1,
9,
9,
11,
11,
7,
7,
0,
0,
-1,
-1,
2,
2,
-1,
-1,
0,
0,
-1,
-1,
1,
1,
0,
0,
6,
6,
15,
15,
14,
14,
6,
6,
8,
29,
28,
28,
23,
23,
16,
16,
16,
16,
7,
7,
5,
5,
14,
14,
21,
21,
14,
2,
8,
8,
13,
0,
1,
1,
11,
11,
5,
5,
0,
0,
3,
3,
7,
7,
0,
0,
5,
5,
6,
6,
3,
3,
7,
7,
5,
5,
3,
3,
2,
2,
-1,
11,
11,
11,
18,
18,
11,
11,
6,
6,
0,
0,
1,
1,
5,
5,
5,
5,
6,
6,
4,
4,
4,
4,
3,
3,
-1,
10,
10,
10,
16,
4,
4,
4,
7,
7,
7,
7,
3,
3,
3,
3,
1,
1,
9,
9,
7,
7,
1,
1,
-1,
-1,
-1,
-1,
-1,
-1,
2,
2,
6,
6,
12,
0,
4,
4,
6,
6,
2,
2,
4,
4,
1,
1,
4,
4,
1,
1,
3,
3,
-1,
-1,
0,
0,
1,
1,
2,
2,
0,
0,
0,
0,
0,
0,
3,
3,
-1,
-1,
3,
3,
5,
5,
2,
2,
-1,
-1,
-1,
-1,
5,
5,
4,
4,
2,
2,
6,
6,
4,
4,
-1,
-1,
1,
1,
3,
3,
8,
8,
11,
0,
0,
0,
2,
2,
7,
7,
13,
31,
30,
16,
16,
3,
10,
23,
23,
23,
24,
12,
13,
13,
9,
9,
3,
3,
11,
11,
3,
3,
3,
3,
3,
3,
0,
0,
5,
5,
6,
6,
0,
0,
-1,
-1,
8,
8,
11,
11,
11,
11,
8,
8,
12,
12,
13,
2,
3,
3,
4,
4,
6,
6,
8,
8,
8,
8,
10,
10,
10,
10,
9,
9,
8,
8,
5,
5,
0,
0,
2,
2,
-1,
-1,
7,
7,
12,
12,
15,
15,
16,
16,
11,
11,
6,
6,
4,
4,
9,
9,
18,
18,
13,
2,
9,
26,
25,
25,
26,
26,
22,
8,
10,
10,
7,
7,
7,
7,
-1,
-1,
2,
2,
8,
8,
2,
2,
4,
4,
1,
1,
0,
0,
9,
9,
13,
13,
7,
7,
0,
0,
3,
3,
4,
4,
2,
2,
5,
5,
3,
3,
3,
3,
0,
0,
0,
0,
7,
7,
1,
17,
17,
17,
18,
4,
4,
4,
1,
1,
-1,
-1,
6,
6,
14,
14,
15,
15,
12,
12,
3,
3,
4,
4,
5,
5,
6,
6,
9,
9,
11,
11,
11,
11,
3,
3,
3,
3,
4,
4,
6,
6,
5,
5,
1,
1,
1,
16,
15,
15,
15,
0,
2,
2,
1,
1,
-1,
14,
14,
14,
11,
0,
3,
3,
11,
22,
22,
22,
25,
25,
15,
2,
2,
2,
7,
7,
11,
11,
11,
11,
17,
17,
19,
19,
15,
15,
9,
9,
6,
6,
13,
13,
9,
9,
5,
5,
8,
8,
13,
13,
15,
15,
13,
13,
6,
6,
2,
2,
5,
5,
10,
10,
9,
9,
6,
6,
-1,
-1,
1,
1,
7,
7,
4,
4,
6,
6,
3,
18,
18,
40,
40,
40,
42,
26,
27,
5,
6,
6,
3,
19,
17,
17,
22,
22,
20,
20,
19,
19,
11,
11,
7,
7,
3,
3,
2,
2,
7,
7,
5,
5,
