EMG_S1/DS0149.CSV

Memory Length,4000,
Trigger Level,0.00000e+00,
Source,CH1,
Probe,1.0X,
Vertical Units,V,
Vertical Scale,1.00000e+00,
Vertical Position,4.00000e-02,
Horizontal Units,S,
Horizontal Scale,1.00000e-01,
Horizontal Position,0.0000000e+00,
Horizontal Mode,Roll Mode,
Waveform Last Dot Address,4000,
Sampling Period,4.00000e-04,
Firmware,V1.14,
Time, ,
Mode,Fast,
Waveform Data,
10,
10,
6,
6,
0,
0,
4,
4,
9,
9,
3,
3,
9,
9,
16,
5,
6,
6,
8,
8,
4,
4,
0,
0,
2,
2,
2,
2,
8,
8,
10,
10,
1,
1,
2,
2,
5,
5,
0,
0,
10,
10,
4,
4,
5,
5,
7,
7,
8,
8,
6,
6,
0,
0,
6,
6,
11,
11,
6,
6,
5,
5,
-1,
-1,
1,
1,
4,
4,
3,
3,
6,
6,
5,
5,
6,
6,
7,
7,
2,
2,
2,
2,
3,
3,
5,
5,
0,
0,
1,
1,
0,
0,
-1,
-1,
-1,
-1,
-1,
10,
10,
23,
23,
23,
18,
4,
5,
5,
1,
1,
1,
1,
7,
7,
10,
10,
11,
11,
7,
7,
2,
2,
2,
2,
1,
1,
8,
8,
5,
5,
4,
4,
0,
0,
0,
0,
10,
10,
10,
10,
10,
10,
9,
9,
7,
7,
8,
8,
11,
11,
3,
3,
2,
2,
8,
8,
7,
7,
1,
1,
2,
2,
7,
7,
0,
0,
6,
6,
0,
0,
2,
2,
6,
6,
6,
6,
3,
3,
8,
8,
7,
7,
7,
7,
2,
2,
0,
0,
3,
3,
4,
4,
7,
7,
4,
4,
7,
7,
1,
1,
2,
16,
16,
16,
20,
7,
8,
8,
6,
6,
7,
7,
0,
0,
3,
3,
12,
12,
9,
9,
-1,
-1,
0,
0,
4,
4,
1,
1,
1,
1,
-1,
-1,
-1,
-1,
0,
0,
4,
4,
10,
10,
7,
7,
3,
3,
2,
2,
0,
0,
6,
6,
1,
1,
9,
9,
8,
8,
11,
11,
12,
12,
14,
1,
2,
2,
6,
6,
8,
8,
7,
7,
10,
10,
14,
14,
9,
9,
5,
5,
6,
19,
18,
18,
16,
3,
3,
3,
2,
2,
4,
4,
5,
5,
0,
0,
1,
1,
5,
5,
8,
8,
10,
10,
14,
14,
5,
5,
4,
4,
8,
8,
10,
10,
6,
6,
6,
6,
5,
5,
1,
1,
8,
8,
6,
6,
3,
3,
0,
0,
0,
0,
8,
8,
14,
14,
12,
12,
10,
10,
6,
6,
10,
10,
7,
7,
5,
5,
12,
12,
11,
11,
10,
10,
3,
3,
2,
2,
1,
1,
5,
5,
6,
6,
5,
5,
0,
0,
2,
2,
-1,
-1,
2,
2,
0,
0,
2,
2,
2,
2,
0,
0,
4,
4,
2,
2,
6,
6,
13,
2,
2,
2,
3,
3,
4,
4,
4,
4,
5,
5,
0,
0,
1,
1,
2,
2,
4,
4,
8,
8,
8,
8,
6,
6,
7,
7,
0,
0,
0,
0,
-1,
11,
10,
10,
13,
13,
12,
12,
9,
9,
2,
2,
0,
0,
0,
0,
1,
1,
4,
4,
2,
2,
1,
1,
2,
2,
3,
3,
9,
9,
8,
8,
2,
2,
1,
1,
1,
1,
11,
11,
16,
16,
11,
11,
11,
11,
10,
10,
2,
2,
2,
2,
0,
0,
-1,
-1,
5,
24,
24,
24,
20,
7,
8,
8,
0,
16,
16,
32,
31,
19,
19,
3,
4,
4,
8,
8,
2,
2,
10,
10,
4,
4,
2,
2,
8,
8,
8,
8,
6,
6,
3,
3,
2,
2,
10,
10,
7,
7,
2,
2,
-1,
-1,
1,
1,
5,
5,
4,
4,
6,
6,
6,
6,
1,
1,
7,
7,
10,
10,
11,
11,
6,
6,
0,
14,
14,
14,
18,
18,
24,
24,
29,
29,
27,
10,
10,
10,
11,
26,
25,
25,
27,
27,
20,
20,
12,
12,
4,
4,
2,
2,
2,
2,
-1,
-1,
1,
1,
3,
3,
5,
5,
7,
7,
6,
6,
6,
6,
4,
4,
3,
3,
2,
2,
5,
5,
5,
5,
6,
6,
2,
2,
0,
0,
1,
1,
2,
2,
3,
3,
3,
3,
7,
7,
0,
0,
6,
6,
10,
10,
3,
3,
3,
3,
1,
1,
2,
2,
5,
5,
4,
4,
4,
16,
15,
15,
11,
11,
2,
2,
0,
0,
5,
5,
9,
9,
10,
10,
7,
7,
10,
10,
20,
20,
22,
22,
18,
1,
2,
17,
16,
31,
30,
30,
30,
30,
24,
24,
30,
30,
22,
2,
3,
14,
13,
13,
13,
13,
12,
12,
9,
9,
11,
11,
14,
14,
11,
11,
6,
6,
9,
9,
9,
9,
3,
3,
2,
2,
12,
12,
16,
16,
6,
6,
13,
29,
28,
28,
34,
34,
37,
37,
38,
38,
31,
9,
9,
9,
16,
42,
42,
42,
42,
42,
36,
19,
20,
2,
4,
4,
8,
8,
7,
7,
4,
4,
0,
0,
1,
1,
0,
0,
0,
0,
0,
0,
7,
7,
14,
14,
15,
4,
5,
5,
4,
4,
0,
0,
2,
2,
2,
2,
8,
8,
17,
17,
26,
13,
13,
2,
9,
9,
18,
18,
20,
20,
26,
14,
15,
0,
4,
4,
6,
6,
5,
5,
0,
0,
1,
1,
1,
1,
3,
3,
9,
9,
13,
13,
9,
9,
3,
3,
2,
2,
2,
2,
3,
3,
4,
4,
5,
5,
6,
6,
2,
2,
8,
20,
20,
20,
15,
1,
1,
1,
6,
6,
0,
0,
1,
1,
4,
4,
4,
4,
5,
5,
13,
13,
5,
5,
0,
0,
2,
2,
2,
2,
6,
6,
0,
0,
10,
10,
8,
8,
0,
0,
-1,
-1,
2,
2,
0,
0,
6,
6,
0,
0,
0,
0,
3,
3,
2,
2,
0,
0,
0,
14,
14,
14,
19,
19,
15,
0,
1,
1,
9,
9,
6,
6,
1,
1,
4,
4,
3,
3,
6,
6,
8,
8,
7,
7,
5,
5,
0,
0,
4,
4,
3,
3,
0,
0,
3,
3,
6,
6,
13,
24,
23,
23,
15,
0,
1,
1,
3,
3,
6,
6,
4,
4,
4,
4,
0,
0,
2,
2,
7,
7,
8,
8,
5,
5,
2,
23,
22,
22,
20,
3,
4,
4,
11,
11,
7,
7,
2,
2,
3,
3,
8,
8,
15,
15,
16,
16,
9,
9,
8,
25,
24,
24,
20,
20,
12,
12,
8,
8,
2,
2,
2,
2,
2,
2,
8,
8,
14,
14,
14,
14,
8,
8,
9,
9,
14,
14,
10,
10,
6,
6,
8,
8,
6,
6,
0,
0,
5,
5,
8,
8,
8,
8,
3,
3,
10,
10,
7,
7,
8,
8,
6,
6,
0,
0,
5,
5,
8,
8,
6,
6,
0,
0,
-1,
-1,
0,
0,
0,
0,
0,
0,
3,
3,
10,
10,
8,
8,
2,
2,
7,
7,
2,
2,
2,
2,
4,
4,
4,
4,
5,
16,
16,
16,
14,
0,
2,
2,
7,
7,
10,
10,
7,
7,
4,
4,
-1,
-1,
-2,
-2,
0,
0,
6,
6,
2,
2,
8,
8,
10,
10,
5,
5,
2,
2,
2,
2,
1,
1,
7,
7,
3,
3,
2,
2,
0,
0,
6,
6,
9,
9,
6,
6,
5,
5,
5,
5,
7,
7,
10,
-1,
2,
2,
5,
5,
5,
5,
7,
7,
2,
15,
14,
14,
13,
0,
2,
15,
14,
14,
14,
14,
13,
13,
18,
2,
3,
25,
24,
24,
19,
2,
4,
4,
11,
11,
10,
10,
7,
7,
8,
22,
22,
22,
22,
22,
14,
0,
2,
2,
5,
5,
6,
6,
7,
7,
17,
17,
10,
-1,
0,
15,
15,
33,
32,
32,
29,
29,
20,
0,
2,
2,
12,
12,
15,
15,
10,
10,
8,
8,
17,
17,
13,
13,
10,
10,
15,
15,
17,
2,
5,
25,
25,
25,
21,
21,
16,
16,
11,
11,
7,
7,
8,
8,
4,
4,
3,
3,
7,
7,
4,
4,
4,
4,
11,
11,
18,
18,
10,
10,
5,
17,
16,
16,
15,
15,
5,
5,
1,
1,
2,
2,
4,
4,
4,
4,
3,
14,
12,
12,
5,
5,
3,
3,
4,
4,
3,
3,
2,
2,
8,
8,
2,
2,
8,
8,
8,
8,
0,
13,
13,
13,
11,
0,
3,
3,
10,
10,
0,
14,
14,
14,
16,
16,
7,
7,
7,
29,
29,
29,
24,
11,
12,
-1,
1,
1,
1,
1,
-1,
11,
11,
11,
10,
-1,
1,
1,
0,
0,
0,
0,
1,
1,
7,
7,
3,
3,
2,
2,
2,
2,
10,
24,
23,
23,
24,
2,
2,
14,
14,
14,
21,
1,
2,
2,
1,
1,
0,
0,
2,
2,
1,
1,
8,
8,
14,
1,
2,
2,
10,
10,
9,
9,
7,
7,
4,
4,
13,
13,
7,
7,
7,
7,
8,
8,
1,
1,
5,
5,
3,
3,
1,
1,
3,
3,
1,
1,
6,
6,
7,
7,
10,
10,
14,
14,
13,
13,
8,
8,
11,
11,
2,
27,
27,
27,
28,
7,
7,
7,
-1,
-1,
1,
1,
4,
4,
12,
12,
15,
15,
16,
16,
16,
3,
3,
3,
6,
6,
4,
4,
6,
6,
10,
10,
13,
13,
11,
11,
13,
13,
20,
46,
45,
30,
30,
3,
5,
5,
10,
-1,
1,
1,
0,
0,
2,
2,
7,
7,
6,
6,
2,
2,
-1,
-1,
-1,
-1,
4,
4,
5,
5,
1,
1,
5,
5,
0,
0,
0,
0,
4,
4,
5,
5,
13,
13,
14,
14,
18,
18,
19,
3,
4,
4,
7,
7,
9,
9,
10,
10,
5,
5,
2,
2,
2,
2,
1,
1,
6,
6,
2,
2,
0,
0,
0,
0,
4,
4,
3,
3,
5,
5,
8,
8,
6,
6,
8,
8,
8,
8,
-1,
-1,
5,
5,
0,
0,
-1,
-1,
3,
3,
11,
11,
11,
11,
7,
7,
9,
9,
5,
5,
11,
11,
4,
4,
1,
1,
-1,
-1,
6,
6,
6,
6,
2,
16,
16,
16,
22,
22,
16,
1,
2,
13,
12,
0,
2,
21,
20,
31,
30,
30,
33,
33,
24,
8,
8,
8,
8,
23,
23,
36,
35,
35,
28,
28,
29,
29,
23,
23,
17,
4,
4,
4,
5,
5,
7,
7,
13,
13,
17,
17,
10,
10,
17,
17,
21,
21,
16,
16,
15,
15,
10,
10,
7,
7,
3,
3,
0,
0,
4,
4,
0,
0,
-2,
-2,
1,
1,
3,
3,
0,
0,
10,
10,
3,
3,
2,
2,
7,
7,
12,
12,
20,
20,
16,
1,
2,
2,
1,
1,
3,
3,
2,
17,
17,
17,
20,
7,
7,
7,
0,
0,
-1,
-1,
1,
1,
2,
2,
3,
3,
3,
3,
2,
2,
-1,
-1,
0,
0,
2,
2,
0,
0,
3,
3,
1,
1,
5,
5,
3,
3,
1,
1,
2,
2,
-1,
-1,
4,
4,
6,
6,
7,
7,
9,
9,
3,
3,
1,
1,
6,
6,
0,
0,
1,
1,
-1,
-1,
2,
2,
5,
5,
10,
10,
14,
0,
0,
0,
5,
5,
6,
6,
9,
20,
20,
20,
25,
25,
15,
0,
0,
0,
3,
3,
2,
2,
5,
5,
11,
11,
7,
7,
13,
13,
16,
16,
10,
10,
9,
9,
1,
1,
6,
6,
1,
1,
2,
2,
4,
4,
11,
11,
12,
12,
11,
11,
3,
3,
1,
1,
4,
4,
5,
5,
12,
12,
13,
13,
10,
-1,
1,
1,
10,
10,
14,
14,
13,
13,
8,
8,
1,
1,
6,
6,
7,
7,
0,
16,
15,
26,
25,
25,
18,
4,
5,
5,
3,
3,
5,
5,
13,
13,
16,
16,
20,
20,
18,
6,
6,
6,
8,
8,
8,
8,
7,
7,
3,
3,
0,
0,
-1,
-1,
4,
4,
2,
2,
-1,
-1,
3,
3,
12,
12,
14,
14,
8,
8,
5,
5,
7,
7,
4,
4,
-1,
-1,
2,
2,
-1,
-1,
0,
0,
3,
3,
5,
5,
11,
11,
13,
2,
3,
3,
3,
26,
26,
40,
38,
18,
18,
1,
2,
13,
13,
13,
17,
17,
10,
10,
7,
7,
2,
2,
2,
2,
2,
2,
6,
6,
2,
2,
2,
2,
0,
0,
2,
2,
0,
0,
0,
0,
3,
3,
6,
6,
4,
4,
3,
3,
10,
10,
19,
19,
10,
-1,
-1,
-1,
3,
3,
2,
2,
5,
20,
20,
9,
9,
9,
2,
2,
1,
1,
2,
2,
10,
10,
13,
13,
14,
14,
22,
22,
21,
3,
7,
28,
27,
27,
31,
9,
10,
23,
23,
23,
17,
1,
5,
18,
17,
17,
22,
4,
4,
4,
14,
14,
10,
-1,
0,
0,
4,
4,
6,
6,
11,
11,
9,
9,
16,
16,
18,
18,
26,
26,
22,
2,
2,
2,
10,
10,
12,
12,
9,
9,
2,
2,
-1,
-1,
5,
5,
8,
8,
9,
9,
15,
4,
6,
6,
11,
11,
10,
10,
3,
16,
16,
16,
18,
18,
24,
24,
23,
23,
18,
2,
6,
18,
17,
17,
11,
11,
3,
3,
5,
5,
10,
10,
7,
7,
3,
3,
-1,
-1,
3,
3,
4,
4,
2,
2,
2,
2,
3,
15,
14,
14,
21,
21,
24,
24,
26,
7,
7,
18,
17,
17,
18,
3,
4,
4,
2,
14,
13,
13,
10,
10,
10,
10,
15,
3,
4,
4,
12,
24,
24,
24,
30,
30,
24,
8,
8,
8,
5,
5,
15,
27,
26,
26,
19,
3,
4,
4,
0,
0,
0,
0,
5,
22,
22,
22,
30,
13,
13,
2,
11,
11,
20,
20,
19,
2,
3,
3,
6,
6,
9,
20,
19,
19,
9,
9,
1,
1,
8,
8,
15,
15,
11,
0,
3,
3,
9,
9,
4,
4,
8,
8,
14,
14,
10,
10,
5,
5,
0,
0,
5,
5,
0,
0,
0,
0,
1,
1,
8,
23,
23,
23,
24,
24,
17,
0,
2,
2,
8,
8,
14,
14,
10,
10,
13,
13,
19,
19,
27,
27,
25,
9,
9,
9,
8,
21,
21,
21,
29,
29,
36,
24,
25,
8,
8,
8,
15,
28,
27,
27,
25,
14,
14,
14,
5,
5,
2,
2,
6,
6,
4,
4,
6,
22,
21,
21,
25,
12,
12,
12,
14,
14,
18,
18,
12,
12,
9,
9,
12,
12,
15,
15,
21,
21,
16,
0,
2,
2,
8,
24,
24,
24,
31,
31,
23,
23,
15,
4,
4,
4,
-1,
-1,
1,
1,
2,
2,
6,
26,
26,
26,
27,
27,
23,
23,
19,
0,
0,
0,
8,
8,
12,
12,
9,
9,
8,
8,
8,
8,
5,
5,
6,
21,
20,
20,
18,
4,
4,
4,
1,
1,
2,
2,
8,
8,
6,
6,
3,
3,
0,
0,
-1,
-1,
2,
2,
1,
1,
4,
4,
7,
7,
3,
3,
2,
2,
2,
2,
-1,
-1,
3,
3,
1,
1,
4,
4,
0,
0,
5,
5,
2,
2,
6,
6,
8,
8,
1,
1,
2,
2,
1,
1,
4,
4,
10,
10,
10,
10,
2,
2,
2,
2,
3,
3,
4,
4,
-1,
-1,
7,
26,
24,
5,
5,
5,
14,
14,
9,
9,
3,
3,
-1,
-1,
4,
4,
2,
2,
0,
0,
7,
7,
1,
1,
0,
0,
0,
15,
14,
30,
28,
28,
31,
14,
14,
1,
6,
6,
14,
14,
17,
17,
19,
19,
16,
4,
4,
4,
-1,
-1,
0,
0,
3,
3,
7,
19,
19,
19,
11,
11,
8,
8,
0,
0,
6,
6,
12,
12,
15,
0,
1,
1,
0,
0,
0,
12,
12,
12,
15,
15,
12,
-1,
0,
0,
6,
6,
5,
5,
13,
13,
5,
5,
0,
0,
0,
0,
2,
2,
6,
6,
9,
9,
10,
10,
8,
8,
0,
0,
3,
3,
12,
12,
11,
11,
3,
3,
5,
5,
6,
6,
8,
8,
2,
2,
6,
6,
12,
12,
10,
10,
17,
17,
12,
0,
2,
13,
12,
12,
14,
1,
2,
2,
11,
0,
2,
2,
11,
11,
10,
10,
5,
5,
3,
3,
8,
8,
16,
16,
15,
15,
8,
8,
6,
6,
3,
17,
17,
17,
23,
23,
25,
14,
15,
1,
5,
17,
17,
17,
20,
9,
9,
9,
5,
5,
8,
8,
13,
13,
17,
17,
23,
23,
21,
3,
4,
4,
3,
3,
8,
20,
19,
19,
24,
24,
19,
19,
14,
14,
7,
7,
3,
3,
6,
6,
3,
3,
8,
8,
6,
6,
9,
9,
9,
9,
2,
2,
4,
4,
8,
8,
11,
11,
3,
3,
6,
6,
6,
6,
5,
5,
7,
7,
12,
12,
20,
20,
19,
19,
10,
10,
9,
9,
10,
10,
2,
14,
13,
13,
20,
20,
27,
27,
20,
0,
1,
1,
5,
5,
11,
0,
1,
1,
6,
6,
13,
13,
19,
19,
22,
22,
25,
25,
23,
3,
4,
4,
14,
14,
22,
7,
7,
7,
2,
2,
-1,
-1,
-1,
-1,
0,
0,
0,
0,
2,
2,
8,
19,
18,
7,
8,
8,
1,
1,
11,
11,
14,
-1,
2,
2,
3,
19,
18,
18,
17,
17,
9,
9,
2,
2,
10,
10,
16,
2,
3,
22,
22,
22,
20,
8,
8,
8,
10,
10,
12,
0,
2,
2,
0,
0,
0,
0,
2,
2,
0,
0,
2,
2,
5,
5,
8,
8,
5,
5,
3,
3,
10,
10,
8,
8,
3,
3,
4,
4,
-1,
-1,
0,
0,
1,
1,
6,
6,
0,
0,
0,
0,
2,
2,
2,
2,
4,
4,
5,
5,
11,
11,
14,
14,
11,
11,
12,
12,
7,
7,
9,
9,
19,
19,
22,
3,
7,
23,
22,
22,
14,
3,
3,
3,
-1,
-1,
-1,
-1,
6,
6,
12,
12,
15,
15,
11,
0,
1,
1,
3,
18,
28,
28,
27,
14,
15,
0,
4,
4,
14,
14,
5,
5,
3,
3,
12,
12,
10,
-1,
0,
0,
8,
8,
5,
5,
0,
0,
-2,
-2,
5,
5,
14,
2,
2,
2,
6,
6,
3,
3,
-1,
-1,
0,
0,
1,
1,
5,
5,
6,
6,
-1,
-1,
-1,
-1,
0,
0,
8,
19,
17,
17,
16,
16,
11,
0,
1,
1,
2,
2,
4,
4,
3,
3,
-1,
-1,
3,
3,
8,
8,
13,
13,
12,
12,
8,
8,
0,
0,
5,
5,
2,
2,
2,
2,
2,
2,
4,
4,
-1,
-1,
3,
3,
9,
9,
8,
8,
1,
1,
2,
2,
5,
16,
15,
15,
20,
20,
13,
13,
6,
6,
2,
2,
0,
11,
11,
11,
11,
0,
2,
14,
13,
13,
18,
18,
21,
21,
16,
16,
19,
19,
14,
14,
6,
6,
0,
0,
1,
12,
11,
27,
26,
26,
19,
19,
19,
19,
17,
17,
7,
7,
0,
0,
0,
0,
-1,
-1,
0,
0,
3,
3,
1,
1,
0,
0,
2,
2,
0,
0,
1,
1,
0,
0,
2,
2,
4,
4,
8,
8,
8,
8,
1,
1,
5,
5,
10,
10,
5,
5,
2,
2,
0,
0,
0,
0,
3,
3,
0,
0,
5,
16,
15,
2,
5,
18,
17,
17,
26,
26,
26,
8,
10,
-1,
0,
0,
8,
8,
13,
13,
5,
5,
6,
6,
0,
0,
6,
6,
2,
2,
-1,
-1,
6,
6,
11,
11,
14,
2,
2,
2,
11,
11,
14,
14,
8,
8,
1,
1,
0,
0,
1,
1,
5,
5,
8,
8,
2,
2,
12,
12,
14,
14,
7,
7,
0,
0,
1,
1,
8,
8,
15,
15,
17,
3,
3,
3,
-1,
-1,
1,
1,
3,
3,
11,
11,
8,
8,
2,
2,
2,
2,
4,
4,
4,
4,
1,
1,
-1,
-1,
2,
2,
6,
6,
12,
12,
7,
7,
3,
3,
3,
3,
0,
0,
4,
4,
14,
14,
6,
6,
2,
2,
2,
2,
8,
8,
10,
10,
6,
6,
5,
5,
-1,
-1,
1,
1,
1,
1,
5,
5,
4,
4,
1,
1,
4,
4,
1,
1,
0,
0,
3,
3,
2,
2,
0,
0,
-1,
-1,
1,
1,
7,
7,
12,
23,
23,
23,
21,
2,
2,
2,
5,
5,
6,
6,
8,
8,
16,
16,
22,
22,
17,
1,
5,
29,
28,
28,
35,
10,
11,
11,
7,
7,
10,
10,
11,
11,
4,
4,
2,
2,
0,
0,
2,
2,
0,
0,
-1,
-1,
0,
0,
9,
9,
8,
8,
7,
7,
9,
9,
6,
6,
0,
0,
4,
4,
6,
6,
6,
6,
5,
5,
5,
5,
8,
8,
3,
3,
-1,
-1,
0,
0,
3,
3,
7,
7,
14,
14,
17,
2,
2,
2,
1,
1,
4,
4,
0,
0,
-1,
-1,
8,
8,
4,
4,
-2,
-2,
2,
2,
3,
3,
2,
2,
2,
2,
6,
6,
1,
1,
6,
6,
7,
7,
1,
1,
-1,
-1,
7,
7,
9,
9,
3,
3,
2,
2,
0,
0,
-1,
-1,
0,
0,
-2,
-2,
8,
8,
14,
14,
11,
11,
4,
4,
0,
0,
-1,
-1,
-1,
-1,
1,
1,
4,
4,
4,
4,
3,
3,
5,
5,
0,
11,
11,
11,
12,
12,
2,
2,
0,
0,
5,
5,
10,
10,
5,
5,
1,
1,
2,
2,
12,
12,
13,
0,
1,
1,
6,
6,
0,
0,
0,
0,
2,
2,
9,
9,
14,
14,
13,
13,
7,
7,
0,
0,
4,
4,
10,
10,
10,
10,
8,
8,
4,
4,
1,
1,
2,
2,
2,
2,
1,
1,
2,
2,
3,
3,
5,
5,
1,
1,
2,
2,
0,
0,
-1,
-1,
-1,
-1,
11,
11,
10,
10,
5,
5,
4,
4,
3,
3,
-1,
11,
10,
10,
15,
15,
16,
16,
11,
11,
6,
6,
8,
8,
4,
26,
25,
25,
34,
34,
30,
19,
19,
3,
4,
4,
5,
5,
5,
5,
2,
2,
7,
7,
16,
16,
14,
14,
10,
10,
7,
7,
5,
5,
4,
4,
3,
3,
2,
2,
7,
7,
6,
6,
0,
0,
4,
4,
4,
4,
5,
5,
0,
0,
2,
2,
4,
4,
3,
3,
2,
2,
2,
2,
1,
1,
1,
1,
2,
2,
6,
6,
0,
0,
3,
3,
2,
2,
10,
10,
3,
3,
-1,
10,
9,
9,
2,
2,
7,
7,
7,
7,
15,
15,
6,
6,
1,
1,
5,
5,
7,
7,
14,
14,
13,
13,
10,
10,
8,
8,
5,
5,
6,
18,
17,
17,
23,
23,
18,
18,
9,
9,
7,
7,
0,
0,
3,
3,
6,
6,
0,
0,
2,
2,
8,
8,
8,
8,
5,
5,
7,
7,
7,
7,
3,
3,
-1,
-1,
2,
2,
6,
6,
6,
6,
0,
0,
-1,
-1,
-1,
-1,
2,
2,
3,
3,
0,
0,
2,
2,
4,
4,
1,
1,
7,
7,
11,
0,
1,
1,
2,
2,
3,
3,
6,
6,
2,
2,
1,
1,
2,
2,
2,
2,
3,
3,
4,
4,
4,
4,
0,
0,
2,
2,
1,
1,
0,
0,
0,
0,
5,
5,
4,
4,
2,
2,
2,
2,
4,
4,
2,
2,
-1,
-1,
2,
2,
3,
3,
0,
0,
4,
4,
5,
5,
1,
1,
7,
7,
11,
11,
6,
6,
9,
9,
10,
10,
8,
8,
10,
10,
4,
22,
22,
22,
16,
16,
9,
9,
3,
3,
6,
6,
9,
9,
1,
1,
0,
0,
4,
4,
11,
11,
8,
8,
4,
4,
0,
14,
14,
14,
17,
17,
16,
16,
6,
6,
13,
32,
31,
31,
21,
21,
20,
20,
25,
11,
11,
11,
9,
9,
14,
14,
14,
14,
14,
14,
14,
14,
15,
15,
14,
14,
5,
5,
5,
5,
3,
3,
2,
2,
9,
9,
8,
8,
0,
0,
0,
15,
14,
27,
26,
26,
26,
26,
17,
6,
7,
7,
0,
0,
0,
0,
0,
0,
6,
6,
11,
11,
9,
9,
3,
3,
2,
2,
3,
3,
3,
3,
1,
1,
0,
0,
-1,
-1,
2,
2,
6,
6,
3,
3,
3,
3,
5,
5,
8,
8,
6,
6,
3,
3,
10,
10,
10,
10,
7,
7,
3,
3,
3,
3,
-1,
-1,
3,
3,
4,
4,
4,
4,
3,
3,
4,
4,
6,
6,
0,
0,
0,
0,
0,
0,
5,
5,
9,
9,
8,
8,
5,
5,
4,
4,
6,
6,
3,
3,
2,
2,
3,
3,
3,
3,
1,
1,
-1,
-1,
0,
0,
4,
4,
12,
12,
11,
11,
8,
8,
0,
0,
4,
4,
13,
13,
11,
11,
4,
4,
0,
0,
-1,
-1,
3,
3,
6,
6,
0,
0,
1,
1,
2,
2,
0,
0,
0,
0,
2,
2,
3,
3,
0,
0,
1,
14,
14,
14,
21,
21,
18,
18,
9,
9,
8,
8,
8,
8,
1,
1,
10,
10,
15,
15,
15,
15,
19,
19,
18,
18,
9,
9,
1,
1,
1,
1,
2,
2,
1,
1,
3,
3,
0,
15,
15,
15,
20,
20,
27,
27,
25,
25,
17,
4,
5,
5,
0,
0,
5,
5,
10,
10,
8,
8,
6,
6,
10,
10,
12,
12,
7,
7,
0,
0,
2,
2,
2,
2,
1,
1,
5,
5,
2,
2,
2,
2,
3,
3,
0,
0,
3,
3,
0,
0,
-1,
-1,
6,
6,
13,
13,
8,
8,
6,
6,
5,
5,
1,
1,
10,
10,
