EMG_S1/DS0132.CSV

Memory Length,4000,
Trigger Level,0.00000e+00,
Source,CH1,
Probe,1.0X,
Vertical Units,V,
Vertical Scale,1.00000e+00,
Vertical Position,4.00000e-02,
Horizontal Units,S,
Horizontal Scale,1.00000e-01,
Horizontal Position,0.0000000e+00,
Horizontal Mode,Roll Mode,
Waveform Last Dot Address,4000,
Sampling Period,4.00000e-04,
Firmware,V1.14,
Time, ,
Mode,Fast,
Waveform Data,
8,
8,
9,
9,
0,
0,
-2,
-2,
0,
0,
6,
6,
4,
4,
13,
13,
11,
-1,
1,
12,
11,
11,
13,
13,
12,
12,
5,
5,
4,
4,
3,
3,
1,
14,
14,
14,
17,
17,
18,
18,
13,
13,
5,
5,
1,
1,
1,
1,
3,
3,
0,
0,
8,
8,
14,
14,
13,
13,
7,
7,
2,
2,
7,
7,
14,
14,
11,
0,
2,
2,
10,
10,
0,
0,
9,
9,
17,
17,
14,
14,
6,
6,
6,
6,
15,
15,
13,
2,
11,
27,
27,
27,
24,
24,
15,
4,
5,
5,
11,
11,
14,
14,
6,
6,
0,
0,
9,
9,
10,
10,
5,
5,
3,
16,
15,
15,
18,
18,
15,
3,
4,
4,
2,
2,
2,
2,
2,
2,
1,
1,
-1,
-1,
1,
1,
0,
0,
0,
0,
0,
0,
9,
29,
28,
16,
16,
2,
8,
8,
16,
16,
13,
13,
9,
9,
10,
10,
2,
2,
7,
7,
4,
4,
2,
18,
18,
18,
15,
3,
3,
3,
0,
0,
0,
0,
2,
2,
0,
0,
5,
23,
23,
23,
24,
24,
18,
2,
2,
2,
10,
21,
21,
21,
24,
24,
27,
27,
23,
23,
14,
2,
6,
18,
16,
16,
18,
18,
20,
20,
16,
4,
4,
4,
6,
6,
3,
3,
1,
1,
1,
15,
15,
15,
21,
7,
7,
7,
4,
4,
7,
7,
0,
0,
-1,
-1,
2,
2,
8,
8,
8,
8,
4,
4,
6,
6,
7,
7,
0,
0,
6,
6,
2,
2,
10,
10,
18,
18,
22,
22,
19,
2,
5,
16,
15,
15,
10,
10,
2,
2,
7,
7,
10,
10,
8,
8,
2,
2,
1,
13,
12,
12,
11,
11,
14,
29,
28,
28,
21,
21,
14,
14,
6,
6,
2,
2,
2,
2,
0,
0,
3,
3,
2,
2,
11,
23,
22,
22,
25,
10,
10,
-1,
0,
0,
1,
1,
7,
7,
10,
10,
8,
8,
0,
0,
-1,
-1,
2,
2,
0,
0,
5,
5,
7,
7,
5,
5,
5,
5,
4,
4,
1,
1,
2,
2,
2,
2,
-1,
-1,
0,
0,
0,
0,
2,
2,
6,
6,
8,
8,
7,
7,
10,
10,
2,
2,
8,
8,
12,
12,
4,
4,
0,
0,
0,
0,
2,
2,
4,
4,
7,
7,
12,
12,
8,
8,
0,
0,
2,
2,
5,
5,
0,
0,
-1,
-1,
0,
14,
13,
26,
25,
14,
14,
2,
8,
8,
15,
15,
18,
18,
15,
15,
9,
9,
1,
1,
4,
4,
2,
2,
-1,
-1,
-1,
-1,
3,
3,
5,
5,
7,
7,
7,
7,
4,
4,
-1,
14,
14,
14,
19,
6,
6,
6,
2,
2,
1,
1,
1,
1,
8,
8,
10,
10,
9,
9,
13,
13,
10,
10,
8,
8,
2,
2,
7,
19,
18,
18,
24,
24,
30,
11,
12,
-1,
0,
0,
0,
0,
9,
9,
9,
9,
6,
6,
6,
6,
8,
8,
1,
1,
0,
0,
6,
6,
8,
8,
8,
8,
16,
16,
9,
9,
4,
4,
0,
0,
0,
0,
8,
8,
5,
5,
10,
22,
20,
20,
12,
0,
4,
4,
3,
3,
0,
0,
7,
7,
8,
8,
7,
7,
10,
10,
14,
14,
8,
8,
0,
0,
3,
3,
5,
5,
5,
5,
3,
3,
2,
2,
3,
3,
0,
0,
5,
5,
2,
2,
-1,
-1,
1,
1,
7,
7,
2,
14,
13,
13,
6,
6,
-1,
-1,
-1,
-1,
-1,
11,
10,
10,
5,
5,
7,
7,
5,
5,
2,
2,
-1,
-1,
1,
1,
5,
5,
9,
9,
18,
18,
18,
18,
11,
11,
4,
4,
0,
0,
8,
23,
22,
37,
37,
37,
36,
19,
20,
0,
2,
2,
11,
11,
12,
12,
8,
8,
0,
0,
7,
7,
11,
11,
12,
12,
14,
14,
12,
12,
16,
16,
15,
15,
12,
12,
8,
8,
7,
26,
25,
25,
27,
27,
21,
21,
12,
12,
3,
16,
16,
33,
33,
33,
35,
24,
24,
2,
4,
16,
16,
16,
13,
13,
8,
8,
14,
14,
17,
17,
16,
16,
12,
12,
11,
0,
4,
19,
19,
19,
23,
23,
18,
18,
12,
12,
6,
6,
2,
2,
8,
8,
6,
6,
0,
0,
2,
2,
5,
5,
0,
0,
2,
2,
3,
3,
-1,
-1,
1,
1,
4,
4,
7,
7,
0,
0,
1,
1,
7,
18,
17,
17,
15,
0,
2,
2,
8,
8,
4,
4,
0,
0,
9,
9,
16,
16,
13,
2,
2,
15,
15,
29,
28,
28,
27,
16,
16,
16,
8,
8,
2,
2,
0,
0,
5,
5,
12,
12,
10,
10,
13,
13,
15,
15,
14,
14,
11,
11,
12,
1,
2,
2,
1,
1,
0,
0,
3,
3,
2,
2,
1,
1,
2,
2,
3,
3,
-1,
-1,
2,
2,
-1,
-1,
5,
5,
8,
8,
6,
6,
-1,
-1,
-1,
-1,
3,
3,
1,
1,
-1,
-1,
5,
5,
9,
9,
19,
19,
23,
23,
25,
25,
21,
7,
7,
7,
13,
28,
28,
28,
32,
32,
26,
15,
15,
0,
1,
1,
7,
19,
18,
18,
19,
19,
19,
19,
23,
3,
4,
4,
4,
4,
-1,
-1,
4,
4,
10,
10,
10,
10,
16,
16,
16,
16,
6,
6,
10,
29,
29,
29,
27,
10,
11,
0,
5,
5,
8,
8,
3,
3,
0,
0,
0,
0,
1,
1,
0,
0,
0,
0,
2,
2,
0,
0,
3,
3,
6,
6,
10,
10,
13,
13,
11,
11,
8,
8,
0,
0,
7,
7,
8,
8,
11,
11,
11,
11,
3,
3,
-1,
-1,
1,
1,
3,
3,
3,
3,
3,
15,
14,
26,
25,
25,
16,
0,
1,
1,
1,
1,
7,
7,
6,
6,
6,
6,
7,
18,
17,
17,
20,
20,
18,
18,
15,
15,
8,
8,
0,
0,
4,
4,
8,
19,
19,
19,
27,
27,
22,
9,
10,
10,
5,
5,
0,
0,
3,
3,
0,
0,
1,
1,
2,
14,
13,
13,
16,
16,
20,
8,
8,
25,
25,
49,
48,
48,
45,
19,
20,
1,
2,
26,
25,
38,
37,
37,
32,
32,
27,
14,
14,
14,
9,
9,
6,
6,
3,
3,
2,
13,
13,
13,
21,
21,
19,
19,
14,
14,
14,
14,
18,
18,
14,
14,
11,
11,
10,
10,
7,
7,
1,
1,
8,
8,
8,
8,
12,
12,
8,
8,
4,
4,
8,
8,
10,
10,
1,
1,
2,
2,
6,
6,
0,
0,
2,
2,
7,
7,
13,
13,
12,
12,
5,
5,
0,
0,
0,
0,
1,
1,
3,
18,
16,
16,
11,
0,
0,
0,
3,
3,
1,
1,
8,
8,
9,
9,
6,
6,
1,
1,
6,
6,
9,
9,
1,
1,
10,
10,
9,
9,
7,
7,
6,
6,
4,
4,
0,
0,
2,
2,
8,
21,
20,
20,
30,
30,
22,
1,
2,
2,
7,
7,
3,
3,
2,
2,
2,
2,
0,
0,
7,
7,
7,
7,
8,
8,
6,
6,
1,
1,
0,
0,
3,
3,
0,
0,
-1,
-1,
5,
5,
1,
14,
13,
13,
15,
30,
28,
28,
33,
18,
19,
2,
6,
18,
17,
17,
22,
10,
10,
10,
16,
16,
19,
3,
10,
22,
22,
22,
22,
22,
22,
22,
19,
2,
3,
18,
16,
16,
22,
22,
28,
42,
41,
28,
28,
3,
4,
4,
12,
12,
16,
16,
14,
14,
10,
10,
11,
11,
16,
16,
10,
-1,
0,
0,
6,
6,
2,
2,
3,
3,
4,
4,
2,
2,
3,
3,
10,
10,
8,
8,
11,
11,
10,
10,
3,
3,
1,
1,
-1,
10,
10,
10,
9,
9,
5,
5,
0,
0,
-1,
-1,
4,
4,
9,
9,
8,
8,
7,
7,
6,
6,
4,
4,
8,
8,
10,
10,
4,
4,
3,
3,
6,
6,
2,
2,
11,
11,
18,
18,
16,
16,
10,
10,
8,
8,
10,
10,
4,
4,
3,
3,
0,
0,
10,
10,
1,
1,
0,
12,
12,
12,
14,
14,
13,
13,
11,
11,
7,
7,
2,
2,
6,
17,
16,
16,
20,
20,
12,
-1,
1,
1,
10,
10,
13,
13,
11,
0,
6,
20,
20,
20,
13,
13,
14,
14,
12,
12,
8,
8,
7,
7,
8,
8,
3,
3,
4,
4,
13,
13,
15,
15,
7,
7,
0,
0,
2,
2,
5,
5,
10,
10,
6,
6,
5,
5,
12,
12,
11,
11,
4,
4,
0,
0,
5,
5,
14,
14,
20,
7,
8,
8,
11,
11,
11,
11,
7,
7,
6,
6,
3,
3,
5,
5,
6,
6,
3,
3,
1,
1,
2,
17,
17,
17,
25,
14,
15,
4,
5,
5,
6,
6,
13,
13,
14,
-1,
0,
0,
-1,
-1,
2,
2,
3,
3,
7,
7,
12,
12,
7,
7,
2,
2,
2,
2,
1,
1,
4,
4,
4,
4,
2,
2,
2,
2,
-1,
-1,
3,
15,
14,
14,
15,
15,
9,
9,
1,
15,
14,
14,
14,
14,
7,
7,
10,
10,
11,
11,
7,
7,
0,
0,
4,
4,
2,
2,
8,
24,
23,
23,
29,
29,
32,
32,
25,
25,
16,
16,
8,
8,
2,
2,
5,
18,
17,
17,
26,
15,
15,
15,
14,
14,
23,
23,
27,
27,
18,
3,
4,
4,
2,
2,
-1,
-1,
4,
4,
0,
0,
-2,
-2,
2,
2,
3,
3,
5,
5,
2,
2,
0,
12,
12,
12,
16,
16,
14,
14,
14,
14,
6,
6,
2,
2,
5,
5,
13,
13,
19,
19,
20,
20,
21,
21,
14,
0,
2,
2,
10,
10,
6,
6,
5,
5,
7,
7,
12,
12,
5,
5,
4,
4,
12,
12,
17,
17,
15,
0,
2,
15,
15,
15,
21,
21,
16,
5,
6,
6,
11,
11,
16,
16,
11,
11,
16,
16,
9,
9,
0,
0,
3,
3,
5,
5,
7,
7,
7,
7,
1,
1,
-1,
-1,
2,
2,
2,
2,
-1,
-1,
2,
2,
1,
13,
13,
13,
19,
19,
14,
0,
1,
1,
5,
5,
3,
3,
1,
1,
0,
0,
2,
2,
2,
2,
6,
6,
15,
15,
17,
1,
2,
2,
11,
11,
16,
16,
25,
25,
20,
2,
6,
6,
12,
12,
7,
7,
1,
1,
4,
4,
8,
8,
10,
10,
4,
4,
3,
3,
3,
3,
2,
2,
4,
4,
7,
7,
6,
17,
16,
16,
16,
16,
20,
20,
11,
0,
6,
22,
22,
22,
15,
15,
8,
8,
10,
10,
2,
2,
5,
17,
16,
16,
17,
17,
8,
8,
1,
1,
9,
9,
8,
8,
4,
4,
2,
2,
1,
12,
11,
11,
17,
17,
18,
18,
20,
9,
9,
9,
0,
0,
3,
3,
12,
27,
26,
26,
26,
26,
20,
20,
19,
19,
9,
9,
3,
3,
7,
19,
18,
18,
21,
21,
12,
12,
19,
19,
19,
7,
8,
8,
1,
1,
2,
2,
11,
11,
12,
12,
6,
6,
0,
0,
1,
1,
5,
18,
16,
16,
10,
-1,
0,
0,
3,
3,
1,
1,
7,
7,
17,
17,
10,
10,
4,
4,
1,
1,
1,
1,
1,
1,
0,
0,
2,
2,
3,
3,
8,
8,
13,
13,
20,
20,
14,
3,
4,
4,
0,
0,
6,
6,
10,
10,
6,
6,
2,
2,
6,
6,
4,
4,
5,
5,
7,
7,
3,
3,
0,
22,
22,
22,
29,
9,
10,
10,
7,
7,
15,
15,
16,
16,
14,
14,
12,
12,
6,
6,
0,
0,
6,
6,
6,
6,
5,
5,
0,
0,
6,
6,
11,
11,
11,
11,
11,
11,
7,
7,
1,
1,
3,
3,
4,
4,
6,
6,
0,
0,
10,
10,
12,
12,
7,
7,
0,
0,
7,
7,
13,
13,
12,
0,
1,
1,
3,
3,
0,
0,
-1,
-1,
0,
0,
6,
6,
8,
8,
3,
3,
6,
6,
1,
14,
13,
13,
14,
14,
7,
7,
-1,
-1,
-1,
-1,
1,
1,
1,
1,
0,
0,
8,
8,
13,
2,
3,
20,
19,
30,
27,
11,
13,
13,
10,
10,
2,
14,
14,
14,
17,
17,
14,
14,
13,
13,
11,
11,
2,
2,
-1,
-1,
0,
0,
7,
7,
14,
14,
15,
15,
6,
6,
0,
0,
0,
0,
5,
5,
12,
12,
6,
6,
6,
6,
10,
10,
6,
6,
0,
0,
0,
0,
2,
2,
7,
7,
2,
2,
6,
6,
11,
0,
1,
1,
6,
6,
8,
8,
15,
15,
11,
11,
18,
3,
5,
28,
27,
27,
27,
14,
14,
2,
7,
7,
4,
4,
12,
12,
13,
0,
1,
1,
-1,
-1,
1,
14,
12,
12,
6,
6,
7,
21,
19,
30,
29,
29,
19,
3,
10,
24,
23,
23,
27,
27,
26,
26,
21,
2,
2,
2,
10,
10,
16,
16,
15,
1,
2,
2,
7,
7,
6,
6,
2,
17,
16,
28,
27,
27,
29,
29,
24,
6,
6,
6,
8,
8,
14,
14,
16,
16,
18,
18,
14,
14,
7,
7,
6,
6,
7,
7,
2,
2,
8,
8,
6,
6,
2,
2,
4,
4,
8,
8,
13,
27,
26,
26,
23,
6,
6,
6,
1,
1,
9,
9,
18,
18,
23,
23,
16,
2,
2,
2,
2,
2,
-1,
-1,
1,
14,
13,
13,
10,
10,
6,
6,
0,
0,
3,
3,
5,
5,
0,
0,
3,
3,
1,
1,
0,
0,
5,
5,
3,
3,
3,
3,
7,
7,
15,
15,
17,
17,
18,
6,
6,
6,
4,
15,
15,
15,
22,
22,
24,
24,
18,
0,
1,
1,
3,
3,
2,
2,
2,
2,
10,
10,
12,
12,
12,
12,
21,
21,
17,
3,
4,
4,
0,
0,
1,
1,
7,
7,
14,
2,
3,
3,
0,
0,
10,
10,
10,
10,
6,
6,
2,
2,
5,
24,
23,
23,
24,
12,
13,
13,
4,
4,
6,
6,
5,
5,
-1,
-1,
7,
20,
19,
19,
17,
1,
3,
3,
1,
1,
7,
7,
5,
5,
0,
0,
5,
18,
17,
17,
15,
3,
4,
4,
6,
6,
10,
10,
5,
5,
1,
1,
6,
6,
0,
0,
-1,
-1,
4,
4,
9,
9,
3,
3,
12,
12,
20,
20,
16,
3,
3,
3,
7,
7,
2,
2,
-1,
-1,
5,
16,
16,
16,
21,
34,
34,
34,
24,
3,
7,
30,
28,
39,
38,
38,
33,
33,
23,
23,
17,
4,
4,
4,
-1,
-1,
3,
15,
14,
14,
15,
15,
11,
11,
8,
8,
5,
5,
10,
10,
7,
7,
6,
6,
1,
1,
0,
0,
8,
8,
7,
7,
6,
6,
7,
7,
1,
1,
-1,
-1,
5,
5,
2,
2,
-1,
-1,
0,
0,
6,
6,
11,
11,
6,
6,
7,
7,
10,
10,
11,
11,
8,
8,
0,
0,
5,
5,
6,
6,
6,
6,
14,
14,
19,
19,
12,
0,
2,
2,
2,
2,
3,
3,
4,
4,
3,
15,
14,
14,
12,
12,
8,
8,
3,
3,
2,
2,
3,
3,
3,
3,
0,
0,
2,
2,
5,
5,
0,
0,
0,
0,
0,
0,
6,
6,
12,
12,
12,
12,
11,
11,
13,
13,
6,
6,
8,
8,
17,
17,
14,
14,
7,
7,
3,
3,
7,
7,
1,
1,
3,
3,
10,
10,
13,
13,
13,
13,
7,
7,
2,
2,
9,
9,
6,
6,
1,
1,
3,
3,
9,
9,
0,
0,
9,
9,
8,
8,
0,
0,
2,
2,
1,
14,
14,
14,
10,
-1,
0,
0,
1,
14,
13,
13,
9,
9,
1,
1,
7,
7,
2,
2,
-1,
-1,
7,
7,
2,
2,
5,
5,
9,
9,
18,
5,
5,
5,
3,
3,
3,
3,
2,
2,
0,
0,
0,
0,
4,
4,
7,
7,
12,
0,
1,
1,
1,
1,
3,
3,
4,
4,
5,
5,
3,
15,
14,
14,
18,
29,
28,
28,
21,
2,
3,
3,
9,
9,
18,
18,
22,
22,
19,
19,
9,
9,
2,
2,
1,
1,
0,
0,
2,
2,
6,
6,
6,
6,
5,
5,
4,
4,
11,
11,
9,
9,
12,
12,
6,
6,
3,
3,
5,
5,
0,
0,
5,
5,
6,
6,
11,
11,
11,
11,
7,
7,
1,
1,
0,
0,
1,
1,
7,
7,
7,
7,
4,
4,
1,
1,
0,
0,
3,
3,
5,
5,
1,
1,
5,
5,
-1,
-1,
2,
2,
7,
7,
1,
12,
11,
11,
7,
7,
0,
0,
0,
0,
4,
4,
5,
5,
10,
10,
10,
10,
15,
15,
10,
10,
3,
3,
10,
10,
18,
18,
14,
14,
9,
9,
2,
2,
2,
2,
4,
4,
4,
4,
4,
4,
6,
6,
4,
4,
2,
2,
0,
0,
4,
15,
14,
14,
18,
18,
14,
14,
8,
8,
1,
1,
4,
4,
-1,
-1,
1,
1,
4,
4,
13,
13,
7,
7,
3,
3,
12,
12,
16,
16,
10,
10,
8,
8,
13,
13,
13,
13,
4,
4,
11,
11,
16,
16,
13,
13,
10,
10,
6,
6,
14,
14,
18,
18,
17,
17,
18,
3,
3,
29,
29,
40,
40,
40,
33,
33,
26,
26,
22,
10,
11,
11,
4,
4,
4,
4,
2,
2,
6,
22,
21,
21,
27,
27,
19,
19,
10,
10,
7,
7,
6,
6,
0,
0,
2,
2,
10,
10,
17,
17,
12,
12,
4,
4,
4,
4,
6,
6,
7,
7,
2,
2,
8,
8,
11,
-1,
0,
0,
2,
2,
7,
7,
8,
8,
3,
3,
2,
2,
-1,
-1,
2,
2,
11,
11,
6,
6,
7,
7,
10,
10,
12,
12,
10,
10,
8,
8,
16,
27,
26,
26,
26,
11,
12,
12,
15,
31,
30,
30,
29,
29,
22,
10,
11,
11,
6,
6,
11,
11,
7,
7,
2,
2,
8,
8,
4,
4,
9,
9,
15,
15,
17,
17,
22,
22,
30,
30,
30,
30,
28,
28,
31,
10,
11,
11,
17,
29,
28,
28,
23,
23,
18,
18,
15,
15,
13,
13,
11,
11,
8,
8,
4,
4,
1,
1,
0,
0,
3,
3,
0,
0,
6,
6,
10,
10,
19,
19,
24,
24,
22,
22,
16,
16,
15,
15,
9,
9,
6,
6,
14,
14,
15,
15,
14,
14,
15,
15,
12,
12,
10,
10,
5,
5,
-1,
14,
14,
14,
16,
16,
9,
9,
3,
3,
5,
5,
11,
11,
9,
9,
1,
1,
3,
3,
6,
6,
11,
0,
1,
1,
2,
2,
4,
4,
2,
2,
4,
4,
2,
2,
2,
2,
10,
10,
15,
15,
13,
13,
5,
5,
2,
2,
2,
2,
5,
16,
16,
16,
23,
23,
18,
18,
14,
14,
5,
5,
0,
0,
6,
17,
16,
27,
27,
27,
22,
22,
16,
16,
8,
8,
8,
8,
13,
13,
7,
7,
10,
10,
8,
8,
4,
15,
14,
14,
14,
14,
15,
15,
9,
9,
0,
0,
6,
6,
2,
2,
10,
10,
9,
9,
18,
32,
31,
31,
25,
11,
12,
12,
14,
31,
31,
16,
16,
2,
5,
5,
6,
6,
4,
4,
0,
0,
0,
0,
0,
0,
7,
7,
11,
11,
12,
12,
19,
19,
20,
20,
11,
0,
3,
15,
14,
14,
13,
13,
10,
10,
7,
7,
1,
1,
2,
2,
-1,
-1,
0,
0,
1,
1,
7,
7,
8,
8,
1,
1,
-1,
-1,
2,
2,
8,
8,
12,
12,
18,
18,
11,
0,
1,
1,
5,
5,
7,
7,
4,
4,
0,
0,
3,
3,
8,
8,
13,
2,
2,
2,
9,
9,
16,
16,
16,
16,
9,
9,
1,
1,
7,
7,
14,
26,
24,
24,
31,
19,
19,
2,
4,
17,
16,
16,
22,
22,
15,
0,
1,
1,
4,
4,
7,
7,
8,
8,
1,
1,
2,
2,
1,
1,
0,
0,
6,
6,
15,
15,
22,
22,
14,
-1,
0,
0,
2,
2,
2,
2,
5,
5,
4,
4,
7,
7,
7,
7,
2,
2,
2,
2,
11,
11,
13,
13,
5,
5,
4,
4,
5,
5,
0,
0,
2,
2,
2,
2,
7,
7,
3,
3,
5,
5,
5,
5,
9,
28,
27,
27,
20,
2,
7,
7,
16,
16,
9,
9,
3,
16,
15,
15,
15,
3,
3,
3,
11,
11,
20,
20,
16,
16,
11,
11,
4,
4,
0,
0,
0,
0,
-1,
-1,
2,
2,
0,
0,
0,
0,
3,
3,
10,
10,
16,
16,
23,
23,
29,
29,
19,
19,
13,
13,
6,
6,
13,
13,
22,
22,
22,
22,
14,
14,
12,
12,
14,
-1,
1,
1,
7,
7,
4,
4,
2,
17,
16,
16,
22,
22,
16,
16,
18,
18,
15,
0,
1,
1,
9,
9,
12,
12,
15,
15,
12,
12,
11,
11,
2,
13,
12,
12,
16,
1,
1,
1,
4,
4,
3,
3,
6,
6,
3,
3,
4,
4,
0,
0,
1,
1,
-1,
-1,
5,
5,
12,
12,
18,
18,
11,
-1,
1,
1,
6,
6,
3,
3,
0,
0,
-1,
-1,
2,
2,
4,
4,
0,
0,
0,
0,
2,
2,
-1,
-1,
0,
0,
0,
0,
0,
0,
7,
7,
13,
13,
7,
7,
1,
1,
7,
7,
17,
17,
20,
20,
14,
1,
4,
19,
18,
18,
19,
19,
12,
-1,
2,
2,
11,
11,
16,
16,
23,
23,
21,
21,
14,
14,
5,
5,
7,
19,
19,
19,
23,
23,
20,
2,
3,
3,
13,
13,
20,
20,
25,
10,
11,
0,
7,
23,
23,
23,
22,
11,
11,
11,
2,
2,
-1,
-1,
4,
4,
8,
8,
2,
2,
0,
0,
3,
3,
7,
7,
7,
7,
12,
12,
15,
15,
10,
-1,
2,
2,
11,
0,
4,
16,
15,
15,
6,
6,
1,
1,
2,
2,
4,
4,
4,
4,
4,
4,
6,
6,
9,
9,
2,
2,
1,
1,
2,
2,
5,
5,
6,
6,
7,
7,
12,
12,
6,
6,
0,
0,
1,
1,
-1,
-1,
0,
0,
4,
4,
3,
3,
-1,
-1,
2,
2,
3,
3,
3,
3,
3,
3,
0,
0,
0,
0,
0,
0,
1,
1,
10,
10,
2,
2,
5,
5,
0,
0,
2,
2,
0,
0,
2,
2,
3,
3,
7,
7,
14,
14,
6,
6,
0,
0,
3,
3,
8,
8,
14,
2,
3,
19,
19,
19,
28,
28,
25,
25,
16,
0,
2,
2,
1,
1,
4,
4,
2,
19,
18,
31,
30,
30,
25,
10,
10,
10,
7,
7,
16,
16,
14,
14,
9,
9,
8,
8,
16,
16,
7,
7,
7,
7,
6,
6,
15,
15,
9,
9,
0,
0,
9,
9,
12,
12,
6,
6,
7,
7,
11,
0,
2,
2,
3,
3,
1,
1,
2,
2,
3,
3,
1,
1,
6,
6,
8,
8,
0,
0,
7,
7,
15,
15,
10,
10,
2,
2,
6,
6,
7,
7,
8,
8,
10,
10,
4,
4,
4,
4,
0,
0,
1,
1,
1,
1,
3,
3,
3,
3,
6,
6,
8,
8,
0,
0,
3,
3,
-1,
-1,
6,
6,
7,
7,
6,
6,
10,
10,
14,
25,
24,
24,
17,
17,
7,
7,
5,
17,
17,
17,
18,
18,
16,
16,
10,
10,
0,
0,
8,
8,
7,
7,
1,
1,
1,
1,
0,
0,
3,
3,
0,
0,
5,
21,
21,
21,
20,
4,
5,
5,
4,
4,
9,
23,
22,
22,
18,
2,
6,
6,
14,
14,
7,
7,
4,
4,
6,
6,
5,
5,
8,
8,
6,
6,
2,
2,
5,
5,
1,
1,
8,
8,
4,
4,
8,
20,
20,
20,
18,
18,
10,
10,
1,
1,
6,
6,
7,
7,
10,
10,
14,
14,
11,
11,
8,
8,
7,
7,
10,
10,
3,
19,
19,
31,
30,
30,
32,
11,
11,
11,
5,
5,
7,
7,
6,
6,
7,
7,
5,
5,
4,
4,
3,
3,
0,
0,
6,
6,
4,
4,
6,
6,
10,
10,
6,
6,
9,
9,
0,
0,
3,
3,
3,
20,
20,
20,
23,
5,
6,
6,
9,
9,
18,
18,
14,
14,
4,
15,
15,
28,
26,
26,
17,
4,
5,
5,
6,
6,
11,
11,
8,
8,
10,
10,
12,
12,
5,
5,
5,
5,
8,
8,
2,
19,
18,
34,
34,
34,
35,
35,
43,
43,
43,
9,
9,
31,
30,
46,
45,
45,
46,
34,
34,
23,
24,
24,
15,
4,
6,
6,
7,
7,
11,
11,
13,
13,
13,
13,
13,
13,
10,
10,
11,
11,
15,
15,
15,
15,
10,
10,
6,
6,
-1,
-1,
2,
2,
0,
0,
0,
0,
6,
6,
5,
5,
4,
4,
2,
2,
0,
0,
8,
8,
11,
11,
11,
11,
7,
7,
5,
5,
5,
5,
11,
0,
1,
1,
5,
5,
5,
5,
3,
3,
0,
0,
2,
2,
10,
10,
11,
11,
10,
10,
