EMG_S1/DS0175.CSV

Memory Length,4000,
Trigger Level,0.00000e+00,
Source,CH1,
Probe,1.0X,
Vertical Units,V,
Vertical Scale,1.00000e+00,
Vertical Position,4.00000e-02,
Horizontal Units,S,
Horizontal Scale,1.00000e-01,
Horizontal Position,0.0000000e+00,
Horizontal Mode,Roll Mode,
Waveform Last Dot Address,4000,
Sampling Period,4.00000e-04,
Firmware,V1.14,
Time, ,
Mode,Fast,
Waveform Data,
1,
1,
-1,
-1,
-1,
-1,
2,
2,
5,
5,
14,
14,
17,
17,
11,
0,
2,
2,
12,
12,
11,
11,
8,
8,
6,
6,
0,
0,
0,
0,
0,
0,
2,
2,
7,
7,
9,
9,
10,
10,
7,
7,
5,
5,
5,
5,
0,
0,
0,
0,
1,
1,
2,
2,
0,
0,
2,
2,
0,
0,
4,
4,
0,
0,
0,
0,
5,
5,
3,
3,
-1,
-1,
-1,
-1,
2,
2,
0,
0,
0,
0,
-1,
-1,
2,
2,
1,
1,
2,
2,
2,
2,
0,
0,
0,
17,
16,
31,
29,
18,
18,
0,
1,
1,
10,
10,
14,
14,
11,
11,
5,
5,
5,
5,
1,
1,
-1,
-1,
0,
0,
0,
0,
5,
5,
1,
1,
-1,
-1,
-1,
-1,
6,
6,
12,
12,
19,
19,
19,
19,
11,
0,
2,
13,
13,
13,
16,
16,
16,
16,
8,
8,
1,
1,
-1,
-1,
-1,
-1,
6,
6,
2,
2,
10,
10,
6,
6,
11,
11,
20,
7,
7,
7,
1,
1,
2,
2,
5,
5,
1,
1,
10,
10,
11,
11,
5,
5,
2,
2,
2,
2,
10,
10,
5,
5,
3,
14,
12,
12,
20,
20,
18,
6,
7,
7,
4,
4,
6,
6,
5,
5,
0,
0,
7,
7,
11,
11,
7,
7,
6,
6,
5,
5,
1,
1,
4,
4,
0,
0,
-1,
-1,
0,
0,
-1,
-1,
-1,
-1,
3,
3,
2,
2,
4,
4,
8,
8,
15,
15,
15,
15,
10,
10,
11,
11,
10,
-1,
1,
1,
10,
10,
10,
10,
7,
7,
4,
4,
7,
7,
12,
12,
14,
14,
13,
2,
6,
35,
34,
34,
40,
40,
32,
9,
10,
10,
6,
6,
14,
14,
18,
18,
20,
20,
17,
17,
10,
10,
6,
6,
0,
0,
2,
2,
5,
5,
5,
5,
6,
6,
6,
6,
9,
9,
16,
16,
21,
21,
14,
14,
5,
5,
4,
4,
6,
6,
8,
8,
18,
18,
12,
0,
6,
6,
7,
7,
6,
6,
8,
22,
22,
22,
13,
0,
1,
1,
7,
7,
9,
9,
8,
8,
8,
8,
4,
4,
3,
3,
-1,
-1,
3,
3,
8,
8,
5,
5,
4,
4,
7,
7,
0,
0,
8,
8,
7,
7,
18,
18,
18,
18,
26,
14,
14,
3,
4,
4,
2,
2,
11,
11,
15,
2,
3,
3,
4,
4,
6,
6,
2,
2,
6,
6,
2,
2,
0,
0,
3,
3,
0,
0,
9,
9,
12,
12,
5,
5,
8,
8,
10,
-1,
0,
0,
-1,
10,
10,
10,
15,
15,
9,
9,
3,
3,
8,
8,
7,
7,
5,
5,
2,
2,
-1,
-1,
0,
0,
5,
5,
6,
6,
4,
4,
0,
0,
2,
2,
0,
0,
0,
0,
3,
3,
1,
1,
3,
3,
3,
3,
-1,
-1,
0,
0,
6,
6,
6,
6,
0,
0,
0,
0,
-1,
-1,
0,
0,
3,
3,
4,
4,
4,
4,
8,
8,
11,
0,
1,
1,
10,
30,
29,
29,
32,
16,
16,
0,
2,
2,
11,
11,
13,
13,
8,
8,
3,
3,
0,
0,
1,
1,
5,
5,
4,
4,
4,
4,
4,
4,
0,
0,
1,
1,
2,
2,
0,
0,
3,
3,
7,
7,
9,
9,
3,
3,
2,
2,
5,
5,
4,
4,
10,
10,
13,
13,
10,
10,
8,
8,
6,
6,
2,
2,
0,
0,
2,
2,
4,
4,
14,
14,
19,
8,
8,
8,
0,
0,
2,
2,
0,
0,
0,
0,
0,
0,
-1,
-1,
2,
2,
6,
6,
12,
12,
13,
13,
14,
14,
10,
10,
1,
1,
2,
2,
6,
6,
0,
0,
1,
1,
0,
0,
-1,
-1,
3,
3,
4,
4,
2,
2,
2,
2,
8,
8,
10,
10,
6,
6,
4,
4,
5,
17,
16,
16,
12,
-1,
0,
0,
1,
1,
6,
6,
5,
5,
10,
10,
8,
8,
2,
2,
2,
2,
10,
10,
11,
11,
9,
9,
8,
8,
8,
8,
3,
3,
4,
4,
3,
3,
4,
4,
10,
10,
12,
12,
7,
7,
0,
0,
1,
1,
2,
2,
3,
3,
3,
3,
3,
20,
20,
20,
26,
6,
6,
6,
7,
7,
11,
11,
11,
11,
14,
14,
11,
11,
7,
7,
5,
5,
1,
1,
0,
0,
0,
0,
2,
2,
7,
7,
10,
10,
8,
8,
4,
4,
0,
0,
9,
9,
12,
1,
5,
23,
23,
23,
30,
14,
14,
-1,
1,
1,
4,
4,
8,
8,
5,
5,
-1,
-1,
2,
2,
5,
5,
6,
6,
3,
3,
6,
6,
6,
6,
2,
2,
0,
0,
4,
4,
6,
6,
3,
3,
-1,
-1,
-1,
-1,
-1,
-1,
8,
8,
18,
18,
20,
9,
10,
10,
1,
1,
0,
0,
5,
5,
7,
7,
6,
6,
6,
6,
5,
5,
3,
3,
1,
1,
0,
0,
4,
4,
2,
2,
6,
6,
14,
14,
18,
18,
21,
21,
15,
15,
6,
6,
5,
5,
8,
8,
11,
11,
12,
12,
12,
12,
10,
10,
6,
6,
5,
5,
11,
25,
24,
13,
13,
0,
4,
4,
7,
7,
2,
2,
5,
5,
4,
4,
7,
7,
1,
1,
2,
2,
0,
0,
4,
4,
8,
8,
0,
0,
5,
5,
6,
6,
1,
1,
3,
3,
4,
4,
13,
13,
16,
16,
11,
0,
7,
22,
21,
21,
21,
21,
15,
15,
7,
23,
22,
50,
49,
49,
47,
19,
19,
4,
13,
29,
28,
28,
31,
31,
26,
15,
15,
2,
2,
2,
3,
3,
5,
5,
8,
8,
10,
10,
13,
13,
16,
16,
11,
11,
5,
5,
-1,
-1,
5,
5,
13,
13,
8,
8,
0,
0,
7,
7,
12,
12,
12,
12,
3,
3,
6,
6,
10,
10,
5,
5,
7,
7,
7,
7,
3,
21,
20,
20,
18,
18,
10,
10,
6,
6,
0,
0,
8,
8,
13,
13,
7,
7,
1,
1,
-1,
-1,
1,
1,
3,
3,
2,
2,
6,
6,
7,
7,
7,
7,
1,
1,
0,
0,
0,
0,
2,
2,
3,
3,
3,
3,
2,
2,
-1,
-1,
3,
3,
1,
13,
12,
12,
16,
16,
7,
7,
7,
7,
14,
14,
8,
8,
2,
15,
15,
15,
21,
7,
8,
8,
2,
2,
5,
5,
6,
6,
15,
15,
17,
17,
13,
13,
6,
6,
7,
21,
20,
20,
20,
20,
13,
13,
7,
7,
2,
2,
5,
5,
13,
13,
14,
1,
3,
3,
8,
8,
1,
1,
6,
6,
9,
9,
8,
8,
7,
7,
6,
6,
3,
3,
4,
4,
-1,
-1,
5,
5,
13,
13,
14,
14,
6,
6,
7,
21,
19,
19,
15,
-1,
0,
0,
2,
2,
2,
2,
7,
7,
3,
3,
0,
0,
6,
6,
15,
15,
20,
20,
15,
15,
6,
6,
7,
7,
3,
3,
6,
17,
16,
16,
16,
16,
12,
12,
10,
10,
7,
7,
0,
0,
0,
0,
0,
0,
2,
2,
2,
2,
10,
10,
11,
11,
12,
12,
10,
10,
6,
6,
8,
8,
5,
5,
-1,
-1,
-1,
-1,
-1,
-1,
-1,
-1,
2,
2,
3,
3,
5,
5,
8,
8,
0,
0,
1,
1,
10,
10,
18,
18,
18,
18,
12,
12,
6,
17,
16,
16,
24,
11,
11,
-1,
0,
0,
-1,
-1,
-1,
-1,
2,
2,
6,
6,
3,
3,
4,
4,
1,
1,
6,
6,
5,
5,
3,
3,
0,
0,
1,
1,
4,
4,
3,
3,
0,
0,
2,
2,
5,
5,
9,
9,
10,
10,
7,
7,
1,
1,
-2,
-2,
-1,
-1,
5,
5,
0,
0,
8,
8,
11,
11,
14,
1,
5,
19,
18,
18,
26,
15,
15,
4,
5,
5,
0,
0,
7,
7,
13,
13,
16,
16,
19,
19,
15,
0,
1,
16,
16,
16,
24,
24,
18,
18,
11,
11,
2,
2,
3,
3,
3,
3,
1,
1,
0,
0,
-1,
-1,
1,
1,
8,
8,
10,
10,
6,
6,
3,
3,
2,
2,
3,
3,
7,
7,
11,
11,
17,
17,
15,
15,
7,
7,
2,
2,
-1,
-1,
-1,
-1,
2,
2,
6,
6,
8,
8,
9,
9,
5,
5,
1,
1,
6,
6,
3,
3,
-1,
-1,
6,
6,
4,
4,
2,
2,
4,
4,
2,
2,
6,
18,
16,
16,
20,
20,
23,
23,
15,
15,
9,
9,
2,
2,
7,
7,
15,
15,
13,
13,
5,
5,
1,
1,
1,
1,
5,
5,
10,
10,
5,
5,
2,
2,
-1,
-1,
0,
0,
0,
0,
2,
2,
1,
1,
10,
10,
19,
19,
21,
21,
12,
12,
7,
7,
2,
2,
3,
3,
10,
10,
9,
9,
-1,
-1,
-1,
-1,
3,
3,
2,
2,
1,
1,
6,
6,
3,
3,
2,
2,
7,
7,
7,
7,
1,
1,
11,
25,
25,
25,
18,
0,
0,
0,
6,
6,
2,
2,
10,
10,
12,
0,
2,
2,
11,
11,
10,
10,
5,
5,
-1,
-1,
5,
5,
8,
8,
7,
7,
6,
6,
2,
2,
0,
0,
3,
3,
6,
6,
5,
5,
0,
0,
1,
1,
10,
22,
21,
21,
13,
13,
6,
6,
8,
8,
4,
4,
3,
3,
5,
5,
12,
12,
8,
8,
5,
5,
8,
8,
2,
2,
3,
3,
0,
0,
7,
7,
2,
2,
5,
5,
6,
6,
2,
2,
-1,
-1,
1,
1,
3,
3,
5,
5,
5,
5,
5,
5,
0,
0,
8,
8,
5,
5,
0,
0,
2,
2,
10,
10,
7,
7,
0,
0,
6,
6,
0,
0,
6,
17,
16,
16,
19,
4,
4,
4,
7,
7,
13,
13,
8,
8,
12,
12,
9,
9,
3,
3,
0,
0,
0,
0,
5,
5,
13,
13,
10,
10,
3,
3,
2,
2,
5,
5,
4,
4,
2,
2,
10,
10,
10,
-1,
0,
0,
3,
3,
-1,
-1,
5,
5,
0,
0,
1,
1,
1,
1,
2,
2,
6,
6,
2,
2,
1,
1,
3,
3,
1,
1,
1,
1,
0,
0,
2,
2,
-1,
-1,
3,
3,
3,
3,
1,
1,
1,
1,
2,
2,
0,
0,
0,
0,
3,
3,
3,
3,
4,
4,
11,
11,
14,
14,
17,
17,
11,
0,
1,
1,
9,
9,
7,
7,
1,
1,
0,
0,
1,
1,
1,
1,
2,
2,
6,
6,
1,
1,
7,
7,
5,
5,
2,
2,
-1,
-1,
0,
0,
2,
2,
1,
1,
1,
1,
2,
2,
6,
6,
9,
9,
5,
5,
8,
8,
12,
12,
5,
5,
1,
1,
4,
4,
12,
12,
6,
6,
9,
9,
15,
15,
8,
8,
1,
1,
9,
9,
13,
2,
2,
2,
10,
10,
3,
3,
0,
0,
1,
1,
0,
0,
6,
6,
0,
0,
7,
7,
3,
3,
2,
2,
2,
2,
-1,
-1,
0,
0,
1,
1,
3,
3,
3,
3,
9,
9,
15,
15,
16,
1,
2,
2,
4,
4,
6,
6,
12,
0,
0,
11,
10,
10,
17,
17,
20,
20,
10,
10,
9,
27,
26,
26,
21,
2,
2,
2,
11,
11,
13,
2,
2,
2,
6,
6,
7,
7,
4,
4,
1,
1,
4,
4,
0,
0,
3,
3,
3,
3,
6,
6,
6,
6,
3,
3,
3,
3,
6,
6,
7,
7,
3,
3,
4,
4,
4,
4,
3,
3,
2,
2,
0,
0,
5,
5,
8,
8,
2,
2,
2,
2,
3,
3,
2,
2,
0,
0,
2,
2,
5,
5,
0,
0,
-1,
-1,
-1,
-1,
-1,
-1,
1,
1,
3,
3,
5,
5,
2,
2,
1,
1,
2,
2,
-1,
-1,
5,
5,
8,
8,
2,
2,
-1,
-1,
2,
2,
7,
7,
3,
3,
7,
7,
-1,
-1,
2,
2,
-1,
-1,
3,
3,
2,
2,
2,
2,
1,
1,
-1,
-1,
1,
1,
9,
9,
12,
0,
3,
19,
18,
18,
15,
15,
9,
9,
11,
11,
8,
8,
2,
2,
6,
6,
8,
8,
14,
2,
2,
2,
6,
6,
10,
10,
14,
14,
15,
15,
15,
15,
8,
8,
0,
0,
6,
6,
11,
11,
10,
10,
7,
7,
6,
6,
-1,
-1,
-2,
-2,
-1,
-1,
0,
0,
10,
10,
13,
13,
5,
5,
-1,
-1,
2,
2,
10,
10,
10,
10,
1,
1,
8,
8,
10,
10,
8,
8,
0,
0,
2,
2,
5,
5,
0,
0,
2,
2,
3,
3,
6,
6,
-1,
-1,
3,
3,
3,
3,
2,
14,
13,
13,
10,
10,
0,
0,
3,
3,
7,
7,
2,
2,
0,
0,
8,
8,
6,
6,
1,
1,
-1,
-1,
6,
6,
14,
14,
15,
15,
6,
6,
15,
34,
33,
33,
31,
8,
9,
9,
4,
4,
7,
7,
2,
2,
6,
6,
11,
11,
14,
14,
9,
9,
1,
1,
2,
2,
2,
2,
7,
7,
4,
4,
4,
4,
5,
5,
10,
10,
6,
6,
2,
2,
0,
0,
3,
3,
0,
0,
-1,
-1,
6,
6,
7,
7,
9,
9,
11,
11,
4,
4,
0,
0,
2,
2,
0,
0,
-1,
-1,
0,
0,
1,
1,
0,
0,
4,
4,
2,
2,
-1,
-1,
1,
1,
5,
5,
4,
4,
4,
4,
-1,
-1,
2,
2,
4,
4,
9,
9,
11,
32,
31,
31,
41,
27,
28,
5,
5,
5,
9,
9,
15,
15,
20,
20,
23,
12,
13,
13,
7,
7,
10,
10,
13,
0,
2,
2,
5,
18,
18,
35,
34,
34,
29,
7,
7,
7,
8,
8,
15,
15,
7,
7,
2,
2,
0,
0,
6,
6,
4,
4,
0,
0,
-1,
-1,
1,
1,
2,
2,
3,
3,
8,
8,
2,
2,
1,
17,
16,
39,
38,
38,
35,
16,
17,
0,
1,
13,
11,
11,
15,
15,
12,
12,
14,
14,
21,
21,
19,
19,
10,
10,
7,
7,
2,
14,
13,
13,
14,
14,
10,
10,
8,
8,
2,
2,
6,
6,
7,
7,
0,
0,
0,
14,
14,
14,
11,
-1,
0,
0,
6,
6,
8,
8,
7,
7,
1,
1,
2,
2,
2,
2,
0,
0,
2,
2,
4,
4,
0,
0,
5,
5,
6,
6,
1,
1,
0,
0,
0,
0,
2,
2,
5,
5,
4,
4,
10,
10,
12,
12,
8,
8,
2,
2,
-1,
-1,
-1,
-1,
0,
0,
5,
5,
10,
10,
6,
6,
7,
7,
10,
10,
16,
33,
33,
33,
30,
19,
19,
2,
2,
19,
19,
33,
32,
32,
26,
15,
15,
1,
3,
3,
1,
1,
4,
4,
8,
8,
0,
0,
3,
29,
28,
28,
31,
10,
10,
10,
5,
5,
9,
9,
10,
10,
3,
3,
2,
2,
5,
5,
4,
4,
-1,
-1,
0,
0,
2,
2,
10,
10,
12,
-1,
1,
1,
6,
6,
6,
6,
5,
19,
18,
18,
18,
18,
8,
8,
6,
6,
9,
9,
8,
8,
6,
6,
2,
2,
0,
0,
4,
4,
3,
3,
4,
4,
2,
2,
-1,
-1,
7,
7,
14,
14,
10,
10,
7,
7,
3,
3,
4,
4,
0,
0,
2,
2,
0,
0,
8,
8,
2,
2,
5,
5,
4,
4,
6,
6,
7,
7,
4,
4,
2,
2,
4,
4,
3,
3,
2,
2,
0,
0,
1,
1,
3,
3,
9,
9,
13,
13,
12,
12,
12,
-1,
2,
2,
8,
8,
11,
11,
10,
10,
7,
7,
6,
6,
7,
7,
4,
4,
0,
0,
0,
0,
0,
0,
2,
2,
0,
15,
15,
40,
39,
39,
41,
19,
20,
2,
2,
2,
8,
8,
18,
18,
16,
16,
11,
11,
13,
13,
9,
9,
8,
8,
8,
8,
0,
0,
10,
10,
15,
15,
12,
12,
3,
3,
-1,
-1,
0,
0,
2,
2,
-1,
-1,
2,
2,
2,
2,
0,
0,
7,
7,
5,
5,
3,
3,
11,
11,
7,
7,
0,
0,
7,
20,
19,
19,
14,
14,
9,
9,
7,
7,
4,
4,
3,
3,
0,
0,
0,
0,
2,
2,
9,
9,
14,
14,
12,
12,
11,
11,
8,
8,
2,
2,
8,
8,
7,
7,
0,
0,
9,
9,
12,
12,
6,
6,
1,
12,
11,
11,
14,
14,
11,
0,
2,
26,
26,
44,
43,
27,
27,
27,
18,
18,
11,
0,
5,
18,
17,
17,
14,
2,
3,
3,
6,
6,
14,
14,
17,
17,
18,
18,
18,
18,
12,
-1,
1,
1,
7,
7,
8,
8,
11,
11,
18,
18,
19,
19,
12,
12,
8,
8,
8,
8,
10,
10,
3,
3,
-1,
-1,
1,
1,
2,
2,
2,
2,
0,
0,
5,
5,
6,
6,
1,
1,
3,
3,
0,
0,
2,
2,
3,
3,
0,
0,
4,
4,
4,
4,
5,
5,
2,
2,
2,
2,
4,
4,
12,
12,
11,
0,
2,
15,
15,
15,
16,
16,
8,
8,
6,
22,
21,
21,
24,
24,
15,
4,
4,
4,
3,
3,
11,
11,
16,
16,
11,
11,
7,
7,
6,
6,
2,
2,
1,
1,
-1,
-1,
0,
0,
3,
3,
6,
6,
5,
5,
7,
7,
11,
11,
10,
10,
8,
8,
5,
5,
2,
2,
0,
0,
6,
6,
7,
7,
6,
6,
15,
15,
8,
8,
2,
2,
8,
8,
11,
11,
13,
13,
6,
6,
5,
5,
11,
11,
11,
11,
7,
7,
1,
1,
4,
4,
4,
4,
5,
5,
2,
2,
3,
3,
1,
1,
11,
11,
7,
7,
3,
3,
4,
4,
7,
7,
8,
8,
3,
3,
-1,
-1,
8,
8,
16,
16,
7,
7,
2,
2,
7,
7,
0,
0,
4,
4,
2,
2,
1,
1,
0,
0,
6,
6,
13,
13,
9,
9,
2,
15,
15,
15,
16,
16,
10,
10,
4,
4,
-1,
-1,
-1,
-1,
1,
1,
0,
0,
0,
0,
0,
0,
1,
1,
3,
3,
5,
5,
9,
9,
1,
1,
6,
6,
4,
4,
1,
1,
0,
0,
6,
6,
6,
6,
1,
1,
3,
3,
0,
0,
0,
0,
3,
3,
7,
7,
8,
8,
9,
43,
43,
55,
54,
25,
26,
4,
9,
22,
20,
20,
18,
18,
16,
16,
18,
18,
16,
16,
10,
10,
4,
4,
0,
0,
-1,
-1,
-1,
-1,
2,
2,
5,
5,
8,
8,
9,
9,
7,
7,
9,
9,
14,
14,
14,
14,
7,
7,
0,
0,
2,
2,
3,
3,
0,
0,
7,
7,
13,
13,
15,
15,
18,
1,
2,
17,
17,
17,
24,
24,
18,
3,
3,
3,
6,
6,
2,
2,
5,
5,
4,
4,
12,
12,
15,
15,
11,
11,
5,
5,
0,
0,
7,
7,
12,
12,
11,
11,
6,
6,
0,
0,
2,
2,
7,
7,
4,
4,
1,
1,
0,
0,
0,
0,
-1,
-1,
-1,
-1,
5,
5,
7,
7,
3,
3,
-1,
-1,
2,
2,
5,
5,
4,
4,
0,
0,
0,
0,
0,
0,
5,
5,
6,
6,
0,
0,
5,
5,
8,
8,
10,
10,
11,
11,
13,
13,
11,
0,
1,
1,
10,
10,
10,
10,
0,
0,
7,
7,
10,
10,
5,
5,
4,
4,
0,
0,
2,
2,
3,
3,
4,
4,
8,
8,
12,
12,
21,
21,
24,
6,
7,
7,
3,
3,
7,
7,
12,
12,
8,
8,
0,
0,
6,
6,
6,
6,
0,
0,
4,
4,
4,
4,
7,
7,
2,
2,
9,
9,
7,
7,
5,
5,
6,
6,
4,
4,
4,
4,
14,
14,
10,
10,
5,
5,
7,
23,
22,
22,
20,
3,
3,
3,
6,
6,
2,
2,
8,
8,
3,
3,
0,
0,
6,
6,
12,
12,
11,
0,
5,
17,
16,
16,
12,
12,
14,
14,
12,
0,
6,
6,
15,
15,
15,
15,
10,
10,
10,
10,
3,
3,
-2,
-2,
1,
1,
6,
6,
11,
11,
7,
7,
3,
3,
2,
2,
4,
4,
5,
5,
0,
0,
-1,
-1,
3,
3,
4,
4,
8,
8,
2,
2,
5,
5,
1,
1,
6,
6,
0,
0,
5,
5,
1,
1,
7,
7,
0,
0,
2,
2,
6,
6,
6,
6,
10,
10,
6,
6,
5,
5,
0,
13,
12,
12,
17,
17,
7,
7,
-1,
-1,
5,
5,
2,
2,
1,
1,
5,
5,
4,
4,
4,
4,
2,
2,
8,
8,
3,
3,
0,
0,
2,
2,
0,
0,
1,
1,
0,
0,
0,
0,
3,
3,
0,
0,
2,
2,
0,
0,
3,
3,
8,
8,
4,
4,
2,
2,
1,
1,
2,
2,
4,
4,
4,
4,
10,
10,
6,
6,
0,
0,
0,
12,
11,
11,
18,
18,
11,
0,
1,
1,
6,
6,
9,
9,
10,
10,
10,
10,
12,
12,
18,
18,
15,
15,
8,
8,
6,
6,
0,
14,
14,
26,
25,
38,
37,
37,
31,
13,
13,
0,
0,
0,
5,
5,
8,
8,
11,
11,
4,
4,
0,
0,
5,
5,
5,
5,
0,
0,
0,
0,
-1,
-1,
-2,
-2,
0,
0,
1,
1,
0,
0,
2,
2,
1,
12,
12,
12,
13,
13,
12,
12,
8,
8,
2,
14,
14,
14,
18,
5,
6,
6,
8,
8,
9,
9,
5,
5,
7,
7,
6,
6,
0,
0,
2,
2,
1,
1,
1,
1,
2,
2,
2,
2,
3,
3,
0,
0,
3,
3,
11,
11,
15,
15,
11,
0,
2,
15,
15,
15,
19,
19,
19,
19,
16,
0,
1,
1,
3,
3,
6,
6,
9,
9,
1,
1,
8,
8,
11,
11,
11,
11,
7,
7,
3,
3,
0,
0,
0,
0,
4,
4,
1,
1,
1,
1,
6,
6,
2,
2,
0,
0,
3,
3,
5,
5,
4,
15,
15,
15,
12,
12,
6,
6,
0,
0,
0,
0,
7,
7,
4,
4,
2,
2,
-1,
-1,
0,
0,
1,
1,
5,
5,
6,
6,
7,
7,
10,
10,
11,
11,
6,
6,
2,
2,
9,
32,
32,
32,
34,
14,
15,
0,
1,
1,
5,
19,
19,
19,
24,
12,
12,
12,
7,
7,
0,
18,
18,
18,
27,
16,
17,
0,
1,
1,
3,
3,
5,
5,
10,
10,
8,
8,
6,
6,
7,
7,
6,
6,
0,
0,
7,
7,
7,
7,
6,
6,
6,
6,
6,
6,
6,
6,
3,
3,
11,
11,
11,
0,
1,
1,
6,
6,
5,
5,
3,
3,
4,
4,
6,
6,
7,
7,
0,
0,
0,
0,
4,
4,
10,
10,
13,
13,
6,
6,
0,
0,
3,
3,
5,
5,
3,
3,
8,
8,
3,
3,
-1,
-1,
0,
0,
1,
1,
2,
2,
5,
5,
4,
4,
0,
11,
9,
9,
11,
11,
8,
8,
5,
5,
0,
0,
6,
6,
14,
14,
6,
6,
0,
0,
-1,
-1,
0,
0,
-1,
-1,
0,
0,
7,
7,
7,
7,
0,
0,
2,
2,
6,
6,
6,
6,
3,
3,
0,
0,
4,
4,
8,
8,
18,
18,
13,
2,
3,
3,
1,
14,
13,
13,
9,
9,
5,
5,
11,
11,
8,
8,
1,
1,
-1,
-1,
-1,
-1,
3,
3,
0,
0,
10,
10,
9,
9,
6,
6,
1,
1,
0,
0,
7,
19,
18,
18,
18,
2,
3,
3,
7,
7,
12,
12,
6,
6,
2,
2,
-1,
-1,
0,
0,
2,
2,
0,
14,
14,
28,
28,
28,
31,
31,
21,
5,
6,
6,
6,
6,
13,
13,
17,
17,
13,
13,
10,
10,
3,
3,
4,
4,
9,
9,
6,
6,
0,
0,
6,
6,
8,
8,
6,
6,
6,
6,
9,
9,
8,
8,
8,
8,
7,
7,
2,
2,
-1,
-1,
3,
3,
5,
5,
3,
3,
5,
5,
8,
8,
4,
4,
2,
2,
3,
3,
0,
0,
2,
2,
0,
0,
2,
2,
7,
7,
10,
10,
6,
6,
10,
10,
13,
13,
3,
3,
-1,
-1,
0,
0,
6,
6,
5,
5,
7,
7,
15,
15,
16,
16,
10,
10,
3,
3,
6,
29,
28,
28,
33,
21,
21,
7,
8,
8,
0,
11,
11,
11,
14,
14,
13,
13,
12,
12,
9,
9,
2,
2,
4,
4,
7,
7,
6,
6,
6,
6,
2,
2,
-1,
-1,
3,
3,
3,
14,
13,
27,
26,
14,
15,
37,
36,
64,
64,
64,
66,
31,
32,
6,
14,
35,
34,
34,
34,
34,
34,
34,
34,
23,
23,
10,
11,
0,
1,
1,
3,
3,
-2,
-2,
-1,
-1,
1,
1,
3,
3,
4,
4,
8,
8,
16,
16,
15,
15,
11,
11,
11,
11,
12,
12,
10,
10,
8,
8,
4,
4,
-1,
-1,
4,
4,
2,
2,
2,
2,
7,
7,
11,
11,
7,
7,
14,
14,
7,
7,
8,
24,
23,
23,
13,
0,
5,
5,
10,
10,
8,
8,
2,
2,
-1,
-1,
0,
0,
1,
1,
3,
3,
0,
0,
2,
2,
2,
2,
6,
6,
8,
8,
1,
1,
