EMG_S1/DS0124.CSV

Memory Length,4000,
Trigger Level,0.00000e+00,
Source,CH1,
Probe,1.0X,
Vertical Units,V,
Vertical Scale,1.00000e+00,
Vertical Position,4.00000e-02,
Horizontal Units,S,
Horizontal Scale,1.00000e-01,
Horizontal Position,0.0000000e+00,
Horizontal Mode,Roll Mode,
Waveform Last Dot Address,4000,
Sampling Period,4.00000e-04,
Firmware,V1.14,
Time, ,
Mode,Fast,
Waveform Data,
2,
2,
7,
20,
19,
19,
0,
0,
0,
0,
2,
2,
7,
7,
10,
10,
10,
10,
6,
6,
6,
6,
3,
3,
3,
3,
4,
4,
2,
2,
5,
5,
13,
13,
18,
18,
11,
-1,
1,
1,
6,
6,
4,
4,
8,
8,
9,
9,
7,
7,
5,
5,
2,
2,
0,
0,
0,
0,
-1,
-1,
2,
2,
9,
9,
11,
11,
6,
6,
0,
0,
1,
1,
1,
1,
0,
0,
5,
5,
4,
4,
-1,
-1,
7,
7,
11,
0,
1,
1,
0,
0,
2,
2,
2,
2,
0,
0,
4,
4,
7,
7,
0,
0,
3,
3,
7,
7,
7,
7,
7,
7,
4,
4,
6,
6,
5,
5,
3,
3,
5,
5,
0,
0,
8,
8,
9,
9,
6,
6,
5,
5,
11,
11,
9,
9,
2,
2,
4,
4,
2,
2,
0,
0,
0,
0,
3,
3,
5,
5,
10,
21,
20,
20,
16,
16,
8,
8,
2,
2,
3,
3,
0,
0,
3,
3,
9,
9,
9,
9,
12,
12,
14,
14,
7,
7,
3,
3,
10,
10,
16,
16,
9,
9,
0,
0,
8,
8,
12,
12,
14,
14,
11,
0,
1,
1,
8,
8,
1,
1,
2,
2,
4,
4,
0,
0,
2,
2,
2,
2,
1,
1,
1,
1,
0,
0,
0,
0,
2,
2,
3,
3,
4,
4,
4,
4,
5,
5,
3,
3,
3,
3,
5,
5,
4,
4,
1,
1,
4,
4,
3,
3,
7,
7,
5,
5,
4,
4,
2,
16,
16,
16,
16,
16,
7,
7,
1,
1,
9,
9,
8,
8,
0,
0,
3,
3,
6,
6,
0,
0,
8,
8,
15,
15,
15,
15,
14,
3,
3,
3,
8,
8,
11,
11,
5,
5,
1,
1,
0,
0,
-1,
-1,
2,
2,
3,
3,
7,
7,
0,
0,
7,
7,
14,
14,
8,
8,
5,
5,
6,
6,
6,
6,
2,
2,
6,
6,
1,
1,
6,
6,
9,
9,
4,
4,
0,
0,
2,
2,
4,
4,
0,
0,
3,
3,
5,
5,
0,
0,
9,
9,
3,
3,
0,
0,
0,
0,
1,
1,
3,
3,
0,
0,
1,
1,
0,
0,
3,
3,
1,
13,
12,
12,
11,
11,
6,
6,
11,
11,
5,
5,
2,
2,
0,
0,
-1,
-1,
1,
1,
6,
6,
7,
7,
11,
11,
5,
5,
5,
5,
11,
11,
11,
11,
10,
10,
2,
2,
3,
3,
5,
5,
6,
6,
10,
10,
14,
14,
13,
13,
7,
7,
11,
11,
19,
4,
5,
5,
15,
15,
24,
24,
19,
7,
8,
8,
1,
1,
4,
4,
5,
5,
10,
10,
7,
7,
4,
4,
1,
1,
-1,
-1,
0,
0,
5,
5,
2,
2,
2,
2,
1,
1,
2,
2,
2,
2,
-1,
-1,
6,
6,
10,
10,
13,
13,
18,
18,
11,
11,
3,
3,
3,
3,
8,
8,
12,
12,
11,
11,
10,
10,
8,
8,
0,
0,
4,
4,
6,
6,
6,
6,
8,
8,
16,
16,
10,
-1,
1,
1,
8,
8,
8,
8,
8,
8,
7,
7,
2,
19,
19,
33,
32,
32,
26,
2,
2,
15,
15,
15,
22,
22,
21,
21,
13,
13,
5,
5,
2,
2,
0,
0,
7,
7,
10,
10,
11,
11,
10,
10,
3,
3,
-1,
-1,
0,
0,
3,
3,
-1,
-1,
0,
0,
-1,
-1,
-1,
-1,
0,
0,
1,
1,
5,
5,
9,
24,
24,
24,
22,
2,
2,
2,
0,
0,
7,
7,
12,
1,
7,
23,
22,
22,
29,
29,
26,
14,
14,
14,
7,
7,
0,
0,
5,
5,
10,
10,
11,
11,
10,
10,
6,
6,
5,
5,
2,
2,
2,
2,
7,
7,
1,
1,
-1,
-1,
3,
3,
7,
7,
13,
13,
13,
13,
15,
15,
6,
6,
6,
6,
13,
13,
11,
11,
4,
4,
2,
2,
5,
5,
2,
2,
8,
8,
7,
7,
8,
8,
3,
3,
-1,
-1,
0,
11,
10,
10,
11,
11,
4,
4,
1,
1,
1,
1,
3,
3,
0,
0,
-1,
-1,
7,
7,
5,
5,
3,
3,
-1,
-1,
2,
2,
0,
0,
8,
8,
12,
12,
9,
9,
3,
17,
16,
16,
23,
23,
21,
21,
16,
4,
4,
4,
6,
6,
8,
8,
13,
13,
10,
10,
7,
7,
8,
8,
7,
7,
2,
2,
0,
0,
0,
0,
2,
2,
1,
1,
3,
16,
15,
15,
20,
20,
14,
3,
3,
3,
0,
0,
2,
2,
0,
0,
-1,
-1,
4,
4,
7,
7,
8,
8,
6,
6,
2,
2,
6,
6,
7,
7,
6,
6,
4,
4,
7,
7,
14,
14,
7,
7,
2,
2,
4,
15,
15,
15,
15,
15,
11,
11,
3,
3,
2,
2,
2,
2,
1,
1,
0,
0,
4,
16,
15,
15,
14,
14,
5,
5,
-1,
-1,
0,
0,
2,
2,
0,
0,
1,
1,
4,
4,
11,
11,
10,
10,
1,
1,
9,
9,
11,
-1,
1,
1,
0,
0,
7,
7,
3,
3,
0,
0,
0,
0,
5,
5,
11,
11,
10,
10,
3,
3,
2,
2,
0,
0,
6,
6,
1,
1,
-1,
-1,
0,
0,
5,
5,
12,
12,
11,
11,
4,
4,
-1,
-1,
2,
2,
6,
6,
11,
11,
19,
19,
23,
23,
14,
14,
5,
5,
-1,
-1,
8,
8,
1,
1,
2,
2,
4,
4,
12,
12,
11,
11,
7,
7,
3,
3,
2,
2,
0,
0,
0,
0,
0,
0,
4,
4,
2,
2,
0,
0,
2,
2,
0,
0,
1,
1,
4,
4,
7,
7,
10,
10,
9,
9,
8,
8,
3,
3,
2,
2,
7,
7,
11,
11,
4,
4,
0,
0,
1,
1,
0,
0,
2,
2,
2,
2,
0,
0,
9,
9,
14,
14,
16,
16,
10,
10,
4,
4,
3,
3,
4,
4,
0,
0,
4,
4,
11,
11,
18,
18,
14,
0,
2,
2,
7,
7,
13,
13,
16,
16,
14,
14,
6,
6,
3,
3,
0,
0,
6,
6,
15,
15,
15,
15,
10,
10,
10,
10,
12,
12,
11,
11,
9,
9,
1,
1,
6,
6,
14,
14,
18,
18,
23,
23,
25,
10,
11,
11,
2,
2,
1,
1,
6,
6,
14,
14,
16,
16,
14,
14,
10,
10,
6,
6,
2,
2,
9,
22,
22,
39,
39,
27,
27,
3,
5,
5,
14,
14,
11,
11,
10,
10,
9,
9,
7,
7,
5,
5,
1,
1,
8,
8,
11,
11,
5,
5,
2,
2,
3,
3,
2,
2,
0,
0,
7,
7,
10,
10,
2,
15,
15,
15,
15,
15,
11,
11,
8,
8,
1,
1,
7,
7,
7,
7,
5,
5,
6,
6,
9,
9,
11,
11,
9,
9,
9,
9,
7,
7,
0,
0,
7,
7,
8,
8,
4,
4,
3,
3,
1,
1,
3,
3,
2,
2,
-1,
-1,
-1,
-1,
0,
0,
2,
2,
-1,
-1,
2,
2,
5,
5,
-1,
-1,
2,
2,
4,
4,
12,
12,
8,
8,
0,
0,
1,
1,
2,
2,
8,
8,
1,
1,
2,
2,
1,
1,
0,
0,
7,
7,
12,
12,
10,
10,
9,
9,
6,
6,
0,
0,
6,
6,
13,
13,
16,
16,
17,
17,
11,
11,
4,
4,
3,
3,
3,
3,
0,
0,
3,
3,
7,
7,
1,
1,
6,
6,
13,
13,
14,
14,
14,
14,
6,
6,
2,
2,
10,
10,
14,
14,
7,
7,
1,
1,
1,
1,
0,
0,
-1,
-1,
2,
2,
2,
2,
2,
2,
7,
7,
-1,
-1,
7,
7,
10,
10,
8,
8,
3,
3,
2,
2,
-1,
-1,
7,
7,
7,
7,
7,
7,
3,
3,
4,
4,
7,
7,
7,
7,
4,
4,
1,
1,
-1,
-1,
4,
4,
0,
0,
0,
0,
-1,
-1,
0,
0,
1,
1,
10,
10,
10,
10,
5,
5,
-1,
-1,
2,
2,
0,
0,
6,
6,
7,
7,
8,
8,
3,
3,
11,
11,
10,
10,
2,
2,
9,
9,
10,
10,
13,
13,
10,
10,
7,
7,
4,
4,
2,
2,
1,
1,
0,
0,
5,
5,
0,
0,
2,
2,
6,
6,
13,
13,
10,
10,
7,
7,
6,
6,
0,
0,
0,
0,
0,
0,
1,
1,
0,
0,
5,
5,
4,
4,
3,
3,
2,
2,
2,
2,
2,
2,
2,
2,
0,
0,
4,
4,
4,
4,
0,
0,
-1,
-1,
0,
0,
3,
3,
7,
7,
10,
10,
15,
15,
20,
20,
26,
26,
24,
4,
4,
4,
0,
0,
-1,
10,
10,
22,
22,
22,
31,
31,
30,
30,
22,
22,
14,
14,
5,
5,
0,
0,
8,
8,
10,
10,
10,
10,
12,
12,
10,
10,
10,
10,
16,
16,
18,
18,
11,
11,
4,
4,
0,
0,
3,
3,
7,
7,
6,
6,
4,
4,
0,
0,
7,
7,
2,
2,
2,
2,
2,
2,
9,
9,
13,
13,
10,
-1,
1,
13,
12,
12,
15,
0,
1,
1,
6,
6,
0,
0,
8,
8,
14,
14,
11,
11,
8,
8,
5,
5,
4,
18,
17,
17,
17,
17,
12,
12,
7,
7,
3,
3,
2,
2,
5,
5,
5,
5,
5,
5,
1,
1,
-1,
-1,
1,
1,
5,
5,
7,
7,
9,
9,
9,
9,
9,
9,
4,
4,
0,
0,
0,
0,
6,
6,
14,
14,
23,
23,
28,
28,
30,
30,
25,
10,
10,
10,
10,
26,
25,
25,
31,
31,
28,
28,
26,
26,
21,
10,
10,
-1,
0,
0,
6,
6,
10,
10,
15,
15,
16,
16,
18,
18,
12,
12,
10,
10,
7,
7,
5,
5,
0,
0,
1,
1,
4,
4,
3,
3,
0,
0,
3,
3,
1,
1,
-1,
-1,
-1,
-1,
0,
0,
0,
0,
3,
3,
5,
5,
0,
0,
1,
1,
2,
2,
-1,
-1,
0,
0,
0,
0,
4,
4,
1,
1,
6,
6,
11,
11,
7,
7,
0,
0,
5,
5,
13,
13,
19,
19,
11,
11,
2,
2,
10,
26,
25,
25,
27,
10,
10,
10,
10,
26,
26,
26,
31,
31,
26,
15,
15,
15,
8,
8,
0,
0,
8,
8,
18,
18,
18,
7,
7,
7,
1,
1,
-1,
-1,
3,
3,
-1,
-1,
0,
0,
-1,
-1,
1,
1,
2,
2,
2,
2,
3,
3,
2,
2,
0,
0,
6,
6,
5,
5,
0,
0,
1,
1,
-1,
-1,
3,
3,
0,
0,
-1,
-1,
2,
2,
6,
6,
8,
8,
5,
5,
0,
0,
0,
0,
7,
7,
12,
12,
12,
12,
13,
13,
22,
22,
25,
3,
4,
26,
25,
25,
32,
32,
22,
7,
8,
8,
6,
22,
21,
21,
18,
5,
6,
6,
6,
6,
4,
4,
1,
1,
3,
3,
-1,
-1,
0,
0,
0,
0,
6,
6,
7,
7,
4,
4,
9,
9,
0,
0,
2,
2,
3,
3,
1,
1,
0,
0,
4,
4,
6,
6,
5,
5,
6,
6,
5,
5,
6,
6,
5,
5,
3,
3,
0,
0,
1,
1,
4,
4,
2,
2,
0,
0,
-1,
-1,
1,
1,
0,
0,
0,
0,
1,
1,
8,
8,
12,
12,
11,
11,
4,
4,
0,
0,
0,
0,
8,
8,
17,
30,
29,
29,
34,
16,
16,
0,
0,
0,
4,
4,
11,
11,
20,
20,
22,
22,
17,
4,
5,
5,
2,
2,
6,
22,
22,
22,
24,
6,
6,
6,
10,
10,
7,
7,
2,
2,
7,
7,
8,
8,
7,
7,
6,
6,
2,
2,
2,
2,
12,
12,
16,
16,
20,
20,
20,
20,
11,
11,
2,
2,
5,
5,
7,
7,
4,
4,
6,
6,
8,
8,
6,
6,
1,
1,
8,
8,
10,
10,
4,
4,
0,
0,
4,
4,
2,
2,
-1,
-1,
2,
2,
6,
6,
5,
5,
2,
2,
2,
2,
2,
2,
-1,
-1,
2,
2,
2,
2,
6,
6,
5,
5,
2,
2,
0,
0,
0,
14,
13,
27,
27,
27,
22,
4,
4,
4,
0,
0,
4,
4,
9,
9,
13,
13,
7,
7,
0,
0,
0,
0,
3,
3,
4,
4,
5,
5,
4,
4,
0,
0,
7,
7,
10,
10,
11,
11,
11,
11,
14,
14,
16,
16,
11,
11,
6,
6,
2,
2,
6,
6,
5,
5,
6,
6,
7,
7,
9,
9,
7,
7,
8,
8,
6,
6,
6,
6,
3,
3,
2,
14,
12,
12,
14,
14,
6,
6,
-1,
-1,
1,
1,
0,
0,
0,
0,
-1,
-1,
2,
2,
8,
8,
11,
11,
15,
15,
14,
14,
10,
10,
7,
7,
0,
0,
6,
6,
6,
6,
11,
11,
12,
12,
4,
4,
1,
1,
0,
0,
2,
2,
6,
6,
0,
0,
8,
8,
10,
10,
6,
6,
1,
1,
-1,
-1,
5,
5,
4,
4,
-1,
-1,
6,
6,
10,
10,
11,
11,
6,
6,
6,
6,
11,
11,
4,
4,
7,
7,
11,
11,
10,
10,
6,
6,
1,
1,
2,
2,
3,
3,
4,
4,
0,
0,
5,
5,
12,
23,
23,
23,
22,
8,
9,
9,
9,
9,
14,
14,
8,
8,
4,
4,
1,
1,
0,
0,
2,
2,
3,
3,
8,
8,
5,
5,
2,
2,
2,
2,
-1,
-1,
4,
4,
8,
8,
1,
1,
1,
1,
2,
2,
4,
4,
4,
4,
0,
0,
1,
1,
2,
2,
6,
6,
4,
4,
-1,
-1,
1,
1,
3,
3,
2,
2,
5,
5,
1,
1,
7,
7,
0,
0,
10,
10,
11,
11,
12,
12,
3,
3,
0,
0,
2,
2,
8,
8,
10,
10,
7,
7,
6,
6,
8,
8,
6,
6,
0,
0,
1,
1,
2,
2,
4,
17,
17,
29,
27,
27,
34,
22,
23,
1,
2,
2,
7,
7,
6,
6,
4,
4,
8,
8,
15,
15,
16,
16,
6,
6,
3,
3,
0,
0,
0,
0,
2,
2,
3,
3,
11,
11,
10,
10,
5,
5,
-1,
-1,
3,
3,
5,
5,
0,
0,
2,
2,
1,
1,
0,
0,
2,
2,
-1,
-1,
-1,
-1,
0,
0,
1,
1,
8,
8,
9,
9,
3,
3,
0,
0,
0,
0,
0,
0,
0,
0,
0,
0,
6,
6,
6,
6,
1,
1,
2,
2,
4,
4,
7,
7,
11,
11,
8,
8,
4,
4,
0,
0,
7,
7,
15,
15,
17,
17,
17,
17,
21,
21,
18,
3,
4,
4,
7,
7,
10,
10,
18,
18,
23,
23,
15,
2,
4,
4,
3,
3,
5,
5,
0,
0,
4,
4,
3,
3,
8,
8,
14,
14,
6,
6,
0,
0,
7,
7,
2,
2,
7,
7,
7,
7,
0,
0,
0,
0,
4,
4,
0,
0,
8,
8,
12,
12,
8,
8,
0,
0,
4,
4,
5,
5,
4,
4,
2,
2,
1,
1,
0,
0,
4,
4,
1,
1,
4,
4,
7,
7,
10,
10,
15,
15,
9,
9,
3,
15,
14,
14,
16,
16,
13,
13,
9,
9,
1,
1,
8,
8,
8,
8,
7,
7,
16,
16,
19,
8,
8,
8,
0,
0,
5,
5,
10,
10,
8,
8,
7,
7,
6,
6,
0,
0,
8,
8,
14,
14,
7,
7,
1,
1,
3,
3,
5,
5,
5,
5,
0,
0,
3,
3,
7,
7,
4,
4,
0,
0,
3,
3,
3,
3,
0,
0,
-1,
-1,
3,
3,
2,
2,
-1,
-1,
-1,
-1,
1,
1,
6,
6,
9,
9,
7,
7,
3,
3,
8,
8,
7,
7,
5,
5,
4,
4,
0,
0,
3,
3,
4,
4,
1,
1,
3,
3,
1,
1,
3,
3,
0,
0,
2,
2,
-1,
10,
9,
9,
13,
13,
12,
12,
6,
6,
0,
0,
2,
2,
5,
5,
11,
11,
11,
-1,
1,
1,
8,
8,
2,
2,
2,
2,
6,
6,
10,
10,
5,
5,
-1,
-1,
3,
3,
6,
6,
1,
1,
6,
6,
1,
1,
0,
0,
0,
0,
3,
3,
4,
4,
6,
6,
4,
4,
4,
4,
4,
4,
2,
2,
4,
4,
3,
3,
5,
5,
10,
10,
11,
11,
8,
8,
9,
9,
3,
3,
3,
3,
0,
0,
7,
7,
10,
10,
7,
7,
0,
0,
0,
0,
2,
2,
3,
3,
2,
2,
4,
4,
0,
0,
3,
3,
3,
3,
-2,
-2,
0,
0,
5,
5,
7,
7,
11,
11,
11,
11,
6,
6,
0,
0,
0,
0,
2,
2,
4,
4,
0,
0,
4,
4,
6,
6,
7,
7,
1,
1,
5,
5,
8,
22,
22,
35,
34,
21,
22,
6,
6,
6,
1,
14,
14,
14,
22,
22,
26,
26,
25,
25,
17,
17,
11,
11,
4,
4,
4,
4,
13,
13,
11,
11,
8,
8,
5,
5,
6,
6,
9,
9,
11,
11,
11,
11,
13,
13,
12,
12,
9,
9,
6,
6,
0,
0,
6,
6,
8,
8,
7,
7,
8,
8,
7,
7,
9,
9,
1,
1,
0,
0,
1,
1,
1,
1,
10,
10,
8,
8,
2,
2,
1,
1,
2,
2,
0,
0,
0,
0,
6,
6,
8,
8,
12,
12,
11,
11,
4,
4,
2,
2,
9,
9,
7,
7,
1,
1,
1,
1,
8,
8,
8,
8,
2,
2,
4,
4,
5,
5,
0,
0,
5,
5,
8,
8,
7,
7,
7,
7,
8,
8,
3,
3,
3,
3,
4,
4,
0,
0,
0,
0,
-1,
-1,
2,
2,
2,
2,
0,
0,
4,
4,
7,
7,
4,
4,
1,
1,
5,
5,
6,
6,
0,
0,
1,
1,
2,
2,
8,
19,
18,
18,
14,
0,
2,
2,
5,
5,
2,
2,
4,
4,
6,
6,
12,
12,
11,
11,
8,
8,
7,
7,
0,
0,
10,
10,
17,
17,
18,
18,
22,
22,
19,
4,
4,
4,
6,
6,
12,
12,
4,
4,
2,
2,
8,
25,
24,
24,
30,
30,
22,
22,
14,
3,
4,
4,
1,
1,
5,
5,
8,
8,
12,
12,
11,
11,
10,
10,
11,
11,
10,
10,
4,
4,
-1,
-1,
-1,
-1,
0,
0,
3,
3,
2,
2,
-1,
-1,
2,
2,
-1,
-1,
0,
0,
1,
1,
1,
1,
3,
3,
0,
0,
4,
4,
2,
2,
0,
0,
8,
8,
7,
7,
1,
1,
4,
4,
2,
2,
2,
16,
15,
15,
8,
8,
4,
4,
5,
5,
2,
16,
15,
15,
19,
19,
13,
0,
1,
1,
2,
2,
1,
1,
2,
2,
8,
8,
14,
14,
19,
19,
17,
0,
1,
1,
6,
6,
9,
9,
11,
11,
2,
2,
6,
6,
10,
10,
11,
11,
10,
10,
10,
10,
7,
7,
1,
1,
10,
10,
9,
9,
6,
6,
3,
3,
-1,
-1,
2,
2,
1,
1,
10,
10,
9,
9,
0,
0,
3,
3,
11,
11,
10,
10,
1,
1,
3,
17,
16,
16,
15,
4,
4,
4,
0,
0,
3,
3,
3,
3,
0,
0,
2,
2,
6,
6,
3,
3,
-1,
-1,
0,
0,
3,
3,
6,
6,
4,
4,
-1,
-1,
-1,
-1,
1,
1,
7,
7,
14,
14,
22,
22,
25,
25,
18,
18,
10,
10,
5,
5,
6,
6,
8,
8,
5,
18,
16,
16,
23,
23,
22,
22,
13,
13,
7,
7,
2,
2,
3,
3,
6,
6,
11,
11,
13,
13,
11,
11,
8,
8,
7,
7,
3,
3,
5,
5,
3,
3,
-1,
-1,
-1,
-1,
5,
5,
10,
10,
3,
3,
4,
4,
3,
3,
5,
5,
5,
5,
0,
0,
-1,
-1,
0,
0,
6,
6,
11,
11,
6,
6,
2,
2,
-1,
-1,
4,
4,
4,
4,
4,
4,
-1,
-1,
2,
2,
0,
0,
2,
2,
2,
2,
8,
8,
15,
15,
12,
12,
7,
7,
0,
12,
11,
27,
27,
27,
35,
24,
24,
24,
15,
2,
3,
3,
8,
8,
8,
8,
15,
15,
18,
18,
17,
17,
15,
15,
9,
9,
3,
3,
-1,
-1,
0,
0,
8,
8,
14,
14,
14,
14,
9,
9,
6,
6,
4,
4,
3,
3,
0,
0,
1,
1,
6,
6,
6,
6,
9,
9,
11,
11,
5,
5,
6,
6,
11,
11,
13,
13,
14,
14,
11,
0,
5,
5,
11,
11,
7,
7,
6,
6,
2,
2,
3,
3,
4,
4,
-1,
-1,
4,
4,
7,
7,
7,
7,
3,
3,
1,
1,
0,
0,
4,
18,
17,
17,
22,
22,
19,
3,
3,
3,
10,
10,
16,
16,
9,
9,
1,
1,
-1,
-1,
1,
1,
0,
0,
0,
0,
-1,
-1,
4,
4,
8,
8,
8,
8,
6,
6,
6,
6,
12,
1,
2,
2,
3,
3,
7,
7,
11,
11,
8,
8,
0,
0,
1,
1,
2,
2,
2,
2,
2,
2,
0,
16,
15,
15,
14,
14,
10,
10,
0,
0,
3,
3,
6,
6,
2,
2,
0,
0,
0,
0,
-2,
-2,
2,
2,
8,
8,
14,
14,
9,
9,
4,
4,
7,
7,
8,
8,
8,
8,
7,
7,
1,
1,
0,
0,
1,
1,
9,
9,
13,
13,
7,
7,
5,
5,
0,
0,
6,
6,
5,
5,
3,
3,
-1,
-1,
8,
8,
6,
6,
2,
2,
5,
5,
4,
4,
1,
1,
2,
2,
1,
1,
3,
3,
1,
1,
0,
0,
0,
0,
0,
0,
-1,
-1,
3,
3,
4,
4,
2,
2,
0,
0,
-1,
-1,
2,
2,
-1,
-1,
2,
2,
9,
9,
10,
10,
2,
2,
1,
1,
-1,
-1,
3,
3,
1,
1,
6,
6,
9,
9,
10,
10,
12,
12,
10,
10,
6,
6,
11,
11,
4,
4,
0,
0,
0,
0,
9,
9,
9,
9,
5,
5,
2,
2,
3,
3,
7,
7,
6,
6,
1,
1,
2,
2,
2,
2,
5,
5,
2,
2,
1,
1,
0,
0,
3,
3,
6,
6,
2,
2,
-1,
-1,
0,
0,
2,
2,
-1,
-1,
0,
0,
6,
6,
14,
14,
13,
13,
7,
7,
3,
3,
0,
0,
0,
0,
10,
10,
14,
14,
8,
8,
4,
4,
3,
3,
1,
1,
-1,
-1,
2,
2,
2,
2,
-1,
-1,
0,
0,
2,
2,
8,
8,
10,
10,
11,
11,
13,
13,
9,
9,
3,
3,
4,
4,
0,
0,
2,
2,
10,
10,
11,
11,
10,
10,
2,
2,
7,
7,
15,
15,
17,
17,
10,
10,
2,
2,
4,
4,
6,
6,
0,
0,
0,
0,
8,
8,
12,
12,
8,
8,
0,
0,
4,
4,
2,
2,
6,
6,
11,
11,
12,
12,
10,
10,
0,
0,
-1,
-1,
7,
7,
1,
1,
5,
5,
6,
6,
4,
4,
3,
3,
7,
7,
1,
1,
5,
5,
9,
9,
3,
3,
1,
1,
0,
0,
2,
2,
3,
3,
7,
7,
8,
8,
1,
1,
7,
7,
-1,
-1,
4,
4,
5,
5,
2,
2,
-1,
-1,
-1,
-1,
3,
3,
6,
6,
-1,
-1,
2,
2,
0,
0,
2,
2,
0,
0,
3,
3,
-1,
-1,
7,
7,
16,
16,
12,
-1,
0,
0,
5,
5,
7,
7,
10,
10,
7,
7,
0,
0,
3,
3,
3,
3,
1,
1,
10,
10,
14,
14,
18,
4,
4,
4,
3,
3,
2,
2,
3,
3,
4,
4,
1,
1,
1,
1,
8,
8,
9,
9,
5,
5,
5,
5,
0,
0,
6,
6,
10,
10,
8,
8,
0,
0,
2,
2,
0,
0,
5,
5,
4,
4,
2,
2,
5,
5,
8,
8,
12,
12,
11,
11,
10,
10,
6,
6,
2,
2,
4,
4,
7,
7,
6,
6,
0,
0,
1,
1,
0,
0,
7,
7,
9,
9,
2,
2,
3,
3,
2,
2,
6,
6,
1,
1,
8,
8,
6,
6,
0,
0,
0,
0,
7,
7,
11,
11,
10,
10,
10,
10,
7,
7,
0,
0,
8,
8,
9,
9,
4,
4,
0,
0,
2,
2,
4,
4,
3,
3,
-1,
-1,
0,
0,
0,
0,
1,
1,
0,
0,
1,
1,
4,
17,
16,
16,
13,
13,
4,
4,
2,
2,
5,
16,
15,
15,
20,
8,
8,
8,
9,
9,
15,
15,
14,
14,
11,
11,
11,
11,
10,
10,
3,
3,
0,
0,
3,
3,
4,
4,
5,
5,
6,
6,
4,
4,
0,
0,
5,
5,
0,
13,
12,
12,
21,
21,
17,
17,
9,
9,
2,
2,
5,
5,
6,
6,
0,
0,
5,
5,
14,
14,
21,
21,
16,
16,
7,
7,
5,
5,
1,
1,
10,
10,
14,
14,
8,
8,
-1,
-1,
4,
4,
4,
4,
0,
0,
0,
0,
0,
0,
1,
1,
-1,
-1,
7,
7,
14,
14,
15,
15,
14,
14,
8,
8,
8,
8,
16,
16,
11,
11,
3,
3,
8,
22,
21,
21,
23,
23,
15,
15,
12,
12,
12,
12,
8,
8,
5,
5,
8,
20,
20,
20,
16,
16,
7,
7,
4,
4,
2,
2,
