EMG_S1/DS0157.CSV

Memory Length,4000,
Trigger Level,0.00000e+00,
Source,CH1,
Probe,1.0X,
Vertical Units,V,
Vertical Scale,1.00000e+00,
Vertical Position,4.00000e-02,
Horizontal Units,S,
Horizontal Scale,1.00000e-01,
Horizontal Position,0.0000000e+00,
Horizontal Mode,Roll Mode,
Waveform Last Dot Address,4000,
Sampling Period,4.00000e-04,
Firmware,V1.14,
Time, ,
Mode,Fast,
Waveform Data,
1,
1,
4,
4,
6,
6,
2,
2,
10,
10,
7,
7,
7,
7,
16,
16,
10,
-1,
0,
0,
-1,
-1,
0,
0,
2,
2,
4,
4,
10,
10,
15,
15,
12,
0,
0,
12,
11,
11,
10,
10,
2,
14,
14,
14,
17,
17,
10,
10,
3,
3,
-1,
-1,
-1,
-1,
6,
6,
6,
6,
3,
3,
0,
0,
7,
7,
4,
4,
3,
15,
14,
14,
7,
7,
9,
9,
7,
7,
-1,
-1,
0,
0,
1,
1,
11,
11,
10,
10,
7,
7,
8,
8,
0,
0,
5,
5,
2,
2,
4,
4,
1,
1,
0,
0,
3,
3,
0,
0,
0,
0,
-1,
-1,
0,
0,
2,
2,
-1,
-1,
2,
2,
4,
4,
7,
7,
15,
15,
23,
23,
22,
22,
15,
3,
3,
3,
5,
5,
12,
12,
18,
18,
24,
24,
19,
19,
12,
12,
2,
2,
4,
4,
13,
2,
3,
3,
10,
22,
22,
22,
26,
26,
21,
7,
7,
7,
11,
11,
14,
14,
6,
6,
0,
0,
0,
0,
3,
3,
9,
9,
15,
15,
21,
21,
23,
11,
12,
12,
5,
5,
3,
3,
5,
19,
18,
18,
24,
24,
28,
28,
19,
1,
2,
2,
12,
12,
6,
6,
-1,
-1,
5,
5,
13,
13,
6,
6,
3,
3,
6,
6,
2,
2,
2,
2,
7,
7,
6,
6,
3,
14,
13,
13,
15,
15,
14,
14,
9,
9,
4,
4,
9,
9,
8,
8,
2,
2,
12,
12,
11,
22,
22,
33,
32,
32,
38,
24,
24,
1,
3,
16,
15,
15,
20,
20,
15,
15,
10,
10,
2,
2,
4,
4,
3,
3,
0,
0,
3,
3,
6,
6,
11,
11,
8,
8,
0,
0,
1,
1,
6,
6,
3,
3,
1,
1,
4,
4,
3,
3,
7,
7,
9,
9,
10,
10,
10,
10,
13,
13,
5,
5,
0,
0,
0,
0,
4,
4,
1,
1,
6,
6,
5,
5,
3,
3,
6,
6,
7,
7,
8,
8,
2,
2,
-1,
-1,
0,
0,
0,
0,
2,
2,
-1,
-1,
7,
7,
12,
1,
2,
2,
10,
30,
30,
30,
32,
17,
18,
18,
16,
16,
13,
0,
1,
15,
15,
26,
26,
26,
24,
11,
11,
11,
2,
2,
6,
6,
6,
6,
7,
7,
4,
4,
11,
11,
19,
19,
16,
16,
6,
6,
4,
4,
12,
12,
16,
16,
8,
8,
8,
21,
21,
21,
27,
27,
19,
2,
6,
6,
16,
16,
14,
14,
8,
8,
4,
4,
2,
2,
0,
0,
2,
2,
1,
1,
4,
4,
2,
17,
17,
17,
26,
13,
14,
0,
2,
2,
2,
2,
7,
7,
2,
2,
4,
4,
2,
2,
9,
9,
10,
10,
9,
9,
0,
0,
9,
9,
18,
18,
28,
10,
10,
10,
10,
10,
17,
17,
13,
13,
6,
6,
0,
0,
-1,
-1,
6,
6,
3,
14,
14,
14,
21,
3,
3,
3,
2,
2,
2,
2,
1,
1,
6,
6,
7,
7,
0,
0,
8,
8,
13,
13,
13,
2,
5,
25,
24,
24,
17,
2,
3,
3,
8,
8,
11,
11,
6,
6,
11,
11,
8,
22,
21,
21,
18,
18,
14,
14,
11,
11,
7,
7,
5,
5,
1,
1,
8,
8,
5,
19,
19,
19,
23,
23,
20,
5,
5,
5,
4,
4,
1,
1,
8,
8,
10,
10,
4,
4,
0,
0,
5,
5,
4,
4,
11,
11,
15,
3,
4,
4,
6,
6,
6,
6,
8,
8,
10,
10,
8,
8,
4,
4,
1,
1,
6,
6,
3,
3,
5,
5,
1,
1,
3,
20,
19,
19,
24,
13,
13,
1,
7,
22,
21,
21,
20,
20,
12,
0,
2,
24,
23,
23,
29,
29,
27,
27,
11,
11,
5,
5,
8,
8,
14,
14,
10,
10,
7,
21,
21,
21,
26,
15,
15,
2,
2,
2,
1,
1,
1,
1,
10,
10,
15,
15,
18,
2,
7,
24,
24,
24,
15,
3,
13,
13,
19,
19,
13,
0,
1,
1,
7,
7,
6,
6,
2,
2,
0,
0,
1,
1,
2,
2,
1,
1,
1,
1,
2,
13,
12,
12,
14,
14,
10,
10,
4,
4,
-1,
-1,
2,
2,
5,
18,
17,
17,
10,
10,
2,
2,
10,
30,
30,
30,
26,
8,
9,
9,
0,
11,
11,
11,
13,
13,
6,
6,
13,
13,
11,
11,
2,
2,
9,
9,
13,
13,
10,
-1,
0,
17,
16,
16,
19,
19,
14,
14,
5,
5,
9,
9,
9,
9,
0,
0,
2,
2,
1,
1,
9,
25,
24,
24,
20,
2,
6,
20,
18,
18,
23,
23,
23,
23,
23,
11,
13,
2,
6,
6,
9,
25,
25,
43,
42,
28,
29,
3,
4,
4,
10,
10,
13,
13,
18,
18,
16,
2,
3,
3,
0,
0,
2,
2,
6,
6,
13,
13,
12,
0,
0,
0,
-1,
-1,
2,
2,
10,
10,
10,
10,
5,
5,
0,
12,
11,
11,
15,
15,
7,
7,
5,
5,
0,
0,
7,
7,
4,
4,
1,
1,
7,
7,
0,
0,
2,
2,
7,
7,
2,
14,
13,
-1,
0,
0,
2,
2,
-1,
-1,
0,
0,
-1,
-1,
5,
5,
6,
6,
3,
3,
1,
15,
15,
30,
29,
15,
15,
0,
2,
15,
14,
14,
23,
23,
21,
21,
18,
18,
10,
10,
4,
16,
16,
2,
2,
2,
0,
18,
18,
36,
35,
35,
30,
5,
7,
7,
12,
12,
17,
17,
16,
16,
20,
20,
23,
3,
3,
3,
8,
8,
5,
5,
2,
2,
6,
6,
7,
7,
4,
18,
17,
41,
41,
41,
34,
15,
15,
2,
3,
3,
9,
21,
20,
20,
23,
23,
22,
22,
20,
7,
7,
7,
1,
1,
6,
6,
6,
6,
0,
0,
0,
11,
11,
11,
12,
1,
7,
7,
10,
10,
4,
4,
11,
24,
24,
24,
20,
9,
10,
10,
6,
6,
6,
6,
5,
5,
8,
8,
14,
14,
18,
18,
1,
1,
3,
34,
34,
45,
41,
13,
14,
2,
10,
27,
27,
27,
23,
5,
6,
6,
5,
5,
8,
8,
14,
14,
8,
8,
2,
34,
34,
34,
41,
21,
22,
8,
8,
8,
2,
19,
19,
19,
22,
22,
20,
20,
14,
2,
13,
27,
26,
26,
26,
10,
11,
11,
3,
3,
6,
6,
8,
8,
5,
5,
7,
7,
9,
9,
7,
7,
6,
6,
0,
0,
-1,
-1,
4,
4,
0,
18,
17,
17,
8,
8,
8,
8,
6,
18,
18,
35,
34,
18,
18,
2,
7,
26,
26,
12,
13,
0,
3,
3,
7,
7,
6,
6,
5,
16,
15,
15,
15,
3,
4,
4,
3,
3,
1,
1,
5,
35,
34,
34,
28,
9,
10,
-1,
2,
2,
6,
6,
4,
4,
2,
2,
2,
2,
4,
4,
5,
25,
24,
24,
16,
5,
15,
15,
7,
27,
27,
48,
48,
31,
31,
13,
14,
1,
2,
19,
19,
19,
27,
27,
31,
31,
22,
7,
8,
8,
2,
2,
8,
8,
11,
11,
1,
1,
6,
6,
12,
26,
26,
26,
25,
10,
10,
10,
2,
2,
3,
3,
5,
5,
2,
2,
7,
7,
16,
16,
17,
17,
9,
9,
5,
5,
0,
0,
8,
8,
6,
6,
10,
10,
14,
14,
11,
11,
7,
7,
1,
1,
7,
7,
0,
0,
3,
3,
7,
7,
0,
0,
0,
0,
6,
6,
9,
9,
9,
9,
12,
12,
15,
15,
16,
1,
2,
2,
8,
8,
1,
14,
12,
12,
15,
15,
10,
10,
2,
13,
13,
13,
11,
11,
8,
8,
3,
16,
16,
3,
3,
3,
11,
11,
13,
13,
20,
20,
15,
15,
8,
19,
19,
30,
28,
10,
11,
0,
1,
1,
1,
1,
11,
11,
17,
17,
10,
10,
7,
7,
12,
12,
11,
11,
16,
16,
14,
3,
4,
4,
10,
22,
21,
21,
17,
17,
10,
10,
4,
4,
12,
0,
0,
0,
10,
10,
19,
19,
18,
18,
14,
0,
4,
16,
15,
15,
7,
7,
9,
9,
15,
15,
12,
0,
2,
2,
10,
10,
8,
8,
7,
7,
4,
4,
5,
5,
8,
8,
6,
6,
4,
4,
8,
8,
16,
16,
22,
22,
28,
16,
16,
0,
1,
14,
13,
26,
25,
25,
30,
30,
29,
29,
21,
21,
14,
2,
7,
7,
12,
32,
32,
50,
50,
36,
36,
17,
17,
0,
0,
11,
10,
10,
18,
18,
12,
12,
10,
10,
16,
16,
12,
12,
10,
10,
7,
7,
4,
4,
2,
2,
2,
2,
0,
14,
14,
27,
27,
27,
26,
14,
15,
0,
4,
20,
20,
20,
19,
19,
12,
0,
1,
1,
0,
0,
3,
3,
7,
7,
6,
6,
4,
4,
10,
10,
2,
2,
1,
12,
11,
11,
18,
18,
18,
18,
13,
13,
5,
5,
3,
3,
11,
11,
15,
15,
7,
7,
5,
5,
6,
6,
2,
14,
12,
12,
8,
8,
17,
17,
26,
11,
12,
1,
4,
4,
2,
2,
7,
7,
6,
6,
11,
11,
9,
20,
20,
20,
20,
20,
18,
18,
19,
3,
7,
25,
24,
36,
36,
36,
36,
21,
22,
3,
4,
4,
2,
2,
-1,
10,
10,
10,
15,
15,
9,
9,
8,
8,
5,
5,
1,
1,
1,
14,
13,
2,
8,
22,
21,
21,
16,
16,
22,
22,
16,
16,
6,
6,
5,
5,
14,
14,
16,
16,
15,
15,
11,
11,
7,
7,
5,
5,
3,
3,
0,
0,
-1,
-1,
2,
2,
4,
4,
3,
14,
14,
14,
22,
22,
19,
19,
24,
24,
18,
1,
2,
14,
14,
30,
30,
15,
15,
4,
18,
18,
24,
2,
3,
14,
14,
14,
14,
1,
1,
1,
-1,
-1,
5,
5,
5,
5,
0,
0,
1,
1,
0,
0,
1,
1,
0,
0,
-1,
-1,
5,
5,
6,
6,
7,
7,
3,
3,
0,
19,
18,
18,
22,
8,
8,
8,
12,
23,
22,
2,
2,
14,
14,
14,
22,
7,
8,
8,
9,
9,
0,
0,
10,
10,
13,
13,
15,
4,
6,
6,
2,
2,
0,
21,
21,
21,
21,
1,
2,
18,
17,
6,
6,
6,
3,
3,
1,
1,
1,
1,
9,
9,
12,
12,
15,
3,
11,
11,
10,
23,
22,
61,
60,
60,
67,
19,
20,
6,
18,
34,
32,
45,
44,
44,
39,
39,
30,
30,
21,
21,
22,
10,
10,
10,
7,
7,
6,
6,
16,
37,
37,
37,
35,
10,
10,
31,
31,
31,
33,
5,
7,
50,
50,
66,
64,
64,
63,
36,
36,
4,
5,
23,
22,
36,
34,
46,
46,
46,
50,
50,
49,
49,
44,
18,
20,
20,
16,
5,
21,
38,
34,
16,
16,
16,
12,
12,
10,
10,
10,
32,
32,
32,
39,
39,
43,
43,
45,
27,
27,
7,
7,
29,
29,
29,
35,
35,
33,
33,
26,
15,
15,
15,
13,
13,
12,
12,
14,
14,
18,
18,
25,
6,
7,
37,
37,
37,
35,
10,
11,
41,
41,
64,
63,
63,
54,
20,
20,
5,
24,
43,
43,
43,
48,
65,
64,
64,
66,
19,
19,
62,
61,
61,
66,
66,
65,
47,
48,
5,
5,
32,
32,
47,
46,
46,
41,
41,
32,
32,
29,
29,
25,
25,
20,
6,
7,
28,
27,
27,
23,
2,
5,
5,
7,
34,
33,
65,
65,
65,
67,
43,
43,
11,
32,
61,
60,
60,
65,
65,
57,
57,
52,
30,
30,
30,
26,
5,
10,
48,
47,
30,
31,
1,
2,
2,
0,
0,
3,
3,
6,
6,
7,
7,
10,
26,
25,
25,
22,
5,
5,
48,
48,
66,
64,
64,
62,
22,
23,
6,
15,
15,
23,
23,
30,
15,
16,
16,
10,
10,
11,
11,
10,
10,
16,
16,
22,
22,
20,
2,
6,
23,
23,
23,
19,
7,
7,
7,
1,
1,
8,
8,
4,
23,
22,
34,
33,
18,
19,
3,
10,
10,
15,
1,
5,
5,
8,
29,
27,
3,
4,
19,
19,
32,
32,
32,
30,
10,
11,
11,
17,
41,
40,
55,
55,
43,
43,
7,
10,
40,
40,
62,
61,
61,
63,
40,
41,
13,
15,
3,
14,
32,
32,
32,
34,
34,
38,
38,
33,
33,
31,
31,
31,
7,
7,
7,
16,
16,
26,
26,
23,
23,
21,
21,
13,
13,
10,
10,
18,
18,
15,
4,
4,
4,
0,
0,
8,
8,
2,
2,
4,
4,
12,
12,
10,
23,
19,
19,
12,
12,
4,
4,
8,
8,
6,
6,
13,
35,
34,
23,
24,
24,
16,
3,
18,
62,
62,
30,
30,
7,
22,
7,
7,
30,
30,
30,
27,
2,
3,
14,
13,
13,
18,
18,
23,
23,
22,
22,
27,
27,
27,
13,
13,
13,
14,
14,
23,
23,
15,
2,
3,
17,
16,
32,
31,
31,
21,
9,
10,
-1,
2,
2,
6,
6,
10,
35,
35,
11,
11,
11,
19,
53,
52,
52,
49,
20,
20,
3,
9,
25,
24,
38,
38,
38,
44,
6,
7,
22,
22,
5,
6,
6,
8,
8,
14,
14,
14,
14,
8,
8,
2,
2,
2,
2,
7,
7,
6,
6,
9,
9,
3,
3,
4,
4,
12,
29,
27,
27,
23,
23,
16,
3,
4,
4,
1,
1,
7,
23,
23,
23,
29,
48,
48,
10,
10,
43,
42,
65,
64,
64,
63,
18,
18,
5,
14,
14,
24,
24,
27,
27,
28,
28,
24,
24,
23,
23,
16,
16,
7,
7,
12,
12,
13,
13,
3,
20,
19,
32,
31,
31,
29,
29,
26,
14,
14,
0,
2,
2,
-1,
-1,
-1,
-1,
3,
3,
3,
3,
4,
4,
6,
21,
21,
4,
5,
16,
16,
16,
18,
32,
31,
31,
36,
7,
7,
7,
9,
26,
26,
26,
18,
18,
15,
15,
17,
17,
10,
10,
8,
25,
24,
24,
23,
5,
6,
46,
44,
58,
57,
33,
33,
9,
10,
-1,
0,
0,
9,
9,
13,
13,
7,
7,
2,
2,
6,
6,
4,
4,
6,
6,
10,
10,
9,
9,
15,
15,
6,
6,
3,
3,
3,
24,
24,
24,
26,
14,
14,
1,
4,
4,
11,
11,
18,
3,
9,
35,
34,
22,
23,
2,
6,
30,
29,
15,
15,
2,
9,
30,
30,
30,
31,
14,
14,
2,
6,
18,
18,
18,
22,
22,
23,
23,
14,
14,
9,
9,
3,
3,
1,
1,
4,
4,
8,
8,
4,
4,
11,
11,
16,
37,
36,
36,
34,
34,
32,
16,
17,
17,
11,
0,
1,
18,
17,
3,
3,
3,
8,
8,
10,
30,
29,
40,
38,
10,
10,
22,
22,
11,
13,
1,
2,
2,
10,
10,
6,
6,
0,
14,
13,
13,
22,
8,
9,
9,
14,
14,
22,
22,
18,
2,
5,
5,
12,
0,
2,
2,
11,
11,
8,
8,
10,
10,
3,
3,
12,
37,
36,
36,
36,
11,
12,
12,
11,
11,
20,
20,
16,
0,
1,
1,
9,
9,
2,
2,
3,
3,
0,
0,
2,
2,
4,
4,
7,
7,
0,
0,
1,
1,
8,
8,
2,
2,
7,
7,
0,
0,
8,
8,
2,
2,
5,
5,
4,
4,
11,
0,
1,
1,
8,
8,
2,
2,
4,
4,
4,
4,
4,
19,
19,
19,
16,
3,
12,
12,
13,
0,
2,
15,
15,
15,
21,
21,
26,
26,
22,
2,
6,
19,
18,
18,
23,
23,
20,
20,
13,
13,
8,
8,
6,
6,
0,
0,
6,
6,
3,
3,
7,
7,
6,
6,
7,
7,
7,
7,
-1,
-1,
0,
0,
1,
1,
0,
0,
0,
14,
14,
14,
13,
13,
8,
8,
6,
6,
5,
5,
2,
2,
1,
1,
10,
10,
3,
3,
2,
14,
14,
14,
14,
14,
10,
10,
3,
3,
9,
9,
16,
5,
5,
5,
9,
9,
14,
0,
2,
2,
8,
8,
9,
9,
6,
6,
2,
2,
2,
2,
7,
20,
19,
3,
3,
3,
9,
9,
7,
7,
0,
14,
12,
12,
5,
5,
7,
7,
6,
6,
5,
5,
0,
0,
1,
1,
0,
0,
-1,
-1,
7,
26,
25,
25,
21,
3,
7,
30,
29,
29,
31,
4,
7,
27,
27,
27,
30,
30,
39,
20,
21,
2,
5,
23,
23,
23,
22,
22,
22,
22,
29,
18,
18,
3,
4,
4,
2,
14,
13,
13,
6,
6,
6,
23,
23,
23,
27,
10,
11,
11,
4,
4,
-1,
-1,
-1,
-1,
1,
1,
6,
6,
15,
15,
12,
0,
1,
1,
9,
9,
11,
26,
26,
45,
42,
12,
13,
-1,
1,
1,
3,
14,
13,
13,
7,
7,
3,
3,
10,
10,
4,
28,
28,
28,
29,
10,
10,
10,
6,
6,
15,
15,
18,
18,
20,
20,
24,
6,
6,
24,
23,
23,
18,
18,
15,
15,
11,
11,
10,
10,
2,
2,
2,
2,
3,
3,
6,
6,
7,
7,
0,
0,
-1,
-1,
5,
5,
7,
7,
8,
8,
1,
1,
10,
10,
13,
13,
10,
10,
7,
7,
6,
23,
23,
23,
32,
32,
22,
3,
3,
3,
5,
5,
5,
5,
7,
7,
11,
11,
15,
15,
16,
2,
2,
2,
5,
22,
22,
22,
15,
1,
4,
4,
7,
7,
8,
8,
6,
6,
4,
4,
5,
5,
2,
2,
6,
17,
16,
16,
15,
0,
1,
1,
4,
4,
5,
5,
8,
8,
2,
2,
0,
0,
0,
0,
6,
6,
13,
1,
3,
3,
7,
20,
20,
20,
26,
26,
17,
17,
7,
7,
3,
3,
10,
10,
15,
15,
12,
12,
9,
9,
1,
1,
-1,
-1,
2,
2,
5,
5,
6,
6,
8,
8,
16,
4,
4,
4,
1,
20,
19,
19,
27,
16,
17,
4,
4,
4,
8,
8,
16,
16,
18,
18,
10,
-1,
-1,
-1,
3,
3,
7,
7,
2,
2,
3,
3,
0,
0,
-1,
-1,
2,
2,
6,
6,
8,
8,
14,
14,
10,
-1,
0,
0,
7,
7,
1,
1,
6,
6,
3,
3,
0,
11,
10,
10,
7,
7,
8,
8,
13,
13,
8,
8,
8,
8,
5,
19,
19,
19,
20,
20,
17,
17,
16,
16,
21,
21,
13,
13,
14,
3,
3,
22,
22,
22,
31,
44,
44,
44,
52,
34,
34,
7,
8,
8,
-1,
-1,
5,
19,
18,
18,
23,
23,
20,
20,
13,
13,
14,
14,
12,
12,
8,
8,
4,
18,
17,
17,
18,
3,
4,
4,
-1,
-1,
2,
2,
0,
0,
10,
10,
8,
8,
7,
7,
15,
15,
14,
14,
15,
4,
5,
5,
-1,
-1,
3,
3,
3,
3,
2,
2,
5,
5,
0,
0,
0,
0,
0,
0,
0,
0,
1,
1,
-1,
-1,
-1,
-1,
1,
1,
2,
2,
6,
6,
8,
8,
16,
4,
5,
5,
3,
14,
13,
13,
14,
14,
13,
13,
14,
14,
20,
20,
14,
14,
6,
6,
2,
2,
6,
6,
8,
8,
10,
10,
10,
10,
8,
8,
5,
5,
3,
3,
0,
0,
0,
0,
1,
1,
2,
2,
0,
0,
5,
5,
13,
13,
11,
11,
8,
8,
0,
0,
0,
16,
16,
16,
16,
0,
2,
2,
7,
7,
5,
5,
1,
1,
3,
3,
11,
11,
11,
11,
13,
13,
4,
18,
16,
32,
30,
16,
17,
0,
0,
0,
6,
6,
12,
12,
7,
7,
7,
7,
3,
3,
10,
10,
3,
3,
4,
4,
1,
1,
2,
2,
6,
6,
10,
-1,
1,
1,
3,
3,
-1,
-1,
-1,
-1,
4,
4,
4,
4,
1,
1,
10,
10,
8,
8,
2,
2,
0,
0,
6,
6,
6,
6,
6,
6,
0,
0,
6,
6,
2,
14,
13,
28,
27,
27,
25,
13,
15,
15,
7,
7,
10,
24,
23,
23,
25,
25,
22,
22,
24,
10,
10,
10,
16,
32,
31,
7,
8,
8,
2,
2,
6,
6,
2,
2,
-1,
-1,
1,
1,
1,
1,
0,
0,
1,
1,
-1,
-1,
1,
1,
6,
6,
7,
7,
4,
4,
-1,
-1,
5,
5,
7,
7,
0,
0,
8,
8,
18,
18,
13,
-1,
1,
1,
2,
2,
5,
5,
5,
5,
3,
3,
1,
1,
4,
4,
14,
14,
18,
3,
4,
15,
14,
14,
14,
0,
3,
3,
6,
6,
4,
4,
14,
14,
14,
14,
14,
14,
20,
5,
6,
6,
10,
10,
19,
32,
32,
32,
38,
21,
21,
0,
2,
2,
10,
10,
11,
11,
6,
6,
0,
0,
4,
4,
0,
0,
-1,
-1,
2,
2,
0,
0,
0,
0,
0,
0,
2,
2,
7,
7,
14,
14,
9,
9,
0,
0,
2,
2,
1,
1,
0,
0,
7,
7,
7,
7,
3,
3,
2,
2,
1,
1,
2,
2,
6,
6,
7,
7,
1,
1,
5,
5,
2,
16,
15,
15,
11,
-1,
1,
1,
1,
1,
1,
1,
0,
0,
8,
8,
17,
17,
10,
-1,
0,
0,
8,
8,
14,
14,
10,
10,
5,
5,
4,
4,
3,
3,
5,
5,
4,
4,
5,
5,
-1,
-1,
6,
6,
8,
8,
14,
14,
20,
8,
9,
9,
2,
2,
0,
12,
11,
11,
9,
9,
1,
1,
8,
8,
8,
8,
7,
7,
1,
1,
0,
0,
3,
3,
1,
1,
-1,
-1,
-1,
-1,
4,
4,
0,
0,
3,
15,
15,
15,
7,
24,
24,
24,
34,
20,
21,
0,
1,
1,
-1,
-1,
5,
5,
14,
14,
18,
18,
18,
6,
7,
7,
2,
2,
5,
5,
7,
7,
2,
2,
7,
7,
11,
11,
8,
8,
2,
2,
5,
5,
0,
0,
8,
8,
14,
14,
6,
6,
4,
4,
8,
8,
7,
7,
6,
6,
5,
5,
2,
2,
2,
2,
-1,
-1,
3,
3,
6,
6,
1,
1,
5,
5,
0,
0,
3,
23,
23,
23,
21,
0,
1,
1,
0,
0,
1,
1,
6,
6,
10,
10,
15,
15,
11,
11,
7,
7,
0,
0,
1,
1,
9,
9,
5,
27,
26,
26,
22,
22,
18,
18,
9,
9,
6,
6,
1,
1,
4,
4,
1,
1,
1,
1,
9,
9,
10,
10,
15,
15,
18,
6,
6,
6,
5,
5,
9,
9,
8,
8,
0,
0,
0,
0,
6,
6,
6,
6,
7,
23,
22,
22,
24,
7,
8,
8,
3,
3,
12,
12,
14,
14,
12,
12,
8,
8,
6,
6,
10,
10,
10,
-1,
0,
12,
11,
26,
26,
26,
20,
3,
4,
4,
5,
5,
8,
8,
3,
15,
14,
14,
7,
7,
5,
5,
3,
14,
12,
0,
1,
1,
8,
19,
18,
18,
11,
0,
5,
5,
6,
6,
1,
1,
1,
1,
5,
5,
6,
6,
2,
2,
2,
2,
1,
1,
4,
4,
7,
20,
19,
19,
13,
0,
3,
3,
12,
12,
13,
13,
4,
4,
4,
4,
6,
6,
6,
6,
13,
13,
15,
15,
7,
7,
0,
0,
2,
2,
0,
0,
2,
2,
0,
0,
2,
2,
5,
5,
3,
3,
3,
3,
5,
5,
4,
4,
0,
0,
-1,
-1,
0,
0,
0,
0,
-1,
-1,
3,
3,
2,
2,
3,
3,
5,
5,
1,
1,
8,
8,
16,
16,
17,
6,
7,
7,
4,
4,
7,
7,
3,
3,
11,
11,
7,
7,
10,
10,
8,
8,
3,
3,
8,
8,
4,
4,
0,
0,
4,
4,
8,
8,
0,
0,
2,
2,
0,
0,
2,
2,
1,
1,
0,
0,
-1,
-1,
0,
0,
3,
3,
7,
7,
4,
4,
7,
7,
4,
37,
36,
36,
40,
18,
19,
19,
15,
15,
13,
2,
10,
27,
27,
27,
23,
23,
14,
14,
6,
6,
5,
5,
6,
6,
4,
4,
-1,
-1,
0,
0,
2,
2,
5,
5,
0,
0,
2,
2,
0,
0,
10,
10,
16,
32,
30,
30,
22,
5,
6,
6,
4,
4,
2,
2,
6,
6,
6,
6,
6,
6,
3,
3,
3,
3,
9,
9,
7,
7,
8,
8,
8,
8,
0,
0,
2,
2,
4,
4,
7,
7,
10,
10,
4,
4,
11,
11,
17,
17,
8,
8,
2,
2,
2,
2,
7,
19,
18,
18,
11,
0,
2,
2,
5,
5,
4,
4,
3,
3,
8,
8,
8,
8,
8,
8,
12,
12,
21,
21,
18,
3,
15,
41,
40,
20,
20,
3,
3,
3,
7,
7,
10,
10,
9,
22,
21,
21,
15,
0,
1,
1,
10,
-1,
0,
0,
0,
0,
7,
7,
7,
7,
1,
1,
10,
10,
13,
13,
15,
15,
16,
16,
16,
0,
1,
1,
9,
9,
11,
11,
12,
12,
11,
11,
1,
1,
3,
3,
4,
4,
2,
13,
12,
12,
17,
17,
10,
10,
6,
6,
3,
3,
4,
4,
8,
8,
6,
6,
9,
9,
4,
4,
8,
8,
12,
0,
