EMG_S1/DS0133.CSV

Memory Length,4000,
Trigger Level,0.00000e+00,
Source,CH1,
Probe,1.0X,
Vertical Units,V,
Vertical Scale,1.00000e+00,
Vertical Position,4.00000e-02,
Horizontal Units,S,
Horizontal Scale,1.00000e-01,
Horizontal Position,0.0000000e+00,
Horizontal Mode,Roll Mode,
Waveform Last Dot Address,4000,
Sampling Period,4.00000e-04,
Firmware,V1.14,
Time, ,
Mode,Fast,
Waveform Data,
11,
11,
3,
3,
-1,
10,
10,
10,
14,
14,
5,
5,
6,
6,
5,
5,
5,
5,
5,
5,
4,
4,
7,
7,
9,
9,
16,
16,
13,
13,
7,
7,
4,
4,
2,
2,
5,
5,
4,
4,
6,
6,
8,
8,
8,
8,
11,
11,
9,
9,
3,
3,
0,
0,
0,
0,
0,
0,
-1,
-1,
0,
0,
5,
5,
11,
11,
7,
7,
6,
6,
8,
8,
8,
8,
15,
15,
16,
16,
11,
11,
9,
9,
0,
0,
8,
8,
13,
13,
14,
14,
14,
14,
14,
14,
9,
9,
3,
3,
-1,
-1,
1,
1,
2,
2,
0,
12,
12,
12,
20,
20,
20,
20,
16,
3,
3,
3,
8,
8,
10,
10,
2,
15,
14,
14,
9,
9,
7,
7,
16,
16,
11,
11,
2,
2,
0,
0,
6,
6,
11,
11,
15,
15,
10,
10,
6,
6,
1,
15,
15,
15,
20,
7,
7,
7,
3,
14,
14,
14,
15,
15,
11,
11,
10,
10,
8,
8,
2,
16,
16,
16,
14,
14,
6,
6,
3,
3,
0,
0,
1,
1,
5,
5,
5,
5,
1,
1,
-1,
-1,
0,
0,
0,
13,
11,
11,
19,
19,
15,
15,
7,
7,
0,
0,
2,
2,
-1,
-1,
4,
4,
2,
2,
2,
2,
3,
3,
4,
4,
6,
6,
6,
6,
2,
2,
2,
2,
0,
0,
4,
4,
5,
5,
7,
7,
13,
13,
9,
9,
7,
7,
11,
30,
30,
30,
21,
2,
5,
26,
26,
26,
32,
32,
28,
13,
14,
14,
7,
7,
10,
10,
2,
2,
6,
6,
6,
6,
9,
9,
3,
3,
4,
4,
11,
23,
22,
22,
19,
19,
16,
16,
14,
14,
13,
13,
9,
9,
9,
24,
23,
23,
24,
9,
9,
9,
7,
7,
12,
12,
7,
7,
6,
6,
12,
12,
12,
12,
14,
14,
10,
10,
3,
3,
0,
0,
2,
2,
0,
0,
5,
5,
10,
10,
2,
14,
12,
12,
21,
21,
18,
7,
8,
8,
0,
0,
3,
3,
8,
8,
12,
12,
6,
6,
-1,
-1,
4,
20,
19,
19,
23,
23,
19,
19,
17,
0,
1,
1,
5,
5,
10,
10,
6,
6,
0,
0,
7,
7,
15,
15,
18,
18,
11,
0,
2,
2,
4,
4,
4,
4,
8,
8,
0,
0,
9,
9,
0,
0,
1,
1,
10,
10,
18,
18,
25,
25,
22,
22,
24,
24,
26,
15,
16,
0,
1,
22,
21,
40,
38,
38,
41,
30,
32,
21,
21,
21,
13,
0,
2,
2,
10,
10,
18,
18,
23,
23,
22,
4,
5,
5,
0,
0,
9,
9,
13,
13,
18,
18,
20,
5,
6,
6,
11,
11,
20,
20,
18,
6,
6,
6,
5,
5,
9,
9,
8,
8,
6,
6,
4,
4,
0,
0,
6,
6,
3,
3,
6,
6,
6,
6,
0,
0,
5,
5,
2,
2,
2,
2,
9,
9,
10,
10,
3,
14,
12,
12,
9,
9,
7,
7,
8,
8,
6,
6,
0,
0,
1,
1,
7,
7,
15,
15,
19,
19,
20,
20,
12,
12,
6,
6,
3,
3,
-1,
-1,
1,
1,
-1,
-1,
6,
6,
6,
6,
3,
3,
1,
1,
-1,
-1,
2,
2,
9,
9,
13,
2,
6,
6,
13,
13,
5,
5,
3,
3,
2,
2,
12,
12,
9,
9,
6,
6,
2,
2,
-1,
-1,
6,
6,
14,
14,
12,
12,
10,
10,
4,
4,
6,
6,
12,
12,
11,
11,
5,
5,
11,
11,
10,
10,
7,
7,
6,
6,
2,
2,
5,
18,
18,
18,
21,
4,
4,
4,
7,
7,
4,
4,
8,
8,
9,
9,
1,
1,
6,
6,
10,
10,
2,
2,
7,
7,
9,
25,
24,
24,
17,
0,
2,
2,
10,
21,
21,
21,
12,
12,
4,
4,
12,
12,
21,
21,
19,
19,
10,
10,
2,
16,
14,
14,
14,
14,
13,
13,
10,
10,
1,
1,
3,
3,
2,
2,
0,
0,
3,
3,
1,
1,
0,
0,
6,
6,
8,
8,
9,
9,
5,
5,
8,
8,
12,
12,
13,
13,
12,
12,
5,
5,
8,
8,
14,
14,
9,
9,
7,
7,
9,
9,
12,
12,
10,
10,
5,
22,
22,
34,
33,
33,
24,
2,
3,
3,
11,
11,
19,
19,
11,
0,
2,
2,
5,
5,
8,
8,
4,
4,
0,
0,
0,
0,
8,
8,
10,
10,
12,
12,
13,
2,
9,
26,
25,
25,
19,
19,
21,
21,
20,
2,
2,
13,
12,
27,
26,
26,
27,
12,
13,
2,
3,
3,
2,
2,
7,
24,
24,
41,
40,
40,
31,
18,
19,
2,
2,
19,
18,
18,
23,
23,
15,
15,
14,
14,
18,
18,
16,
4,
5,
5,
-1,
-1,
1,
1,
3,
3,
-1,
-1,
1,
1,
6,
6,
14,
14,
20,
20,
28,
28,
30,
30,
27,
12,
12,
0,
3,
14,
14,
14,
16,
16,
17,
17,
18,
18,
20,
20,
16,
16,
11,
11,
8,
8,
2,
2,
8,
8,
11,
0,
1,
1,
3,
3,
9,
9,
6,
6,
16,
31,
31,
31,
27,
3,
3,
3,
10,
10,
10,
10,
2,
2,
8,
8,
8,
8,
2,
2,
8,
8,
13,
36,
35,
35,
39,
39,
34,
16,
17,
2,
13,
39,
38,
38,
40,
26,
26,
8,
9,
9,
1,
1,
4,
4,
11,
0,
1,
1,
4,
4,
0,
0,
4,
4,
1,
1,
7,
7,
11,
11,
2,
2,
9,
9,
10,
10,
5,
5,
0,
0,
3,
3,
11,
11,
13,
13,
6,
6,
2,
2,
1,
1,
1,
1,
6,
6,
5,
5,
3,
3,
2,
2,
0,
0,
6,
6,
9,
9,
6,
6,
5,
5,
12,
12,
16,
5,
5,
5,
7,
7,
13,
13,
13,
13,
11,
11,
14,
14,
11,
-1,
1,
1,
0,
0,
2,
2,
10,
10,
16,
16,
22,
22,
19,
7,
8,
8,
5,
5,
8,
8,
3,
3,
11,
11,
11,
11,
4,
4,
0,
0,
-1,
-1,
5,
5,
1,
1,
1,
1,
6,
6,
4,
4,
3,
3,
9,
9,
11,
0,
2,
2,
7,
7,
3,
3,
0,
0,
10,
10,
17,
17,
11,
11,
2,
2,
4,
4,
0,
11,
11,
11,
20,
20,
18,
7,
7,
7,
2,
2,
10,
10,
16,
16,
23,
23,
17,
17,
8,
8,
0,
0,
2,
2,
0,
0,
1,
1,
2,
2,
6,
6,
11,
11,
9,
9,
5,
5,
-1,
-1,
1,
1,
8,
8,
11,
11,
6,
6,
14,
14,
14,
-1,
1,
1,
0,
0,
6,
6,
8,
22,
21,
21,
14,
3,
4,
4,
2,
2,
2,
13,
12,
12,
21,
21,
22,
22,
20,
20,
12,
0,
4,
21,
21,
21,
28,
28,
26,
26,
19,
8,
9,
9,
3,
3,
11,
11,
19,
19,
20,
20,
23,
23,
25,
25,
20,
2,
2,
15,
14,
14,
19,
19,
16,
16,
9,
9,
2,
2,
-1,
-1,
-1,
-1,
6,
6,
15,
15,
9,
9,
0,
0,
3,
3,
2,
2,
4,
4,
11,
0,
3,
3,
10,
10,
7,
7,
2,
2,
6,
6,
10,
24,
23,
23,
30,
16,
18,
1,
3,
19,
18,
31,
31,
31,
35,
35,
31,
31,
30,
30,
22,
2,
4,
16,
15,
15,
22,
22,
23,
23,
25,
25,
26,
26,
22,
22,
14,
14,
9,
9,
0,
0,
3,
3,
4,
4,
6,
6,
2,
2,
-1,
14,
13,
13,
18,
6,
7,
7,
6,
21,
20,
20,
18,
18,
15,
2,
6,
18,
16,
1,
2,
2,
12,
12,
13,
13,
7,
7,
4,
22,
21,
21,
26,
15,
16,
4,
4,
4,
5,
5,
8,
8,
5,
5,
2,
2,
0,
0,
-1,
-1,
-1,
-1,
2,
2,
11,
11,
15,
15,
8,
8,
0,
0,
3,
3,
10,
10,
9,
9,
8,
8,
3,
3,
5,
5,
2,
2,
6,
6,
6,
6,
2,
14,
14,
14,
15,
15,
20,
20,
18,
18,
12,
1,
4,
17,
16,
16,
17,
17,
20,
20,
14,
-1,
1,
1,
3,
3,
7,
7,
5,
5,
3,
3,
0,
0,
2,
2,
2,
2,
8,
8,
11,
11,
8,
8,
2,
2,
3,
3,
2,
2,
0,
0,
3,
3,
8,
8,
13,
13,
11,
11,
12,
12,
12,
12,
7,
26,
26,
26,
33,
33,
32,
14,
14,
14,
9,
9,
18,
18,
22,
22,
17,
4,
17,
46,
46,
46,
49,
38,
38,
24,
25,
14,
14,
0,
1,
1,
10,
10,
10,
10,
13,
13,
21,
21,
20,
20,
11,
11,
11,
11,
15,
15,
13,
13,
11,
11,
10,
10,
7,
7,
2,
17,
16,
16,
22,
10,
11,
11,
8,
8,
12,
12,
3,
17,
16,
16,
24,
6,
7,
7,
1,
1,
2,
2,
0,
0,
-1,
-1,
6,
6,
9,
9,
7,
7,
6,
6,
12,
12,
8,
8,
11,
11,
5,
5,
1,
1,
5,
5,
9,
9,
3,
3,
0,
0,
8,
8,
11,
11,
14,
14,
7,
7,
13,
13,
19,
7,
8,
8,
11,
26,
26,
26,
34,
15,
15,
0,
1,
14,
14,
14,
22,
22,
14,
14,
11,
11,
6,
6,
4,
4,
7,
7,
15,
4,
5,
5,
2,
2,
4,
4,
4,
4,
11,
11,
16,
16,
9,
9,
3,
3,
12,
28,
27,
10,
11,
11,
10,
10,
15,
0,
3,
14,
13,
13,
7,
7,
-1,
-1,
1,
1,
0,
0,
5,
5,
8,
8,
6,
6,
4,
4,
1,
1,
5,
5,
3,
3,
5,
5,
9,
9,
12,
12,
7,
7,
1,
1,
0,
0,
9,
9,
7,
7,
1,
1,
2,
2,
-1,
-1,
5,
19,
18,
29,
28,
28,
30,
30,
22,
22,
14,
-1,
0,
0,
4,
17,
17,
29,
28,
28,
30,
30,
26,
26,
17,
17,
11,
11,
8,
8,
0,
0,
7,
23,
22,
22,
28,
28,
31,
31,
36,
36,
28,
9,
10,
10,
13,
13,
20,
20,
20,
20,
16,
16,
19,
2,
3,
16,
16,
16,
14,
14,
5,
5,
2,
2,
0,
0,
4,
4,
0,
0,
2,
2,
4,
4,
8,
8,
7,
7,
1,
1,
0,
0,
3,
3,
7,
7,
6,
6,
9,
9,
1,
1,
-1,
-1,
0,
0,
2,
2,
0,
0,
8,
8,
8,
8,
5,
5,
6,
6,
10,
10,
16,
4,
4,
4,
1,
1,
8,
8,
17,
17,
16,
16,
13,
13,
4,
4,
2,
2,
7,
18,
17,
17,
18,
4,
5,
5,
-1,
-1,
-1,
-1,
3,
3,
7,
7,
0,
0,
0,
0,
0,
13,
12,
28,
27,
27,
18,
2,
4,
4,
13,
13,
20,
20,
18,
18,
14,
14,
17,
17,
18,
18,
16,
16,
14,
0,
2,
2,
8,
8,
17,
28,
27,
27,
24,
24,
22,
11,
13,
13,
4,
4,
-1,
-1,
5,
5,
12,
12,
7,
7,
4,
4,
7,
7,
7,
7,
2,
2,
8,
8,
15,
15,
13,
13,
8,
8,
1,
1,
0,
0,
-1,
-1,
2,
2,
3,
17,
17,
17,
15,
15,
9,
9,
0,
0,
4,
4,
8,
21,
20,
20,
16,
3,
4,
4,
-1,
-1,
8,
23,
22,
22,
30,
16,
17,
2,
7,
23,
23,
23,
30,
30,
27,
27,
20,
20,
12,
-1,
0,
0,
3,
3,
12,
0,
0,
0,
5,
5,
6,
6,
3,
3,
2,
2,
7,
7,
6,
6,
4,
4,
7,
7,
2,
2,
3,
3,
9,
9,
1,
1,
3,
3,
4,
4,
3,
3,
7,
18,
17,
17,
14,
14,
17,
17,
13,
-1,
0,
0,
9,
9,
15,
15,
14,
14,
8,
8,
5,
5,
0,
0,
7,
7,
7,
7,
2,
2,
5,
5,
6,
6,
3,
3,
6,
6,
6,
6,
5,
5,
3,
3,
6,
6,
1,
13,
13,
13,
19,
19,
11,
11,
7,
7,
9,
9,
7,
7,
8,
8,
5,
5,
10,
10,
18,
18,
20,
7,
7,
7,
3,
3,
0,
0,
-1,
-1,
0,
0,
7,
26,
25,
25,
32,
32,
35,
20,
21,
1,
2,
17,
16,
29,
29,
29,
26,
26,
17,
17,
18,
18,
19,
19,
13,
13,
6,
6,
7,
7,
15,
15,
11,
11,
8,
8,
2,
2,
4,
20,
19,
32,
31,
31,
26,
13,
14,
14,
12,
12,
8,
8,
12,
28,
27,
27,
35,
24,
24,
6,
6,
6,
6,
6,
3,
3,
0,
0,
1,
1,
3,
3,
12,
12,
18,
18,
17,
17,
10,
10,
4,
4,
3,
3,
-1,
-1,
7,
7,
3,
3,
9,
9,
15,
0,
1,
1,
6,
18,
18,
18,
17,
2,
7,
7,
14,
14,
11,
0,
0,
0,
6,
6,
5,
5,
8,
8,
7,
7,
2,
2,
2,
2,
5,
5,
0,
0,
0,
0,
3,
3,
6,
6,
9,
9,
13,
13,
12,
12,
13,
0,
2,
15,
15,
29,
28,
28,
30,
16,
17,
17,
21,
21,
20,
6,
7,
7,
7,
7,
17,
17,
19,
19,
11,
-1,
0,
0,
9,
24,
23,
23,
25,
25,
16,
1,
2,
21,
20,
20,
25,
25,
20,
20,
23,
23,
20,
1,
2,
2,
11,
11,
11,
11,
9,
9,
12,
12,
10,
10,
1,
1,
7,
7,
0,
0,
5,
5,
6,
6,
6,
6,
5,
5,
13,
13,
18,
38,
38,
38,
40,
40,
38,
18,
18,
4,
14,
27,
26,
40,
39,
39,
36,
19,
19,
5,
5,
5,
2,
2,
0,
0,
1,
1,
5,
5,
2,
2,
3,
3,
4,
4,
7,
7,
15,
15,
9,
9,
7,
7,
8,
8,
7,
7,
14,
14,
11,
0,
2,
2,
1,
1,
1,
1,
3,
3,
0,
0,
2,
2,
-1,
-1,
0,
0,
3,
3,
10,
10,
19,
19,
24,
13,
13,
2,
9,
9,
16,
16,
23,
23,
23,
23,
21,
21,
20,
20,
23,
11,
12,
1,
8,
26,
25,
25,
31,
31,
31,
31,
27,
13,
14,
-1,
0,
0,
3,
3,
3,
3,
2,
2,
7,
18,
17,
30,
30,
30,
35,
35,
27,
27,
20,
20,
17,
17,
8,
8,
5,
5,
2,
22,
21,
39,
38,
38,
42,
42,
38,
38,
30,
11,
11,
0,
2,
2,
1,
14,
13,
13,
17,
17,
20,
20,
26,
26,
30,
18,
18,
6,
7,
7,
0,
0,
4,
4,
2,
2,
0,
0,
6,
6,
9,
9,
13,
13,
6,
6,
-1,
-1,
2,
2,
4,
4,
0,
0,
6,
6,
7,
7,
1,
1,
1,
1,
-2,
-2,
1,
1,
3,
3,
11,
11,
6,
6,
3,
3,
4,
4,
4,
4,
6,
6,
2,
2,
2,
2,
0,
0,
7,
20,
19,
19,
22,
22,
16,
16,
10,
10,
4,
4,
9,
9,
18,
18,
19,
19,
20,
20,
14,
14,
5,
5,
0,
0,
-1,
-1,
6,
6,
11,
11,
5,
5,
14,
14,
22,
22,
32,
32,
31,
31,
39,
39,
43,
23,
23,
2,
6,
28,
27,
27,
34,
34,
31,
31,
24,
24,
16,
16,
12,
12,
14,
14,
15,
15,
10,
10,
3,
3,
3,
16,
15,
29,
28,
28,
30,
19,
20,
2,
2,
2,
8,
8,
6,
18,
16,
16,
12,
0,
1,
1,
3,
17,
16,
29,
28,
16,
17,
2,
7,
25,
25,
37,
36,
36,
34,
34,
24,
24,
17,
17,
10,
-1,
0,
11,
10,
10,
19,
19,
21,
8,
8,
8,
5,
5,
3,
3,
-1,
-1,
5,
5,
7,
7,
3,
3,
6,
6,
13,
13,
12,
12,
14,
14,
12,
1,
5,
5,
14,
14,
14,
14,
13,
13,
7,
7,
5,
5,
4,
4,
2,
2,
6,
6,
2,
2,
-1,
-1,
7,
7,
7,
7,
6,
6,
5,
5,
0,
0,
0,
0,
0,
0,
9,
21,
20,
20,
17,
17,
11,
11,
9,
9,
12,
12,
4,
4,
4,
4,
8,
8,
9,
9,
10,
10,
11,
11,
8,
8,
8,
8,
8,
8,
6,
6,
6,
6,
3,
3,
5,
5,
8,
8,
10,
10,
11,
11,
19,
19,
21,
21,
19,
7,
7,
7,
5,
5,
3,
3,
0,
0,
6,
6,
9,
9,
7,
7,
15,
15,
13,
0,
2,
2,
4,
4,
6,
6,
11,
11,
10,
10,
8,
8,
0,
14,
13,
30,
30,
30,
34,
34,
27,
9,
10,
10,
3,
3,
12,
12,
16,
16,
23,
23,
22,
11,
12,
0,
2,
14,
13,
13,
12,
12,
6,
6,
10,
10,
13,
13,
5,
5,
0,
0,
4,
4,
3,
3,
1,
1,
0,
0,
0,
0,
9,
9,
9,
9,
3,
3,
2,
2,
1,
1,
8,
8,
6,
6,
2,
2,
2,
2,
0,
0,
2,
2,
3,
3,
7,
7,
4,
4,
1,
1,
0,
11,
9,
9,
10,
-1,
0,
0,
4,
4,
2,
2,
-1,
-1,
0,
0,
1,
1,
1,
1,
3,
3,
6,
6,
0,
0,
0,
0,
8,
8,
5,
23,
23,
23,
19,
6,
6,
6,
3,
3,
3,
3,
9,
9,
9,
9,
8,
8,
1,
1,
10,
10,
8,
8,
11,
11,
5,
5,
4,
4,
3,
3,
3,
3,
6,
6,
0,
0,
2,
2,
3,
3,
7,
7,
4,
4,
1,
1,
3,
3,
4,
4,
1,
1,
1,
1,
10,
10,
6,
6,
0,
14,
12,
12,
14,
2,
7,
7,
14,
14,
7,
7,
6,
6,
13,
13,
16,
2,
3,
3,
5,
5,
6,
6,
13,
0,
1,
12,
11,
11,
14,
14,
14,
14,
18,
18,
15,
4,
4,
4,
1,
1,
2,
2,
8,
8,
9,
9,
14,
14,
14,
14,
6,
6,
6,
6,
6,
6,
2,
2,
0,
0,
2,
2,
3,
3,
0,
0,
6,
6,
1,
1,
5,
5,
8,
19,
18,
18,
22,
11,
11,
0,
1,
14,
12,
12,
18,
18,
19,
19,
16,
16,
15,
15,
15,
15,
6,
6,
10,
10,
14,
14,
10,
10,
2,
2,
0,
0,
4,
4,
13,
13,
7,
7,
2,
2,
6,
6,
3,
3,
-1,
-1,
-1,
-1,
3,
3,
0,
11,
10,
10,
8,
8,
3,
3,
10,
10,
11,
11,
6,
6,
0,
0,
4,
4,
11,
11,
10,
10,
2,
2,
6,
6,
8,
8,
2,
13,
13,
13,
14,
0,
0,
13,
12,
12,
10,
10,
3,
3,
0,
0,
0,
0,
0,
0,
0,
0,
-1,
-1,
-1,
-1,
0,
0,
0,
0,
0,
0,
1,
1,
0,
0,
1,
1,
4,
4,
1,
1,
1,
1,
6,
6,
5,
5,
0,
0,
0,
0,
-1,
-1,
2,
2,
0,
0,
3,
3,
1,
1,
0,
0,
0,
0,
1,
1,
1,
1,
2,
2,
4,
4,
3,
3,
4,
4,
3,
3,
0,
0,
0,
0,
8,
8,
8,
8,
5,
5,
3,
3,
4,
4,
2,
2,
4,
4,
5,
5,
2,
2,
5,
5,
8,
8,
8,
8,
5,
5,
2,
2,
3,
3,
1,
1,
6,
6,
6,
6,
0,
0,
4,
4,
3,
3,
5,
5,
0,
15,
15,
31,
31,
31,
32,
17,
17,
2,
3,
3,
11,
11,
16,
16,
10,
10,
11,
11,
12,
12,
8,
8,
3,
3,
10,
10,
14,
14,
14,
-1,
0,
0,
0,
14,
14,
14,
16,
2,
5,
17,
16,
16,
11,
11,
3,
3,
6,
6,
11,
11,
12,
12,
13,
1,
1,
1,
2,
2,
-1,
-1,
2,
2,
7,
7,
12,
12,
15,
15,
24,
24,
27,
16,
17,
4,
6,
6,
-1,
-1,
0,
0,
0,
0,
10,
10,
12,
0,
2,
16,
16,
16,
18,
18,
16,
16,
14,
14,
19,
19,
15,
2,
3,
3,
5,
5,
15,
15,
13,
0,
1,
1,
6,
6,
0,
0,
6,
6,
14,
14,
23,
42,
40,
53,
52,
36,
36,
6,
9,
38,
38,
38,
47,
47,
50,
27,
28,
2,
3,
3,
9,
9,
5,
5,
4,
4,
7,
7,
0,
0,
5,
5,
8,
8,
14,
14,
11,
11,
8,
8,
4,
4,
0,
0,
4,
4,
0,
14,
14,
14,
18,
18,
9,
9,
2,
2,
1,
1,
-1,
10,
9,
9,
8,
8,
2,
2,
8,
8,
3,
3,
9,
9,
9,
9,
2,
2,
1,
1,
1,
1,
8,
8,
15,
15,
14,
14,
7,
7,
8,
8,
7,
7,
6,
6,
0,
12,
11,
11,
15,
15,
11,
11,
16,
16,
13,
0,
0,
12,
11,
11,
10,
10,
6,
6,
6,
6,
16,
16,
18,
18,
9,
9,
4,
4,
10,
10,
6,
6,
4,
4,
11,
11,
10,
-1,
1,
1,
5,
5,
1,
1,
5,
5,
0,
0,
0,
0,
9,
9,
12,
12,
12,
12,
5,
5,
6,
6,
5,
5,
5,
5,
14,
14,
16,
16,
18,
18,
23,
23,
29,
29,
23,
11,
11,
11,
6,
21,
21,
21,
23,
23,
15,
2,
2,
2,
0,
0,
4,
4,
4,
4,
5,
5,
5,
16,
15,
15,
9,
9,
1,
1,
5,
5,
11,
11,
8,
8,
9,
21,
20,
20,
12,
12,
2,
2,
0,
0,
10,
10,
14,
14,
10,
10,
1,
1,
7,
7,
3,
3,
5,
5,
8,
8,
10,
10,
7,
7,
6,
6,
2,
2,
-1,
-1,
2,
2,
8,
8,
8,
8,
5,
5,
3,
3,
2,
2,
4,
4,
7,
7,
2,
2,
4,
4,
7,
7,
9,
9,
16,
27,
26,
15,
15,
-1,
1,
1,
11,
11,
18,
18,
19,
19,
19,
19,
12,
12,
5,
5,
0,
0,
3,
3,
5,
5,
5,
5,
2,
20,
19,
19,
23,
23,
20,
20,
19,
19,
21,
8,
9,
9,
6,
6,
8,
8,
6,
6,
3,
3,
1,
1,
7,
7,
6,
6,
10,
10,
11,
11,
10,
10,
7,
7,
1,
1,
0,
0,
1,
1,
9,
9,
10,
10,
4,
4,
0,
0,
9,
9,
12,
0,
2,
16,
15,
15,
23,
12,
13,
0,
0,
11,
10,
10,
10,
10,
4,
4,
10,
10,
15,
15,
8,
8,
1,
1,
6,
6,
11,
11,
7,
7,
0,
0,
6,
6,
2,
2,
8,
8,
6,
6,
4,
4,
13,
13,
4,
4,
6,
6,
4,
4,
0,
0,
4,
4,
0,
0,
3,
3,
8,
8,
8,
8,
4,
4,
4,
4,
5,
5,
4,
4,
4,
4,
5,
5,
2,
2,
-1,
-1,
6,
6,
9,
9,
12,
12,
10,
10,
1,
12,
11,
11,
14,
14,
14,
14,
12,
12,
11,
11,
17,
17,
8,
8,
2,
2,
6,
6,
13,
13,
13,
13,
14,
14,
7,
7,
2,
2,
5,
5,
8,
8,
8,
8,
0,
0,
7,
7,
5,
5,
1,
1,
0,
0,
1,
1,
9,
9,
10,
10,
3,
3,
0,
0,
1,
1,
0,
0,
0,
0,
4,
4,
2,
2,
1,
1,
5,
5,
3,
3,
3,
3,
4,
4,
2,
2,
2,
2,
10,
10,
11,
11,
10,
10,
3,
3,
7,
7,
8,
8,
5,
5,
7,
7,
2,
2,
4,
4,
2,
2,
9,
9,
11,
11,
6,
6,
-1,
-1,
4,
4,
3,
3,
0,
0,
2,
2,
0,
0,
8,
8,
10,
10,
3,
3,
6,
6,
8,
8,
0,
0,
-1,
-1,
-1,
-1,
1,
1,
7,
7,
10,
10,
13,
13,
5,
5,
0,
0,
3,
3,
0,
0,
2,
2,
5,
5,
9,
9,
10,
10,
7,
7,
2,
2,
1,
1,
6,
6,
13,
13,
10,
10,
8,
8,
3,
3,
4,
4,
7,
7,
4,
4,
12,
12,
11,
0,
0,
0,
8,
8,
11,
11,
4,
4,
4,
4,
0,
0,
7,
7,
9,
9,
9,
9,
6,
6,
1,
1,
0,
0,
3,
3,
7,
7,
7,
7,
4,
4,
6,
6,
1,
1,
-2,
-2,
1,
1,
5,
5,
8,
8,
4,
4,
-1,
-1,
2,
2,
3,
3,
1,
1,
5,
5,
2,
2,
6,
6,
2,
13,
12,
12,
7,
7,
9,
9,
14,
14,
14,
14,
7,
7,
4,
18,
17,
57,
57,
68,
67,
47,
48,
6,
7,
34,
33,
33,
43,
43,
48,
48,
42,
29,
30,
14,
15,
0,
2,
2,
7,
7,
11,
11,
16,
16,
15,
15,
12,
12,
4,
4,
0,
0,
-2,
-2,
2,
2,
4,
4,
4,
4,
3,
3,
10,
10,
10,
10,
7,
7,
8,
8,
2,
2,
0,
0,
0,
0,
2,
2,
3,
3,
3,
3,
2,
2,
