EMG_S1/DS0140.CSV

Memory Length,4000,
Trigger Level,0.00000e+00,
Source,CH1,
Probe,1.0X,
Vertical Units,V,
Vertical Scale,1.00000e+00,
Vertical Position,4.00000e-02,
Horizontal Units,S,
Horizontal Scale,1.00000e-01,
Horizontal Position,0.0000000e+00,
Horizontal Mode,Roll Mode,
Waveform Last Dot Address,4000,
Sampling Period,4.00000e-04,
Firmware,V1.14,
Time, ,
Mode,Fast,
Waveform Data,
3,
3,
8,
8,
7,
7,
2,
2,
8,
8,
10,
10,
8,
8,
18,
18,
22,
11,
12,
1,
6,
6,
15,
15,
18,
18,
18,
18,
14,
14,
11,
11,
3,
3,
2,
2,
5,
5,
7,
7,
6,
6,
5,
5,
8,
8,
7,
7,
5,
5,
7,
7,
11,
11,
9,
9,
4,
4,
0,
0,
5,
5,
0,
0,
2,
2,
4,
4,
2,
2,
0,
0,
0,
0,
0,
0,
0,
0,
3,
3,
0,
0,
0,
12,
12,
12,
16,
16,
8,
8,
0,
0,
1,
1,
3,
3,
13,
13,
16,
16,
9,
9,
3,
3,
1,
1,
2,
2,
1,
1,
0,
0,
6,
6,
5,
5,
-1,
-1,
-1,
-1,
0,
0,
3,
14,
13,
13,
19,
8,
8,
8,
6,
6,
9,
9,
5,
5,
3,
3,
0,
0,
5,
5,
10,
10,
11,
11,
12,
12,
13,
13,
11,
11,
3,
3,
1,
1,
0,
0,
6,
6,
7,
7,
8,
8,
10,
10,
10,
10,
8,
8,
6,
6,
2,
2,
-1,
-1,
-1,
-1,
0,
0,
1,
1,
-1,
-1,
0,
0,
2,
2,
5,
5,
2,
2,
-2,
-2,
0,
0,
8,
8,
11,
11,
2,
2,
5,
5,
6,
6,
0,
0,
-1,
-1,
0,
0,
4,
4,
3,
3,
7,
7,
10,
10,
9,
9,
3,
3,
0,
0,
2,
2,
0,
0,
3,
3,
4,
4,
8,
8,
9,
9,
6,
6,
6,
6,
1,
13,
12,
12,
12,
12,
2,
2,
4,
4,
4,
4,
1,
1,
0,
0,
4,
4,
5,
5,
0,
0,
2,
2,
1,
1,
0,
0,
2,
2,
1,
1,
0,
0,
1,
1,
1,
1,
7,
7,
10,
10,
16,
16,
14,
0,
1,
1,
5,
5,
2,
2,
3,
3,
6,
6,
3,
3,
2,
2,
6,
6,
7,
7,
5,
5,
0,
0,
6,
6,
9,
9,
6,
6,
-1,
-1,
1,
1,
6,
6,
7,
7,
6,
6,
1,
1,
1,
1,
3,
3,
0,
0,
3,
3,
3,
3,
2,
2,
4,
19,
19,
19,
19,
7,
8,
8,
1,
1,
2,
2,
9,
9,
2,
13,
12,
12,
9,
9,
5,
5,
11,
11,
14,
14,
14,
14,
10,
-1,
0,
0,
3,
3,
3,
3,
4,
4,
3,
3,
5,
5,
10,
10,
6,
6,
0,
0,
-1,
-1,
4,
4,
6,
6,
0,
0,
2,
2,
0,
0,
2,
2,
0,
0,
2,
2,
1,
1,
6,
6,
8,
8,
7,
7,
2,
2,
2,
2,
6,
6,
4,
4,
4,
4,
5,
5,
5,
5,
6,
6,
0,
0,
1,
1,
7,
7,
9,
9,
5,
5,
13,
38,
38,
38,
34,
15,
16,
3,
3,
3,
4,
4,
10,
10,
14,
14,
12,
12,
8,
8,
5,
5,
2,
2,
2,
2,
0,
0,
4,
4,
7,
7,
5,
5,
-1,
-1,
0,
0,
1,
1,
5,
5,
8,
8,
11,
11,
3,
3,
2,
2,
2,
2,
2,
2,
0,
0,
3,
3,
8,
8,
7,
7,
2,
2,
0,
0,
2,
2,
-1,
-1,
2,
2,
-1,
-1,
5,
5,
6,
6,
7,
7,
2,
2,
0,
0,
2,
2,
3,
3,
2,
2,
0,
0,
-1,
-1,
3,
3,
6,
6,
3,
3,
0,
0,
5,
5,
4,
4,
2,
2,
0,
0,
2,
2,
4,
4,
4,
4,
3,
3,
8,
8,
10,
10,
7,
7,
1,
1,
3,
3,
7,
7,
2,
2,
5,
5,
3,
3,
11,
11,
12,
12,
5,
5,
2,
2,
2,
2,
0,
0,
3,
3,
-1,
-1,
2,
2,
-1,
-1,
4,
4,
9,
9,
12,
12,
11,
0,
2,
2,
2,
2,
5,
5,
10,
10,
6,
18,
16,
16,
24,
11,
11,
36,
36,
65,
64,
45,
45,
6,
9,
24,
23,
23,
23,
23,
26,
26,
22,
22,
16,
16,
13,
2,
3,
3,
0,
0,
-1,
-1,
3,
3,
3,
3,
12,
26,
24,
24,
25,
25,
19,
19,
16,
16,
15,
15,
7,
7,
4,
20,
19,
19,
24,
24,
17,
17,
16,
1,
5,
5,
11,
11,
7,
7,
3,
3,
3,
3,
2,
2,
6,
23,
22,
22,
20,
2,
2,
2,
8,
8,
8,
8,
1,
1,
4,
4,
8,
8,
6,
6,
0,
0,
10,
10,
15,
1,
4,
15,
14,
14,
10,
10,
14,
14,
21,
3,
4,
28,
28,
28,
27,
27,
21,
2,
3,
3,
10,
10,
10,
10,
6,
6,
4,
4,
3,
3,
8,
8,
12,
12,
4,
4,
0,
0,
-1,
-1,
8,
8,
8,
8,
3,
3,
10,
10,
16,
16,
16,
16,
13,
13,
4,
4,
7,
7,
3,
14,
14,
14,
15,
15,
19,
19,
11,
11,
18,
18,
14,
14,
13,
13,
12,
1,
1,
1,
7,
7,
14,
14,
10,
-1,
0,
0,
3,
3,
1,
1,
2,
2,
6,
6,
3,
3,
4,
4,
1,
1,
3,
3,
3,
3,
12,
12,
19,
19,
22,
22,
28,
28,
29,
29,
20,
20,
16,
2,
3,
18,
17,
17,
23,
23,
25,
13,
13,
13,
10,
10,
14,
14,
15,
2,
3,
3,
0,
0,
2,
2,
0,
0,
6,
6,
7,
7,
15,
15,
22,
22,
26,
26,
30,
30,
28,
28,
24,
3,
4,
23,
22,
22,
30,
17,
17,
17,
13,
13,
19,
19,
22,
22,
20,
1,
2,
2,
6,
6,
10,
10,
12,
12,
13,
13,
8,
8,
1,
1,
-1,
-1,
4,
4,
3,
15,
14,
14,
18,
18,
10,
-1,
1,
1,
6,
6,
5,
5,
2,
2,
7,
7,
1,
1,
1,
1,
1,
1,
8,
8,
11,
11,
2,
14,
14,
30,
29,
29,
34,
10,
11,
0,
4,
4,
6,
6,
16,
16,
13,
2,
3,
3,
8,
8,
6,
6,
3,
3,
4,
4,
2,
2,
0,
0,
7,
7,
10,
10,
2,
2,
6,
6,
11,
11,
3,
3,
0,
0,
-1,
-1,
-1,
10,
9,
30,
30,
30,
34,
16,
17,
2,
7,
20,
19,
19,
19,
19,
15,
15,
14,
14,
14,
14,
13,
0,
1,
1,
7,
7,
9,
9,
7,
7,
7,
7,
11,
22,
21,
21,
21,
6,
6,
6,
2,
2,
6,
6,
5,
5,
-1,
-1,
2,
14,
13,
13,
12,
1,
2,
2,
8,
8,
2,
15,
15,
15,
13,
0,
0,
0,
2,
2,
0,
0,
1,
1,
6,
6,
5,
5,
11,
11,
17,
17,
12,
12,
5,
5,
4,
4,
6,
6,
14,
14,
12,
12,
7,
7,
2,
2,
7,
7,
11,
11,
6,
6,
5,
5,
6,
6,
2,
2,
2,
2,
7,
7,
5,
5,
0,
0,
1,
1,
7,
7,
7,
7,
9,
9,
5,
5,
5,
5,
-1,
-1,
6,
23,
22,
33,
32,
19,
19,
2,
6,
22,
21,
21,
20,
20,
15,
15,
5,
5,
10,
10,
17,
3,
4,
4,
8,
8,
18,
6,
7,
18,
18,
30,
28,
14,
14,
0,
3,
3,
8,
8,
12,
12,
9,
9,
1,
1,
1,
1,
8,
8,
3,
3,
3,
3,
0,
0,
2,
2,
1,
1,
11,
11,
15,
15,
9,
9,
14,
14,
10,
-1,
2,
2,
7,
7,
9,
9,
3,
3,
3,
3,
3,
3,
0,
0,
4,
4,
0,
0,
6,
6,
1,
1,
4,
4,
5,
5,
2,
2,
3,
3,
5,
5,
2,
2,
7,
7,
8,
8,
10,
10,
10,
10,
7,
7,
10,
10,
0,
0,
3,
3,
6,
6,
5,
5,
3,
3,
0,
0,
2,
2,
9,
21,
19,
30,
30,
30,
22,
6,
7,
7,
0,
0,
0,
0,
8,
8,
9,
9,
5,
17,
16,
16,
21,
21,
18,
18,
14,
14,
8,
8,
6,
6,
0,
0,
0,
0,
2,
2,
4,
4,
7,
7,
4,
4,
9,
25,
23,
23,
28,
28,
20,
20,
15,
15,
9,
9,
6,
6,
2,
2,
0,
0,
7,
7,
5,
5,
1,
1,
0,
0,
3,
3,
7,
7,
8,
8,
5,
5,
6,
6,
2,
2,
7,
7,
14,
26,
26,
43,
43,
31,
31,
2,
3,
20,
20,
31,
29,
29,
37,
37,
34,
17,
18,
2,
4,
4,
11,
11,
4,
4,
0,
0,
-1,
-1,
-1,
15,
14,
14,
22,
22,
24,
24,
20,
20,
14,
14,
4,
4,
0,
14,
14,
14,
19,
19,
10,
10,
2,
2,
0,
0,
4,
4,
9,
9,
10,
10,
13,
13,
17,
17,
9,
9,
11,
11,
14,
14,
14,
14,
16,
16,
15,
15,
12,
12,
4,
4,
6,
6,
8,
8,
11,
11,
15,
15,
11,
11,
7,
7,
7,
7,
6,
6,
1,
1,
2,
2,
2,
2,
0,
0,
7,
7,
6,
6,
13,
13,
5,
5,
4,
4,
10,
10,
10,
10,
1,
1,
6,
18,
17,
17,
21,
21,
17,
2,
2,
14,
14,
14,
14,
14,
12,
12,
12,
12,
6,
6,
0,
0,
2,
2,
4,
4,
7,
7,
2,
2,
5,
5,
0,
0,
-1,
-1,
1,
1,
0,
0,
5,
5,
8,
8,
11,
11,
10,
10,
9,
9,
15,
15,
16,
16,
9,
9,
6,
6,
7,
7,
1,
1,
-2,
-2,
0,
0,
3,
3,
6,
6,
5,
5,
5,
5,
5,
5,
10,
10,
19,
6,
6,
6,
7,
20,
20,
20,
22,
11,
12,
12,
5,
5,
0,
0,
3,
3,
7,
7,
10,
10,
7,
7,
0,
0,
0,
0,
6,
6,
11,
11,
8,
8,
2,
2,
6,
6,
7,
7,
5,
5,
5,
5,
2,
2,
6,
6,
6,
6,
-1,
-1,
0,
0,
3,
3,
-1,
-1,
-1,
-1,
7,
7,
6,
6,
2,
2,
5,
5,
5,
5,
2,
2,
2,
2,
1,
1,
3,
3,
5,
16,
15,
1,
2,
2,
9,
9,
10,
10,
11,
11,
5,
21,
20,
20,
20,
3,
4,
4,
0,
0,
2,
2,
4,
4,
0,
0,
7,
7,
5,
5,
6,
6,
3,
3,
8,
8,
9,
9,
3,
3,
6,
6,
6,
6,
0,
0,
9,
9,
11,
11,
14,
14,
12,
12,
8,
8,
1,
1,
6,
6,
13,
13,
12,
12,
7,
7,
7,
7,
9,
9,
5,
5,
7,
7,
6,
6,
0,
0,
6,
6,
10,
10,
13,
13,
14,
14,
13,
13,
8,
8,
6,
6,
0,
0,
2,
2,
6,
6,
0,
0,
2,
2,
10,
10,
10,
-1,
0,
0,
-1,
-1,
0,
0,
3,
3,
6,
6,
5,
5,
3,
3,
6,
6,
11,
11,
8,
8,
5,
5,
3,
3,
9,
9,
4,
4,
0,
0,
1,
1,
-1,
-1,
2,
2,
3,
15,
15,
15,
15,
0,
0,
0,
1,
1,
10,
10,
16,
5,
5,
5,
1,
1,
5,
5,
10,
10,
5,
5,
2,
2,
4,
4,
1,
1,
2,
2,
0,
0,
4,
4,
2,
2,
0,
0,
0,
0,
6,
6,
10,
10,
16,
16,
15,
15,
16,
4,
5,
5,
6,
6,
14,
14,
10,
10,
6,
6,
6,
6,
7,
7,
6,
6,
-1,
-1,
3,
3,
10,
28,
28,
28,
23,
2,
3,
14,
13,
13,
7,
7,
3,
3,
1,
18,
16,
16,
15,
3,
13,
13,
22,
7,
7,
7,
-1,
-1,
0,
0,
7,
7,
6,
6,
0,
0,
8,
8,
9,
9,
5,
5,
-1,
-1,
4,
4,
12,
12,
11,
11,
11,
11,
9,
9,
4,
4,
10,
10,
14,
14,
12,
12,
8,
8,
3,
3,
2,
2,
0,
0,
6,
6,
10,
10,
10,
10,
2,
2,
3,
3,
2,
2,
-1,
-1,
-1,
-1,
0,
0,
-1,
-1,
2,
2,
5,
5,
6,
6,
8,
8,
6,
6,
10,
10,
7,
7,
8,
8,
4,
4,
4,
4,
0,
0,
6,
6,
14,
14,
14,
14,
15,
15,
11,
11,
5,
5,
5,
5,
-1,
10,
10,
10,
14,
14,
14,
14,
12,
12,
7,
7,
6,
6,
1,
1,
7,
7,
15,
15,
15,
0,
4,
30,
29,
29,
25,
2,
2,
2,
7,
21,
20,
20,
14,
14,
8,
8,
17,
17,
19,
7,
8,
8,
0,
22,
21,
35,
34,
34,
38,
38,
45,
45,
39,
22,
22,
8,
9,
9,
4,
4,
2,
2,
10,
10,
14,
14,
20,
20,
23,
34,
33,
33,
41,
25,
26,
7,
7,
7,
1,
1,
0,
0,
6,
6,
1,
1,
8,
8,
0,
0,
10,
10,
11,
0,
2,
2,
5,
5,
0,
0,
5,
5,
5,
5,
-1,
-1,
8,
19,
18,
18,
15,
3,
3,
3,
7,
7,
14,
2,
10,
31,
30,
30,
26,
8,
9,
9,
0,
0,
5,
5,
4,
4,
6,
6,
6,
6,
2,
2,
8,
8,
7,
7,
0,
0,
4,
4,
3,
3,
0,
0,
3,
3,
5,
5,
11,
11,
14,
14,
10,
10,
2,
2,
0,
0,
0,
0,
6,
6,
14,
14,
17,
17,
14,
14,
5,
18,
18,
18,
22,
9,
9,
9,
6,
6,
7,
7,
0,
0,
6,
22,
22,
22,
23,
9,
10,
10,
15,
15,
14,
0,
0,
0,
5,
5,
0,
0,
4,
15,
15,
15,
18,
18,
12,
0,
5,
5,
7,
7,
4,
21,
20,
20,
16,
0,
2,
2,
0,
0,
8,
8,
9,
9,
7,
7,
3,
3,
12,
12,
18,
7,
7,
7,
-1,
-1,
0,
0,
8,
8,
16,
16,
8,
8,
1,
1,
10,
10,
9,
9,
1,
1,
7,
7,
5,
5,
2,
15,
15,
15,
19,
19,
12,
12,
10,
10,
14,
14,
10,
-1,
0,
0,
4,
4,
8,
8,
8,
8,
9,
9,
10,
10,
6,
6,
8,
8,
10,
10,
1,
1,
0,
0,
7,
7,
14,
14,
7,
7,
4,
4,
4,
4,
9,
9,
8,
8,
2,
2,
2,
2,
2,
2,
8,
8,
6,
6,
2,
2,
8,
8,
3,
3,
0,
0,
5,
5,
6,
6,
1,
1,
0,
0,
1,
1,
8,
8,
4,
4,
7,
7,
12,
12,
7,
7,
0,
0,
9,
9,
13,
13,
6,
6,
5,
5,
2,
13,
11,
11,
12,
12,
5,
5,
2,
2,
2,
2,
1,
1,
4,
4,
2,
2,
10,
10,
8,
8,
3,
3,
7,
7,
0,
0,
1,
14,
13,
29,
28,
28,
21,
2,
4,
4,
11,
11,
3,
3,
2,
2,
8,
8,
8,
8,
6,
6,
9,
9,
11,
11,
7,
7,
5,
5,
2,
2,
5,
5,
3,
3,
8,
8,
4,
4,
0,
0,
0,
0,
3,
3,
2,
2,
-1,
-1,
-1,
-1,
0,
0,
8,
8,
13,
13,
14,
14,
10,
10,
3,
3,
1,
1,
6,
6,
14,
14,
14,
0,
0,
0,
5,
5,
3,
18,
18,
39,
38,
26,
27,
2,
3,
15,
14,
14,
13,
13,
14,
14,
14,
0,
0,
14,
11,
11,
9,
9,
3,
3,
7,
7,
6,
6,
6,
6,
2,
2,
11,
11,
6,
6,
2,
2,
8,
8,
7,
7,
0,
0,
4,
4,
14,
14,
10,
10,
6,
6,
2,
2,
7,
7,
12,
12,
15,
15,
9,
9,
0,
0,
4,
4,
13,
13,
17,
17,
19,
19,
14,
0,
2,
2,
10,
10,
9,
9,
1,
1,
2,
2,
-1,
-1,
0,
0,
0,
0,
7,
7,
10,
10,
12,
12,
9,
9,
0,
0,
1,
1,
0,
0,
0,
0,
-1,
-1,
3,
3,
3,
3,
0,
17,
16,
16,
20,
20,
16,
1,
5,
17,
16,
16,
22,
22,
21,
21,
13,
13,
6,
6,
-1,
-1,
8,
8,
17,
17,
11,
11,
4,
4,
0,
0,
1,
1,
0,
0,
8,
8,
3,
30,
29,
29,
31,
13,
13,
0,
3,
3,
11,
11,
8,
8,
4,
4,
8,
8,
12,
12,
7,
7,
2,
2,
4,
4,
2,
2,
2,
2,
0,
0,
6,
6,
15,
15,
13,
2,
3,
3,
-1,
-1,
3,
3,
5,
5,
8,
23,
22,
22,
23,
11,
12,
0,
3,
14,
12,
12,
12,
12,
16,
16,
19,
19,
20,
2,
3,
3,
10,
10,
9,
9,
9,
9,
8,
8,
7,
7,
2,
2,
1,
1,
0,
0,
0,
0,
4,
4,
4,
4,
3,
3,
1,
1,
6,
6,
6,
6,
4,
4,
9,
9,
9,
9,
9,
9,
3,
3,
0,
0,
2,
2,
1,
1,
7,
7,
10,
10,
3,
3,
7,
7,
8,
8,
1,
1,
10,
10,
6,
6,
2,
2,
4,
4,
4,
4,
-1,
-1,
7,
7,
10,
10,
13,
13,
8,
8,
0,
0,
0,
0,
2,
2,
2,
2,
0,
0,
5,
5,
10,
10,
7,
7,
3,
14,
14,
14,
16,
16,
13,
13,
7,
7,
5,
19,
19,
31,
29,
14,
14,
3,
4,
4,
2,
2,
2,
2,
3,
3,
7,
7,
1,
18,
17,
17,
14,
14,
9,
9,
4,
21,
21,
21,
18,
2,
3,
3,
2,
2,
10,
10,
15,
15,
8,
8,
2,
2,
1,
1,
5,
5,
4,
4,
4,
4,
5,
5,
2,
2,
2,
2,
9,
9,
17,
17,
18,
18,
12,
12,
3,
3,
5,
5,
9,
9,
10,
10,
8,
8,
1,
1,
1,
1,
-1,
-1,
0,
0,
5,
5,
1,
1,
5,
5,
2,
2,
5,
5,
11,
11,
7,
7,
2,
2,
8,
8,
16,
16,
16,
16,
8,
8,
0,
0,
2,
2,
5,
5,
10,
10,
8,
8,
-1,
-1,
0,
0,
0,
0,
3,
3,
0,
0,
2,
2,
8,
8,
7,
7,
9,
9,
8,
8,
0,
0,
9,
9,
4,
4,
5,
5,
1,
1,
6,
6,
4,
25,
23,
23,
29,
17,
19,
0,
1,
1,
5,
5,
12,
12,
13,
13,
12,
12,
8,
8,
4,
4,
4,
4,
3,
3,
7,
7,
11,
11,
10,
10,
13,
13,
10,
10,
1,
1,
2,
2,
4,
4,
8,
8,
12,
12,
19,
4,
4,
23,
23,
23,
32,
32,
23,
23,
14,
0,
1,
1,
6,
6,
11,
11,
20,
20,
14,
14,
15,
15,
10,
10,
5,
5,
6,
6,
3,
3,
5,
5,
8,
8,
8,
8,
4,
4,
4,
4,
10,
10,
13,
13,
9,
9,
13,
13,
16,
3,
4,
4,
4,
4,
4,
4,
1,
1,
4,
4,
6,
6,
2,
2,
4,
4,
0,
0,
2,
2,
4,
4,
3,
3,
10,
10,
7,
7,
3,
3,
8,
8,
1,
20,
19,
19,
25,
25,
22,
6,
6,
6,
8,
8,
16,
16,
16,
16,
10,
10,
5,
19,
19,
19,
12,
12,
2,
2,
1,
1,
2,
2,
-1,
-1,
4,
4,
4,
4,
6,
6,
7,
7,
-1,
-1,
8,
8,
4,
4,
7,
7,
2,
2,
7,
7,
5,
5,
8,
8,
10,
10,
6,
6,
4,
4,
14,
14,
16,
16,
15,
3,
3,
14,
12,
12,
14,
14,
10,
10,
8,
8,
12,
12,
4,
4,
0,
0,
2,
2,
0,
0,
-1,
-1,
2,
2,
2,
2,
1,
1,
4,
4,
6,
6,
2,
2,
3,
3,
6,
6,
16,
16,
21,
21,
14,
0,
0,
0,
3,
3,
3,
3,
3,
3,
6,
6,
4,
4,
0,
0,
4,
4,
4,
4,
-1,
-1,
6,
6,
7,
7,
5,
5,
4,
4,
0,
0,
0,
0,
0,
0,
6,
6,
8,
8,
6,
6,
8,
8,
10,
10,
7,
7,
6,
6,
4,
4,
0,
0,
2,
2,
0,
0,
0,
0,
2,
2,
3,
3,
0,
0,
2,
2,
8,
8,
4,
4,
2,
2,
11,
11,
14,
14,
6,
6,
2,
2,
0,
0,
5,
5,
2,
2,
2,
2,
5,
5,
2,
2,
7,
7,
6,
6,
-1,
-1,
1,
1,
-1,
-1,
3,
3,
5,
5,
12,
12,
8,
8,
6,
6,
6,
6,
-1,
-1,
3,
3,
-1,
-1,
2,
2,
1,
1,
4,
4,
8,
8,
16,
16,
8,
8,
2,
21,
20,
39,
39,
39,
32,
5,
6,
6,
8,
8,
16,
16,
20,
20,
16,
16,
7,
7,
4,
4,
3,
3,
-1,
-1,
6,
6,
7,
7,
2,
2,
3,
3,
0,
0,
-1,
-1,
6,
6,
12,
12,
8,
8,
2,
2,
7,
7,
12,
12,
10,
-1,
0,
0,
3,
3,
10,
10,
8,
8,
7,
7,
10,
10,
6,
6,
6,
18,
16,
16,
18,
5,
5,
5,
6,
6,
11,
11,
13,
13,
8,
8,
1,
1,
2,
2,
4,
4,
5,
5,
0,
0,
4,
4,
-1,
-1,
4,
4,
0,
0,
0,
0,
6,
19,
19,
19,
28,
28,
23,
11,
12,
-1,
2,
2,
8,
8,
14,
14,
19,
19,
18,
7,
7,
7,
0,
0,
0,
0,
0,
0,
4,
4,
0,
0,
0,
0,
1,
1,
3,
3,
3,
3,
-1,
-1,
1,
16,
16,
33,
33,
33,
37,
37,
28,
9,
11,
11,
8,
8,
15,
15,
16,
16,
13,
13,
15,
15,
16,
16,
14,
14,
10,
10,
4,
4,
5,
5,
2,
2,
10,
10,
12,
12,
15,
15,
15,
15,
11,
11,
10,
10,
7,
7,
0,
0,
0,
0,
-1,
-1,
4,
4,
7,
7,
5,
5,
0,
11,
11,
11,
18,
18,
16,
1,
2,
2,
5,
5,
7,
7,
5,
5,
8,
8,
8,
8,
11,
11,
10,
10,
5,
5,
4,
4,
3,
3,
7,
7,
14,
14,
21,
21,
16,
16,
11,
11,
8,
8,
2,
2,
2,
2,
6,
6,
7,
7,
2,
2,
-1,
-1,
2,
2,
8,
8,
9,
9,
7,
7,
3,
3,
2,
2,
8,
8,
18,
18,
18,
18,
10,
-1,
2,
2,
6,
6,
3,
3,
0,
0,
3,
3,
0,
0,
0,
0,
-1,
-1,
0,
0,
4,
4,
13,
13,
11,
11,
5,
5,
-1,
-1,
4,
4,
8,
8,
10,
10,
10,
10,
10,
10,
5,
5,
0,
0,
2,
2,
9,
9,
11,
11,
8,
8,
7,
7,
6,
6,
5,
5,
0,
0,
1,
1,
0,
0,
2,
2,
0,
0,
-1,
-1,
0,
0,
0,
0,
2,
2,
10,
10,
2,
2,
0,
0,
1,
1,
4,
4,
0,
0,
0,
0,
0,
0,
5,
5,
5,
5,
0,
0,
7,
7,
13,
13,
9,
9,
8,
8,
1,
1,
3,
3,
8,
23,
22,
22,
30,
30,
32,
32,
24,
5,
6,
6,
7,
7,
13,
13,
14,
14,
12,
12,
17,
17,
17,
17,
11,
11,
4,
4,
11,
11,
14,
14,
8,
8,
2,
2,
0,
0,
-1,
-1,
-1,
-1,
1,
1,
8,
8,
5,
5,
2,
2,
2,
2,
7,
7,
15,
15,
6,
6,
-1,
-1,
2,
2,
10,
10,
1,
1,
5,
5,
4,
4,
0,
0,
7,
7,
8,
8,
7,
7,
8,
8,
1,
1,
2,
2,
4,
4,
8,
8,
9,
9,
10,
10,
17,
17,
23,
23,
22,
7,
7,
7,
0,
13,
12,
12,
16,
16,
16,
16,
15,
15,
9,
9,
9,
9,
8,
8,
0,
0,
6,
6,
12,
12,
14,
14,
8,
8,
6,
6,
5,
5,
5,
5,
7,
7,
6,
6,
2,
2,
-1,
-1,
2,
2,
8,
8,
7,
7,
5,
5,
8,
8,
2,
2,
4,
4,
2,
2,
5,
5,
0,
0,
6,
6,
8,
8,
11,
0,
0,
0,
2,
2,
3,
3,
1,
1,
7,
7,
3,
3,
3,
3,
3,
3,
6,
6,
4,
4,
0,
0,
4,
4,
11,
11,
20,
20,
22,
9,
10,
-1,
1,
1,
9,
9,
10,
10,
14,
14,
13,
13,
9,
9,
6,
6,
5,
5,
1,
1,
9,
9,
7,
7,
5,
5,
10,
21,
20,
20,
12,
0,
4,
4,
7,
7,
7,
7,
7,
7,
1,
1,
8,
8,
11,
11,
14,
14,
19,
19,
14,
1,
1,
1,
9,
9,
12,
12,
10,
10,
15,
15,
22,
22,
19,
7,
7,
7,
2,
2,
8,
20,
19,
19,
23,
23,
18,
18,
11,
11,
7,
7,
2,
2,
-1,
-1,
1,
1,
2,
2,
4,
4,
3,
3,
1,
1,
2,
2,
0,
0,
6,
6,
3,
3,
4,
4,
3,
3,
3,
3,
2,
2,
1,
1,
4,
4,
2,
2,
-1,
-1,
5,
5,
10,
10,
8,
8,
1,
1,
0,
0,
6,
6,
11,
11,
2,
2,
7,
7,
16,
16,
17,
17,
9,
9,
0,
0,
3,
3,
6,
6,
3,
3,
0,
0,
2,
2,
