EMG_S1/DS0156.CSV

Memory Length,4000,
Trigger Level,0.00000e+00,
Source,CH1,
Probe,1.0X,
Vertical Units,V,
Vertical Scale,1.00000e+00,
Vertical Position,4.00000e-02,
Horizontal Units,S,
Horizontal Scale,1.00000e-01,
Horizontal Position,0.0000000e+00,
Horizontal Mode,Roll Mode,
Waveform Last Dot Address,4000,
Sampling Period,4.00000e-04,
Firmware,V1.14,
Time, ,
Mode,Fast,
Waveform Data,
3,
3,
11,
11,
14,
14,
10,
10,
13,
13,
7,
7,
7,
7,
4,
4,
4,
4,
8,
8,
8,
8,
1,
1,
-2,
-2,
2,
2,
5,
5,
10,
10,
15,
4,
4,
4,
3,
14,
13,
13,
7,
7,
13,
13,
4,
18,
16,
16,
23,
23,
20,
5,
5,
5,
0,
0,
6,
6,
2,
2,
0,
0,
3,
3,
4,
4,
7,
7,
2,
2,
11,
11,
16,
16,
14,
14,
6,
6,
4,
4,
0,
0,
4,
4,
8,
8,
0,
0,
8,
8,
16,
16,
18,
18,
17,
0,
0,
0,
0,
19,
19,
34,
33,
6,
6,
21,
20,
34,
34,
34,
32,
19,
20,
20,
16,
2,
3,
15,
14,
14,
16,
16,
21,
21,
24,
24,
15,
0,
0,
0,
8,
8,
10,
10,
3,
3,
3,
3,
7,
7,
9,
9,
8,
8,
0,
0,
6,
6,
2,
17,
17,
32,
31,
31,
30,
30,
22,
2,
3,
3,
6,
6,
4,
4,
2,
2,
9,
9,
11,
11,
18,
18,
15,
0,
1,
1,
6,
6,
3,
3,
4,
4,
0,
0,
10,
10,
12,
0,
4,
4,
11,
11,
14,
14,
6,
6,
-1,
-1,
-1,
-1,
0,
0,
-1,
-1,
4,
4,
11,
11,
11,
11,
7,
7,
0,
0,
-1,
-1,
0,
11,
10,
10,
7,
7,
3,
3,
11,
11,
2,
2,
7,
7,
2,
34,
33,
45,
43,
26,
26,
4,
8,
20,
18,
18,
13,
13,
6,
6,
8,
8,
7,
7,
12,
12,
12,
12,
6,
6,
4,
4,
10,
10,
14,
14,
11,
11,
6,
6,
0,
0,
6,
6,
13,
13,
22,
22,
18,
18,
10,
10,
6,
17,
17,
17,
19,
5,
5,
5,
6,
6,
11,
11,
4,
4,
0,
0,
1,
1,
1,
1,
2,
2,
5,
5,
12,
12,
17,
6,
6,
6,
0,
0,
5,
5,
9,
9,
12,
12,
7,
7,
8,
28,
28,
28,
22,
10,
10,
-1,
1,
12,
12,
12,
19,
19,
14,
14,
8,
8,
3,
3,
0,
0,
2,
2,
7,
7,
9,
9,
9,
9,
2,
2,
0,
0,
5,
5,
4,
22,
20,
40,
40,
40,
32,
4,
5,
5,
14,
14,
11,
11,
12,
12,
9,
9,
8,
8,
3,
3,
4,
4,
8,
8,
2,
2,
6,
6,
8,
8,
1,
1,
0,
0,
0,
0,
6,
6,
13,
13,
18,
30,
28,
15,
15,
2,
10,
23,
23,
23,
24,
24,
21,
21,
30,
8,
8,
8,
11,
11,
2,
2,
8,
8,
0,
0,
5,
5,
12,
12,
12,
12,
4,
4,
0,
11,
10,
10,
16,
5,
6,
6,
10,
22,
21,
21,
21,
2,
2,
2,
7,
7,
16,
16,
20,
20,
18,
7,
7,
7,
2,
2,
3,
3,
5,
20,
19,
19,
19,
5,
6,
6,
6,
6,
1,
1,
2,
2,
4,
4,
11,
11,
7,
7,
3,
3,
0,
0,
2,
2,
3,
3,
4,
4,
4,
4,
8,
8,
13,
13,
7,
7,
5,
5,
0,
0,
6,
6,
7,
7,
14,
14,
7,
7,
3,
3,
8,
8,
14,
14,
20,
5,
5,
5,
8,
8,
8,
8,
7,
7,
1,
1,
0,
0,
1,
1,
2,
2,
0,
0,
4,
4,
0,
0,
4,
4,
12,
12,
5,
5,
6,
6,
10,
10,
4,
4,
5,
5,
7,
7,
13,
13,
7,
7,
2,
2,
0,
0,
7,
7,
1,
1,
7,
7,
4,
4,
-1,
-1,
5,
5,
0,
0,
6,
6,
3,
3,
7,
7,
15,
15,
14,
14,
8,
8,
6,
26,
25,
45,
44,
44,
44,
23,
23,
2,
3,
17,
16,
32,
32,
32,
22,
22,
16,
16,
16,
5,
6,
6,
2,
2,
4,
4,
5,
5,
5,
5,
1,
1,
3,
3,
4,
4,
1,
1,
-1,
-1,
3,
3,
12,
12,
18,
3,
3,
3,
5,
5,
6,
6,
2,
2,
-1,
-1,
2,
2,
2,
2,
5,
5,
4,
4,
2,
2,
7,
7,
8,
8,
3,
3,
0,
0,
3,
3,
8,
8,
4,
4,
2,
2,
6,
6,
3,
3,
0,
0,
2,
2,
4,
4,
1,
1,
-1,
11,
10,
10,
7,
7,
12,
26,
26,
26,
27,
16,
16,
2,
3,
3,
4,
4,
11,
11,
10,
10,
4,
4,
2,
2,
4,
4,
-1,
-1,
5,
5,
12,
12,
12,
12,
10,
10,
6,
6,
2,
2,
11,
11,
12,
12,
13,
13,
7,
7,
2,
2,
3,
3,
4,
4,
3,
3,
0,
0,
0,
0,
1,
1,
4,
4,
0,
0,
8,
8,
9,
9,
11,
11,
6,
6,
0,
11,
10,
10,
5,
5,
3,
3,
0,
0,
3,
3,
0,
0,
2,
2,
1,
1,
2,
2,
6,
6,
6,
6,
2,
2,
3,
3,
0,
0,
1,
1,
4,
21,
20,
20,
18,
2,
2,
2,
7,
7,
6,
6,
1,
1,
2,
2,
3,
3,
0,
0,
5,
5,
8,
8,
6,
6,
3,
3,
10,
10,
6,
6,
1,
1,
4,
4,
8,
8,
3,
15,
15,
15,
15,
3,
3,
3,
0,
0,
2,
2,
-1,
-1,
0,
0,
0,
0,
0,
11,
11,
11,
6,
6,
8,
8,
17,
17,
13,
2,
10,
10,
9,
9,
2,
2,
0,
0,
5,
5,
11,
11,
5,
5,
7,
7,
7,
7,
15,
27,
26,
26,
23,
8,
9,
9,
0,
0,
2,
2,
0,
0,
2,
2,
7,
7,
10,
10,
10,
10,
6,
6,
8,
29,
28,
28,
27,
3,
4,
4,
11,
11,
13,
13,
11,
11,
8,
8,
3,
3,
3,
3,
4,
4,
4,
4,
2,
2,
4,
4,
1,
1,
5,
5,
4,
4,
0,
0,
2,
2,
-1,
-1,
-1,
17,
16,
32,
31,
31,
30,
9,
10,
10,
5,
5,
10,
10,
12,
12,
18,
18,
16,
16,
8,
8,
1,
1,
0,
0,
2,
2,
4,
4,
2,
2,
6,
6,
4,
4,
6,
6,
8,
8,
6,
6,
0,
0,
-1,
-1,
0,
0,
2,
2,
-1,
-1,
3,
3,
2,
15,
14,
14,
11,
11,
3,
3,
0,
0,
1,
1,
0,
0,
2,
2,
1,
1,
0,
0,
-1,
-1,
2,
2,
0,
0,
2,
2,
1,
1,
1,
1,
0,
0,
2,
2,
7,
7,
10,
10,
6,
6,
2,
2,
7,
7,
2,
2,
7,
7,
0,
0,
9,
9,
15,
15,
12,
12,
9,
9,
3,
3,
5,
5,
12,
12,
8,
8,
8,
8,
11,
0,
0,
0,
6,
6,
9,
9,
7,
7,
4,
4,
5,
5,
2,
2,
2,
2,
3,
3,
1,
1,
2,
2,
1,
1,
6,
6,
0,
0,
0,
0,
0,
0,
9,
9,
11,
11,
7,
7,
0,
0,
9,
9,
3,
3,
11,
11,
11,
11,
8,
8,
2,
14,
12,
12,
6,
6,
2,
2,
0,
0,
8,
8,
12,
12,
10,
10,
2,
2,
2,
2,
8,
8,
16,
16,
14,
14,
10,
10,
1,
1,
4,
4,
7,
7,
2,
2,
1,
1,
5,
5,
12,
12,
8,
8,
1,
1,
0,
0,
7,
7,
4,
4,
6,
6,
13,
13,
14,
14,
7,
7,
3,
3,
0,
0,
2,
2,
7,
7,
10,
10,
8,
8,
6,
6,
7,
7,
6,
6,
-1,
-1,
5,
5,
7,
7,
4,
4,
11,
11,
10,
10,
2,
2,
0,
0,
3,
3,
7,
7,
7,
7,
0,
0,
5,
5,
5,
5,
2,
2,
3,
3,
-1,
-1,
0,
0,
6,
6,
6,
6,
3,
3,
12,
12,
19,
19,
19,
19,
11,
0,
0,
0,
7,
7,
6,
6,
6,
6,
14,
14,
17,
17,
9,
9,
4,
16,
16,
16,
15,
15,
7,
7,
0,
0,
-1,
11,
11,
11,
18,
18,
14,
1,
2,
13,
12,
12,
18,
18,
11,
11,
8,
8,
3,
3,
13,
13,
12,
12,
14,
14,
5,
5,
10,
10,
13,
13,
12,
12,
13,
13,
6,
6,
-1,
-1,
0,
0,
0,
0,
3,
3,
0,
0,
4,
4,
2,
2,
7,
7,
10,
10,
5,
5,
2,
2,
7,
7,
8,
8,
5,
5,
0,
0,
7,
7,
12,
12,
11,
0,
1,
1,
6,
6,
8,
8,
8,
8,
2,
2,
1,
1,
3,
3,
0,
14,
13,
30,
28,
28,
22,
3,
7,
21,
20,
20,
15,
15,
9,
9,
6,
6,
1,
1,
2,
2,
0,
0,
3,
3,
9,
9,
10,
10,
0,
0,
8,
8,
7,
7,
6,
18,
16,
35,
34,
34,
31,
7,
8,
8,
7,
7,
15,
15,
20,
20,
14,
14,
6,
6,
2,
2,
2,
2,
2,
2,
4,
4,
2,
2,
-1,
-1,
2,
2,
12,
25,
24,
24,
24,
10,
10,
-1,
0,
0,
4,
4,
2,
2,
-1,
-1,
0,
0,
2,
2,
5,
5,
2,
2,
0,
0,
-1,
-1,
0,
0,
0,
0,
4,
4,
12,
12,
3,
3,
6,
6,
3,
3,
4,
4,
2,
2,
0,
12,
11,
11,
11,
0,
1,
1,
7,
7,
5,
5,
6,
6,
10,
10,
15,
15,
6,
6,
0,
0,
2,
2,
0,
0,
8,
8,
6,
6,
0,
0,
2,
2,
7,
7,
3,
3,
2,
2,
2,
2,
8,
8,
8,
8,
3,
3,
-1,
-1,
0,
0,
2,
2,
3,
3,
0,
0,
6,
6,
13,
13,
13,
13,
7,
7,
4,
4,
6,
6,
2,
2,
0,
0,
1,
1,
0,
0,
5,
5,
4,
4,
3,
3,
6,
6,
5,
5,
0,
0,
1,
1,
2,
2,
4,
4,
8,
21,
21,
21,
13,
1,
5,
5,
8,
8,
7,
7,
5,
5,
2,
2,
0,
0,
7,
7,
-1,
-1,
0,
0,
0,
0,
0,
0,
5,
5,
2,
2,
0,
0,
2,
2,
8,
8,
15,
15,
12,
12,
7,
7,
1,
1,
7,
7,
4,
4,
0,
0,
6,
6,
3,
3,
2,
2,
6,
6,
8,
8,
11,
11,
5,
5,
4,
4,
0,
0,
3,
3,
12,
12,
14,
14,
12,
12,
8,
8,
4,
4,
-1,
-1,
5,
5,
11,
0,
1,
1,
9,
9,
9,
9,
10,
10,
2,
14,
14,
14,
8,
8,
2,
2,
7,
7,
6,
6,
0,
0,
5,
5,
11,
11,
7,
7,
-1,
-1,
2,
2,
2,
2,
1,
1,
2,
2,
4,
4,
8,
8,
8,
8,
2,
13,
12,
12,
11,
11,
4,
4,
2,
2,
3,
16,
16,
16,
14,
1,
5,
20,
19,
19,
17,
17,
11,
11,
7,
7,
13,
13,
10,
10,
2,
2,
7,
30,
29,
40,
40,
40,
34,
13,
13,
2,
6,
6,
9,
9,
10,
10,
14,
14,
13,
13,
12,
12,
11,
11,
9,
9,
1,
1,
2,
2,
0,
0,
5,
5,
8,
8,
6,
6,
15,
15,
20,
20,
16,
5,
6,
6,
4,
4,
8,
8,
0,
12,
10,
10,
8,
8,
4,
4,
10,
10,
10,
10,
8,
8,
11,
11,
11,
11,
5,
5,
-1,
-1,
5,
5,
0,
0,
10,
21,
19,
19,
16,
16,
10,
10,
13,
2,
3,
3,
5,
5,
6,
6,
4,
4,
4,
4,
7,
7,
6,
6,
4,
4,
1,
1,
10,
10,
14,
1,
2,
14,
13,
13,
18,
18,
19,
19,
14,
2,
13,
38,
37,
37,
43,
22,
22,
0,
1,
1,
3,
3,
6,
6,
10,
10,
1,
16,
15,
29,
28,
28,
26,
26,
19,
19,
12,
-1,
0,
0,
4,
4,
9,
9,
16,
16,
19,
19,
11,
11,
3,
3,
0,
0,
-1,
-1,
2,
2,
5,
5,
1,
1,
-1,
-1,
0,
0,
0,
0,
2,
2,
2,
2,
7,
7,
3,
3,
2,
2,
0,
0,
1,
1,
0,
0,
3,
3,
10,
10,
4,
4,
3,
3,
8,
8,
5,
5,
-2,
-2,
0,
0,
0,
0,
2,
2,
2,
2,
7,
7,
5,
5,
6,
6,
7,
7,
1,
1,
-1,
-1,
0,
0,
4,
4,
2,
2,
2,
2,
1,
1,
8,
8,
2,
2,
11,
11,
10,
10,
2,
2,
7,
7,
10,
25,
24,
24,
25,
25,
27,
27,
29,
29,
20,
2,
3,
20,
19,
31,
30,
30,
34,
34,
33,
33,
27,
27,
19,
19,
10,
10,
4,
4,
6,
20,
20,
32,
31,
31,
30,
30,
23,
11,
13,
13,
4,
4,
5,
5,
7,
7,
0,
0,
5,
5,
7,
7,
1,
1,
-1,
-1,
0,
0,
0,
0,
0,
0,
0,
0,
7,
7,
11,
11,
9,
9,
9,
9,
9,
9,
3,
3,
2,
14,
14,
14,
22,
11,
12,
0,
2,
2,
0,
0,
0,
0,
6,
6,
15,
4,
5,
5,
2,
2,
5,
5,
9,
9,
1,
1,
8,
8,
9,
9,
6,
6,
4,
4,
2,
2,
5,
5,
11,
11,
12,
12,
12,
12,
16,
5,
6,
6,
14,
14,
15,
15,
12,
12,
10,
10,
3,
3,
2,
2,
6,
20,
19,
8,
8,
8,
11,
11,
19,
19,
23,
4,
4,
36,
36,
48,
47,
22,
23,
3,
9,
22,
22,
22,
22,
22,
28,
28,
26,
13,
13,
0,
1,
1,
6,
18,
16,
16,
13,
13,
5,
5,
0,
0,
2,
2,
1,
1,
-1,
-1,
5,
5,
15,
15,
19,
19,
27,
27,
28,
14,
16,
4,
22,
22,
21,
21,
28,
12,
12,
12,
4,
4,
2,
2,
2,
2,
4,
4,
2,
2,
0,
0,
0,
0,
0,
0,
0,
0,
0,
0,
-1,
-1,
7,
7,
8,
22,
21,
21,
21,
3,
3,
14,
14,
14,
18,
6,
7,
7,
14,
14,
19,
19,
13,
13,
5,
5,
-1,
-1,
6,
20,
19,
19,
18,
2,
4,
19,
18,
18,
15,
3,
5,
5,
2,
2,
5,
16,
15,
15,
14,
14,
14,
1,
3,
3,
9,
9,
9,
9,
15,
15,
18,
7,
8,
8,
4,
4,
3,
3,
-1,
-1,
6,
6,
2,
2,
5,
5,
8,
8,
1,
1,
3,
3,
2,
2,
3,
3,
6,
6,
7,
7,
4,
4,
-1,
-1,
0,
0,
-1,
-1,
2,
2,
3,
14,
14,
14,
20,
4,
5,
5,
4,
4,
12,
12,
18,
2,
3,
3,
1,
1,
9,
9,
12,
-1,
0,
14,
13,
30,
29,
29,
27,
14,
15,
0,
0,
14,
13,
13,
10,
10,
1,
14,
14,
14,
11,
0,
1,
1,
9,
9,
16,
16,
20,
20,
13,
13,
7,
7,
5,
5,
11,
11,
4,
4,
-1,
-1,
3,
3,
2,
15,
14,
14,
16,
16,
7,
7,
3,
3,
8,
8,
15,
15,
16,
16,
6,
6,
4,
16,
15,
15,
9,
9,
7,
7,
12,
12,
15,
15,
15,
2,
2,
2,
8,
8,
9,
9,
8,
8,
1,
1,
0,
11,
10,
10,
18,
18,
14,
14,
8,
8,
0,
0,
6,
6,
9,
9,
15,
15,
9,
9,
4,
4,
10,
10,
15,
0,
1,
1,
0,
0,
3,
3,
3,
3,
4,
4,
6,
6,
0,
0,
4,
4,
0,
0,
5,
5,
2,
2,
1,
1,
-1,
-1,
3,
3,
10,
10,
8,
25,
24,
24,
16,
5,
6,
6,
3,
3,
7,
7,
7,
7,
8,
8,
10,
10,
13,
2,
3,
22,
21,
32,
30,
8,
8,
8,
9,
9,
15,
15,
12,
0,
1,
1,
9,
9,
8,
8,
5,
5,
6,
6,
3,
3,
1,
1,
1,
1,
6,
6,
3,
3,
7,
7,
5,
5,
6,
6,
12,
12,
10,
10,
2,
14,
13,
32,
32,
32,
33,
18,
19,
1,
2,
2,
5,
5,
0,
0,
8,
8,
10,
-1,
0,
0,
2,
2,
1,
1,
8,
8,
7,
7,
-1,
-1,
3,
3,
6,
6,
5,
5,
6,
6,
1,
1,
8,
8,
13,
13,
8,
8,
5,
5,
6,
6,
10,
10,
7,
7,
3,
3,
8,
8,
7,
7,
3,
20,
19,
19,
19,
0,
1,
1,
8,
8,
2,
2,
7,
7,
1,
13,
12,
12,
9,
9,
6,
6,
12,
0,
2,
15,
15,
15,
15,
15,
11,
11,
9,
9,
4,
4,
-1,
-1,
3,
3,
7,
7,
7,
7,
10,
10,
7,
7,
0,
0,
3,
3,
3,
3,
6,
6,
5,
5,
7,
7,
7,
7,
5,
5,
6,
6,
6,
6,
2,
2,
2,
2,
8,
8,
12,
12,
18,
18,
9,
9,
2,
18,
17,
17,
26,
26,
22,
22,
13,
13,
4,
4,
6,
6,
6,
6,
11,
11,
2,
2,
1,
1,
4,
4,
7,
7,
8,
8,
11,
11,
2,
2,
5,
5,
0,
0,
0,
0,
1,
1,
0,
0,
0,
0,
0,
0,
2,
2,
6,
6,
5,
5,
5,
5,
11,
11,
14,
14,
6,
6,
2,
2,
0,
0,
2,
2,
3,
3,
8,
8,
5,
5,
8,
8,
17,
17,
11,
11,
3,
3,
0,
14,
12,
12,
11,
11,
7,
7,
6,
6,
11,
11,
12,
12,
4,
4,
1,
1,
0,
0,
5,
17,
16,
16,
25,
25,
19,
2,
3,
17,
16,
16,
19,
19,
19,
19,
18,
18,
14,
0,
3,
3,
8,
8,
7,
7,
1,
1,
0,
0,
9,
24,
24,
24,
17,
2,
4,
4,
0,
0,
0,
0,
3,
3,
7,
7,
11,
11,
11,
11,
2,
2,
9,
9,
17,
17,
18,
18,
10,
10,
5,
5,
6,
6,
10,
10,
7,
7,
3,
20,
19,
19,
12,
0,
0,
0,
1,
1,
2,
2,
7,
7,
11,
11,
8,
8,
4,
4,
1,
1,
3,
3,
2,
2,
2,
2,
0,
0,
0,
0,
2,
2,
1,
1,
6,
6,
7,
7,
8,
8,
10,
10,
14,
14,
9,
9,
4,
4,
4,
4,
-1,
-1,
7,
7,
11,
11,
6,
6,
11,
11,
11,
0,
3,
3,
10,
10,
5,
5,
0,
0,
3,
3,
0,
0,
1,
1,
2,
15,
14,
14,
12,
12,
3,
3,
3,
3,
6,
6,
6,
6,
11,
11,
4,
4,
2,
2,
2,
2,
0,
0,
6,
6,
8,
8,
3,
3,
0,
0,
-1,
14,
13,
13,
10,
10,
1,
1,
3,
3,
2,
2,
3,
3,
11,
11,
3,
3,
2,
2,
11,
11,
18,
18,
21,
21,
14,
14,
8,
8,
9,
29,
28,
28,
22,
7,
8,
8,
2,
2,
6,
6,
4,
4,
3,
3,
2,
2,
0,
0,
0,
0,
8,
8,
4,
4,
7,
7,
9,
9,
5,
18,
18,
2,
2,
2,
0,
0,
7,
7,
16,
16,
12,
12,
6,
6,
1,
1,
10,
10,
19,
19,
12,
0,
0,
0,
0,
0,
0,
0,
3,
3,
3,
3,
0,
0,
-1,
-1,
0,
0,
4,
4,
13,
13,
14,
14,
6,
6,
1,
1,
0,
0,
2,
2,
3,
3,
5,
5,
8,
8,
16,
5,
6,
6,
1,
1,
0,
0,
0,
0,
10,
10,
7,
7,
2,
2,
5,
5,
14,
14,
8,
8,
15,
15,
18,
0,
1,
1,
11,
11,
16,
16,
20,
20,
15,
15,
11,
11,
3,
3,
7,
7,
5,
5,
5,
22,
22,
44,
43,
43,
38,
17,
18,
3,
5,
5,
4,
18,
18,
18,
21,
21,
20,
20,
16,
16,
7,
7,
4,
4,
1,
1,
0,
0,
5,
5,
9,
9,
14,
14,
8,
8,
1,
1,
0,
0,
9,
9,
7,
7,
2,
2,
8,
8,
2,
2,
11,
11,
8,
8,
8,
8,
2,
18,
18,
18,
16,
16,
7,
7,
2,
2,
2,
2,
2,
2,
7,
7,
11,
11,
7,
7,
3,
3,
7,
7,
6,
6,
4,
4,
2,
2,
5,
5,
8,
8,
10,
10,
8,
8,
0,
0,
9,
9,
12,
12,
13,
0,
2,
2,
0,
0,
10,
10,
7,
7,
1,
1,
6,
6,
5,
5,
0,
0,
4,
4,
2,
2,
0,
0,
1,
1,
7,
7,
11,
11,
5,
5,
2,
2,
9,
9,
15,
15,
11,
-1,
1,
1,
9,
9,
10,
10,
8,
8,
3,
3,
1,
1,
11,
11,
7,
7,
6,
6,
10,
10,
7,
7,
2,
2,
2,
2,
1,
1,
-1,
-1,
0,
0,
2,
2,
7,
7,
4,
4,
2,
2,
8,
8,
1,
1,
11,
11,
11,
11,
13,
13,
14,
14,
8,
8,
15,
15,
14,
2,
13,
24,
22,
6,
6,
6,
7,
7,
10,
10,
1,
1,
4,
4,
12,
12,
18,
18,
9,
9,
4,
4,
2,
2,
3,
3,
-1,
-1,
3,
3,
2,
2,
1,
1,
1,
1,
0,
0,
-1,
-1,
2,
18,
18,
18,
26,
13,
14,
-1,
0,
0,
-1,
13,
12,
12,
12,
0,
0,
0,
2,
2,
-1,
-1,
2,
2,
0,
0,
6,
6,
14,
14,
17,
17,
18,
7,
7,
7,
4,
4,
1,
1,
0,
0,
0,
0,
2,
2,
5,
18,
18,
18,
19,
4,
5,
5,
1,
1,
0,
0,
4,
4,
10,
10,
10,
10,
2,
2,
4,
4,
12,
12,
10,
-1,
0,
14,
13,
13,
15,
15,
14,
14,
7,
7,
3,
3,
10,
10,
9,
9,
9,
9,
13,
13,
18,
18,
12,
0,
6,
19,
18,
18,
14,
14,
5,
5,
10,
10,
17,
17,
10,
10,
4,
4,
2,
2,
3,
16,
16,
16,
13,
13,
6,
6,
2,
2,
5,
5,
13,
0,
0,
0,
9,
9,
12,
0,
1,
1,
10,
10,
12,
12,
11,
11,
13,
13,
21,
21,
16,
0,
2,
2,
4,
4,
12,
12,
20,
20,
22,
22,
18,
18,
12,
1,
2,
2,
12,
12,
13,
13,
7,
7,
8,
8,
6,
6,
7,
7,
7,
7,
2,
2,
0,
0,
2,
2,
2,
2,
2,
2,
2,
2,
-1,
-1,
0,
0,
0,
0,
2,
2,
-1,
-1,
3,
3,
11,
11,
7,
7,
2,
18,
17,
17,
14,
14,
11,
11,
5,
5,
0,
0,
4,
4,
4,
4,
3,
3,
6,
6,
2,
2,
1,
1,
-1,
-1,
4,
4,
6,
6,
3,
3,
2,
2,
5,
5,
6,
6,
5,
5,
3,
3,
6,
6,
7,
7,
8,
8,
7,
7,
3,
3,
7,
7,
3,
3,
4,
4,
5,
5,
11,
11,
9,
9,
0,
0,
4,
4,
6,
6,
0,
0,
5,
5,
4,
4,
0,
0,
5,
5,
11,
11,
12,
12,
8,
8,
2,
2,
9,
20,
18,
18,
24,
24,
31,
31,
28,
3,
4,
21,
20,
20,
18,
18,
12,
12,
13,
13,
8,
8,
2,
2,
10,
10,
11,
-1,
1,
12,
12,
12,
10,
10,
5,
5,
4,
4,
3,
3,
6,
6,
3,
3,
1,
1,
1,
1,
7,
7,
12,
0,
0,
0,
0,
0,
5,
5,
3,
3,
2,
2,
0,
0,
1,
1,
1,
1,
8,
8,
1,
1,
7,
7,
6,
6,
0,
0,
5,
5,
8,
8,
3,
3,
0,
0,
0,
0,
-1,
-1,
0,
0,
1,
1,
-1,
-1,
1,
1,
2,
2,
6,
6,
2,
2,
1,
1,
2,
2,
0,
0,
4,
4,
14,
14,
21,
21,
16,
3,
3,
3,
13,
2,
2,
2,
2,
2,
4,
4,
1,
1,
8,
8,
14,
14,
22,
11,
11,
11,
6,
6,
9,
9,
9,
9,
4,
4,
6,
6,
12,
12,
8,
8,
7,
7,
3,
3,
6,
6,
7,
7,
8,
8,
2,
18,
17,
6,
6,
6,
10,
10,
14,
14,
11,
11,
10,
26,
25,
25,
17,
1,
1,
1,
6,
6,
14,
14,
12,
12,
7,
7,
0,
0,
0,
0,
7,
7,
12,
12,
14,
14,
12,
0,
2,
2,
6,
6,
1,
1,
1,
1,
0,
0,
4,
4,
3,
3,
0,
0,
3,
3,
0,
0,
0,
0,
0,
0,
7,
7,
5,
5,
3,
3,
6,
6,
0,
0,
1,
1,
3,
3,
5,
18,
16,
16,
14,
0,
0,
0,
7,
7,
7,
7,
4,
18,
17,
17,
12,
0,
2,
2,
11,
22,
21,
21,
15,
15,
7,
7,
10,
21,
21,
21,
12,
12,
8,
22,
21,
21,
25,
13,
13,
13,
5,
5,
12,
12,
13,
1,
4,
4,
6,
6,
1,
1,
6,
6,
0,
0,
2,
2,
9,
9,
8,
8,
6,
6,
2,
2,
3,
3,
8,
22,
22,
22,
22,
11,
12,
0,
4,
4,
11,
11,
10,
10,
11,
11,
14,
14,
17,
2,
6,
24,
23,
23,
32,
32,
29,
12,
13,
0,
