EMG_S3/DS0057.CSV

Memory Length,4000,
Trigger Level,-4.80000e+02,
Source,CH1,
Probe,1.0X,
Vertical Units,V,
Vertical Scale,1.00000e+00,
Vertical Position,0.00000e+00,
Horizontal Units,S,
Horizontal Scale,1.00000e-01,
Horizontal Position,0.0000000e+00,
Horizontal Mode,Roll Mode,
Waveform Last Dot Address,4000,
Sampling Period,4.00000e-04,
Firmware,V1.14,
Time, ,
Mode,Fast,
Waveform Data,
7,
7,
24,
4,
5,
41,
40,
28,
28,
3,
4,
4,
2,
2,
9,
9,
9,
9,
4,
4,
9,
20,
20,
20,
21,
21,
20,
2,
3,
15,
14,
14,
15,
15,
10,
10,
9,
9,
0,
0,
1,
1,
3,
3,
2,
2,
3,
3,
1,
1,
4,
4,
2,
2,
2,
2,
11,
11,
9,
9,
1,
1,
0,
0,
10,
10,
12,
1,
2,
18,
18,
18,
21,
3,
3,
3,
2,
2,
7,
7,
5,
5,
2,
2,
8,
8,
10,
10,
10,
10,
2,
2,
5,
5,
2,
2,
6,
6,
1,
1,
-1,
-1,
4,
4,
3,
3,
-1,
-1,
8,
8,
15,
2,
4,
4,
3,
3,
4,
4,
1,
1,
3,
3,
1,
1,
6,
6,
4,
4,
2,
2,
7,
7,
6,
6,
3,
3,
12,
1,
2,
17,
17,
17,
24,
12,
13,
0,
2,
2,
10,
10,
7,
7,
3,
3,
5,
5,
14,
14,
16,
16,
10,
10,
3,
3,
-1,
-1,
9,
9,
18,
2,
6,
29,
29,
29,
35,
35,
32,
32,
32,
15,
16,
2,
9,
9,
16,
16,
17,
17,
15,
15,
13,
13,
13,
13,
13,
13,
10,
10,
5,
5,
3,
3,
2,
2,
7,
19,
18,
18,
27,
27,
18,
6,
6,
6,
-1,
-1,
6,
6,
10,
10,
4,
4,
0,
0,
-1,
-1,
3,
3,
1,
1,
4,
4,
2,
2,
-1,
-1,
4,
4,
2,
21,
20,
6,
7,
7,
7,
7,
11,
11,
11,
11,
8,
8,
6,
6,
3,
3,
1,
14,
14,
14,
18,
3,
4,
4,
4,
4,
12,
1,
6,
6,
6,
6,
10,
10,
5,
16,
15,
15,
14,
14,
11,
11,
2,
2,
12,
25,
25,
25,
22,
7,
9,
9,
5,
16,
16,
16,
9,
9,
6,
6,
7,
7,
1,
1,
10,
10,
8,
8,
6,
6,
4,
4,
5,
5,
2,
2,
2,
2,
6,
6,
6,
6,
1,
1,
11,
11,
9,
9,
2,
2,
0,
0,
6,
6,
7,
7,
0,
0,
-1,
-1,
2,
2,
6,
6,
1,
1,
-1,
-1,
4,
4,
8,
8,
0,
19,
18,
34,
30,
6,
6,
6,
14,
14,
6,
6,
9,
9,
15,
15,
23,
23,
22,
22,
12,
1,
2,
2,
9,
9,
15,
15,
11,
11,
3,
3,
5,
5,
3,
3,
4,
4,
4,
4,
1,
1,
1,
1,
0,
0,
6,
6,
12,
12,
10,
10,
9,
9,
6,
6,
2,
2,
1,
12,
12,
12,
16,
16,
18,
18,
11,
11,
14,
31,
30,
19,
19,
6,
7,
7,
1,
1,
9,
9,
14,
14,
13,
1,
4,
4,
11,
11,
6,
6,
2,
2,
8,
8,
3,
3,
2,
2,
2,
2,
0,
0,
2,
2,
6,
6,
1,
1,
2,
2,
0,
0,
2,
2,
4,
4,
6,
6,
5,
5,
14,
14,
14,
14,
10,
10,
12,
12,
4,
4,
4,
4,
7,
7,
2,
2,
6,
6,
6,
6,
0,
0,
5,
5,
4,
4,
0,
0,
3,
3,
4,
4,
3,
3,
3,
3,
6,
6,
5,
5,
0,
0,
-1,
-1,
4,
15,
14,
14,
12,
12,
9,
9,
6,
6,
1,
1,
1,
1,
5,
5,
10,
10,
8,
8,
4,
4,
6,
6,
0,
0,
2,
2,
8,
8,
13,
13,
10,
10,
0,
0,
5,
5,
9,
9,
11,
11,
11,
11,
8,
8,
2,
2,
2,
2,
0,
0,
0,
0,
2,
2,
-1,
-1,
1,
1,
1,
1,
-1,
-1,
1,
1,
-2,
-2,
-1,
-1,
0,
0,
3,
3,
5,
5,
3,
3,
6,
6,
10,
10,
14,
14,
18,
18,
14,
14,
5,
5,
14,
14,
22,
22,
17,
17,
10,
10,
9,
9,
16,
16,
20,
20,
17,
5,
5,
5,
9,
26,
26,
26,
22,
22,
25,
25,
20,
1,
3,
18,
17,
17,
17,
3,
11,
38,
37,
20,
20,
5,
13,
25,
24,
24,
22,
22,
14,
14,
8,
8,
4,
4,
6,
6,
3,
3,
3,
3,
2,
31,
30,
30,
34,
4,
5,
5,
13,
1,
1,
1,
9,
9,
2,
2,
11,
11,
8,
8,
15,
15,
12,
1,
5,
5,
5,
5,
1,
1,
-1,
-1,
1,
1,
0,
0,
8,
19,
18,
18,
16,
1,
2,
20,
19,
19,
26,
5,
5,
5,
8,
8,
4,
4,
8,
8,
6,
6,
0,
0,
3,
3,
6,
6,
9,
9,
9,
9,
7,
7,
7,
7,
6,
6,
1,
12,
12,
12,
18,
18,
14,
14,
9,
9,
5,
5,
5,
5,
2,
2,
6,
6,
2,
2,
3,
3,
2,
2,
1,
12,
12,
12,
16,
16,
13,
13,
7,
7,
6,
6,
8,
8,
1,
1,
3,
3,
7,
26,
24,
9,
9,
9,
2,
2,
1,
1,
8,
8,
5,
5,
10,
10,
14,
14,
10,
10,
8,
8,
4,
18,
17,
17,
20,
5,
5,
5,
1,
1,
5,
5,
6,
6,
8,
8,
6,
6,
6,
6,
3,
3,
8,
24,
23,
23,
16,
16,
15,
15,
21,
9,
9,
9,
5,
5,
9,
9,
16,
16,
20,
8,
9,
9,
0,
0,
5,
5,
5,
5,
4,
4,
7,
7,
2,
2,
3,
3,
2,
2,
2,
2,
1,
1,
0,
0,
3,
3,
0,
0,
6,
6,
1,
1,
4,
4,
3,
3,
3,
3,
3,
3,
2,
2,
4,
4,
1,
1,
1,
1,
8,
8,
7,
7,
14,
14,
13,
0,
1,
1,
8,
8,
8,
8,
8,
8,
6,
6,
4,
4,
10,
10,
10,
10,
4,
4,
2,
2,
3,
3,
8,
8,
16,
16,
18,
1,
2,
2,
11,
11,
16,
16,
13,
1,
6,
6,
9,
9,
1,
1,
2,
2,
2,
2,
2,
2,
2,
2,
0,
0,
-1,
-1,
1,
1,
1,
13,
13,
13,
19,
2,
3,
17,
16,
16,
16,
16,
16,
16,
6,
6,
6,
6,
11,
11,
6,
19,
18,
3,
3,
3,
6,
6,
11,
11,
9,
9,
12,
12,
9,
9,
2,
2,
-1,
-1,
1,
1,
3,
3,
3,
3,
5,
5,
4,
4,
2,
2,
5,
5,
3,
3,
9,
9,
5,
5,
1,
1,
2,
19,
18,
18,
25,
7,
8,
8,
10,
10,
8,
8,
7,
7,
10,
10,
13,
1,
2,
2,
4,
4,
9,
9,
2,
28,
28,
40,
38,
21,
22,
2,
5,
16,
15,
15,
22,
22,
20,
20,
14,
14,
10,
10,
2,
2,
6,
17,
16,
16,
21,
9,
9,
-2,
-1,
-1,
0,
0,
3,
3,
6,
6,
3,
3,
2,
2,
2,
2,
3,
3,
5,
5,
2,
2,
3,
3,
3,
3,
6,
6,
5,
5,
0,
0,
2,
2,
0,
0,
6,
6,
7,
7,
4,
4,
9,
9,
7,
7,
0,
0,
1,
1,
2,
2,
6,
6,
6,
6,
6,
6,
2,
2,
-1,
-1,
4,
4,
6,
6,
2,
2,
1,
1,
3,
14,
14,
26,
25,
25,
18,
18,
9,
9,
2,
15,
15,
15,
6,
6,
-1,
-1,
8,
8,
13,
13,
15,
15,
7,
7,
3,
3,
0,
0,
1,
1,
2,
2,
-1,
-1,
4,
4,
6,
6,
3,
17,
17,
17,
23,
23,
18,
3,
3,
3,
6,
6,
4,
20,
20,
20,
24,
9,
9,
9,
1,
1,
1,
1,
9,
20,
20,
20,
24,
24,
21,
21,
28,
5,
6,
26,
25,
10,
11,
11,
5,
5,
6,
6,
1,
1,
8,
8,
16,
16,
17,
17,
10,
10,
1,
1,
8,
8,
10,
10,
6,
6,
2,
2,
6,
6,
5,
5,
2,
2,
2,
2,
1,
13,
12,
12,
11,
11,
1,
1,
1,
1,
6,
6,
8,
8,
6,
6,
4,
4,
5,
5,
4,
4,
0,
0,
1,
1,
2,
2,
1,
1,
5,
5,
0,
0,
7,
7,
14,
14,
8,
8,
2,
2,
1,
1,
-2,
-2,
3,
3,
3,
3,
-1,
-1,
4,
4,
8,
8,
2,
2,
2,
2,
5,
5,
6,
6,
3,
3,
3,
3,
0,
0,
-1,
-1,
0,
0,
0,
0,
2,
2,
2,
2,
0,
0,
4,
4,
4,
4,
4,
4,
1,
1,
2,
2,
6,
6,
4,
4,
1,
1,
1,
1,
2,
2,
-1,
-1,
0,
0,
2,
2,
2,
2,
3,
3,
6,
6,
3,
3,
2,
2,
5,
5,
-1,
-1,
2,
2,
2,
2,
1,
1,
0,
0,
2,
2,
5,
5,
2,
2,
4,
4,
5,
5,
4,
4,
6,
6,
1,
1,
6,
6,
12,
12,
12,
12,
9,
9,
2,
2,
5,
5,
3,
3,
4,
4,
2,
2,
0,
0,
2,
2,
5,
5,
2,
2,
3,
3,
7,
7,
2,
2,
6,
6,
2,
2,
1,
1,
0,
0,
1,
1,
5,
5,
5,
5,
1,
1,
5,
5,
6,
6,
3,
17,
17,
17,
12,
0,
2,
2,
6,
6,
1,
1,
5,
5,
12,
12,
4,
23,
22,
22,
14,
2,
6,
20,
19,
8,
8,
8,
0,
0,
4,
4,
1,
1,
0,
0,
6,
6,
6,
6,
9,
9,
7,
7,
6,
6,
0,
0,
8,
8,
8,
8,
1,
1,
9,
9,
14,
14,
6,
6,
3,
3,
12,
12,
8,
8,
2,
2,
5,
5,
3,
3,
0,
0,
1,
1,
4,
4,
6,
6,
3,
3,
0,
0,
-1,
-1,
-1,
-1,
1,
1,
2,
2,
5,
5,
6,
6,
1,
1,
0,
0,
0,
0,
2,
2,
3,
3,
0,
0,
2,
19,
18,
18,
17,
6,
7,
7,
7,
7,
9,
9,
18,
18,
17,
17,
11,
11,
7,
7,
4,
4,
1,
1,
1,
1,
-1,
-1,
1,
1,
1,
1,
2,
2,
3,
22,
22,
22,
23,
11,
11,
11,
18,
18,
19,
6,
6,
6,
2,
2,
5,
21,
21,
33,
33,
33,
29,
10,
10,
10,
1,
1,
8,
8,
2,
2,
2,
2,
3,
3,
7,
7,
7,
7,
10,
10,
11,
11,
18,
7,
7,
7,
6,
6,
2,
17,
15,
15,
6,
6,
7,
7,
4,
4,
6,
6,
6,
6,
6,
6,
5,
5,
3,
14,
13,
13,
9,
9,
4,
4,
0,
0,
4,
4,
2,
2,
-1,
-1,
1,
1,
1,
1,
2,
2,
5,
5,
3,
3,
5,
5,
2,
2,
1,
1,
1,
1,
1,
1,
0,
0,
0,
0,
7,
7,
6,
6,
4,
4,
2,
2,
0,
0,
5,
5,
14,
14,
19,
19,
15,
15,
6,
6,
4,
4,
1,
1,
3,
23,
22,
41,
39,
18,
18,
1,
2,
2,
8,
8,
11,
11,
12,
12,
11,
11,
6,
6,
2,
2,
1,
1,
2,
2,
0,
0,
1,
1,
0,
0,
1,
1,
5,
5,
4,
4,
2,
2,
8,
8,
13,
13,
11,
11,
2,
2,
4,
4,
6,
6,
6,
6,
14,
26,
25,
6,
7,
30,
30,
30,
24,
1,
3,
3,
0,
11,
10,
10,
14,
1,
2,
2,
11,
11,
10,
10,
2,
2,
0,
0,
5,
5,
4,
4,
2,
2,
5,
5,
6,
6,
10,
10,
12,
12,
5,
5,
0,
0,
6,
6,
8,
8,
6,
6,
4,
4,
7,
22,
21,
21,
17,
6,
7,
7,
1,
1,
4,
4,
0,
0,
0,
0,
1,
1,
9,
9,
6,
6,
9,
9,
14,
0,
2,
2,
1,
1,
3,
3,
8,
8,
12,
12,
12,
12,
5,
5,
0,
0,
0,
0,
1,
1,
-1,
-1,
0,
0,
5,
5,
6,
6,
5,
5,
8,
8,
12,
12,
6,
6,
1,
1,
3,
3,
0,
0,
1,
1,
5,
5,
6,
6,
2,
2,
4,
16,
15,
15,
11,
11,
2,
15,
14,
14,
10,
10,
5,
5,
6,
6,
1,
1,
5,
5,
3,
3,
5,
5,
7,
7,
1,
1,
10,
10,
13,
13,
10,
10,
8,
8,
10,
10,
10,
10,
5,
5,
8,
8,
14,
14,
13,
13,
7,
7,
2,
2,
3,
3,
6,
6,
1,
1,
0,
0,
-1,
-1,
2,
2,
7,
7,
14,
14,
11,
11,
4,
4,
0,
0,
5,
5,
6,
6,
2,
2,
0,
0,
6,
6,
4,
4,
12,
12,
10,
10,
6,
6,
2,
2,
9,
9,
9,
9,
8,
8,
12,
12,
10,
10,
1,
15,
15,
15,
18,
2,
5,
5,
2,
2,
8,
8,
15,
15,
15,
15,
8,
8,
2,
2,
2,
14,
14,
31,
30,
30,
32,
6,
6,
6,
1,
1,
4,
4,
5,
5,
2,
2,
2,
2,
6,
6,
14,
14,
16,
16,
13,
13,
10,
10,
6,
6,
2,
2,
2,
2,
7,
7,
3,
3,
0,
0,
0,
14,
13,
13,
12,
0,
2,
2,
2,
2,
4,
4,
2,
2,
3,
3,
11,
11,
16,
16,
20,
5,
5,
5,
7,
7,
17,
17,
17,
17,
9,
9,
5,
5,
1,
1,
-1,
-1,
0,
0,
2,
2,
2,
2,
2,
2,
2,
2,
0,
0,
4,
4,
10,
10,
2,
2,
10,
10,
1,
1,
9,
21,
20,
20,
25,
25,
20,
20,
20,
5,
6,
20,
19,
30,
29,
14,
14,
14,
6,
6,
15,
15,
15,
15,
8,
8,
2,
2,
0,
0,
1,
1,
0,
0,
7,
7,
14,
14,
6,
6,
7,
24,
24,
24,
16,
0,
0,
0,
2,
2,
8,
8,
8,
31,
31,
14,
14,
14,
20,
20,
20,
20,
11,
11,
3,
3,
9,
9,
3,
3,
2,
2,
6,
6,
9,
9,
10,
10,
9,
9,
6,
6,
2,
2,
0,
0,
0,
0,
5,
5,
7,
7,
6,
6,
2,
2,
10,
10,
18,
18,
18,
18,
13,
1,
2,
2,
6,
6,
10,
10,
5,
5,
2,
2,
5,
5,
8,
8,
10,
10,
3,
3,
3,
3,
3,
3,
6,
18,
17,
17,
14,
1,
3,
3,
5,
5,
0,
0,
2,
2,
5,
5,
4,
4,
1,
1,
4,
4,
2,
2,
2,
20,
20,
20,
26,
12,
13,
2,
13,
13,
17,
4,
4,
4,
2,
2,
5,
5,
5,
5,
2,
2,
1,
1,
4,
4,
5,
5,
1,
14,
13,
13,
6,
6,
0,
0,
3,
3,
5,
5,
1,
1,
7,
7,
8,
8,
0,
0,
1,
1,
3,
3,
6,
6,
1,
1,
3,
3,
1,
1,
2,
16,
16,
16,
16,
1,
3,
3,
10,
10,
14,
14,
10,
10,
8,
8,
5,
5,
2,
2,
2,
2,
0,
0,
4,
4,
1,
1,
2,
2,
2,
2,
4,
4,
3,
3,
-1,
-1,
2,
2,
-1,
-1,
0,
0,
4,
4,
7,
7,
6,
6,
7,
7,
7,
7,
1,
1,
2,
2,
0,
0,
1,
1,
3,
3,
8,
8,
9,
9,
8,
8,
9,
9,
14,
3,
4,
17,
17,
1,
2,
2,
2,
28,
28,
28,
23,
1,
2,
2,
1,
1,
6,
6,
8,
8,
1,
19,
18,
18,
13,
13,
13,
13,
22,
22,
17,
17,
8,
8,
4,
4,
6,
6,
4,
4,
4,
4,
12,
12,
11,
11,
14,
14,
16,
16,
12,
12,
10,
10,
4,
4,
3,
3,
9,
9,
9,
9,
14,
14,
14,
14,
5,
5,
2,
2,
12,
12,
9,
9,
2,
2,
1,
1,
4,
4,
10,
10,
13,
1,
1,
1,
11,
11,
17,
17,
15,
15,
12,
12,
4,
4,
0,
0,
4,
4,
4,
4,
8,
8,
12,
12,
10,
10,
5,
5,
0,
0,
0,
0,
4,
4,
8,
8,
7,
7,
0,
0,
2,
2,
1,
1,
2,
2,
1,
1,
5,
5,
12,
12,
12,
12,
6,
6,
5,
5,
10,
10,
4,
4,
1,
1,
3,
3,
6,
6,
4,
4,
0,
0,
1,
1,
6,
6,
7,
7,
2,
2,
4,
4,
0,
0,
0,
0,
2,
2,
2,
2,
3,
16,
15,
15,
14,
3,
5,
5,
6,
6,
9,
9,
6,
6,
0,
0,
1,
1,
2,
2,
-1,
-1,
0,
0,
2,
2,
1,
1,
9,
9,
9,
9,
1,
1,
7,
7,
9,
9,
3,
3,
0,
0,
2,
2,
4,
4,
1,
1,
6,
6,
5,
5,
5,
5,
1,
1,
3,
3,
13,
13,
7,
7,
8,
8,
14,
14,
18,
18,
10,
10,
1,
1,
6,
6,
9,
9,
2,
2,
12,
12,
12,
12,
10,
10,
6,
6,
-1,
-1,
0,
0,
4,
4,
2,
2,
6,
6,
4,
4,
4,
4,
12,
12,
8,
8,
14,
34,
33,
22,
23,
6,
6,
6,
0,
0,
5,
5,
8,
8,
8,
8,
10,
10,
6,
6,
5,
5,
6,
6,
0,
0,
5,
5,
7,
7,
5,
5,
10,
10,
18,
18,
14,
14,
12,
12,
11,
11,
1,
1,
5,
5,
6,
6,
14,
14,
18,
18,
12,
12,
6,
6,
1,
1,
5,
5,
8,
8,
11,
0,
2,
2,
5,
5,
5,
5,
2,
2,
1,
1,
-1,
-1,
-1,
-1,
0,
0,
-1,
-1,
4,
4,
4,
4,
4,
4,
1,
1,
10,
10,
16,
16,
14,
1,
2,
2,
5,
5,
7,
7,
1,
1,
0,
0,
4,
4,
6,
6,
7,
7,
2,
2,
6,
6,
7,
7,
0,
0,
2,
2,
6,
6,
6,
6,
1,
1,
2,
2,
5,
5,
5,
5,
4,
4,
1,
1,
2,
2,
2,
2,
1,
1,
-1,
-1,
1,
1,
6,
6,
6,
6,
0,
0,
3,
3,
0,
0,
10,
21,
20,
7,
7,
7,
10,
21,
21,
21,
20,
20,
19,
19,
19,
19,
13,
13,
6,
6,
2,
2,
9,
9,
12,
12,
9,
9,
9,
9,
6,
6,
4,
4,
3,
3,
7,
7,
9,
9,
5,
5,
2,
2,
3,
3,
2,
2,
1,
1,
4,
4,
5,
5,
0,
0,
3,
3,
3,
3,
7,
7,
9,
9,
2,
15,
14,
14,
17,
17,
10,
10,
2,
2,
7,
7,
6,
6,
6,
6,
4,
4,
8,
8,
10,
10,
8,
8,
2,
14,
13,
13,
11,
11,
4,
4,
2,
2,
2,
2,
2,
2,
9,
9,
9,
9,
2,
2,
-1,
-1,
4,
4,
6,
6,
2,
2,
2,
2,
6,
6,
2,
2,
0,
0,
2,
2,
1,
1,
7,
7,
15,
15,
10,
10,
1,
14,
13,
13,
16,
16,
17,
17,
9,
9,
5,
5,
7,
7,
6,
6,
8,
8,
14,
14,
5,
5,
14,
14,
15,
1,
1,
1,
3,
3,
2,
2,
2,
2,
5,
5,
13,
13,
19,
2,
2,
2,
6,
6,
3,
3,
10,
10,
18,
18,
14,
14,
6,
6,
4,
4,
1,
1,
4,
4,
0,
0,
0,
0,
2,
2,
6,
6,
6,
6,
2,
2,
0,
0,
-1,
-1,
-1,
-1,
-1,
-1,
6,
6,
10,
10,
0,
0,
0,
0,
2,
2,
2,
2,
5,
5,
2,
2,
2,
2,
4,
4,
0,
0,
3,
3,
11,
11,
12,
0,
1,
1,
10,
10,
9,
9,
5,
5,
7,
7,
4,
4,
4,
4,
6,
6,
0,
0,
1,
1,
2,
2,
6,
6,
5,
5,
5,
5,
5,
5,
5,
5,
1,
1,
1,
1,
7,
18,
18,
18,
22,
22,
13,
1,
2,
2,
7,
7,
5,
5,
5,
5,
9,
9,
2,
2,
6,
6,
4,
4,
10,
10,
12,
1,
2,
19,
18,
18,
15,
1,
2,
2,
2,
2,
0,
0,
3,
3,
5,
5,
2,
2,
2,
2,
3,
3,
5,
5,
6,
6,
2,
2,
6,
6,
1,
1,
4,
4,
4,
4,
2,
2,
4,
4,
3,
3,
5,
5,
9,
9,
15,
15,
8,
8,
6,
6,
14,
14,
9,
9,
1,
1,
0,
0,
0,
0,
6,
6,
15,
15,
17,
1,
2,
13,
12,
12,
10,
10,
4,
4,
1,
1,
2,
2,
5,
5,
4,
4,
2,
2,
0,
0,
8,
8,
10,
10,
5,
5,
1,
1,
3,
3,
0,
0,
6,
6,
5,
5,
0,
0,
2,
2,
4,
4,
2,
2,
3,
3,
0,
0,
-1,
-1,
0,
0,
0,
0,
5,
5,
2,
2,
6,
6,
6,
6,
1,
1,
3,
3,
11,
11,
13,
1,
1,
1,
10,
10,
11,
11,
6,
6,
2,
2,
6,
6,
5,
5,
1,
1,
10,
10,
13,
13,
6,
6,
8,
35,
35,
35,
26,
8,
8,
8,
5,
5,
6,
6,
3,
3,
3,
3,
8,
8,
9,
9,
5,
5,
3,
3,
6,
6,
3,
3,
10,
10,
1,
19,
18,
30,
29,
14,
14,
1,
1,
1,
4,
4,
6,
19,
18,
18,
23,
23,
14,
14,
10,
10,
12,
12,
5,
5,
0,
0,
0,
13,
13,
24,
22,
22,
14,
2,
3,
3,
0,
0,
2,
2,
3,
3,
1,
1,
2,
2,
3,
3,
6,
17,
17,
17,
11,
11,
3,
3,
5,
5,
6,
22,
21,
2,
2,
14,
14,
14,
14,
14,
17,
17,
13,
13,
5,
5,
6,
6,
10,
10,
9,
9,
6,
6,
1,
1,
3,
3,
7,
7,
10,
10,
12,
12,
10,
10,
8,
8,
13,
13,
14,
14,
8,
8,
2,
2,
1,
14,
14,
14,
10,
10,
5,
5,
4,
4,
5,
5,
7,
7,
1,
1,
1,
1,
4,
4,
7,
7,
3,
3,
12,
12,
12,
12,
8,
8,
2,
2,
3,
3,
1,
1,
6,
6,
11,
11,
14,
14,
13,
13,
7,
7,
5,
5,
0,
0,
-1,
-1,
1,
1,
0,
0,
4,
4,
6,
6,
2,
2,
0,
0,
2,
2,
9,
9,
11,
11,
3,
3,
1,
1,
5,
5,
0,
0,
0,
0,
3,
3,
5,
5,
3,
3,
2,
2,
2,
2,
2,
2,
7,
7,
5,
5,
4,
4,
6,
6,
0,
0,
-1,
-1,
3,
3,
0,
0,
5,
5,
7,
7,
8,
8,
2,
2,
2,
2,
1,
1,
0,
0,
0,
0,
-1,
-1,
3,
3,
3,
3,
2,
15,
14,
14,
23,
12,
12,
0,
1,
1,
8,
8,
12,
12,
13,
1,
1,
1,
4,
4,
5,
5,
1,
13,
12,
12,
21,
3,
4,
30,
30,
30,
27,
2,
4,
4,
2,
2,
1,
1,
10,
10,
2,
2,
11,
11,
15,
15,
9,
9,
4,
4,
0,
13,
13,
24,
23,
4,
5,
5,
8,
8,
6,
6,
5,
5,
14,
14,
21,
7,
7,
7,
12,
25,
25,
25,
31,
18,
18,
2,
6,
21,
21,
21,
20,
7,
7,
7,
6,
6,
2,
18,
18,
18,
21,
21,
24,
10,
10,
10,
9,
9,
9,
9,
8,
8,
6,
6,
3,
3,
5,
5,
4,
4,
5,
5,
-1,
-1,
0,
0,
1,
1,
0,
0,
4,
4,
2,
2,
0,
0,
2,
2,
0,
0,
4,
4,
0,
0,
0,
0,
4,
4,
13,
13,
10,
10,
3,
3,
7,
7,
10,
10,
8,
8,
2,
2,
2,
2,
2,
2,
5,
5,
4,
4,
-1,
-1,
-1,
-1,
7,
7,
6,
6,
0,
0,
1,
1,
8,
8,
14,
14,
10,
10,
4,
4,
0,
0,
9,
9,
12,
12,
8,
8,
5,
5,
0,
0,
0,
0,
0,
0,
2,
2,
1,
1,
0,
0,
3,
3,
1,
1,
-1,
-1,
-1,
-1,
6,
6,
14,
14,
16,
16,
9,
9,
2,
2,
5,
5,
6,
6,
6,
6,
5,
5,
3,
3,
5,
5,
0,
0,
-1,
-1,
4,
4,
8,
8,
12,
12,
5,
5,
7,
7,
12,
12,
7,
7,
4,
4,
0,
0,
8,
8,
8,
8,
8,
8,
2,
2,
6,
18,
18,
18,
26,
12,
12,
12,
5,
5,
3,
3,
6,
6,
13,
13,
19,
19,
12,
12,
7,
7,
1,
1,
5,
5,
1,
1,
5,
5,
-1,
-1,
9,
9,
15,
2,
2,
2,
1,
1,
3,
3,
4,
4,
0,
0,
0,
0,
5,
5,
0,
0,
5,
5,
7,
7,
0,
0,
3,
3,
3,
3,
0,
0,
2,
17,
17,
17,
18,
2,
2,
2,
6,
6,
14,
14,
6,
6,
0,
0,
6,
6,
10,
10,
7,
21,
21,
21,
19,
19,
12,
1,
1,
1,
4,
4,
11,
11,
11,
11,
8,
8,
3,
3,
8,
8,
1,
1,
4,
4,
3,
3,
3,
3,
10,
10,
8,
8,
2,
2,
2,
2,
1,
21,
20,
20,
25,
25,
21,
21,
13,
1,
7,
7,
13,
13,
12,
12,
13,
13,
7,
7,
6,
6,
1,
1,
4,
16,
15,
15,
