EMG_S3/DS0035.CSV

Memory Length,4000,
Trigger Level,-4.80000e+02,
Source,CH1,
Probe,1.0X,
Vertical Units,V,
Vertical Scale,1.00000e+00,
Vertical Position,0.00000e+00,
Horizontal Units,S,
Horizontal Scale,1.00000e-01,
Horizontal Position,0.0000000e+00,
Horizontal Mode,Roll Mode,
Waveform Last Dot Address,4000,
Sampling Period,4.00000e-04,
Firmware,V1.14,
Time, ,
Mode,Fast,
Waveform Data,
20,
20,
17,
17,
16,
16,
2,
2,
8,
26,
25,
25,
23,
3,
3,
3,
5,
5,
1,
1,
1,
1,
3,
3,
9,
9,
6,
6,
2,
2,
2,
2,
5,
5,
6,
17,
17,
17,
17,
17,
10,
10,
4,
4,
5,
5,
8,
8,
14,
14,
10,
-1,
0,
0,
1,
1,
6,
6,
0,
12,
12,
12,
16,
16,
8,
8,
2,
2,
4,
4,
8,
8,
8,
8,
7,
7,
12,
12,
8,
8,
2,
2,
5,
5,
1,
1,
0,
0,
0,
0,
6,
6,
8,
8,
5,
5,
4,
4,
7,
7,
6,
6,
1,
1,
0,
0,
2,
2,
0,
0,
1,
1,
2,
2,
2,
2,
2,
2,
0,
0,
2,
2,
5,
5,
6,
6,
5,
5,
1,
1,
-1,
-1,
4,
4,
0,
0,
7,
7,
6,
6,
0,
0,
0,
0,
6,
6,
6,
6,
0,
0,
2,
2,
2,
2,
3,
3,
4,
4,
4,
4,
8,
8,
8,
8,
7,
7,
2,
2,
2,
2,
2,
2,
7,
25,
24,
37,
36,
13,
13,
0,
2,
2,
9,
9,
18,
18,
21,
21,
15,
15,
5,
5,
0,
0,
2,
2,
7,
7,
9,
22,
22,
10,
10,
10,
3,
3,
1,
1,
10,
10,
17,
17,
14,
14,
11,
11,
7,
7,
1,
1,
1,
1,
1,
1,
0,
0,
2,
2,
6,
6,
4,
18,
17,
17,
15,
15,
23,
23,
25,
8,
12,
12,
10,
10,
12,
12,
13,
1,
2,
2,
11,
11,
19,
19,
21,
21,
20,
9,
9,
9,
1,
1,
2,
2,
2,
2,
-1,
-1,
7,
7,
10,
10,
6,
6,
4,
4,
10,
10,
7,
7,
4,
4,
9,
9,
5,
5,
2,
17,
16,
16,
25,
25,
23,
23,
24,
7,
7,
7,
3,
3,
0,
0,
9,
9,
17,
17,
19,
19,
14,
14,
14,
14,
16,
16,
10,
10,
13,
13,
15,
1,
2,
20,
20,
20,
28,
28,
28,
28,
29,
13,
13,
13,
6,
6,
1,
1,
5,
5,
0,
0,
1,
1,
4,
4,
10,
10,
10,
10,
7,
7,
8,
8,
8,
8,
8,
8,
6,
6,
2,
2,
0,
0,
8,
8,
10,
10,
11,
11,
15,
15,
12,
1,
1,
1,
6,
6,
6,
6,
4,
4,
9,
9,
12,
12,
6,
17,
16,
30,
30,
17,
18,
18,
9,
9,
1,
13,
12,
12,
20,
20,
17,
5,
6,
6,
4,
4,
0,
0,
1,
1,
5,
5,
1,
1,
0,
0,
-1,
-1,
1,
1,
4,
4,
0,
0,
1,
17,
16,
16,
18,
1,
4,
17,
16,
16,
8,
8,
6,
6,
12,
12,
18,
18,
20,
8,
8,
8,
2,
2,
9,
9,
13,
13,
7,
7,
6,
6,
12,
12,
14,
14,
13,
13,
6,
6,
1,
1,
10,
10,
9,
9,
7,
7,
7,
7,
6,
6,
3,
3,
6,
6,
2,
2,
2,
2,
1,
1,
4,
4,
10,
10,
2,
2,
11,
11,
18,
18,
19,
5,
6,
6,
0,
0,
10,
10,
19,
19,
22,
22,
18,
5,
5,
5,
2,
2,
4,
4,
2,
2,
6,
6,
10,
10,
5,
5,
1,
1,
2,
2,
3,
3,
3,
3,
1,
1,
3,
3,
6,
6,
5,
5,
5,
5,
11,
11,
2,
2,
6,
6,
9,
9,
10,
10,
10,
10,
9,
9,
6,
6,
14,
0,
1,
1,
1,
1,
-1,
-1,
1,
1,
0,
0,
0,
0,
2,
2,
-1,
-1,
2,
2,
7,
7,
10,
10,
5,
5,
2,
2,
9,
9,
12,
12,
9,
9,
3,
3,
5,
5,
11,
11,
6,
6,
7,
7,
17,
17,
19,
8,
8,
8,
2,
2,
1,
1,
4,
16,
16,
30,
29,
14,
14,
0,
1,
1,
3,
3,
4,
21,
21,
21,
30,
30,
33,
33,
32,
19,
20,
2,
7,
20,
20,
20,
15,
15,
8,
8,
5,
5,
13,
13,
20,
20,
14,
14,
6,
6,
3,
3,
2,
2,
2,
2,
0,
0,
4,
4,
8,
8,
10,
10,
11,
11,
10,
10,
3,
3,
6,
6,
10,
10,
5,
5,
0,
0,
2,
2,
3,
16,
15,
3,
3,
14,
14,
14,
14,
14,
4,
4,
0,
0,
4,
4,
8,
8,
16,
16,
14,
2,
6,
6,
11,
0,
1,
1,
-1,
-1,
5,
5,
1,
1,
5,
5,
5,
5,
10,
10,
10,
10,
5,
5,
0,
0,
6,
6,
6,
6,
0,
0,
0,
0,
7,
20,
20,
20,
14,
1,
2,
2,
0,
0,
1,
1,
7,
7,
5,
5,
4,
4,
1,
1,
2,
2,
3,
3,
11,
11,
16,
16,
14,
14,
14,
14,
9,
9,
6,
6,
4,
4,
0,
0,
7,
7,
6,
6,
3,
3,
5,
5,
4,
4,
4,
4,
1,
14,
14,
14,
21,
8,
9,
9,
1,
1,
3,
3,
5,
5,
4,
4,
1,
1,
2,
2,
0,
0,
0,
0,
4,
15,
15,
15,
7,
7,
4,
4,
4,
20,
20,
20,
19,
2,
2,
2,
1,
1,
0,
0,
5,
5,
2,
2,
2,
2,
10,
10,
12,
12,
12,
12,
17,
17,
10,
10,
5,
5,
11,
11,
15,
15,
8,
8,
2,
2,
2,
2,
10,
10,
7,
7,
2,
2,
0,
0,
0,
0,
1,
1,
0,
0,
-1,
-1,
5,
5,
12,
12,
18,
18,
10,
10,
11,
11,
12,
12,
6,
6,
2,
2,
3,
3,
8,
8,
5,
5,
1,
1,
7,
7,
12,
12,
6,
6,
2,
17,
16,
16,
12,
12,
10,
10,
18,
18,
13,
1,
7,
26,
25,
25,
26,
13,
13,
2,
7,
7,
8,
8,
9,
9,
17,
17,
9,
9,
14,
14,
17,
4,
5,
5,
-1,
-1,
1,
1,
3,
3,
1,
1,
2,
2,
1,
1,
1,
1,
2,
2,
1,
1,
9,
9,
15,
15,
9,
9,
2,
2,
3,
3,
7,
7,
12,
12,
13,
13,
12,
12,
9,
9,
8,
32,
32,
32,
34,
21,
22,
3,
4,
15,
14,
14,
13,
2,
4,
4,
2,
14,
14,
14,
16,
16,
12,
12,
14,
14,
17,
2,
4,
25,
24,
24,
20,
20,
21,
10,
10,
10,
7,
7,
10,
10,
5,
5,
1,
1,
9,
22,
21,
21,
21,
21,
12,
1,
1,
1,
-1,
-1,
4,
4,
11,
11,
15,
15,
6,
6,
0,
0,
2,
2,
3,
3,
11,
23,
21,
4,
4,
4,
3,
3,
10,
33,
31,
8,
9,
9,
13,
13,
6,
21,
18,
5,
14,
28,
28,
28,
28,
14,
15,
31,
30,
30,
23,
2,
4,
21,
21,
21,
28,
28,
29,
29,
28,
28,
27,
27,
28,
11,
11,
11,
4,
4,
11,
11,
13,
13,
10,
10,
10,
10,
3,
3,
12,
12,
18,
18,
16,
16,
6,
6,
6,
18,
18,
18,
14,
1,
2,
2,
10,
10,
6,
6,
2,
13,
13,
25,
24,
24,
20,
20,
13,
13,
6,
6,
7,
38,
37,
37,
31,
13,
13,
0,
1,
1,
5,
5,
1,
1,
0,
0,
9,
9,
17,
17,
18,
18,
10,
10,
9,
9,
17,
17,
12,
12,
18,
29,
27,
13,
14,
14,
9,
9,
15,
15,
14,
14,
5,
5,
-1,
-1,
8,
8,
11,
0,
1,
15,
14,
25,
25,
25,
23,
23,
16,
0,
2,
2,
11,
11,
18,
18,
24,
24,
28,
14,
14,
1,
6,
17,
15,
15,
22,
22,
24,
24,
16,
16,
10,
10,
8,
8,
0,
0,
1,
1,
0,
0,
9,
9,
16,
16,
24,
35,
35,
35,
26,
12,
13,
13,
3,
3,
7,
7,
13,
13,
11,
11,
16,
16,
18,
18,
12,
12,
8,
8,
10,
22,
21,
9,
10,
10,
17,
17,
14,
14,
13,
13,
20,
20,
22,
22,
14,
14,
7,
7,
4,
4,
7,
7,
6,
6,
7,
7,
6,
6,
11,
11,
6,
6,
2,
2,
0,
0,
1,
1,
-1,
-1,
3,
3,
-1,
-1,
4,
22,
21,
34,
33,
19,
20,
2,
5,
5,
13,
13,
18,
7,
8,
8,
1,
1,
5,
5,
14,
14,
18,
18,
16,
16,
8,
8,
2,
2,
12,
12,
14,
14,
15,
15,
10,
10,
7,
7,
6,
6,
0,
0,
6,
24,
24,
5,
9,
32,
31,
19,
20,
2,
3,
22,
22,
22,
19,
4,
14,
26,
23,
2,
2,
2,
-1,
-1,
3,
3,
10,
10,
5,
5,
6,
6,
5,
5,
0,
0,
7,
7,
7,
7,
11,
11,
7,
7,
4,
4,
2,
2,
3,
3,
2,
2,
2,
2,
6,
6,
7,
7,
3,
3,
2,
2,
10,
10,
12,
12,
8,
8,
12,
12,
12,
1,
2,
23,
23,
23,
14,
2,
8,
8,
9,
9,
3,
3,
2,
2,
5,
5,
5,
5,
10,
10,
16,
16,
7,
7,
12,
23,
22,
22,
14,
14,
10,
10,
9,
9,
6,
6,
6,
6,
3,
3,
12,
12,
12,
12,
12,
12,
8,
8,
14,
14,
14,
1,
5,
16,
16,
16,
9,
9,
5,
5,
9,
9,
3,
3,
9,
9,
8,
8,
6,
6,
10,
10,
5,
5,
0,
0,
-1,
-1,
1,
1,
2,
2,
5,
5,
12,
26,
26,
41,
40,
28,
28,
3,
4,
20,
19,
35,
35,
35,
40,
17,
17,
0,
1,
1,
0,
0,
1,
1,
-1,
-1,
5,
5,
10,
10,
3,
3,
5,
5,
3,
3,
5,
5,
10,
10,
6,
6,
2,
2,
1,
1,
6,
6,
9,
9,
2,
2,
2,
19,
18,
18,
11,
0,
2,
2,
11,
11,
8,
8,
2,
2,
-1,
-1,
0,
0,
0,
0,
-1,
-1,
4,
16,
16,
16,
12,
12,
10,
10,
1,
1,
1,
14,
13,
13,
13,
1,
5,
29,
29,
29,
29,
16,
16,
2,
2,
13,
12,
1,
5,
5,
5,
5,
5,
5,
13,
13,
9,
9,
5,
5,
6,
6,
1,
1,
9,
9,
2,
2,
7,
7,
4,
4,
6,
6,
15,
15,
13,
13,
10,
10,
2,
13,
12,
1,
15,
15,
13,
2,
9,
9,
10,
23,
22,
22,
26,
26,
17,
4,
4,
4,
11,
11,
19,
19,
28,
28,
20,
2,
2,
2,
12,
12,
11,
0,
2,
2,
5,
5,
6,
19,
18,
18,
17,
17,
14,
2,
2,
2,
10,
10,
13,
13,
10,
10,
2,
2,
6,
6,
13,
13,
9,
9,
1,
1,
4,
4,
6,
6,
3,
3,
5,
16,
16,
16,
15,
15,
8,
8,
1,
1,
2,
2,
2,
2,
1,
1,
1,
1,
3,
3,
6,
6,
8,
8,
8,
8,
7,
7,
2,
2,
4,
4,
7,
7,
10,
10,
5,
5,
2,
2,
10,
10,
8,
8,
6,
6,
4,
4,
13,
1,
1,
16,
16,
28,
28,
28,
21,
21,
13,
1,
2,
2,
8,
8,
2,
2,
7,
7,
15,
15,
22,
22,
20,
8,
9,
9,
0,
0,
2,
2,
2,
2,
6,
6,
8,
8,
13,
13,
8,
8,
5,
5,
1,
1,
2,
2,
2,
2,
2,
2,
2,
20,
20,
20,
11,
11,
5,
5,
9,
9,
15,
15,
18,
18,
18,
18,
9,
9,
1,
20,
20,
20,
24,
24,
25,
12,
13,
1,
2,
2,
12,
12,
13,
13,
14,
14,
17,
17,
12,
1,
2,
15,
15,
15,
24,
8,
8,
8,
0,
0,
3,
3,
9,
9,
13,
13,
8,
8,
14,
14,
18,
6,
6,
6,
3,
3,
2,
2,
0,
0,
2,
2,
0,
0,
3,
3,
-1,
-1,
-1,
-1,
2,
2,
6,
6,
1,
1,
5,
5,
0,
0,
-1,
-1,
4,
4,
1,
1,
7,
7,
1,
1,
2,
2,
6,
6,
6,
6,
3,
3,
5,
5,
0,
0,
5,
5,
5,
5,
5,
5,
8,
22,
22,
8,
8,
8,
0,
0,
1,
1,
8,
8,
13,
2,
3,
22,
21,
21,
22,
6,
6,
6,
10,
10,
18,
18,
20,
20,
19,
6,
6,
6,
10,
24,
23,
23,
17,
17,
11,
22,
20,
5,
13,
13,
20,
9,
10,
10,
15,
30,
27,
6,
15,
28,
24,
4,
6,
6,
10,
10,
9,
9,
9,
9,
7,
7,
5,
5,
1,
1,
6,
6,
5,
5,
6,
6,
1,
1,
4,
4,
12,
12,
8,
8,
6,
6,
3,
3,
2,
2,
6,
20,
18,
18,
25,
6,
6,
6,
9,
9,
5,
5,
2,
2,
0,
0,
2,
14,
14,
14,
20,
4,
4,
4,
4,
4,
2,
2,
6,
6,
0,
0,
3,
18,
18,
18,
14,
1,
5,
5,
1,
1,
5,
5,
7,
7,
2,
2,
6,
6,
1,
1,
2,
2,
2,
2,
6,
6,
1,
1,
2,
2,
0,
0,
1,
1,
-1,
-1,
5,
5,
6,
6,
4,
4,
1,
1,
3,
3,
6,
6,
2,
2,
4,
4,
0,
0,
2,
2,
5,
5,
9,
9,
11,
11,
16,
0,
1,
1,
0,
0,
8,
8,
10,
10,
2,
27,
26,
37,
34,
18,
18,
2,
7,
30,
29,
29,
31,
31,
33,
16,
17,
3,
3,
3,
1,
1,
3,
3,
6,
6,
4,
4,
5,
5,
7,
7,
10,
10,
13,
13,
8,
8,
9,
9,
6,
6,
2,
2,
3,
3,
2,
2,
0,
0,
6,
6,
7,
7,
9,
9,
12,
12,
12,
12,
10,
10,
11,
11,
6,
30,
30,
30,
33,
33,
30,
10,
11,
11,
6,
6,
5,
5,
6,
6,
11,
11,
4,
4,
3,
3,
0,
13,
13,
13,
21,
21,
21,
21,
13,
2,
2,
2,
3,
3,
7,
7,
9,
9,
6,
6,
0,
0,
4,
4,
24,
24,
24,
24,
15,
0,
1,
1,
3,
3,
1,
1,
1,
1,
2,
2,
1,
1,
6,
6,
2,
13,
12,
12,
16,
16,
10,
10,
1,
12,
11,
11,
21,
21,
17,
3,
3,
3,
8,
8,
5,
5,
5,
5,
11,
11,
16,
16,
11,
11,
1,
1,
8,
8,
7,
7,
8,
8,
10,
10,
3,
3,
1,
1,
-1,
-1,
0,
0,
-1,
-1,
0,
0,
-1,
-1,
1,
1,
2,
2,
2,
2,
-1,
-1,
5,
5,
6,
6,
10,
10,
2,
2,
2,
2,
4,
4,
2,
2,
5,
5,
10,
10,
5,
5,
6,
6,
6,
6,
0,
0,
6,
18,
17,
17,
24,
10,
10,
10,
7,
7,
14,
14,
13,
13,
12,
12,
11,
11,
10,
10,
6,
6,
0,
0,
1,
1,
1,
1,
-1,
-1,
0,
0,
0,
22,
21,
36,
35,
15,
16,
4,
15,
15,
16,
1,
3,
3,
1,
1,
3,
3,
7,
7,
1,
1,
2,
2,
-1,
-1,
0,
0,
2,
14,
14,
14,
9,
9,
3,
3,
6,
6,
5,
5,
1,
12,
11,
11,
16,
16,
21,
21,
13,
1,
1,
1,
5,
5,
10,
10,
12,
12,
13,
13,
9,
9,
1,
1,
4,
4,
2,
2,
1,
1,
1,
1,
2,
2,
5,
5,
5,
5,
0,
0,
4,
4,
6,
6,
8,
8,
4,
24,
24,
24,
27,
27,
18,
18,
9,
9,
5,
5,
12,
12,
10,
10,
9,
9,
5,
5,
1,
1,
3,
3,
3,
3,
2,
2,
2,
2,
6,
6,
2,
2,
9,
21,
21,
21,
18,
18,
9,
9,
2,
2,
6,
19,
18,
18,
10,
10,
2,
2,
6,
6,
6,
6,
12,
12,
21,
35,
34,
18,
18,
0,
0,
0,
0,
0,
6,
6,
9,
9,
10,
10,
10,
10,
14,
14,
15,
15,
9,
9,
2,
13,
13,
13,
14,
14,
6,
6,
1,
1,
6,
6,
15,
15,
6,
6,
2,
2,
-1,
-1,
3,
3,
6,
6,
2,
2,
1,
1,
0,
0,
8,
8,
2,
2,
9,
23,
22,
36,
33,
14,
14,
1,
2,
17,
16,
16,
19,
19,
9,
9,
1,
1,
2,
2,
8,
8,
6,
6,
5,
5,
0,
0,
-1,
-1,
5,
5,
4,
4,
2,
2,
5,
5,
2,
2,
7,
7,
8,
23,
22,
22,
19,
19,
10,
10,
1,
1,
6,
6,
2,
2,
5,
5,
5,
5,
4,
4,
5,
5,
13,
13,
21,
7,
8,
8,
1,
1,
6,
6,
1,
1,
1,
1,
6,
6,
6,
6,
1,
1,
10,
21,
21,
8,
8,
8,
4,
4,
1,
1,
3,
3,
9,
9,
15,
15,
18,
18,
14,
1,
6,
19,
18,
18,
10,
10,
1,
1,
9,
9,
15,
15,
12,
12,
7,
7,
10,
10,
10,
10,
9,
9,
0,
0,
5,
36,
36,
49,
44,
12,
12,
1,
1,
14,
14,
14,
18,
1,
2,
2,
8,
8,
13,
13,
21,
21,
22,
9,
10,
10,
4,
4,
0,
11,
10,
10,
4,
15,
14,
14,
16,
5,
6,
6,
1,
1,
11,
11,
8,
8,
11,
11,
12,
12,
10,
10,
7,
7,
0,
0,
-1,
-1,
2,
2,
0,
0,
2,
2,
1,
1,
-1,
-1,
5,
5,
15,
15,
21,
2,
4,
15,
13,
2,
10,
10,
5,
33,
32,
17,
18,
6,
8,
8,
8,
8,
1,
1,
0,
0,
2,
2,
9,
9,
10,
10,
7,
7,
13,
13,
10,
10,
0,
0,
8,
8,
11,
11,
4,
4,
1,
1,
1,
1,
0,
11,
10,
10,
9,
9,
2,
2,
5,
5,
15,
15,
20,
20,
14,
14,
6,
6,
2,
2,
7,
7,
5,
5,
1,
1,
1,
1,
0,
0,
3,
3,
4,
4,
9,
9,
11,
11,
6,
6,
2,
2,
6,
6,
14,
14,
18,
18,
18,
18,
11,
11,
8,
8,
5,
16,
15,
15,
17,
17,
11,
11,
5,
5,
13,
13,
12,
12,
6,
6,
6,
6,
6,
6,
10,
27,
26,
26,
24,
24,
18,
18,
9,
9,
1,
1,
10,
10,
18,
18,
21,
21,
20,
8,
9,
9,
0,
0,
6,
6,
13,
13,
17,
4,
4,
22,
22,
22,
15,
1,
2,
2,
2,
2,
0,
0,
4,
4,
6,
6,
0,
0,
2,
2,
2,
2,
6,
6,
12,
1,
1,
1,
4,
4,
6,
6,
8,
8,
12,
12,
11,
0,
1,
1,
0,
0,
6,
6,
13,
13,
3,
3,
2,
2,
0,
0,
6,
6,
15,
15,
9,
9,
0,
0,
0,
0,
7,
7,
12,
12,
11,
11,
5,
5,
1,
1,
0,
0,
0,
0,
6,
6,
1,
16,
15,
15,
19,
19,
10,
10,
6,
6,
2,
2,
1,
1,
5,
5,
6,
6,
7,
7,
7,
7,
6,
6,
4,
4,
1,
1,
2,
2,
-1,
-1,
6,
6,
4,
4,
3,
3,
7,
23,
22,
22,
14,
1,
2,
2,
8,
8,
2,
2,
4,
4,
7,
7,
4,
4,
7,
7,
8,
24,
24,
24,
15,
1,
2,
2,
4,
4,
1,
1,
0,
0,
4,
4,
5,
5,
1,
1,
9,
9,
3,
3,
1,
38,
38,
52,
47,
6,
7,
28,
27,
27,
32,
32,
25,
14,
14,
14,
5,
5,
0,
14,
13,
13,
17,
4,
5,
5,
6,
6,
3,
3,
5,
17,
15,
15,
10,
10,
5,
5,
2,
2,
4,
4,
10,
10,
3,
15,
14,
14,
19,
19,
23,
23,
20,
20,
14,
14,
6,
6,
6,
6,
11,
11,
13,
13,
9,
9,
18,
18,
17,
17,
13,
13,
19,
19,
13,
0,
0,
0,
9,
20,
20,
20,
18,
18,
19,
19,
20,
7,
8,
8,
4,
4,
6,
6,
5,
5,
3,
3,
6,
6,
3,
3,
9,
9,
9,
9,
8,
8,
5,
5,
0,
0,
0,
0,
5,
5,
9,
9,
10,
10,
4,
4,
0,
0,
4,
4,
8,
8,
9,
9,
2,
2,
2,
2,
-1,
-1,
-1,
-1,
2,
2,
7,
7,
2,
2,
4,
4,
12,
12,
13,
13,
4,
4,
2,
2,
7,
7,
11,
11,
12,
12,
7,
7,
0,
0,
0,
0,
6,
6,
5,
5,
3,
3,
1,
1,
0,
14,
14,
38,
38,
38,
30,
12,
12,
0,
1,
1,
8,
8,
1,
1,
5,
5,
5,
5,
2,
14,
13,
13,
10,
10,
5,
5,
10,
10,
9,
9,
10,
10,
6,
6,
2,
2,
2,
2,
5,
5,
1,
1,
6,
6,
7,
7,
0,
0,
10,
10,
15,
2,
6,
6,
6,
6,
14,
14,
22,
5,
5,
5,
4,
4,
6,
6,
4,
4,
14,
14,
8,
8,
3,
3,
11,
27,
26,
26,
24,
6,
6,
6,
1,
1,
5,
20,
19,
6,
6,
6,
10,
10,
12,
12,
9,
9,
8,
8,
7,
7,
6,
6,
5,
5,
4,
4,
-1,
-1,
0,
0,
2,
2,
3,
3,
3,
3,
3,
3,
0,
0,
2,
2,
2,
2,
3,
3,
4,
4,
1,
1,
7,
7,
11,
11,
8,
8,
6,
6,
5,
5,
4,
4,
4,
4,
6,
6,
13,
13,
8,
8,
4,
4,
9,
9,
10,
10,
6,
6,
1,
1,
7,
7,
15,
15,
11,
11,
2,
2,
0,
0,
10,
10,
10,
10,
2,
2,
9,
9,
8,
8,
0,
0,
5,
5,
7,
7,
1,
1,
0,
0,
3,
3,
1,
1,
1,
1,
10,
10,
15,
15,
10,
10,
1,
15,
15,
15,
20,
20,
17,
17,
15,
15,
6,
6,
6,
6,
13,
13,
10,
10,
2,
2,
6,
6,
0,
0,
10,
10,
10,
10,
2,
2,
5,
5,
4,
4,
2,
2,
5,
5,
12,
12,
11,
0,
1,
1,
2,
2,
5,
5,
11,
11,
12,
1,
2,
14,
13,
13,
12,
1,
6,
6,
14,
3,
4,
4,
11,
11,
20,
20,
10,
10,
3,
3,
6,
6,
4,
4,
11,
11,
1,
1,
8,
8,
9,
9,
13,
13,
12,
12,
5,
5,
5,
5,
-1,
-1,
2,
2,
5,
5,
3,
3,
2,
2,
1,
1,
10,
10,
16,
5,
5,
5,
6,
25,
23,
6,
7,
7,
1,
1,
6,
6,
7,
7,
14,
1,
2,
14,
14,
14,
18,
4,
5,
5,
0,
0,
8,
8,
12,
12,
2,
2,
4,
4,
12,
12,
16,
16,
12,
12,
12,
1,
3,
3,
10,
10,
11,
11,
8,
8,
6,
6,
4,
4,
3,
3,
10,
10,
10,
10,
4,
18,
17,
17,
25,
7,
7,
7,
8,
19,
18,
18,
22,
22,
13,
13,
6,
6,
2,
2,
4,
4,
0,
0,
6,
6,
14,
14,
14,
14,
6,
6,
3,
3,
8,
8,
5,
5,
0,
0,
-1,
-1,
3,
3,
8,
8,
9,
9,
6,
6,
1,
1,
8,
8,
2,
2,
7,
7,
3,
3,
8,
8,
9,
9,
10,
10,
4,
4,
5,
5,
7,
7,
6,
6,
2,
2,
2,
2,
5,
5,
2,
2,
2,
2,
1,
1,
5,
5,
12,
1,
2,
2,
10,
10,
2,
2,
1,
17,
16,
16,
24,
24,
18,
6,
6,
6,
9,
9,
18,
18,
21,
21,
14,
14,
7,
7,
2,
2,
5,
5,
0,
0,
0,
0,
2,
2,
7,
7,
9,
9,
7,
21,
20,
20,
12,
12,
4,
4,
9,
9,
11,
11,
5,
5,
6,
6,
14,
14,
13,
0,
1,
1,
-1,
-1,
1,
1,
0,
0,
-1,
-1,
0,
0,
2,
2,
1,
1,
-1,
-1,
1,
1,
3,
3,
1,
1,
9,
9,
7,
7,
5,
5,
12,
12,
9,
9,
0,
0,
1,
1,
4,
20,
18,
6,
6,
6,
13,
13,
21,
21,
16,
3,
8,
8,
14,
1,
2,
2,
7,
7,
13,
13,
12,
12,
5,
5,
6,
6,
8,
8,
3,
3,
0,
0,
0,
0,
0,
0,
1,
1,
4,
4,
7,
7,
9,
9,
6,
6,
1,
1,
1,
1,
2,
2,
9,
9,
9,
9,
3,
3,
0,
0,
6,
6,
10,
10,
9,
9,
10,
10,
9,
9,
5,
5,
9,
9,
5,
5,
4,
4,
8,
19,
18,
18,
24,
24,
15,
15,
10,
10,
1,
1,
5,
5,
4,
4,
9,
9,
2,
2,
9,
9,
10,
10,
10,
10,
10,
10,
14,
14,
15,
15,
6,
6,
0,
0,
9,
9,
12,
12,
6,
6,
1,
1,
2,
2,
-1,
-1,
4,
4,
1,
1,
4,
16,
16,
5,
6,
6,
2,
2,
11,
11,
13,
13,
8,
8,
0,
0,
2,
2,
10,
10,
15,
15,
16,
16,
12,
12,
2,
2,
0,
0,
0,
13,
13,
13,
20,
20,
18,
18,
17,
3,
4,
20,
19,
19,
