EMG_S3/DS0056.CSV

Memory Length,4000,
Trigger Level,-4.80000e+02,
Source,CH1,
Probe,1.0X,
Vertical Units,V,
Vertical Scale,1.00000e+00,
Vertical Position,0.00000e+00,
Horizontal Units,S,
Horizontal Scale,1.00000e-01,
Horizontal Position,0.0000000e+00,
Horizontal Mode,Roll Mode,
Waveform Last Dot Address,4000,
Sampling Period,4.00000e-04,
Firmware,V1.14,
Time, ,
Mode,Fast,
Waveform Data,
5,
5,
1,
1,
4,
4,
6,
6,
2,
2,
1,
1,
4,
4,
5,
5,
3,
3,
3,
3,
-1,
-1,
6,
6,
10,
10,
5,
5,
2,
2,
7,
7,
1,
1,
1,
1,
0,
0,
1,
1,
4,
4,
3,
3,
8,
8,
16,
2,
2,
2,
6,
6,
2,
2,
2,
2,
4,
4,
2,
2,
9,
9,
6,
6,
0,
0,
-1,
-1,
1,
1,
0,
0,
5,
5,
6,
6,
1,
1,
0,
0,
1,
1,
2,
2,
0,
0,
1,
1,
1,
1,
-1,
-1,
1,
1,
1,
1,
2,
2,
3,
3,
6,
6,
0,
0,
4,
4,
2,
2,
0,
0,
-1,
-1,
0,
0,
3,
3,
3,
3,
9,
9,
17,
3,
4,
4,
2,
2,
2,
2,
2,
2,
1,
1,
5,
5,
10,
10,
7,
7,
0,
0,
4,
4,
0,
0,
3,
3,
0,
0,
2,
2,
5,
5,
7,
7,
4,
4,
1,
1,
1,
1,
1,
1,
-1,
-1,
2,
2,
0,
0,
1,
1,
4,
4,
10,
10,
9,
9,
1,
1,
6,
6,
7,
7,
0,
0,
1,
1,
5,
5,
3,
3,
10,
10,
7,
7,
3,
3,
9,
9,
15,
2,
3,
14,
14,
14,
9,
9,
10,
10,
1,
1,
2,
2,
-1,
-1,
3,
3,
1,
1,
1,
1,
6,
6,
9,
9,
6,
6,
1,
1,
0,
0,
1,
1,
7,
7,
8,
8,
0,
0,
0,
0,
8,
8,
9,
9,
5,
5,
2,
2,
12,
12,
13,
13,
5,
5,
3,
3,
0,
20,
19,
37,
37,
26,
27,
12,
12,
1,
4,
18,
17,
17,
25,
25,
22,
9,
10,
10,
4,
4,
2,
2,
1,
1,
3,
3,
9,
9,
2,
2,
0,
0,
5,
5,
2,
24,
23,
23,
28,
14,
14,
14,
7,
7,
6,
6,
1,
1,
1,
1,
0,
0,
0,
0,
8,
8,
9,
9,
4,
4,
-1,
-1,
0,
0,
0,
0,
5,
5,
3,
3,
2,
2,
2,
2,
3,
3,
0,
0,
0,
0,
1,
1,
4,
4,
5,
5,
3,
3,
2,
2,
6,
6,
11,
11,
9,
9,
0,
0,
2,
2,
4,
4,
4,
4,
4,
4,
1,
1,
-1,
-1,
2,
2,
1,
1,
3,
3,
2,
2,
2,
2,
1,
1,
5,
5,
5,
5,
4,
4,
3,
3,
0,
0,
6,
6,
5,
5,
0,
0,
0,
0,
4,
4,
5,
5,
0,
0,
2,
2,
0,
0,
1,
1,
-1,
-1,
0,
0,
8,
19,
18,
6,
6,
6,
5,
5,
2,
2,
9,
9,
18,
18,
13,
1,
2,
2,
5,
5,
4,
4,
2,
2,
2,
2,
1,
1,
4,
15,
14,
14,
10,
10,
7,
22,
21,
21,
25,
25,
19,
19,
9,
9,
1,
1,
1,
1,
9,
9,
15,
15,
16,
16,
11,
11,
8,
8,
5,
5,
4,
4,
9,
9,
4,
4,
0,
0,
0,
0,
2,
2,
3,
3,
2,
2,
1,
1,
2,
2,
8,
8,
11,
11,
12,
12,
13,
13,
3,
3,
6,
19,
18,
18,
13,
13,
8,
8,
4,
4,
2,
2,
6,
6,
5,
5,
0,
0,
2,
2,
4,
4,
3,
3,
5,
5,
2,
2,
4,
4,
2,
2,
2,
2,
4,
4,
5,
5,
4,
4,
12,
12,
5,
5,
2,
2,
10,
10,
13,
13,
6,
6,
10,
10,
18,
5,
5,
5,
6,
6,
10,
10,
2,
2,
8,
8,
2,
2,
0,
0,
6,
6,
6,
6,
2,
2,
-1,
-1,
3,
3,
11,
11,
13,
13,
3,
3,
2,
2,
2,
13,
13,
13,
7,
7,
1,
1,
5,
5,
9,
9,
13,
0,
2,
2,
5,
5,
1,
1,
0,
0,
0,
0,
-1,
-1,
-1,
-1,
-1,
-1,
0,
0,
1,
1,
0,
0,
3,
3,
9,
9,
7,
7,
3,
3,
1,
1,
0,
0,
0,
0,
-1,
-1,
1,
1,
2,
2,
6,
6,
5,
5,
1,
1,
4,
4,
6,
6,
9,
9,
6,
6,
0,
0,
4,
4,
6,
6,
10,
10,
6,
6,
2,
2,
3,
3,
0,
0,
0,
0,
0,
0,
0,
0,
0,
0,
0,
12,
12,
12,
19,
3,
4,
4,
-1,
-1,
2,
2,
11,
11,
12,
12,
5,
5,
0,
0,
3,
3,
12,
12,
17,
17,
18,
18,
13,
13,
7,
7,
4,
4,
1,
1,
0,
0,
4,
16,
16,
16,
24,
6,
6,
6,
-1,
-1,
7,
7,
6,
6,
2,
2,
2,
2,
2,
13,
12,
12,
11,
11,
8,
8,
4,
4,
0,
0,
2,
2,
4,
4,
5,
5,
12,
12,
8,
8,
1,
1,
0,
0,
3,
3,
3,
3,
0,
0,
2,
2,
5,
5,
1,
1,
1,
1,
5,
5,
0,
0,
7,
7,
5,
5,
2,
2,
3,
3,
1,
1,
2,
2,
0,
0,
2,
2,
0,
0,
0,
0,
4,
4,
7,
7,
5,
5,
1,
1,
1,
1,
2,
2,
3,
3,
2,
2,
0,
0,
2,
2,
0,
0,
0,
0,
5,
5,
5,
5,
6,
6,
6,
26,
25,
25,
19,
1,
3,
14,
14,
14,
10,
10,
10,
10,
18,
18,
10,
10,
6,
6,
12,
12,
13,
13,
6,
6,
3,
3,
5,
5,
4,
4,
4,
4,
2,
2,
1,
1,
2,
2,
1,
1,
1,
17,
16,
16,
23,
23,
20,
6,
6,
6,
4,
4,
5,
5,
2,
2,
5,
17,
16,
16,
11,
0,
4,
4,
6,
6,
1,
1,
0,
0,
4,
4,
1,
1,
8,
8,
10,
10,
6,
6,
10,
22,
21,
21,
12,
12,
3,
3,
5,
5,
4,
4,
3,
3,
2,
2,
6,
6,
9,
9,
13,
13,
11,
11,
8,
8,
0,
0,
4,
4,
5,
5,
2,
2,
1,
1,
0,
0,
2,
2,
2,
2,
0,
0,
7,
7,
6,
6,
2,
2,
6,
6,
9,
9,
0,
0,
1,
1,
1,
1,
8,
8,
10,
10,
16,
16,
9,
9,
2,
20,
19,
19,
22,
6,
6,
6,
5,
5,
10,
10,
10,
10,
11,
11,
3,
3,
0,
0,
0,
0,
2,
2,
4,
4,
10,
10,
17,
17,
10,
10,
7,
7,
10,
10,
10,
10,
8,
8,
2,
2,
1,
1,
2,
2,
2,
2,
5,
5,
2,
26,
26,
26,
34,
34,
29,
6,
6,
6,
13,
13,
20,
20,
16,
16,
12,
12,
9,
9,
4,
4,
2,
2,
3,
3,
0,
0,
6,
6,
5,
5,
0,
0,
2,
2,
6,
6,
6,
6,
5,
5,
6,
6,
3,
3,
0,
0,
1,
1,
3,
3,
4,
4,
4,
4,
4,
4,
6,
6,
2,
2,
6,
6,
4,
4,
1,
1,
0,
0,
0,
0,
4,
4,
2,
2,
2,
2,
2,
2,
5,
5,
6,
6,
4,
4,
8,
8,
13,
2,
3,
3,
1,
1,
0,
0,
7,
7,
5,
20,
19,
19,
21,
1,
3,
3,
10,
10,
17,
17,
18,
18,
14,
14,
8,
8,
5,
5,
0,
0,
4,
4,
6,
6,
0,
0,
0,
0,
0,
0,
1,
1,
5,
5,
8,
8,
4,
4,
0,
0,
2,
2,
2,
2,
4,
18,
18,
18,
26,
6,
6,
6,
6,
6,
6,
6,
2,
2,
6,
21,
20,
20,
14,
3,
12,
12,
9,
9,
3,
3,
6,
6,
5,
5,
2,
2,
0,
0,
0,
0,
0,
0,
4,
4,
5,
5,
1,
1,
3,
3,
5,
5,
5,
5,
3,
3,
9,
9,
15,
15,
6,
6,
4,
4,
10,
10,
6,
6,
8,
8,
17,
17,
7,
7,
2,
2,
2,
2,
0,
0,
10,
10,
11,
11,
6,
6,
12,
30,
30,
14,
15,
2,
6,
19,
17,
17,
18,
18,
9,
9,
1,
1,
2,
2,
4,
4,
1,
1,
7,
7,
13,
13,
14,
14,
9,
9,
5,
5,
6,
6,
1,
1,
6,
6,
9,
9,
5,
5,
1,
1,
3,
3,
8,
8,
9,
9,
3,
3,
10,
10,
10,
10,
1,
1,
5,
5,
0,
0,
2,
2,
11,
11,
8,
8,
3,
3,
8,
8,
9,
9,
8,
8,
5,
5,
6,
6,
6,
6,
1,
1,
2,
2,
4,
4,
10,
10,
16,
16,
10,
10,
4,
4,
0,
0,
1,
18,
18,
18,
18,
2,
6,
20,
20,
20,
24,
24,
18,
18,
9,
9,
6,
6,
2,
2,
8,
8,
3,
3,
2,
18,
17,
17,
15,
1,
4,
4,
12,
12,
18,
4,
4,
21,
20,
20,
13,
1,
1,
1,
6,
6,
9,
9,
2,
2,
4,
4,
2,
2,
6,
6,
2,
15,
14,
14,
4,
4,
13,
13,
9,
9,
5,
21,
21,
21,
18,
6,
6,
6,
0,
0,
8,
8,
9,
9,
5,
5,
10,
10,
15,
3,
3,
3,
1,
1,
2,
2,
1,
1,
9,
9,
10,
10,
6,
6,
6,
6,
11,
11,
11,
11,
10,
10,
9,
9,
8,
8,
10,
10,
4,
4,
10,
10,
8,
8,
8,
8,
6,
6,
3,
3,
-1,
-1,
0,
0,
0,
0,
0,
0,
1,
1,
6,
6,
10,
10,
1,
12,
10,
10,
5,
5,
9,
9,
11,
11,
8,
8,
14,
26,
25,
13,
13,
13,
10,
10,
6,
6,
1,
1,
5,
5,
8,
8,
9,
9,
10,
10,
12,
12,
6,
6,
0,
0,
2,
2,
4,
4,
2,
2,
0,
0,
2,
2,
5,
5,
6,
6,
6,
6,
5,
5,
2,
2,
-1,
-1,
0,
0,
2,
2,
2,
2,
1,
1,
0,
0,
-1,
-1,
2,
2,
4,
4,
5,
5,
0,
0,
4,
4,
7,
7,
5,
5,
1,
1,
5,
5,
6,
6,
4,
4,
7,
7,
1,
1,
4,
4,
3,
3,
0,
0,
1,
1,
0,
0,
0,
0,
2,
2,
6,
6,
13,
13,
15,
4,
17,
53,
52,
36,
37,
13,
13,
2,
2,
2,
-1,
-1,
9,
21,
20,
20,
28,
28,
27,
27,
23,
23,
17,
17,
11,
11,
5,
5,
1,
1,
28,
28,
26,
26,
29,
29,
20,
20,
15,
15,
10,
10,
2,
2,
7,
7,
16,
16,
14,
2,
9,
20,
19,
19,
10,
10,
3,
3,
12,
12,
12,
0,
1,
1,
0,
0,
6,
6,
8,
8,
3,
3,
9,
9,
16,
1,
2,
2,
6,
6,
14,
1,
3,
3,
9,
9,
8,
8,
1,
1,
4,
4,
6,
6,
1,
1,
8,
8,
11,
11,
1,
1,
3,
3,
0,
0,
1,
1,
-1,
-1,
6,
6,
6,
6,
3,
3,
3,
3,
5,
5,
13,
13,
5,
5,
1,
1,
0,
0,
1,
1,
0,
0,
0,
0,
3,
3,
3,
3,
0,
0,
2,
2,
2,
2,
-1,
-1,
1,
1,
0,
0,
0,
0,
1,
1,
5,
5,
8,
8,
4,
16,
16,
16,
10,
10,
1,
1,
-1,
-1,
1,
1,
1,
1,
-1,
-1,
0,
0,
0,
0,
2,
2,
2,
2,
1,
1,
2,
2,
1,
1,
5,
5,
6,
6,
5,
5,
2,
2,
1,
1,
10,
10,
12,
12,
10,
10,
6,
6,
6,
6,
2,
2,
0,
0,
2,
2,
9,
9,
12,
12,
9,
9,
6,
6,
4,
4,
1,
1,
1,
1,
0,
12,
12,
12,
15,
15,
18,
18,
17,
1,
2,
2,
12,
12,
15,
15,
9,
9,
4,
4,
-1,
13,
12,
12,
13,
13,
11,
11,
19,
3,
4,
25,
25,
10,
10,
10,
6,
6,
8,
8,
6,
6,
4,
4,
0,
0,
6,
6,
2,
2,
7,
7,
12,
12,
9,
9,
1,
14,
14,
14,
10,
10,
13,
13,
13,
13,
10,
10,
6,
6,
2,
2,
2,
2,
5,
5,
7,
7,
11,
11,
11,
11,
8,
8,
3,
3,
0,
0,
3,
3,
6,
6,
7,
7,
0,
0,
2,
2,
0,
0,
2,
2,
11,
11,
6,
17,
16,
29,
28,
28,
22,
9,
9,
9,
1,
1,
2,
2,
6,
6,
4,
4,
0,
0,
6,
19,
18,
18,
19,
19,
10,
10,
2,
2,
1,
1,
5,
5,
6,
6,
2,
2,
2,
2,
2,
2,
6,
6,
2,
2,
6,
6,
10,
10,
8,
8,
2,
2,
0,
0,
1,
1,
2,
2,
-1,
-1,
1,
1,
0,
0,
2,
2,
5,
5,
5,
5,
6,
6,
4,
4,
0,
0,
1,
1,
-1,
-1,
3,
3,
5,
5,
5,
5,
5,
5,
5,
5,
3,
3,
2,
2,
0,
0,
1,
1,
3,
3,
2,
2,
0,
0,
2,
2,
0,
0,
0,
0,
0,
0,
-1,
-1,
1,
1,
4,
4,
4,
4,
1,
1,
2,
2,
5,
5,
12,
12,
18,
18,
10,
10,
3,
23,
23,
23,
30,
30,
29,
9,
9,
9,
13,
13,
8,
25,
25,
25,
18,
2,
6,
6,
15,
15,
18,
18,
17,
17,
17,
17,
17,
5,
6,
6,
9,
9,
10,
10,
2,
2,
2,
2,
3,
3,
6,
6,
2,
2,
10,
10,
9,
9,
12,
12,
22,
22,
25,
4,
4,
4,
3,
3,
3,
3,
6,
6,
8,
8,
6,
6,
6,
6,
7,
7,
9,
9,
5,
5,
2,
2,
3,
3,
2,
2,
8,
8,
9,
9,
12,
12,
8,
8,
2,
13,
12,
12,
8,
8,
3,
3,
5,
5,
9,
9,
8,
8,
2,
2,
4,
4,
8,
8,
18,
18,
19,
4,
4,
4,
5,
5,
3,
3,
3,
3,
10,
10,
6,
6,
1,
1,
1,
1,
2,
2,
-1,
-1,
0,
0,
1,
1,
0,
0,
3,
3,
5,
5,
5,
5,
2,
2,
0,
0,
1,
1,
1,
1,
3,
3,
4,
4,
1,
1,
2,
2,
11,
11,
18,
7,
8,
8,
2,
2,
4,
4,
5,
5,
4,
4,
1,
1,
3,
3,
5,
5,
3,
3,
1,
1,
0,
0,
1,
1,
2,
2,
-1,
-1,
1,
1,
-1,
-1,
-1,
-1,
4,
4,
7,
7,
6,
6,
4,
4,
0,
0,
-1,
-1,
2,
2,
5,
5,
2,
2,
2,
2,
1,
1,
0,
0,
4,
4,
7,
7,
11,
11,
13,
13,
4,
4,
2,
2,
6,
6,
6,
6,
6,
6,
8,
8,
3,
3,
0,
0,
0,
0,
4,
4,
2,
2,
0,
0,
2,
2,
0,
0,
5,
5,
8,
8,
8,
8,
8,
8,
2,
2,
4,
4,
6,
6,
5,
5,
4,
4,
7,
7,
6,
6,
0,
0,
6,
6,
13,
13,
9,
9,
2,
2,
1,
1,
-1,
-1,
4,
4,
11,
11,
13,
1,
2,
2,
8,
8,
1,
1,
2,
2,
3,
3,
5,
20,
20,
33,
32,
32,
22,
2,
6,
21,
21,
21,
26,
26,
17,
1,
1,
1,
6,
6,
4,
4,
2,
2,
2,
2,
0,
0,
2,
2,
2,
2,
1,
1,
-1,
-1,
0,
0,
-1,
-1,
7,
7,
5,
5,
4,
4,
7,
7,
5,
5,
-1,
-1,
6,
21,
21,
21,
14,
1,
6,
6,
11,
11,
14,
14,
9,
9,
3,
3,
10,
10,
10,
10,
2,
20,
18,
18,
26,
13,
14,
1,
2,
2,
1,
1,
10,
10,
9,
9,
6,
6,
4,
4,
1,
1,
2,
2,
6,
6,
2,
2,
5,
5,
5,
5,
1,
1,
0,
0,
4,
4,
10,
10,
10,
10,
0,
12,
11,
11,
15,
2,
2,
2,
5,
5,
14,
14,
12,
12,
10,
10,
14,
14,
12,
1,
2,
14,
13,
13,
3,
3,
0,
0,
0,
0,
5,
5,
8,
8,
10,
10,
12,
0,
2,
2,
5,
5,
4,
4,
7,
7,
5,
5,
2,
2,
1,
1,
1,
1,
3,
3,
8,
8,
1,
1,
9,
9,
14,
2,
7,
27,
26,
10,
11,
11,
5,
5,
10,
10,
13,
13,
8,
8,
4,
4,
5,
5,
1,
1,
10,
10,
10,
10,
6,
6,
1,
1,
0,
0,
2,
2,
7,
7,
0,
0,
2,
2,
6,
6,
6,
6,
4,
4,
9,
9,
5,
5,
4,
4,
7,
7,
7,
7,
7,
7,
3,
18,
17,
17,
22,
11,
11,
11,
4,
4,
13,
13,
14,
14,
10,
10,
9,
9,
6,
6,
1,
1,
5,
5,
8,
8,
5,
5,
2,
2,
1,
1,
1,
1,
6,
6,
9,
9,
10,
10,
2,
2,
5,
5,
7,
7,
11,
11,
9,
9,
7,
7,
3,
14,
13,
1,
2,
2,
9,
9,
13,
13,
12,
12,
14,
14,
10,
10,
6,
6,
1,
1,
-1,
-1,
2,
2,
3,
3,
4,
4,
9,
9,
10,
10,
13,
13,
12,
1,
2,
2,
0,
0,
7,
7,
5,
5,
2,
2,
4,
4,
5,
5,
6,
6,
6,
6,
2,
2,
2,
2,
11,
11,
14,
14,
10,
10,
1,
1,
6,
17,
16,
16,
26,
26,
28,
15,
16,
2,
2,
2,
3,
15,
14,
14,
16,
16,
11,
11,
9,
9,
7,
7,
4,
4,
3,
3,
2,
2,
1,
1,
2,
2,
-1,
-1,
5,
5,
7,
7,
2,
2,
7,
7,
9,
9,
15,
15,
18,
6,
7,
7,
5,
5,
8,
8,
6,
6,
6,
6,
6,
6,
6,
6,
6,
6,
5,
5,
-1,
-1,
6,
6,
10,
10,
13,
13,
6,
6,
2,
2,
10,
10,
8,
8,
1,
1,
4,
4,
6,
6,
1,
1,
6,
6,
13,
1,
2,
23,
22,
22,
16,
1,
2,
2,
5,
5,
5,
5,
9,
9,
8,
8,
2,
2,
4,
4,
3,
3,
2,
2,
6,
6,
9,
9,
1,
1,
0,
0,
0,
0,
6,
6,
2,
2,
9,
9,
6,
6,
0,
0,
8,
8,
8,
8,
6,
6,
1,
17,
16,
16,
17,
17,
13,
13,
13,
13,
11,
11,
6,
21,
21,
21,
18,
1,
2,
2,
2,
2,
1,
1,
0,
0,
1,
1,
6,
6,
5,
5,
1,
1,
1,
1,
4,
4,
5,
5,
1,
1,
1,
1,
2,
2,
1,
1,
1,
1,
4,
4,
2,
2,
3,
3,
2,
2,
3,
3,
5,
5,
2,
2,
-1,
-1,
3,
3,
12,
12,
9,
9,
2,
2,
10,
10,
9,
9,
8,
8,
12,
26,
26,
26,
19,
2,
5,
5,
14,
14,
21,
21,
20,
20,
15,
15,
10,
10,
8,
8,
4,
4,
3,
3,
2,
2,
2,
2,
2,
2,
6,
6,
13,
13,
19,
19,
17,
17,
13,
1,
2,
2,
8,
8,
5,
5,
12,
12,
13,
1,
1,
1,
9,
9,
10,
10,
5,
5,
3,
3,
5,
5,
8,
8,
6,
6,
2,
2,
6,
6,
7,
7,
1,
1,
0,
0,
0,
0,
1,
1,
4,
4,
6,
6,
3,
37,
37,
37,
34,
5,
5,
5,
6,
6,
9,
9,
8,
8,
14,
14,
11,
11,
5,
5,
2,
2,
4,
4,
6,
6,
4,
4,
5,
5,
9,
9,
6,
6,
1,
1,
6,
6,
6,
6,
7,
7,
7,
7,
6,
6,
0,
0,
4,
4,
1,
1,
2,
2,
2,
2,
1,
1,
0,
0,
2,
2,
4,
4,
6,
6,
1,
1,
2,
2,
11,
11,
14,
14,
12,
12,
6,
6,
2,
2,
8,
8,
14,
14,
16,
16,
7,
7,
1,
1,
4,
4,
6,
6,
8,
8,
4,
4,
9,
9,
0,
0,
-1,
-1,
3,
3,
1,
1,
6,
6,
5,
5,
1,
1,
4,
4,
0,
0,
3,
3,
2,
2,
1,
1,
3,
3,
8,
8,
10,
10,
8,
8,
5,
5,
5,
25,
25,
25,
21,
8,
9,
9,
2,
27,
26,
26,
29,
12,
12,
1,
2,
2,
3,
3,
5,
5,
5,
5,
10,
10,
13,
13,
17,
17,
14,
1,
3,
3,
13,
13,
19,
19,
10,
10,
1,
1,
2,
2,
9,
9,
4,
4,
5,
5,
1,
1,
2,
2,
3,
3,
4,
4,
2,
2,
2,
2,
4,
4,
0,
0,
0,
0,
5,
5,
3,
3,
-1,
-1,
3,
3,
4,
16,
15,
15,
10,
10,
1,
1,
4,
4,
5,
5,
4,
4,
2,
2,
1,
1,
1,
1,
4,
4,
2,
2,
1,
1,
3,
3,
1,
1,
5,
5,
2,
2,
1,
1,
9,
9,
14,
14,
14,
14,
6,
6,
2,
2,
6,
6,
2,
2,
3,
3,
4,
4,
2,
2,
1,
1,
7,
7,
13,
0,
1,
1,
7,
7,
12,
12,
8,
8,
6,
6,
3,
3,
6,
6,
12,
12,
4,
4,
2,
2,
0,
0,
-1,
-1,
-2,
-2,
-1,
-1,
2,
2,
0,
0,
1,
1,
2,
2,
2,
2,
1,
1,
4,
4,
1,
1,
10,
10,
9,
9,
-1,
-1,
2,
2,
2,
2,
2,
2,
2,
2,
6,
6,
3,
3,
12,
12,
9,
9,
7,
7,
13,
13,
8,
8,
0,
0,
-1,
-1,
0,
0,
15,
15,
15,
15,
9,
9,
0,
0,
4,
4,
5,
5,
0,
0,
0,
0,
2,
2,
6,
6,
6,
6,
4,
4,
0,
0,
0,
0,
1,
1,
3,
3,
2,
2,
0,
0,
0,
0,
6,
6,
14,
14,
14,
0,
0,
0,
6,
6,
16,
16,
20,
6,
6,
24,
24,
24,
30,
10,
10,
10,
2,
2,
0,
0,
5,
5,
10,
10,
6,
6,
-1,
-1,
-1,
-1,
9,
9,
5,
5,
6,
6,
10,
10,
8,
8,
8,
8,
10,
10,
9,
9,
1,
1,
4,
4,
10,
10,
18,
18,
20,
20,
14,
14,
6,
6,
1,
1,
0,
0,
2,
2,
4,
4,
0,
0,
2,
2,
2,
2,
4,
4,
4,
4,
0,
0,
0,
0,
6,
6,
4,
4,
0,
0,
4,
4,
3,
3,
0,
0,
0,
0,
0,
0,
0,
0,
2,
2,
2,
2,
0,
0,
1,
1,
1,
1,
-1,
-1,
-1,
-1,
1,
1,
1,
1,
4,
4,
6,
6,
1,
1,
8,
8,
7,
7,
2,
2,
0,
0,
3,
3,
3,
3,
2,
2,
2,
2,
2,
2,
1,
1,
-1,
-1,
2,
2,
2,
2,
0,
0,
2,
2,
5,
5,
0,
0,
1,
1,
1,
1,
0,
0,
2,
2,
3,
3,
0,
0,
1,
1,
1,
1,
0,
0,
-1,
-1,
2,
2,
7,
7,
6,
6,
3,
3,
7,
20,
20,
20,
28,
15,
16,
0,
1,
1,
3,
3,
5,
5,
13,
13,
10,
10,
7,
7,
12,
12,
5,
5,
0,
0,
0,
0,
9,
9,
2,
2,
3,
3,
2,
2,
7,
7,
13,
2,
2,
21,
21,
21,
22,
6,
7,
7,
5,
21,
21,
21,
27,
27,
21,
6,
6,
6,
6,
6,
1,
1,
7,
24,
23,
23,
29,
29,
21,
7,
7,
7,
-1,
-1,
3,
3,
8,
8,
3,
20,
20,
20,
15,
1,
1,
1,
2,
2,
6,
6,
1,
1,
4,
4,
4,
4,
3,
3,
1,
1,
9,
9,
2,
2,
0,
0,
9,
9,
13,
1,
2,
2,
9,
9,
4,
4,
12,
12,
15,
15,
13,
13,
4,
4,
1,
1,
0,
0,
0,
0,
2,
2,
10,
10,
5,
5,
2,
2,
9,
9,
8,
8,
6,
6,
0,
0,
5,
5,
2,
2,
2,
2,
8,
8,
18,
18,
14,
14,
5,
5,
4,
4,
12,
12,
13,
13,
5,
5,
1,
1,
0,
0,
8,
8,
7,
7,
2,
2,
6,
6,
1,
1,
2,
2,
5,
5,
3,
3,
3,
3,
2,
2,
2,
2,
5,
5,
11,
11,
10,
10,
6,
6,
2,
2,
2,
2,
1,
1,
5,
5,
14,
14,
12,
12,
6,
6,
-1,
-1,
3,
3,
7,
7,
9,
9,
2,
2,
-1,
-1,
0,
0,
1,
1,
5,
5,
4,
4,
6,
6,
5,
5,
2,
2,
1,
1,
5,
5,
5,
5,
5,
5,
5,
5,
0,
0,
1,
1,
6,
6,
2,
2,
0,
0,
1,
1,
8,
8,
6,
6,
0,
0,
4,
4,
7,
7,
10,
24,
23,
23,
14,
14,
8,
8,
5,
16,
15,
15,
16,
16,
13,
13,
8,
8,
6,
6,
5,
5,
0,
0,
1,
1,
5,
5,
10,
10,
9,
9,
0,
0,
3,
3,
-1,
-1,
-1,
-1,
2,
2,
2,
2,
0,
0,
8,
8,
4,
4,
-1,
-1,
-1,
-1,
2,
2,
6,
6,
8,
8,
5,
5,
9,
9,
12,
1,
2,
2,
1,
1,
10,
10,
1,
1,
4,
4,
5,
19,
19,
4,
5,
5,
10,
10,
9,
9,
11,
11,
