EMG_S3/DS0022.CSV

Memory Length,4000,
Trigger Level,-4.80000e+02,
Source,CH1,
Probe,1.0X,
Vertical Units,V,
Vertical Scale,1.00000e+00,
Vertical Position,0.00000e+00,
Horizontal Units,S,
Horizontal Scale,1.00000e-01,
Horizontal Position,0.0000000e+00,
Horizontal Mode,Roll Mode,
Waveform Last Dot Address,4000,
Sampling Period,4.00000e-04,
Firmware,V1.14,
Time, ,
Mode,Fast,
Waveform Data,
14,
14,
14,
14,
14,
14,
7,
18,
17,
17,
18,
18,
8,
8,
2,
2,
9,
9,
19,
19,
17,
17,
8,
8,
0,
12,
12,
12,
18,
18,
10,
10,
6,
6,
10,
10,
7,
7,
0,
0,
3,
3,
7,
7,
6,
6,
1,
1,
0,
0,
4,
4,
9,
9,
2,
2,
4,
4,
0,
0,
1,
1,
3,
3,
10,
10,
20,
20,
23,
23,
14,
2,
13,
26,
25,
25,
23,
23,
18,
1,
2,
2,
7,
7,
3,
3,
2,
2,
3,
3,
3,
3,
2,
2,
1,
1,
10,
10,
11,
11,
8,
8,
8,
8,
6,
6,
2,
2,
1,
1,
0,
0,
2,
2,
3,
3,
1,
13,
12,
12,
12,
1,
4,
4,
1,
1,
6,
6,
2,
2,
0,
0,
1,
1,
7,
7,
11,
11,
3,
3,
2,
2,
0,
0,
7,
7,
3,
3,
5,
5,
0,
0,
0,
0,
-1,
-1,
1,
1,
7,
7,
5,
5,
5,
5,
7,
7,
1,
1,
1,
1,
2,
2,
0,
0,
2,
2,
3,
3,
2,
2,
4,
4,
0,
0,
1,
1,
2,
2,
1,
1,
0,
0,
2,
2,
2,
2,
5,
5,
2,
14,
14,
14,
6,
6,
9,
9,
17,
17,
8,
8,
6,
6,
4,
4,
2,
2,
7,
19,
18,
18,
19,
19,
14,
14,
10,
10,
8,
8,
5,
5,
1,
1,
8,
26,
26,
26,
25,
5,
5,
5,
8,
8,
8,
8,
1,
1,
5,
5,
2,
2,
10,
10,
9,
9,
1,
1,
4,
4,
3,
3,
4,
4,
9,
9,
6,
25,
25,
25,
18,
5,
6,
6,
5,
5,
0,
0,
1,
1,
10,
10,
10,
10,
12,
12,
4,
4,
8,
8,
13,
1,
2,
13,
13,
13,
6,
6,
1,
1,
1,
1,
11,
11,
20,
5,
6,
6,
5,
5,
2,
2,
5,
5,
5,
5,
12,
12,
6,
6,
2,
13,
13,
13,
8,
8,
2,
2,
8,
8,
9,
9,
5,
5,
13,
13,
12,
12,
5,
5,
0,
0,
5,
5,
1,
1,
1,
14,
13,
13,
22,
22,
26,
6,
7,
7,
14,
14,
22,
22,
17,
17,
14,
14,
12,
12,
9,
9,
6,
6,
12,
0,
1,
1,
-1,
-1,
7,
7,
6,
6,
3,
3,
2,
2,
0,
0,
0,
0,
2,
2,
6,
6,
9,
9,
6,
6,
1,
1,
10,
10,
17,
17,
21,
21,
14,
14,
12,
12,
5,
5,
3,
3,
2,
13,
13,
13,
20,
20,
21,
21,
20,
20,
17,
3,
4,
4,
4,
4,
10,
10,
10,
10,
5,
5,
9,
25,
24,
24,
19,
1,
3,
3,
10,
10,
12,
12,
15,
15,
5,
5,
10,
10,
13,
1,
2,
2,
6,
6,
8,
8,
8,
8,
4,
4,
5,
5,
6,
6,
8,
8,
14,
14,
16,
2,
2,
13,
12,
12,
21,
21,
27,
27,
17,
1,
2,
19,
19,
32,
32,
32,
35,
35,
30,
10,
11,
11,
2,
2,
0,
16,
15,
30,
30,
30,
26,
26,
18,
18,
9,
9,
5,
5,
6,
6,
8,
8,
12,
12,
2,
18,
18,
18,
15,
15,
13,
25,
24,
24,
26,
12,
13,
13,
5,
5,
2,
2,
8,
8,
10,
10,
1,
1,
6,
6,
14,
14,
8,
8,
-1,
-1,
0,
0,
-1,
-1,
2,
2,
2,
2,
5,
5,
14,
14,
12,
12,
10,
10,
2,
2,
2,
2,
4,
4,
4,
4,
1,
1,
8,
8,
10,
10,
2,
2,
4,
4,
1,
1,
7,
7,
10,
10,
9,
9,
1,
1,
0,
0,
12,
12,
8,
8,
1,
1,
10,
10,
10,
10,
4,
4,
1,
1,
4,
4,
4,
4,
2,
14,
13,
2,
3,
3,
8,
8,
6,
23,
22,
22,
18,
18,
20,
20,
14,
1,
4,
4,
13,
13,
17,
17,
15,
15,
13,
13,
8,
8,
0,
0,
1,
1,
7,
7,
7,
7,
2,
2,
2,
2,
-1,
-1,
2,
2,
3,
3,
0,
13,
13,
25,
23,
11,
11,
11,
9,
9,
16,
16,
12,
1,
5,
21,
21,
21,
21,
21,
12,
12,
4,
4,
1,
1,
1,
12,
12,
12,
18,
18,
14,
33,
33,
58,
56,
30,
30,
1,
1,
1,
6,
6,
15,
15,
15,
3,
4,
4,
0,
0,
3,
3,
11,
11,
15,
15,
12,
0,
1,
1,
1,
1,
8,
8,
2,
13,
12,
12,
3,
17,
16,
16,
10,
10,
18,
18,
20,
1,
2,
2,
1,
1,
3,
15,
14,
14,
8,
8,
1,
1,
4,
4,
6,
6,
8,
8,
4,
4,
0,
0,
3,
3,
1,
1,
1,
1,
4,
4,
1,
1,
6,
6,
15,
15,
13,
1,
2,
2,
1,
1,
0,
0,
1,
1,
0,
0,
1,
1,
4,
4,
10,
10,
2,
2,
8,
8,
9,
9,
1,
1,
4,
4,
1,
1,
2,
2,
4,
4,
-1,
-1,
2,
2,
3,
3,
3,
3,
9,
9,
12,
1,
2,
2,
8,
8,
3,
3,
10,
10,
7,
7,
1,
1,
4,
4,
5,
5,
10,
10,
8,
8,
4,
4,
5,
5,
10,
10,
4,
4,
1,
1,
5,
5,
7,
7,
12,
12,
10,
10,
4,
4,
0,
0,
4,
4,
9,
9,
2,
13,
13,
24,
23,
23,
22,
22,
22,
22,
24,
3,
5,
25,
24,
38,
38,
38,
39,
25,
26,
4,
4,
4,
-1,
-1,
4,
4,
10,
10,
4,
4,
-1,
-1,
3,
3,
3,
3,
2,
14,
13,
13,
15,
15,
18,
35,
34,
34,
31,
3,
5,
5,
14,
14,
11,
0,
0,
0,
3,
15,
15,
15,
21,
21,
22,
22,
24,
5,
5,
5,
11,
11,
3,
3,
6,
6,
14,
14,
8,
20,
19,
19,
12,
1,
1,
1,
9,
9,
14,
14,
12,
12,
7,
7,
2,
2,
3,
3,
0,
0,
6,
6,
8,
8,
7,
7,
8,
8,
4,
4,
2,
2,
1,
1,
6,
6,
4,
4,
5,
5,
9,
9,
7,
7,
2,
2,
0,
0,
1,
1,
7,
7,
10,
10,
4,
4,
3,
3,
4,
4,
1,
1,
2,
2,
2,
2,
-1,
-1,
1,
1,
5,
5,
5,
5,
4,
4,
3,
3,
1,
1,
1,
1,
-1,
-1,
-1,
-1,
1,
1,
0,
0,
3,
15,
14,
14,
10,
10,
9,
20,
19,
19,
9,
9,
10,
29,
28,
12,
1,
1,
6,
6,
8,
8,
13,
13,
20,
20,
26,
26,
17,
4,
12,
25,
24,
9,
9,
9,
2,
2,
4,
4,
1,
1,
2,
17,
17,
30,
29,
13,
13,
0,
2,
2,
7,
7,
9,
9,
13,
13,
18,
4,
4,
4,
4,
4,
8,
8,
7,
7,
6,
6,
3,
14,
14,
14,
12,
12,
9,
9,
9,
44,
44,
44,
45,
11,
12,
12,
14,
14,
23,
23,
23,
23,
23,
23,
28,
9,
10,
-1,
2,
2,
12,
12,
6,
33,
33,
33,
38,
24,
24,
12,
12,
12,
7,
7,
6,
6,
1,
18,
18,
18,
24,
24,
17,
2,
6,
6,
14,
14,
13,
13,
15,
15,
8,
8,
6,
19,
18,
18,
26,
26,
22,
10,
10,
10,
1,
18,
18,
45,
44,
44,
50,
25,
25,
6,
6,
6,
14,
29,
29,
29,
26,
26,
20,
20,
14,
14,
12,
12,
6,
6,
2,
2,
2,
2,
8,
8,
2,
2,
6,
6,
13,
13,
14,
14,
13,
13,
12,
12,
10,
10,
12,
12,
19,
5,
6,
6,
9,
9,
10,
10,
6,
6,
3,
3,
2,
2,
5,
5,
3,
3,
5,
5,
4,
4,
2,
2,
4,
4,
4,
4,
2,
2,
12,
12,
10,
10,
5,
5,
6,
6,
9,
9,
6,
6,
0,
0,
1,
1,
5,
5,
6,
6,
2,
2,
4,
4,
7,
32,
32,
32,
27,
3,
4,
4,
2,
2,
1,
1,
4,
4,
6,
6,
6,
6,
10,
10,
9,
9,
6,
6,
14,
25,
23,
23,
18,
1,
2,
2,
7,
7,
14,
31,
31,
31,
39,
28,
28,
9,
10,
10,
10,
24,
24,
24,
28,
28,
28,
28,
21,
2,
2,
2,
10,
10,
9,
9,
16,
31,
31,
31,
26,
2,
3,
3,
0,
0,
0,
14,
13,
13,
20,
20,
14,
14,
6,
6,
5,
5,
8,
8,
13,
13,
6,
6,
10,
10,
18,
18,
20,
20,
14,
1,
2,
2,
8,
8,
12,
12,
6,
21,
20,
32,
31,
31,
28,
28,
18,
2,
8,
21,
21,
21,
17,
17,
12,
12,
12,
12,
7,
7,
10,
10,
10,
10,
10,
10,
1,
1,
8,
8,
5,
5,
1,
1,
-1,
-1,
4,
4,
13,
13,
17,
17,
10,
10,
5,
5,
6,
6,
2,
13,
12,
12,
14,
1,
2,
2,
3,
3,
5,
5,
9,
9,
1,
17,
17,
36,
34,
15,
16,
3,
9,
9,
10,
10,
7,
7,
4,
15,
14,
14,
20,
20,
18,
18,
9,
9,
6,
6,
15,
15,
22,
22,
29,
29,
24,
10,
10,
10,
5,
18,
18,
18,
22,
22,
21,
21,
13,
13,
7,
7,
2,
16,
15,
15,
19,
6,
6,
6,
3,
3,
6,
6,
4,
4,
2,
2,
0,
0,
9,
20,
19,
19,
22,
22,
17,
6,
8,
8,
4,
4,
12,
12,
9,
9,
10,
10,
16,
16,
19,
19,
15,
15,
7,
7,
1,
1,
4,
4,
7,
7,
11,
11,
15,
15,
12,
12,
4,
4,
1,
1,
6,
18,
18,
1,
3,
17,
15,
15,
7,
7,
5,
5,
9,
9,
13,
13,
5,
5,
9,
22,
21,
9,
9,
9,
5,
5,
6,
6,
14,
14,
15,
15,
17,
5,
5,
19,
19,
19,
26,
5,
6,
6,
11,
11,
6,
36,
36,
36,
33,
5,
6,
36,
36,
36,
42,
23,
24,
2,
2,
2,
2,
2,
10,
10,
2,
15,
15,
27,
26,
26,
22,
22,
14,
14,
9,
9,
3,
14,
13,
13,
16,
1,
3,
3,
10,
10,
2,
2,
2,
2,
4,
4,
5,
5,
1,
1,
7,
7,
5,
5,
3,
3,
4,
4,
6,
6,
7,
7,
5,
5,
2,
2,
6,
6,
15,
15,
12,
0,
2,
2,
6,
6,
5,
5,
6,
6,
1,
1,
1,
1,
7,
7,
2,
2,
6,
6,
1,
12,
12,
12,
5,
5,
1,
1,
0,
0,
5,
5,
8,
8,
6,
6,
5,
5,
4,
4,
1,
1,
2,
2,
5,
5,
6,
6,
2,
2,
3,
3,
4,
4,
12,
12,
8,
8,
13,
13,
17,
17,
19,
19,
13,
1,
8,
25,
25,
10,
11,
11,
2,
2,
2,
2,
5,
5,
13,
13,
10,
10,
11,
11,
5,
5,
11,
11,
15,
1,
1,
1,
10,
10,
5,
5,
14,
14,
20,
5,
12,
37,
36,
11,
11,
11,
8,
8,
13,
13,
12,
1,
3,
3,
12,
1,
1,
1,
7,
7,
7,
7,
6,
6,
7,
7,
6,
6,
2,
15,
15,
15,
23,
23,
28,
28,
20,
1,
1,
1,
2,
2,
7,
7,
13,
13,
6,
6,
9,
9,
9,
9,
8,
8,
3,
3,
0,
0,
9,
9,
17,
3,
4,
16,
15,
15,
10,
10,
6,
6,
4,
4,
2,
2,
11,
11,
6,
6,
0,
0,
4,
4,
3,
3,
1,
1,
3,
3,
2,
2,
0,
0,
4,
4,
1,
1,
6,
6,
10,
10,
2,
2,
7,
7,
2,
20,
20,
20,
20,
20,
12,
12,
11,
11,
7,
7,
0,
12,
11,
30,
30,
30,
31,
31,
25,
25,
20,
8,
9,
9,
3,
3,
0,
0,
6,
6,
13,
13,
14,
14,
14,
14,
9,
9,
3,
3,
0,
0,
2,
14,
13,
28,
27,
27,
20,
4,
4,
4,
4,
4,
12,
12,
16,
16,
14,
14,
10,
10,
6,
6,
2,
2,
2,
2,
1,
1,
5,
5,
10,
10,
8,
8,
0,
0,
0,
0,
0,
0,
1,
1,
5,
5,
6,
6,
9,
9,
0,
0,
0,
0,
1,
1,
2,
2,
0,
0,
6,
6,
12,
12,
9,
9,
4,
4,
3,
3,
4,
4,
13,
13,
17,
34,
33,
33,
39,
12,
13,
1,
5,
5,
13,
13,
18,
18,
17,
28,
28,
28,
30,
10,
11,
11,
14,
14,
14,
14,
10,
10,
14,
14,
6,
6,
10,
21,
20,
20,
12,
1,
5,
20,
20,
8,
8,
8,
0,
0,
2,
2,
8,
8,
10,
10,
6,
6,
6,
6,
5,
5,
0,
0,
0,
0,
2,
2,
1,
1,
6,
6,
13,
13,
18,
7,
7,
7,
2,
2,
0,
0,
2,
21,
21,
21,
17,
17,
9,
9,
2,
17,
16,
36,
35,
20,
20,
5,
20,
44,
42,
24,
24,
1,
2,
21,
20,
33,
33,
33,
33,
33,
25,
25,
17,
1,
4,
16,
15,
15,
12,
1,
2,
2,
3,
3,
2,
2,
1,
1,
5,
5,
8,
19,
18,
18,
18,
7,
7,
7,
3,
3,
2,
2,
6,
6,
5,
5,
10,
10,
10,
10,
2,
2,
7,
7,
6,
6,
6,
6,
2,
2,
-1,
-1,
0,
0,
0,
0,
2,
2,
7,
7,
11,
11,
11,
11,
12,
12,
6,
6,
2,
2,
2,
2,
8,
8,
12,
12,
8,
8,
6,
6,
6,
6,
2,
2,
1,
1,
5,
5,
11,
11,
8,
8,
2,
2,
4,
4,
5,
5,
5,
5,
9,
9,
13,
13,
11,
0,
0,
12,
12,
12,
20,
20,
18,
2,
3,
3,
10,
10,
14,
14,
8,
8,
2,
2,
2,
2,
3,
3,
2,
2,
1,
1,
-2,
-2,
1,
1,
1,
1,
8,
8,
10,
10,
10,
10,
7,
7,
6,
6,
6,
6,
2,
2,
8,
8,
6,
6,
4,
4,
4,
4,
2,
17,
16,
16,
25,
5,
5,
27,
27,
44,
43,
29,
30,
2,
3,
3,
9,
9,
2,
2,
5,
5,
14,
14,
17,
17,
14,
14,
15,
2,
6,
20,
18,
18,
10,
-1,
0,
0,
3,
3,
8,
8,
4,
18,
18,
18,
17,
6,
6,
6,
4,
4,
3,
3,
0,
0,
5,
5,
8,
8,
7,
7,
5,
5,
10,
10,
10,
10,
14,
14,
10,
10,
9,
9,
1,
1,
6,
6,
3,
3,
1,
1,
6,
6,
1,
1,
3,
3,
6,
6,
4,
4,
0,
0,
0,
0,
3,
3,
2,
13,
12,
24,
23,
12,
13,
1,
5,
5,
9,
9,
9,
9,
1,
1,
0,
0,
-1,
-1,
3,
15,
14,
14,
20,
20,
10,
10,
6,
6,
2,
2,
9,
9,
10,
10,
9,
9,
1,
1,
2,
2,
6,
6,
0,
0,
2,
2,
0,
0,
0,
11,
10,
10,
20,
20,
15,
1,
3,
22,
22,
22,
28,
28,
18,
18,
10,
10,
2,
2,
4,
4,
7,
7,
9,
9,
10,
10,
17,
17,
14,
0,
1,
1,
6,
19,
18,
18,
17,
17,
10,
10,
9,
9,
4,
22,
22,
22,
18,
2,
3,
3,
0,
0,
9,
9,
16,
16,
7,
7,
3,
3,
0,
0,
1,
1,
2,
2,
6,
6,
5,
5,
5,
5,
1,
1,
3,
3,
3,
3,
3,
3,
0,
0,
-1,
-1,
4,
4,
5,
5,
6,
6,
7,
7,
2,
2,
2,
2,
6,
6,
1,
1,
1,
1,
1,
1,
8,
8,
14,
1,
2,
13,
13,
13,
8,
8,
14,
14,
10,
10,
5,
5,
4,
4,
-1,
-1,
2,
2,
5,
5,
2,
2,
6,
6,
13,
13,
9,
9,
2,
2,
1,
13,
12,
12,
9,
9,
2,
2,
2,
2,
3,
3,
3,
21,
21,
21,
24,
2,
3,
3,
5,
5,
4,
20,
20,
9,
9,
9,
4,
4,
12,
12,
9,
9,
6,
6,
1,
1,
5,
5,
6,
20,
18,
4,
5,
30,
29,
29,
33,
15,
16,
1,
5,
5,
8,
8,
12,
12,
16,
16,
21,
21,
21,
21,
15,
1,
2,
13,
13,
13,
12,
0,
1,
1,
9,
9,
10,
34,
34,
17,
18,
1,
2,
2,
2,
2,
5,
5,
10,
10,
16,
2,
3,
3,
4,
20,
20,
20,
10,
30,
30,
63,
63,
46,
47,
7,
10,
39,
39,
39,
46,
46,
37,
37,
30,
30,
20,
5,
6,
6,
9,
23,
22,
22,
18,
1,
2,
2,
5,
5,
2,
16,
15,
15,
10,
10,
5,
5,
6,
6,
2,
2,
6,
6,
12,
12,
17,
17,
13,
1,
5,
17,
17,
17,
21,
21,
21,
21,
15,
15,
10,
10,
12,
1,
2,
17,
16,
16,
23,
23,
14,
1,
2,
19,
18,
3,
4,
4,
12,
12,
6,
6,
9,
27,
27,
27,
32,
15,
16,
3,
10,
24,
24,
24,
26,
26,
25,
25,
21,
5,
5,
5,
5,
5,
14,
14,
12,
1,
1,
15,
14,
14,
15,
1,
3,
17,
16,
16,
14,
14,
6,
6,
3,
3,
12,
1,
5,
5,
2,
2,
6,
6,
11,
11,
10,
10,
9,
9,
5,
5,
4,
4,
8,
8,
9,
9,
7,
7,
9,
9,
1,
16,
16,
16,
14,
1,
6,
23,
23,
23,
32,
8,
10,
57,
56,
39,
39,
10,
10,
10,
2,
2,
2,
2,
5,
17,
17,
17,
23,
23,
18,
18,
13,
13,
13,
13,
10,
10,
2,
2,
1,
1,
1,
12,
12,
12,
15,
15,
13,
13,
12,
12,
8,
8,
17,
17,
24,
13,
14,
2,
2,
2,
3,
3,
13,
13,
15,
15,
14,
14,
18,
18,
14,
14,
7,
7,
9,
9,
5,
5,
4,
4,
2,
2,
0,
0,
5,
5,
5,
5,
14,
37,
37,
37,
35,
9,
9,
9,
10,
10,
6,
6,
5,
5,
14,
14,
14,
14,
10,
10,
10,
10,
15,
15,
20,
5,
5,
37,
37,
26,
26,
2,
4,
18,
16,
16,
22,
22,
16,
5,
6,
6,
5,
20,
19,
19,
24,
24,
16,
1,
2,
2,
7,
7,
3,
3,
4,
4,
2,
2,
1,
1,
7,
7,
14,
14,
11,
11,
2,
23,
22,
22,
21,
2,
2,
2,
8,
8,
10,
10,
4,
4,
5,
5,
2,
2,
4,
4,
1,
1,
8,
19,
18,
18,
19,
2,
3,
3,
13,
13,
9,
9,
9,
9,
15,
15,
24,
24,
24,
24,
18,
3,
8,
8,
14,
14,
6,
6,
6,
6,
9,
9,
11,
11,
1,
1,
2,
20,
19,
19,
26,
26,
18,
18,
13,
1,
2,
22,
22,
48,
48,
31,
31,
2,
3,
3,
6,
6,
6,
6,
1,
1,
10,
10,
9,
9,
10,
10,
4,
17,
16,
5,
6,
6,
11,
11,
16,
16,
14,
14,
14,
14,
10,
10,
1,
1,
6,
6,
6,
6,
8,
8,
6,
6,
7,
7,
10,
10,
2,
2,
6,
6,
1,
1,
8,
8,
14,
3,
3,
3,
12,
12,
12,
12,
6,
6,
1,
1,
2,
2,
8,
8,
2,
2,
10,
10,
10,
10,
3,
3,
9,
9,
1,
15,
14,
14,
20,
20,
18,
18,
9,
9,
9,
9,
3,
21,
21,
21,
13,
1,
6,
18,
18,
18,
20,
20,
21,
21,
19,
19,
14,
14,
9,
9,
2,
2,
11,
11,
10,
10,
11,
11,
8,
8,
7,
7,
7,
7,
5,
5,
3,
3,
4,
4,
7,
7,
1,
1,
5,
5,
3,
17,
17,
17,
12,
12,
6,
6,
2,
2,
7,
7,
3,
3,
10,
10,
14,
14,
9,
9,
6,
6,
2,
2,
-1,
-1,
0,
0,
6,
6,
9,
9,
5,
24,
23,
23,
18,
18,
11,
11,
2,
2,
10,
10,
12,
12,
12,
12,
9,
9,
0,
0,
0,
0,
2,
2,
4,
4,
2,
2,
4,
4,
9,
9,
13,
13,
7,
7,
0,
0,
3,
3,
4,
4,
12,
1,
2,
2,
10,
10,
6,
6,
0,
0,
1,
1,
3,
3,
3,
3,
0,
0,
2,
2,
-1,
-1,
1,
1,
1,
1,
2,
2,
0,
0,
5,
5,
6,
6,
0,
0,
2,
2,
10,
10,
14,
1,
1,
1,
-1,
-1,
3,
3,
6,
6,
8,
8,
6,
6,
3,
3,
6,
17,
16,
16,
13,
1,
5,
5,
10,
30,
30,
43,
41,
20,
20,
4,
13,
27,
26,
26,
28,
41,
39,
8,
9,
9,
14,
2,
7,
7,
14,
14,
10,
10,
2,
2,
10,
25,
25,
25,
27,
27,
19,
6,
6,
6,
2,
2,
2,
2,
0,
0,
5,
16,
15,
15,
20,
20,
22,
22,
18,
18,
18,
4,
14,
30,
29,
29,
26,
26,
24,
24,
21,
10,
10,
10,
2,
20,
20,
32,
29,
5,
5,
5,
6,
6,
5,
5,
2,
14,
14,
2,
5,
25,
24,
12,
12,
0,
3,
3,
12,
12,
14,
14,
4,
4,
-1,
-1,
4,
4,
4,
4,
0,
0,
1,
1,
-2,
-2,
0,
0,
-1,
-1,
6,
6,
7,
7,
-1,
-1,
7,
7,
14,
2,
3,
3,
2,
2,
10,
10,
16,
4,
5,
5,
-1,
-1,
0,
14,
14,
26,
25,
25,
21,
9,
9,
9,
14,
33,
33,
33,
24,
4,
4,
4,
6,
6,
13,
13,
21,
21,
25,
25,
18,
18,
11,
11,
4,
4,
6,
21,
20,
20,
15,
4,
4,
4,
9,
25,
25,
25,
19,
3,
6,
6,
5,
20,
20,
8,
8,
8,
4,
4,
14,
14,
21,
21,
21,
10,
11,
11,
7,
7,
2,
13,
12,
12,
10,
10,
9,
20,
18,
18,
13,
13,
7,
7,
1,
14,
14,
14,
10,
10,
9,
9,
10,
10,
6,
6,
12,
12,
17,
17,
10,
10,
3,
3,
10,
10,
3,
3,
2,
2,
1,
1,
2,
2,
2,
2,
4,
4,
7,
7,
9,
9,
1,
1,
0,
0,
4,
4,
1,
12,
10,
10,
14,
1,
2,
2,
5,
5,
1,
1,
10,
10,
18,
18,
25,
25,
21,
3,
5,
5,
9,
9,
10,
10,
3,
17,
16,
16,
14,
2,
6,
6,
2,
14,
14,
14,
7,
7,
3,
3,
10,
10,
14,
14,
15,
15,
10,
10,
5,
5,
3,
3,
1,
1,
6,
6,
6,
6,
1,
1,
5,
5,
7,
7,
2,
2,
2,
13,
13,
13,
21,
43,
42,
42,
37,
6,
6,
6,
6,
6,
12,
26,
25,
38,
37,
37,
40,
40,
30,
30,
23,
23,
16,
2,
3,
3,
1,
16,
15,
34,
32,
19,
19,
1,
2,
2,
3,
21,
20,
20,
20,
20,
11,
11,
5,
5,
5,
5,
2,
2,
0,
0,
4,
4,
4,
4,
3,
3,
5,
5,
1,
1,
1,
1,
2,
2,
9,
9,
15,
15,
12,
12,
12,
12,
18,
18,
14,
14,
8,
8,
2,
2,
1,
1,
10,
26,
26,
26,
34,
34,
33,
11,
12,
1,
4,
4,
2,
2,
2,
2,
5,
5,
6,
6,
9,
9,
15,
15,
18,
18,
18,
18,
21,
21,
14,
2,
6,
24,
24,
24,
31,
31,
32,
21,
21,
6,
6,
6,
5,
5,
11,
11,
10,
10,
16,
1,
3,
3,
2,
2,
0,
0,
4,
4,
8,
8,
6,
29,
28,
28,
30,
19,
19,
7,
8,
8,
3,
3,
1,
1,
4,
4,
7,
21,
20,
20,
14,
0,
1,
1,
1,
30,
30,
46,
42,
10,
10,
10,
8,
8,
4,
4,
10,
10,
3,
16,
15,
15,
19,
19,
14,
14,
8,
8,
9,
25,
25,
25,
16,
1,
2,
14,
14,
14,
18,
18,
18,
18,
8,
8,
2,
2,
2,
2,
6,
6,
0,
0,
1,
1,
-1,
-1,
3,
3,
2,
2,
1,
1,
0,
0,
5,
5,
10,
10,
7,
7,
0,
0,
-1,
-1,
2,
2,
5,
5,
9,
9,
10,
10,
2,
2,
4,
4,
1,
1,
3,
3,
9,
9,
10,
10,
0,
0,
0,
0,
3,
3,
0,
0,
4,
4,
10,
10,
7,
7,
3,
3,
5,
5,
6,
6,
8,
8,
13,
13,
12,
1,
1,
21,
21,
32,
31,
18,
19,
2,
5,
5,
14,
14,
7,
7,
0,
14,
13,
13,
21,
21,
14,
1,
4,
19,
19,
30,
30,
30,
34,
6,
6,
26,
25,
13,
13,
13,
5,
5,
4,
4,
5,
5,
2,
2,
2,
2,
2,
2,
9,
9,
5,
5,
3,
3,
5,
5,
7,
7,
1,
1,
7,
7,
9,
9,
10,
10,
12,
12,
13,
1,
2,
2,
8,
8,
