EMG_S3/DS0053.CSV

Memory Length,4000,
Trigger Level,-4.80000e+02,
Source,CH1,
Probe,1.0X,
Vertical Units,V,
Vertical Scale,1.00000e+00,
Vertical Position,0.00000e+00,
Horizontal Units,S,
Horizontal Scale,1.00000e-01,
Horizontal Position,0.0000000e+00,
Horizontal Mode,Roll Mode,
Waveform Last Dot Address,4000,
Sampling Period,4.00000e-04,
Firmware,V1.14,
Time, ,
Mode,Fast,
Waveform Data,
9,
9,
2,
15,
14,
14,
19,
1,
2,
2,
6,
6,
14,
14,
5,
5,
7,
7,
0,
0,
8,
8,
10,
10,
2,
2,
2,
2,
2,
2,
3,
3,
4,
4,
9,
22,
21,
21,
18,
18,
8,
8,
4,
4,
11,
11,
12,
12,
13,
13,
15,
15,
17,
3,
4,
15,
14,
14,
6,
6,
9,
23,
22,
22,
23,
12,
12,
1,
5,
5,
11,
11,
10,
10,
6,
6,
2,
2,
1,
1,
6,
6,
7,
7,
4,
4,
2,
13,
13,
1,
2,
2,
10,
10,
9,
9,
4,
4,
10,
10,
2,
2,
2,
2,
1,
1,
2,
2,
2,
2,
2,
2,
7,
7,
13,
13,
12,
12,
2,
2,
10,
10,
7,
7,
13,
24,
22,
5,
5,
5,
2,
2,
8,
8,
10,
10,
8,
8,
7,
7,
2,
2,
0,
0,
1,
1,
4,
4,
6,
6,
7,
7,
1,
1,
11,
11,
11,
11,
10,
10,
2,
2,
5,
5,
5,
5,
2,
2,
0,
0,
2,
2,
0,
0,
0,
0,
1,
1,
6,
6,
3,
3,
2,
2,
12,
12,
18,
6,
6,
6,
3,
3,
1,
1,
3,
3,
5,
5,
5,
5,
6,
6,
10,
10,
6,
6,
2,
2,
-1,
-1,
1,
1,
1,
1,
4,
4,
13,
13,
16,
16,
10,
10,
4,
4,
9,
9,
6,
6,
3,
3,
3,
3,
1,
1,
2,
2,
1,
1,
6,
6,
6,
6,
4,
4,
2,
2,
1,
1,
0,
0,
9,
9,
18,
18,
8,
8,
4,
4,
12,
12,
6,
6,
0,
0,
5,
5,
3,
3,
6,
6,
11,
11,
6,
6,
1,
1,
-1,
-1,
-1,
-1,
7,
18,
18,
18,
9,
9,
8,
21,
21,
9,
9,
9,
0,
0,
3,
25,
24,
12,
12,
12,
11,
11,
16,
16,
14,
14,
17,
17,
13,
1,
2,
2,
1,
1,
10,
10,
1,
14,
14,
27,
26,
6,
6,
6,
5,
5,
4,
4,
1,
1,
10,
10,
13,
2,
2,
2,
5,
5,
6,
6,
5,
5,
4,
4,
0,
0,
6,
6,
6,
6,
1,
1,
0,
0,
0,
0,
0,
0,
-1,
-1,
3,
3,
9,
9,
11,
0,
4,
20,
18,
6,
6,
6,
0,
0,
3,
3,
9,
9,
2,
2,
6,
6,
6,
6,
3,
3,
0,
0,
0,
0,
0,
0,
0,
0,
2,
2,
1,
1,
0,
0,
3,
3,
1,
1,
2,
2,
4,
4,
14,
14,
9,
9,
1,
1,
2,
2,
5,
5,
2,
2,
6,
6,
10,
10,
11,
11,
12,
27,
25,
3,
4,
17,
15,
4,
18,
18,
11,
11,
6,
6,
7,
7,
8,
8,
2,
22,
22,
22,
14,
1,
4,
31,
31,
31,
28,
5,
10,
10,
15,
0,
1,
1,
5,
5,
3,
3,
12,
12,
8,
8,
1,
1,
6,
6,
8,
8,
2,
2,
-1,
-1,
0,
0,
0,
0,
1,
1,
5,
5,
6,
6,
4,
4,
2,
2,
4,
4,
7,
7,
10,
10,
11,
11,
8,
8,
2,
14,
14,
14,
13,
0,
0,
0,
3,
3,
5,
5,
2,
2,
0,
0,
4,
4,
7,
7,
14,
14,
16,
3,
8,
30,
29,
16,
17,
1,
1,
1,
6,
6,
9,
9,
10,
10,
2,
2,
2,
2,
4,
4,
0,
0,
5,
5,
4,
4,
-1,
-1,
1,
1,
0,
0,
8,
8,
13,
13,
8,
8,
0,
0,
4,
4,
8,
8,
5,
5,
0,
0,
1,
1,
0,
0,
-1,
-1,
0,
0,
1,
1,
0,
0,
2,
2,
-1,
-1,
20,
8,
8,
8,
16,
16,
19,
19,
13,
2,
2,
2,
3,
3,
8,
8,
12,
12,
11,
11,
9,
9,
6,
6,
0,
11,
11,
30,
29,
29,
22,
1,
2,
2,
8,
8,
10,
10,
13,
13,
11,
11,
12,
12,
18,
6,
6,
6,
6,
20,
18,
2,
2,
16,
15,
15,
8,
8,
0,
0,
5,
5,
11,
11,
12,
12,
12,
12,
9,
9,
12,
12,
11,
11,
8,
8,
2,
15,
14,
14,
21,
21,
14,
14,
9,
9,
11,
11,
15,
15,
8,
8,
10,
10,
16,
16,
21,
21,
15,
15,
5,
5,
2,
2,
6,
6,
1,
1,
2,
2,
1,
1,
-1,
-1,
5,
5,
10,
10,
2,
2,
7,
7,
10,
10,
2,
2,
5,
5,
8,
8,
8,
8,
11,
11,
10,
10,
8,
8,
5,
5,
0,
0,
5,
5,
6,
6,
6,
6,
5,
5,
0,
0,
6,
6,
5,
5,
1,
1,
0,
0,
5,
5,
10,
10,
10,
10,
4,
4,
4,
4,
3,
3,
0,
0,
9,
9,
9,
9,
1,
1,
4,
4,
10,
10,
18,
18,
9,
9,
13,
13,
10,
10,
1,
1,
7,
7,
10,
10,
9,
9,
10,
10,
8,
8,
1,
1,
8,
8,
4,
4,
5,
5,
3,
3,
-1,
-1,
1,
1,
2,
2,
6,
6,
2,
2,
4,
4,
6,
6,
3,
3,
0,
0,
1,
1,
7,
7,
1,
1,
10,
10,
18,
18,
17,
3,
4,
4,
2,
2,
0,
0,
1,
1,
5,
5,
1,
15,
14,
32,
32,
32,
38,
38,
30,
30,
25,
5,
14,
35,
34,
34,
38,
38,
37,
26,
27,
9,
10,
10,
3,
3,
-1,
-1,
4,
4,
2,
2,
10,
10,
17,
17,
13,
13,
11,
11,
6,
6,
-1,
-1,
0,
0,
7,
7,
7,
7,
6,
18,
16,
4,
4,
4,
8,
8,
16,
16,
18,
7,
8,
8,
2,
2,
9,
9,
9,
9,
11,
11,
2,
13,
13,
13,
20,
20,
12,
12,
7,
7,
4,
4,
10,
10,
2,
2,
1,
1,
2,
2,
1,
1,
8,
8,
13,
13,
8,
8,
1,
1,
6,
6,
3,
3,
1,
1,
8,
8,
13,
1,
2,
13,
13,
13,
9,
9,
11,
11,
14,
0,
2,
2,
10,
10,
8,
8,
3,
3,
1,
1,
0,
0,
1,
1,
1,
1,
3,
3,
5,
5,
1,
1,
4,
4,
6,
6,
3,
3,
4,
4,
8,
8,
12,
12,
6,
20,
18,
33,
32,
14,
15,
0,
2,
2,
10,
10,
11,
11,
3,
3,
0,
0,
3,
3,
6,
6,
4,
4,
8,
8,
2,
2,
4,
4,
4,
4,
9,
9,
8,
8,
9,
9,
8,
8,
8,
8,
1,
1,
1,
1,
6,
6,
14,
14,
16,
29,
28,
28,
1,
1,
2,
14,
14,
14,
19,
19,
13,
13,
14,
14,
8,
8,
1,
1,
2,
2,
2,
2,
2,
2,
5,
20,
19,
19,
15,
1,
3,
3,
9,
9,
12,
12,
5,
5,
1,
1,
0,
0,
-1,
-1,
1,
1,
5,
5,
0,
0,
1,
1,
4,
4,
2,
2,
1,
1,
3,
3,
4,
4,
5,
5,
10,
10,
1,
1,
3,
3,
4,
4,
2,
2,
1,
1,
0,
0,
-1,
-1,
3,
3,
5,
5,
2,
2,
1,
1,
-1,
-1,
0,
0,
3,
3,
2,
2,
2,
2,
0,
0,
3,
3,
2,
2,
2,
2,
0,
0,
1,
1,
3,
3,
2,
2,
3,
3,
1,
1,
0,
0,
0,
0,
2,
2,
1,
1,
1,
1,
3,
3,
1,
1,
0,
0,
0,
0,
1,
1,
4,
4,
6,
6,
5,
5,
-1,
-1,
3,
3,
12,
12,
14,
14,
6,
6,
-1,
-1,
1,
1,
1,
1,
0,
0,
1,
1,
4,
4,
7,
7,
10,
10,
12,
12,
15,
4,
4,
4,
5,
5,
8,
8,
2,
2,
3,
36,
35,
35,
42,
20,
20,
1,
4,
4,
12,
12,
14,
14,
13,
13,
13,
13,
12,
12,
13,
13,
15,
15,
12,
12,
6,
6,
0,
0,
9,
9,
10,
10,
16,
16,
13,
13,
10,
10,
12,
27,
27,
27,
28,
3,
4,
19,
18,
18,
26,
26,
25,
25,
22,
3,
6,
19,
18,
18,
10,
10,
5,
5,
4,
4,
2,
2,
2,
2,
6,
6,
8,
8,
6,
6,
0,
0,
2,
2,
8,
8,
5,
5,
1,
1,
1,
1,
3,
3,
5,
5,
1,
1,
5,
5,
13,
13,
12,
12,
5,
5,
1,
1,
7,
7,
9,
9,
5,
5,
6,
6,
8,
8,
3,
3,
4,
4,
2,
2,
0,
0,
0,
0,
0,
0,
4,
4,
10,
10,
10,
10,
5,
5,
0,
0,
-2,
-2,
2,
2,
3,
3,
2,
2,
0,
0,
2,
2,
0,
0,
0,
0,
0,
0,
1,
21,
21,
21,
18,
1,
2,
2,
2,
2,
-1,
-1,
5,
5,
8,
8,
9,
9,
5,
5,
2,
2,
0,
0,
2,
2,
5,
5,
7,
7,
6,
6,
1,
1,
3,
3,
7,
7,
9,
9,
2,
2,
4,
4,
6,
6,
13,
2,
2,
2,
10,
10,
5,
5,
0,
0,
3,
3,
10,
10,
6,
6,
1,
1,
10,
10,
12,
1,
2,
2,
1,
1,
-2,
-2,
0,
0,
1,
1,
1,
1,
9,
9,
12,
1,
3,
3,
10,
10,
10,
10,
8,
8,
1,
1,
0,
0,
4,
4,
4,
4,
2,
22,
22,
9,
9,
9,
10,
10,
19,
19,
16,
5,
5,
5,
2,
2,
5,
5,
6,
6,
5,
5,
0,
0,
2,
2,
-1,
-1,
2,
2,
3,
3,
4,
4,
2,
2,
2,
2,
5,
5,
4,
4,
2,
2,
3,
25,
24,
24,
22,
22,
13,
2,
3,
3,
5,
5,
8,
8,
9,
9,
5,
5,
0,
15,
14,
14,
12,
1,
2,
2,
2,
2,
0,
0,
0,
0,
4,
4,
13,
13,
12,
12,
7,
7,
5,
5,
2,
2,
1,
1,
7,
7,
14,
14,
21,
10,
12,
0,
1,
1,
8,
8,
9,
9,
1,
1,
1,
1,
5,
5,
9,
9,
4,
4,
3,
3,
13,
13,
12,
12,
4,
4,
0,
0,
4,
4,
4,
4,
1,
1,
4,
4,
3,
3,
0,
0,
2,
2,
3,
3,
4,
4,
1,
1,
2,
2,
0,
0,
2,
2,
1,
1,
0,
0,
4,
4,
0,
0,
4,
4,
7,
7,
0,
0,
5,
5,
10,
10,
4,
15,
14,
14,
5,
5,
11,
11,
12,
1,
1,
1,
9,
9,
18,
18,
21,
4,
7,
37,
37,
37,
33,
10,
10,
10,
6,
19,
18,
18,
10,
10,
3,
3,
1,
1,
4,
4,
1,
1,
4,
4,
3,
3,
0,
0,
2,
2,
0,
0,
6,
6,
4,
4,
1,
1,
11,
11,
9,
9,
1,
1,
3,
3,
1,
1,
3,
3,
-1,
-1,
0,
0,
0,
0,
1,
1,
2,
2,
4,
4,
0,
0,
1,
1,
9,
9,
5,
5,
10,
22,
21,
21,
14,
0,
1,
1,
7,
7,
14,
14,
14,
14,
13,
1,
3,
3,
7,
7,
9,
9,
3,
3,
3,
3,
5,
5,
5,
5,
5,
5,
1,
1,
1,
1,
5,
5,
3,
3,
5,
5,
4,
4,
4,
4,
2,
2,
2,
2,
1,
1,
6,
6,
5,
5,
3,
3,
2,
2,
3,
3,
2,
2,
3,
3,
1,
1,
5,
5,
4,
4,
11,
11,
16,
2,
4,
4,
6,
6,
10,
10,
11,
11,
8,
8,
4,
4,
1,
1,
1,
1,
0,
0,
2,
2,
0,
0,
1,
1,
2,
2,
7,
7,
13,
13,
7,
28,
28,
58,
57,
38,
38,
8,
8,
8,
9,
20,
20,
20,
17,
17,
15,
15,
17,
17,
14,
14,
8,
8,
8,
8,
2,
2,
8,
19,
18,
18,
16,
16,
9,
9,
7,
7,
2,
2,
7,
7,
8,
8,
6,
6,
5,
5,
1,
1,
0,
0,
6,
6,
6,
6,
1,
1,
1,
1,
1,
1,
-1,
-1,
5,
5,
6,
6,
3,
3,
-1,
-1,
0,
0,
2,
2,
1,
1,
5,
5,
7,
7,
9,
9,
6,
6,
7,
29,
28,
28,
28,
12,
12,
0,
0,
0,
6,
6,
13,
13,
17,
17,
12,
12,
4,
4,
2,
2,
10,
10,
12,
0,
1,
1,
3,
3,
5,
5,
6,
6,
7,
7,
6,
6,
7,
7,
7,
7,
6,
6,
0,
0,
2,
2,
3,
16,
15,
15,
6,
6,
6,
6,
13,
13,
13,
13,
9,
9,
3,
3,
0,
0,
0,
0,
-1,
-1,
1,
1,
2,
2,
2,
2,
5,
5,
7,
7,
10,
10,
17,
17,
12,
12,
7,
7,
7,
18,
16,
1,
2,
2,
2,
14,
14,
14,
15,
0,
2,
2,
5,
5,
2,
14,
14,
14,
11,
27,
26,
26,
30,
4,
5,
5,
8,
8,
7,
7,
4,
4,
2,
2,
5,
5,
0,
0,
6,
6,
4,
4,
2,
2,
3,
3,
3,
3,
8,
8,
2,
13,
13,
13,
9,
9,
0,
0,
0,
0,
0,
0,
6,
6,
12,
12,
8,
8,
0,
0,
3,
3,
0,
0,
1,
1,
-1,
-1,
7,
7,
12,
12,
10,
10,
6,
6,
7,
7,
8,
8,
6,
6,
0,
0,
0,
0,
2,
2,
8,
8,
3,
17,
16,
16,
12,
12,
4,
4,
8,
8,
12,
12,
6,
6,
2,
2,
0,
0,
5,
5,
12,
12,
14,
0,
1,
1,
2,
2,
4,
4,
5,
5,
0,
0,
0,
0,
2,
2,
2,
2,
0,
0,
5,
5,
0,
0,
2,
2,
6,
6,
7,
7,
7,
7,
5,
5,
3,
3,
4,
4,
1,
1,
4,
4,
4,
4,
3,
3,
6,
6,
9,
9,
1,
1,
6,
6,
13,
13,
14,
14,
5,
5,
2,
2,
10,
10,
15,
15,
11,
11,
5,
5,
14,
14,
8,
8,
0,
0,
0,
0,
0,
0,
0,
0,
2,
2,
5,
5,
8,
8,
4,
4,
13,
13,
6,
6,
1,
1,
6,
6,
1,
1,
0,
0,
1,
1,
-1,
-1,
5,
5,
6,
6,
5,
5,
5,
5,
0,
0,
3,
3,
7,
7,
11,
0,
1,
1,
3,
3,
1,
1,
10,
10,
6,
6,
3,
3,
7,
7,
6,
6,
3,
3,
9,
9,
14,
1,
1,
12,
11,
11,
8,
8,
12,
12,
14,
14,
13,
1,
2,
2,
6,
6,
6,
6,
8,
8,
1,
1,
6,
6,
10,
10,
11,
0,
1,
1,
1,
1,
6,
6,
12,
12,
6,
6,
14,
40,
40,
40,
38,
21,
22,
10,
10,
10,
2,
2,
9,
9,
14,
14,
14,
14,
14,
14,
13,
13,
9,
9,
5,
5,
3,
3,
-1,
-1,
0,
0,
5,
5,
9,
9,
6,
6,
1,
1,
1,
1,
4,
4,
4,
4,
4,
4,
6,
6,
7,
7,
6,
6,
8,
8,
3,
3,
0,
0,
6,
6,
7,
7,
8,
8,
9,
9,
6,
6,
2,
2,
1,
1,
1,
1,
-1,
-1,
-1,
-1,
-1,
-1,
-1,
-1,
1,
1,
2,
2,
1,
1,
1,
1,
0,
0,
4,
4,
1,
13,
13,
13,
20,
8,
8,
8,
4,
4,
6,
6,
0,
0,
4,
4,
2,
2,
2,
2,
1,
1,
8,
8,
3,
3,
8,
8,
9,
9,
7,
7,
9,
9,
9,
9,
3,
3,
6,
6,
2,
2,
1,
24,
24,
24,
32,
12,
12,
1,
2,
2,
8,
8,
10,
10,
5,
5,
2,
2,
1,
1,
6,
6,
6,
6,
3,
3,
1,
1,
-1,
-1,
1,
1,
2,
2,
3,
3,
1,
1,
7,
7,
5,
5,
4,
4,
13,
13,
9,
9,
1,
1,
0,
0,
-1,
-1,
3,
3,
6,
6,
2,
2,
2,
2,
11,
11,
14,
14,
8,
8,
1,
1,
2,
2,
2,
2,
8,
8,
3,
3,
2,
2,
10,
10,
10,
10,
16,
33,
30,
5,
8,
25,
24,
24,
21,
21,
16,
16,
7,
7,
1,
1,
3,
3,
0,
0,
9,
9,
14,
14,
9,
9,
1,
1,
2,
2,
5,
5,
8,
8,
6,
6,
-1,
-1,
2,
2,
2,
2,
1,
1,
4,
4,
4,
4,
3,
14,
14,
25,
24,
11,
11,
11,
7,
7,
14,
14,
11,
11,
2,
2,
1,
1,
3,
3,
4,
4,
3,
3,
0,
0,
2,
2,
4,
4,
4,
4,
0,
0,
4,
4,
2,
2,
1,
1,
1,
1,
9,
9,
2,
2,
1,
1,
8,
8,
1,
1,
0,
0,
3,
3,
3,
3,
-1,
-1,
-1,
-1,
3,
3,
6,
6,
3,
3,
1,
1,
0,
0,
1,
1,
1,
1,
1,
1,
3,
3,
3,
3,
5,
5,
6,
6,
5,
5,
4,
4,
4,
4,
0,
0,
8,
8,
6,
6,
-1,
-1,
0,
0,
5,
5,
8,
8,
14,
36,
35,
22,
23,
2,
2,
13,
13,
13,
16,
16,
13,
13,
12,
12,
14,
14,
12,
12,
4,
4,
0,
0,
1,
1,
1,
1,
10,
10,
15,
15,
9,
9,
5,
5,
6,
6,
10,
10,
4,
4,
5,
5,
10,
10,
5,
5,
1,
1,
5,
5,
2,
2,
4,
4,
2,
2,
2,
2,
-1,
-1,
1,
1,
2,
2,
0,
0,
1,
1,
10,
10,
5,
5,
15,
26,
26,
14,
14,
3,
4,
4,
6,
6,
5,
5,
1,
1,
6,
6,
1,
1,
10,
10,
15,
15,
10,
10,
5,
5,
0,
0,
2,
2,
1,
1,
1,
1,
6,
6,
9,
9,
3,
3,
7,
26,
25,
25,
19,
6,
7,
7,
1,
1,
-2,
-2,
0,
0,
0,
0,
0,
0,
-1,
-1,
1,
1,
2,
2,
7,
7,
8,
8,
8,
8,
4,
4,
13,
13,
14,
14,
5,
5,
0,
0,
9,
9,
15,
15,
10,
10,
7,
7,
2,
2,
-1,
-1,
4,
20,
20,
20,
28,
28,
26,
26,
20,
2,
2,
2,
5,
5,
10,
10,
8,
22,
22,
37,
37,
37,
30,
30,
26,
26,
18,
18,
8,
8,
2,
2,
4,
4,
8,
8,
10,
10,
13,
13,
20,
20,
16,
16,
12,
12,
12,
12,
9,
9,
1,
1,
2,
2,
5,
5,
1,
1,
6,
6,
6,
6,
5,
5,
3,
3,
7,
7,
11,
11,
6,
6,
2,
2,
5,
5,
8,
8,
10,
10,
6,
6,
3,
3,
10,
10,
8,
8,
0,
0,
1,
1,
-1,
-1,
5,
5,
8,
8,
8,
8,
2,
2,
11,
11,
6,
6,
8,
8,
6,
6,
3,
3,
12,
12,
13,
0,
1,
12,
12,
12,
14,
14,
5,
5,
5,
5,
13,
13,
20,
2,
5,
18,
18,
18,
14,
2,
2,
2,
4,
4,
5,
5,
2,
2,
8,
8,
7,
7,
4,
4,
4,
4,
2,
2,
3,
3,
2,
2,
5,
20,
20,
20,
13,
0,
1,
1,
2,
2,
4,
15,
14,
14,
12,
12,
12,
12,
14,
14,
16,
2,
2,
2,
0,
0,
6,
6,
4,
4,
10,
10,
13,
13,
13,
13,
16,
16,
13,
13,
9,
9,
9,
9,
2,
2,
6,
6,
10,
10,
9,
9,
9,
9,
13,
13,
12,
12,
10,
10,
2,
2,
8,
8,
10,
10,
4,
4,
0,
0,
6,
6,
15,
15,
16,
16,
16,
16,
10,
10,
3,
3,
10,
10,
6,
6,
7,
7,
13,
2,
8,
40,
40,
40,
32,
6,
6,
6,
1,
14,
14,
14,
22,
6,
6,
6,
6,
6,
2,
2,
1,
1,
2,
2,
4,
4,
3,
3,
8,
8,
3,
3,
3,
3,
2,
2,
1,
1,
-2,
-2,
-1,
-1,
6,
6,
6,
6,
1,
13,
13,
13,
17,
6,
6,
6,
1,
1,
5,
5,
1,
1,
0,
0,
2,
2,
1,
1,
1,
1,
-1,
-1,
-1,
-1,
4,
4,
11,
0,
1,
1,
5,
5,
0,
0,
0,
0,
0,
0,
3,
3,
8,
8,
10,
10,
7,
7,
1,
1,
5,
5,
13,
13,
9,
9,
5,
20,
20,
9,
10,
10,
6,
6,
12,
12,
18,
5,
6,
22,
21,
21,
26,
1,
2,
2,
5,
5,
8,
8,
6,
6,
12,
1,
6,
6,
11,
11,
11,
11,
13,
13,
10,
10,
8,
8,
8,
8,
5,
17,
14,
26,
24,
8,
8,
8,
6,
6,
5,
5,
8,
8,
7,
7,
2,
2,
1,
1,
4,
4,
2,
2,
5,
20,
20,
20,
17,
3,
4,
4,
14,
14,
18,
18,
14,
14,
17,
4,
5,
5,
12,
12,
9,
9,
3,
3,
8,
8,
6,
6,
1,
1,
-1,
-1,
1,
1,
-1,
-1,
7,
7,
9,
9,
9,
9,
10,
10,
7,
7,
3,
3,
6,
6,
7,
7,
1,
1,
1,
1,
2,
2,
0,
0,
0,
0,
8,
8,
8,
8,
2,
2,
1,
1,
6,
6,
5,
5,
3,
3,
7,
7,
0,
0,
-1,
-1,
-1,
-1,
4,
4,
14,
14,
14,
14,
8,
8,
1,
1,
2,
2,
0,
0,
5,
5,
6,
6,
1,
1,
2,
2,
2,
2,
2,
2,
7,
7,
7,
7,
1,
1,
0,
0,
0,
0,
6,
6,
8,
8,
6,
6,
6,
6,
4,
4,
1,
1,
2,
2,
11,
11,
11,
11,
1,
1,
9,
9,
12,
12,
3,
3,
6,
6,
0,
0,
5,
5,
7,
7,
4,
4,
6,
6,
6,
6,
1,
1,
6,
6,
11,
11,
10,
10,
2,
2,
10,
10,
9,
9,
2,
2,
4,
4,
3,
3,
-1,
-1,
2,
2,
2,
2,
0,
12,
10,
10,
6,
6,
3,
3,
5,
5,
6,
6,
3,
3,
1,
1,
2,
2,
0,
0,
-1,
-1,
1,
1,
10,
10,
7,
7,
2,
2,
0,
0,
8,
8,
6,
6,
-1,
-1,
5,
5,
0,
17,
16,
16,
21,
21,
16,
16,
12,
12,
8,
23,
23,
40,
38,
13,
14,
1,
5,
5,
0,
0,
-1,
-1,
6,
6,
5,
5,
-1,
-1,
0,
0,
0,
0,
0,
0,
8,
8,
2,
2,
5,
5,
1,
1,
2,
2,
2,
2,
3,
3,
2,
2,
4,
4,
4,
4,
8,
8,
15,
1,
2,
13,
12,
1,
2,
2,
10,
10,
3,
3,
0,
0,
0,
0,
1,
1,
-1,
-1,
1,
1,
10,
10,
10,
10,
1,
1,
2,
2,
2,
2,
0,
0,
1,
1,
1,
1,
1,
1,
0,
0,
4,
4,
4,
4,
4,
4,
1,
1,
0,
0,
8,
8,
3,
28,
28,
17,
18,
1,
1,
1,
1,
1,
3,
3,
2,
2,
2,
2,
6,
6,
9,
9,
13,
13,
12,
12,
10,
10,
6,
6,
1,
1,
7,
7,
6,
6,
6,
6,
0,
0,
0,
0,
10,
23,
22,
4,
5,
5,
9,
9,
6,
6,
2,
2,
1,
1,
0,
0,
2,
2,
1,
1,
0,
0,
2,
2,
1,
1,
-1,
-1,
2,
2,
1,
1,
2,
2,
1,
1,
0,
0,
2,
2,
1,
1,
0,
0,
8,
8,
9,
9,
6,
18,
17,
17,
23,
6,
6,
6,
1,
1,
3,
3,
1,
1,
1,
1,
8,
8,
9,
9,
3,
3,
10,
10,
12,
12,
13,
13,
10,
10,
6,
6,
2,
2,
0,
0,
4,
25,
24,
24,
28,
28,
18,
18,
10,
10,
6,
17,
16,
16,
15,
15,
8,
8,
6,
6,
10,
10,
8,
8,
1,
1,
0,
0,
1,
1,
1,
1,
1,
15,
14,
14,
20,
20,
11,
11,
1,
1,
1,
1,
7,
7,
5,
5,
0,
0,
9,
9,
4,
4,
3,
3,
3,
3,
2,
2,
2,
2,
10,
10,
6,
23,
23,
23,
17,
1,
2,
2,
5,
5,
-1,
-1,
0,
0,
5,
5,
9,
9,
2,
2,
10,
10,
7,
7,
5,
5,
9,
9,
6,
6,
3,
3,
5,
5,
13,
13,
12,
12,
12,
26,
26,
12,
12,
12,
3,
25,
25,
25,
20,
2,
4,
4,
12,
12,
14,
27,
26,
26,
34,
15,
15,
15,
10,
10,
5,
51,
51,
63,
57,
16,
17,
3,
9,
9,
15,
15,
15,
15,
15,
15,
14,
14,
14,
14,
11,
11,
2,
2,
2,
2,
1,
1,
3,
3,
11,
11,
10,
10,
7,
7,
6,
6,
0,
0,
0,
0,
10,
10,
15,
15,
6,
6,
0,
0,
-1,
-1,
3,
3,
6,
6,
5,
5,
2,
2,
8,
8,
7,
7,
5,
5,
2,
2,
2,
2,
0,
0,
1,
1,
2,
2,
4,
4,
5,
5,
10,
10,
2,
2,
4,
4,
1,
1,
0,
0,
2,
2,
5,
5,
2,
2,
0,
0,
2,
2,
2,
2,
4,
4,
6,
6,
0,
0,
5,
5,
1,
1,
8,
8,
7,
7,
0,
0,
7,
7,
