EMG_S3/DS0025.CSV

Memory Length,4000,
Trigger Level,-4.80000e+02,
Source,CH1,
Probe,1.0X,
Vertical Units,V,
Vertical Scale,1.00000e+00,
Vertical Position,0.00000e+00,
Horizontal Units,S,
Horizontal Scale,1.00000e-01,
Horizontal Position,0.0000000e+00,
Horizontal Mode,Roll Mode,
Waveform Last Dot Address,4000,
Sampling Period,4.00000e-04,
Firmware,V1.14,
Time, ,
Mode,Fast,
Waveform Data,
11,
0,
1,
1,
4,
4,
9,
9,
2,
2,
6,
6,
1,
1,
4,
4,
14,
14,
9,
9,
2,
2,
2,
2,
9,
9,
6,
6,
0,
0,
5,
5,
10,
10,
13,
13,
6,
6,
1,
1,
0,
0,
0,
0,
-1,
-1,
3,
3,
5,
5,
1,
1,
5,
5,
8,
8,
8,
8,
5,
5,
6,
6,
1,
1,
0,
21,
20,
36,
34,
14,
14,
0,
4,
4,
10,
10,
9,
9,
5,
5,
1,
1,
0,
0,
1,
1,
0,
0,
8,
8,
10,
10,
7,
7,
4,
4,
3,
3,
6,
6,
2,
2,
2,
2,
8,
8,
9,
9,
1,
12,
11,
11,
16,
16,
9,
9,
12,
12,
20,
32,
32,
32,
38,
38,
31,
5,
9,
36,
36,
48,
46,
46,
47,
47,
40,
24,
26,
8,
8,
8,
5,
5,
12,
12,
11,
11,
16,
16,
16,
16,
9,
9,
4,
4,
2,
2,
6,
6,
0,
0,
2,
14,
14,
14,
9,
9,
2,
2,
10,
10,
9,
9,
5,
26,
25,
25,
30,
14,
15,
2,
10,
27,
26,
26,
21,
3,
4,
4,
1,
19,
19,
19,
23,
23,
18,
18,
23,
23,
15,
3,
12,
37,
36,
36,
42,
42,
33,
20,
20,
20,
15,
15,
14,
1,
3,
18,
17,
32,
31,
31,
29,
14,
15,
15,
8,
8,
9,
9,
1,
12,
12,
12,
14,
14,
10,
10,
13,
13,
6,
6,
4,
4,
10,
10,
5,
5,
1,
1,
2,
2,
0,
12,
12,
12,
15,
15,
6,
6,
4,
4,
5,
5,
2,
2,
2,
2,
1,
1,
-1,
-1,
6,
6,
11,
11,
7,
7,
1,
1,
8,
8,
14,
14,
14,
14,
11,
11,
10,
10,
8,
8,
0,
0,
5,
5,
6,
6,
7,
7,
10,
10,
18,
18,
18,
7,
8,
8,
-1,
-1,
0,
0,
5,
5,
8,
8,
8,
8,
4,
4,
4,
4,
5,
5,
3,
3,
4,
4,
2,
2,
5,
5,
6,
6,
1,
1,
2,
2,
6,
6,
6,
6,
8,
19,
18,
18,
9,
9,
5,
5,
12,
12,
12,
12,
10,
10,
5,
5,
-1,
-1,
-1,
-1,
0,
0,
3,
3,
8,
8,
4,
4,
-1,
-1,
0,
0,
3,
3,
0,
0,
5,
5,
7,
7,
1,
1,
5,
5,
3,
3,
6,
20,
19,
19,
18,
2,
3,
3,
8,
8,
16,
16,
20,
20,
17,
17,
10,
10,
2,
2,
12,
12,
10,
10,
8,
8,
2,
2,
6,
6,
7,
7,
1,
1,
4,
4,
7,
7,
12,
12,
9,
9,
1,
1,
2,
2,
9,
9,
3,
3,
1,
1,
3,
3,
-1,
-1,
2,
2,
9,
9,
10,
10,
10,
10,
6,
6,
2,
2,
6,
6,
2,
2,
1,
1,
4,
4,
5,
5,
1,
1,
0,
0,
1,
1,
0,
0,
-1,
-1,
0,
0,
2,
2,
0,
0,
0,
0,
5,
5,
1,
1,
8,
22,
21,
21,
19,
2,
3,
3,
6,
6,
6,
6,
1,
1,
6,
6,
6,
6,
4,
4,
9,
9,
15,
15,
12,
12,
4,
4,
0,
0,
3,
3,
0,
12,
10,
10,
7,
7,
10,
10,
14,
3,
9,
9,
18,
18,
24,
24,
27,
14,
14,
1,
3,
15,
14,
14,
21,
21,
24,
24,
20,
20,
14,
14,
6,
6,
3,
3,
4,
4,
10,
10,
10,
10,
8,
8,
8,
8,
8,
8,
14,
14,
17,
17,
9,
9,
1,
1,
11,
11,
20,
20,
16,
16,
7,
7,
6,
6,
9,
9,
2,
2,
11,
11,
12,
12,
3,
3,
5,
5,
5,
5,
-1,
-1,
0,
0,
2,
2,
8,
8,
6,
6,
0,
0,
0,
0,
0,
0,
3,
3,
0,
0,
9,
9,
2,
15,
15,
15,
13,
13,
8,
8,
3,
3,
9,
9,
1,
1,
5,
5,
6,
6,
1,
1,
8,
8,
13,
13,
10,
10,
4,
4,
2,
2,
0,
0,
0,
0,
4,
4,
8,
8,
5,
5,
1,
1,
4,
4,
2,
2,
6,
6,
4,
4,
0,
0,
4,
4,
2,
2,
9,
9,
7,
7,
1,
1,
1,
1,
4,
4,
0,
0,
2,
2,
5,
5,
4,
4,
2,
2,
5,
5,
1,
1,
6,
6,
2,
2,
3,
3,
4,
4,
0,
0,
2,
2,
6,
6,
1,
1,
4,
4,
5,
5,
11,
11,
4,
4,
8,
8,
2,
2,
0,
0,
-1,
-1,
2,
2,
2,
2,
10,
27,
27,
27,
18,
3,
4,
4,
5,
5,
11,
11,
16,
16,
17,
5,
5,
5,
4,
4,
1,
1,
1,
1,
5,
5,
4,
4,
2,
2,
1,
13,
12,
0,
2,
2,
1,
14,
14,
14,
18,
3,
6,
18,
17,
6,
6,
6,
1,
1,
2,
2,
4,
4,
2,
2,
6,
6,
0,
0,
5,
5,
6,
6,
9,
9,
15,
15,
10,
10,
6,
6,
9,
9,
3,
3,
6,
6,
6,
6,
2,
2,
2,
2,
10,
26,
26,
26,
18,
7,
8,
8,
8,
22,
22,
22,
17,
0,
1,
1,
3,
3,
5,
5,
4,
4,
1,
1,
1,
1,
6,
6,
2,
2,
4,
4,
12,
12,
4,
4,
1,
1,
5,
5,
7,
7,
14,
14,
17,
17,
16,
30,
30,
12,
13,
13,
14,
30,
29,
29,
21,
21,
14,
14,
13,
13,
11,
11,
11,
11,
2,
18,
17,
17,
8,
8,
2,
23,
22,
22,
14,
3,
5,
5,
7,
7,
2,
2,
7,
7,
13,
13,
13,
13,
10,
10,
8,
8,
2,
14,
13,
13,
15,
15,
23,
23,
27,
3,
3,
3,
6,
6,
13,
13,
13,
13,
11,
11,
8,
8,
9,
9,
9,
9,
4,
4,
1,
1,
9,
9,
11,
11,
5,
5,
8,
8,
3,
3,
-1,
13,
12,
12,
21,
10,
10,
10,
1,
1,
0,
0,
1,
1,
-1,
-1,
0,
0,
5,
5,
10,
10,
11,
11,
2,
2,
9,
9,
6,
6,
3,
3,
4,
4,
2,
2,
2,
2,
0,
0,
5,
5,
6,
6,
9,
9,
2,
14,
13,
13,
14,
14,
6,
6,
6,
6,
5,
5,
0,
0,
3,
3,
4,
4,
8,
8,
3,
20,
19,
19,
18,
1,
2,
2,
6,
6,
14,
14,
18,
4,
5,
26,
26,
46,
45,
30,
30,
9,
10,
10,
2,
18,
16,
38,
37,
37,
41,
16,
17,
2,
6,
6,
2,
2,
8,
8,
6,
6,
4,
4,
6,
6,
33,
33,
32,
32,
30,
30,
28,
28,
18,
1,
3,
3,
12,
12,
12,
12,
13,
13,
9,
-2,
-1,
11,
11,
11,
17,
17,
9,
9,
5,
5,
12,
12,
11,
11,
11,
11,
8,
8,
1,
1,
0,
0,
2,
2,
1,
1,
1,
1,
0,
0,
9,
9,
4,
4,
6,
6,
11,
11,
12,
1,
3,
15,
14,
14,
7,
7,
6,
6,
13,
13,
13,
0,
1,
1,
-1,
-1,
2,
2,
8,
8,
5,
5,
2,
2,
5,
5,
8,
8,
2,
2,
5,
5,
11,
11,
10,
10,
2,
2,
2,
2,
-1,
-1,
2,
16,
15,
15,
12,
1,
2,
2,
2,
2,
3,
3,
1,
1,
5,
5,
6,
6,
6,
6,
2,
2,
4,
16,
15,
15,
6,
6,
1,
1,
4,
4,
7,
7,
6,
6,
6,
6,
8,
8,
8,
8,
6,
17,
15,
15,
12,
12,
4,
4,
4,
20,
18,
2,
2,
2,
6,
6,
2,
2,
0,
0,
0,
0,
2,
2,
6,
18,
17,
17,
21,
2,
3,
3,
13,
13,
14,
14,
7,
7,
3,
3,
4,
4,
1,
1,
5,
5,
1,
1,
5,
5,
4,
4,
1,
1,
-1,
-1,
0,
0,
2,
2,
0,
0,
4,
4,
9,
9,
12,
0,
1,
1,
5,
5,
7,
7,
6,
6,
4,
4,
10,
10,
2,
2,
8,
8,
13,
13,
6,
6,
6,
6,
1,
1,
1,
17,
17,
17,
8,
8,
3,
3,
2,
2,
4,
4,
4,
4,
6,
20,
20,
20,
24,
24,
15,
2,
9,
24,
23,
6,
6,
6,
2,
2,
6,
6,
2,
2,
1,
1,
2,
2,
6,
6,
6,
6,
5,
5,
2,
2,
-1,
-1,
1,
1,
9,
9,
4,
4,
2,
2,
10,
28,
26,
26,
20,
20,
11,
0,
1,
1,
10,
10,
17,
17,
11,
11,
2,
2,
5,
5,
11,
11,
14,
14,
8,
8,
2,
2,
0,
0,
6,
20,
20,
20,
21,
10,
10,
10,
1,
1,
7,
7,
8,
8,
1,
1,
3,
3,
4,
4,
0,
0,
10,
10,
4,
4,
6,
6,
5,
5,
5,
5,
6,
6,
3,
3,
1,
1,
0,
0,
3,
3,
6,
6,
7,
7,
5,
5,
3,
3,
0,
0,
9,
9,
9,
9,
6,
6,
8,
8,
1,
1,
-1,
-1,
3,
3,
8,
8,
10,
10,
6,
6,
16,
16,
24,
8,
8,
8,
0,
0,
2,
2,
5,
5,
2,
2,
-1,
-1,
2,
2,
0,
11,
10,
10,
9,
9,
6,
6,
14,
14,
18,
18,
15,
15,
11,
11,
5,
19,
18,
18,
15,
15,
6,
6,
1,
1,
-1,
-1,
3,
3,
4,
4,
5,
5,
5,
5,
4,
4,
4,
4,
5,
5,
5,
5,
4,
4,
0,
0,
2,
2,
0,
0,
7,
7,
6,
6,
5,
16,
16,
16,
17,
17,
13,
13,
14,
14,
9,
9,
9,
22,
22,
22,
19,
8,
8,
8,
0,
0,
1,
1,
-1,
-1,
5,
5,
3,
3,
7,
7,
6,
6,
9,
9,
13,
13,
4,
4,
6,
6,
2,
2,
3,
3,
1,
1,
8,
8,
13,
13,
18,
18,
18,
7,
8,
8,
2,
2,
2,
2,
2,
2,
-1,
-1,
2,
2,
8,
8,
11,
11,
4,
4,
5,
5,
9,
9,
18,
18,
17,
3,
7,
25,
24,
9,
9,
9,
0,
13,
12,
12,
19,
19,
9,
9,
6,
6,
4,
4,
1,
1,
11,
11,
14,
14,
14,
14,
12,
12,
7,
7,
5,
5,
1,
1,
7,
7,
9,
9,
6,
6,
1,
1,
0,
0,
4,
16,
15,
15,
9,
9,
2,
2,
5,
5,
10,
10,
5,
5,
5,
5,
9,
9,
8,
8,
6,
6,
2,
2,
2,
2,
8,
8,
13,
13,
8,
8,
0,
0,
1,
1,
-1,
-1,
1,
1,
1,
1,
8,
8,
11,
11,
6,
6,
3,
3,
0,
0,
2,
2,
4,
4,
8,
8,
5,
5,
4,
4,
1,
1,
4,
4,
4,
4,
2,
2,
2,
2,
3,
3,
1,
1,
6,
6,
10,
10,
4,
4,
9,
9,
15,
15,
9,
9,
7,
7,
4,
4,
11,
11,
17,
17,
18,
18,
17,
1,
2,
22,
21,
39,
39,
26,
26,
3,
6,
21,
20,
20,
25,
25,
21,
21,
14,
2,
3,
3,
0,
0,
2,
2,
2,
2,
2,
2,
6,
19,
18,
6,
6,
6,
3,
3,
13,
13,
8,
8,
0,
0,
2,
2,
3,
3,
3,
3,
1,
1,
9,
9,
17,
17,
10,
10,
10,
10,
12,
12,
7,
7,
13,
13,
9,
9,
4,
4,
10,
10,
5,
5,
8,
8,
3,
18,
17,
17,
11,
11,
4,
4,
12,
25,
24,
24,
21,
6,
6,
6,
8,
21,
20,
20,
22,
5,
6,
6,
3,
3,
1,
1,
1,
1,
2,
2,
7,
7,
6,
6,
0,
0,
7,
7,
6,
6,
2,
2,
0,
0,
0,
0,
2,
2,
0,
0,
5,
5,
4,
4,
0,
0,
1,
1,
6,
17,
16,
16,
13,
0,
2,
2,
7,
7,
10,
10,
13,
13,
10,
10,
6,
6,
1,
1,
1,
1,
2,
2,
6,
6,
5,
5,
2,
2,
-1,
-1,
2,
2,
7,
7,
11,
11,
12,
12,
11,
11,
9,
9,
6,
6,
1,
1,
3,
3,
8,
8,
6,
6,
0,
0,
2,
2,
5,
5,
2,
2,
-1,
-1,
0,
0,
2,
2,
6,
6,
3,
3,
12,
0,
0,
0,
3,
3,
3,
3,
2,
2,
8,
8,
8,
8,
2,
2,
2,
2,
8,
39,
39,
39,
37,
4,
5,
5,
14,
14,
23,
23,
25,
25,
20,
20,
18,
18,
12,
1,
2,
2,
1,
21,
21,
21,
24,
10,
12,
12,
8,
8,
4,
4,
5,
5,
2,
2,
3,
3,
7,
7,
7,
7,
10,
10,
11,
11,
12,
12,
14,
3,
3,
20,
20,
20,
22,
22,
12,
12,
10,
10,
13,
13,
10,
10,
10,
10,
1,
1,
6,
6,
13,
13,
20,
20,
17,
17,
12,
12,
6,
6,
2,
15,
13,
13,
17,
17,
8,
8,
8,
8,
14,
14,
6,
6,
5,
5,
1,
1,
0,
12,
11,
25,
24,
24,
22,
22,
19,
19,
13,
13,
6,
6,
1,
1,
6,
6,
8,
8,
11,
11,
11,
11,
15,
15,
14,
14,
9,
9,
5,
5,
3,
3,
5,
5,
6,
6,
1,
1,
4,
4,
13,
1,
4,
22,
21,
21,
25,
8,
9,
9,
14,
14,
10,
10,
2,
2,
6,
6,
7,
7,
13,
13,
16,
16,
14,
14,
6,
6,
10,
10,
17,
17,
15,
15,
12,
12,
12,
12,
9,
9,
6,
6,
5,
5,
1,
1,
5,
5,
5,
5,
5,
5,
12,
12,
6,
6,
1,
1,
5,
5,
0,
0,
5,
5,
6,
6,
13,
13,
22,
22,
16,
1,
2,
13,
13,
13,
5,
5,
2,
2,
2,
2,
7,
7,
13,
13,
13,
13,
6,
6,
1,
1,
0,
0,
1,
1,
3,
3,
10,
10,
6,
6,
9,
9,
10,
10,
12,
12,
6,
6,
1,
1,
1,
1,
0,
0,
5,
5,
4,
4,
2,
2,
2,
2,
2,
2,
10,
10,
12,
12,
9,
9,
6,
6,
1,
1,
1,
1,
2,
2,
5,
23,
23,
23,
14,
14,
6,
6,
6,
6,
5,
5,
0,
0,
6,
6,
13,
24,
23,
23,
20,
3,
4,
4,
2,
2,
9,
20,
20,
20,
29,
29,
23,
23,
18,
18,
8,
8,
5,
5,
12,
12,
20,
20,
18,
18,
18,
18,
17,
17,
9,
9,
4,
4,
2,
2,
1,
1,
2,
2,
2,
19,
19,
19,
26,
14,
15,
15,
11,
11,
13,
1,
2,
2,
4,
4,
10,
10,
12,
12,
12,
12,
15,
15,
23,
11,
12,
12,
14,
37,
36,
36,
44,
13,
13,
13,
9,
9,
18,
30,
30,
30,
20,
2,
3,
3,
9,
41,
40,
60,
60,
34,
34,
5,
7,
33,
32,
44,
43,
43,
38,
27,
27,
27,
20,
20,
14,
14,
4,
4,
3,
3,
6,
6,
11,
11,
14,
14,
14,
14,
17,
17,
19,
19,
12,
12,
9,
9,
16,
16,
8,
8,
0,
0,
-1,
-1,
2,
2,
5,
5,
4,
4,
2,
2,
6,
6,
9,
9,
11,
11,
5,
5,
0,
0,
7,
7,
10,
10,
8,
8,
17,
6,
6,
6,
5,
5,
12,
12,
8,
8,
4,
4,
12,
12,
10,
10,
14,
14,
9,
9,
9,
9,
2,
2,
4,
4,
6,
6,
6,
6,
5,
5,
3,
3,
0,
0,
-1,
-1,
8,
8,
9,
9,
8,
8,
10,
10,
3,
3,
0,
0,
3,
3,
12,
12,
14,
14,
17,
17,
16,
16,
8,
8,
1,
1,
2,
2,
9,
9,
4,
4,
13,
13,
10,
10,
4,
4,
12,
12,
10,
10,
1,
1,
7,
7,
2,
2,
9,
9,
10,
10,
5,
5,
4,
4,
4,
4,
10,
10,
13,
0,
1,
1,
9,
9,
2,
20,
19,
19,
23,
10,
11,
11,
5,
5,
2,
15,
14,
14,
7,
7,
0,
0,
8,
20,
19,
19,
20,
6,
7,
18,
17,
36,
35,
35,
32,
9,
10,
10,
2,
2,
1,
1,
1,
1,
2,
2,
8,
19,
18,
18,
20,
20,
19,
19,
17,
17,
8,
8,
7,
20,
18,
29,
28,
28,
27,
14,
14,
0,
2,
2,
6,
6,
6,
6,
5,
5,
4,
4,
2,
2,
6,
6,
4,
4,
4,
4,
6,
6,
3,
3,
-1,
-1,
4,
4,
6,
6,
0,
0,
1,
1,
1,
1,
4,
4,
2,
2,
1,
1,
6,
6,
14,
3,
3,
3,
12,
12,
10,
10,
5,
5,
6,
6,
1,
1,
10,
30,
30,
41,
38,
15,
15,
2,
9,
9,
18,
18,
12,
12,
10,
10,
12,
23,
22,
22,
27,
27,
27,
9,
10,
10,
14,
14,
20,
20,
17,
17,
9,
9,
1,
1,
3,
14,
12,
12,
10,
10,
14,
14,
18,
6,
6,
6,
2,
2,
9,
9,
12,
12,
13,
13,
6,
6,
2,
2,
9,
9,
11,
11,
6,
6,
4,
4,
7,
7,
4,
4,
6,
6,
8,
8,
6,
6,
6,
6,
1,
1,
8,
8,
15,
15,
8,
8,
3,
3,
1,
1,
1,
1,
8,
8,
10,
10,
4,
4,
1,
1,
8,
8,
12,
12,
13,
13,
10,
10,
2,
2,
2,
2,
8,
8,
9,
9,
2,
2,
-1,
-1,
-1,
-1,
-1,
-1,
5,
5,
9,
9,
2,
19,
18,
35,
34,
16,
18,
1,
4,
4,
10,
10,
13,
13,
9,
9,
1,
1,
6,
6,
3,
3,
7,
7,
5,
21,
20,
32,
30,
30,
23,
6,
6,
6,
8,
32,
31,
31,
38,
12,
12,
12,
7,
7,
12,
12,
10,
10,
1,
1,
6,
6,
3,
3,
5,
5,
4,
4,
0,
0,
5,
5,
9,
9,
14,
14,
9,
9,
2,
21,
20,
20,
17,
1,
5,
5,
10,
10,
2,
2,
5,
5,
10,
10,
10,
10,
8,
8,
4,
4,
4,
4,
8,
8,
9,
9,
12,
12,
9,
9,
8,
8,
1,
14,
13,
13,
15,
15,
8,
8,
2,
2,
0,
0,
3,
3,
7,
7,
4,
4,
-1,
-1,
4,
4,
0,
0,
0,
0,
5,
5,
10,
10,
6,
6,
2,
2,
4,
4,
2,
2,
1,
1,
2,
2,
3,
3,
6,
6,
6,
6,
0,
0,
5,
5,
10,
10,
5,
5,
3,
3,
9,
30,
30,
30,
29,
18,
18,
18,
8,
8,
4,
4,
6,
6,
7,
7,
11,
11,
18,
18,
24,
24,
16,
2,
3,
3,
3,
3,
13,
13,
9,
9,
5,
5,
12,
1,
2,
14,
14,
14,
17,
17,
18,
18,
10,
10,
0,
0,
2,
2,
3,
3,
4,
4,
8,
8,
8,
8,
6,
6,
2,
2,
0,
0,
0,
0,
1,
1,
9,
9,
5,
5,
-1,
-1,
1,
1,
3,
3,
4,
4,
1,
1,
2,
2,
9,
21,
20,
20,
14,
1,
2,
2,
11,
11,
11,
11,
10,
10,
17,
17,
12,
0,
1,
1,
6,
6,
14,
14,
6,
6,
6,
6,
8,
8,
13,
1,
3,
15,
15,
15,
10,
10,
4,
4,
1,
1,
9,
9,
6,
6,
2,
2,
0,
0,
2,
2,
0,
0,
2,
2,
8,
8,
1,
1,
5,
5,
1,
1,
0,
0,
2,
2,
6,
6,
2,
26,
26,
26,
26,
2,
2,
2,
8,
8,
7,
7,
9,
9,
18,
18,
15,
15,
9,
9,
2,
2,
6,
6,
13,
13,
13,
2,
2,
2,
1,
1,
0,
0,
0,
0,
2,
2,
-1,
-1,
1,
1,
0,
0,
1,
1,
1,
1,
0,
0,
2,
16,
15,
15,
22,
8,
8,
8,
1,
1,
8,
8,
15,
15,
12,
12,
6,
6,
11,
11,
10,
10,
4,
4,
10,
10,
20,
20,
11,
11,
3,
3,
3,
3,
3,
3,
4,
4,
0,
0,
4,
4,
6,
6,
9,
9,
5,
5,
2,
2,
3,
3,
10,
10,
1,
1,
-1,
-1,
1,
1,
6,
6,
10,
10,
3,
3,
8,
8,
2,
2,
9,
9,
12,
24,
23,
23,
18,
1,
1,
1,
7,
7,
13,
13,
17,
17,
16,
16,
10,
10,
9,
9,
11,
0,
1,
1,
4,
4,
6,
6,
7,
7,
2,
2,
4,
4,
7,
7,
1,
1,
1,
1,
1,
14,
14,
28,
26,
6,
6,
6,
12,
12,
15,
15,
13,
13,
7,
7,
2,
2,
6,
6,
6,
6,
6,
6,
7,
7,
2,
2,
2,
2,
3,
3,
2,
2,
4,
4,
7,
7,
13,
1,
2,
14,
14,
14,
17,
2,
5,
5,
13,
13,
6,
6,
0,
0,
4,
4,
7,
7,
0,
0,
2,
2,
5,
5,
6,
6,
4,
19,
18,
18,
23,
10,
10,
10,
6,
6,
14,
14,
10,
10,
10,
10,
11,
11,
5,
5,
4,
30,
30,
41,
38,
12,
12,
12,
7,
7,
5,
5,
9,
9,
15,
15,
17,
17,
14,
14,
12,
12,
6,
6,
2,
2,
5,
5,
14,
14,
15,
15,
6,
6,
7,
7,
12,
12,
11,
11,
13,
13,
3,
3,
9,
9,
9,
9,
6,
6,
11,
11,
27,
27,
27,
27,
22,
4,
4,
18,
17,
17,
12,
1,
2,
2,
1,
1,
0,
0,
4,
4,
4,
4,
2,
2,
1,
1,
6,
6,
6,
6,
2,
2,
5,
5,
9,
9,
6,
6,
5,
5,
7,
7,
6,
6,
0,
0,
3,
3,
10,
10,
10,
10,
2,
2,
4,
4,
1,
1,
6,
27,
26,
26,
22,
0,
2,
13,
12,
12,
18,
18,
8,
8,
6,
6,
3,
16,
15,
15,
21,
6,
6,
17,
16,
16,
15,
15,
6,
6,
0,
0,
6,
6,
6,
6,
1,
1,
2,
2,
0,
0,
6,
6,
12,
12,
16,
16,
11,
11,
2,
17,
17,
17,
20,
20,
24,
6,
7,
19,
17,
17,
11,
11,
8,
8,
7,
7,
0,
0,
1,
1,
3,
3,
0,
0,
-1,
-1,
1,
1,
1,
1,
1,
1,
10,
10,
6,
6,
0,
0,
4,
4,
7,
7,
13,
13,
7,
7,
7,
7,
14,
14,
9,
9,
4,
4,
9,
9,
6,
6,
3,
3,
7,
7,
9,
9,
5,
5,
8,
21,
20,
20,
21,
8,
9,
9,
3,
3,
6,
6,
5,
5,
9,
9,
6,
6,
1,
1,
1,
1,
0,
0,
1,
1,
4,
4,
2,
2,
3,
3,
1,
1,
0,
12,
11,
22,
21,
3,
3,
20,
19,
19,
15,
15,
9,
9,
8,
8,
2,
2,
0,
0,
3,
3,
3,
3,
5,
5,
12,
12,
10,
10,
8,
8,
2,
2,
7,
7,
12,
12,
12,
12,
3,
3,
4,
4,
5,
5,
4,
4,
0,
0,
0,
0,
4,
4,
5,
5,
5,
5,
0,
0,
2,
2,
4,
4,
11,
11,
16,
16,
10,
10,
1,
1,
6,
6,
7,
7,
6,
6,
8,
8,
4,
4,
2,
2,
11,
11,
9,
9,
10,
30,
29,
29,
30,
17,
18,
1,
4,
4,
13,
13,
13,
13,
10,
10,
5,
5,
8,
8,
2,
2,
5,
5,
2,
2,
6,
6,
11,
11,
14,
14,
18,
18,
18,
18,
14,
2,
10,
29,
28,
28,
35,
35,
43,
29,
29,
2,
3,
14,
13,
13,
15,
15,
8,
8,
4,
4,
9,
9,
17,
17,
15,
15,
7,
7,
2,
2,
2,
2,
12,
12,
11,
11,
12,
12,
14,
14,
8,
8,
5,
5,
9,
9,
3,
3,
9,
9,
1,
1,
0,
0,
2,
2,
8,
8,
3,
3,
6,
6,
2,
2,
3,
3,
8,
8,
7,
7,
3,
3,
3,
3,
4,
4,
5,
5,
9,
9,
8,
8,
5,
5,
-1,
-1,
2,
2,
3,
3,
12,
12,
14,
14,
16,
16,
10,
-1,
0,
0,
4,
4,
2,
2,
9,
9,
9,
9,
1,
1,
10,
10,
11,
0,
1,
14,
14,
14,
23,
2,
3,
15,
15,
29,
28,
28,
36,
20,
20,
2,
4,
19,
18,
18,
21,
21,
14,
14,
16,
16,
14,
1,
1,
1,
6,
6,
7,
7,
5,
5,
6,
6,
7,
7,
8,
8,
5,
5,
1,
1,
1,
1,
1,
1,
1,
12,
11,
23,
23,
23,
19,
1,
3,
3,
9,
9,
9,
9,
6,
6,
13,
1,
3,
3,
9,
9,
9,
9,
9,
22,
22,
22,
20,
20,
17,
6,
6,
6,
0,
0,
4,
4,
2,
2,
8,
8,
14,
14,
9,
9,
5,
5,
1,
1,
4,
4,
10,
10,
9,
9,
5,
5,
8,
8,
5,
5,
4,
4,
10,
10,
10,
10,
8,
8,
7,
7,
11,
11,
4,
4,
0,
0,
2,
2,
9,
9,
14,
14,
20,
20,
