EMG_S3/DS0033.CSV

Memory Length,4000,
Trigger Level,-4.80000e+02,
Source,CH1,
Probe,1.0X,
Vertical Units,V,
Vertical Scale,1.00000e+00,
Vertical Position,0.00000e+00,
Horizontal Units,S,
Horizontal Scale,1.00000e-01,
Horizontal Position,0.0000000e+00,
Horizontal Mode,Roll Mode,
Waveform Last Dot Address,4000,
Sampling Period,4.00000e-04,
Firmware,V1.14,
Time, ,
Mode,Fast,
Waveform Data,
26,
5,
12,
33,
18,
18,
18,
3,
4,
4,
1,
1,
9,
9,
12,
12,
5,
5,
1,
1,
5,
5,
6,
6,
5,
5,
5,
5,
5,
5,
2,
2,
0,
0,
3,
3,
10,
23,
22,
22,
15,
1,
3,
14,
13,
13,
14,
14,
14,
14,
10,
10,
12,
12,
14,
14,
13,
13,
6,
28,
27,
27,
24,
24,
18,
18,
11,
11,
4,
4,
1,
1,
4,
4,
7,
7,
8,
8,
8,
8,
4,
4,
5,
5,
7,
7,
3,
3,
12,
12,
10,
10,
3,
3,
0,
0,
1,
1,
2,
2,
1,
1,
0,
0,
2,
2,
1,
1,
6,
30,
30,
45,
45,
34,
34,
4,
5,
22,
22,
22,
22,
22,
22,
22,
18,
18,
10,
10,
10,
10,
14,
2,
4,
4,
9,
9,
7,
7,
1,
1,
6,
6,
6,
18,
18,
18,
18,
18,
17,
17,
9,
9,
4,
4,
2,
2,
2,
2,
6,
6,
8,
8,
8,
8,
11,
11,
9,
9,
14,
2,
3,
25,
24,
13,
14,
-1,
0,
12,
12,
12,
15,
15,
5,
5,
8,
20,
20,
20,
17,
2,
5,
25,
24,
24,
20,
1,
3,
3,
12,
12,
19,
19,
19,
19,
18,
18,
14,
2,
7,
26,
25,
25,
17,
17,
8,
8,
2,
2,
1,
1,
1,
1,
-1,
-1,
8,
25,
25,
25,
27,
9,
10,
10,
4,
4,
9,
9,
4,
4,
10,
22,
21,
21,
17,
17,
18,
18,
11,
11,
5,
5,
1,
1,
2,
2,
4,
4,
0,
16,
16,
29,
29,
16,
16,
0,
0,
30,
29,
29,
30,
2,
3,
3,
12,
12,
15,
15,
18,
18,
18,
18,
12,
12,
9,
9,
9,
9,
6,
6,
0,
0,
6,
6,
9,
9,
3,
3,
10,
29,
28,
28,
33,
33,
28,
8,
8,
8,
6,
6,
8,
8,
8,
8,
5,
5,
10,
10,
10,
10,
1,
1,
6,
18,
18,
18,
25,
25,
16,
3,
6,
51,
51,
64,
57,
18,
18,
1,
4,
4,
1,
19,
18,
18,
17,
4,
16,
33,
33,
33,
27,
27,
23,
23,
18,
18,
17,
17,
18,
18,
18,
5,
18,
18,
23,
7,
8,
8,
0,
16,
15,
29,
29,
16,
16,
4,
5,
5,
1,
1,
5,
5,
8,
8,
12,
12,
6,
6,
0,
0,
0,
0,
0,
0,
6,
6,
8,
8,
7,
7,
9,
9,
14,
14,
13,
13,
5,
5,
2,
2,
5,
5,
0,
0,
8,
8,
13,
2,
2,
2,
12,
12,
12,
0,
1,
1,
7,
43,
42,
42,
43,
26,
26,
15,
15,
3,
14,
30,
29,
7,
7,
7,
1,
13,
12,
24,
24,
24,
29,
12,
12,
0,
2,
2,
6,
6,
8,
8,
11,
11,
12,
12,
6,
6,
2,
25,
25,
25,
33,
13,
13,
13,
8,
8,
13,
13,
21,
21,
17,
6,
7,
7,
0,
0,
7,
7,
8,
8,
2,
2,
0,
0,
5,
5,
6,
6,
6,
6,
7,
7,
10,
10,
18,
18,
21,
1,
2,
2,
2,
2,
9,
9,
2,
29,
28,
28,
35,
35,
37,
37,
37,
37,
41,
21,
22,
5,
13,
13,
21,
21,
22,
22,
25,
37,
36,
36,
37,
37,
29,
18,
19,
8,
9,
9,
1,
1,
6,
6,
12,
12,
18,
18,
13,
13,
9,
9,
12,
12,
15,
15,
14,
14,
7,
7,
1,
1,
6,
6,
6,
6,
1,
1,
4,
4,
2,
2,
0,
0,
3,
3,
2,
2,
6,
6,
11,
11,
9,
9,
13,
13,
4,
4,
0,
0,
1,
1,
6,
6,
10,
10,
9,
9,
1,
1,
2,
2,
6,
6,
4,
4,
3,
3,
1,
1,
8,
8,
8,
8,
5,
5,
2,
2,
0,
0,
0,
0,
2,
2,
3,
3,
2,
2,
1,
1,
5,
5,
8,
8,
5,
5,
2,
2,
1,
1,
-1,
-1,
-1,
-1,
1,
1,
0,
0,
-1,
-1,
2,
2,
6,
6,
4,
4,
2,
2,
0,
0,
1,
1,
4,
4,
8,
8,
2,
2,
11,
23,
22,
22,
25,
14,
15,
1,
2,
2,
1,
1,
3,
3,
3,
26,
26,
49,
48,
20,
20,
6,
16,
16,
21,
21,
19,
3,
4,
4,
8,
8,
4,
4,
14,
30,
29,
29,
22,
5,
5,
5,
8,
31,
31,
31,
38,
17,
17,
0,
2,
2,
1,
1,
6,
17,
16,
16,
20,
20,
17,
17,
16,
16,
8,
8,
2,
2,
5,
5,
5,
5,
6,
6,
6,
6,
5,
5,
2,
2,
6,
6,
13,
13,
6,
6,
-1,
-1,
0,
21,
21,
37,
35,
9,
10,
10,
5,
5,
14,
14,
16,
16,
15,
15,
9,
9,
6,
6,
14,
14,
18,
18,
17,
17,
8,
8,
1,
1,
6,
6,
12,
12,
15,
15,
11,
11,
6,
6,
0,
0,
4,
4,
7,
7,
4,
4,
6,
6,
1,
1,
4,
4,
6,
6,
5,
5,
0,
0,
7,
7,
1,
1,
1,
1,
2,
2,
2,
2,
0,
0,
1,
1,
2,
2,
5,
5,
13,
13,
16,
2,
3,
14,
14,
14,
21,
21,
16,
16,
13,
13,
10,
10,
5,
5,
8,
20,
18,
18,
16,
4,
4,
4,
-1,
-1,
4,
4,
6,
6,
7,
7,
7,
7,
3,
3,
11,
11,
9,
9,
8,
8,
14,
14,
10,
10,
2,
2,
3,
3,
2,
2,
5,
5,
5,
5,
1,
14,
13,
13,
15,
3,
9,
21,
21,
21,
19,
19,
26,
13,
14,
0,
1,
1,
1,
1,
9,
9,
7,
32,
32,
32,
28,
15,
15,
15,
7,
7,
3,
3,
2,
2,
11,
11,
2,
2,
1,
1,
2,
2,
2,
2,
3,
3,
0,
0,
1,
1,
1,
1,
6,
6,
14,
14,
18,
18,
13,
13,
20,
34,
33,
18,
18,
3,
4,
4,
6,
19,
17,
3,
6,
30,
29,
29,
26,
3,
4,
24,
23,
23,
28,
28,
19,
19,
9,
9,
13,
13,
19,
8,
9,
9,
12,
12,
3,
3,
6,
6,
6,
6,
9,
9,
2,
2,
3,
3,
10,
10,
3,
3,
10,
29,
28,
5,
5,
5,
12,
1,
1,
1,
5,
25,
24,
24,
20,
1,
3,
3,
5,
5,
13,
13,
12,
12,
5,
5,
12,
12,
6,
57,
57,
57,
64,
52,
52,
8,
9,
9,
18,
18,
22,
10,
11,
11,
9,
9,
18,
18,
26,
26,
26,
26,
18,
18,
19,
19,
18,
18,
12,
12,
12,
12,
14,
46,
46,
46,
36,
7,
8,
8,
2,
21,
21,
21,
20,
1,
2,
2,
10,
10,
20,
36,
34,
7,
8,
44,
43,
43,
33,
5,
5,
5,
0,
11,
11,
11,
19,
19,
10,
10,
3,
3,
0,
0,
2,
2,
12,
12,
9,
9,
4,
4,
6,
6,
12,
12,
9,
9,
2,
2,
1,
18,
18,
18,
22,
22,
16,
16,
21,
21,
18,
2,
4,
4,
5,
5,
8,
8,
5,
5,
6,
6,
10,
10,
1,
1,
2,
2,
6,
6,
2,
2,
1,
1,
9,
9,
10,
10,
9,
9,
2,
2,
5,
5,
0,
0,
2,
2,
3,
3,
1,
13,
12,
12,
5,
5,
2,
2,
3,
3,
4,
4,
4,
4,
5,
5,
7,
7,
14,
14,
15,
2,
2,
14,
14,
14,
20,
7,
8,
8,
5,
5,
14,
14,
12,
12,
6,
22,
21,
37,
34,
15,
15,
15,
10,
10,
1,
12,
11,
11,
18,
18,
22,
22,
21,
10,
10,
10,
11,
11,
10,
10,
7,
7,
2,
2,
2,
2,
12,
12,
13,
2,
3,
3,
6,
6,
2,
2,
8,
8,
13,
2,
10,
10,
14,
1,
4,
4,
1,
1,
2,
14,
13,
1,
1,
1,
10,
10,
10,
10,
10,
10,
3,
3,
8,
8,
1,
1,
3,
3,
8,
8,
11,
11,
6,
6,
2,
14,
13,
13,
5,
17,
16,
16,
24,
11,
12,
1,
8,
28,
28,
28,
23,
23,
17,
17,
10,
10,
5,
18,
17,
5,
19,
34,
31,
13,
14,
1,
2,
2,
3,
3,
7,
7,
2,
13,
12,
12,
9,
9,
5,
5,
13,
13,
6,
6,
3,
3,
8,
8,
4,
4,
1,
1,
8,
8,
7,
7,
9,
25,
24,
24,
21,
6,
6,
18,
18,
18,
21,
9,
9,
9,
5,
5,
1,
1,
0,
0,
2,
2,
1,
1,
1,
1,
6,
6,
10,
10,
3,
3,
0,
0,
1,
1,
3,
3,
1,
1,
2,
2,
8,
8,
0,
0,
3,
3,
8,
8,
13,
13,
3,
3,
5,
5,
5,
5,
5,
5,
4,
4,
3,
3,
0,
0,
1,
1,
3,
3,
6,
6,
2,
2,
-1,
-1,
-1,
-1,
5,
5,
7,
7,
6,
6,
4,
4,
0,
0,
2,
2,
3,
3,
0,
0,
9,
9,
2,
15,
14,
14,
21,
21,
14,
14,
10,
10,
2,
2,
6,
6,
5,
5,
10,
10,
10,
10,
1,
12,
10,
10,
14,
14,
14,
14,
12,
12,
5,
5,
4,
4,
6,
6,
1,
15,
15,
26,
25,
25,
15,
1,
2,
2,
8,
8,
12,
0,
1,
1,
2,
2,
-1,
-1,
0,
0,
2,
2,
5,
5,
4,
4,
1,
1,
-1,
-1,
2,
2,
5,
5,
5,
19,
18,
18,
13,
0,
1,
1,
2,
14,
14,
32,
31,
14,
14,
2,
11,
11,
20,
20,
16,
16,
25,
39,
31,
6,
12,
12,
13,
1,
3,
3,
2,
14,
14,
14,
10,
10,
6,
6,
1,
1,
8,
20,
19,
19,
23,
23,
18,
3,
5,
41,
41,
53,
49,
16,
16,
1,
4,
4,
6,
6,
4,
4,
6,
6,
14,
14,
7,
7,
4,
4,
0,
14,
14,
14,
10,
10,
4,
4,
0,
0,
3,
3,
11,
11,
10,
10,
10,
10,
9,
9,
10,
10,
15,
15,
6,
6,
0,
0,
1,
1,
1,
1,
-1,
-1,
1,
1,
9,
9,
3,
3,
3,
3,
8,
8,
12,
12,
11,
11,
4,
4,
1,
1,
4,
4,
8,
8,
2,
2,
-1,
-1,
-1,
-1,
9,
9,
17,
17,
9,
9,
5,
30,
30,
30,
32,
11,
11,
11,
4,
4,
11,
11,
10,
10,
7,
7,
2,
2,
1,
1,
0,
0,
-1,
-1,
2,
2,
7,
7,
2,
2,
2,
2,
6,
6,
1,
1,
1,
1,
6,
6,
6,
6,
7,
7,
9,
9,
1,
1,
4,
24,
24,
56,
56,
56,
51,
6,
6,
26,
25,
25,
30,
30,
29,
29,
24,
24,
15,
15,
6,
6,
2,
2,
1,
1,
0,
16,
15,
15,
16,
16,
8,
8,
5,
5,
2,
13,
13,
2,
5,
5,
12,
12,
4,
4,
0,
0,
2,
2,
1,
1,
7,
7,
11,
11,
9,
9,
16,
29,
27,
6,
6,
6,
7,
7,
9,
9,
4,
4,
1,
1,
5,
5,
4,
4,
4,
4,
12,
12,
13,
13,
6,
6,
0,
0,
9,
21,
20,
20,
13,
13,
5,
5,
3,
3,
12,
12,
3,
3,
6,
6,
9,
9,
2,
13,
13,
13,
14,
3,
18,
18,
15,
34,
33,
33,
38,
24,
25,
3,
4,
4,
12,
12,
15,
15,
10,
10,
2,
25,
25,
25,
24,
2,
3,
3,
5,
5,
13,
13,
4,
4,
8,
8,
17,
17,
16,
16,
10,
10,
2,
2,
6,
6,
2,
18,
16,
16,
22,
4,
4,
4,
13,
13,
10,
10,
6,
6,
13,
13,
14,
1,
2,
2,
1,
1,
6,
6,
2,
2,
6,
6,
2,
2,
1,
1,
-1,
-1,
0,
0,
1,
1,
1,
1,
1,
1,
10,
10,
8,
8,
0,
0,
1,
1,
2,
2,
6,
6,
9,
9,
5,
5,
2,
2,
2,
2,
7,
7,
3,
3,
2,
2,
6,
6,
8,
8,
4,
4,
-1,
-1,
8,
8,
13,
13,
8,
8,
6,
6,
6,
6,
2,
2,
0,
0,
6,
6,
4,
4,
5,
5,
8,
8,
7,
7,
9,
9,
6,
6,
9,
21,
21,
8,
8,
8,
1,
1,
2,
2,
0,
0,
1,
1,
1,
1,
0,
0,
-1,
-1,
1,
1,
0,
0,
-1,
-1,
0,
0,
0,
0,
1,
1,
1,
1,
1,
1,
1,
1,
1,
1,
10,
10,
8,
8,
4,
4,
2,
2,
2,
2,
2,
2,
3,
3,
1,
1,
6,
6,
12,
12,
5,
5,
4,
4,
11,
11,
15,
15,
9,
9,
1,
1,
8,
8,
13,
13,
16,
16,
9,
9,
8,
8,
7,
18,
18,
40,
39,
16,
17,
17,
16,
16,
21,
3,
5,
26,
25,
25,
23,
23,
17,
5,
5,
5,
4,
4,
1,
1,
3,
3,
6,
6,
3,
3,
5,
5,
14,
14,
19,
19,
22,
4,
8,
30,
30,
10,
10,
10,
11,
25,
24,
11,
12,
0,
1,
1,
3,
3,
6,
6,
13,
24,
24,
13,
14,
1,
3,
20,
20,
34,
33,
33,
34,
16,
16,
2,
8,
8,
17,
17,
18,
18,
15,
15,
15,
15,
17,
17,
20,
20,
20,
4,
11,
28,
26,
14,
14,
14,
7,
7,
9,
9,
16,
5,
5,
5,
2,
2,
10,
10,
9,
9,
5,
5,
11,
11,
7,
7,
4,
4,
0,
0,
3,
3,
10,
10,
9,
9,
17,
4,
4,
19,
18,
18,
15,
1,
1,
1,
2,
2,
11,
11,
9,
20,
19,
6,
6,
6,
4,
4,
10,
10,
10,
10,
6,
6,
0,
0,
2,
2,
0,
0,
-1,
-1,
0,
12,
11,
11,
2,
2,
6,
6,
2,
2,
3,
3,
0,
0,
2,
2,
5,
5,
7,
7,
1,
1,
10,
10,
13,
2,
8,
8,
12,
12,
11,
11,
17,
17,
17,
1,
3,
3,
5,
5,
5,
5,
2,
2,
9,
9,
17,
17,
18,
18,
9,
9,
3,
3,
7,
7,
12,
1,
2,
2,
3,
3,
2,
2,
1,
13,
12,
12,
13,
13,
16,
16,
8,
8,
5,
5,
10,
25,
24,
13,
14,
3,
4,
4,
6,
6,
9,
9,
9,
9,
2,
2,
10,
27,
26,
26,
31,
31,
26,
26,
25,
25,
27,
27,
29,
3,
3,
17,
17,
17,
13,
13,
20,
36,
36,
36,
29,
14,
14,
14,
8,
8,
2,
2,
9,
9,
14,
14,
14,
40,
39,
18,
18,
1,
5,
5,
13,
13,
18,
18,
15,
15,
13,
13,
21,
9,
10,
-1,
1,
1,
6,
6,
3,
3,
-1,
-1,
0,
0,
6,
6,
10,
22,
22,
22,
17,
17,
12,
12,
6,
21,
20,
20,
17,
2,
5,
19,
17,
17,
22,
22,
27,
27,
24,
24,
22,
2,
3,
3,
6,
6,
6,
6,
6,
17,
17,
17,
12,
0,
2,
2,
2,
2,
2,
2,
9,
9,
15,
15,
13,
2,
2,
2,
8,
8,
13,
13,
9,
9,
0,
0,
0,
0,
2,
2,
2,
2,
4,
4,
2,
2,
0,
0,
1,
1,
5,
5,
10,
10,
7,
7,
6,
6,
1,
1,
10,
10,
15,
15,
7,
7,
9,
9,
10,
10,
15,
15,
12,
12,
9,
21,
20,
9,
10,
10,
4,
4,
1,
1,
1,
1,
1,
1,
10,
10,
14,
31,
30,
18,
19,
1,
2,
2,
10,
10,
18,
18,
12,
12,
4,
15,
14,
14,
13,
2,
14,
39,
38,
27,
28,
5,
5,
5,
10,
10,
14,
14,
14,
14,
12,
12,
8,
8,
7,
7,
6,
6,
14,
30,
30,
30,
28,
3,
4,
4,
5,
23,
22,
3,
3,
3,
12,
12,
13,
35,
34,
18,
19,
7,
17,
1,
3,
3,
6,
6,
10,
10,
14,
14,
18,
4,
5,
31,
30,
52,
51,
51,
45,
7,
8,
20,
19,
30,
29,
29,
26,
15,
15,
15,
7,
7,
4,
4,
6,
6,
13,
24,
23,
23,
32,
32,
30,
10,
10,
10,
11,
11,
21,
21,
18,
18,
22,
22,
21,
21,
12,
12,
6,
6,
2,
2,
2,
2,
2,
2,
7,
7,
16,
16,
11,
11,
6,
6,
3,
3,
2,
2,
-1,
13,
13,
13,
14,
14,
11,
11,
10,
10,
3,
3,
1,
1,
-1,
-1,
7,
7,
11,
11,
19,
19,
12,
12,
13,
2,
3,
3,
8,
8,
13,
2,
5,
34,
33,
7,
10,
34,
33,
4,
4,
4,
3,
3,
2,
2,
11,
11,
4,
4,
3,
3,
3,
3,
9,
9,
13,
27,
27,
14,
15,
0,
2,
2,
1,
1,
2,
2,
6,
6,
4,
4,
1,
20,
19,
19,
22,
11,
12,
12,
16,
27,
26,
5,
5,
5,
12,
12,
18,
18,
14,
2,
9,
9,
8,
8,
0,
14,
13,
13,
8,
8,
3,
3,
2,
2,
0,
0,
4,
4,
2,
2,
6,
6,
6,
6,
2,
2,
7,
7,
8,
8,
15,
1,
2,
2,
5,
24,
24,
46,
46,
46,
45,
13,
13,
13,
15,
36,
33,
33,
26,
10,
10,
10,
7,
7,
5,
5,
0,
0,
9,
9,
14,
1,
3,
3,
9,
9,
9,
9,
4,
4,
3,
16,
16,
16,
10,
10,
11,
35,
34,
34,
32,
7,
7,
7,
7,
7,
13,
13,
6,
6,
1,
1,
7,
7,
6,
6,
0,
0,
5,
5,
4,
4,
7,
7,
6,
6,
1,
14,
13,
13,
5,
5,
5,
16,
15,
15,
15,
1,
2,
19,
18,
18,
13,
1,
3,
3,
10,
10,
4,
4,
5,
5,
7,
7,
3,
3,
11,
23,
23,
23,
26,
5,
6,
34,
34,
46,
42,
12,
12,
-1,
0,
0,
6,
6,
7,
7,
12,
12,
13,
13,
6,
6,
-1,
-1,
5,
5,
5,
5,
7,
7,
8,
8,
5,
5,
1,
1,
0,
0,
5,
5,
7,
7,
10,
10,
5,
5,
1,
1,
-1,
-1,
2,
2,
4,
4,
9,
9,
6,
6,
0,
0,
1,
1,
1,
1,
5,
5,
4,
4,
1,
1,
7,
7,
8,
8,
1,
1,
2,
14,
13,
13,
14,
14,
11,
11,
6,
6,
6,
26,
25,
25,
15,
2,
3,
3,
4,
4,
6,
6,
13,
13,
5,
5,
3,
3,
5,
5,
0,
0,
4,
4,
2,
2,
3,
3,
6,
6,
5,
5,
1,
1,
0,
0,
5,
5,
5,
5,
0,
0,
2,
2,
5,
5,
3,
3,
-1,
13,
12,
12,
13,
1,
2,
2,
0,
0,
0,
0,
1,
1,
0,
13,
13,
13,
18,
1,
2,
13,
12,
12,
8,
8,
5,
19,
18,
18,
18,
1,
2,
2,
5,
5,
4,
4,
12,
12,
18,
18,
12,
12,
5,
5,
6,
6,
9,
9,
16,
38,
37,
15,
15,
3,
12,
12,
21,
3,
5,
18,
18,
4,
4,
4,
7,
7,
14,
14,
10,
10,
3,
16,
15,
15,
19,
3,
9,
21,
21,
21,
28,
28,
22,
22,
12,
1,
1,
1,
5,
5,
0,
0,
1,
1,
1,
1,
3,
16,
16,
32,
31,
8,
9,
9,
17,
35,
33,
22,
22,
22,
15,
1,
2,
13,
13,
13,
20,
2,
2,
2,
1,
1,
10,
10,
19,
19,
15,
15,
10,
10,
2,
2,
1,
1,
1,
1,
5,
5,
5,
5,
0,
0,
3,
15,
15,
15,
6,
6,
15,
15,
19,
3,
3,
3,
0,
11,
10,
10,
8,
8,
6,
6,
2,
2,
4,
4,
4,
4,
4,
4,
5,
5,
10,
10,
6,
6,
2,
2,
10,
10,
9,
9,
10,
26,
24,
4,
6,
17,
15,
15,
10,
10,
2,
14,
13,
29,
28,
13,
13,
13,
11,
11,
12,
12,
8,
8,
4,
4,
1,
1,
3,
3,
1,
1,
6,
6,
14,
27,
26,
14,
15,
2,
7,
26,
25,
25,
21,
3,
7,
20,
18,
18,
9,
9,
3,
3,
11,
11,
20,
20,
13,
1,
7,
7,
8,
8,
10,
22,
20,
20,
25,
25,
24,
24,
21,
21,
15,
1,
5,
5,
14,
14,
12,
12,
10,
10,
8,
8,
7,
7,
4,
4,
2,
2,
5,
22,
22,
22,
18,
7,
8,
8,
11,
11,
6,
6,
2,
2,
6,
22,
22,
8,
9,
9,
13,
13,
11,
11,
6,
6,
8,
8,
2,
2,
12,
12,
13,
13,
10,
10,
11,
0,
1,
1,
7,
20,
19,
5,
6,
6,
12,
12,
5,
5,
2,
20,
20,
20,
21,
21,
14,
14,
7,
7,
0,
0,
3,
3,
2,
2,
7,
7,
6,
6,
3,
3,
7,
7,
1,
1,
4,
4,
14,
14,
7,
7,
3,
3,
2,
2,
-1,
-1,
2,
2,
3,
3,
2,
2,
2,
2,
0,
0,
6,
6,
7,
7,
8,
8,
9,
9,
10,
10,
5,
5,
2,
2,
6,
6,
7,
21,
21,
36,
33,
6,
6,
38,
37,
57,
54,
13,
14,
14,
9,
9,
2,
2,
2,
2,
2,
2,
6,
6,
14,
14,
16,
16,
8,
8,
1,
17,
16,
16,
10,
10,
5,
5,
1,
1,
3,
3,
8,
8,
10,
10,
4,
4,
3,
15,
14,
30,
29,
29,
24,
10,
10,
10,
1,
1,
4,
4,
5,
5,
6,
6,
10,
10,
10,
10,
6,
6,
2,
2,
3,
3,
3,
3,
2,
2,
7,
19,
17,
5,
5,
5,
0,
0,
1,
1,
4,
4,
4,
4,
14,
36,
32,
7,
18,
43,
42,
24,
25,
3,
4,
4,
3,
3,
5,
5,
7,
7,
11,
11,
14,
2,
3,
3,
1,
1,
0,
0,
6,
6,
3,
3,
8,
8,
7,
7,
0,
0,
2,
2,
0,
0,
2,
2,
8,
8,
10,
10,
11,
11,
4,
23,
22,
10,
12,
12,
15,
15,
17,
6,
7,
7,
1,
1,
6,
6,
10,
10,
9,
9,
6,
6,
0,
0,
7,
7,
12,
12,
7,
20,
17,
2,
8,
8,
14,
14,
7,
7,
12,
12,
12,
1,
5,
16,
15,
4,
4,
4,
1,
1,
8,
8,
13,
13,
16,
16,
13,
1,
1,
1,
9,
9,
8,
8,
13,
13,
13,
13,
8,
8,
10,
23,
22,
2,
4,
4,
11,
11,
4,
4,
5,
5,
10,
10,
12,
1,
2,
2,
3,
3,
9,
9,
8,
8,
11,
11,
4,
4,
8,
8,
10,
10,
5,
5,
0,
15,
15,
29,
26,
13,
14,
1,
4,
25,
24,
8,
8,
8,
2,
2,
8,
8,
3,
3,
1,
1,
6,
6,
12,
12,
7,
7,
4,
4,
2,
2,
0,
14,
13,
13,
8,
31,
31,
17,
18,
1,
3,
3,
13,
13,
14,
14,
10,
10,
19,
33,
32,
7,
9,
58,
58,
58,
62,
18,
18,
2,
6,
30,
30,
51,
48,
10,
11,
11,
9,
9,
7,
7,
8,
8,
10,
10,
2,
2,
3,
3,
5,
5,
3,
3,
6,
6,
1,
1,
1,
1,
6,
6,
9,
9,
10,
10,
13,
13,
10,
10,
5,
5,
1,
1,
7,
26,
26,
26,
17,
17,
10,
10,
5,
17,
17,
17,
21,
21,
14,
14,
5,
5,
6,
17,
16,
16,
22,
9,
10,
10,
6,
6,
1,
1,
6,
6,
10,
10,
5,
5,
0,
0,
0,
14,
14,
14,
21,
9,
10,
10,
0,
0,
9,
9,
4,
17,
17,
17,
10,
10,
10,
10,
4,
4,
9,
9,
10,
21,
21,
21,
13,
13,
5,
5,
2,
20,
18,
18,
10,
10,
20,
20,
25,
14,
14,
1,
1,
1,
5,
5,
3,
3,
1,
1,
2,
2,
2,
2,
3,
3,
3,
3,
2,
2,
2,
2,
6,
6,
12,
0,
1,
12,
12,
26,
25,
9,
10,
10,
7,
7,
6,
6,
2,
2,
3,
3,
2,
2,
4,
4,
5,
5,
11,
11,
13,
1,
3,
18,
18,
18,
12,
12,
6,
6,
5,
5,
1,
1,
2,
2,
2,
2,
3,
3,
2,
2,
7,
7,
9,
9,
1,
1,
2,
2,
1,
1,
0,
0,
8,
8,
6,
6,
0,
0,
2,
2,
10,
10,
10,
10,
3,
3,
6,
6,
2,
2,
2,
2,
10,
10,
7,
7,
0,
0,
6,
18,
17,
17,
18,
18,
14,
2,
8,
8,
1,
1,
11,
11,
10,
10,
8,
8,
2,
2,
6,
6,
12,
23,
23,
23,
17,
4,
5,
5,
2,
2,
0,
0,
2,
2,
4,
4,
8,
8,
5,
5,
-1,
-1,
6,
6,
7,
7,
7,
25,
24,
12,
13,
13,
12,
12,
6,
6,
6,
6,
4,
4,
1,
1,
8,
8,
8,
22,
21,
21,
