EMG_S3/DS0051.CSV

Memory Length,4000,
Trigger Level,-4.80000e+02,
Source,CH1,
Probe,1.0X,
Vertical Units,V,
Vertical Scale,1.00000e+00,
Vertical Position,0.00000e+00,
Horizontal Units,S,
Horizontal Scale,1.00000e-01,
Horizontal Position,0.0000000e+00,
Horizontal Mode,Roll Mode,
Waveform Last Dot Address,4000,
Sampling Period,4.00000e-04,
Firmware,V1.14,
Time, ,
Mode,Fast,
Waveform Data,
0,
0,
4,
4,
4,
4,
-1,
-1,
5,
5,
6,
6,
0,
0,
7,
7,
8,
8,
9,
9,
9,
9,
6,
6,
5,
5,
2,
2,
0,
0,
2,
2,
4,
4,
0,
0,
2,
2,
1,
1,
5,
5,
9,
9,
2,
2,
2,
2,
2,
2,
1,
1,
1,
1,
-1,
-1,
2,
2,
2,
2,
1,
1,
0,
0,
2,
2,
1,
1,
0,
0,
1,
1,
1,
1,
4,
4,
8,
8,
5,
5,
8,
8,
14,
14,
14,
14,
13,
13,
5,
5,
0,
0,
5,
5,
9,
9,
9,
9,
4,
4,
2,
2,
4,
4,
0,
0,
-1,
-1,
1,
1,
1,
1,
0,
0,
1,
1,
1,
1,
2,
2,
8,
8,
14,
14,
8,
8,
1,
1,
4,
4,
7,
7,
1,
1,
10,
10,
14,
14,
4,
4,
9,
26,
25,
11,
12,
12,
22,
22,
21,
1,
3,
15,
14,
14,
16,
16,
12,
12,
9,
9,
1,
1,
-1,
-1,
3,
3,
1,
18,
16,
16,
13,
13,
18,
50,
48,
48,
40,
9,
10,
10,
4,
18,
18,
18,
12,
1,
3,
17,
16,
30,
30,
30,
30,
30,
24,
11,
11,
11,
8,
8,
11,
11,
12,
1,
2,
2,
6,
6,
6,
23,
23,
36,
34,
21,
21,
21,
12,
12,
9,
9,
1,
1,
5,
5,
8,
8,
6,
6,
6,
6,
4,
4,
1,
1,
2,
2,
8,
8,
10,
10,
1,
1,
4,
4,
12,
12,
10,
10,
2,
2,
8,
8,
3,
3,
4,
4,
4,
4,
3,
3,
6,
6,
5,
5,
0,
0,
2,
2,
-1,
-1,
3,
3,
1,
1,
2,
2,
2,
2,
2,
2,
5,
5,
6,
6,
1,
1,
5,
5,
12,
12,
14,
14,
6,
6,
1,
1,
4,
4,
3,
3,
1,
1,
9,
9,
14,
14,
13,
13,
11,
11,
2,
15,
14,
14,
24,
24,
21,
7,
8,
8,
1,
1,
0,
0,
-1,
-1,
3,
3,
3,
3,
-1,
-1,
5,
5,
8,
8,
6,
6,
3,
3,
5,
5,
2,
2,
2,
2,
7,
7,
5,
5,
1,
1,
2,
2,
5,
5,
2,
2,
1,
1,
4,
4,
8,
8,
8,
8,
3,
17,
16,
3,
4,
22,
22,
42,
41,
27,
28,
5,
11,
24,
22,
9,
9,
9,
0,
0,
2,
2,
12,
12,
16,
16,
15,
15,
19,
19,
18,
7,
7,
7,
5,
27,
25,
25,
25,
13,
14,
14,
16,
16,
14,
1,
2,
14,
13,
13,
6,
6,
4,
4,
0,
0,
9,
25,
25,
25,
5,
30,
30,
56,
53,
20,
20,
2,
6,
18,
16,
16,
20,
20,
16,
16,
12,
12,
7,
7,
2,
2,
5,
5,
2,
2,
0,
0,
1,
1,
0,
0,
5,
5,
11,
11,
9,
9,
0,
0,
2,
2,
1,
1,
1,
1,
1,
1,
2,
2,
11,
11,
11,
11,
6,
6,
5,
5,
1,
1,
8,
8,
6,
6,
9,
9,
16,
16,
16,
16,
10,
10,
3,
3,
1,
1,
5,
5,
12,
12,
12,
12,
3,
3,
-1,
-1,
1,
1,
-1,
-1,
1,
1,
5,
5,
2,
2,
0,
0,
-1,
-1,
1,
1,
4,
4,
5,
5,
-1,
-1,
-1,
-1,
-1,
-1,
3,
3,
4,
4,
8,
8,
4,
4,
0,
0,
-1,
-1,
0,
0,
0,
0,
4,
4,
1,
1,
6,
6,
14,
14,
16,
16,
10,
10,
0,
0,
2,
2,
2,
2,
8,
8,
9,
9,
8,
8,
10,
10,
14,
14,
12,
12,
14,
39,
39,
21,
0,
0,
2,
2,
0,
0,
-1,
-1,
0,
0,
2,
2,
3,
3,
0,
0,
6,
6,
10,
10,
6,
6,
10,
10,
7,
7,
3,
3,
4,
4,
1,
1,
5,
19,
18,
18,
21,
1,
2,
2,
8,
8,
11,
11,
9,
9,
7,
7,
3,
3,
2,
2,
8,
8,
3,
3,
3,
3,
5,
5,
3,
3,
10,
10,
6,
6,
2,
2,
1,
1,
0,
0,
4,
4,
6,
6,
6,
6,
2,
2,
2,
2,
1,
1,
3,
3,
3,
3,
1,
1,
5,
5,
4,
21,
21,
21,
17,
1,
2,
2,
1,
14,
14,
14,
10,
10,
4,
19,
18,
18,
8,
8,
14,
1,
3,
16,
15,
15,
17,
17,
11,
11,
5,
5,
-1,
-1,
-1,
-1,
2,
2,
2,
2,
1,
1,
1,
1,
2,
2,
3,
3,
3,
3,
6,
6,
10,
10,
9,
9,
7,
7,
1,
1,
5,
5,
10,
10,
6,
6,
8,
8,
13,
1,
2,
14,
12,
12,
10,
10,
4,
4,
13,
13,
13,
0,
1,
1,
3,
3,
7,
7,
8,
8,
4,
4,
0,
0,
2,
2,
-1,
-1,
-1,
-1,
3,
3,
0,
0,
-1,
-1,
0,
0,
-1,
-1,
4,
4,
4,
4,
1,
1,
3,
3,
2,
2,
1,
1,
-1,
-1,
4,
4,
10,
10,
11,
11,
5,
5,
2,
2,
2,
2,
6,
6,
14,
14,
13,
13,
9,
9,
0,
0,
6,
6,
1,
1,
-1,
-1,
2,
2,
0,
0,
0,
0,
2,
2,
7,
7,
1,
1,
2,
2,
6,
6,
10,
10,
9,
9,
14,
14,
8,
8,
5,
5,
9,
9,
10,
10,
6,
6,
1,
1,
4,
4,
1,
1,
5,
5,
7,
7,
2,
2,
3,
3,
2,
13,
12,
12,
17,
5,
5,
5,
1,
1,
2,
13,
13,
2,
2,
2,
12,
12,
20,
20,
20,
20,
17,
17,
12,
12,
13,
13,
15,
15,
9,
9,
12,
31,
30,
30,
32,
21,
21,
7,
7,
7,
3,
3,
2,
2,
1,
1,
8,
8,
4,
4,
0,
0,
-1,
-1,
5,
5,
11,
11,
13,
13,
12,
12,
9,
9,
13,
1,
2,
14,
13,
13,
5,
5,
2,
2,
1,
1,
9,
9,
9,
9,
6,
6,
8,
8,
7,
7,
1,
1,
4,
4,
5,
5,
8,
8,
10,
10,
2,
2,
5,
5,
6,
6,
5,
5,
7,
7,
5,
5,
0,
0,
-1,
-1,
1,
1,
0,
0,
3,
3,
2,
2,
2,
2,
5,
5,
4,
4,
2,
2,
4,
4,
9,
9,
9,
9,
13,
13,
17,
5,
6,
6,
3,
3,
4,
4,
9,
9,
13,
13,
10,
10,
3,
3,
0,
0,
1,
1,
2,
2,
1,
1,
3,
3,
6,
6,
1,
1,
8,
8,
3,
3,
0,
0,
1,
1,
0,
15,
15,
15,
10,
10,
6,
6,
7,
20,
42,
42,
42,
42,
37,
10,
42,
64,
64,
41,
42,
4,
4,
4,
13,
13,
22,
22,
24,
24,
26,
26,
31,
7,
8,
8,
10,
10,
1,
1,
4,
4,
2,
2,
3,
3,
12,
12,
4,
4,
6,
6,
6,
6,
14,
14,
14,
3,
4,
4,
0,
0,
2,
13,
12,
12,
9,
9,
1,
12,
12,
12,
10,
10,
5,
5,
2,
2,
2,
2,
5,
5,
7,
7,
2,
13,
11,
11,
7,
7,
2,
2,
0,
0,
0,
0,
1,
1,
4,
4,
5,
5,
5,
5,
2,
2,
2,
2,
8,
20,
18,
18,
18,
4,
5,
5,
4,
4,
6,
6,
2,
14,
14,
28,
28,
14,
15,
1,
4,
18,
18,
18,
18,
6,
6,
6,
1,
1,
4,
4,
8,
8,
1,
1,
8,
8,
2,
2,
1,
1,
1,
1,
7,
7,
14,
14,
12,
12,
3,
3,
10,
10,
12,
12,
13,
13,
10,
10,
5,
5,
9,
9,
12,
12,
17,
2,
3,
30,
30,
51,
50,
38,
38,
12,
12,
12,
8,
8,
9,
9,
7,
7,
15,
15,
18,
18,
10,
10,
2,
2,
6,
6,
13,
13,
7,
7,
2,
19,
18,
31,
31,
16,
16,
4,
4,
4,
-1,
-1,
2,
2,
1,
1,
3,
3,
5,
5,
4,
4,
12,
12,
13,
13,
10,
10,
7,
7,
8,
8,
2,
13,
13,
13,
13,
13,
6,
6,
10,
10,
11,
11,
4,
4,
1,
1,
6,
6,
6,
6,
6,
6,
5,
5,
3,
3,
3,
14,
14,
14,
6,
6,
2,
2,
5,
5,
3,
3,
3,
3,
5,
5,
1,
1,
1,
1,
5,
5,
2,
2,
2,
2,
3,
3,
2,
2,
1,
1,
-1,
-1,
0,
0,
4,
4,
5,
5,
2,
2,
4,
4,
4,
4,
5,
5,
4,
4,
5,
5,
9,
9,
6,
6,
3,
3,
10,
10,
8,
8,
0,
0,
6,
6,
4,
4,
4,
4,
6,
6,
1,
1,
3,
3,
4,
4,
8,
8,
1,
1,
9,
9,
8,
8,
10,
10,
6,
6,
1,
1,
2,
2,
3,
3,
5,
5,
0,
0,
6,
6,
14,
14,
14,
14,
10,
10,
1,
1,
8,
8,
2,
2,
10,
10,
14,
14,
6,
6,
6,
19,
18,
29,
28,
28,
33,
16,
17,
4,
26,
63,
63,
44,
44,
3,
4,
4,
12,
12,
18,
18,
26,
26,
24,
24,
17,
17,
13,
1,
1,
1,
5,
5,
2,
2,
4,
4,
4,
4,
10,
10,
13,
13,
3,
3,
2,
2,
1,
1,
5,
5,
3,
3,
8,
8,
5,
5,
5,
5,
0,
0,
0,
11,
10,
10,
10,
10,
2,
13,
13,
27,
25,
12,
12,
1,
7,
7,
13,
13,
18,
18,
18,
7,
8,
8,
0,
0,
0,
0,
2,
2,
1,
1,
4,
4,
3,
3,
2,
2,
1,
1,
2,
2,
3,
3,
0,
0,
2,
2,
4,
4,
4,
4,
10,
10,
13,
13,
6,
6,
2,
2,
2,
2,
0,
0,
5,
5,
-1,
-1,
4,
4,
10,
10,
9,
9,
2,
2,
10,
10,
1,
1,
6,
6,
6,
6,
2,
2,
0,
0,
6,
19,
18,
18,
21,
21,
26,
26,
18,
1,
2,
20,
19,
30,
29,
29,
29,
29,
24,
24,
19,
19,
12,
1,
2,
2,
4,
4,
5,
5,
12,
12,
15,
15,
14,
14,
20,
9,
10,
10,
2,
2,
0,
0,
1,
1,
3,
3,
2,
2,
3,
14,
14,
14,
7,
7,
2,
2,
5,
5,
3,
3,
6,
6,
0,
0,
0,
0,
3,
3,
4,
4,
12,
12,
7,
7,
5,
18,
17,
5,
6,
6,
3,
3,
4,
4,
2,
2,
6,
6,
4,
4,
8,
8,
1,
1,
1,
1,
10,
10,
17,
17,
12,
1,
9,
27,
26,
8,
9,
9,
2,
2,
6,
6,
1,
14,
14,
2,
2,
13,
13,
2,
2,
2,
7,
7,
4,
4,
2,
2,
-1,
-1,
7,
7,
12,
12,
8,
8,
5,
5,
5,
5,
2,
2,
9,
20,
19,
19,
13,
13,
7,
7,
8,
8,
0,
0,
0,
0,
3,
3,
6,
6,
1,
1,
1,
13,
12,
12,
3,
3,
10,
10,
18,
18,
18,
18,
19,
19,
10,
10,
5,
5,
10,
10,
13,
13,
17,
17,
16,
16,
18,
18,
15,
15,
10,
10,
2,
28,
27,
42,
40,
23,
24,
4,
4,
4,
2,
2,
5,
5,
13,
13,
15,
15,
11,
0,
1,
1,
5,
5,
0,
0,
4,
4,
9,
9,
1,
1,
6,
6,
8,
8,
9,
9,
11,
11,
3,
3,
-1,
-1,
0,
0,
2,
2,
3,
3,
6,
6,
1,
1,
2,
2,
2,
2,
-1,
-1,
0,
13,
12,
12,
21,
21,
11,
11,
17,
17,
25,
25,
17,
17,
14,
14,
4,
4,
5,
5,
5,
5,
7,
7,
8,
8,
12,
12,
12,
1,
4,
4,
5,
5,
5,
5,
6,
6,
2,
2,
6,
6,
14,
3,
4,
4,
2,
2,
7,
7,
1,
12,
12,
1,
4,
4,
12,
0,
1,
1,
3,
3,
1,
1,
6,
6,
5,
5,
2,
2,
6,
6,
6,
6,
14,
14,
13,
13,
4,
4,
2,
2,
9,
9,
14,
14,
10,
10,
0,
0,
1,
1,
5,
5,
1,
1,
5,
5,
5,
5,
10,
10,
7,
7,
2,
28,
28,
28,
32,
7,
7,
7,
11,
11,
17,
17,
16,
16,
9,
9,
2,
2,
2,
2,
2,
2,
0,
0,
5,
5,
0,
0,
1,
1,
5,
5,
3,
14,
14,
14,
18,
7,
8,
8,
6,
6,
2,
2,
11,
11,
4,
4,
2,
2,
2,
2,
5,
5,
4,
4,
7,
7,
8,
8,
3,
3,
8,
8,
11,
11,
2,
2,
5,
5,
9,
9,
10,
10,
6,
6,
6,
6,
6,
6,
0,
0,
3,
3,
1,
1,
7,
7,
6,
6,
10,
25,
24,
5,
5,
5,
13,
13,
10,
10,
1,
1,
6,
6,
2,
2,
2,
2,
7,
7,
6,
6,
9,
9,
9,
9,
12,
1,
2,
2,
9,
9,
11,
11,
12,
12,
7,
7,
2,
2,
7,
7,
2,
2,
4,
4,
2,
2,
0,
0,
2,
2,
2,
2,
6,
6,
6,
6,
8,
8,
9,
9,
7,
7,
2,
2,
4,
18,
18,
18,
16,
16,
9,
9,
2,
2,
5,
5,
14,
14,
11,
11,
10,
10,
12,
12,
9,
9,
2,
13,
12,
12,
16,
5,
5,
5,
12,
12,
18,
18,
20,
9,
9,
9,
6,
19,
18,
18,
10,
10,
5,
5,
9,
9,
12,
12,
18,
18,
18,
18,
12,
1,
11,
59,
58,
58,
65,
33,
34,
6,
6,
6,
14,
29,
28,
28,
30,
30,
23,
23,
18,
18,
17,
17,
19,
19,
14,
2,
6,
21,
21,
9,
9,
9,
2,
2,
7,
7,
10,
10,
12,
12,
10,
10,
4,
4,
0,
0,
2,
2,
5,
5,
2,
2,
0,
0,
1,
1,
6,
6,
5,
5,
7,
7,
2,
2,
8,
8,
6,
6,
10,
10,
7,
7,
1,
1,
6,
18,
16,
4,
13,
36,
15,
15,
16,
1,
1,
1,
5,
5,
5,
5,
6,
6,
6,
6,
9,
9,
2,
2,
6,
6,
3,
3,
4,
4,
9,
9,
9,
9,
6,
6,
5,
5,
2,
2,
2,
2,
4,
4,
10,
10,
14,
14,
13,
13,
3,
3,
4,
4,
10,
10,
9,
9,
1,
1,
10,
10,
11,
11,
7,
7,
6,
22,
21,
3,
4,
4,
10,
10,
10,
10,
17,
17,
12,
12,
3,
3,
9,
9,
6,
6,
7,
7,
10,
10,
6,
20,
20,
20,
18,
18,
13,
13,
7,
7,
0,
0,
2,
2,
8,
8,
6,
6,
2,
2,
5,
5,
6,
6,
2,
2,
7,
7,
12,
12,
8,
21,
21,
21,
13,
1,
2,
14,
14,
14,
14,
1,
2,
2,
4,
4,
2,
22,
22,
36,
34,
34,
38,
5,
5,
5,
15,
15,
19,
19,
20,
20,
18,
18,
18,
18,
23,
23,
24,
5,
10,
44,
43,
43,
38,
5,
6,
6,
4,
4,
1,
1,
11,
25,
25,
14,
14,
14,
16,
16,
14,
2,
11,
11,
14,
14,
9,
41,
40,
16,
17,
0,
1,
1,
6,
6,
14,
14,
11,
11,
5,
5,
3,
3,
3,
3,
-1,
-1,
2,
2,
6,
6,
8,
8,
2,
2,
1,
1,
0,
0,
-1,
-1,
2,
2,
6,
6,
10,
10,
5,
5,
2,
2,
11,
11,
9,
9,
0,
0,
9,
9,
18,
18,
9,
9,
1,
1,
9,
9,
10,
10,
15,
15,
16,
5,
5,
5,
1,
1,
0,
0,
2,
2,
0,
0,
5,
5,
4,
4,
0,
0,
0,
0,
1,
1,
2,
2,
1,
1,
8,
8,
15,
15,
6,
6,
5,
5,
14,
14,
9,
9,
5,
5,
7,
7,
12,
12,
12,
1,
5,
25,
25,
25,
26,
26,
24,
24,
20,
20,
12,
12,
6,
6,
2,
2,
12,
12,
17,
17,
23,
23,
18,
6,
6,
6,
1,
1,
8,
8,
9,
9,
4,
4,
9,
9,
1,
1,
7,
7,
8,
8,
12,
24,
23,
23,
27,
6,
10,
51,
51,
51,
42,
15,
16,
16,
8,
8,
10,
10,
1,
1,
9,
9,
17,
17,
17,
17,
13,
13,
9,
9,
13,
13,
14,
14,
10,
10,
5,
5,
1,
1,
5,
5,
9,
9,
10,
10,
10,
10,
5,
5,
5,
5,
13,
13,
5,
5,
0,
0,
2,
2,
6,
6,
7,
7,
3,
3,
2,
2,
0,
15,
15,
15,
19,
7,
8,
8,
5,
5,
4,
4,
1,
1,
1,
1,
5,
5,
1,
20,
18,
18,
20,
4,
12,
39,
38,
38,
35,
22,
22,
5,
6,
6,
10,
10,
9,
9,
9,
9,
5,
5,
0,
0,
8,
8,
13,
13,
16,
16,
10,
10,
6,
6,
1,
1,
2,
2,
7,
7,
7,
7,
5,
5,
7,
7,
10,
10,
4,
4,
4,
4,
1,
1,
1,
1,
9,
9,
9,
9,
12,
12,
14,
1,
1,
1,
6,
6,
8,
8,
10,
10,
10,
10,
7,
7,
8,
8,
9,
9,
1,
1,
7,
7,
9,
9,
1,
1,
4,
4,
3,
3,
5,
5,
2,
2,
11,
11,
4,
4,
2,
2,
6,
6,
6,
6,
10,
10,
5,
5,
0,
0,
2,
2,
2,
2,
1,
1,
1,
1,
1,
1,
3,
3,
-1,
-1,
5,
5,
15,
15,
12,
1,
2,
15,
14,
2,
2,
2,
11,
11,
13,
1,
2,
2,
10,
10,
14,
14,
22,
22,
20,
6,
6,
6,
8,
8,
14,
14,
10,
10,
5,
5,
1,
1,
5,
5,
12,
12,
12,
12,
13,
2,
2,
2,
8,
8,
8,
8,
6,
6,
2,
2,
9,
9,
5,
5,
13,
13,
8,
8,
8,
8,
3,
3,
0,
19,
19,
19,
11,
11,
4,
4,
3,
3,
6,
6,
3,
18,
18,
6,
6,
17,
16,
16,
18,
3,
10,
23,
22,
22,
13,
1,
2,
2,
3,
3,
5,
5,
14,
14,
17,
17,
16,
16,
9,
9,
7,
7,
4,
4,
3,
3,
5,
5,
5,
5,
4,
4,
8,
8,
12,
12,
13,
13,
6,
24,
23,
34,
29,
4,
4,
26,
25,
25,
23,
10,
10,
10,
4,
4,
2,
2,
8,
8,
16,
16,
24,
8,
9,
9,
7,
7,
14,
14,
11,
11,
10,
10,
16,
16,
10,
10,
1,
1,
6,
6,
14,
14,
22,
3,
4,
4,
13,
13,
10,
10,
18,
18,
18,
6,
6,
6,
4,
4,
6,
6,
4,
4,
0,
0,
1,
1,
-1,
-1,
5,
5,
14,
14,
13,
1,
4,
4,
9,
9,
14,
14,
13,
1,
1,
14,
14,
14,
15,
1,
1,
12,
12,
12,
14,
14,
10,
10,
18,
18,
14,
1,
2,
2,
6,
6,
9,
9,
17,
30,
30,
30,
25,
5,
8,
34,
33,
17,
18,
1,
2,
2,
9,
9,
5,
5,
1,
1,
-1,
-1,
1,
1,
3,
3,
2,
2,
0,
0,
2,
2,
8,
8,
8,
8,
5,
5,
2,
2,
0,
0,
2,
2,
2,
2,
0,
0,
2,
2,
5,
5,
3,
3,
1,
1,
0,
0,
0,
0,
3,
3,
6,
6,
5,
5,
1,
1,
9,
9,
9,
9,
0,
0,
-1,
-1,
2,
2,
4,
4,
3,
3,
2,
2,
8,
8,
9,
9,
1,
1,
1,
1,
-1,
-1,
2,
2,
5,
5,
1,
1,
0,
0,
2,
2,
10,
31,
30,
13,
13,
2,
6,
6,
5,
5,
4,
4,
4,
4,
10,
10,
4,
4,
2,
2,
6,
6,
4,
4,
2,
2,
9,
9,
13,
13,
9,
9,
4,
4,
-1,
-1,
0,
0,
0,
0,
5,
19,
18,
18,
21,
21,
11,
11,
6,
6,
3,
3,
4,
4,
6,
6,
0,
0,
1,
1,
5,
5,
6,
6,
8,
8,
2,
2,
0,
0,
0,
0,
1,
1,
6,
6,
16,
16,
17,
2,
4,
23,
22,
22,
15,
2,
7,
7,
5,
5,
12,
12,
7,
7,
6,
6,
6,
6,
4,
4,
4,
4,
1,
1,
10,
10,
7,
7,
7,
7,
12,
12,
9,
9,
2,
22,
22,
22,
28,
4,
5,
5,
2,
2,
2,
2,
6,
6,
9,
9,
2,
2,
1,
1,
2,
2,
0,
0,
0,
0,
6,
6,
8,
8,
10,
10,
5,
5,
9,
9,
12,
1,
2,
2,
2,
13,
13,
13,
18,
18,
9,
9,
7,
7,
8,
8,
7,
24,
23,
23,
26,
26,
24,
24,
24,
24,
29,
7,
25,
63,
62,
35,
35,
9,
10,
10,
1,
1,
7,
7,
12,
12,
16,
16,
15,
15,
10,
10,
6,
6,
0,
0,
6,
6,
9,
9,
3,
3,
6,
6,
0,
0,
-1,
-1,
0,
0,
8,
8,
1,
1,
10,
10,
10,
10,
4,
4,
0,
0,
2,
2,
2,
2,
1,
1,
4,
4,
5,
5,
2,
2,
2,
13,
13,
13,
14,
14,
8,
8,
1,
1,
5,
5,
8,
8,
8,
8,
6,
6,
6,
6,
13,
13,
5,
5,
6,
20,
20,
20,
19,
5,
6,
6,
0,
0,
0,
0,
-1,
-1,
2,
2,
4,
4,
1,
1,
1,
1,
4,
4,
0,
0,
4,
4,
5,
5,
1,
1,
2,
2,
1,
1,
5,
5,
5,
5,
2,
2,
2,
2,
1,
1,
1,
1,
1,
1,
4,
4,
5,
5,
11,
11,
5,
5,
3,
3,
7,
7,
0,
0,
6,
6,
3,
3,
5,
24,
23,
23,
26,
26,
17,
1,
2,
2,
8,
8,
13,
13,
16,
16,
19,
19,
12,
12,
6,
6,
2,
2,
5,
5,
5,
5,
2,
2,
-1,
-1,
0,
0,
1,
1,
4,
4,
0,
0,
-1,
-1,
1,
1,
0,
0,
3,
3,
5,
5,
6,
6,
1,
1,
1,
1,
2,
2,
9,
9,
11,
0,
0,
0,
1,
1,
1,
1,
6,
6,
6,
6,
10,
10,
15,
3,
4,
4,
9,
9,
7,
7,
12,
1,
1,
13,
12,
12,
18,
18,
9,
9,
3,
3,
-1,
-1,
2,
2,
6,
6,
8,
8,
5,
5,
2,
2,
-1,
-1,
0,
0,
1,
1,
3,
3,
0,
0,
2,
2,
5,
5,
9,
9,
18,
18,
18,
18,
14,
14,
10,
10,
2,
17,
16,
16,
23,
23,
19,
19,
18,
18,
15,
15,
6,
6,
2,
2,
1,
1,
2,
2,
1,
17,
16,
16,
20,
9,
9,
9,
1,
1,
6,
31,
31,
31,
28,
3,
4,
4,
9,
9,
15,
15,
19,
19,
14,
14,
9,
9,
2,
2,
4,
4,
0,
0,
4,
4,
7,
7,
10,
10,
18,
18,
13,
13,
22,
40,
39,
18,
18,
6,
8,
8,
4,
4,
3,
3,
6,
6,
7,
7,
2,
2,
1,
1,
2,
2,
2,
2,
-1,
-1,
2,
2,
7,
7,
2,
2,
4,
4,
3,
3,
0,
0,
2,
2,
2,
2,
0,
0,
0,
0,
0,
0,
5,
5,
6,
6,
3,
17,
16,
16,
24,
12,
12,
1,
4,
4,
13,
24,
24,
24,
19,
8,
9,
9,
12,
1,
2,
2,
3,
21,
21,
21,
12,
12,
14,
14,
15,
0,
1,
1,
5,
5,
12,
12,
19,
19,
13,
13,
5,
5,
0,
0,
1,
1,
0,
0,
3,
3,
4,
21,
21,
21,
12,
0,
1,
1,
-1,
-1,
3,
3,
-1,
-1,
-1,
-1,
0,
0,
1,
1,
3,
3,
2,
2,
2,
2,
1,
1,
0,
0,
3,
3,
4,
4,
0,
0,
1,
1,
1,
1,
4,
4,
2,
2,
4,
4,
4,
4,
2,
2,
3,
3,
3,
3,
1,
1,
4,
4,
5,
5,
1,
1,
2,
2,
0,
0,
1,
1,
3,
3,
6,
6,
6,
6,
2,
2,
2,
2,
2,
2,
1,
1,
5,
5,
12,
12,
5,
5,
3,
3,
8,
8,
4,
4,
0,
0,
1,
1,
7,
7,
6,
6,
6,
6,
16,
16,
14,
2,
3,
3,
3,
3,
6,
6,
4,
4,
5,
5,
10,
10,
6,
6,
0,
11,
11,
11,
15,
15,
15,
15,
18,
18,
13,
1,
4,
16,
15,
15,
24,
24,
21,
21,
17,
17,
10,
10,
2,
2,
4,
4,
8,
8,
11,
11,
19,
19,
12,
0,
1,
1,
5,
5,
1,
1,
6,
6,
6,
6,
4,
21,
20,
20,
23,
3,
4,
4,
14,
14,
20,
20,
20,
20,
19,
6,
7,
7,
6,
6,
0,
0,
2,
2,
0,
0,
0,
0,
2,
2,
1,
1,
5,
5,
3,
3,
0,
0,
2,
2,
9,
9,
10,
10,
1,
1,
6,
29,
29,
53,
50,
10,
10,
10,
16,
16,
24,
24,
20,
20,
13,
13,
10,
10,
3,
3,
0,
0,
-1,
-1,
1,
1,
1,
1,
