EMG_S3/DS0059.CSV

Memory Length,4000,
Trigger Level,-4.80000e+02,
Source,CH1,
Probe,1.0X,
Vertical Units,V,
Vertical Scale,1.00000e+00,
Vertical Position,0.00000e+00,
Horizontal Units,S,
Horizontal Scale,1.00000e-01,
Horizontal Position,0.0000000e+00,
Horizontal Mode,Roll Mode,
Waveform Last Dot Address,4000,
Sampling Period,4.00000e-04,
Firmware,V1.14,
Time, ,
Mode,Fast,
Waveform Data,
10,
10,
2,
2,
0,
0,
2,
2,
3,
3,
0,
0,
1,
1,
1,
21,
21,
21,
26,
6,
6,
6,
0,
0,
6,
6,
1,
1,
7,
7,
8,
8,
9,
9,
10,
10,
2,
2,
0,
0,
0,
0,
0,
0,
4,
4,
1,
1,
0,
0,
6,
6,
10,
10,
9,
9,
1,
1,
4,
4,
1,
1,
1,
1,
0,
0,
0,
0,
2,
2,
2,
2,
0,
0,
0,
0,
0,
0,
0,
0,
0,
0,
2,
2,
0,
0,
1,
1,
1,
1,
1,
1,
-2,
-2,
0,
0,
3,
3,
4,
4,
6,
6,
8,
8,
6,
6,
12,
12,
10,
10,
9,
9,
5,
5,
1,
1,
0,
0,
0,
0,
-1,
-1,
0,
0,
4,
4,
5,
5,
4,
4,
1,
1,
4,
4,
2,
2,
0,
0,
-1,
-1,
1,
1,
2,
2,
1,
1,
5,
5,
14,
14,
10,
10,
14,
26,
25,
25,
23,
23,
16,
1,
2,
2,
4,
4,
3,
3,
7,
7,
2,
2,
2,
2,
10,
10,
2,
2,
2,
2,
2,
2,
9,
9,
13,
13,
10,
10,
7,
7,
0,
0,
1,
1,
3,
3,
1,
21,
20,
20,
26,
26,
28,
28,
26,
7,
7,
7,
1,
1,
4,
4,
6,
20,
19,
33,
32,
6,
8,
38,
38,
16,
17,
4,
12,
12,
15,
15,
6,
6,
1,
1,
5,
5,
1,
1,
10,
10,
20,
20,
13,
13,
5,
5,
0,
0,
0,
0,
0,
0,
3,
3,
10,
10,
17,
17,
18,
18,
21,
21,
17,
2,
3,
3,
3,
3,
2,
2,
4,
4,
9,
9,
8,
8,
1,
1,
1,
1,
8,
8,
12,
12,
9,
9,
1,
1,
5,
5,
7,
7,
4,
4,
0,
0,
5,
5,
1,
1,
0,
0,
0,
0,
1,
1,
2,
2,
2,
2,
6,
6,
8,
8,
8,
8,
1,
1,
9,
9,
6,
6,
4,
4,
14,
1,
2,
2,
7,
7,
10,
10,
10,
10,
5,
5,
5,
5,
2,
2,
3,
3,
9,
22,
21,
8,
8,
8,
2,
2,
7,
7,
3,
3,
4,
4,
2,
2,
2,
2,
10,
10,
10,
10,
4,
4,
2,
2,
10,
10,
15,
15,
12,
12,
2,
2,
2,
2,
6,
6,
5,
5,
0,
0,
0,
0,
0,
0,
0,
0,
1,
1,
4,
4,
0,
0,
3,
3,
6,
22,
22,
22,
16,
1,
3,
3,
5,
5,
8,
8,
13,
13,
7,
7,
2,
2,
4,
4,
0,
0,
7,
7,
5,
5,
0,
0,
9,
9,
11,
11,
2,
2,
1,
1,
5,
5,
8,
8,
12,
1,
4,
4,
6,
6,
3,
3,
11,
11,
5,
5,
2,
2,
8,
8,
15,
15,
10,
10,
4,
4,
4,
18,
17,
17,
17,
17,
12,
12,
3,
3,
1,
1,
3,
3,
1,
1,
4,
4,
0,
0,
2,
2,
5,
5,
2,
17,
16,
16,
14,
1,
2,
2,
2,
2,
8,
8,
14,
14,
9,
9,
2,
2,
8,
8,
5,
5,
0,
0,
1,
1,
2,
2,
7,
7,
10,
10,
12,
1,
3,
3,
8,
8,
15,
15,
15,
15,
8,
8,
2,
14,
14,
14,
13,
2,
3,
3,
0,
0,
1,
1,
2,
2,
0,
0,
6,
6,
4,
4,
0,
0,
0,
16,
16,
16,
23,
23,
17,
1,
2,
2,
9,
9,
14,
14,
10,
10,
6,
6,
5,
5,
-1,
-1,
3,
3,
8,
8,
8,
8,
5,
5,
0,
0,
0,
0,
4,
4,
5,
5,
3,
3,
1,
1,
4,
4,
8,
8,
2,
2,
2,
2,
1,
1,
2,
2,
1,
1,
5,
5,
7,
7,
5,
5,
0,
0,
3,
3,
1,
1,
2,
2,
4,
4,
8,
8,
13,
13,
15,
15,
6,
6,
15,
15,
12,
12,
8,
8,
9,
9,
5,
5,
2,
2,
6,
19,
18,
18,
11,
11,
19,
19,
16,
5,
6,
6,
5,
5,
2,
2,
12,
12,
18,
18,
17,
4,
14,
54,
54,
33,
33,
3,
4,
4,
9,
9,
15,
15,
23,
23,
25,
25,
26,
26,
32,
16,
16,
28,
26,
38,
36,
19,
20,
8,
9,
9,
3,
3,
4,
4,
3,
3,
0,
0,
0,
0,
0,
0,
3,
3,
5,
5,
1,
1,
1,
1,
3,
3,
1,
1,
-1,
-1,
0,
0,
0,
0,
2,
2,
1,
1,
1,
1,
3,
3,
5,
5,
4,
4,
1,
1,
1,
1,
1,
1,
4,
4,
7,
7,
5,
5,
1,
1,
8,
8,
0,
0,
6,
6,
10,
10,
13,
2,
3,
3,
6,
6,
10,
10,
9,
9,
2,
2,
5,
5,
1,
1,
1,
1,
0,
0,
-1,
-1,
2,
2,
5,
5,
5,
5,
4,
4,
0,
0,
4,
4,
5,
5,
7,
7,
6,
6,
8,
8,
4,
4,
3,
3,
4,
4,
2,
2,
3,
3,
-1,
-1,
2,
2,
0,
0,
-1,
-1,
1,
1,
4,
4,
3,
3,
0,
0,
2,
2,
0,
0,
2,
2,
5,
5,
1,
1,
3,
3,
6,
6,
3,
3,
12,
12,
18,
18,
14,
14,
8,
8,
1,
1,
2,
2,
2,
2,
1,
1,
10,
10,
16,
16,
7,
7,
2,
2,
8,
8,
2,
2,
0,
0,
0,
0,
-1,
-1,
1,
1,
1,
1,
5,
19,
18,
3,
4,
4,
8,
8,
2,
2,
9,
9,
6,
6,
2,
2,
1,
1,
1,
1,
-1,
-1,
0,
0,
6,
6,
9,
9,
7,
7,
6,
6,
2,
2,
9,
25,
24,
42,
42,
42,
39,
14,
14,
2,
10,
28,
28,
28,
37,
22,
23,
5,
5,
5,
11,
11,
10,
10,
2,
2,
4,
4,
6,
6,
4,
4,
1,
1,
2,
2,
-1,
-1,
0,
0,
5,
5,
7,
7,
4,
4,
5,
5,
4,
4,
0,
0,
2,
2,
0,
0,
7,
7,
9,
9,
1,
1,
1,
1,
2,
2,
1,
1,
1,
1,
1,
1,
1,
1,
7,
7,
11,
11,
14,
14,
12,
12,
13,
32,
28,
28,
22,
22,
23,
9,
9,
9,
0,
0,
6,
6,
13,
13,
14,
14,
10,
10,
10,
10,
10,
10,
9,
9,
2,
2,
4,
4,
0,
0,
1,
1,
0,
0,
2,
2,
1,
1,
7,
7,
12,
12,
8,
8,
8,
8,
7,
7,
2,
2,
6,
6,
2,
2,
0,
0,
5,
17,
16,
16,
8,
8,
4,
4,
5,
5,
4,
4,
6,
6,
6,
6,
10,
10,
1,
1,
10,
10,
9,
9,
4,
4,
2,
2,
10,
10,
11,
11,
9,
9,
6,
6,
2,
2,
5,
5,
10,
10,
9,
9,
6,
6,
1,
1,
2,
2,
6,
6,
6,
6,
6,
6,
1,
1,
1,
1,
1,
1,
2,
2,
0,
0,
0,
0,
9,
9,
13,
13,
10,
10,
12,
12,
6,
6,
5,
5,
10,
10,
11,
11,
14,
29,
28,
43,
42,
16,
16,
4,
14,
29,
29,
29,
33,
33,
26,
9,
10,
10,
1,
1,
0,
0,
2,
2,
2,
2,
4,
4,
5,
5,
5,
5,
8,
8,
2,
2,
1,
19,
19,
45,
45,
28,
29,
6,
7,
7,
6,
19,
18,
18,
18,
18,
9,
9,
15,
15,
18,
7,
8,
8,
3,
3,
5,
5,
8,
8,
8,
8,
2,
24,
24,
24,
31,
31,
28,
17,
17,
1,
1,
1,
8,
8,
2,
2,
2,
2,
4,
4,
12,
12,
8,
8,
6,
6,
2,
2,
1,
1,
10,
10,
6,
6,
5,
5,
3,
3,
0,
0,
4,
4,
8,
8,
8,
8,
6,
6,
3,
3,
-1,
-1,
2,
2,
8,
8,
7,
7,
4,
4,
4,
4,
2,
2,
-2,
-2,
1,
1,
1,
1,
0,
0,
8,
8,
6,
6,
6,
20,
19,
19,
19,
3,
8,
22,
22,
22,
17,
17,
9,
9,
11,
33,
33,
17,
17,
2,
6,
17,
16,
16,
24,
24,
21,
7,
8,
8,
4,
4,
8,
8,
14,
14,
13,
13,
6,
6,
2,
2,
5,
5,
6,
6,
2,
2,
0,
0,
5,
5,
9,
9,
11,
11,
5,
5,
1,
1,
3,
3,
4,
4,
13,
13,
12,
12,
6,
6,
1,
1,
2,
2,
9,
9,
4,
4,
8,
8,
6,
6,
6,
6,
6,
6,
4,
4,
4,
4,
5,
5,
1,
1,
5,
5,
6,
6,
3,
3,
10,
10,
19,
19,
11,
0,
0,
0,
0,
0,
8,
8,
9,
9,
1,
1,
6,
6,
8,
8,
8,
8,
7,
7,
3,
3,
5,
5,
6,
6,
8,
8,
9,
9,
8,
8,
4,
4,
4,
4,
13,
13,
8,
8,
1,
1,
0,
0,
1,
1,
5,
5,
8,
8,
7,
7,
1,
31,
31,
43,
40,
20,
20,
1,
2,
17,
17,
17,
22,
22,
18,
18,
16,
16,
16,
2,
3,
17,
16,
16,
17,
17,
12,
12,
8,
8,
3,
3,
7,
7,
2,
2,
3,
3,
4,
4,
7,
7,
2,
14,
14,
14,
21,
7,
7,
7,
8,
8,
10,
10,
5,
5,
8,
8,
10,
10,
10,
10,
6,
6,
5,
5,
1,
1,
10,
21,
20,
20,
16,
16,
9,
9,
12,
12,
7,
7,
3,
3,
6,
6,
6,
17,
16,
16,
26,
26,
20,
9,
9,
9,
1,
1,
8,
8,
1,
1,
0,
0,
9,
9,
19,
19,
23,
23,
21,
4,
10,
30,
30,
30,
25,
11,
12,
12,
9,
9,
12,
12,
6,
6,
0,
0,
8,
8,
8,
8,
6,
6,
4,
4,
11,
11,
9,
9,
5,
5,
1,
1,
7,
7,
5,
5,
9,
9,
8,
8,
6,
6,
4,
4,
3,
3,
8,
8,
8,
8,
5,
5,
5,
5,
7,
7,
5,
5,
1,
1,
5,
5,
2,
2,
5,
5,
9,
9,
16,
16,
14,
14,
5,
5,
5,
5,
10,
10,
12,
0,
1,
1,
6,
6,
1,
1,
2,
2,
9,
9,
10,
10,
2,
2,
2,
2,
6,
6,
2,
27,
26,
26,
6,
6,
6,
6,
1,
1,
4,
4,
9,
9,
13,
13,
13,
13,
12,
1,
4,
16,
15,
15,
17,
17,
9,
9,
0,
0,
3,
3,
6,
6,
1,
14,
14,
14,
14,
2,
3,
3,
1,
1,
-1,
-1,
-1,
-1,
-1,
-1,
1,
1,
7,
7,
12,
12,
10,
10,
3,
3,
4,
4,
3,
3,
7,
7,
2,
2,
4,
4,
2,
2,
10,
21,
20,
20,
12,
1,
9,
9,
15,
15,
6,
6,
-1,
-1,
2,
2,
1,
1,
3,
3,
1,
1,
1,
1,
-1,
-1,
0,
0,
1,
1,
2,
2,
2,
2,
4,
4,
4,
4,
8,
8,
15,
2,
2,
2,
8,
8,
2,
17,
16,
16,
7,
7,
2,
2,
6,
6,
5,
5,
7,
7,
11,
11,
13,
13,
13,
2,
11,
27,
26,
13,
14,
14,
10,
10,
1,
1,
3,
3,
6,
6,
9,
9,
14,
14,
13,
1,
2,
13,
13,
13,
22,
22,
13,
0,
1,
1,
0,
0,
0,
0,
10,
10,
12,
12,
5,
5,
3,
3,
11,
11,
1,
1,
6,
6,
15,
15,
17,
17,
16,
16,
10,
10,
3,
3,
0,
0,
7,
7,
11,
11,
8,
8,
6,
6,
8,
8,
3,
3,
-1,
-1,
0,
0,
0,
0,
1,
1,
1,
1,
0,
0,
4,
4,
13,
13,
12,
12,
10,
10,
6,
6,
5,
5,
0,
0,
6,
6,
6,
6,
6,
6,
12,
12,
13,
13,
8,
8,
4,
4,
7,
7,
0,
0,
0,
0,
6,
6,
13,
13,
11,
11,
5,
5,
1,
1,
7,
7,
10,
10,
3,
3,
5,
5,
4,
4,
3,
3,
1,
1,
2,
2,
-1,
-1,
4,
4,
11,
11,
2,
15,
15,
15,
22,
10,
10,
10,
4,
4,
12,
12,
16,
16,
14,
3,
4,
4,
5,
5,
10,
10,
10,
10,
6,
6,
0,
0,
3,
3,
1,
1,
1,
1,
2,
2,
0,
0,
0,
0,
2,
2,
2,
2,
2,
2,
1,
18,
18,
18,
16,
1,
2,
2,
5,
5,
0,
0,
0,
0,
3,
3,
9,
9,
9,
9,
3,
3,
3,
3,
1,
1,
8,
8,
6,
6,
0,
0,
2,
2,
0,
0,
0,
0,
0,
0,
3,
3,
2,
2,
0,
0,
-1,
-1,
2,
2,
5,
5,
2,
2,
0,
0,
2,
2,
5,
5,
-1,
-1,
2,
2,
-1,
-1,
1,
1,
6,
6,
15,
15,
13,
0,
2,
2,
10,
10,
13,
13,
9,
9,
0,
0,
6,
6,
1,
1,
2,
2,
0,
13,
12,
12,
20,
1,
2,
2,
5,
5,
5,
5,
3,
3,
0,
11,
10,
10,
20,
20,
14,
1,
5,
19,
18,
18,
12,
12,
9,
9,
7,
7,
1,
1,
6,
6,
2,
2,
2,
14,
13,
13,
8,
8,
2,
2,
0,
0,
1,
1,
6,
6,
8,
8,
6,
6,
5,
5,
1,
1,
1,
1,
2,
2,
5,
5,
1,
1,
2,
2,
6,
6,
9,
9,
9,
9,
7,
7,
4,
4,
1,
1,
5,
5,
10,
10,
8,
8,
3,
17,
16,
16,
8,
8,
2,
2,
7,
7,
6,
6,
9,
9,
18,
2,
3,
17,
16,
16,
9,
9,
0,
0,
3,
3,
8,
8,
11,
11,
9,
9,
6,
6,
3,
3,
0,
0,
1,
1,
0,
0,
1,
1,
4,
4,
6,
6,
6,
6,
7,
7,
5,
5,
-1,
-1,
0,
0,
1,
1,
-1,
-1,
-1,
-1,
-1,
-1,
1,
1,
1,
1,
1,
1,
1,
1,
-1,
-1,
-1,
-1,
0,
0,
1,
1,
0,
0,
1,
1,
5,
5,
6,
6,
4,
4,
1,
1,
3,
3,
1,
1,
0,
0,
9,
9,
9,
9,
6,
6,
5,
5,
3,
3,
3,
3,
5,
5,
0,
0,
4,
4,
6,
6,
10,
10,
7,
7,
3,
3,
0,
0,
10,
10,
10,
10,
3,
3,
5,
5,
8,
8,
8,
8,
10,
10,
3,
3,
1,
1,
2,
2,
9,
9,
13,
2,
2,
27,
26,
26,
24,
8,
9,
9,
4,
4,
7,
7,
4,
4,
6,
6,
2,
2,
1,
1,
0,
0,
0,
0,
0,
0,
0,
0,
0,
0,
1,
1,
2,
2,
6,
6,
6,
6,
0,
0,
6,
6,
7,
7,
4,
4,
10,
10,
2,
2,
8,
8,
7,
7,
5,
5,
8,
8,
13,
13,
10,
10,
15,
15,
24,
37,
36,
36,
32,
17,
17,
1,
2,
23,
23,
23,
28,
11,
12,
12,
6,
6,
7,
7,
11,
11,
14,
14,
4,
4,
5,
5,
6,
6,
6,
6,
1,
1,
1,
1,
4,
4,
2,
2,
0,
0,
-1,
20,
20,
20,
28,
8,
8,
8,
6,
6,
3,
3,
4,
4,
6,
6,
1,
1,
1,
1,
8,
8,
13,
13,
14,
14,
12,
12,
9,
9,
6,
6,
0,
0,
4,
4,
4,
4,
6,
6,
8,
8,
11,
11,
13,
13,
6,
6,
1,
1,
5,
5,
5,
5,
7,
7,
15,
4,
5,
5,
-1,
-1,
1,
1,
4,
4,
2,
2,
10,
10,
9,
9,
9,
9,
10,
10,
6,
6,
1,
1,
2,
2,
7,
20,
19,
19,
9,
9,
6,
6,
1,
1,
8,
8,
5,
5,
4,
4,
1,
1,
10,
10,
14,
14,
10,
10,
6,
6,
2,
2,
7,
7,
5,
5,
2,
2,
4,
4,
8,
8,
5,
5,
1,
1,
3,
3,
1,
1,
2,
2,
2,
2,
2,
2,
0,
0,
0,
0,
2,
2,
5,
5,
4,
4,
5,
5,
3,
3,
1,
1,
3,
3,
10,
10,
9,
9,
5,
5,
3,
3,
1,
1,
2,
2,
0,
0,
8,
8,
14,
14,
16,
16,
11,
11,
3,
3,
2,
2,
4,
4,
1,
14,
14,
14,
16,
16,
17,
17,
17,
17,
11,
11,
2,
2,
4,
4,
4,
4,
10,
10,
12,
12,
5,
5,
2,
2,
1,
1,
8,
8,
6,
6,
-1,
-1,
0,
0,
1,
1,
0,
0,
0,
0,
2,
2,
6,
6,
7,
33,
33,
19,
19,
2,
6,
6,
14,
1,
4,
4,
11,
11,
6,
6,
6,
6,
13,
1,
2,
16,
15,
15,
23,
11,
12,
1,
3,
3,
1,
20,
20,
20,
27,
5,
6,
33,
32,
32,
28,
17,
18,
18,
22,
4,
8,
21,
20,
7,
8,
8,
5,
5,
3,
3,
4,
4,
9,
9,
12,
12,
12,
12,
12,
12,
8,
8,
3,
3,
8,
8,
6,
6,
16,
16,
20,
20,
13,
13,
8,
8,
5,
5,
2,
2,
1,
1,
10,
10,
10,
10,
5,
5,
3,
3,
3,
3,
2,
13,
12,
12,
12,
12,
6,
6,
0,
0,
0,
0,
2,
2,
1,
14,
14,
27,
26,
26,
26,
12,
13,
13,
4,
4,
3,
3,
12,
12,
16,
16,
6,
6,
2,
2,
3,
3,
7,
7,
6,
6,
0,
0,
0,
0,
1,
1,
1,
1,
0,
0,
-1,
-1,
1,
1,
2,
2,
0,
13,
13,
13,
18,
18,
15,
3,
3,
3,
5,
5,
2,
2,
2,
2,
5,
5,
6,
6,
1,
1,
8,
8,
13,
13,
8,
8,
0,
0,
7,
7,
8,
8,
9,
9,
10,
10,
10,
10,
2,
2,
6,
6,
8,
8,
5,
5,
4,
4,
5,
5,
3,
3,
0,
0,
-1,
-1,
2,
2,
2,
2,
9,
9,
2,
15,
15,
15,
24,
24,
15,
0,
1,
1,
7,
7,
13,
13,
16,
16,
18,
18,
10,
10,
2,
23,
23,
23,
16,
1,
3,
3,
1,
1,
2,
2,
5,
5,
9,
9,
8,
8,
7,
7,
4,
4,
-1,
-1,
5,
5,
6,
6,
7,
7,
2,
2,
1,
1,
2,
15,
14,
30,
29,
12,
12,
0,
0,
0,
6,
19,
18,
18,
24,
24,
17,
17,
7,
7,
0,
0,
9,
9,
10,
10,
2,
2,
8,
8,
3,
3,
6,
6,
8,
8,
2,
2,
0,
0,
-1,
-1,
0,
0,
2,
2,
1,
1,
6,
6,
8,
8,
8,
8,
6,
6,
7,
7,
2,
2,
1,
1,
8,
8,
11,
11,
10,
10,
10,
10,
4,
4,
2,
2,
1,
1,
4,
4,
4,
4,
6,
6,
0,
0,
4,
4,
2,
33,
33,
33,
29,
3,
4,
4,
10,
10,
12,
12,
9,
9,
5,
5,
2,
2,
-1,
-1,
0,
0,
-1,
-1,
1,
1,
9,
9,
10,
10,
10,
10,
3,
3,
0,
0,
5,
5,
8,
8,
1,
1,
5,
5,
6,
6,
5,
5,
10,
10,
10,
10,
2,
2,
2,
2,
1,
1,
2,
2,
-1,
13,
12,
27,
26,
14,
14,
14,
4,
4,
1,
1,
10,
10,
10,
10,
1,
1,
6,
6,
5,
5,
0,
0,
2,
2,
9,
9,
10,
10,
4,
4,
3,
3,
10,
10,
18,
18,
13,
1,
1,
1,
8,
8,
12,
12,
12,
0,
1,
1,
1,
1,
1,
1,
2,
2,
4,
4,
4,
4,
0,
0,
0,
0,
1,
1,
2,
2,
1,
1,
3,
3,
-1,
-1,
0,
0,
0,
0,
2,
2,
5,
5,
2,
13,
12,
0,
2,
2,
4,
4,
1,
1,
1,
1,
8,
8,
8,
8,
0,
0,
8,
8,
6,
6,
1,
1,
1,
1,
0,
0,
0,
0,
-1,
-1,
-1,
-1,
0,
0,
1,
1,
1,
1,
4,
4,
4,
4,
4,
20,
19,
19,
27,
6,
6,
6,
14,
14,
9,
9,
4,
4,
1,
1,
3,
3,
7,
7,
8,
8,
1,
1,
0,
0,
-1,
-1,
1,
1,
0,
0,
1,
1,
7,
7,
7,
7,
5,
5,
0,
0,
1,
1,
1,
1,
1,
1,
0,
0,
-1,
-1,
2,
2,
6,
6,
1,
1,
-1,
-1,
0,
0,
1,
1,
-1,
-1,
1,
1,
2,
2,
9,
9,
14,
14,
9,
9,
8,
21,
20,
20,
19,
8,
8,
8,
1,
1,
1,
1,
6,
6,
3,
3,
2,
2,
7,
7,
8,
8,
6,
6,
8,
8,
6,
6,
-1,
-1,
0,
0,
2,
2,
6,
6,
8,
8,
4,
4,
2,
2,
12,
12,
4,
4,
13,
13,
6,
6,
10,
10,
12,
12,
14,
2,
8,
8,
18,
18,
10,
10,
4,
4,
4,
4,
1,
1,
10,
10,
10,
10,
8,
8,
8,
8,
10,
10,
6,
6,
1,
1,
1,
1,
2,
20,
20,
20,
28,
28,
28,
14,
14,
1,
2,
14,
13,
13,
17,
17,
18,
18,
12,
12,
3,
3,
1,
1,
6,
6,
1,
1,
2,
2,
5,
5,
8,
8,
2,
2,
4,
4,
2,
2,
6,
6,
4,
4,
1,
1,
2,
2,
2,
2,
4,
4,
6,
6,
7,
7,
0,
0,
0,
0,
1,
1,
2,
2,
1,
1,
-1,
-1,
2,
2,
5,
5,
2,
2,
2,
2,
6,
6,
0,
0,
2,
2,
2,
2,
0,
0,
7,
7,
7,
7,
2,
16,
15,
15,
8,
8,
0,
0,
4,
4,
10,
10,
13,
13,
11,
11,
2,
2,
2,
2,
5,
5,
12,
12,
20,
20,
17,
17,
11,
11,
8,
8,
5,
5,
0,
0,
8,
8,
11,
11,
6,
6,
6,
6,
3,
3,
2,
2,
5,
5,
7,
7,
2,
2,
5,
5,
4,
4,
5,
17,
17,
17,
12,
1,
2,
2,
9,
9,
9,
9,
4,
4,
0,
0,
4,
4,
10,
10,
14,
14,
12,
1,
5,
19,
18,
18,
12,
12,
4,
4,
5,
5,
10,
10,
8,
8,
2,
2,
10,
10,
6,
6,
4,
4,
6,
6,
5,
5,
0,
0,
5,
5,
5,
5,
5,
5,
10,
10,
2,
16,
16,
16,
22,
10,
11,
11,
10,
10,
10,
10,
5,
5,
10,
10,
16,
16,
14,
14,
5,
5,
0,
0,
0,
0,
6,
6,
4,
4,
6,
6,
2,
2,
7,
7,
10,
10,
5,
5,
0,
0,
4,
4,
6,
6,
1,
1,
8,
8,
11,
11,
6,
6,
2,
2,
0,
0,
2,
2,
1,
1,
0,
0,
4,
4,
10,
10,
14,
14,
6,
6,
9,
9,
4,
4,
-1,
-1,
0,
0,
5,
5,
8,
8,
14,
14,
11,
0,
1,
1,
5,
5,
4,
4,
6,
6,
4,
4,
5,
5,
0,
0,
2,
2,
1,
1,
-1,
-1,
2,
2,
6,
6,
2,
14,
14,
14,
15,
4,
5,
5,
-1,
-1,
8,
8,
2,
2,
6,
6,
8,
8,
10,
10,
8,
8,
5,
5,
-1,
-1,
0,
0,
-1,
-1,
4,
4,
6,
6,
1,
1,
7,
7,
16,
16,
13,
13,
5,
5,
2,
2,
10,
10,
16,
16,
9,
9,
2,
2,
11,
11,
12,
12,
9,
9,
11,
11,
13,
13,
9,
9,
5,
5,
4,
4,
3,
3,
0,
0,
1,
13,
13,
26,
25,
25,
15,
15,
6,
6,
0,
0,
2,
2,
6,
6,
6,
6,
4,
4,
13,
13,
17,
6,
6,
23,
22,
22,
20,
20,
16,
16,
21,
21,
13,
2,
2,
13,
12,
29,
28,
28,
22,
22,
15,
15,
12,
12,
12,
12,
8,
8,
2,
2,
0,
0,
2,
2,
0,
24,
23,
23,
26,
9,
9,
9,
6,
6,
9,
9,
10,
10,
6,
6,
1,
1,
4,
4,
7,
7,
11,
11,
14,
14,
13,
13,
5,
5,
2,
2,
6,
6,
11,
11,
13,
1,
2,
2,
7,
7,
9,
9,
6,
6,
1,
1,
0,
0,
1,
1,
1,
1,
2,
2,
0,
0,
4,
4,
11,
11,
10,
10,
3,
3,
1,
1,
0,
0,
1,
1,
4,
4,
5,
5,
7,
7,
6,
6,
0,
0,
3,
3,
1,
1,
2,
2,
6,
6,
4,
4,
1,
1,
3,
14,
14,
25,
23,
23,
20,
20,
14,
14,
13,
1,
2,
19,
18,
18,
25,
25,
19,
19,
13,
13,
10,
10,
7,
7,
1,
1,
2,
2,
4,
4,
2,
2,
6,
6,
7,
7,
0,
0,
0,
0,
6,
6,
10,
10,
6,
6,
0,
0,
0,
0,
4,
4,
1,
12,
12,
12,
13,
13,
8,
8,
5,
5,
6,
25,
24,
24,
21,
5,
5,
5,
9,
9,
8,
8,
4,
4,
0,
0,
6,
6,
2,
20,
20,
20,
24,
4,
6,
25,
24,
24,
16,
16,
12,
12,
6,
6,
2,
2,
2,
2,
8,
8,
6,
6,
6,
6,
9,
9,
