EMG_S3/DS0045.CSV

Memory Length,4000,
Trigger Level,-4.80000e+02,
Source,CH1,
Probe,1.0X,
Vertical Units,V,
Vertical Scale,1.00000e+00,
Vertical Position,0.00000e+00,
Horizontal Units,S,
Horizontal Scale,1.00000e-01,
Horizontal Position,0.0000000e+00,
Horizontal Mode,Roll Mode,
Waveform Last Dot Address,4000,
Sampling Period,4.00000e-04,
Firmware,V1.14,
Time, ,
Mode,Fast,
Waveform Data,
14,
25,
23,
8,
8,
8,
9,
9,
1,
1,
2,
2,
2,
2,
1,
1,
2,
2,
3,
3,
2,
2,
0,
0,
5,
5,
2,
2,
3,
3,
1,
1,
8,
22,
22,
22,
13,
13,
9,
9,
6,
6,
5,
5,
10,
10,
14,
14,
17,
17,
17,
6,
6,
6,
1,
1,
0,
0,
1,
1,
2,
2,
2,
2,
8,
8,
4,
20,
20,
20,
19,
19,
11,
11,
9,
9,
1,
1,
3,
3,
7,
7,
4,
4,
3,
3,
8,
8,
11,
11,
8,
8,
2,
2,
2,
13,
13,
13,
14,
1,
2,
14,
14,
37,
37,
37,
29,
12,
13,
13,
5,
5,
6,
17,
17,
17,
15,
15,
7,
7,
12,
12,
12,
1,
2,
2,
5,
5,
4,
4,
0,
11,
10,
10,
14,
14,
10,
10,
4,
4,
2,
2,
4,
4,
0,
0,
1,
1,
6,
6,
8,
8,
4,
4,
1,
1,
1,
1,
8,
8,
7,
7,
1,
1,
0,
0,
5,
5,
14,
14,
22,
6,
7,
7,
9,
9,
14,
14,
13,
13,
4,
26,
25,
25,
22,
2,
4,
16,
15,
15,
16,
16,
10,
10,
10,
10,
11,
11,
14,
3,
3,
3,
5,
5,
9,
9,
1,
1,
2,
29,
29,
29,
29,
14,
14,
14,
6,
6,
2,
2,
1,
1,
9,
9,
14,
14,
18,
18,
16,
16,
7,
7,
14,
14,
20,
20,
15,
4,
4,
4,
13,
25,
24,
24,
15,
1,
4,
4,
7,
7,
2,
2,
3,
3,
1,
12,
11,
11,
10,
10,
2,
27,
27,
8,
11,
52,
51,
30,
30,
5,
6,
6,
11,
11,
14,
14,
14,
14,
10,
10,
4,
4,
7,
7,
10,
10,
7,
7,
10,
10,
6,
6,
1,
1,
9,
9,
18,
18,
13,
2,
3,
3,
8,
21,
21,
21,
22,
22,
13,
13,
7,
7,
9,
9,
6,
27,
27,
44,
43,
29,
29,
5,
5,
5,
4,
4,
0,
0,
2,
2,
10,
10,
12,
1,
2,
2,
4,
4,
14,
14,
9,
9,
8,
8,
5,
5,
7,
25,
24,
24,
26,
8,
8,
8,
1,
1,
0,
0,
5,
5,
5,
5,
14,
14,
5,
5,
10,
10,
15,
2,
7,
32,
32,
32,
36,
14,
15,
2,
6,
20,
20,
20,
20,
20,
15,
15,
16,
16,
24,
13,
14,
2,
8,
8,
11,
11,
5,
5,
0,
0,
6,
6,
16,
16,
18,
18,
15,
15,
8,
8,
2,
2,
7,
7,
2,
2,
11,
0,
1,
1,
4,
4,
7,
7,
6,
6,
0,
0,
0,
12,
11,
31,
30,
30,
21,
5,
18,
18,
12,
12,
3,
3,
9,
9,
15,
15,
17,
17,
12,
12,
5,
5,
2,
2,
11,
27,
26,
15,
16,
1,
2,
2,
0,
13,
12,
12,
10,
10,
1,
1,
6,
6,
6,
6,
3,
3,
8,
8,
6,
6,
1,
1,
0,
0,
5,
5,
12,
12,
5,
5,
5,
5,
8,
8,
7,
7,
7,
7,
10,
10,
8,
8,
6,
6,
10,
21,
20,
20,
18,
18,
20,
9,
10,
10,
4,
26,
26,
37,
31,
5,
9,
21,
18,
1,
2,
2,
2,
2,
2,
2,
8,
21,
20,
20,
12,
27,
27,
27,
30,
15,
16,
16,
14,
14,
9,
9,
9,
9,
10,
10,
2,
2,
3,
15,
14,
27,
26,
26,
20,
20,
14,
1,
3,
18,
17,
17,
11,
11,
11,
11,
18,
18,
14,
1,
2,
48,
48,
64,
61,
28,
29,
29,
25,
25,
22,
6,
7,
18,
18,
36,
34,
34,
41,
41,
43,
23,
24,
2,
2,
2,
4,
4,
2,
2,
2,
2,
1,
1,
2,
2,
8,
8,
2,
2,
2,
2,
3,
3,
4,
28,
27,
27,
26,
13,
14,
1,
2,
2,
5,
5,
1,
1,
5,
5,
6,
6,
5,
5,
10,
10,
12,
12,
6,
6,
4,
4,
6,
6,
5,
5,
2,
2,
9,
9,
2,
17,
16,
16,
20,
9,
10,
10,
2,
2,
2,
2,
5,
5,
4,
4,
0,
0,
4,
4,
2,
2,
5,
5,
12,
26,
25,
13,
14,
1,
2,
2,
1,
1,
10,
10,
5,
5,
1,
14,
13,
26,
26,
12,
13,
1,
6,
26,
25,
25,
22,
8,
9,
9,
5,
5,
3,
17,
17,
17,
16,
16,
13,
13,
16,
2,
4,
18,
18,
18,
14,
14,
5,
5,
6,
6,
13,
13,
14,
14,
6,
6,
6,
6,
8,
8,
1,
1,
6,
6,
7,
21,
20,
20,
14,
1,
4,
4,
14,
14,
11,
11,
2,
2,
10,
10,
6,
26,
26,
26,
23,
3,
6,
6,
15,
15,
10,
10,
2,
2,
4,
4,
4,
4,
4,
4,
4,
4,
13,
13,
9,
9,
2,
2,
1,
1,
-1,
11,
10,
22,
21,
21,
16,
5,
22,
22,
26,
6,
6,
6,
2,
2,
3,
3,
4,
4,
1,
1,
1,
1,
3,
3,
2,
2,
6,
6,
6,
6,
4,
4,
-1,
-1,
1,
1,
2,
13,
13,
13,
12,
0,
2,
2,
2,
2,
3,
3,
1,
1,
2,
2,
1,
1,
7,
7,
6,
6,
-1,
-1,
3,
3,
5,
5,
4,
4,
4,
4,
-1,
-1,
1,
1,
1,
1,
4,
18,
18,
18,
21,
21,
13,
0,
1,
1,
8,
8,
9,
9,
8,
8,
6,
6,
4,
4,
2,
2,
1,
1,
-1,
-1,
1,
1,
6,
6,
1,
1,
10,
29,
29,
29,
21,
3,
4,
4,
5,
5,
6,
6,
6,
6,
9,
9,
12,
12,
9,
9,
5,
5,
4,
4,
0,
0,
4,
4,
8,
8,
8,
8,
5,
5,
0,
0,
0,
0,
2,
13,
13,
13,
15,
2,
10,
28,
28,
14,
14,
14,
8,
8,
6,
6,
10,
10,
6,
6,
3,
16,
16,
16,
20,
20,
15,
15,
11,
11,
3,
3,
-1,
-1,
0,
0,
4,
4,
8,
8,
11,
11,
9,
9,
4,
4,
2,
2,
1,
1,
5,
5,
5,
5,
3,
3,
1,
1,
1,
1,
4,
4,
3,
3,
0,
0,
2,
2,
7,
7,
10,
10,
5,
5,
7,
7,
12,
12,
11,
22,
21,
21,
30,
30,
24,
3,
5,
40,
39,
61,
58,
10,
10,
30,
30,
30,
29,
13,
14,
1,
4,
4,
12,
12,
10,
10,
9,
9,
10,
10,
13,
13,
5,
5,
1,
1,
4,
4,
4,
4,
2,
2,
10,
10,
9,
9,
6,
6,
8,
8,
8,
8,
6,
6,
3,
3,
1,
1,
0,
0,
1,
1,
8,
8,
4,
4,
5,
5,
7,
7,
1,
1,
6,
6,
3,
21,
21,
21,
14,
1,
2,
2,
0,
0,
2,
2,
2,
2,
2,
15,
14,
28,
26,
26,
28,
7,
7,
7,
6,
6,
8,
8,
6,
6,
6,
6,
2,
2,
0,
0,
4,
4,
6,
18,
17,
17,
13,
13,
10,
10,
2,
2,
3,
3,
2,
2,
-1,
-1,
2,
2,
2,
2,
10,
10,
13,
13,
4,
4,
11,
11,
16,
16,
9,
9,
6,
6,
8,
8,
2,
2,
1,
1,
2,
2,
9,
9,
7,
7,
1,
1,
9,
9,
5,
5,
12,
27,
26,
26,
22,
4,
5,
5,
13,
28,
28,
28,
29,
14,
14,
0,
1,
12,
11,
30,
30,
30,
22,
2,
3,
18,
17,
6,
6,
6,
10,
10,
0,
0,
1,
1,
0,
0,
8,
8,
11,
0,
0,
0,
6,
6,
13,
2,
2,
2,
4,
4,
1,
1,
1,
1,
0,
0,
1,
1,
0,
0,
2,
2,
2,
2,
11,
24,
22,
22,
20,
6,
28,
42,
38,
5,
5,
18,
17,
17,
10,
10,
10,
28,
28,
42,
41,
21,
21,
6,
18,
31,
30,
30,
39,
28,
29,
16,
17,
2,
4,
4,
13,
13,
10,
10,
7,
7,
0,
0,
2,
2,
7,
7,
9,
9,
2,
17,
16,
16,
10,
10,
15,
15,
13,
13,
20,
5,
5,
5,
14,
14,
13,
2,
15,
34,
33,
33,
26,
7,
7,
7,
0,
0,
0,
0,
5,
5,
7,
7,
4,
4,
0,
11,
10,
22,
21,
21,
18,
1,
4,
4,
5,
5,
4,
4,
0,
0,
1,
1,
0,
0,
2,
2,
2,
2,
7,
25,
25,
13,
13,
13,
11,
11,
2,
2,
5,
24,
23,
9,
10,
26,
25,
9,
9,
9,
9,
9,
16,
38,
38,
38,
34,
8,
23,
44,
43,
18,
20,
4,
5,
5,
5,
20,
19,
19,
14,
14,
10,
10,
1,
1,
0,
0,
1,
1,
8,
8,
10,
10,
10,
21,
21,
21,
17,
5,
6,
6,
4,
4,
1,
16,
15,
15,
7,
7,
2,
2,
2,
2,
3,
3,
6,
6,
9,
9,
10,
10,
2,
2,
5,
5,
10,
10,
12,
12,
4,
4,
6,
6,
10,
10,
12,
12,
9,
9,
2,
2,
4,
4,
0,
0,
1,
1,
5,
5,
7,
18,
17,
6,
7,
7,
15,
15,
14,
1,
1,
1,
6,
6,
12,
12,
21,
21,
16,
2,
5,
21,
20,
20,
23,
23,
18,
18,
12,
12,
9,
9,
5,
5,
1,
1,
4,
4,
6,
6,
8,
8,
4,
4,
5,
5,
8,
8,
1,
1,
2,
2,
10,
10,
14,
14,
13,
13,
9,
9,
3,
17,
17,
31,
27,
6,
15,
44,
44,
30,
30,
6,
7,
18,
17,
4,
5,
22,
22,
35,
34,
34,
41,
53,
53,
64,
63,
63,
64,
26,
32,
63,
62,
62,
64,
42,
42,
6,
7,
20,
19,
33,
32,
32,
29,
15,
16,
16,
18,
18,
19,
6,
6,
6,
8,
8,
9,
9,
3,
16,
14,
3,
8,
26,
26,
26,
24,
24,
32,
13,
14,
1,
1,
1,
0,
0,
2,
2,
5,
5,
5,
5,
14,
3,
3,
3,
2,
2,
6,
6,
15,
29,
29,
29,
28,
5,
10,
42,
41,
41,
38,
15,
16,
16,
8,
8,
2,
15,
14,
14,
18,
18,
12,
12,
15,
15,
11,
11,
5,
5,
2,
2,
0,
0,
2,
2,
9,
9,
13,
1,
2,
2,
2,
23,
22,
6,
6,
6,
10,
10,
3,
25,
25,
25,
30,
14,
14,
2,
10,
10,
14,
14,
9,
9,
12,
12,
17,
17,
20,
20,
19,
19,
9,
9,
13,
25,
24,
24,
16,
2,
2,
17,
16,
29,
28,
6,
6,
34,
34,
34,
35,
6,
10,
26,
25,
12,
12,
12,
6,
6,
0,
12,
10,
10,
6,
6,
14,
14,
13,
13,
15,
15,
14,
14,
9,
9,
4,
4,
0,
0,
-1,
-1,
3,
3,
13,
13,
10,
10,
5,
5,
6,
6,
6,
6,
7,
7,
0,
0,
0,
0,
1,
1,
6,
6,
11,
11,
6,
6,
6,
6,
8,
22,
21,
21,
24,
6,
22,
46,
45,
24,
24,
5,
14,
35,
34,
56,
56,
34,
34,
16,
17,
1,
2,
2,
10,
10,
14,
14,
22,
22,
25,
25,
22,
22,
21,
21,
13,
13,
6,
6,
5,
5,
6,
6,
6,
26,
25,
25,
21,
10,
10,
10,
3,
3,
4,
4,
6,
6,
5,
5,
7,
21,
20,
20,
12,
25,
24,
44,
42,
13,
14,
2,
7,
7,
8,
8,
12,
12,
19,
3,
6,
22,
21,
21,
12,
12,
5,
5,
6,
6,
14,
14,
19,
19,
17,
17,
12,
12,
6,
6,
5,
5,
12,
1,
2,
2,
2,
18,
16,
3,
6,
22,
21,
21,
21,
4,
6,
40,
39,
39,
34,
15,
16,
16,
6,
6,
5,
5,
2,
2,
5,
5,
10,
24,
23,
38,
34,
12,
12,
12,
6,
20,
19,
39,
39,
39,
39,
39,
31,
9,
9,
9,
3,
14,
13,
25,
25,
39,
38,
38,
41,
24,
24,
2,
4,
16,
16,
16,
10,
10,
11,
11,
12,
12,
10,
10,
1,
1,
6,
6,
9,
9,
10,
-1,
0,
20,
20,
20,
24,
4,
9,
29,
28,
17,
18,
5,
19,
19,
23,
1,
2,
2,
10,
10,
9,
9,
6,
6,
6,
6,
6,
6,
3,
3,
4,
4,
9,
31,
30,
30,
9,
46,
46,
64,
63,
29,
29,
5,
9,
9,
12,
12,
5,
5,
10,
23,
22,
5,
5,
5,
5,
5,
1,
1,
4,
4,
9,
9,
10,
10,
5,
5,
10,
10,
10,
10,
2,
13,
13,
13,
6,
48,
47,
23,
24,
5,
11,
11,
17,
17,
9,
9,
9,
9,
15,
15,
10,
10,
18,
18,
16,
16,
6,
6,
3,
3,
6,
6,
7,
7,
9,
9,
3,
19,
18,
18,
10,
10,
1,
1,
4,
16,
16,
16,
9,
9,
5,
5,
10,
10,
6,
6,
14,
14,
14,
1,
6,
20,
19,
41,
41,
41,
37,
10,
11,
11,
6,
18,
17,
17,
21,
21,
27,
27,
25,
25,
18,
18,
11,
0,
1,
1,
10,
27,
26,
14,
14,
1,
2,
2,
0,
0,
10,
10,
5,
5,
9,
20,
19,
19,
19,
2,
3,
3,
8,
8,
5,
5,
8,
8,
4,
38,
37,
37,
29,
9,
39,
63,
58,
6,
8,
24,
24,
24,
27,
27,
19,
6,
22,
38,
35,
6,
10,
29,
29,
29,
21,
3,
6,
6,
2,
20,
20,
20,
28,
28,
32,
7,
8,
58,
58,
58,
64,
49,
49,
8,
10,
38,
38,
55,
54,
34,
34,
12,
12,
33,
33,
7,
8,
8,
7,
7,
17,
36,
34,
7,
8,
51,
50,
50,
44,
6,
7,
23,
21,
32,
32,
32,
30,
7,
12,
27,
24,
5,
5,
5,
6,
22,
22,
22,
16,
16,
7,
18,
18,
53,
28,
28,
28,
4,
6,
6,
5,
5,
3,
19,
18,
18,
18,
3,
6,
17,
14,
2,
5,
5,
14,
2,
2,
29,
28,
47,
47,
58,
57,
20,
20,
42,
42,
42,
48,
34,
35,
24,
25,
25,
29,
13,
14,
14,
22,
38,
37,
37,
32,
32,
38,
38,
30,
5,
7,
7,
6,
43,
42,
20,
20,
3,
8,
8,
12,
12,
3,
35,
35,
46,
44,
8,
8,
23,
22,
22,
14,
14,
6,
6,
9,
9,
1,
1,
6,
6,
10,
10,
12,
12,
17,
6,
7,
7,
1,
1,
5,
5,
4,
4,
3,
3,
0,
0,
6,
6,
10,
10,
8,
8,
3,
3,
11,
11,
14,
14,
11,
11,
5,
21,
21,
21,
14,
2,
7,
20,
20,
59,
58,
28,
28,
6,
15,
28,
28,
28,
22,
9,
10,
10,
13,
13,
7,
7,
2,
2,
3,
3,
0,
0,
2,
2,
1,
1,
0,
0,
4,
4,
0,
0,
0,
0,
6,
6,
15,
1,
2,
18,
18,
18,
21,
21,
19,
19,
14,
14,
21,
2,
3,
15,
14,
14,
16,
16,
9,
9,
6,
6,
1,
1,
0,
0,
5,
5,
0,
0,
2,
2,
0,
0,
5,
5,
3,
3,
0,
0,
1,
1,
2,
2,
0,
0,
2,
2,
0,
0,
0,
0,
8,
8,
9,
9,
6,
6,
12,
12,
5,
5,
8,
8,
11,
28,
28,
28,
12,
56,
55,
55,
64,
11,
13,
48,
48,
20,
20,
47,
46,
46,
36,
5,
9,
9,
17,
17,
17,
17,
17,
17,
19,
19,
18,
18,
28,
16,
17,
3,
3,
3,
3,
3,
0,
0,
6,
6,
6,
6,
12,
12,
15,
15,
12,
12,
6,
6,
5,
5,
2,
2,
5,
5,
12,
12,
14,
1,
1,
1,
8,
8,
5,
5,
9,
9,
11,
11,
6,
6,
14,
14,
7,
7,
13,
24,
6,
32,
31,
46,
44,
18,
18,
4,
14,
30,
29,
29,
33,
19,
19,
19,
10,
10,
9,
9,
2,
15,
14,
25,
24,
24,
21,
21,
12,
12,
5,
5,
1,
1,
1,
1,
0,
0,
0,
12,
11,
11,
18,
18,
10,
10,
5,
5,
8,
25,
24,
24,
26,
6,
6,
6,
4,
4,
9,
9,
8,
8,
7,
7,
11,
11,
15,
15,
10,
10,
6,
19,
18,
18,
17,
1,
1,
1,
5,
18,
17,
17,
11,
11,
8,
8,
1,
1,
5,
5,
0,
0,
5,
25,
25,
4,
4,
38,
37,
54,
53,
32,
33,
5,
7,
20,
19,
19,
12,
-1,
-1,
-1,
7,
7,
10,
10,
15,
15,
21,
21,
19,
19,
12,
12,
2,
2,
7,
7,
10,
10,
5,
5,
10,
34,
33,
33,
30,
17,
17,
2,
4,
16,
15,
15,
14,
14,
8,
8,
1,
1,
2,
2,
2,
2,
4,
4,
9,
9,
13,
13,
6,
6,
1,
1,
2,
2,
9,
9,
2,
2,
11,
11,
18,
18,
14,
1,
4,
4,
10,
24,
24,
43,
42,
22,
22,
2,
4,
4,
13,
13,
12,
12,
9,
9,
13,
13,
11,
11,
14,
14,
11,
11,
7,
7,
6,
6,
7,
7,
10,
10,
9,
9,
0,
0,
3,
3,
2,
2,
5,
5,
2,
2,
0,
0,
10,
10,
5,
5,
10,
10,
9,
35,
34,
34,
42,
17,
18,
1,
3,
3,
10,
10,
12,
12,
21,
21,
30,
30,
26,
26,
22,
22,
15,
1,
4,
18,
17,
17,
21,
21,
26,
26,
19,
6,
6,
6,
4,
4,
6,
6,
5,
5,
13,
1,
2,
2,
1,
1,
2,
2,
10,
10,
14,
2,
2,
2,
10,
10,
2,
17,
15,
30,
29,
8,
9,
33,
33,
45,
45,
28,
29,
2,
2,
2,
3,
3,
-1,
10,
9,
9,
17,
17,
8,
8,
7,
7,
7,
7,
11,
0,
4,
4,
6,
6,
0,
0,
5,
5,
0,
0,
0,
12,
12,
12,
14,
1,
2,
2,
8,
8,
9,
9,
2,
2,
6,
6,
4,
4,
1,
1,
7,
7,
10,
10,
2,
2,
9,
9,
12,
12,
2,
2,
0,
0,
2,
2,
8,
8,
1,
1,
8,
8,
6,
6,
6,
6,
5,
5,
2,
2,
1,
19,
18,
18,
17,
2,
5,
5,
1,
1,
5,
5,
3,
22,
21,
21,
18,
18,
9,
9,
0,
0,
4,
4,
6,
6,
5,
5,
4,
4,
2,
2,
5,
22,
22,
5,
6,
26,
24,
4,
4,
4,
-1,
-1,
1,
1,
0,
0,
9,
9,
8,
8,
1,
1,
2,
2,
0,
0,
6,
6,
3,
3,
11,
11,
5,
5,
2,
2,
5,
5,
13,
13,
14,
14,
20,
5,
6,
38,
37,
50,
49,
29,
29,
4,
7,
22,
21,
21,
18,
18,
12,
12,
10,
10,
6,
6,
12,
1,
1,
13,
12,
12,
16,
3,
7,
7,
13,
13,
12,
12,
9,
9,
6,
6,
13,
13,
9,
9,
10,
10,
9,
9,
6,
6,
13,
2,
8,
8,
11,
11,
8,
8,
10,
10,
0,
0,
9,
9,
3,
3,
8,
8,
8,
8,
8,
20,
17,
1,
2,
2,
2,
2,
4,
4,
12,
12,
13,
13,
14,
14,
12,
12,
10,
10,
13,
13,
6,
6,
2,
2,
0,
0,
7,
7,
8,
8,
5,
5,
13,
28,
27,
12,
12,
12,
12,
31,
30,
6,
9,
44,
43,
63,
62,
37,
37,
6,
13,
35,
34,
34,
31,
31,
27,
27,
35,
35,
38,
7,
8,
28,
26,
26,
25,
13,
13,
1,
2,
2,
7,
7,
11,
11,
2,
2,
4,
4,
9,
20,
19,
5,
26,
60,
59,
14,
14,
14,
6,
6,
7,
7,
8,
8,
10,
25,
24,
24,
26,
26,
23,
23,
29,
29,
31,
12,
12,
50,
50,
62,
58,
31,
31,
14,
15,
15,
6,
6,
0,
0,
1,
1,
9,
9,
18,
18,
24,
24,
26,
8,
8,
26,
26,
62,
61,
15,
16,
61,
60,
60,
64,
64,
62,
23,
23,
6,
21,
50,
49,
49,
48,
7,
8,
27,
27,
4,
5,
18,
17,
35,
34,
34,
39,
16,
16,
1,
3,
3,
9,
9,
14,
14,
18,
18,
16,
1,
2,
17,
17,
17,
20,
4,
6,
28,
27,
27,
23,
23,
16,
16,
19,
19,
22,
2,
2,
2,
9,
33,
32,
14,
15,
4,
16,
29,
29,
15,
17,
1,
4,
30,
30,
42,
42,
42,
46,
12,
12,
12,
18,
38,
38,
25,
25,
7,
12,
34,
33,
20,
7,
35,
34,
46,
38,
10,
11,
11,
10,
10,
2,
2,
12,
12,
14,
35,
28,
7,
16,
5,
6,
6,
1,
1,
8,
8,
8,
8,
4,
4,
-1,
-1,
0,
0,
3,
3,
2,
2,
10,
10,
12,
12,
4,
4,
10,
10,
4,
4,
8,
25,
24,
42,
41,
14,
14,
40,
39,
39,
38,
17,
17,
17,
18,
55,
54,
65,
64,
37,
37,
9,
27,
62,
61,
61,
64,
50,
50,
34,
34,
16,
18,
18,
10,
10,
17,
17,
18,
3,
4,
33,
32,
32,
40,
29,
30,
14,
15,
4,
5,
5,
4,
4,
10,
10,
5,
20,
20,
20,
30,
30,
20,
1,
2,
2,
6,
6,
1,
1,
6,
22,
21,
21,
28,
8,
8,
8,
0,
0,
2,
33,
32,
32,
28,
1,
3,
3,
9,
9,
16,
16,
12,
12,
5,
5,
7,
7,
13,
13,
13,
13,
15,
15,
14,
14,
7,
37,
36,
36,
42,
24,
24,
10,
11,
0,
1,
1,
7,
7,
13,
13,
13,
13,
8,
8,
12,
12,
2,
2,
8,
34,
34,
34,
37,
5,
5,
16,
15,
3,
6,
20,
17,
3,
7,
7,
5,
5,
14,
44,
43,
43,
34,
6,
6,
26,
26,
26,
29,
11,
11,
11,
5,
5,
2,
2,
3,
19,
18,
29,
29,
29,
24,
7,
24,
43,
42,
20,
20,
20,
23,
23,
29,
6,
6,
22,
21,
34,
32,
32,
23,
2,
3,
3,
1,
1,
2,
2,
1,
1,
7,
7,
1,
12,
11,
11,
20,
6,
18,
36,
33,
5,
6,
6,
7,
7,
5,
5,
1,
15,
14,
14,
17,
4,
11,
22,
22,
11,
11,
11,
5,
5,
3,
3,
0,
12,
12,
12,
12,
12,
5,
5,
2,
2,
11,
11,
7,
7,
4,
4,
8,
27,
26,
7,
11,
56,
55,
23,
23,
4,
10,
23,
22,
22,
20,
7,
8,
8,
9,
9,
2,
2,
4,
4,
11,
11,
2,
2,
2,
2,
1,
1,
3,
3,
8,
8,
2,
13,
12,
23,
22,
44,
42,
28,
29,
14,
14,
14,
5,
5,
6,
6,
12,
12,
14,
33,
32,
32,
32,
32,
31,
31,
27,
27,
21,
7,
9,
9,
1,
1,
0,
26,
26,
26,
8,
53,
52,
65,
64,
64,
56,
17,
18,
1,
1,
14,
13,
13,
10,
10,
11,
22,
22,
22,
29,
18,
19,
1,
2,
2,
1,
1,
2,
2,
10,
21,
21,
10,
10,
10,
6,
6,
11,
-1,
0,
0,
5,
5,
10,
10,
3,
3,
8,
8,
0,
0,
5,
5,
3,
3,
1,
1,
8,
8,
2,
2,
6,
6,
7,
20,
19,
19,
13,
13,
6,
6,
12,
12,
8,
8,
1,
1,
5,
5,
6,
32,
31,
31,
27,
8,
29,
17,
18,
4,
9,
9,
12,
12,
10,
10,
13,
13,
18,
5,
5,
5,
13,
2,
4,
4,
13,
1,
8,
20,
19,
19,
14,
14,
10,
10,
1,
1,
1,
1,
0,
0,
4,
4,
3,
3,
-1,
-1,
1,
1,
8,
8,
10,
10,
17,
33,
33,
8,
14,
62,
62,
62,
65,
16,
17,
6,
20,
42,
41,
41,
44,
44,
39,
21,
22,
8,
9,
9,
7,
7,
6,
6,
1,
1,
1,
1,
4,
4,
10,
10,
13,
13,
8,
8,
4,
4,
2,
2,
4,
4,
10,
22,
21,
21,
14,
0,
1,
1,
5,
5,
7,
7,
5,
5,
4,
4,
6,
6,
0,
0,
0,
0,
2,
2,
3,
3,
5,
5,
11,
11,
1,
1,
8,
8,
11,
11,
8,
8,
5,
31,
30,
8,
8,
44,
44,
30,
30,
6,
7,
7,
0,
0,
1,
1,
6,
22,
22,
22,
17,
17,
13,
27,
27,
27,
20,
5,
17,
33,
29,
2,
2,
2,
5,
5,
8,
8,
6,
6,
1,
1,
2,
2,
10,
10,
9,
9,
2,
2,
-1,
11,
10,
25,
24,
24,
21,
21,
18,
18,
21,
4,
9,
50,
49,
49,
46,
7,
8,
8,
6,
6,
10,
10,
12,
12,
13,
13,
5,
5,
7,
23,
22,
22,
21,
1,
1,
1,
5,
5,
8,
8,
6,
6,
14,
14,
6,
6,
13,
13,
11,
11,
4,
4,
9,
9,
14,
14,
14,
14,
