EMG_S3/DS0020.CSV

Memory Length,4000,
Trigger Level,-4.80000e+02,
Source,CH1,
Probe,1.0X,
Vertical Units,V,
Vertical Scale,1.00000e+00,
Vertical Position,0.00000e+00,
Horizontal Units,S,
Horizontal Scale,1.00000e-01,
Horizontal Position,0.0000000e+00,
Horizontal Mode,Roll Mode,
Waveform Last Dot Address,4000,
Sampling Period,4.00000e-04,
Firmware,V1.14,
Time, ,
Mode,Fast,
Waveform Data,
3,
3,
2,
2,
2,
14,
6,
21,
20,
4,
6,
6,
6,
6,
4,
4,
8,
8,
8,
8,
11,
11,
7,
7,
3,
3,
0,
0,
6,
6,
5,
5,
7,
7,
2,
14,
13,
13,
4,
24,
23,
12,
12,
12,
4,
4,
0,
0,
1,
1,
6,
6,
15,
15,
18,
5,
5,
5,
3,
15,
15,
15,
9,
9,
4,
4,
7,
7,
12,
12,
21,
21,
22,
4,
4,
17,
16,
16,
14,
14,
10,
10,
6,
6,
10,
22,
21,
21,
16,
5,
12,
12,
12,
12,
20,
20,
12,
12,
6,
6,
14,
14,
20,
8,
8,
8,
8,
8,
11,
0,
1,
1,
2,
2,
4,
4,
1,
1,
2,
2,
4,
4,
5,
5,
1,
1,
6,
6,
4,
4,
2,
2,
1,
1,
0,
15,
14,
14,
18,
2,
2,
2,
12,
12,
20,
20,
18,
3,
5,
34,
34,
21,
22,
0,
1,
1,
5,
5,
13,
13,
18,
2,
3,
3,
9,
9,
10,
10,
6,
20,
20,
20,
17,
5,
19,
19,
18,
1,
2,
2,
7,
21,
21,
9,
9,
9,
6,
6,
5,
5,
5,
5,
2,
2,
6,
6,
7,
25,
25,
25,
17,
4,
5,
5,
4,
4,
2,
2,
1,
1,
9,
9,
9,
9,
2,
2,
10,
10,
9,
36,
36,
36,
28,
28,
26,
26,
21,
21,
13,
28,
26,
12,
12,
12,
21,
21,
27,
27,
28,
6,
6,
19,
18,
4,
4,
20,
19,
19,
21,
21,
23,
23,
30,
13,
14,
31,
30,
30,
26,
5,
16,
16,
16,
4,
13,
26,
25,
25,
21,
21,
26,
26,
23,
23,
15,
15,
17,
17,
18,
1,
1,
1,
8,
35,
34,
46,
44,
44,
44,
44,
50,
50,
49,
9,
10,
54,
53,
53,
53,
24,
24,
58,
57,
57,
53,
16,
17,
4,
13,
27,
27,
27,
34,
34,
36,
36,
32,
32,
23,
23,
14,
14,
7,
7,
6,
6,
13,
38,
38,
38,
35,
18,
18,
0,
0,
0,
4,
4,
8,
8,
8,
8,
4,
4,
9,
9,
14,
26,
25,
25,
22,
4,
12,
42,
41,
52,
49,
15,
16,
1,
5,
5,
11,
11,
7,
7,
6,
6,
14,
32,
28,
8,
27,
41,
36,
18,
18,
18,
21,
21,
17,
3,
10,
24,
24,
24,
23,
23,
25,
14,
14,
1,
2,
2,
2,
2,
7,
7,
9,
9,
6,
6,
2,
2,
6,
6,
9,
22,
22,
22,
26,
26,
20,
20,
17,
3,
4,
4,
11,
25,
24,
11,
12,
12,
3,
3,
1,
1,
1,
12,
12,
12,
18,
18,
13,
26,
25,
56,
54,
34,
34,
4,
5,
19,
19,
19,
21,
21,
24,
24,
21,
10,
10,
10,
1,
1,
1,
1,
4,
4,
0,
0,
5,
5,
14,
14,
10,
10,
2,
2,
10,
10,
4,
4,
6,
17,
16,
16,
21,
10,
10,
22,
21,
21,
24,
4,
4,
19,
18,
18,
24,
24,
22,
22,
20,
20,
14,
14,
9,
9,
5,
5,
10,
10,
4,
4,
8,
8,
5,
21,
20,
51,
49,
30,
30,
2,
3,
3,
10,
10,
6,
6,
7,
7,
16,
28,
27,
5,
9,
24,
22,
22,
16,
16,
10,
10,
6,
22,
22,
22,
24,
12,
12,
12,
5,
5,
10,
10,
6,
25,
24,
11,
12,
0,
1,
1,
3,
3,
8,
8,
6,
31,
30,
16,
16,
0,
1,
1,
8,
8,
14,
2,
2,
2,
4,
4,
0,
15,
14,
14,
14,
1,
2,
2,
6,
6,
11,
11,
11,
11,
10,
10,
11,
11,
16,
37,
36,
7,
8,
35,
34,
34,
29,
5,
6,
6,
8,
8,
13,
13,
18,
18,
25,
25,
27,
7,
25,
63,
63,
51,
52,
6,
6,
20,
20,
20,
18,
18,
11,
11,
11,
11,
17,
17,
20,
20,
14,
2,
4,
4,
1,
1,
5,
5,
3,
3,
2,
2,
10,
29,
29,
29,
26,
10,
10,
10,
1,
1,
8,
8,
3,
3,
4,
17,
16,
16,
18,
3,
8,
20,
18,
2,
2,
2,
10,
10,
16,
16,
22,
34,
33,
19,
20,
5,
17,
39,
38,
53,
52,
52,
50,
31,
31,
2,
3,
3,
6,
6,
0,
28,
26,
52,
50,
30,
30,
14,
16,
16,
19,
19,
16,
16,
8,
8,
1,
1,
1,
1,
1,
1,
5,
5,
11,
11,
12,
12,
10,
10,
12,
36,
35,
35,
38,
21,
22,
8,
9,
9,
1,
1,
6,
6,
8,
8,
10,
10,
16,
16,
21,
21,
16,
16,
7,
7,
2,
2,
4,
4,
14,
14,
16,
2,
4,
29,
28,
42,
41,
41,
42,
6,
6,
6,
12,
1,
2,
2,
5,
5,
5,
5,
0,
0,
3,
21,
20,
36,
35,
15,
16,
1,
2,
2,
5,
5,
13,
13,
20,
9,
11,
-1,
0,
0,
2,
2,
6,
6,
5,
5,
5,
5,
0,
12,
11,
11,
6,
20,
19,
19,
20,
2,
2,
2,
0,
0,
9,
9,
13,
1,
2,
2,
3,
3,
4,
4,
4,
4,
0,
0,
1,
1,
7,
7,
6,
6,
0,
0,
9,
9,
5,
5,
9,
9,
3,
3,
4,
4,
2,
2,
5,
5,
4,
4,
8,
8,
4,
4,
2,
2,
8,
8,
12,
1,
5,
26,
25,
25,
22,
1,
3,
3,
2,
2,
7,
7,
12,
30,
30,
30,
31,
6,
7,
25,
24,
6,
6,
6,
8,
21,
21,
21,
17,
2,
3,
40,
39,
52,
48,
18,
20,
5,
5,
5,
6,
21,
21,
21,
22,
9,
10,
10,
10,
10,
6,
6,
9,
9,
2,
2,
6,
6,
0,
0,
0,
0,
-1,
-1,
1,
1,
5,
5,
1,
1,
2,
2,
1,
1,
2,
2,
3,
20,
18,
5,
18,
40,
39,
27,
28,
2,
3,
3,
3,
15,
15,
3,
9,
9,
10,
10,
7,
7,
10,
10,
14,
14,
21,
21,
16,
16,
11,
11,
3,
14,
13,
13,
22,
22,
13,
1,
6,
6,
4,
4,
2,
2,
1,
1,
0,
0,
0,
0,
1,
1,
6,
6,
13,
13,
20,
9,
9,
9,
0,
0,
6,
6,
2,
2,
6,
20,
20,
8,
9,
9,
14,
26,
25,
25,
19,
19,
18,
18,
10,
10,
8,
8,
17,
17,
19,
19,
13,
1,
2,
2,
4,
4,
7,
7,
9,
9,
2,
2,
5,
5,
8,
8,
2,
2,
10,
21,
19,
2,
3,
3,
4,
4,
4,
17,
16,
16,
18,
3,
39,
39,
38,
38,
44,
24,
25,
2,
3,
3,
13,
13,
6,
6,
0,
0,
2,
2,
0,
0,
1,
1,
4,
4,
4,
23,
22,
22,
18,
4,
11,
39,
38,
19,
20,
2,
7,
23,
22,
22,
18,
18,
20,
2,
3,
3,
7,
7,
5,
5,
12,
12,
6,
6,
8,
8,
11,
11,
7,
7,
1,
1,
2,
20,
20,
20,
13,
2,
2,
2,
3,
3,
12,
12,
4,
35,
34,
34,
33,
4,
5,
5,
6,
19,
18,
2,
4,
4,
5,
5,
10,
10,
7,
7,
3,
3,
10,
10,
14,
14,
18,
18,
13,
1,
1,
1,
7,
7,
10,
10,
11,
26,
25,
25,
24,
2,
3,
3,
10,
25,
24,
24,
26,
8,
9,
26,
26,
45,
44,
20,
20,
2,
6,
6,
10,
10,
6,
6,
9,
25,
23,
6,
15,
49,
49,
18,
19,
6,
15,
15,
17,
2,
2,
14,
13,
13,
15,
15,
12,
12,
9,
9,
10,
10,
9,
9,
11,
34,
33,
33,
26,
9,
10,
10,
17,
17,
13,
13,
10,
10,
4,
4,
1,
1,
6,
6,
12,
12,
14,
14,
13,
13,
7,
7,
12,
12,
13,
2,
6,
6,
13,
13,
8,
8,
9,
9,
2,
2,
5,
5,
1,
18,
17,
5,
6,
19,
18,
18,
17,
2,
5,
19,
18,
7,
7,
7,
2,
2,
3,
3,
0,
0,
3,
14,
14,
14,
19,
3,
5,
5,
13,
0,
0,
0,
2,
2,
5,
5,
15,
35,
34,
22,
22,
8,
8,
8,
3,
3,
8,
8,
14,
2,
2,
20,
19,
19,
25,
25,
21,
7,
8,
8,
1,
14,
14,
1,
2,
2,
1,
13,
12,
12,
2,
17,
17,
17,
23,
23,
15,
1,
2,
2,
8,
8,
11,
0,
1,
1,
4,
18,
16,
1,
1,
20,
20,
33,
29,
3,
4,
17,
17,
17,
21,
21,
21,
21,
18,
6,
6,
6,
6,
6,
14,
2,
3,
3,
3,
3,
12,
12,
21,
21,
14,
1,
2,
13,
12,
12,
15,
15,
10,
10,
4,
4,
10,
10,
5,
5,
7,
7,
5,
5,
5,
26,
26,
26,
20,
8,
10,
10,
10,
10,
4,
4,
7,
7,
4,
4,
12,
12,
8,
8,
14,
14,
19,
19,
12,
12,
3,
3,
8,
21,
20,
20,
24,
24,
20,
2,
3,
22,
22,
22,
22,
4,
4,
4,
1,
1,
10,
10,
2,
2,
3,
3,
6,
6,
12,
12,
10,
10,
6,
23,
22,
22,
7,
42,
42,
64,
63,
9,
10,
26,
25,
25,
18,
18,
10,
10,
6,
6,
15,
26,
25,
6,
7,
7,
8,
26,
26,
26,
32,
20,
21,
3,
3,
25,
24,
24,
20,
2,
3,
3,
2,
2,
9,
9,
13,
13,
6,
6,
0,
0,
2,
2,
2,
2,
2,
2,
2,
36,
36,
36,
40,
18,
19,
19,
14,
2,
2,
2,
11,
22,
22,
22,
28,
28,
21,
9,
10,
10,
4,
4,
10,
10,
8,
8,
1,
1,
10,
10,
2,
2,
11,
11,
5,
5,
0,
0,
4,
4,
10,
10,
8,
8,
10,
10,
20,
20,
13,
2,
3,
3,
9,
25,
25,
9,
10,
30,
30,
48,
48,
26,
27,
4,
6,
6,
6,
21,
20,
5,
16,
16,
16,
5,
8,
29,
29,
29,
28,
14,
14,
3,
13,
13,
12,
-1,
0,
0,
5,
16,
14,
1,
2,
2,
6,
6,
11,
11,
14,
14,
14,
14,
14,
14,
9,
9,
4,
4,
1,
1,
3,
3,
1,
1,
0,
0,
2,
2,
4,
4,
6,
28,
27,
27,
22,
6,
6,
6,
6,
6,
7,
7,
8,
8,
5,
5,
0,
12,
11,
25,
24,
24,
17,
1,
2,
2,
8,
8,
17,
17,
10,
26,
26,
37,
34,
18,
18,
3,
4,
4,
0,
0,
8,
25,
25,
25,
23,
11,
12,
12,
17,
4,
5,
22,
21,
21,
30,
30,
28,
28,
23,
23,
18,
3,
10,
27,
26,
26,
30,
30,
31,
20,
20,
2,
6,
19,
18,
18,
15,
15,
12,
12,
11,
11,
15,
3,
3,
17,
17,
4,
6,
32,
32,
32,
32,
5,
5,
20,
20,
31,
28,
28,
24,
5,
9,
23,
18,
6,
22,
10,
10,
10,
3,
3,
4,
4,
7,
7,
7,
7,
9,
9,
2,
2,
6,
6,
11,
11,
12,
12,
5,
5,
2,
2,
8,
8,
5,
5,
7,
20,
20,
20,
13,
13,
16,
16,
18,
7,
8,
8,
5,
5,
10,
10,
2,
2,
10,
10,
18,
29,
28,
28,
22,
10,
10,
10,
6,
6,
0,
16,
14,
14,
18,
18,
8,
8,
5,
5,
3,
3,
5,
5,
1,
1,
3,
3,
10,
10,
17,
17,
9,
9,
2,
2,
9,
9,
5,
5,
0,
0,
2,
2,
-1,
-1,
2,
2,
9,
9,
10,
10,
10,
10,
12,
12,
8,
8,
2,
2,
1,
12,
11,
27,
27,
12,
12,
12,
9,
9,
7,
7,
2,
2,
9,
9,
9,
9,
7,
7,
10,
29,
28,
28,
31,
10,
10,
10,
13,
26,
25,
25,
22,
35,
34,
14,
14,
14,
21,
41,
41,
28,
29,
7,
21,
37,
32,
5,
5,
5,
12,
12,
6,
6,
6,
6,
2,
2,
6,
6,
12,
12,
14,
14,
11,
11,
7,
7,
6,
6,
11,
23,
23,
23,
14,
14,
8,
8,
8,
8,
9,
9,
11,
0,
1,
1,
-2,
-2,
1,
21,
20,
20,
17,
5,
21,
40,
38,
17,
18,
0,
1,
1,
2,
2,
2,
2,
8,
21,
20,
6,
6,
6,
10,
10,
9,
9,
8,
8,
4,
4,
0,
0,
2,
2,
3,
14,
14,
14,
10,
10,
18,
7,
23,
23,
24,
24,
18,
3,
4,
4,
10,
10,
20,
48,
48,
24,
25,
4,
10,
26,
26,
26,
26,
26,
21,
21,
14,
14,
10,
10,
8,
8,
1,
1,
1,
1,
0,
0,
0,
0,
0,
0,
4,
4,
6,
6,
6,
6,
3,
3,
1,
1,
0,
0,
3,
19,
18,
18,
25,
6,
7,
7,
0,
0,
3,
3,
5,
5,
3,
3,
6,
20,
18,
18,
18,
1,
2,
2,
2,
2,
2,
2,
2,
2,
4,
4,
9,
9,
17,
17,
21,
5,
5,
5,
1,
1,
2,
25,
25,
25,
28,
28,
28,
28,
20,
4,
10,
22,
18,
4,
10,
10,
9,
9,
6,
6,
5,
5,
0,
0,
2,
2,
2,
2,
4,
4,
5,
5,
8,
8,
14,
14,
9,
9,
6,
6,
10,
10,
18,
18,
17,
5,
5,
5,
0,
0,
5,
5,
7,
7,
4,
4,
13,
13,
18,
4,
4,
36,
35,
46,
42,
14,
14,
3,
14,
14,
22,
8,
8,
8,
1,
13,
13,
13,
4,
4,
9,
9,
6,
6,
3,
3,
8,
8,
13,
13,
12,
0,
2,
2,
2,
2,
3,
15,
14,
14,
17,
17,
10,
10,
10,
10,
3,
3,
2,
2,
2,
2,
2,
2,
4,
4,
10,
10,
2,
2,
8,
23,
22,
22,
20,
3,
8,
8,
3,
24,
24,
24,
30,
8,
23,
55,
52,
16,
17,
17,
22,
22,
19,
2,
6,
18,
17,
17,
22,
22,
20,
9,
9,
9,
6,
6,
6,
6,
1,
1,
7,
7,
1,
1,
4,
4,
7,
7,
2,
2,
11,
11,
2,
2,
5,
5,
8,
8,
16,
16,
12,
0,
3,
3,
9,
9,
8,
8,
4,
4,
2,
2,
5,
5,
0,
0,
2,
2,
1,
1,
0,
0,
4,
4,
12,
1,
1,
1,
7,
20,
19,
19,
22,
3,
6,
25,
24,
24,
17,
1,
5,
5,
1,
1,
3,
3,
5,
5,
2,
2,
11,
11,
14,
2,
3,
14,
13,
13,
7,
20,
20,
41,
40,
23,
24,
1,
2,
2,
10,
10,
13,
13,
10,
10,
16,
16,
18,
18,
17,
17,
21,
4,
10,
10,
12,
1,
2,
2,
1,
1,
3,
3,
1,
1,
4,
4,
11,
11,
3,
3,
12,
12,
17,
2,
6,
47,
47,
47,
45,
13,
14,
1,
4,
4,
13,
13,
19,
19,
17,
17,
18,
18,
19,
19,
20,
20,
12,
12,
3,
3,
1,
1,
7,
7,
9,
9,
10,
10,
12,
12,
14,
14,
16,
16,
13,
13,
6,
6,
10,
10,
9,
9,
5,
5,
10,
10,
8,
8,
9,
9,
2,
26,
25,
25,
30,
30,
24,
24,
24,
24,
14,
2,
8,
33,
33,
44,
44,
44,
38,
23,
23,
6,
8,
8,
5,
5,
6,
6,
10,
10,
17,
6,
6,
6,
4,
4,
6,
6,
6,
6,
7,
7,
1,
1,
4,
23,
22,
22,
17,
4,
14,
31,
30,
30,
7,
35,
34,
64,
63,
29,
29,
6,
13,
25,
24,
35,
34,
34,
30,
18,
19,
19,
16,
16,
10,
10,
3,
21,
20,
20,
16,
16,
9,
9,
1,
1,
5,
5,
3,
3,
1,
1,
3,
3,
8,
22,
22,
22,
21,
9,
9,
9,
2,
2,
6,
6,
12,
12,
14,
14,
20,
20,
12,
12,
5,
5,
3,
20,
19,
19,
21,
21,
13,
13,
5,
5,
1,
1,
5,
5,
4,
4,
9,
9,
10,
10,
7,
7,
2,
2,
11,
0,
2,
2,
0,
0,
1,
1,
3,
3,
2,
2,
-1,
-1,
-1,
-1,
1,
1,
1,
1,
5,
5,
9,
9,
11,
11,
5,
20,
20,
7,
8,
8,
1,
1,
1,
29,
29,
49,
46,
16,
17,
1,
3,
3,
13,
13,
22,
22,
23,
23,
17,
17,
13,
13,
7,
7,
6,
6,
5,
5,
8,
8,
1,
1,
10,
31,
30,
13,
14,
38,
37,
37,
40,
21,
22,
4,
5,
5,
9,
9,
2,
13,
13,
13,
17,
17,
12,
1,
5,
5,
10,
10,
14,
14,
15,
15,
6,
6,
14,
14,
17,
2,
4,
19,
18,
18,
8,
8,
0,
16,
15,
29,
28,
14,
15,
2,
6,
18,
18,
49,
48,
48,
52,
30,
30,
2,
3,
18,
18,
18,
26,
26,
31,
31,
29,
29,
26,
4,
5,
24,
23,
23,
26,
13,
13,
13,
7,
7,
1,
1,
6,
18,
17,
3,
4,
4,
8,
8,
2,
2,
3,
3,
9,
9,
1,
1,
5,
20,
19,
19,
19,
4,
10,
10,
9,
9,
1,
1,
10,
23,
23,
9,
9,
38,
38,
50,
44,
17,
17,
1,
3,
3,
1,
1,
7,
7,
11,
11,
10,
10,
6,
6,
13,
2,
7,
7,
10,
10,
4,
15,
15,
15,
11,
11,
3,
3,
7,
7,
5,
5,
8,
8,
10,
10,
7,
7,
14,
27,
26,
13,
13,
2,
8,
8,
17,
17,
21,
3,
3,
16,
14,
14,
7,
7,
1,
1,
0,
0,
5,
5,
22,
22,
21,
21,
25,
9,
10,
10,
12,
28,
27,
2,
4,
4,
1,
16,
16,
16,
22,
22,
18,
4,
9,
29,
28,
15,
16,
16,
17,
17,
13,
13,
10,
10,
4,
24,
23,
23,
23,
6,
6,
6,
7,
7,
2,
13,
11,
11,
7,
7,
3,
3,
11,
25,
20,
6,
26,
48,
46,
8,
8,
8,
3,
31,
30,
30,
26,
2,
4,
17,
15,
26,
26,
26,
34,
34,
29,
29,
20,
20,
16,
16,
15,
15,
10,
10,
17,
17,
16,
4,
5,
5,
4,
4,
3,
3,
6,
6,
2,
33,
32,
50,
50,
37,
37,
15,
16,
1,
2,
2,
6,
6,
6,
6,
14,
14,
21,
40,
39,
39,
36,
25,
26,
26,
26,
26,
18,
3,
10,
27,
26,
26,
16,
16,
10,
10,
9,
9,
12,
12,
2,
2,
6,
6,
8,
20,
19,
19,
13,
1,
1,
1,
0,
0,
6,
21,
21,
21,
12,
1,
5,
5,
6,
6,
7,
7,
10,
10,
3,
3,
2,
2,
5,
5,
4,
4,
-1,
-1,
2,
2,
0,
0,
5,
5,
4,
4,
2,
2,
5,
5,
6,
6,
7,
7,
4,
4,
8,
8,
15,
15,
7,
7,
8,
8,
15,
15,
14,
14,
9,
9,
6,
6,
12,
27,
27,
27,
18,
5,
5,
5,
4,
4,
2,
2,
0,
0,
5,
5,
10,
10,
19,
19,
22,
22,
17,
17,
12,
12,
6,
6,
8,
8,
1,
1,
3,
16,
15,
43,
43,
62,
61,
25,
10,
42,
42,
42,
43,
14,
15,
2,
10,
23,
18,
5,
21,
21,
15,
1,
2,
2,
2,
2,
9,
9,
7,
7,
0,
0,
2,
2,
1,
1,
7,
7,
6,
6,
9,
9,
6,
6,
2,
14,
14,
2,
6,
27,
27,
12,
12,
12,
9,
9,
9,
9,
5,
5,
6,
6,
4,
4,
1,
1,
10,
10,
6,
6,
4,
17,
16,
4,
4,
4,
0,
0,
5,
5,
5,
5,
0,
0,
5,
18,
17,
17,
17,
5,
23,
23,
21,
1,
3,
3,
6,
6,
13,
13,
9,
9,
5,
19,
18,
18,
22,
36,
34,
18,
18,
2,
6,
6,
14,
14,
12,
12,
18,
33,
32,
32,
24,
3,
6,
6,
12,
12,
6,
6,
5,
5,
4,
4,
2,
2,
0,
0,
0,
0,
5,
5,
1,
18,
18,
18,
19,
6,
7,
7,
2,
2,
4,
4,
6,
6,
3,
22,
21,
21,
16,
2,
2,
2,
8,
19,
18,
18,
23,
23,
28,
28,
26,
7,
23,
36,
29,
2,
3,
3,
12,
12,
17,
5,
16,
61,
60,
25,
25,
8,
26,
37,
30,
4,
5,
5,
9,
9,
3,
3,
9,
9,
11,
11,
10,
10,
10,
10,
2,
2,
0,
0,
6,
6,
0,
0,
2,
2,
12,
12,
17,
1,
1,
1,
10,
10,
18,
4,
14,
46,
45,
25,
26,
4,
5,
17,
17,
17,
10,
10,
14,
30,
30,
42,
41,
41,
34,
6,
11,
11,
14,
14,
8,
8,
6,
6,
5,
5,
0,
0,
2,
2,
5,
5,
1,
1,
11,
11,
4,
4,
10,
10,
14,
14,
5,
5,
0,
0,
4,
4,
5,
5,
8,
8,
12,
12,
8,
8,
3,
3,
9,
9,
12,
12,
9,
9,
3,
24,
24,
38,
37,
14,
15,
3,
10,
10,
20,
20,
19,
19,
10,
10,
8,
8,
1,
12,
10,
10,
2,
2,
8,
8,
4,
4,
1,
1,
1,
1,
1,
1,
6,
6,
3,
3,
9,
9,
5,
5,
-1,
-1,
2,
2,
0,
0,
8,
8,
10,
10,
3,
3,
6,
6,
6,
39,
38,
61,
59,
29,
29,
2,
3,
17,
16,
35,
34,
34,
38,
38,
30,
30,
32,
32,
29,
6,
6,
6,
2,
2,
9,
9,
12,
12,
14,
14,
19,
19,
18,
18,
13,
13,
15,
15,
16,
2,
4,
22,
22,
22,
13,
1,
5,
16,
15,
15,
15,
15,
22,
22,
12,
1,
2,
2,
10,
10,
18,
18,
18,
18,
14,
14,
12,
12,
11,
11,
11,
11,
6,
6,
10,
10,
14,
3,
4,
4,
4,
4,
7,
7,
13,
1,
2,
2,
5,
5,
6,
6,
2,
2,
5,
5,
5,
5,
5,
5,
9,
9,
4,
4,
0,
0,
0,
0,
4,
18,
17,
3,
4,
4,
10,
10,
13,
1,
2,
2,
6,
6,
1,
18,
18,
37,
36,
15,
16,
1,
2,
2,
7,
7,
5,
5,
4,
4,
6,
6,
9,
9,
11,
11,
10,
10,
5,
5,
2,
2,
7,
7,
1,
1,
5,
5,
9,
9,
9,
9,
6,
17,
16,
16,
13,
13,
18,
33,
32,
11,
12,
29,
29,
50,
50,
36,
36,
8,
22,
49,
49,
30,
30,
16,
16,
16,
21,
10,
10,
10,
15,
29,
29,
29,
29,
29,
22,
8,
8,
8,
3,
3,
9,
9,
5,
5,
3,
3,
8,
8,
6,
6,
0,
0,
3,
14,
13,
13,
19,
19,
11,
11,
10,
10,
13,
13,
5,
5,
8,
8,
14,
14,
10,
10,
2,
2,
0,
0,
2,
2,
1,
1,
3,
3,
8,
8,
4,
4,
3,
3,
5,
5,
3,
3,
5,
5,
7,
7,
3,
3,
1,
1,
6,
6,
5,
5,
6,
6,
6,
6,
3,
3,
5,
5,
1,
1,
1,
1,
3,
3,
6,
6,
5,
5,
0,
0,
4,
4,
0,
0,
5,
5,
10,
10,
6,
6,
5,
18,
18,
18,
9,
9,
9,
9,
13,
1,
2,
2,
3,
3,
1,
12,
12,
12,
3,
3,
9,
9,
17,
17,
18,
7,
8,
8,
1,
1,
3,
17,
16,
16,
14,
14,
16,
29,
28,
14,
14,
2,
2,
2,
0,
0,
-1,
-1,
7,
7,
13,
13,
9,
9,
2,
15,
15,
15,
20,
4,
12,
34,
33,
6,
6,
6,
4,
4,
1,
17,
17,
17,
24,
24,
20,
9,
9,
9,
2,
2,
5,
5,
7,
21,
20,
20,
22,
5,
6,
6,
5,
5,
2,
2,
6,
6,
6,
6,
4,
4,
12,
12,
10,
10,
9,
9,
2,
2,
6,
6,
7,
7,
10,
10,
16,
16,
18,
18,
14,
2,
3,
3,
2,
2,
0,
0,
5,
5,
3,
3,
0,
0,
8,
8,
14,
14,
5,
5,
3,
3,
8,
19,
18,
18,
22,
22,
16,
4,
5,
5,
12,
12,
18,
18,
16,
16,
12,
12,
12,
12,
14,
14,
8,
8,
8,
8,
2,
18,
17,
2,
3,
3,
0,
13,
13,
13,
18,
6,
8,
8,
3,
3,
2,
2,
4,
4,
10,
10,
6,
6,
14,
29,
29,
29,
25,
4,
6,
25,
24,
3,
4,
4,
4,
4,
5,
5,
6,
6,
6,
6,
14,
14,
14,
14,
6,
6,
1,
1,
-1,
12,
12,
25,
24,
24,
22,
4,
5,
20,
19,
19,
13,
13,
11,
11,
9,
9,
12,
12,
21,
5,
6,
6,
8,
8,
10,
10,
8,
8,
8,
8,
12,
12,
14,
14,
12,
12,
2,
2,
10,
10,
14,
14,
5,
5,
1,
1,
3,
3,
0,
0,
