EMG_S3/DS0024.CSV

Memory Length,4000,
Trigger Level,-4.80000e+02,
Source,CH1,
Probe,1.0X,
Vertical Units,V,
Vertical Scale,1.00000e+00,
Vertical Position,0.00000e+00,
Horizontal Units,S,
Horizontal Scale,1.00000e-01,
Horizontal Position,0.0000000e+00,
Horizontal Mode,Roll Mode,
Waveform Last Dot Address,4000,
Sampling Period,4.00000e-04,
Firmware,V1.14,
Time, ,
Mode,Fast,
Waveform Data,
13,
13,
7,
7,
3,
3,
1,
1,
5,
16,
15,
15,
21,
5,
5,
5,
13,
24,
23,
23,
29,
29,
21,
7,
8,
8,
2,
2,
5,
5,
3,
3,
8,
23,
22,
5,
5,
37,
37,
58,
56,
41,
41,
25,
26,
26,
28,
41,
40,
14,
14,
14,
22,
49,
49,
49,
57,
57,
48,
36,
37,
37,
28,
14,
15,
0,
2,
2,
6,
6,
14,
14,
14,
14,
14,
14,
24,
24,
26,
26,
17,
17,
9,
9,
0,
0,
0,
11,
10,
10,
13,
13,
8,
8,
4,
4,
2,
2,
3,
3,
6,
6,
10,
10,
15,
15,
18,
18,
12,
12,
9,
9,
7,
7,
1,
1,
10,
10,
17,
17,
14,
1,
2,
2,
2,
2,
6,
6,
8,
8,
0,
0,
10,
10,
9,
9,
6,
6,
0,
0,
4,
4,
0,
0,
9,
23,
22,
22,
27,
10,
10,
10,
15,
15,
17,
17,
9,
9,
13,
13,
20,
20,
23,
23,
17,
17,
9,
9,
1,
12,
11,
11,
12,
37,
37,
50,
49,
34,
34,
10,
10,
10,
17,
31,
30,
30,
25,
12,
12,
12,
5,
5,
1,
1,
5,
5,
4,
4,
1,
1,
2,
2,
2,
2,
2,
13,
12,
12,
13,
2,
3,
3,
1,
1,
2,
13,
12,
12,
14,
1,
3,
3,
4,
4,
8,
8,
6,
6,
2,
2,
2,
2,
9,
9,
10,
10,
5,
5,
2,
2,
1,
1,
-1,
-1,
2,
2,
1,
1,
-1,
-1,
4,
4,
6,
18,
17,
17,
21,
8,
8,
8,
4,
4,
10,
10,
6,
6,
4,
4,
6,
6,
3,
3,
9,
9,
4,
4,
3,
3,
5,
5,
5,
5,
4,
4,
2,
2,
1,
1,
5,
18,
17,
5,
5,
5,
8,
8,
16,
16,
21,
2,
2,
2,
10,
10,
6,
6,
5,
5,
9,
9,
8,
8,
5,
5,
1,
1,
2,
2,
8,
8,
4,
4,
2,
2,
2,
2,
0,
0,
2,
2,
3,
3,
5,
5,
4,
4,
1,
1,
1,
1,
-2,
-2,
0,
0,
0,
0,
6,
6,
14,
14,
14,
14,
10,
10,
12,
1,
2,
2,
4,
4,
0,
0,
10,
10,
17,
3,
3,
3,
9,
9,
6,
6,
2,
2,
7,
7,
11,
11,
10,
10,
1,
1,
-1,
-1,
8,
8,
11,
11,
2,
2,
11,
11,
12,
12,
14,
14,
21,
21,
29,
18,
18,
1,
4,
15,
15,
15,
18,
18,
18,
2,
3,
20,
20,
20,
17,
4,
5,
5,
14,
14,
14,
14,
18,
37,
34,
34,
25,
25,
18,
18,
18,
18,
12,
12,
8,
8,
5,
20,
19,
19,
19,
19,
9,
9,
5,
5,
11,
11,
10,
10,
5,
5,
5,
5,
3,
3,
4,
4,
8,
8,
9,
9,
18,
6,
7,
7,
12,
23,
23,
23,
17,
17,
9,
9,
2,
2,
1,
1,
8,
21,
21,
21,
22,
22,
19,
19,
18,
18,
17,
6,
6,
6,
5,
5,
10,
10,
9,
9,
11,
11,
14,
14,
10,
10,
7,
7,
6,
6,
4,
4,
1,
1,
3,
3,
7,
18,
18,
7,
8,
8,
5,
5,
12,
12,
13,
13,
9,
9,
7,
7,
2,
2,
3,
3,
5,
5,
5,
5,
4,
4,
5,
5,
1,
12,
12,
12,
9,
9,
4,
4,
8,
8,
6,
6,
16,
16,
14,
14,
7,
7,
1,
1,
2,
2,
5,
5,
1,
1,
0,
0,
5,
5,
10,
10,
14,
14,
14,
14,
10,
10,
0,
0,
7,
7,
10,
10,
1,
1,
7,
7,
2,
2,
3,
3,
13,
13,
17,
17,
13,
13,
7,
7,
3,
3,
3,
3,
2,
2,
1,
1,
0,
0,
3,
3,
6,
6,
6,
6,
4,
4,
1,
1,
2,
2,
2,
2,
0,
0,
3,
3,
0,
0,
2,
2,
1,
1,
0,
0,
2,
2,
2,
2,
1,
1,
3,
3,
1,
1,
5,
5,
10,
10,
15,
15,
14,
14,
5,
5,
-1,
-1,
2,
2,
5,
5,
8,
25,
24,
24,
26,
26,
22,
10,
10,
10,
6,
6,
4,
4,
10,
24,
24,
37,
37,
48,
47,
30,
30,
11,
12,
1,
6,
30,
30,
30,
38,
38,
30,
18,
19,
19,
14,
14,
10,
10,
5,
5,
2,
21,
21,
46,
46,
46,
45,
17,
18,
1,
3,
14,
14,
29,
28,
28,
34,
34,
34,
22,
22,
5,
6,
6,
0,
0,
6,
19,
18,
18,
23,
23,
18,
18,
16,
16,
18,
5,
6,
6,
0,
0,
7,
7,
13,
13,
9,
9,
1,
1,
6,
6,
12,
12,
12,
12,
17,
17,
21,
21,
17,
17,
9,
9,
2,
2,
0,
12,
11,
11,
17,
17,
10,
10,
5,
5,
13,
13,
20,
20,
15,
15,
8,
8,
2,
2,
5,
20,
19,
19,
28,
28,
21,
21,
15,
15,
8,
8,
2,
2,
2,
2,
8,
8,
8,
8,
6,
6,
4,
4,
2,
2,
4,
4,
5,
5,
5,
5,
5,
5,
-1,
-1,
0,
0,
5,
16,
15,
15,
17,
17,
12,
12,
2,
2,
4,
4,
12,
12,
14,
14,
9,
9,
1,
1,
2,
2,
2,
2,
1,
1,
2,
2,
11,
11,
12,
1,
6,
6,
13,
13,
8,
8,
4,
4,
4,
4,
2,
2,
6,
6,
10,
10,
10,
10,
3,
3,
8,
8,
11,
11,
9,
9,
3,
3,
4,
4,
0,
0,
-1,
-1,
1,
13,
12,
12,
13,
13,
5,
5,
5,
5,
9,
9,
4,
4,
4,
4,
0,
0,
0,
0,
0,
0,
1,
1,
1,
1,
1,
1,
1,
1,
3,
3,
1,
1,
4,
4,
2,
2,
2,
2,
0,
0,
7,
7,
17,
17,
9,
9,
5,
5,
7,
7,
3,
3,
2,
2,
1,
1,
5,
16,
16,
16,
13,
0,
1,
1,
2,
2,
9,
9,
10,
10,
11,
30,
29,
29,
26,
26,
28,
12,
12,
1,
7,
7,
13,
13,
15,
15,
21,
21,
17,
3,
4,
4,
4,
4,
6,
6,
7,
7,
2,
2,
4,
16,
15,
15,
10,
10,
5,
5,
11,
11,
6,
6,
11,
11,
13,
13,
3,
3,
11,
11,
18,
18,
15,
3,
4,
4,
10,
10,
11,
11,
2,
2,
5,
5,
2,
2,
6,
6,
14,
14,
22,
38,
38,
24,
25,
5,
5,
5,
4,
19,
19,
19,
27,
27,
26,
26,
22,
22,
18,
18,
14,
14,
14,
14,
18,
18,
10,
10,
17,
17,
23,
23,
21,
21,
15,
4,
4,
4,
4,
4,
1,
12,
11,
11,
18,
7,
8,
8,
1,
1,
2,
2,
5,
5,
5,
5,
9,
9,
6,
6,
0,
0,
4,
4,
9,
9,
17,
17,
9,
9,
1,
1,
1,
1,
9,
9,
2,
2,
11,
11,
6,
6,
2,
2,
0,
0,
2,
2,
1,
1,
7,
7,
4,
4,
3,
3,
2,
2,
8,
8,
3,
3,
11,
11,
8,
8,
2,
2,
0,
0,
5,
5,
10,
10,
12,
12,
6,
6,
0,
0,
6,
6,
10,
10,
4,
4,
5,
5,
10,
10,
4,
4,
1,
1,
4,
4,
10,
10,
10,
10,
6,
6,
9,
9,
6,
6,
2,
13,
13,
26,
26,
26,
24,
13,
14,
14,
6,
6,
6,
6,
7,
7,
0,
0,
0,
0,
7,
7,
14,
14,
11,
11,
3,
3,
6,
6,
15,
15,
13,
1,
2,
2,
6,
6,
8,
8,
5,
5,
6,
6,
11,
11,
11,
11,
6,
6,
1,
1,
0,
0,
-1,
-1,
6,
6,
15,
15,
8,
8,
3,
14,
14,
2,
3,
25,
24,
24,
25,
3,
3,
17,
17,
17,
12,
0,
1,
1,
3,
3,
7,
7,
11,
11,
14,
14,
17,
17,
13,
0,
2,
2,
1,
1,
1,
1,
6,
19,
18,
18,
16,
16,
9,
9,
2,
17,
16,
29,
28,
14,
14,
34,
34,
64,
64,
34,
34,
5,
8,
8,
4,
34,
33,
33,
26,
3,
6,
30,
30,
30,
37,
37,
32,
32,
28,
28,
35,
35,
28,
10,
11,
0,
2,
2,
3,
15,
14,
25,
24,
24,
24,
24,
20,
9,
10,
10,
3,
3,
1,
1,
5,
5,
8,
8,
12,
1,
3,
3,
12,
12,
9,
9,
14,
14,
8,
8,
8,
8,
5,
5,
11,
11,
11,
11,
4,
4,
12,
12,
18,
18,
21,
21,
22,
22,
25,
25,
29,
14,
14,
35,
35,
57,
56,
56,
47,
23,
23,
2,
4,
4,
12,
12,
7,
7,
7,
7,
12,
12,
5,
5,
2,
2,
3,
3,
7,
7,
6,
6,
4,
4,
1,
1,
2,
2,
9,
20,
20,
20,
22,
11,
12,
12,
13,
29,
28,
28,
26,
26,
20,
20,
12,
12,
13,
13,
7,
7,
4,
4,
9,
9,
12,
12,
14,
14,
10,
10,
6,
6,
10,
10,
6,
6,
2,
2,
1,
1,
1,
1,
7,
7,
16,
16,
13,
1,
2,
2,
6,
6,
10,
10,
9,
9,
2,
2,
1,
15,
14,
14,
15,
15,
5,
5,
4,
4,
6,
6,
9,
9,
10,
10,
6,
6,
3,
3,
6,
6,
11,
11,
6,
6,
0,
0,
0,
0,
2,
2,
6,
6,
2,
2,
5,
5,
6,
17,
16,
16,
7,
7,
14,
35,
34,
34,
29,
6,
6,
6,
10,
10,
13,
13,
8,
8,
12,
12,
18,
18,
14,
14,
9,
9,
7,
7,
6,
6,
4,
4,
0,
0,
4,
4,
9,
9,
2,
2,
0,
0,
-1,
-1,
1,
20,
20,
48,
47,
61,
59,
37,
37,
9,
9,
9,
2,
2,
12,
24,
24,
38,
38,
38,
42,
42,
34,
34,
28,
16,
17,
4,
5,
5,
6,
6,
3,
26,
26,
37,
35,
35,
33,
33,
26,
26,
22,
22,
28,
14,
14,
3,
13,
13,
22,
22,
15,
15,
18,
7,
7,
7,
4,
4,
10,
10,
6,
6,
2,
2,
4,
19,
18,
18,
12,
12,
12,
12,
19,
19,
25,
25,
18,
7,
7,
7,
3,
3,
9,
9,
2,
2,
2,
2,
5,
5,
6,
6,
0,
0,
2,
14,
13,
13,
8,
8,
1,
1,
2,
13,
12,
12,
17,
17,
15,
15,
10,
10,
6,
6,
1,
1,
1,
1,
2,
2,
-1,
-1,
0,
0,
2,
2,
7,
7,
14,
14,
14,
14,
14,
14,
12,
12,
3,
3,
2,
2,
9,
9,
9,
9,
1,
1,
0,
0,
0,
0,
1,
1,
0,
0,
2,
2,
0,
0,
6,
6,
9,
9,
9,
9,
2,
2,
0,
0,
3,
3,
5,
5,
2,
2,
4,
15,
14,
14,
12,
1,
2,
2,
2,
2,
2,
2,
4,
4,
5,
5,
2,
2,
4,
4,
11,
11,
4,
4,
-1,
-1,
4,
4,
11,
11,
10,
10,
4,
4,
0,
0,
6,
6,
1,
1,
4,
4,
8,
8,
6,
6,
6,
6,
3,
3,
7,
7,
6,
6,
11,
11,
6,
23,
22,
36,
34,
14,
16,
0,
1,
1,
7,
20,
19,
19,
25,
9,
9,
30,
30,
30,
30,
2,
2,
14,
14,
14,
9,
9,
4,
4,
3,
3,
0,
0,
3,
3,
13,
13,
18,
4,
7,
33,
33,
17,
17,
3,
9,
9,
12,
1,
5,
20,
19,
19,
10,
10,
6,
6,
11,
11,
9,
9,
10,
10,
13,
13,
9,
9,
2,
2,
5,
5,
2,
2,
3,
3,
13,
36,
36,
36,
32,
21,
22,
6,
6,
6,
13,
24,
23,
23,
22,
22,
13,
2,
2,
2,
7,
7,
7,
7,
3,
3,
1,
1,
4,
4,
1,
1,
6,
6,
12,
1,
1,
1,
0,
0,
-1,
-1,
1,
1,
7,
7,
12,
12,
10,
10,
9,
9,
8,
8,
4,
4,
0,
0,
2,
2,
2,
2,
6,
6,
9,
9,
9,
9,
7,
7,
0,
0,
1,
1,
5,
5,
8,
8,
3,
3,
0,
0,
-1,
-1,
-1,
-1,
0,
0,
-1,
-1,
0,
0,
1,
1,
3,
3,
1,
1,
8,
26,
25,
42,
41,
30,
30,
2,
2,
13,
12,
23,
23,
23,
23,
10,
12,
12,
5,
5,
13,
13,
13,
13,
9,
9,
9,
9,
9,
9,
2,
16,
16,
16,
19,
19,
14,
14,
11,
11,
7,
7,
1,
1,
8,
8,
4,
4,
10,
10,
14,
14,
6,
6,
7,
7,
12,
12,
6,
6,
2,
2,
2,
2,
1,
1,
4,
4,
2,
2,
1,
1,
10,
10,
9,
9,
0,
0,
7,
7,
7,
7,
11,
11,
20,
6,
6,
6,
2,
2,
5,
5,
8,
8,
9,
20,
18,
3,
9,
27,
26,
26,
20,
9,
10,
10,
9,
9,
5,
5,
6,
6,
6,
6,
4,
4,
9,
9,
3,
3,
2,
2,
10,
10,
14,
14,
21,
45,
45,
45,
46,
33,
34,
34,
28,
4,
5,
34,
33,
50,
49,
61,
61,
61,
54,
14,
15,
15,
8,
8,
10,
10,
6,
6,
2,
2,
3,
3,
5,
5,
14,
14,
22,
22,
16,
16,
18,
18,
26,
26,
24,
24,
26,
26,
22,
2,
5,
18,
16,
16,
18,
18,
10,
10,
5,
5,
6,
6,
8,
8,
1,
1,
8,
8,
2,
2,
6,
6,
6,
6,
10,
10,
6,
6,
0,
0,
0,
0,
4,
4,
1,
1,
5,
5,
1,
1,
-2,
-2,
3,
3,
3,
3,
2,
2,
2,
2,
-1,
-1,
0,
0,
0,
0,
4,
4,
2,
2,
7,
7,
10,
10,
15,
2,
4,
4,
2,
2,
9,
9,
13,
2,
2,
2,
11,
11,
16,
16,
19,
19,
15,
15,
10,
10,
12,
12,
10,
10,
2,
2,
9,
9,
8,
8,
9,
9,
8,
8,
6,
6,
2,
2,
1,
1,
5,
5,
9,
9,
8,
8,
5,
5,
2,
2,
1,
1,
0,
0,
1,
1,
4,
4,
1,
1,
2,
2,
5,
5,
4,
4,
1,
1,
1,
1,
2,
2,
5,
5,
14,
3,
4,
20,
20,
20,
19,
5,
5,
5,
4,
4,
9,
9,
6,
6,
1,
1,
0,
0,
6,
6,
3,
3,
3,
3,
0,
0,
0,
0,
2,
2,
2,
2,
1,
1,
1,
1,
1,
1,
9,
9,
10,
10,
4,
4,
5,
5,
4,
4,
8,
30,
29,
29,
31,
4,
5,
18,
17,
17,
25,
25,
18,
3,
4,
4,
8,
8,
13,
13,
11,
11,
8,
8,
1,
1,
2,
2,
6,
6,
9,
23,
22,
36,
34,
34,
38,
25,
25,
4,
6,
23,
22,
22,
29,
29,
20,
4,
4,
4,
5,
5,
3,
14,
14,
14,
9,
9,
6,
6,
6,
6,
6,
6,
4,
4,
6,
6,
6,
6,
6,
6,
1,
1,
1,
16,
15,
40,
40,
25,
25,
2,
5,
5,
4,
4,
5,
5,
9,
28,
28,
28,
26,
10,
10,
25,
24,
41,
38,
14,
15,
1,
5,
5,
7,
7,
7,
7,
12,
12,
9,
9,
4,
4,
2,
2,
10,
10,
12,
12,
8,
8,
6,
6,
10,
10,
4,
4,
0,
0,
0,
0,
1,
1,
0,
0,
0,
12,
12,
12,
18,
18,
12,
12,
7,
7,
0,
0,
5,
5,
4,
4,
2,
2,
3,
3,
3,
3,
3,
3,
2,
2,
5,
5,
9,
9,
1,
1,
8,
8,
3,
3,
5,
5,
7,
7,
3,
3,
2,
2,
1,
1,
0,
0,
3,
3,
6,
6,
8,
8,
2,
14,
13,
13,
22,
22,
18,
3,
5,
5,
9,
9,
17,
17,
18,
7,
8,
8,
11,
22,
21,
21,
23,
23,
14,
14,
5,
5,
5,
5,
10,
10,
13,
13,
10,
10,
7,
7,
1,
1,
3,
3,
9,
9,
4,
4,
0,
0,
1,
1,
7,
7,
6,
6,
3,
3,
6,
6,
8,
8,
2,
2,
10,
10,
1,
1,
6,
6,
6,
6,
11,
36,
36,
36,
31,
18,
18,
1,
2,
2,
12,
12,
7,
7,
2,
2,
1,
1,
6,
6,
15,
15,
14,
14,
16,
16,
14,
14,
9,
9,
8,
8,
6,
6,
14,
14,
6,
6,
1,
19,
18,
18,
18,
18,
9,
9,
2,
2,
0,
0,
6,
6,
3,
3,
3,
3,
2,
2,
5,
17,
17,
4,
5,
20,
20,
20,
24,
2,
3,
3,
9,
9,
6,
6,
10,
10,
6,
6,
10,
10,
4,
4,
6,
6,
11,
11,
15,
15,
10,
10,
3,
3,
1,
1,
3,
3,
0,
0,
0,
0,
3,
3,
7,
7,
10,
10,
6,
6,
9,
9,
12,
12,
15,
15,
14,
14,
8,
8,
1,
1,
3,
17,
17,
17,
16,
5,
6,
6,
1,
1,
1,
1,
1,
1,
1,
1,
5,
5,
2,
2,
6,
6,
4,
4,
3,
14,
13,
13,
15,
1,
2,
18,
18,
18,
18,
6,
6,
6,
11,
11,
9,
9,
12,
37,
36,
51,
50,
30,
30,
5,
8,
8,
17,
17,
14,
14,
14,
14,
16,
16,
20,
20,
25,
25,
18,
18,
10,
10,
4,
15,
14,
14,
14,
14,
12,
12,
10,
10,
6,
6,
5,
5,
6,
6,
7,
7,
1,
1,
8,
8,
14,
14,
6,
6,
10,
32,
31,
47,
46,
46,
42,
25,
26,
5,
5,
18,
17,
38,
38,
38,
27,
27,
27,
16,
16,
16,
22,
22,
24,
24,
22,
22,
17,
2,
3,
3,
10,
10,
12,
0,
1,
1,
1,
14,
14,
28,
28,
28,
36,
36,
38,
38,
42,
29,
29,
6,
6,
6,
10,
21,
21,
21,
26,
26,
31,
19,
20,
20,
11,
11,
9,
9,
3,
3,
1,
1,
9,
9,
12,
1,
2,
2,
10,
29,
29,
29,
33,
12,
12,
12,
4,
4,
0,
0,
4,
4,
6,
6,
8,
8,
6,
6,
11,
11,
18,
2,
2,
2,
11,
11,
16,
16,
13,
13,
4,
4,
7,
25,
24,
24,
17,
4,
14,
29,
28,
28,
28,
10,
10,
-1,
0,
0,
1,
1,
-1,
-1,
1,
1,
6,
6,
2,
2,
7,
7,
9,
9,
1,
1,
4,
19,
19,
32,
32,
32,
23,
9,
10,
10,
3,
15,
14,
14,
14,
14,
8,
8,
2,
2,
5,
5,
12,
12,
6,
6,
4,
4,
2,
2,
3,
3,
1,
1,
4,
4,
8,
8,
12,
1,
3,
18,
16,
16,
9,
9,
5,
5,
10,
10,
10,
10,
14,
14,
12,
12,
4,
4,
4,
4,
7,
7,
5,
5,
1,
1,
2,
2,
6,
6,
14,
14,
9,
9,
0,
0,
1,
1,
5,
5,
3,
3,
2,
2,
6,
6,
6,
6,
3,
3,
10,
10,
11,
11,
18,
18,
14,
14,
6,
6,
0,
0,
4,
4,
3,
3,
1,
1,
4,
4,
1,
1,
8,
8,
11,
11,
11,
0,
1,
12,
12,
12,
11,
11,
6,
20,
20,
20,
13,
2,
10,
10,
13,
13,
13,
13,
16,
16,
14,
14,
11,
11,
6,
6,
0,
0,
5,
5,
14,
14,
15,
15,
5,
5,
3,
3,
7,
7,
9,
9,
3,
3,
2,
2,
0,
0,
1,
1,
0,
0,
1,
1,
2,
2,
9,
9,
6,
6,
15,
42,
41,
41,
32,
4,
4,
17,
16,
16,
7,
7,
16,
16,
9,
9,
10,
10,
10,
10,
5,
5,
13,
1,
1,
1,
4,
4,
1,
1,
1,
12,
11,
11,
19,
5,
6,
6,
1,
1,
10,
10,
13,
13,
12,
12,
8,
8,
4,
4,
13,
13,
13,
13,
16,
16,
24,
24,
22,
8,
8,
8,
3,
3,
10,
10,
13,
13,
13,
13,
11,
11,
1,
1,
0,
12,
12,
32,
32,
32,
22,
3,
3,
3,
6,
6,
14,
14,
17,
17,
15,
15,
8,
8,
0,
0,
2,
2,
6,
6,
8,
8,
4,
4,
13,
32,
31,
31,
26,
11,
12,
0,
2,
2,
4,
4,
2,
2,
1,
1,
4,
4,
13,
13,
15,
15,
12,
12,
6,
6,
2,
2,
-1,
-1,
2,
2,
1,
1,
2,
2,
4,
4,
1,
1,
-1,
-1,
0,
0,
8,
20,
18,
18,
18,
2,
3,
3,
5,
5,
7,
7,
14,
14,
13,
13,
12,
0,
1,
1,
6,
6,
9,
9,
18,
29,
29,
29,
27,
4,
5,
5,
2,
2,
7,
7,
8,
20,
20,
9,
11,
11,
2,
2,
3,
3,
0,
0,
7,
7,
5,
5,
4,
4,
6,
6,
1,
1,
3,
3,
0,
0,
1,
1,
5,
5,
5,
5,
5,
5,
10,
10,
1,
16,
15,
15,
12,
12,
2,
2,
3,
3,
3,
3,
1,
1,
2,
2,
6,
6,
5,
5,
9,
9,
5,
5,
2,
2,
1,
1,
2,
2,
2,
2,
10,
10,
7,
7,
5,
5,
1,
16,
15,
15,
20,
1,
2,
2,
9,
9,
6,
6,
2,
2,
6,
6,
5,
5,
6,
6,
5,
5,
13,
13,
10,
10,
3,
3,
1,
1,
4,
4,
2,
2,
1,
1,
1,
1,
7,
7,
12,
12,
12,
12,
11,
11,
7,
7,
11,
11,
6,
6,
2,
2,
2,
2,
5,
5,
1,
1,
5,
5,
7,
7,
10,
10,
18,
18,
10,
10,
2,
2,
8,
8,
1,
1,
7,
7,
3,
3,
6,
6,
5,
5,
3,
3,
4,
4,
0,
0,
0,
0,
4,
4,
9,
9,
7,
7,
8,
8,
11,
11,
2,
2,
1,
1,
0,
0,
7,
7,
4,
4,
13,
13,
22,
5,
5,
32,
32,
32,
28,
5,
6,
6,
5,
5,
3,
3,
2,
2,
3,
3,
12,
12,
18,
18,
19,
19,
14,
2,
10,
32,
32,
32,
28,
4,
5,
5,
12,
12,
8,
8,
8,
8,
17,
5,
6,
6,
6,
6,
6,
6,
1,
1,
2,
2,
8,
8,
11,
11,
10,
10,
7,
7,
6,
6,
1,
1,
2,
2,
3,
3,
5,
5,
6,
32,
30,
43,
42,
42,
35,
14,
14,
2,
7,
7,
9,
9,
14,
14,
8,
8,
0,
0,
5,
20,
20,
20,
29,
8,
8,
8,
17,
17,
8,
8,
7,
7,
8,
8,
3,
3,
5,
5,
1,
1,
7,
7,
3,
3,
4,
4,
2,
2,
0,
0,
4,
4,
8,
8,
7,
7,
4,
4,
5,
5,
3,
3,
2,
2,
6,
6,
4,
4,
2,
2,
8,
8,
17,
17,
26,
26,
21,
2,
7,
28,
26,
26,
22,
8,
8,
8,
12,
12,
9,
9,
0,
26,
26,
58,
57,
29,
30,
3,
4,
4,
6,
6,
16,
32,
32,
43,
42,
42,
41,
30,
30,
18,
18,
7,
8,
8,
2,
2,
8,
8,
7,
7,
6,
6,
14,
26,
26,
26,
31,
31,
30,
30,
24,
24,
15,
15,
11,
11,
2,
14,
13,
13,
18,
18,
13,
13,
5,
5,
6,
6,
6,
6,
5,
5,
9,
9,
10,
10,
10,
10,
4,
4,
2,
20,
20,
20,
24,
24,
16,
16,
9,
9,
2,
2,
8,
8,
8,
8,
3,
3,
6,
6,
10,
10,
10,
10,
4,
4,
3,
3,
10,
10,
6,
6,
1,
1,
10,
27,
26,
26,
20,
9,
9,
9,
1,
1,
5,
5,
6,
6,
8,
8,
2,
2,
8,
21,
20,
20,
26,
26,
17,
0,
1,
1,
5,
5,
10,
10,
16,
16,
18,
18,
16,
16,
18,
18,
17,
6,
6,
6,
1,
1,
6,
6,
1,
14,
14,
14,
19,
19,
19,
19,
10,
10,
5,
5,
6,
6,
6,
6,
0,
0,
1,
1,
6,
6,
7,
18,
18,
2,
4,
17,
17,
17,
23,
10,
10,
10,
8,
19,
19,
19,
16,
1,
3,
14,
14,
14,
16,
16,
18,
2,
3,
3,
0,
12,
12,
28,
27,
12,
14,
2,
8,
8,
14,
14,
15,
4,
5,
5,
2,
2,
5,
5,
10,
10,
10,
10,
18,
18,
24,
12,
12,
12,
18,
18,
10,
10,
5,
5,
14,
29,
29,
29,
33,
22,
22,
5,
5,
5,
2,
2,
12,
12,
14,
14,
9,
9,
1,
1,
6,
6,
7,
7,
2,
2,
1,
1,
6,
6,
4,
4,
2,
13,
12,
12,
17,
1,
3,
21,
21,
21,
24,
24,
19,
19,
23,
10,
11,
11,
6,
6,
7,
7,
10,
10,
17,
17,
23,
23,
19,
1,
2,
2,
11,
11,
18,
18,
8,
8,
5,
5,
9,
9,
7,
7,
7,
7,
5,
5,
1,
20,
18,
32,
30,
12,
12,
12,
4,
4,
1,
1,
4,
4,
