EMG_S3/DS0021.CSV

Memory Length,4000,
Trigger Level,-4.80000e+02,
Source,CH1,
Probe,1.0X,
Vertical Units,V,
Vertical Scale,1.00000e+00,
Vertical Position,0.00000e+00,
Horizontal Units,S,
Horizontal Scale,1.00000e-01,
Horizontal Position,0.0000000e+00,
Horizontal Mode,Roll Mode,
Waveform Last Dot Address,4000,
Sampling Period,4.00000e-04,
Firmware,V1.14,
Time, ,
Mode,Fast,
Waveform Data,
11,
11,
5,
5,
8,
27,
27,
27,
30,
30,
33,
33,
41,
27,
27,
4,
10,
32,
32,
32,
38,
38,
33,
33,
27,
27,
23,
23,
20,
20,
18,
1,
2,
2,
8,
8,
9,
9,
12,
12,
14,
14,
10,
10,
12,
12,
12,
12,
20,
20,
28,
28,
28,
14,
14,
1,
3,
14,
14,
14,
22,
22,
22,
22,
15,
15,
14,
14,
18,
5,
5,
22,
21,
21,
21,
4,
5,
5,
1,
1,
1,
12,
12,
12,
10,
10,
5,
25,
24,
36,
35,
6,
6,
22,
22,
5,
5,
5,
10,
10,
10,
29,
29,
29,
21,
7,
8,
8,
0,
0,
1,
1,
2,
2,
1,
14,
14,
14,
20,
20,
21,
21,
21,
21,
17,
17,
9,
9,
2,
2,
6,
6,
13,
26,
25,
25,
31,
31,
28,
28,
21,
7,
7,
7,
7,
7,
2,
2,
7,
21,
20,
20,
24,
24,
18,
18,
11,
11,
6,
6,
13,
1,
2,
2,
7,
7,
3,
3,
3,
3,
4,
4,
2,
2,
1,
1,
-1,
-1,
1,
1,
5,
5,
5,
17,
16,
31,
30,
30,
29,
16,
17,
2,
4,
4,
2,
2,
4,
4,
0,
12,
12,
12,
21,
21,
22,
22,
17,
17,
13,
13,
7,
7,
2,
2,
3,
3,
5,
5,
2,
2,
4,
4,
10,
10,
8,
8,
5,
30,
30,
30,
25,
14,
15,
15,
18,
18,
14,
14,
8,
8,
6,
26,
26,
26,
18,
6,
9,
25,
25,
36,
34,
34,
34,
13,
13,
13,
15,
15,
20,
9,
9,
9,
10,
10,
6,
6,
3,
3,
9,
9,
7,
7,
1,
1,
-1,
-1,
0,
0,
0,
0,
3,
3,
4,
4,
7,
7,
7,
7,
4,
4,
12,
12,
8,
8,
10,
10,
20,
20,
13,
13,
11,
11,
10,
10,
11,
11,
7,
7,
12,
12,
15,
15,
6,
25,
24,
38,
37,
18,
19,
1,
3,
3,
12,
25,
25,
25,
21,
8,
8,
8,
0,
0,
1,
1,
7,
7,
3,
3,
-1,
-1,
2,
2,
9,
9,
12,
12,
5,
21,
20,
20,
17,
6,
6,
6,
16,
16,
24,
12,
12,
1,
3,
3,
7,
7,
9,
9,
11,
11,
12,
12,
8,
8,
5,
5,
8,
26,
26,
8,
8,
8,
6,
6,
5,
5,
-1,
-1,
-2,
-2,
0,
0,
0,
0,
4,
4,
3,
3,
-1,
-1,
0,
0,
1,
1,
5,
5,
1,
1,
4,
4,
6,
6,
2,
2,
8,
8,
6,
6,
3,
3,
3,
3,
12,
12,
9,
9,
2,
2,
2,
2,
0,
13,
12,
12,
3,
3,
12,
12,
8,
8,
5,
5,
8,
8,
8,
8,
2,
2,
9,
9,
14,
14,
10,
10,
5,
5,
1,
1,
1,
1,
-1,
-1,
0,
0,
0,
0,
1,
1,
3,
3,
13,
13,
22,
22,
14,
0,
1,
1,
0,
0,
1,
1,
2,
2,
8,
8,
13,
13,
13,
13,
21,
5,
6,
36,
35,
51,
50,
34,
34,
5,
5,
16,
14,
30,
30,
30,
26,
6,
6,
6,
4,
4,
5,
5,
14,
27,
26,
12,
12,
1,
3,
15,
14,
14,
15,
15,
16,
16,
18,
18,
17,
2,
2,
2,
5,
5,
8,
8,
6,
6,
3,
3,
2,
2,
3,
3,
2,
14,
13,
29,
28,
28,
9,
52,
52,
65,
65,
41,
41,
4,
5,
20,
18,
18,
21,
21,
18,
18,
13,
13,
10,
10,
10,
10,
15,
15,
21,
21,
12,
0,
1,
1,
9,
9,
14,
14,
3,
3,
0,
0,
0,
0,
6,
6,
14,
14,
10,
10,
2,
2,
3,
3,
2,
2,
7,
7,
6,
18,
18,
30,
28,
2,
2,
2,
6,
28,
26,
6,
6,
25,
24,
24,
32,
9,
10,
27,
26,
26,
19,
3,
9,
9,
19,
19,
23,
23,
14,
14,
11,
26,
26,
12,
12,
12,
14,
14,
23,
23,
24,
5,
5,
5,
8,
8,
10,
10,
3,
26,
26,
37,
37,
37,
38,
20,
21,
3,
3,
17,
17,
28,
28,
28,
32,
32,
30,
30,
24,
12,
13,
1,
3,
18,
18,
18,
20,
20,
17,
17,
10,
10,
2,
2,
9,
9,
18,
18,
21,
4,
5,
30,
29,
29,
27,
13,
13,
13,
18,
18,
17,
2,
2,
2,
10,
21,
21,
21,
29,
29,
28,
17,
18,
2,
4,
4,
9,
9,
17,
3,
7,
23,
22,
22,
30,
30,
27,
27,
29,
15,
16,
2,
8,
25,
24,
47,
46,
34,
35,
11,
39,
62,
57,
14,
14,
14,
13,
13,
17,
17,
15,
15,
12,
12,
11,
11,
11,
11,
4,
4,
2,
2,
2,
2,
5,
5,
11,
11,
16,
16,
14,
14,
7,
7,
2,
2,
2,
2,
2,
2,
5,
5,
2,
2,
0,
0,
9,
23,
22,
22,
25,
14,
14,
1,
4,
30,
30,
49,
48,
20,
20,
2,
5,
5,
9,
9,
5,
5,
5,
5,
13,
13,
15,
15,
9,
9,
10,
10,
19,
5,
6,
6,
5,
5,
4,
4,
9,
29,
29,
29,
31,
10,
10,
10,
15,
15,
18,
3,
4,
31,
31,
31,
22,
3,
6,
6,
9,
9,
9,
9,
14,
14,
13,
13,
6,
6,
1,
1,
1,
1,
2,
2,
2,
2,
5,
5,
6,
6,
2,
2,
10,
10,
4,
20,
19,
19,
21,
21,
12,
32,
31,
31,
34,
34,
27,
5,
7,
30,
30,
43,
42,
42,
48,
48,
40,
25,
25,
5,
13,
30,
27,
14,
15,
15,
18,
18,
18,
6,
7,
7,
6,
6,
2,
2,
10,
10,
10,
10,
9,
20,
19,
19,
11,
11,
5,
5,
14,
2,
3,
3,
2,
2,
0,
0,
10,
23,
22,
1,
2,
2,
5,
5,
5,
21,
20,
7,
7,
7,
4,
4,
9,
9,
12,
34,
32,
32,
24,
12,
12,
1,
2,
15,
15,
15,
14,
14,
8,
8,
13,
26,
26,
14,
14,
1,
5,
5,
10,
10,
7,
7,
13,
13,
16,
3,
4,
4,
6,
18,
17,
17,
11,
-1,
1,
1,
5,
5,
1,
1,
6,
43,
42,
64,
60,
25,
25,
2,
6,
6,
8,
8,
6,
20,
19,
33,
32,
21,
22,
2,
5,
5,
3,
3,
13,
13,
20,
20,
14,
14,
6,
6,
7,
7,
15,
15,
23,
23,
18,
18,
14,
1,
3,
3,
2,
2,
2,
2,
3,
20,
19,
19,
15,
1,
2,
2,
0,
0,
2,
16,
16,
16,
19,
19,
20,
20,
30,
18,
18,
2,
6,
18,
18,
18,
20,
1,
2,
2,
1,
12,
12,
12,
7,
28,
28,
49,
48,
13,
13,
13,
22,
22,
21,
21,
15,
15,
18,
18,
11,
11,
2,
2,
12,
25,
24,
8,
8,
25,
23,
23,
20,
6,
7,
7,
0,
0,
5,
16,
16,
16,
15,
1,
1,
1,
6,
24,
24,
37,
33,
6,
8,
8,
4,
28,
28,
60,
60,
33,
34,
8,
22,
62,
61,
61,
65,
25,
25,
62,
62,
62,
64,
9,
10,
10,
14,
30,
30,
47,
47,
47,
48,
31,
32,
32,
26,
26,
29,
15,
15,
34,
34,
62,
62,
62,
65,
65,
59,
10,
18,
45,
45,
61,
60,
49,
49,
6,
6,
20,
19,
50,
50,
36,
36,
9,
31,
62,
62,
62,
63,
26,
26,
15,
17,
17,
14,
1,
3,
25,
23,
42,
41,
41,
32,
19,
19,
19,
12,
12,
15,
26,
25,
9,
9,
28,
28,
42,
39,
14,
15,
15,
11,
24,
24,
13,
14,
0,
1,
1,
5,
5,
10,
10,
5,
5,
6,
6,
9,
28,
27,
11,
12,
1,
4,
4,
9,
9,
14,
14,
17,
17,
16,
16,
13,
13,
9,
9,
4,
4,
2,
2,
7,
7,
5,
5,
3,
3,
9,
9,
9,
9,
7,
7,
0,
0,
1,
1,
4,
4,
10,
10,
10,
10,
4,
4,
1,
1,
9,
9,
9,
9,
2,
2,
2,
2,
1,
1,
1,
1,
0,
0,
0,
0,
1,
1,
5,
5,
2,
2,
12,
12,
13,
13,
6,
6,
3,
3,
1,
1,
6,
6,
12,
1,
1,
14,
13,
13,
4,
4,
10,
10,
17,
17,
16,
16,
10,
10,
12,
12,
8,
8,
5,
5,
9,
9,
9,
9,
7,
18,
18,
18,
28,
28,
26,
4,
4,
4,
3,
15,
14,
14,
6,
6,
0,
12,
12,
12,
18,
18,
20,
20,
21,
21,
15,
15,
14,
14,
12,
12,
12,
12,
10,
10,
2,
20,
19,
19,
26,
26,
25,
11,
11,
11,
18,
18,
25,
14,
15,
1,
2,
15,
14,
14,
21,
21,
27,
27,
25,
5,
12,
27,
25,
8,
9,
9,
5,
5,
14,
14,
21,
21,
25,
14,
15,
15,
25,
37,
36,
36,
33,
33,
31,
6,
6,
6,
13,
13,
16,
16,
16,
16,
8,
8,
3,
3,
5,
5,
0,
0,
-1,
-1,
9,
9,
12,
12,
8,
8,
4,
4,
1,
1,
-1,
-1,
1,
1,
8,
8,
6,
6,
7,
7,
6,
22,
21,
43,
42,
42,
38,
10,
11,
11,
11,
11,
17,
17,
19,
19,
26,
26,
23,
23,
16,
1,
2,
2,
3,
3,
3,
3,
4,
4,
5,
5,
9,
9,
8,
8,
1,
1,
1,
1,
4,
4,
4,
4,
9,
9,
6,
6,
1,
1,
3,
3,
4,
4,
0,
0,
5,
5,
2,
2,
1,
1,
8,
8,
10,
10,
4,
4,
13,
33,
33,
55,
55,
25,
26,
8,
21,
21,
18,
18,
14,
14,
9,
9,
2,
2,
2,
24,
23,
23,
18,
1,
3,
3,
4,
4,
4,
4,
2,
14,
13,
13,
18,
18,
8,
8,
12,
12,
2,
13,
12,
12,
10,
32,
31,
31,
22,
8,
8,
8,
0,
11,
10,
25,
25,
6,
6,
6,
5,
5,
1,
1,
8,
8,
12,
12,
10,
10,
4,
4,
4,
4,
-1,
-1,
6,
6,
13,
2,
2,
2,
10,
10,
16,
16,
8,
8,
1,
1,
2,
2,
5,
5,
2,
2,
2,
2,
5,
5,
12,
12,
7,
7,
2,
2,
1,
12,
12,
12,
19,
19,
26,
15,
16,
3,
4,
4,
2,
20,
20,
62,
61,
61,
58,
33,
34,
7,
7,
7,
10,
24,
23,
23,
30,
30,
30,
30,
31,
31,
30,
7,
7,
7,
6,
6,
9,
37,
36,
19,
20,
57,
56,
56,
64,
53,
53,
17,
17,
4,
13,
25,
24,
24,
19,
19,
14,
14,
15,
15,
12,
12,
6,
6,
4,
4,
2,
2,
2,
2,
1,
1,
4,
4,
8,
8,
10,
10,
6,
6,
2,
2,
-1,
-1,
3,
3,
6,
6,
4,
4,
1,
1,
6,
6,
5,
5,
1,
1,
2,
2,
8,
8,
16,
2,
7,
20,
18,
18,
11,
43,
43,
43,
39,
5,
6,
21,
20,
20,
29,
29,
29,
29,
22,
22,
18,
18,
8,
8,
3,
3,
1,
1,
7,
19,
18,
18,
13,
2,
10,
26,
26,
38,
38,
52,
51,
51,
52,
25,
26,
4,
10,
26,
26,
26,
32,
32,
33,
33,
28,
16,
17,
1,
2,
13,
12,
24,
24,
11,
11,
0,
1,
1,
0,
0,
0,
16,
15,
15,
24,
6,
9,
42,
42,
21,
21,
0,
1,
1,
1,
1,
6,
6,
9,
9,
8,
8,
5,
5,
5,
5,
11,
11,
3,
3,
10,
10,
10,
10,
5,
30,
30,
30,
26,
4,
6,
6,
6,
6,
6,
6,
14,
14,
13,
13,
6,
6,
4,
4,
5,
5,
13,
13,
13,
1,
7,
7,
16,
16,
10,
10,
4,
4,
1,
1,
4,
4,
9,
9,
12,
12,
5,
5,
10,
10,
18,
18,
9,
9,
4,
4,
12,
12,
15,
15,
9,
9,
10,
10,
14,
14,
10,
10,
4,
4,
5,
5,
8,
8,
2,
2,
6,
6,
12,
12,
8,
8,
8,
8,
8,
8,
1,
1,
2,
2,
3,
3,
11,
11,
14,
14,
17,
5,
5,
5,
8,
8,
16,
16,
17,
17,
17,
17,
10,
10,
1,
1,
9,
9,
9,
9,
0,
0,
6,
6,
9,
9,
1,
1,
1,
1,
6,
6,
6,
6,
0,
0,
5,
5,
9,
9,
9,
9,
8,
8,
6,
6,
2,
2,
1,
1,
6,
6,
6,
6,
4,
4,
2,
2,
2,
2,
0,
0,
2,
2,
0,
0,
1,
1,
8,
8,
7,
7,
13,
13,
20,
6,
6,
6,
9,
9,
10,
10,
6,
6,
6,
6,
12,
12,
9,
9,
8,
8,
2,
2,
4,
4,
1,
23,
23,
57,
57,
38,
13,
50,
50,
65,
64,
64,
64,
20,
20,
2,
7,
7,
16,
16,
20,
20,
26,
26,
30,
30,
37,
37,
28,
6,
6,
6,
7,
7,
9,
9,
2,
2,
2,
2,
11,
11,
20,
20,
14,
14,
8,
8,
1,
1,
6,
6,
6,
6,
9,
20,
20,
9,
10,
-1,
0,
0,
3,
3,
4,
4,
8,
8,
7,
7,
12,
12,
2,
2,
0,
0,
2,
2,
0,
0,
1,
20,
20,
36,
36,
15,
16,
4,
13,
25,
25,
25,
31,
31,
33,
33,
30,
18,
19,
3,
4,
16,
15,
15,
22,
22,
28,
28,
37,
26,
26,
10,
11,
11,
2,
2,
6,
6,
14,
27,
26,
26,
34,
34,
24,
3,
4,
4,
6,
6,
2,
29,
28,
60,
58,
29,
30,
2,
2,
2,
6,
19,
18,
18,
24,
24,
25,
25,
29,
29,
19,
1,
2,
18,
18,
30,
29,
17,
18,
5,
5,
5,
9,
9,
5,
5,
0,
0,
4,
4,
8,
8,
10,
10,
4,
4,
13,
13,
18,
18,
12,
1,
1,
1,
10,
10,
15,
15,
15,
15,
20,
5,
5,
32,
31,
31,
31,
4,
4,
22,
22,
22,
29,
9,
9,
9,
13,
13,
11,
0,
1,
1,
4,
4,
2,
2,
0,
0,
10,
10,
10,
10,
2,
2,
2,
2,
9,
9,
5,
5,
0,
0,
3,
3,
9,
24,
23,
23,
23,
5,
10,
41,
41,
41,
34,
12,
12,
0,
1,
1,
0,
12,
12,
12,
17,
17,
19,
19,
18,
2,
2,
2,
2,
2,
1,
18,
18,
31,
7,
45,
45,
65,
64,
48,
49,
5,
7,
28,
28,
28,
32,
32,
34,
34,
34,
34,
28,
14,
14,
14,
4,
4,
5,
5,
5,
5,
3,
16,
15,
15,
21,
4,
5,
5,
8,
8,
12,
12,
9,
9,
5,
5,
2,
2,
6,
6,
8,
8,
4,
4,
6,
21,
20,
20,
21,
5,
12,
52,
52,
29,
29,
8,
23,
23,
18,
2,
5,
5,
3,
32,
32,
62,
61,
47,
48,
9,
15,
51,
50,
34,
34,
15,
15,
1,
2,
2,
7,
7,
10,
10,
1,
1,
4,
4,
0,
0,
1,
1,
-1,
-1,
4,
4,
8,
8,
2,
20,
19,
19,
13,
1,
3,
3,
2,
2,
0,
21,
21,
37,
35,
18,
18,
18,
15,
1,
2,
23,
23,
43,
43,
43,
46,
18,
18,
7,
8,
8,
9,
40,
40,
40,
36,
6,
10,
10,
18,
4,
10,
21,
18,
3,
11,
30,
30,
6,
7,
20,
19,
19,
13,
1,
4,
4,
5,
5,
1,
1,
2,
13,
13,
13,
18,
6,
6,
24,
22,
22,
20,
20,
12,
12,
14,
14,
14,
14,
5,
5,
6,
6,
6,
6,
9,
9,
2,
2,
6,
6,
2,
16,
16,
16,
9,
9,
6,
6,
14,
14,
12,
12,
12,
12,
11,
11,
11,
11,
12,
25,
19,
2,
2,
2,
10,
10,
18,
18,
14,
1,
3,
18,
17,
29,
29,
15,
15,
15,
6,
6,
5,
25,
24,
24,
23,
6,
6,
6,
10,
10,
9,
9,
0,
0,
5,
5,
6,
6,
2,
2,
2,
14,
14,
14,
15,
15,
6,
6,
12,
24,
22,
6,
6,
6,
4,
4,
10,
10,
9,
9,
13,
13,
17,
17,
9,
9,
4,
4,
5,
5,
4,
4,
3,
3,
4,
4,
4,
4,
2,
2,
2,
2,
8,
8,
8,
8,
3,
20,
19,
19,
11,
0,
1,
1,
7,
7,
13,
13,
19,
19,
22,
10,
11,
11,
3,
3,
9,
25,
24,
39,
39,
39,
35,
5,
6,
18,
16,
1,
1,
1,
4,
4,
7,
7,
1,
1,
2,
2,
6,
6,
1,
1,
5,
5,
7,
7,
0,
0,
0,
0,
0,
11,
10,
10,
14,
14,
14,
14,
9,
9,
1,
1,
7,
7,
14,
14,
21,
8,
9,
20,
20,
20,
17,
2,
2,
2,
4,
4,
1,
20,
20,
36,
34,
34,
28,
5,
12,
30,
30,
30,
36,
22,
23,
5,
12,
12,
8,
8,
6,
6,
12,
12,
9,
9,
10,
21,
20,
20,
23,
3,
4,
25,
25,
57,
57,
41,
41,
4,
5,
5,
11,
11,
2,
2,
3,
3,
2,
2,
4,
4,
6,
6,
12,
12,
10,
10,
2,
2,
6,
6,
8,
8,
14,
14,
9,
9,
11,
11,
2,
2,
4,
4,
7,
7,
4,
4,
5,
5,
4,
4,
2,
2,
7,
7,
11,
11,
20,
20,
25,
6,
10,
38,
37,
13,
13,
13,
7,
7,
13,
13,
5,
5,
4,
4,
10,
10,
3,
3,
4,
16,
14,
1,
1,
1,
3,
3,
2,
2,
10,
10,
8,
8,
2,
15,
14,
28,
27,
27,
19,
19,
11,
11,
3,
3,
7,
7,
10,
10,
13,
13,
10,
10,
2,
2,
12,
12,
3,
18,
18,
18,
17,
17,
18,
18,
14,
1,
1,
1,
9,
9,
13,
13,
18,
18,
18,
18,
12,
12,
18,
18,
25,
9,
10,
10,
15,
15,
20,
4,
8,
33,
32,
32,
26,
5,
6,
6,
8,
8,
8,
8,
1,
1,
1,
1,
2,
2,
6,
21,
20,
41,
40,
21,
22,
6,
30,
45,
41,
25,
26,
26,
25,
8,
9,
9,
5,
5,
10,
10,
15,
15,
15,
15,
14,
1,
6,
6,
15,
15,
12,
12,
13,
13,
9,
9,
12,
12,
15,
15,
12,
12,
12,
28,
26,
7,
8,
8,
8,
8,
6,
6,
0,
0,
0,
0,
1,
1,
6,
6,
14,
14,
5,
5,
10,
10,
16,
2,
4,
20,
20,
20,
18,
18,
20,
20,
21,
21,
21,
2,
3,
14,
14,
14,
22,
22,
13,
13,
8,
8,
15,
15,
20,
20,
14,
14,
10,
10,
1,
16,
14,
14,
6,
38,
38,
65,
64,
40,
40,
6,
9,
24,
24,
7,
8,
8,
1,
14,
14,
14,
23,
23,
14,
14,
6,
6,
14,
14,
12,
12,
4,
4,
0,
0,
2,
2,
2,
2,
-1,
-1,
5,
5,
9,
9,
15,
15,
14,
14,
9,
9,
4,
4,
1,
1,
7,
7,
10,
10,
5,
5,
3,
3,
4,
4,
8,
8,
12,
12,
8,
37,
37,
50,
42,
20,
20,
20,
11,
11,
2,
13,
13,
13,
16,
16,
25,
25,
29,
17,
17,
17,
10,
10,
17,
17,
15,
3,
8,
8,
5,
22,
21,
32,
30,
16,
17,
1,
2,
2,
9,
23,
23,
8,
8,
8,
9,
9,
12,
12,
16,
29,
28,
28,
26,
5,
8,
28,
28,
28,
33,
33,
23,
4,
4,
17,
16,
16,
24,
24,
17,
3,
9,
9,
14,
14,
4,
4,
5,
5,
6,
6,
4,
4,
2,
19,
19,
19,
26,
26,
19,
19,
10,
10,
1,
14,
13,
25,
24,
24,
21,
10,
11,
11,
4,
4,
7,
7,
5,
5,
9,
9,
1,
1,
5,
17,
17,
17,
21,
21,
12,
12,
5,
5,
10,
38,
37,
37,
33,
33,
29,
11,
11,
11,
17,
5,
6,
6,
9,
9,
7,
19,
18,
18,
19,
19,
10,
10,
10,
10,
10,
10,
6,
6,
1,
14,
13,
13,
9,
9,
6,
6,
2,
2,
7,
7,
6,
26,
26,
26,
33,
6,
8,
38,
38,
38,
33,
6,
11,
23,
21,
6,
7,
7,
7,
7,
13,
13,
17,
0,
1,
1,
6,
6,
2,
2,
1,
1,
4,
4,
12,
12,
18,
18,
25,
25,
23,
23,
13,
1,
1,
1,
0,
0,
1,
12,
12,
12,
14,
14,
5,
5,
12,
31,
31,
31,
22,
7,
8,
8,
1,
1,
1,
1,
9,
9,
2,
2,
9,
9,
9,
9,
9,
9,
0,
0,
4,
19,
18,
33,
31,
5,
6,
27,
26,
26,
23,
9,
10,
10,
8,
8,
9,
9,
1,
1,
4,
4,
8,
8,
3,
3,
-1,
-1,
0,
0,
7,
7,
4,
23,
22,
22,
20,
20,
21,
21,
15,
1,
2,
2,
1,
1,
1,
13,
13,
13,
21,
10,
11,
11,
13,
13,
7,
7,
6,
6,
2,
2,
0,
0,
2,
2,
10,
22,
22,
22,
18,
3,
10,
24,
22,
22,
15,
15,
14,
14,
11,
11,
3,
3,
2,
20,
42,
42,
42,
26,
26,
2,
3,
3,
5,
5,
9,
9,
17,
31,
30,
30,
37,
37,
29,
12,
12,
12,
3,
3,
0,
0,
10,
10,
14,
14,
9,
9,
5,
5,
13,
13,
20,
20,
15,
15,
6,
6,
0,
0,
4,
4,
8,
8,
6,
6,
4,
4,
4,
4,
13,
13,
13,
30,
30,
45,
39,
12,
13,
13,
9,
9,
5,
5,
6,
6,
11,
11,
14,
14,
18,
18,
16,
16,
11,
11,
12,
12,
11,
11,
6,
6,
6,
6,
10,
10,
7,
7,
2,
2,
2,
2,
10,
30,
30,
30,
28,
15,
16,
2,
5,
5,
11,
11,
6,
6,
1,
1,
2,
2,
2,
2,
0,
0,
8,
8,
13,
13,
13,
13,
10,
10,
12,
12,
3,
3,
0,
0,
0,
0,
-1,
-1,
6,
6,
4,
4,
1,
1,
10,
10,
13,
13,
9,
9,
3,
3,
4,
4,
1,
14,
14,
14,
12,
25,
25,
47,
45,
20,
20,
3,
8,
20,
19,
19,
20,
20,
18,
29,
29,
29,
21,
4,
9,
9,
4,
4,
6,
6,
1,
27,
27,
49,
49,
49,
41,
9,
9,
9,
18,
31,
30,
30,
36,
36,
41,
41,
33,
6,
6,
32,
31,
31,
22,
1,
2,
13,
13,
13,
12,
43,
43,
24,
26,
8,
9,
9,
0,
0,
2,
2,
5,
5,
6,
6,
7,
7,
16,
16,
20,
20,
26,
26,
21,
2,
3,
3,
10,
10,
4,
4,
2,
2,
2,
2,
5,
17,
15,
15,
24,
40,
40,
29,
29,
3,
6,
6,
13,
13,
13,
13,
16,
16,
7,
7,
4,
4,
10,
10,
13,
13,
11,
11,
11,
11,
11,
0,
0,
0,
6,
6,
8,
8,
9,
9,
8,
8,
3,
3,
10,
10,
10,
10,
13,
13,
22,
22,
13,
0,
1,
1,
2,
2,
7,
7,
3,
16,
14,
14,
22,
22,
28,
28,
20,
6,
8,
8,
2,
17,
16,
16,
16,
16,
7,
7,
2,
2,
10,
10,
12,
12,
11,
11,
9,
9,
1,
1,
1,
1,
0,
16,
14,
42,
41,
65,
64,
29,
29,
6,
15,
15,
15,
1,
5,
5,
2,
19,
18,
29,
28,
28,
28,
28,
25,
25,
20,
20,
10,
10,
3,
3,
2,
2,
3,
3,
6,
6,
14,
14,
14,
14,
6,
6,
6,
25,
24,
24,
21,
1,
2,
2,
4,
4,
9,
9,
3,
3,
6,
6,
10,
10,
14,
14,
15,
15,
7,
7,
6,
6,
15,
15,
14,
14,
22,
22,
18,
18,
13,
1,
5,
26,
25,
25,
33,
33,
31,
17,
18,
7,
8,
8,
7,
7,
2,
2,
2,
2,
2,
2,
6,
6,
12,
30,
30,
30,
22,
11,
11,
11,
7,
7,
2,
2,
1,
1,
6,
6,
7,
7,
10,
10,
1,
1,
1,
1,
-1,
-1,
4,
4,
4,
21,
21,
5,
5,
34,
33,
33,
29,
3,
4,
17,
17,
17,
14,
14,
8,
8,
2,
13,
12,
12,
6,
6,
5,
5,
8,
8,
8,
8,
2,
2,
10,
10,
18,
18,
15,
4,
4,
4,
6,
6,
2,
2,
1,
1,
6,
6,
0,
0,
5,
5,
13,
1,
5,
5,
14,
14,
5,
5,
0,
0,
1,
1,
2,
2,
5,
5,
1,
1,
5,
5,
5,
5,
8,
25,
24,
10,
10,
10,
6,
6,
13,
13,
5,
5,
1,
1,
-1,
-1,
0,
0,
2,
2,
3,
3,
1,
1,
2,
2,
1,
1,
1,
1,
5,
5,
3,
3,
1,
1,
2,
2,
4,
4,
7,
7,
