EMG_S3/DS0037.CSV

Memory Length,4000,
Trigger Level,-4.80000e+02,
Source,CH1,
Probe,1.0X,
Vertical Units,V,
Vertical Scale,1.00000e+00,
Vertical Position,0.00000e+00,
Horizontal Units,S,
Horizontal Scale,1.00000e-01,
Horizontal Position,0.0000000e+00,
Horizontal Mode,Roll Mode,
Waveform Last Dot Address,4000,
Sampling Period,4.00000e-04,
Firmware,V1.14,
Time, ,
Mode,Fast,
Waveform Data,
0,
0,
6,
6,
13,
13,
12,
1,
2,
2,
2,
2,
9,
9,
11,
11,
2,
18,
17,
17,
10,
10,
1,
1,
1,
1,
2,
2,
3,
3,
5,
5,
13,
13,
6,
6,
4,
4,
10,
10,
15,
15,
17,
17,
10,
10,
6,
6,
15,
15,
6,
6,
5,
5,
10,
10,
10,
10,
12,
12,
11,
11,
5,
20,
19,
38,
38,
38,
37,
14,
14,
1,
4,
4,
12,
12,
6,
6,
0,
0,
0,
0,
6,
6,
6,
6,
6,
6,
12,
12,
14,
14,
6,
6,
1,
1,
0,
0,
1,
1,
5,
5,
1,
1,
0,
0,
6,
26,
26,
12,
13,
-1,
0,
20,
19,
19,
26,
6,
6,
6,
5,
18,
18,
18,
24,
4,
5,
20,
18,
1,
2,
2,
6,
6,
7,
29,
29,
6,
6,
28,
27,
27,
30,
30,
20,
20,
12,
12,
9,
9,
1,
1,
6,
6,
1,
1,
1,
20,
18,
29,
28,
11,
11,
11,
3,
3,
7,
7,
6,
6,
5,
5,
2,
2,
6,
6,
1,
1,
1,
1,
6,
6,
5,
5,
1,
1,
-1,
-1,
0,
0,
0,
0,
2,
2,
8,
8,
1,
1,
8,
8,
1,
1,
5,
5,
3,
3,
9,
9,
7,
7,
0,
0,
5,
5,
6,
6,
2,
2,
2,
2,
1,
1,
1,
1,
2,
2,
0,
0,
2,
2,
3,
3,
4,
4,
2,
2,
4,
4,
1,
1,
0,
0,
1,
1,
8,
8,
14,
14,
4,
17,
17,
17,
14,
14,
17,
5,
5,
18,
18,
18,
22,
4,
11,
22,
15,
4,
18,
18,
18,
18,
8,
8,
16,
31,
30,
14,
14,
2,
3,
3,
9,
9,
17,
17,
8,
8,
2,
2,
2,
2,
1,
1,
0,
0,
2,
2,
0,
0,
-1,
-1,
-1,
-1,
2,
2,
4,
4,
8,
8,
1,
1,
5,
5,
9,
9,
7,
7,
1,
1,
2,
2,
2,
2,
1,
1,
2,
2,
6,
6,
6,
6,
2,
2,
6,
6,
7,
7,
0,
0,
5,
5,
1,
1,
8,
8,
13,
13,
6,
6,
8,
8,
4,
4,
0,
11,
10,
10,
10,
10,
2,
2,
5,
5,
3,
3,
6,
37,
36,
36,
42,
20,
20,
1,
4,
20,
18,
30,
30,
18,
18,
7,
7,
7,
12,
12,
12,
12,
9,
9,
10,
22,
21,
8,
9,
9,
0,
0,
4,
4,
6,
6,
1,
1,
9,
9,
9,
29,
28,
14,
14,
1,
6,
6,
10,
10,
3,
3,
6,
6,
0,
0,
0,
0,
1,
1,
0,
0,
3,
3,
9,
9,
14,
14,
14,
14,
12,
12,
3,
3,
3,
3,
4,
4,
5,
5,
6,
6,
14,
14,
19,
19,
17,
1,
3,
17,
16,
1,
4,
4,
3,
3,
12,
12,
10,
10,
1,
1,
6,
6,
8,
8,
1,
1,
4,
4,
5,
5,
4,
4,
4,
4,
8,
8,
6,
6,
0,
0,
-1,
-1,
4,
4,
2,
2,
2,
2,
10,
10,
13,
1,
2,
15,
14,
14,
16,
16,
9,
9,
0,
16,
16,
34,
34,
34,
26,
5,
8,
32,
31,
31,
28,
28,
22,
22,
17,
5,
5,
5,
6,
17,
16,
16,
22,
22,
21,
21,
18,
18,
12,
1,
2,
2,
10,
10,
0,
0,
2,
2,
4,
4,
1,
1,
7,
7,
8,
20,
18,
35,
35,
18,
18,
2,
4,
4,
2,
2,
6,
6,
2,
2,
0,
0,
4,
4,
3,
19,
18,
18,
9,
9,
2,
2,
6,
6,
9,
9,
12,
12,
17,
17,
14,
2,
12,
42,
41,
7,
7,
30,
30,
30,
20,
5,
4,
36,
36,
52,
50,
50,
42,
9,
9,
9,
3,
3,
6,
6,
15,
34,
33,
33,
32,
32,
33,
33,
26,
2,
4,
4,
5,
5,
10,
10,
3,
25,
25,
25,
31,
31,
22,
9,
10,
10,
1,
12,
12,
12,
12,
12,
6,
6,
1,
1,
1,
1,
4,
4,
6,
6,
6,
6,
9,
9,
6,
19,
17,
2,
5,
5,
3,
21,
20,
20,
21,
4,
10,
35,
34,
34,
26,
10,
10,
10,
1,
1,
2,
2,
3,
3,
5,
5,
0,
0,
2,
21,
20,
33,
31,
31,
40,
40,
45,
7,
7,
25,
24,
24,
30,
30,
29,
18,
18,
18,
20,
20,
22,
22,
22,
22,
18,
4,
10,
23,
22,
22,
19,
19,
13,
13,
18,
18,
18,
18,
10,
10,
2,
2,
0,
0,
9,
9,
13,
13,
14,
38,
38,
14,
14,
1,
4,
4,
10,
10,
10,
10,
13,
13,
15,
15,
11,
11,
9,
9,
6,
6,
5,
5,
1,
1,
0,
0,
0,
0,
5,
5,
10,
10,
10,
10,
10,
10,
5,
5,
-1,
16,
15,
15,
14,
3,
14,
26,
25,
2,
3,
19,
18,
18,
12,
1,
5,
20,
18,
29,
28,
14,
15,
3,
10,
10,
11,
11,
12,
12,
14,
14,
5,
5,
1,
1,
0,
0,
8,
8,
6,
6,
1,
1,
3,
3,
3,
3,
3,
3,
1,
1,
2,
2,
2,
2,
0,
0,
0,
0,
1,
12,
12,
12,
15,
43,
42,
65,
64,
29,
30,
5,
10,
34,
34,
18,
19,
5,
14,
14,
6,
21,
21,
21,
22,
22,
14,
14,
11,
11,
16,
16,
13,
13,
18,
18,
15,
1,
2,
2,
3,
3,
1,
1,
10,
10,
15,
15,
7,
7,
4,
4,
7,
7,
5,
5,
6,
6,
14,
14,
10,
10,
2,
2,
0,
0,
2,
2,
0,
0,
0,
0,
8,
8,
12,
1,
2,
2,
10,
33,
32,
32,
36,
4,
5,
17,
16,
16,
9,
9,
10,
10,
16,
16,
17,
17,
14,
14,
12,
12,
12,
12,
3,
21,
21,
38,
38,
23,
24,
3,
6,
6,
11,
11,
12,
1,
2,
2,
2,
2,
7,
7,
2,
2,
0,
0,
3,
3,
6,
6,
4,
4,
4,
4,
2,
2,
10,
10,
13,
13,
6,
6,
12,
25,
24,
24,
26,
13,
13,
1,
2,
2,
8,
8,
4,
4,
2,
2,
4,
4,
1,
1,
1,
1,
4,
18,
18,
30,
29,
29,
26,
8,
9,
22,
22,
22,
21,
5,
6,
6,
5,
5,
13,
13,
7,
20,
20,
20,
26,
26,
19,
19,
10,
10,
14,
2,
6,
6,
8,
8,
4,
4,
14,
2,
3,
19,
18,
18,
18,
18,
19,
19,
27,
27,
27,
9,
10,
10,
11,
11,
18,
18,
10,
10,
7,
7,
5,
5,
5,
5,
10,
10,
8,
8,
4,
4,
8,
8,
6,
28,
28,
28,
38,
38,
30,
4,
6,
6,
16,
16,
18,
18,
17,
17,
16,
16,
12,
12,
9,
9,
6,
6,
4,
4,
2,
2,
0,
13,
12,
12,
12,
12,
7,
7,
4,
4,
3,
3,
10,
10,
19,
19,
16,
2,
8,
24,
23,
23,
22,
2,
2,
13,
12,
1,
2,
2,
9,
9,
5,
19,
17,
3,
5,
38,
38,
38,
37,
2,
3,
3,
9,
9,
2,
2,
4,
21,
21,
21,
20,
2,
5,
5,
1,
1,
10,
10,
12,
12,
8,
8,
2,
2,
1,
1,
5,
5,
10,
10,
9,
9,
11,
11,
10,
10,
9,
9,
6,
6,
5,
5,
4,
4,
8,
26,
25,
25,
18,
5,
22,
48,
48,
31,
32,
5,
8,
28,
28,
28,
26,
10,
10,
10,
6,
6,
14,
14,
10,
10,
9,
9,
11,
11,
12,
12,
9,
9,
1,
1,
1,
1,
1,
1,
8,
8,
8,
8,
10,
10,
12,
0,
1,
1,
9,
9,
2,
2,
4,
4,
11,
11,
6,
33,
32,
45,
40,
6,
7,
20,
19,
7,
8,
8,
17,
17,
17,
17,
17,
2,
5,
32,
32,
49,
46,
13,
14,
3,
10,
23,
22,
22,
30,
30,
34,
11,
11,
11,
12,
12,
13,
40,
40,
24,
25,
4,
9,
9,
14,
2,
3,
3,
5,
5,
1,
13,
13,
13,
13,
13,
7,
7,
1,
1,
-1,
-1,
4,
4,
6,
6,
7,
7,
7,
7,
12,
12,
18,
18,
17,
5,
5,
5,
0,
0,
4,
4,
6,
6,
8,
8,
9,
9,
10,
10,
9,
9,
9,
9,
11,
11,
5,
5,
0,
0,
2,
13,
13,
13,
21,
6,
6,
6,
7,
7,
6,
6,
5,
5,
9,
9,
6,
19,
18,
1,
2,
15,
15,
15,
22,
22,
21,
1,
1,
1,
2,
2,
5,
5,
8,
8,
3,
3,
13,
26,
25,
25,
25,
25,
17,
17,
8,
8,
5,
5,
8,
8,
5,
5,
2,
2,
11,
11,
13,
13,
18,
30,
29,
18,
18,
4,
12,
23,
23,
23,
16,
2,
6,
23,
22,
22,
27,
27,
29,
29,
19,
19,
13,
13,
12,
12,
8,
31,
30,
30,
31,
1,
2,
26,
26,
40,
38,
15,
16,
1,
2,
2,
-1,
-1,
1,
1,
5,
5,
0,
0,
4,
16,
16,
16,
21,
7,
8,
8,
3,
3,
8,
8,
15,
15,
19,
19,
22,
10,
10,
10,
2,
2,
4,
4,
0,
0,
6,
6,
10,
10,
10,
10,
10,
10,
11,
11,
12,
12,
4,
4,
6,
6,
7,
7,
2,
2,
10,
10,
12,
12,
6,
6,
2,
2,
-1,
-1,
5,
5,
5,
5,
1,
1,
9,
9,
14,
14,
16,
16,
6,
6,
5,
5,
9,
9,
7,
7,
8,
8,
17,
17,
23,
8,
9,
9,
5,
5,
4,
33,
32,
14,
14,
0,
1,
1,
8,
8,
8,
8,
2,
2,
4,
4,
3,
3,
6,
6,
6,
6,
0,
0,
6,
20,
19,
5,
6,
6,
5,
5,
1,
1,
5,
5,
6,
20,
19,
30,
28,
6,
7,
31,
31,
31,
36,
25,
25,
10,
10,
10,
2,
2,
8,
8,
11,
11,
4,
4,
5,
5,
0,
0,
0,
0,
4,
4,
0,
0,
-1,
-1,
4,
4,
4,
4,
5,
5,
1,
1,
5,
5,
10,
10,
14,
14,
13,
2,
13,
42,
42,
15,
15,
15,
10,
10,
3,
3,
3,
3,
12,
12,
12,
12,
9,
9,
8,
8,
2,
2,
2,
2,
1,
1,
3,
3,
9,
9,
1,
1,
2,
18,
17,
39,
38,
10,
11,
11,
7,
7,
1,
1,
1,
1,
9,
9,
6,
24,
23,
23,
20,
4,
12,
29,
28,
28,
18,
4,
11,
11,
3,
14,
14,
14,
19,
19,
14,
14,
17,
17,
20,
4,
10,
45,
44,
24,
25,
4,
5,
5,
5,
5,
1,
1,
1,
1,
8,
36,
35,
35,
33,
14,
14,
1,
3,
24,
23,
36,
34,
34,
27,
15,
16,
16,
9,
9,
5,
5,
6,
6,
4,
4,
3,
3,
5,
5,
5,
5,
3,
3,
4,
4,
4,
4,
6,
6,
8,
8,
7,
7,
12,
12,
12,
12,
10,
10,
5,
5,
2,
2,
7,
7,
9,
9,
12,
12,
12,
12,
2,
2,
6,
6,
5,
5,
2,
2,
0,
0,
-1,
-1,
0,
0,
1,
1,
1,
1,
4,
4,
4,
4,
6,
6,
6,
6,
1,
1,
0,
0,
-1,
-1,
6,
6,
6,
6,
8,
21,
20,
20,
17,
17,
10,
10,
12,
12,
10,
10,
2,
2,
1,
1,
1,
1,
2,
2,
7,
7,
7,
7,
9,
9,
12,
12,
14,
14,
13,
2,
7,
7,
5,
16,
16,
16,
8,
19,
18,
37,
37,
15,
16,
2,
3,
3,
1,
1,
0,
22,
21,
21,
20,
2,
5,
5,
10,
10,
5,
5,
7,
20,
20,
20,
28,
28,
30,
17,
6,
31,
30,
45,
40,
12,
13,
1,
6,
6,
2,
2,
5,
5,
12,
36,
36,
36,
26,
6,
6,
51,
51,
51,
44,
21,
21,
21,
17,
17,
24,
24,
14,
3,
13,
34,
34,
34,
38,
38,
32,
19,
20,
20,
10,
10,
4,
17,
16,
16,
26,
26,
19,
19,
11,
0,
1,
1,
7,
7,
10,
10,
8,
8,
6,
6,
6,
6,
4,
4,
0,
0,
0,
0,
0,
14,
13,
37,
36,
36,
30,
5,
5,
5,
12,
23,
22,
22,
18,
1,
2,
2,
10,
10,
6,
6,
2,
2,
1,
1,
5,
5,
13,
13,
6,
6,
1,
1,
5,
5,
1,
1,
8,
8,
5,
5,
15,
15,
12,
0,
2,
2,
8,
8,
14,
14,
16,
2,
8,
21,
21,
21,
15,
15,
7,
7,
-1,
-1,
2,
2,
2,
2,
4,
4,
8,
8,
7,
7,
5,
5,
2,
2,
8,
8,
6,
6,
2,
2,
2,
2,
11,
11,
17,
5,
6,
6,
5,
5,
11,
11,
18,
18,
21,
4,
4,
4,
12,
36,
36,
36,
38,
5,
5,
5,
5,
23,
23,
7,
8,
8,
4,
4,
12,
32,
31,
31,
35,
24,
24,
3,
3,
3,
11,
11,
10,
10,
20,
34,
33,
33,
33,
12,
12,
12,
12,
12,
6,
6,
2,
26,
26,
38,
38,
38,
30,
19,
19,
4,
4,
33,
32,
32,
28,
7,
8,
8,
0,
0,
6,
6,
4,
4,
8,
29,
29,
18,
19,
1,
2,
18,
18,
18,
10,
10,
12,
12,
3,
3,
8,
20,
19,
19,
14,
14,
11,
11,
5,
5,
10,
10,
10,
10,
18,
18,
14,
14,
14,
14,
9,
9,
5,
5,
0,
0,
1,
1,
6,
6,
12,
12,
5,
21,
21,
21,
12,
46,
45,
56,
37,
5,
5,
19,
18,
5,
6,
6,
5,
5,
2,
26,
25,
46,
44,
44,
37,
7,
15,
29,
28,
28,
19,
19,
14,
35,
33,
7,
7,
7,
12,
12,
18,
18,
22,
22,
17,
17,
15,
15,
10,
10,
3,
3,
1,
1,
2,
2,
4,
4,
5,
18,
17,
17,
15,
2,
4,
4,
2,
2,
10,
10,
7,
7,
12,
12,
15,
2,
5,
20,
20,
5,
6,
34,
33,
8,
8,
24,
24,
12,
13,
49,
48,
64,
64,
22,
10,
38,
38,
38,
36,
36,
27,
16,
17,
17,
12,
12,
20,
20,
19,
19,
14,
14,
10,
10,
2,
2,
9,
9,
14,
14,
12,
12,
8,
8,
1,
1,
0,
0,
6,
6,
6,
6,
8,
30,
30,
30,
25,
2,
4,
22,
21,
21,
25,
25,
20,
5,
14,
35,
34,
34,
34,
34,
29,
9,
10,
10,
5,
22,
21,
36,
35,
35,
30,
5,
6,
6,
3,
3,
6,
23,
22,
22,
26,
14,
15,
15,
6,
6,
0,
0,
5,
5,
11,
11,
17,
17,
22,
22,
20,
20,
14,
14,
8,
8,
5,
5,
0,
0,
2,
15,
14,
14,
13,
1,
2,
2,
6,
6,
6,
6,
6,
6,
4,
4,
4,
4,
2,
2,
1,
1,
6,
6,
12,
1,
1,
1,
6,
6,
0,
0,
0,
0,
4,
4,
5,
5,
12,
12,
21,
10,
10,
26,
26,
52,
51,
51,
42,
8,
9,
9,
17,
17,
20,
1,
2,
2,
0,
12,
11,
11,
18,
18,
15,
15,
6,
6,
3,
3,
6,
6,
5,
5,
4,
4,
8,
8,
1,
1,
7,
7,
2,
15,
15,
15,
14,
14,
14,
14,
23,
23,
26,
14,
15,
1,
1,
1,
2,
2,
8,
21,
20,
20,
29,
29,
28,
28,
22,
22,
24,
24,
18,
2,
10,
38,
38,
38,
47,
47,
38,
14,
14,
3,
11,
11,
20,
5,
5,
5,
2,
17,
17,
17,
18,
18,
10,
10,
4,
4,
10,
10,
7,
7,
2,
2,
0,
0,
6,
6,
2,
2,
10,
10,
1,
1,
5,
5,
7,
18,
17,
38,
37,
25,
26,
10,
10,
10,
8,
8,
16,
16,
17,
17,
16,
16,
14,
14,
18,
18,
21,
2,
4,
20,
20,
34,
33,
33,
26,
3,
4,
4,
-1,
-1,
0,
0,
8,
8,
6,
6,
13,
13,
5,
25,
23,
6,
6,
6,
14,
14,
23,
23,
18,
18,
14,
2,
5,
5,
9,
9,
4,
4,
4,
4,
2,
2,
1,
1,
4,
4,
11,
11,
13,
13,
10,
10,
5,
5,
0,
0,
2,
2,
-1,
-1,
1,
1,
1,
1,
9,
9,
16,
16,
13,
13,
6,
26,
25,
45,
40,
12,
12,
12,
17,
17,
23,
23,
20,
2,
6,
24,
23,
38,
37,
37,
36,
36,
30,
30,
25,
13,
14,
0,
1,
1,
2,
2,
9,
9,
16,
28,
26,
26,
18,
1,
1,
1,
3,
3,
2,
2,
2,
27,
27,
27,
31,
10,
10,
10,
8,
8,
8,
8,
10,
10,
17,
17,
12,
12,
14,
14,
9,
9,
3,
14,
14,
14,
10,
-1,
1,
1,
2,
2,
9,
9,
1,
1,
5,
5,
6,
6,
3,
3,
2,
2,
1,
28,
27,
27,
21,
1,
1,
1,
4,
4,
5,
5,
8,
8,
18,
31,
31,
4,
5,
5,
12,
12,
10,
10,
2,
2,
0,
0,
1,
1,
2,
2,
2,
2,
0,
0,
3,
3,
8,
8,
7,
7,
2,
2,
2,
2,
0,
0,
5,
5,
11,
11,
10,
10,
2,
2,
1,
1,
0,
0,
8,
8,
18,
2,
3,
17,
16,
16,
20,
3,
11,
24,
22,
2,
3,
3,
12,
1,
7,
27,
27,
27,
22,
2,
3,
19,
18,
18,
21,
21,
19,
4,
4,
4,
2,
15,
15,
15,
9,
9,
8,
8,
2,
26,
26,
38,
34,
13,
14,
2,
4,
4,
6,
18,
17,
3,
6,
6,
8,
8,
1,
1,
1,
1,
0,
0,
8,
8,
10,
10,
3,
3,
3,
3,
3,
3,
12,
12,
12,
12,
13,
13,
5,
5,
7,
7,
6,
6,
2,
2,
4,
4,
1,
1,
4,
4,
6,
6,
9,
9,
10,
10,
9,
9,
5,
5,
6,
29,
28,
44,
41,
9,
9,
9,
6,
6,
1,
1,
6,
6,
2,
2,
5,
5,
6,
6,
11,
26,
25,
3,
4,
18,
17,
17,
24,
24,
23,
23,
18,
18,
18,
18,
11,
11,
3,
3,
3,
3,
5,
5,
6,
25,
25,
25,
17,
2,
4,
15,
14,
14,
6,
6,
6,
6,
2,
2,
6,
6,
2,
2,
2,
14,
14,
14,
7,
7,
2,
2,
2,
2,
2,
2,
1,
1,
9,
9,
16,
16,
14,
1,
2,
2,
6,
6,
8,
8,
14,
14,
4,
4,
1,
1,
1,
1,
2,
2,
1,
1,
6,
6,
14,
14,
23,
23,
20,
7,
8,
8,
2,
2,
10,
10,
14,
14,
12,
12,
16,
2,
5,
29,
28,
28,
22,
1,
2,
2,
3,
3,
5,
5,
4,
16,
15,
15,
11,
0,
4,
4,
7,
7,
2,
2,
7,
7,
8,
8,
2,
2,
0,
0,
2,
2,
0,
0,
0,
0,
0,
0,
2,
14,
13,
13,
14,
3,
4,
4,
0,
0,
4,
4,
5,
5,
7,
7,
8,
8,
2,
17,
16,
16,
13,
13,
5,
5,
6,
6,
0,
0,
8,
8,
5,
5,
2,
2,
4,
4,
11,
25,
23,
5,
13,
36,
35,
21,
21,
0,
2,
2,
2,
2,
1,
1,
6,
6,
14,
14,
11,
11,
11,
11,
9,
9,
3,
3,
3,
3,
0,
0,
-1,
-1,
1,
1,
4,
4,
12,
12,
14,
14,
5,
5,
5,
5,
7,
7,
12,
30,
30,
30,
32,
5,
9,
27,
27,
27,
30,
30,
25,
14,
14,
14,
7,
7,
6,
6,
10,
10,
12,
12,
5,
16,
15,
26,
26,
26,
24,
24,
19,
4,
5,
5,
3,
3,
0,
0,
0,
0,
5,
5,
2,
2,
1,
1,
1,
1,
3,
3,
8,
8,
14,
14,
17,
2,
2,
19,
17,
34,
33,
21,
21,
4,
5,
5,
3,
3,
9,
9,
15,
15,
9,
9,
8,
8,
10,
10,
7,
7,
3,
3,
1,
1,
0,
0,
0,
0,
5,
5,
2,
2,
9,
28,
27,
27,
23,
4,
4,
4,
1,
1,
9,
9,
13,
1,
2,
13,
12,
12,
8,
8,
1,
1,
2,
2,
4,
4,
6,
6,
10,
10,
16,
16,
12,
12,
6,
6,
2,
2,
3,
3,
8,
8,
9,
31,
30,
30,
32,
13,
13,
1,
5,
5,
8,
8,
3,
3,
10,
10,
6,
6,
1,
1,
3,
3,
10,
10,
9,
9,
9,
9,
12,
12,
6,
6,
-1,
-1,
4,
4,
7,
7,
5,
5,
8,
8,
14,
14,
8,
8,
4,
4,
10,
10,
2,
2,
1,
1,
2,
2,
5,
5,
5,
5,
2,
2,
0,
0,
3,
3,
2,
2,
4,
16,
15,
15,
16,
4,
21,
62,
62,
43,
44,
4,
4,
18,
16,
16,
22,
22,
21,
21,
14,
1,
5,
5,
6,
6,
10,
10,
10,
10,
1,
1,
3,
3,
6,
6,
6,
6,
0,
0,
4,
4,
7,
7,
6,
6,
-1,
-1,
-1,
-1,
2,
2,
1,
13,
13,
13,
9,
9,
10,
10,
6,
29,
28,
9,
9,
9,
5,
5,
6,
6,
10,
10,
8,
8,
5,
5,
10,
22,
22,
22,
18,
2,
2,
17,
16,
16,
24,
11,
12,
1,
2,
2,
0,
0,
7,
18,
17,
17,
19,
7,
8,
8,
6,
6,
12,
12,
17,
17,
20,
20,
21,
4,
5,
39,
38,
38,
32,
9,
10,
10,
2,
2,
8,
8,
13,
13,
17,
17,
16,
16,
11,
11,
6,
6,
6,
6,
4,
21,
20,
20,
17,
17,
9,
9,
3,
3,
1,
1,
2,
2,
2,
2,
8,
8,
6,
6,
1,
1,
3,
3,
12,
12,
12,
12,
22,
22,
14,
0,
1,
1,
4,
4,
14,
30,
30,
30,
26,
5,
12,
36,
35,
23,
23,
9,
9,
9,
4,
4,
3,
3,
10,
10,
10,
10,
6,
6,
5,
5,
6,
6,
2,
2,
6,
6,
13,
2,
9,
37,
37,
37,
29,
3,
5,
19,
18,
5,
6,
6,
3,
3,
0,
0,
1,
1,
9,
9,
14,
1,
2,
2,
10,
10,
12,
0,
1,
1,
4,
4,
0,
0,
2,
2,
1,
1,
9,
9,
6,
6,
0,
0,
6,
6,
1,
1,
1,
18,
17,
17,
10,
10,
4,
4,
2,
2,
1,
1,
10,
10,
6,
17,
15,
1,
2,
2,
8,
8,
4,
4,
6,
6,
12,
12,
4,
4,
6,
6,
8,
8,
0,
0,
0,
0,
4,
4,
0,
0,
3,
3,
2,
2,
1,
1,
8,
8,
1,
1,
3,
3,
12,
12,
17,
62,
62,
41,
42,
6,
7,
7,
7,
7,
13,
13,
20,
20,
30,
30,
28,
28,
18,
18,
16,
16,
10,
10,
6,
6,
12,
24,
24,
24,
6,
37,
36,
64,
63,
48,
49,
25,
25,
7,
8,
8,
15,
15,
7,
7,
5,
21,
21,
21,
20,
20,
12,
12,
17,
17,
18,
18,
18,
18,
8,
8,
2,
2,
5,
5,
8,
8,
8,
8,
9,
9,
15,
15,
16,
5,
6,
6,
4,
4,
1,
1,
9,
9,
9,
9,
0,
0,
1,
1,
4,
4,
10,
10,
13,
13,
13,
1,
3,
14,
13,
13,
13,
13,
10,
10,
7,
7,
0,
0,
7,
7,
8,
8,
2,
2,
4,
17,
17,
30,
29,
15,
15,
1,
4,
4,
14,
14,
18,
7,
8,
8,
0,
0,
6,
6,
12,
12,
10,
36,
36,
36,
39,
7,
7,
7,
14,
14,
14,
3,
13,
13,
9,
9,
15,
27,
26,
26,
20,
20,
14,
14,
18,
5,
5,
5,
13,
13,
14,
14,
11,
11,
12,
12,
16,
16,
13,
13,
5,
5,
0,
0,
7,
7,
9,
9,
6,
18,
18,
29,
28,
13,
14,
2,
7,
7,
15,
15,
14,
14,
10,
10,
4,
4,
2,
2,
11,
11,
18,
18,
21,
10,
10,
10,
6,
6,
9,
9,
8,
8,
7,
7,
8,
20,
20,
20,
24,
12,
13,
13,
6,
6,
8,
8,
5,
5,
1,
1,
9,
9,
15,
15,
19,
19,
16,
1,
3,
3,
9,
9,
8,
8,
5,
5,
8,
8,
6,
6,
6,
6,
1,
1,
7,
7,
5,
5,
3,
3,
1,
1,
9,
9,
5,
5,
1,
1,
4,
4,
4,
4,
0,
0,
3,
3,
12,
12,
18,
18,
12,
12,
6,
6,
3,
3,
7,
21,
21,
21,
14,
14,
16,
16,
21,
21,
12,
31,
30,
64,
63,
34,
35,
3,
4,
4,
12,
12,
21,
21,
30,
30,
21,
7,
8,
8,
5,
5,
2,
2,
1,
1,
4,
4,
4,
4,
1,
1,
6,
6,
4,
4,
2,
2,
1,
1,
1,
1,
0,
0,
