EMG_S3/DS0036.CSV

Memory Length,4000,
Trigger Level,-4.80000e+02,
Source,CH1,
Probe,1.0X,
Vertical Units,V,
Vertical Scale,1.00000e+00,
Vertical Position,0.00000e+00,
Horizontal Units,S,
Horizontal Scale,1.00000e-01,
Horizontal Position,0.0000000e+00,
Horizontal Mode,Roll Mode,
Waveform Last Dot Address,4000,
Sampling Period,4.00000e-04,
Firmware,V1.14,
Time, ,
Mode,Fast,
Waveform Data,
3,
3,
2,
2,
7,
19,
18,
18,
9,
9,
8,
8,
16,
16,
17,
17,
16,
16,
18,
18,
18,
18,
11,
11,
4,
4,
6,
6,
0,
0,
6,
6,
14,
14,
20,
20,
23,
10,
11,
0,
1,
1,
1,
1,
1,
1,
3,
3,
1,
1,
4,
4,
12,
12,
4,
4,
2,
2,
0,
0,
1,
1,
4,
4,
6,
6,
4,
4,
1,
1,
0,
0,
2,
2,
6,
6,
9,
9,
7,
7,
4,
4,
1,
1,
4,
4,
10,
10,
6,
6,
2,
2,
1,
1,
3,
14,
14,
36,
34,
34,
25,
25,
16,
1,
2,
2,
10,
10,
16,
16,
16,
16,
14,
14,
16,
16,
15,
15,
10,
10,
10,
10,
12,
12,
5,
23,
22,
34,
33,
33,
32,
32,
28,
12,
13,
1,
5,
5,
10,
10,
15,
15,
20,
20,
16,
16,
11,
11,
12,
12,
6,
6,
5,
19,
19,
19,
17,
17,
10,
10,
4,
4,
2,
2,
10,
10,
5,
5,
9,
9,
17,
30,
30,
30,
25,
4,
4,
4,
10,
10,
16,
16,
6,
6,
9,
20,
19,
19,
21,
21,
18,
7,
7,
7,
2,
2,
7,
7,
5,
5,
12,
26,
25,
13,
14,
0,
0,
0,
1,
1,
0,
0,
6,
6,
5,
5,
13,
32,
32,
32,
33,
13,
14,
2,
10,
10,
14,
2,
5,
5,
4,
20,
19,
19,
22,
22,
13,
13,
5,
5,
1,
1,
5,
5,
5,
5,
5,
5,
3,
3,
0,
0,
2,
2,
9,
9,
12,
12,
9,
9,
5,
5,
7,
7,
13,
13,
19,
19,
12,
12,
6,
6,
2,
2,
2,
2,
2,
2,
10,
10,
10,
10,
6,
6,
11,
11,
8,
8,
2,
2,
3,
3,
5,
5,
8,
8,
7,
7,
7,
7,
2,
2,
4,
4,
1,
1,
8,
8,
5,
5,
3,
3,
0,
0,
0,
0,
1,
1,
6,
6,
9,
9,
12,
12,
14,
14,
10,
10,
2,
2,
8,
8,
10,
10,
5,
5,
6,
6,
14,
14,
12,
12,
5,
5,
4,
4,
4,
4,
4,
4,
8,
25,
25,
25,
20,
1,
3,
20,
20,
20,
26,
26,
32,
32,
32,
32,
22,
2,
2,
2,
9,
9,
6,
6,
15,
15,
20,
9,
9,
9,
5,
5,
2,
2,
2,
2,
4,
4,
2,
2,
0,
0,
4,
4,
14,
14,
11,
11,
14,
14,
18,
1,
2,
2,
5,
5,
5,
5,
9,
9,
11,
11,
13,
13,
20,
20,
13,
1,
8,
8,
14,
14,
14,
14,
6,
6,
6,
6,
2,
2,
9,
9,
12,
12,
7,
7,
2,
2,
8,
8,
2,
2,
1,
1,
0,
0,
4,
4,
2,
2,
3,
3,
6,
6,
9,
9,
5,
5,
2,
2,
2,
2,
1,
1,
0,
0,
1,
1,
-1,
-1,
1,
1,
-1,
-1,
1,
1,
0,
0,
2,
2,
2,
2,
6,
6,
4,
4,
0,
0,
1,
1,
2,
2,
3,
3,
2,
2,
7,
7,
15,
15,
14,
14,
5,
5,
0,
0,
0,
0,
1,
1,
3,
3,
4,
4,
4,
4,
6,
6,
11,
11,
11,
11,
6,
6,
4,
4,
1,
1,
8,
8,
10,
10,
14,
14,
8,
8,
5,
5,
5,
5,
2,
2,
1,
1,
5,
5,
0,
0,
6,
6,
3,
3,
1,
1,
3,
3,
2,
2,
8,
8,
2,
2,
2,
2,
6,
6,
2,
2,
8,
8,
7,
7,
2,
2,
1,
1,
0,
0,
3,
3,
4,
4,
8,
8,
16,
1,
1,
1,
7,
7,
2,
2,
5,
5,
5,
5,
13,
2,
2,
2,
11,
11,
10,
10,
4,
4,
0,
0,
2,
2,
0,
0,
6,
6,
5,
5,
2,
2,
0,
0,
0,
0,
2,
2,
7,
7,
2,
16,
16,
16,
14,
2,
3,
3,
8,
8,
10,
10,
1,
1,
0,
0,
2,
2,
6,
6,
1,
1,
8,
8,
15,
15,
16,
16,
9,
9,
2,
2,
6,
6,
14,
14,
17,
17,
23,
23,
22,
8,
8,
8,
2,
2,
7,
7,
10,
10,
9,
20,
19,
19,
18,
18,
14,
14,
6,
6,
12,
12,
9,
9,
10,
10,
19,
19,
13,
2,
4,
4,
6,
6,
3,
14,
13,
13,
17,
17,
12,
1,
4,
4,
8,
8,
0,
0,
1,
1,
2,
2,
3,
23,
23,
42,
41,
22,
23,
7,
8,
8,
1,
1,
9,
20,
20,
20,
21,
21,
12,
0,
1,
1,
2,
2,
1,
13,
13,
13,
17,
5,
5,
5,
4,
4,
8,
8,
10,
10,
5,
5,
6,
6,
3,
3,
2,
2,
0,
0,
6,
6,
12,
12,
15,
15,
14,
14,
7,
7,
1,
15,
15,
15,
21,
21,
20,
20,
14,
2,
2,
2,
2,
2,
5,
5,
5,
5,
3,
3,
0,
0,
9,
9,
17,
17,
11,
0,
2,
2,
8,
8,
6,
20,
18,
18,
18,
5,
5,
5,
0,
0,
0,
0,
9,
9,
12,
0,
1,
1,
4,
4,
9,
9,
14,
14,
12,
12,
10,
10,
14,
14,
18,
18,
15,
15,
10,
10,
4,
4,
9,
9,
17,
17,
18,
18,
14,
37,
37,
50,
46,
7,
8,
8,
13,
13,
12,
12,
9,
9,
6,
6,
5,
5,
13,
13,
21,
2,
3,
3,
3,
3,
2,
2,
4,
4,
7,
7,
10,
10,
4,
4,
4,
4,
5,
5,
6,
6,
14,
14,
16,
16,
16,
16,
11,
11,
2,
2,
7,
7,
5,
5,
1,
1,
0,
0,
0,
0,
4,
4,
8,
8,
15,
2,
3,
3,
10,
10,
7,
7,
3,
3,
10,
10,
14,
14,
10,
10,
3,
3,
4,
4,
9,
9,
8,
8,
14,
14,
12,
1,
7,
7,
16,
16,
12,
0,
0,
0,
2,
2,
10,
10,
9,
9,
4,
15,
14,
31,
30,
30,
36,
5,
6,
25,
25,
25,
25,
25,
25,
38,
38,
24,
24,
1,
2,
2,
5,
5,
7,
7,
3,
3,
0,
0,
6,
6,
10,
10,
8,
8,
6,
6,
5,
5,
6,
6,
2,
2,
0,
0,
2,
2,
8,
8,
2,
2,
8,
8,
7,
18,
18,
6,
6,
6,
6,
6,
12,
12,
4,
4,
14,
14,
12,
1,
5,
5,
14,
14,
18,
18,
20,
20,
14,
14,
11,
11,
17,
17,
22,
5,
6,
53,
53,
53,
45,
15,
15,
15,
8,
8,
16,
16,
9,
9,
8,
8,
6,
6,
2,
2,
5,
5,
11,
11,
18,
18,
22,
22,
15,
15,
6,
6,
7,
7,
9,
9,
2,
2,
6,
6,
14,
14,
5,
5,
1,
1,
2,
2,
4,
4,
6,
20,
19,
19,
18,
18,
25,
9,
9,
9,
6,
6,
10,
10,
6,
6,
0,
0,
2,
2,
6,
6,
4,
4,
9,
9,
7,
7,
2,
2,
10,
10,
13,
0,
2,
13,
13,
13,
14,
14,
10,
10,
6,
6,
2,
2,
11,
11,
17,
17,
15,
15,
18,
18,
12,
1,
4,
4,
7,
7,
0,
0,
8,
8,
10,
10,
3,
3,
1,
1,
3,
3,
3,
3,
4,
4,
7,
7,
1,
1,
4,
4,
3,
3,
6,
6,
3,
3,
0,
0,
8,
8,
14,
2,
4,
4,
7,
7,
9,
9,
8,
8,
3,
3,
2,
2,
7,
25,
24,
24,
17,
17,
9,
9,
5,
17,
16,
16,
13,
13,
14,
14,
16,
16,
9,
9,
9,
9,
11,
0,
1,
1,
5,
5,
9,
9,
10,
10,
11,
11,
3,
23,
22,
22,
28,
14,
15,
15,
10,
10,
6,
36,
36,
36,
34,
4,
5,
25,
25,
25,
35,
35,
38,
27,
28,
28,
22,
2,
3,
22,
22,
22,
26,
7,
8,
8,
2,
2,
2,
2,
10,
10,
12,
12,
5,
5,
4,
4,
4,
4,
5,
5,
12,
12,
18,
18,
17,
1,
2,
2,
8,
8,
3,
3,
2,
2,
8,
8,
10,
10,
2,
18,
17,
17,
12,
1,
2,
2,
1,
1,
2,
2,
9,
9,
9,
9,
3,
3,
2,
2,
0,
0,
0,
0,
2,
2,
1,
1,
0,
0,
0,
0,
-1,
-1,
3,
3,
10,
10,
17,
17,
11,
11,
3,
16,
14,
14,
12,
1,
2,
2,
11,
11,
12,
12,
6,
6,
6,
6,
15,
15,
18,
2,
2,
2,
8,
8,
11,
11,
18,
1,
2,
2,
1,
1,
2,
2,
6,
6,
5,
5,
8,
8,
9,
9,
6,
6,
6,
6,
2,
2,
7,
7,
2,
2,
0,
0,
1,
1,
0,
0,
4,
4,
14,
14,
22,
22,
15,
15,
8,
8,
2,
2,
0,
0,
4,
4,
2,
2,
1,
13,
13,
13,
8,
8,
7,
7,
6,
6,
5,
5,
8,
8,
2,
2,
0,
0,
6,
6,
7,
7,
5,
5,
3,
3,
2,
2,
4,
4,
-1,
-1,
2,
2,
1,
1,
0,
0,
7,
7,
14,
14,
5,
5,
6,
6,
5,
5,
14,
14,
13,
13,
8,
8,
0,
0,
2,
2,
6,
6,
15,
15,
15,
15,
15,
1,
2,
18,
17,
17,
21,
10,
10,
10,
5,
5,
6,
6,
7,
18,
16,
16,
14,
1,
2,
2,
1,
1,
4,
4,
4,
4,
1,
1,
2,
2,
6,
6,
4,
4,
1,
1,
3,
3,
3,
3,
-1,
-1,
2,
2,
6,
6,
12,
12,
16,
16,
9,
9,
9,
36,
34,
34,
34,
4,
5,
5,
13,
2,
4,
25,
25,
25,
22,
2,
2,
16,
15,
15,
22,
22,
20,
20,
14,
1,
2,
20,
20,
20,
12,
1,
6,
6,
12,
12,
9,
9,
6,
6,
6,
6,
-1,
-1,
3,
3,
6,
6,
13,
13,
8,
8,
2,
13,
12,
12,
13,
33,
33,
33,
39,
12,
12,
12,
10,
22,
22,
22,
28,
28,
29,
7,
8,
8,
6,
6,
1,
13,
12,
12,
6,
6,
3,
3,
10,
10,
12,
12,
8,
8,
7,
19,
18,
18,
17,
17,
14,
14,
8,
8,
2,
2,
10,
10,
14,
14,
9,
9,
2,
2,
6,
6,
2,
2,
0,
0,
4,
4,
4,
4,
5,
19,
19,
31,
30,
9,
10,
10,
4,
4,
6,
6,
3,
3,
1,
1,
4,
4,
8,
8,
7,
7,
6,
6,
5,
5,
5,
5,
9,
9,
8,
8,
5,
16,
15,
15,
16,
5,
6,
6,
5,
5,
13,
1,
2,
2,
7,
7,
13,
13,
5,
5,
3,
3,
3,
3,
2,
2,
7,
7,
3,
3,
12,
12,
11,
11,
10,
38,
38,
17,
17,
2,
6,
6,
11,
11,
12,
12,
7,
7,
1,
1,
8,
8,
3,
3,
2,
2,
1,
1,
2,
2,
0,
0,
3,
3,
6,
6,
6,
6,
4,
4,
2,
2,
5,
5,
8,
8,
10,
27,
25,
8,
8,
8,
2,
2,
1,
1,
6,
6,
1,
1,
2,
2,
3,
3,
3,
3,
8,
8,
10,
10,
2,
2,
8,
8,
10,
10,
8,
8,
5,
5,
3,
3,
12,
12,
6,
6,
2,
2,
8,
8,
13,
13,
8,
24,
24,
24,
33,
33,
35,
12,
13,
13,
22,
33,
31,
6,
6,
32,
31,
13,
13,
2,
6,
21,
20,
32,
28,
6,
12,
38,
37,
17,
17,
1,
5,
5,
7,
7,
9,
9,
16,
16,
17,
17,
16,
16,
7,
7,
12,
12,
12,
12,
4,
16,
16,
16,
14,
14,
10,
10,
2,
14,
13,
13,
14,
14,
6,
6,
6,
6,
4,
4,
0,
0,
3,
3,
8,
8,
5,
5,
13,
29,
28,
28,
37,
17,
18,
3,
10,
26,
25,
25,
22,
2,
3,
3,
10,
10,
13,
13,
14,
14,
6,
6,
4,
4,
9,
9,
12,
12,
13,
13,
4,
4,
5,
5,
2,
2,
8,
8,
6,
6,
13,
13,
20,
6,
6,
6,
2,
13,
12,
12,
14,
14,
11,
11,
14,
2,
2,
26,
26,
26,
29,
12,
12,
12,
5,
5,
1,
1,
1,
1,
4,
4,
0,
0,
7,
18,
17,
17,
15,
1,
2,
22,
22,
22,
22,
6,
6,
6,
1,
1,
-1,
-1,
2,
2,
2,
2,
2,
2,
5,
5,
13,
13,
10,
10,
6,
6,
7,
7,
5,
5,
1,
1,
8,
8,
6,
6,
4,
4,
2,
29,
28,
41,
38,
12,
12,
0,
2,
2,
-1,
-1,
5,
5,
8,
8,
1,
1,
5,
5,
11,
11,
17,
17,
15,
15,
6,
6,
8,
8,
3,
3,
10,
28,
28,
28,
30,
4,
5,
5,
11,
11,
12,
12,
11,
11,
11,
11,
5,
5,
2,
2,
2,
2,
5,
5,
10,
10,
8,
54,
54,
54,
47,
18,
19,
1,
1,
14,
13,
25,
24,
24,
28,
28,
22,
4,
5,
5,
4,
4,
4,
4,
10,
21,
20,
20,
15,
2,
3,
3,
2,
2,
11,
35,
35,
49,
48,
35,
36,
14,
14,
14,
8,
8,
7,
7,
2,
13,
13,
13,
23,
23,
24,
24,
22,
22,
22,
9,
10,
10,
3,
3,
0,
0,
2,
2,
2,
2,
0,
0,
2,
2,
4,
26,
25,
25,
21,
10,
10,
10,
10,
10,
9,
9,
1,
1,
5,
5,
13,
13,
13,
13,
8,
8,
8,
8,
10,
10,
3,
20,
20,
20,
18,
18,
8,
8,
1,
1,
-1,
-1,
2,
13,
13,
24,
22,
2,
3,
3,
5,
5,
9,
9,
6,
6,
2,
2,
2,
2,
10,
10,
15,
15,
15,
2,
5,
27,
27,
27,
33,
20,
20,
2,
6,
6,
6,
6,
-1,
-1,
0,
0,
1,
13,
12,
23,
23,
23,
23,
12,
12,
12,
7,
7,
2,
16,
15,
15,
18,
18,
11,
11,
18,
18,
25,
25,
19,
19,
19,
6,
6,
6,
8,
21,
21,
21,
26,
26,
22,
11,
11,
11,
4,
4,
2,
2,
0,
0,
1,
1,
6,
6,
1,
1,
10,
10,
9,
9,
14,
14,
10,
10,
2,
2,
4,
4,
6,
6,
5,
5,
-1,
-1,
1,
1,
1,
1,
9,
24,
22,
6,
6,
6,
2,
2,
3,
3,
2,
2,
0,
0,
1,
23,
23,
49,
48,
28,
28,
5,
11,
24,
23,
23,
17,
17,
15,
15,
11,
11,
8,
8,
13,
13,
13,
13,
8,
8,
2,
16,
15,
15,
24,
24,
15,
15,
7,
7,
6,
6,
8,
8,
7,
18,
18,
4,
5,
18,
17,
17,
20,
5,
18,
32,
29,
7,
7,
7,
2,
2,
2,
2,
10,
10,
14,
2,
3,
3,
3,
3,
8,
8,
9,
9,
6,
6,
1,
1,
0,
0,
6,
6,
12,
12,
12,
12,
12,
12,
18,
18,
10,
10,
6,
6,
13,
13,
6,
6,
9,
20,
20,
2,
3,
17,
17,
17,
18,
18,
13,
13,
18,
2,
4,
4,
1,
1,
6,
6,
10,
10,
11,
11,
10,
30,
29,
46,
45,
17,
18,
4,
12,
12,
18,
18,
18,
18,
25,
11,
12,
0,
1,
1,
-1,
-1,
3,
3,
1,
1,
5,
5,
8,
8,
6,
6,
5,
5,
5,
16,
15,
26,
25,
25,
24,
24,
24,
12,
13,
0,
1,
1,
9,
21,
20,
20,
23,
50,
60,
32,
32,
12,
30,
30,
30,
30,
31,
31,
33,
13,
13,
1,
4,
4,
13,
13,
16,
16,
13,
13,
9,
9,
6,
6,
4,
4,
-1,
-1,
0,
0,
-1,
-1,
1,
1,
2,
2,
2,
2,
6,
6,
6,
6,
3,
3,
1,
1,
8,
8,
13,
26,
25,
52,
51,
51,
41,
4,
5,
18,
18,
30,
30,
30,
36,
36,
36,
36,
31,
18,
19,
2,
3,
14,
14,
30,
30,
30,
29,
12,
13,
0,
0,
0,
2,
2,
3,
3,
10,
10,
14,
1,
1,
1,
10,
10,
5,
5,
2,
2,
1,
1,
1,
1,
0,
0,
5,
18,
18,
18,
20,
2,
5,
5,
10,
10,
13,
13,
13,
1,
5,
19,
18,
18,
24,
24,
15,
15,
7,
7,
1,
1,
4,
4,
6,
6,
8,
45,
45,
45,
40,
5,
5,
18,
18,
18,
22,
22,
19,
19,
21,
21,
13,
0,
2,
17,
17,
17,
26,
26,
22,
7,
8,
8,
2,
2,
0,
0,
2,
2,
5,
5,
10,
10,
14,
14,
9,
9,
9,
9,
4,
4,
3,
3,
7,
32,
32,
19,
20,
1,
3,
3,
7,
7,
8,
8,
14,
14,
4,
4,
2,
2,
1,
1,
9,
9,
9,
9,
4,
4,
6,
6,
7,
27,
26,
26,
26,
14,
14,
2,
3,
3,
10,
10,
14,
14,
5,
5,
2,
2,
2,
2,
3,
3,
2,
2,
2,
2,
7,
7,
14,
14,
22,
22,
20,
7,
8,
8,
7,
7,
8,
8,
6,
6,
5,
25,
25,
43,
42,
30,
30,
9,
10,
10,
4,
4,
9,
9,
14,
14,
22,
22,
23,
23,
13,
2,
10,
22,
22,
22,
12,
1,
2,
2,
3,
3,
2,
2,
8,
8,
14,
1,
2,
2,
10,
10,
9,
9,
2,
2,
8,
8,
5,
5,
0,
0,
2,
2,
4,
4,
2,
2,
1,
1,
0,
0,
5,
5,
9,
9,
6,
6,
6,
6,
2,
2,
-1,
-1,
6,
6,
11,
11,
5,
5,
3,
3,
12,
1,
2,
2,
0,
0,
9,
9,
12,
12,
9,
9,
1,
1,
10,
10,
8,
8,
3,
3,
0,
0,
3,
3,
6,
6,
2,
2,
10,
10,
4,
4,
10,
10,
14,
14,
15,
15,
5,
5,
9,
9,
11,
11,
16,
16,
22,
22,
28,
11,
11,
11,
12,
26,
25,
25,
17,
17,
11,
11,
2,
2,
3,
3,
2,
2,
0,
0,
5,
5,
6,
6,
1,
1,
6,
6,
1,
14,
13,
2,
3,
22,
22,
22,
25,
6,
16,
32,
28,
10,
11,
11,
15,
15,
8,
8,
2,
26,
26,
8,
9,
9,
10,
10,
16,
16,
25,
25,
28,
28,
26,
26,
21,
21,
17,
2,
5,
25,
24,
24,
27,
11,
11,
11,
7,
29,
28,
28,
21,
1,
3,
3,
2,
17,
16,
29,
29,
16,
16,
1,
2,
2,
2,
2,
5,
17,
17,
36,
35,
13,
13,
1,
2,
2,
0,
0,
3,
3,
7,
7,
10,
10,
3,
3,
3,
3,
6,
6,
0,
0,
10,
10,
10,
10,
4,
4,
10,
10,
8,
8,
5,
5,
-1,
-1,
0,
0,
1,
1,
2,
2,
6,
6,
5,
5,
2,
2,
1,
1,
7,
7,
1,
1,
1,
1,
2,
2,
3,
3,
0,
0,
3,
3,
2,
2,
1,
1,
-2,
-2,
2,
2,
6,
20,
19,
8,
24,
24,
19,
8,
9,
9,
1,
1,
10,
10,
8,
8,
5,
22,
34,
6,
6,
6,
3,
3,
9,
21,
21,
21,
17,
1,
1,
1,
9,
9,
13,
1,
1,
1,
8,
8,
8,
8,
8,
8,
12,
12,
14,
1,
2,
2,
8,
19,
18,
18,
26,
26,
18,
1,
2,
2,
11,
11,
6,
6,
0,
0,
4,
4,
1,
1,
3,
3,
2,
2,
1,
21,
20,
5,
6,
30,
30,
30,
28,
15,
16,
0,
1,
1,
3,
3,
1,
1,
7,
7,
1,
1,
9,
9,
10,
10,
6,
6,
3,
22,
22,
35,
33,
21,
22,
5,
18,
42,
41,
41,
38,
6,
6,
26,
26,
26,
20,
2,
3,
3,
4,
4,
5,
5,
8,
8,
3,
3,
4,
4,
0,
0,
5,
5,
4,
4,
1,
1,
4,
4,
7,
7,
8,
8,
8,
8,
9,
9,
8,
8,
2,
2,
4,
4,
10,
10,
5,
5,
7,
7,
2,
2,
10,
10,
2,
2,
3,
3,
1,
1,
8,
8,
3,
3,
13,
13,
17,
1,
3,
3,
8,
8,
16,
16,
13,
13,
8,
8,
2,
2,
0,
0,
3,
3,
2,
2,
4,
4,
12,
12,
13,
13,
4,
4,
2,
2,
2,
2,
1,
1,
0,
0,
1,
1,
6,
6,
6,
6,
1,
1,
9,
9,
6,
6,
5,
17,
17,
17,
7,
7,
8,
8,
5,
5,
7,
7,
2,
2,
1,
1,
6,
19,
19,
19,
27,
13,
13,
13,
6,
6,
5,
24,
24,
24,
20,
2,
5,
5,
2,
2,
6,
21,
20,
20,
17,
17,
10,
10,
3,
3,
2,
2,
7,
7,
13,
13,
16,
16,
20,
20,
28,
6,
6,
6,
4,
16,
15,
15,
19,
7,
8,
8,
4,
4,
4,
4,
1,
1,
7,
7,
2,
2,
-1,
-1,
2,
2,
2,
2,
2,
2,
0,
0,
-1,
-1,
3,
3,
2,
2,
10,
10,
9,
9,
14,
36,
34,
12,
12,
1,
6,
6,
9,
9,
4,
4,
3,
3,
3,
3,
3,
3,
4,
4,
2,
2,
1,
1,
8,
23,
23,
23,
26,
15,
16,
5,
5,
5,
6,
6,
10,
10,
4,
4,
6,
6,
5,
5,
1,
1,
2,
2,
2,
2,
1,
18,
18,
18,
20,
2,
2,
2,
2,
2,
4,
4,
2,
2,
8,
8,
1,
1,
6,
6,
11,
11,
9,
9,
2,
2,
1,
1,
5,
5,
6,
6,
5,
5,
5,
5,
2,
2,
2,
2,
4,
4,
0,
0,
1,
1,
3,
3,
3,
3,
6,
6,
1,
20,
19,
19,
28,
9,
10,
10,
10,
10,
17,
4,
12,
28,
25,
4,
7,
26,
26,
14,
14,
0,
1,
1,
8,
8,
9,
9,
10,
30,
30,
7,
7,
28,
27,
27,
25,
5,
6,
6,
2,
2,
1,
1,
2,
2,
9,
9,
2,
2,
11,
11,
17,
17,
20,
9,
9,
9,
6,
6,
8,
8,
6,
6,
16,
16,
22,
22,
15,
0,
1,
1,
8,
8,
8,
8,
4,
4,
2,
15,
15,
39,
39,
39,
36,
6,
6,
21,
20,
20,
29,
29,
23,
23,
22,
22,
18,
3,
3,
3,
4,
4,
9,
9,
13,
13,
11,
11,
6,
6,
1,
1,
0,
0,
1,
1,
2,
2,
1,
1,
1,
1,
3,
3,
4,
4,
2,
2,
5,
5,
1,
1,
4,
15,
14,
14,
20,
4,
5,
5,
0,
0,
0,
0,
1,
1,
6,
6,
10,
10,
12,
12,
22,
22,
29,
7,
7,
21,
20,
38,
37,
21,
21,
4,
5,
5,
3,
3,
6,
6,
8,
8,
8,
8,
4,
4,
2,
2,
2,
2,
5,
5,
6,
6,
2,
2,
6,
6,
7,
7,
2,
2,
2,
2,
1,
1,
11,
11,
10,
10,
6,
6,
2,
2,
1,
1,
2,
2,
12,
26,
24,
11,
12,
29,
28,
49,
48,
13,
14,
1,
2,
2,
4,
4,
9,
9,
6,
6,
6,
6,
-1,
-1,
8,
8,
14,
14,
19,
19,
26,
26,
22,
3,
7,
30,
30,
30,
31,
31,
26,
26,
23,
7,
8,
8,
16,
16,
19,
3,
4,
4,
7,
7,
1,
1,
3,
3,
6,
6,
1,
1,
-1,
-1,
0,
0,
1,
1,
1,
1,
1,
1,
2,
2,
7,
7,
10,
10,
10,
10,
6,
6,
2,
2,
8,
8,
11,
11,
3,
18,
17,
17,
8,
8,
7,
7,
13,
13,
5,
5,
-1,
-1,
6,
6,
4,
4,
0,
0,
0,
0,
2,
2,
0,
0,
0,
0,
-1,
-1,
6,
6,
8,
8,
8,
8,
7,
7,
6,
6,
5,
5,
0,
0,
0,
0,
4,
4,
7,
7,
1,
1,
0,
0,
2,
2,
1,
1,
0,
0,
-1,
-1,
1,
1,
0,
0,
4,
4,
8,
8,
3,
3,
4,
4,
8,
8,
4,
4,
3,
3,
8,
8,
3,
3,
1,
1,
1,
16,
16,
16,
16,
16,
9,
9,
3,
3,
0,
0,
3,
3,
3,
3,
5,
5,
5,
5,
4,
4,
3,
3,
0,
0,
1,
1,
0,
0,
-1,
-1,
1,
1,
5,
5,
1,
1,
2,
2,
2,
2,
3,
3,
4,
4,
2,
2,
1,
1,
4,
4,
3,
3,
3,
3,
6,
6,
4,
4,
4,
4,
1,
1,
1,
1,
4,
4,
7,
7,
7,
7,
6,
6,
2,
2,
0,
0,
2,
2,
9,
9,
10,
10,
5,
20,
19,
19,
16,
1,
2,
2,
-1,
-1,
6,
6,
13,
13,
14,
1,
5,
29,
28,
28,
29,
16,
16,
2,
2,
2,
10,
10,
7,
7,
2,
2,
6,
6,
14,
14,
17,
2,
8,
8,
6,
6,
11,
26,
25,
25,
20,
20,
17,
17,
9,
9,
6,
6,
16,
16,
16,
16,
22,
22,
22,
6,
6,
6,
