EMG_S3/DS0052.CSV

Memory Length,4000,
Trigger Level,-4.80000e+02,
Source,CH1,
Probe,1.0X,
Vertical Units,V,
Vertical Scale,1.00000e+00,
Vertical Position,0.00000e+00,
Horizontal Units,S,
Horizontal Scale,1.00000e-01,
Horizontal Position,0.0000000e+00,
Horizontal Mode,Roll Mode,
Waveform Last Dot Address,4000,
Sampling Period,4.00000e-04,
Firmware,V1.14,
Time, ,
Mode,Fast,
Waveform Data,
3,
3,
5,
5,
11,
11,
8,
8,
2,
2,
5,
5,
12,
1,
3,
41,
41,
41,
44,
22,
22,
10,
12,
0,
1,
13,
12,
12,
16,
16,
16,
16,
10,
10,
14,
31,
30,
12,
12,
28,
28,
28,
32,
9,
9,
9,
19,
19,
13,
38,
38,
49,
44,
16,
17,
3,
9,
9,
14,
14,
20,
20,
25,
36,
35,
14,
15,
15,
17,
17,
26,
10,
11,
11,
5,
5,
1,
1,
9,
9,
2,
2,
12,
12,
12,
1,
4,
19,
18,
18,
10,
-1,
0,
0,
2,
2,
8,
8,
6,
6,
1,
1,
5,
5,
5,
5,
3,
21,
20,
20,
12,
12,
10,
10,
8,
8,
13,
26,
25,
13,
13,
1,
3,
16,
16,
16,
6,
6,
5,
5,
4,
4,
8,
8,
8,
8,
6,
6,
1,
1,
2,
2,
5,
5,
4,
4,
2,
2,
0,
0,
6,
6,
7,
7,
7,
7,
9,
9,
1,
14,
14,
14,
13,
2,
13,
44,
43,
25,
25,
5,
5,
5,
0,
11,
10,
10,
18,
18,
15,
15,
18,
18,
20,
20,
14,
14,
10,
10,
2,
13,
13,
40,
39,
39,
31,
8,
8,
8,
5,
5,
9,
9,
5,
5,
3,
3,
0,
0,
1,
1,
7,
7,
6,
6,
7,
7,
6,
6,
3,
3,
7,
7,
1,
1,
7,
7,
12,
12,
5,
5,
1,
1,
1,
1,
0,
0,
0,
23,
22,
38,
34,
8,
9,
9,
2,
2,
9,
9,
14,
14,
9,
9,
1,
1,
5,
5,
7,
20,
18,
18,
15,
15,
14,
14,
5,
5,
14,
32,
31,
31,
33,
33,
32,
9,
10,
10,
6,
20,
20,
20,
26,
26,
26,
26,
17,
3,
3,
17,
17,
17,
19,
19,
20,
5,
5,
5,
7,
7,
1,
1,
4,
4,
4,
4,
5,
5,
2,
2,
5,
5,
2,
2,
4,
4,
5,
5,
6,
17,
16,
5,
5,
36,
36,
19,
20,
1,
1,
1,
5,
5,
5,
5,
5,
5,
4,
4,
2,
2,
4,
4,
5,
5,
2,
2,
4,
4,
3,
3,
4,
4,
7,
7,
9,
9,
5,
5,
2,
2,
4,
4,
0,
0,
1,
13,
12,
12,
21,
5,
8,
36,
34,
12,
12,
-1,
1,
13,
13,
2,
4,
4,
9,
9,
18,
18,
26,
5,
5,
5,
2,
2,
5,
20,
20,
20,
24,
24,
18,
5,
5,
5,
3,
14,
14,
14,
18,
18,
11,
11,
11,
11,
10,
10,
4,
4,
9,
9,
14,
14,
11,
11,
5,
5,
0,
0,
-1,
-1,
2,
2,
3,
3,
6,
6,
6,
19,
18,
18,
20,
2,
2,
2,
5,
5,
13,
13,
20,
20,
22,
4,
4,
4,
8,
8,
6,
6,
2,
2,
5,
5,
5,
5,
12,
12,
5,
5,
0,
0,
0,
0,
8,
8,
13,
1,
5,
5,
6,
6,
9,
9,
4,
4,
3,
3,
5,
5,
11,
0,
1,
1,
2,
2,
4,
4,
5,
5,
7,
7,
9,
9,
6,
6,
7,
7,
6,
6,
8,
8,
2,
2,
8,
38,
38,
57,
56,
24,
24,
5,
13,
13,
21,
21,
19,
19,
20,
20,
17,
17,
12,
12,
7,
7,
1,
1,
2,
2,
1,
1,
-1,
-1,
-1,
-1,
-1,
10,
9,
9,
18,
18,
13,
1,
3,
3,
2,
2,
10,
29,
29,
11,
12,
12,
10,
10,
16,
16,
21,
21,
18,
7,
8,
8,
2,
2,
0,
0,
0,
0,
6,
6,
1,
1,
6,
6,
1,
1,
3,
3,
1,
1,
4,
4,
1,
1,
6,
6,
12,
12,
18,
18,
18,
18,
9,
9,
8,
19,
18,
18,
16,
16,
9,
9,
10,
10,
6,
6,
2,
2,
3,
3,
4,
4,
3,
3,
1,
1,
2,
2,
0,
0,
0,
0,
0,
0,
-1,
-1,
0,
0,
5,
5,
0,
0,
1,
1,
3,
23,
22,
22,
14,
1,
6,
6,
5,
5,
3,
3,
6,
6,
9,
9,
13,
13,
14,
14,
4,
4,
2,
2,
2,
2,
3,
3,
10,
10,
16,
16,
6,
25,
25,
42,
41,
11,
18,
62,
62,
50,
51,
5,
5,
5,
8,
8,
14,
14,
19,
19,
18,
18,
18,
18,
17,
17,
18,
18,
14,
14,
6,
6,
2,
2,
3,
3,
1,
13,
12,
12,
17,
17,
14,
14,
13,
13,
6,
6,
2,
2,
3,
3,
2,
2,
7,
7,
5,
5,
0,
0,
2,
2,
4,
4,
1,
1,
3,
3,
4,
4,
6,
19,
18,
4,
5,
24,
23,
2,
3,
3,
10,
10,
13,
13,
10,
10,
6,
6,
5,
5,
2,
2,
2,
2,
2,
2,
6,
6,
14,
14,
14,
14,
14,
1,
2,
2,
5,
5,
7,
7,
4,
17,
16,
16,
14,
2,
10,
10,
14,
0,
2,
2,
1,
1,
5,
5,
4,
4,
1,
1,
6,
6,
0,
0,
1,
1,
3,
3,
-1,
-1,
-1,
-1,
3,
3,
3,
3,
1,
1,
2,
2,
1,
1,
1,
1,
2,
2,
3,
3,
1,
1,
2,
2,
6,
6,
12,
12,
6,
6,
4,
4,
8,
8,
2,
13,
13,
1,
3,
3,
9,
9,
12,
12,
6,
6,
6,
6,
6,
6,
2,
2,
4,
16,
15,
15,
18,
5,
5,
5,
4,
4,
9,
9,
11,
11,
11,
11,
15,
2,
2,
2,
9,
9,
6,
6,
10,
10,
3,
3,
13,
13,
14,
2,
5,
25,
24,
2,
2,
2,
4,
4,
6,
6,
7,
7,
4,
4,
2,
2,
0,
0,
2,
2,
10,
10,
2,
19,
18,
18,
21,
8,
9,
9,
0,
0,
5,
5,
1,
1,
0,
0,
0,
0,
0,
0,
2,
2,
6,
6,
4,
4,
2,
2,
0,
0,
1,
1,
4,
4,
0,
0,
6,
6,
5,
5,
3,
3,
0,
0,
1,
1,
2,
2,
2,
27,
26,
41,
38,
5,
6,
6,
6,
6,
1,
1,
5,
5,
5,
26,
26,
39,
38,
38,
32,
5,
8,
22,
21,
21,
21,
21,
21,
9,
10,
10,
10,
10,
17,
17,
8,
8,
4,
4,
0,
0,
2,
2,
2,
2,
2,
2,
0,
0,
1,
15,
14,
14,
21,
2,
5,
20,
20,
9,
10,
10,
7,
7,
10,
10,
7,
7,
7,
7,
13,
13,
6,
6,
4,
4,
11,
11,
17,
17,
18,
18,
15,
15,
6,
6,
5,
5,
12,
12,
12,
12,
8,
8,
12,
12,
20,
20,
12,
0,
2,
2,
9,
9,
13,
13,
16,
2,
2,
2,
7,
7,
6,
6,
1,
1,
6,
6,
5,
5,
1,
1,
0,
0,
2,
2,
-1,
-1,
0,
0,
1,
1,
3,
3,
2,
2,
7,
7,
10,
10,
12,
44,
42,
42,
47,
12,
12,
12,
13,
13,
22,
22,
22,
22,
20,
20,
21,
21,
15,
15,
11,
11,
6,
6,
1,
1,
2,
2,
9,
9,
10,
10,
10,
10,
14,
14,
5,
5,
4,
4,
2,
25,
24,
24,
24,
5,
5,
5,
8,
8,
9,
9,
9,
9,
7,
7,
5,
5,
5,
5,
3,
3,
4,
4,
2,
2,
3,
3,
-1,
-1,
0,
0,
2,
2,
0,
11,
10,
21,
20,
7,
8,
8,
6,
6,
11,
11,
3,
20,
20,
20,
20,
5,
6,
6,
4,
4,
12,
12,
12,
12,
6,
6,
6,
6,
1,
1,
3,
3,
8,
8,
7,
7,
2,
2,
0,
0,
6,
6,
10,
10,
18,
18,
17,
2,
5,
5,
14,
3,
3,
20,
19,
5,
5,
5,
5,
5,
0,
0,
7,
7,
6,
6,
7,
7,
6,
6,
4,
4,
1,
1,
1,
1,
0,
0,
0,
0,
2,
2,
3,
3,
1,
1,
1,
1,
4,
4,
3,
3,
2,
2,
0,
0,
7,
7,
11,
11,
10,
10,
10,
10,
15,
4,
7,
46,
45,
56,
51,
18,
19,
1,
2,
2,
2,
17,
17,
17,
16,
16,
12,
12,
9,
9,
3,
3,
5,
5,
6,
6,
3,
3,
2,
2,
8,
8,
15,
3,
4,
27,
27,
27,
21,
1,
2,
2,
1,
1,
9,
20,
19,
19,
15,
0,
2,
2,
12,
12,
8,
8,
3,
3,
4,
4,
6,
6,
0,
19,
19,
19,
18,
5,
6,
6,
3,
3,
12,
12,
22,
22,
21,
10,
10,
10,
3,
3,
3,
3,
2,
2,
1,
1,
10,
10,
9,
9,
4,
4,
2,
2,
3,
3,
4,
4,
6,
6,
13,
13,
14,
14,
6,
6,
13,
13,
18,
4,
12,
29,
27,
3,
4,
4,
8,
8,
5,
5,
6,
6,
9,
9,
10,
10,
8,
8,
9,
9,
5,
5,
13,
13,
10,
10,
2,
2,
0,
14,
14,
14,
20,
20,
17,
2,
4,
22,
22,
22,
17,
4,
14,
14,
19,
8,
8,
8,
6,
6,
13,
13,
12,
1,
2,
2,
8,
8,
2,
2,
8,
8,
5,
5,
14,
14,
10,
10,
5,
5,
5,
5,
9,
9,
2,
2,
2,
2,
2,
2,
2,
2,
4,
4,
8,
8,
17,
17,
9,
9,
2,
2,
5,
5,
10,
10,
4,
4,
5,
5,
3,
3,
3,
3,
2,
2,
4,
4,
2,
2,
1,
1,
5,
5,
4,
4,
2,
2,
2,
2,
2,
2,
10,
10,
13,
2,
12,
32,
31,
31,
22,
22,
16,
2,
3,
3,
8,
8,
4,
4,
0,
0,
-1,
-1,
-1,
-1,
0,
0,
9,
9,
14,
14,
10,
10,
7,
7,
7,
7,
9,
9,
9,
9,
2,
13,
12,
12,
14,
14,
21,
21,
29,
15,
17,
2,
4,
4,
3,
3,
2,
2,
6,
6,
2,
2,
6,
6,
12,
12,
11,
11,
10,
10,
1,
1,
-1,
-1,
6,
6,
6,
19,
17,
17,
8,
8,
1,
1,
5,
5,
1,
1,
2,
2,
3,
3,
3,
3,
2,
2,
9,
9,
12,
12,
6,
6,
5,
5,
4,
4,
0,
0,
7,
20,
19,
19,
15,
15,
6,
6,
0,
0,
-1,
-1,
0,
0,
8,
8,
10,
10,
15,
15,
15,
1,
1,
1,
10,
10,
8,
8,
2,
2,
-1,
-1,
2,
2,
6,
6,
4,
4,
0,
0,
4,
4,
2,
2,
2,
2,
1,
1,
1,
1,
1,
1,
2,
15,
14,
14,
5,
5,
9,
9,
14,
14,
12,
12,
4,
4,
0,
0,
3,
3,
2,
2,
0,
0,
2,
2,
1,
1,
7,
7,
9,
9,
5,
5,
-1,
-1,
2,
2,
5,
5,
1,
1,
6,
6,
7,
7,
2,
2,
5,
29,
29,
29,
19,
6,
7,
7,
0,
0,
0,
0,
1,
1,
1,
1,
1,
1,
2,
2,
6,
6,
10,
10,
13,
13,
10,
10,
6,
6,
3,
3,
7,
7,
1,
18,
16,
16,
9,
9,
3,
3,
4,
4,
4,
4,
2,
2,
2,
2,
2,
2,
2,
17,
16,
16,
19,
19,
16,
16,
8,
8,
7,
7,
13,
13,
14,
14,
11,
11,
4,
4,
1,
1,
1,
1,
0,
0,
-1,
-1,
0,
0,
1,
1,
11,
11,
17,
17,
16,
1,
2,
20,
18,
18,
20,
3,
4,
4,
5,
5,
1,
1,
3,
3,
4,
22,
21,
6,
6,
6,
6,
6,
6,
6,
1,
1,
3,
3,
12,
1,
2,
16,
16,
16,
19,
19,
13,
13,
9,
9,
1,
1,
6,
6,
2,
2,
6,
6,
9,
9,
12,
25,
22,
5,
5,
5,
4,
4,
11,
11,
12,
12,
10,
10,
3,
3,
3,
3,
2,
2,
0,
0,
3,
3,
4,
4,
8,
8,
13,
13,
17,
17,
13,
13,
11,
11,
4,
4,
10,
10,
19,
19,
11,
0,
2,
2,
4,
4,
9,
9,
13,
13,
9,
9,
2,
14,
13,
13,
4,
4,
10,
22,
22,
9,
9,
9,
4,
4,
11,
11,
9,
9,
3,
3,
0,
0,
1,
1,
10,
10,
10,
10,
8,
8,
6,
6,
1,
1,
2,
2,
1,
1,
8,
8,
13,
13,
14,
14,
7,
7,
0,
0,
1,
1,
1,
1,
5,
5,
1,
1,
2,
2,
-1,
-1,
1,
1,
4,
4,
2,
2,
4,
4,
5,
5,
1,
18,
18,
18,
13,
1,
5,
5,
13,
13,
14,
14,
11,
11,
8,
19,
17,
17,
8,
8,
4,
4,
2,
2,
1,
1,
2,
2,
2,
2,
4,
4,
6,
6,
6,
6,
9,
9,
3,
3,
2,
2,
6,
6,
12,
12,
10,
10,
1,
1,
6,
6,
10,
10,
5,
33,
32,
32,
24,
3,
4,
4,
4,
4,
10,
10,
10,
10,
10,
10,
6,
6,
6,
6,
2,
2,
-1,
-1,
0,
0,
4,
4,
11,
11,
6,
6,
1,
1,
8,
8,
9,
9,
2,
2,
1,
1,
6,
6,
8,
27,
26,
26,
25,
2,
3,
3,
6,
6,
1,
1,
6,
6,
8,
8,
7,
7,
1,
1,
0,
0,
6,
6,
7,
7,
11,
11,
12,
1,
2,
14,
14,
14,
15,
15,
6,
6,
2,
2,
1,
1,
2,
2,
11,
25,
25,
25,
24,
9,
9,
9,
13,
13,
18,
18,
9,
9,
9,
9,
10,
10,
14,
14,
22,
22,
18,
4,
13,
38,
38,
22,
22,
11,
12,
12,
3,
3,
6,
6,
8,
8,
8,
19,
18,
18,
16,
1,
3,
3,
11,
11,
17,
17,
12,
12,
6,
6,
2,
2,
3,
3,
4,
4,
2,
2,
0,
0,
0,
0,
1,
1,
2,
2,
0,
0,
6,
6,
2,
2,
5,
5,
6,
6,
2,
2,
1,
1,
2,
2,
2,
2,
-1,
10,
9,
9,
14,
14,
10,
10,
7,
18,
17,
17,
16,
16,
10,
10,
5,
5,
2,
2,
6,
6,
7,
7,
10,
10,
11,
11,
7,
7,
2,
2,
3,
3,
1,
1,
3,
3,
7,
7,
10,
10,
9,
9,
4,
4,
2,
2,
-1,
-1,
8,
8,
14,
1,
1,
1,
8,
8,
2,
2,
8,
8,
1,
15,
14,
14,
21,
6,
7,
7,
2,
2,
4,
4,
1,
12,
12,
12,
7,
7,
5,
5,
8,
8,
4,
4,
5,
5,
9,
26,
26,
26,
24,
24,
17,
1,
3,
18,
17,
17,
26,
26,
23,
2,
5,
5,
3,
3,
2,
2,
4,
4,
10,
10,
14,
2,
3,
3,
12,
12,
12,
12,
8,
8,
5,
5,
9,
9,
3,
3,
6,
6,
12,
12,
13,
13,
5,
5,
5,
5,
11,
11,
17,
17,
19,
19,
21,
2,
2,
2,
10,
21,
21,
21,
18,
18,
16,
2,
2,
2,
8,
8,
11,
11,
6,
6,
5,
5,
0,
0,
3,
3,
6,
6,
2,
2,
2,
2,
4,
4,
-1,
-1,
-1,
-1,
-1,
-1,
-1,
-1,
0,
0,
2,
2,
1,
1,
1,
1,
5,
5,
6,
20,
18,
2,
2,
2,
2,
2,
1,
1,
0,
0,
-1,
-1,
1,
1,
1,
1,
2,
2,
1,
1,
6,
6,
9,
9,
9,
9,
4,
4,
3,
19,
17,
17,
11,
11,
4,
4,
4,
4,
5,
5,
0,
0,
-1,
-1,
0,
0,
7,
7,
14,
14,
11,
11,
3,
3,
2,
2,
4,
4,
-1,
-1,
4,
16,
16,
16,
18,
18,
9,
9,
0,
0,
5,
5,
4,
4,
5,
5,
4,
4,
1,
1,
0,
0,
4,
4,
5,
20,
19,
19,
21,
9,
10,
10,
9,
9,
8,
8,
6,
6,
12,
12,
12,
12,
5,
5,
1,
1,
3,
3,
7,
7,
6,
6,
1,
1,
1,
1,
0,
0,
4,
4,
5,
5,
4,
4,
0,
0,
2,
13,
13,
30,
29,
13,
14,
0,
1,
1,
6,
6,
9,
9,
7,
7,
3,
3,
0,
0,
1,
1,
2,
2,
5,
5,
4,
4,
6,
6,
0,
0,
1,
1,
6,
6,
14,
14,
16,
16,
9,
9,
0,
0,
5,
5,
6,
6,
6,
6,
6,
6,
7,
7,
8,
8,
4,
4,
1,
1,
6,
6,
2,
2,
1,
1,
1,
1,
7,
7,
5,
5,
2,
2,
0,
0,
3,
15,
15,
15,
20,
3,
4,
4,
9,
9,
10,
10,
8,
8,
9,
9,
6,
6,
2,
2,
2,
2,
7,
7,
10,
10,
5,
5,
8,
8,
14,
14,
10,
10,
2,
2,
4,
16,
15,
15,
17,
17,
18,
18,
14,
2,
6,
6,
13,
13,
17,
17,
14,
14,
10,
10,
12,
12,
13,
13,
4,
4,
0,
0,
2,
2,
0,
0,
9,
9,
15,
15,
14,
14,
8,
8,
1,
1,
-1,
-1,
4,
4,
10,
10,
6,
6,
-1,
-1,
4,
4,
11,
11,
10,
10,
8,
8,
6,
6,
0,
0,
5,
5,
8,
8,
9,
9,
5,
5,
1,
1,
2,
2,
4,
4,
5,
5,
1,
1,
1,
1,
8,
8,
8,
8,
8,
8,
0,
13,
13,
13,
13,
13,
9,
9,
8,
8,
6,
6,
3,
3,
1,
1,
7,
7,
6,
6,
4,
4,
12,
12,
18,
18,
8,
8,
1,
1,
1,
1,
6,
6,
6,
6,
8,
8,
13,
1,
3,
3,
12,
12,
5,
5,
0,
0,
5,
5,
1,
1,
3,
3,
4,
4,
4,
4,
6,
6,
9,
9,
0,
0,
4,
4,
1,
1,
1,
1,
1,
1,
5,
5,
12,
12,
6,
6,
1,
1,
7,
7,
1,
1,
2,
2,
2,
2,
9,
9,
9,
9,
1,
1,
9,
9,
5,
5,
2,
2,
3,
3,
5,
5,
3,
3,
5,
5,
0,
0,
2,
2,
7,
7,
16,
16,
8,
8,
2,
2,
8,
8,
10,
10,
7,
7,
11,
11,
5,
5,
5,
5,
8,
8,
3,
14,
14,
25,
22,
3,
3,
3,
2,
2,
8,
8,
13,
13,
8,
8,
7,
7,
7,
7,
10,
10,
4,
21,
21,
21,
16,
5,
5,
5,
6,
6,
5,
5,
3,
3,
9,
9,
18,
18,
25,
5,
9,
24,
24,
9,
10,
10,
9,
9,
8,
8,
2,
2,
4,
4,
1,
1,
2,
2,
7,
7,
2,
2,
1,
1,
6,
6,
9,
9,
7,
7,
10,
26,
26,
26,
20,
20,
11,
11,
2,
2,
9,
20,
20,
20,
23,
23,
23,
23,
21,
5,
13,
44,
43,
20,
21,
1,
2,
2,
6,
6,
3,
3,
0,
0,
7,
7,
8,
8,
6,
6,
6,
6,
3,
3,
9,
9,
10,
10,
1,
1,
7,
7,
10,
10,
14,
14,
15,
15,
9,
9,
4,
4,
0,
0,
5,
5,
8,
8,
11,
11,
10,
10,
4,
4,
0,
0,
4,
4,
6,
6,
7,
7,
5,
5,
3,
3,
3,
3,
5,
5,
2,
2,
0,
0,
3,
3,
2,
2,
11,
11,
12,
12,
6,
6,
6,
6,
4,
4,
-1,
-1,
0,
0,
3,
3,
2,
2,
5,
5,
13,
2,
2,
2,
10,
29,
28,
5,
6,
6,
10,
10,
10,
10,
3,
3,
6,
6,
0,
0,
-1,
-1,
3,
3,
0,
13,
12,
12,
18,
2,
2,
15,
14,
14,
13,
2,
2,
2,
5,
23,
22,
36,
34,
10,
10,
55,
54,
54,
45,
8,
8,
8,
7,
20,
19,
19,
21,
10,
11,
11,
4,
4,
3,
3,
4,
4,
2,
2,
1,
1,
0,
0,
3,
3,
1,
1,
0,
0,
1,
1,
-1,
-1,
-1,
-1,
6,
6,
2,
2,
11,
11,
8,
8,
10,
10,
7,
7,
0,
0,
4,
4,
6,
6,
5,
5,
2,
2,
1,
1,
6,
6,
1,
15,
14,
14,
17,
17,
8,
8,
1,
1,
7,
7,
9,
9,
6,
6,
6,
6,
6,
6,
0,
0,
6,
6,
1,
1,
2,
2,
0,
0,
-1,
-1,
5,
5,
7,
7,
2,
2,
1,
14,
13,
13,
8,
8,
8,
8,
12,
12,
8,
8,
3,
3,
2,
2,
5,
5,
6,
6,
1,
1,
6,
6,
4,
4,
5,
5,
4,
4,
2,
16,
15,
2,
4,
20,
19,
19,
14,
14,
18,
18,
14,
1,
4,
4,
6,
6,
4,
4,
6,
6,
11,
11,
6,
6,
1,
1,
7,
7,
3,
3,
2,
2,
6,
6,
12,
12,
8,
8,
0,
0,
7,
7,
11,
11,
3,
3,
8,
19,
18,
18,
21,
4,
5,
5,
11,
11,
15,
15,
14,
14,
15,
15,
15,
15,
8,
8,
3,
3,
10,
10,
12,
12,
7,
7,
4,
4,
7,
7,
8,
8,
5,
5,
1,
12,
12,
12,
5,
18,
18,
36,
33,
7,
8,
8,
12,
12,
14,
14,
10,
10,
8,
8,
9,
9,
10,
10,
1,
1,
-1,
-1,
0,
0,
4,
4,
0,
0,
5,
5,
11,
11,
17,
2,
4,
4,
1,
1,
5,
5,
5,
5,
1,
1,
4,
4,
2,
2,
2,
2,
-1,
-1,
9,
9,
18,
18,
13,
13,
20,
20,
20,
1,
2,
2,
5,
5,
4,
4,
13,
13,
12,
0,
1,
1,
0,
0,
5,
5,
12,
12,
9,
9,
6,
6,
7,
7,
6,
6,
2,
2,
8,
8,
8,
8,
2,
2,
9,
24,
23,
23,
18,
1,
1,
1,
7,
7,
7,
7,
8,
8,
6,
6,
2,
2,
6,
6,
13,
13,
19,
4,
11,
41,
41,
41,
38,
12,
13,
1,
2,
2,
10,
10,
18,
18,
16,
1,
2,
2,
4,
4,
0,
0,
2,
2,
9,
9,
6,
6,
2,
2,
7,
7,
4,
4,
2,
2,
1,
1,
1,
1,
0,
0,
2,
2,
7,
7,
3,
3,
9,
20,
20,
9,
10,
10,
2,
2,
3,
3,
1,
1,
1,
1,
0,
0,
2,
2,
5,
5,
1,
12,
12,
12,
7,
7,
4,
4,
6,
6,
2,
2,
0,
0,
1,
1,
6,
6,
12,
12,
9,
9,
9,
9,
14,
14,
6,
6,
0,
0,
0,
0,
-1,
-1,
2,
2,
2,
2,
4,
4,
1,
1,
4,
4,
0,
0,
3,
3,
6,
6,
3,
3,
1,
1,
7,
7,
3,
22,
22,
22,
26,
10,
10,
10,
1,
1,
6,
6,
6,
6,
6,
6,
2,
2,
4,
4,
8,
8,
4,
4,
8,
8,
16,
16,
22,
22,
17,
2,
5,
22,
22,
22,
15,
1,
2,
2,
5,
5,
5,
5,
14,
14,
6,
6,
5,
5,
6,
6,
1,
1,
4,
4,
6,
6,
1,
1,
1,
1,
5,
5,
13,
13,
15,
3,
12,
43,
43,
31,
31,
2,
4,
4,
4,
4,
5,
19,
19,
19,
26,
26,
18,
6,
7,
7,
1,
1,
1,
1,
4,
4,
5,
5,
2,
2,
7,
7,
14,
14,
7,
7,
6,
6,
7,
21,
20,
6,
6,
6,
-1,
-1,
2,
2,
0,
0,
1,
1,
3,
3,
0,
0,
2,
2,
3,
3,
2,
2,
2,
2,
0,
0,
1,
1,
6,
6,
4,
4,
0,
0,
0,
0,
2,
2,
4,
4,
13,
13,
12,
12,
7,
7,
14,
14,
7,
7,
0,
0,
-1,
-1,
6,
6,
8,
8,
6,
6,
5,
5,
7,
7,
4,
4,
0,
0,
1,
1,
0,
0,
1,
1,
5,
5,
7,
7,
6,
6,
0,
0,
0,
0,
1,
1,
-1,
-1,
1,
1,
4,
4,
2,
2,
1,
1,
1,
1,
1,
1,
2,
2,
0,
0,
-1,
-1,
-1,
-1,
0,
0,
2,
2,
6,
6,
1,
20,
20,
36,
34,
14,
14,
1,
6,
6,
13,
13,
10,
26,
25,
25,
17,
5,
19,
19,
14,
0,
0,
0,
4,
4,
2,
2,
0,
0,
0,
0,
7,
7,
7,
7,
3,
3,
0,
0,
5,
5,
9,
9,
4,
4,
0,
0,
2,
2,
2,
2,
0,
0,
4,
4,
7,
7,
9,
9,
5,
5,
2,
2,
4,
4,
2,
2,
6,
6,
3,
3,
0,
0,
2,
2,
6,
6,
8,
8,
9,
9,
6,
6,
0,
0,
2,
2,
7,
7,
8,
8,
8,
19,
18,
18,
10,
10,
4,
4,
1,
1,
-1,
-1,
2,
2,
3,
3,
2,
2,
1,
1,
3,
3,
9,
9,
9,
9,
9,
9,
3,
3,
6,
6,
13,
13,
14,
14,
10,
10,
2,
2,
6,
6,
7,
7,
0,
0,
0,
0,
2,
2,
1,
1,
1,
1,
5,
5,
13,
13,
16,
3,
4,
20,
19,
34,
34,
34,
32,
8,
8,
8,
6,
6,
9,
9,
7,
7,
8,
8,
6,
6,
3,
3,
4,
4,
2,
2,
2,
2,
2,
2,
3,
3,
1,
1,
6,
6,
4,
4,
5,
5,
0,
0,
