EMG_S3/DS0030.CSV

Memory Length,4000,
Trigger Level,-4.80000e+02,
Source,CH1,
Probe,1.0X,
Vertical Units,V,
Vertical Scale,1.00000e+00,
Vertical Position,0.00000e+00,
Horizontal Units,S,
Horizontal Scale,1.00000e-01,
Horizontal Position,0.0000000e+00,
Horizontal Mode,Roll Mode,
Waveform Last Dot Address,4000,
Sampling Period,4.00000e-04,
Firmware,V1.14,
Time, ,
Mode,Fast,
Waveform Data,
7,
7,
3,
3,
2,
2,
2,
2,
2,
2,
3,
3,
9,
9,
5,
5,
2,
2,
3,
3,
2,
2,
0,
0,
1,
1,
1,
1,
0,
0,
0,
0,
5,
5,
3,
3,
0,
0,
0,
0,
0,
0,
0,
0,
4,
17,
16,
4,
5,
16,
16,
16,
17,
5,
5,
5,
0,
0,
6,
6,
6,
6,
2,
2,
1,
1,
1,
1,
3,
3,
0,
0,
5,
5,
12,
12,
15,
15,
13,
13,
7,
7,
2,
2,
5,
22,
22,
40,
39,
22,
22,
2,
3,
14,
14,
14,
20,
20,
15,
1,
1,
1,
6,
6,
2,
2,
9,
24,
23,
23,
16,
2,
5,
17,
16,
16,
17,
17,
14,
14,
7,
7,
1,
1,
3,
3,
4,
4,
1,
1,
3,
3,
1,
15,
15,
15,
18,
6,
7,
7,
0,
0,
0,
0,
-1,
-1,
2,
2,
6,
6,
8,
8,
8,
8,
1,
1,
7,
7,
8,
8,
5,
5,
0,
0,
2,
2,
0,
0,
0,
0,
0,
0,
0,
0,
0,
0,
0,
0,
-1,
-1,
-1,
-1,
0,
0,
2,
2,
-1,
-1,
-1,
-1,
0,
0,
0,
0,
-2,
-2,
0,
0,
0,
0,
1,
1,
1,
1,
0,
0,
1,
1,
2,
2,
2,
2,
2,
2,
3,
3,
1,
1,
-1,
-1,
-1,
-1,
-1,
-1,
0,
0,
0,
0,
1,
1,
2,
2,
1,
1,
-1,
-1,
1,
1,
2,
2,
1,
1,
-1,
-1,
1,
1,
1,
1,
1,
1,
2,
2,
2,
2,
0,
0,
6,
6,
2,
2,
0,
0,
0,
0,
1,
1,
0,
0,
1,
1,
0,
0,
0,
0,
1,
1,
5,
5,
0,
18,
18,
37,
36,
25,
25,
5,
6,
6,
6,
18,
17,
17,
21,
21,
18,
18,
13,
13,
10,
10,
10,
10,
3,
3,
-1,
-1,
3,
3,
1,
1,
2,
2,
7,
7,
12,
12,
14,
14,
10,
10,
3,
3,
1,
1,
2,
2,
1,
1,
0,
0,
0,
0,
0,
0,
2,
2,
3,
3,
2,
2,
-1,
-1,
-1,
-1,
0,
0,
1,
1,
4,
4,
3,
3,
-1,
-1,
2,
2,
1,
1,
2,
2,
2,
2,
1,
1,
0,
0,
-1,
-1,
-1,
-1,
0,
0,
0,
0,
0,
0,
2,
2,
1,
1,
0,
0,
0,
0,
-1,
-1,
0,
0,
2,
2,
1,
1,
1,
1,
-1,
-1,
0,
0,
1,
1,
-1,
-1,
0,
0,
0,
0,
1,
1,
0,
0,
1,
1,
1,
1,
3,
3,
3,
3,
2,
2,
2,
2,
1,
1,
1,
1,
0,
0,
1,
1,
3,
3,
3,
3,
4,
4,
4,
4,
3,
3,
1,
1,
0,
0,
1,
1,
2,
2,
3,
3,
2,
2,
1,
1,
-1,
-1,
1,
1,
2,
2,
3,
3,
1,
1,
0,
0,
1,
1,
2,
2,
1,
1,
-1,
-1,
-1,
-1,
2,
2,
2,
2,
2,
2,
1,
1,
0,
0,
-1,
-1,
0,
0,
1,
1,
2,
2,
1,
1,
0,
0,
-1,
-1,
1,
1,
3,
3,
2,
2,
0,
0,
-1,
-1,
-1,
-1,
-2,
-2,
-1,
-1,
1,
1,
2,
2,
4,
4,
2,
2,
2,
2,
1,
1,
0,
0,
0,
0,
-1,
-1,
-1,
-1,
-1,
-1,
-1,
-1,
1,
1,
1,
1,
0,
0,
1,
1,
1,
1,
2,
2,
3,
3,
2,
2,
-1,
-1,
2,
2,
2,
2,
2,
2,
0,
0,
-1,
-1,
-1,
-1,
0,
0,
1,
1,
1,
1,
0,
0,
-1,
-1,
0,
0,
1,
1,
1,
1,
0,
0,
-1,
-1,
0,
0,
0,
0,
-1,
-1,
-1,
-1,
-1,
-1,
32,
17,
18,
2,
5,
5,
6,
6,
6,
6,
15,
15,
7,
7,
2,
2,
2,
2,
4,
4,
1,
1,
3,
14,
14,
14,
18,
18,
18,
18,
12,
12,
10,
10,
12,
12,
5,
5,
8,
8,
15,
15,
14,
1,
2,
2,
5,
5,
1,
1,
8,
8,
7,
7,
4,
4,
9,
9,
9,
9,
1,
1,
5,
5,
4,
4,
1,
1,
3,
3,
0,
0,
1,
1,
4,
4,
8,
8,
5,
5,
4,
18,
16,
16,
22,
22,
22,
22,
13,
13,
6,
6,
6,
6,
2,
18,
18,
18,
24,
24,
20,
20,
14,
14,
11,
11,
2,
2,
1,
1,
3,
3,
9,
9,
7,
7,
12,
26,
25,
25,
28,
28,
28,
14,
14,
1,
1,
1,
0,
0,
2,
2,
3,
3,
11,
11,
13,
13,
13,
13,
14,
14,
18,
18,
19,
2,
3,
20,
18,
18,
15,
1,
2,
2,
3,
3,
0,
0,
6,
6,
6,
6,
3,
3,
2,
2,
2,
2,
0,
0,
2,
2,
1,
1,
1,
1,
-1,
-1,
5,
5,
4,
4,
2,
2,
2,
2,
9,
9,
2,
2,
1,
1,
6,
6,
13,
13,
9,
9,
9,
9,
4,
4,
0,
0,
1,
1,
3,
3,
6,
6,
10,
10,
10,
10,
5,
5,
2,
2,
2,
2,
3,
3,
7,
7,
5,
5,
2,
2,
2,
2,
0,
0,
3,
3,
7,
7,
6,
6,
5,
5,
1,
1,
-1,
-1,
1,
1,
2,
2,
2,
2,
4,
4,
7,
7,
5,
5,
1,
1,
0,
0,
0,
0,
0,
0,
3,
3,
1,
1,
6,
6,
11,
11,
10,
10,
5,
5,
6,
6,
5,
5,
1,
1,
4,
4,
2,
2,
1,
1,
2,
16,
14,
14,
23,
10,
10,
10,
3,
16,
15,
15,
14,
1,
3,
14,
13,
13,
18,
4,
5,
16,
15,
15,
21,
21,
24,
24,
20,
9,
10,
10,
8,
8,
2,
14,
14,
14,
15,
15,
10,
10,
0,
0,
8,
29,
29,
29,
32,
16,
16,
1,
2,
13,
12,
23,
22,
22,
30,
30,
30,
15,
15,
3,
9,
21,
21,
21,
22,
8,
8,
8,
6,
6,
9,
9,
9,
9,
14,
14,
18,
18,
14,
14,
9,
9,
2,
2,
12,
12,
12,
12,
5,
5,
6,
6,
8,
8,
8,
8,
5,
5,
8,
8,
13,
1,
2,
13,
12,
26,
25,
13,
14,
0,
1,
1,
4,
4,
4,
4,
2,
2,
2,
2,
0,
0,
2,
2,
8,
8,
6,
6,
1,
1,
6,
6,
2,
2,
3,
3,
1,
13,
13,
24,
24,
24,
26,
26,
21,
21,
17,
2,
4,
19,
18,
30,
30,
30,
30,
30,
33,
33,
28,
16,
16,
1,
3,
3,
11,
11,
3,
3,
2,
20,
20,
20,
25,
9,
9,
9,
6,
6,
9,
20,
35,
35,
34,
15,
16,
2,
2,
2,
-1,
-1,
5,
16,
15,
15,
14,
14,
9,
9,
6,
6,
1,
1,
4,
4,
1,
1,
10,
10,
18,
18,
14,
1,
3,
3,
10,
10,
8,
8,
8,
19,
18,
18,
13,
1,
2,
2,
9,
9,
5,
5,
8,
8,
2,
2,
7,
7,
1,
1,
8,
8,
10,
10,
3,
3,
4,
4,
12,
12,
7,
7,
3,
3,
9,
9,
17,
17,
10,
10,
5,
5,
1,
1,
0,
0,
1,
1,
3,
3,
6,
6,
6,
6,
6,
6,
11,
11,
6,
6,
-1,
-1,
3,
3,
9,
9,
10,
10,
7,
7,
5,
5,
2,
2,
9,
9,
6,
6,
12,
28,
28,
28,
20,
1,
2,
2,
7,
7,
2,
2,
0,
11,
10,
10,
20,
9,
9,
9,
2,
2,
-1,
-1,
1,
1,
5,
5,
13,
13,
11,
11,
9,
27,
26,
6,
13,
41,
40,
28,
29,
11,
11,
11,
4,
4,
10,
10,
19,
19,
26,
26,
27,
11,
11,
11,
2,
2,
7,
7,
6,
6,
1,
1,
0,
0,
2,
15,
14,
14,
21,
10,
10,
10,
1,
1,
1,
1,
1,
1,
4,
4,
12,
12,
15,
3,
3,
3,
4,
4,
8,
8,
14,
3,
4,
4,
6,
6,
6,
6,
6,
6,
6,
6,
9,
9,
10,
10,
2,
2,
1,
1,
0,
15,
14,
14,
21,
10,
11,
0,
1,
1,
2,
20,
20,
20,
28,
8,
8,
8,
13,
13,
18,
18,
21,
21,
22,
22,
14,
14,
12,
12,
20,
20,
12,
12,
4,
4,
2,
17,
17,
36,
35,
35,
28,
15,
15,
15,
5,
5,
2,
2,
1,
1,
9,
9,
10,
10,
1,
1,
11,
11,
10,
10,
1,
1,
6,
6,
9,
9,
5,
5,
2,
2,
1,
1,
-1,
-1,
2,
2,
7,
7,
2,
2,
10,
10,
11,
11,
3,
3,
-1,
-1,
1,
1,
3,
3,
5,
5,
6,
6,
2,
2,
2,
2,
7,
7,
6,
6,
1,
1,
1,
1,
3,
3,
1,
19,
18,
18,
23,
6,
6,
6,
10,
10,
12,
12,
11,
11,
20,
20,
23,
7,
7,
21,
20,
32,
31,
31,
26,
2,
4,
15,
15,
15,
6,
6,
7,
7,
1,
1,
9,
9,
7,
7,
6,
6,
1,
1,
4,
4,
0,
0,
1,
1,
1,
18,
18,
33,
32,
6,
7,
52,
52,
66,
65,
46,
46,
5,
6,
24,
24,
24,
26,
26,
23,
23,
25,
25,
26,
26,
23,
23,
16,
16,
11,
11,
8,
8,
3,
21,
20,
36,
35,
23,
23,
11,
11,
11,
2,
2,
-1,
-1,
1,
1,
2,
2,
1,
1,
-1,
-1,
6,
21,
21,
21,
21,
10,
11,
11,
5,
16,
15,
15,
17,
17,
12,
12,
7,
7,
12,
12,
20,
9,
10,
-1,
0,
0,
1,
1,
9,
9,
9,
9,
6,
6,
13,
13,
12,
12,
7,
7,
5,
5,
0,
0,
4,
4,
6,
6,
3,
3,
2,
2,
2,
2,
1,
1,
1,
1,
0,
0,
0,
0,
4,
4,
9,
9,
3,
3,
-1,
-1,
0,
0,
2,
2,
2,
2,
2,
2,
-1,
-1,
2,
2,
6,
6,
0,
0,
4,
4,
2,
2,
0,
0,
2,
2,
6,
6,
3,
3,
1,
1,
0,
0,
2,
2,
2,
2,
3,
14,
13,
13,
21,
21,
16,
2,
12,
48,
48,
48,
42,
14,
14,
0,
1,
1,
8,
19,
18,
18,
24,
11,
11,
11,
5,
22,
21,
21,
16,
1,
20,
20,
20,
20,
23,
23,
20,
2,
4,
19,
18,
6,
6,
6,
3,
14,
13,
13,
8,
8,
5,
5,
8,
8,
2,
2,
4,
4,
5,
5,
9,
9,
5,
5,
5,
5,
-1,
-1,
5,
16,
15,
15,
18,
2,
2,
2,
4,
4,
0,
0,
4,
4,
2,
2,
1,
1,
3,
3,
10,
10,
10,
10,
7,
7,
6,
6,
8,
8,
12,
12,
3,
24,
24,
24,
28,
28,
20,
20,
14,
14,
8,
8,
5,
20,
20,
20,
22,
22,
12,
12,
10,
21,
18,
5,
6,
6,
0,
0,
0,
0,
0,
0,
9,
9,
11,
11,
10,
10,
10,
10,
1,
1,
1,
1,
5,
5,
1,
17,
17,
30,
29,
16,
17,
17,
9,
9,
14,
14,
18,
6,
6,
6,
5,
17,
15,
30,
29,
29,
34,
14,
14,
-1,
1,
1,
8,
8,
14,
2,
2,
2,
8,
8,
15,
15,
7,
7,
5,
5,
1,
1,
5,
5,
13,
13,
11,
0,
2,
2,
2,
2,
7,
7,
0,
0,
1,
20,
20,
20,
23,
4,
4,
4,
0,
0,
6,
6,
12,
12,
5,
5,
4,
4,
5,
5,
5,
5,
12,
12,
13,
13,
11,
11,
10,
10,
1,
1,
6,
6,
5,
5,
2,
2,
1,
1,
-1,
-1,
1,
1,
1,
1,
2,
2,
2,
2,
-1,
-1,
4,
4,
6,
6,
8,
8,
4,
4,
7,
7,
6,
6,
2,
2,
7,
7,
1,
1,
8,
8,
0,
0,
5,
5,
1,
1,
2,
2,
0,
0,
6,
6,
10,
10,
2,
14,
13,
13,
14,
3,
4,
4,
4,
4,
8,
8,
8,
8,
6,
6,
2,
2,
-1,
-1,
-1,
-1,
2,
2,
9,
9,
2,
13,
13,
13,
9,
9,
0,
0,
4,
4,
6,
6,
5,
5,
1,
1,
8,
26,
25,
25,
31,
14,
15,
1,
1,
15,
14,
14,
21,
9,
9,
9,
8,
8,
17,
17,
13,
13,
9,
9,
6,
20,
18,
2,
3,
14,
13,
13,
4,
4,
4,
4,
-1,
-1,
5,
5,
9,
26,
25,
36,
34,
34,
38,
38,
30,
3,
5,
24,
24,
39,
38,
38,
40,
40,
35,
35,
28,
12,
12,
1,
2,
2,
2,
2,
7,
7,
10,
10,
13,
13,
14,
14,
14,
14,
15,
15,
11,
11,
4,
4,
0,
0,
1,
1,
1,
1,
0,
0,
3,
3,
1,
1,
3,
3,
8,
8,
4,
4,
4,
4,
2,
2,
7,
7,
9,
9,
2,
2,
2,
2,
0,
0,
5,
5,
8,
8,
9,
9,
5,
5,
1,
1,
1,
1,
5,
5,
10,
10,
16,
16,
9,
9,
2,
2,
1,
1,
2,
2,
2,
2,
2,
2,
4,
4,
-1,
-1,
-1,
-1,
2,
2,
0,
0,
3,
3,
0,
0,
0,
0,
-1,
-1,
-1,
-1,
-1,
-1,
3,
3,
4,
4,
1,
1,
1,
1,
5,
5,
1,
1,
2,
2,
6,
6,
1,
1,
0,
0,
1,
1,
2,
2,
2,
2,
1,
1,
0,
0,
0,
0,
3,
3,
1,
1,
2,
2,
-1,
-1,
1,
1,
5,
5,
6,
6,
5,
5,
-1,
-1,
1,
1,
1,
1,
2,
2,
3,
3,
5,
5,
8,
8,
5,
20,
20,
20,
17,
17,
12,
12,
2,
2,
4,
4,
6,
6,
2,
2,
2,
2,
8,
8,
14,
14,
17,
17,
8,
8,
2,
2,
5,
5,
5,
5,
7,
7,
6,
6,
13,
13,
18,
18,
8,
8,
14,
14,
22,
8,
8,
8,
5,
17,
16,
16,
21,
21,
18,
6,
7,
7,
5,
5,
8,
8,
2,
23,
22,
40,
40,
40,
38,
14,
14,
14,
16,
16,
21,
3,
4,
4,
14,
25,
23,
9,
9,
9,
0,
18,
17,
17,
23,
23,
13,
1,
3,
3,
5,
5,
2,
2,
9,
29,
29,
17,
18,
2,
3,
3,
2,
2,
4,
4,
1,
1,
9,
9,
18,
18,
21,
21,
17,
17,
8,
8,
0,
0,
3,
3,
1,
1,
1,
1,
-1,
-1,
4,
21,
20,
20,
29,
29,
23,
8,
9,
9,
1,
1,
6,
6,
7,
7,
10,
10,
14,
14,
4,
4,
1,
1,
1,
1,
1,
1,
3,
3,
4,
4,
5,
5,
6,
6,
1,
1,
0,
0,
0,
0,
2,
2,
5,
5,
7,
7,
6,
6,
4,
4,
1,
1,
0,
0,
9,
9,
9,
9,
1,
1,
6,
6,
1,
1,
6,
6,
0,
0,
8,
8,
12,
12,
12,
12,
8,
8,
5,
5,
2,
2,
2,
2,
1,
1,
4,
4,
4,
4,
6,
6,
12,
12,
15,
15,
7,
7,
3,
3,
6,
6,
7,
7,
13,
13,
8,
8,
12,
12,
10,
10,
3,
3,
1,
1,
2,
2,
1,
1,
9,
9,
13,
13,
14,
1,
2,
2,
3,
3,
4,
4,
8,
26,
25,
25,
31,
9,
9,
9,
2,
2,
0,
0,
6,
6,
14,
14,
21,
21,
24,
9,
10,
10,
9,
9,
6,
6,
8,
8,
6,
6,
2,
2,
1,
1,
4,
20,
19,
19,
14,
0,
1,
1,
6,
18,
17,
17,
21,
21,
18,
18,
14,
2,
7,
7,
14,
14,
6,
6,
9,
9,
12,
12,
5,
5,
6,
6,
6,
24,
23,
23,
28,
4,
5,
24,
23,
23,
18,
18,
9,
9,
12,
12,
14,
14,
16,
16,
8,
8,
5,
18,
18,
18,
17,
17,
8,
8,
4,
4,
-1,
-1,
0,
0,
3,
3,
7,
7,
3,
3,
5,
5,
0,
0,
9,
9,
10,
-1,
0,
0,
1,
1,
4,
4,
0,
0,
4,
4,
11,
11,
18,
18,
8,
8,
3,
3,
6,
25,
25,
25,
20,
2,
5,
26,
26,
26,
30,
9,
9,
9,
6,
6,
2,
2,
2,
2,
5,
5,
7,
7,
9,
9,
6,
6,
10,
22,
20,
2,
3,
3,
7,
7,
9,
9,
5,
5,
7,
7,
10,
10,
9,
9,
17,
17,
13,
13,
6,
6,
2,
2,
8,
8,
9,
9,
10,
10,
8,
8,
6,
6,
6,
6,
2,
2,
0,
0,
1,
1,
-1,
-1,
6,
24,
23,
23,
21,
1,
2,
2,
2,
2,
3,
3,
7,
7,
5,
5,
5,
5,
2,
2,
2,
2,
2,
2,
2,
2,
4,
4,
4,
4,
-1,
-1,
4,
4,
6,
6,
6,
6,
2,
16,
15,
15,
16,
16,
6,
6,
3,
3,
10,
10,
14,
14,
8,
8,
0,
0,
1,
1,
1,
1,
1,
1,
2,
2,
10,
10,
11,
11,
3,
3,
4,
4,
7,
7,
2,
2,
5,
5,
8,
8,
15,
15,
12,
1,
9,
23,
22,
22,
22,
22,
14,
14,
14,
14,
6,
6,
2,
2,
1,
1,
0,
0,
0,
0,
2,
2,
9,
25,
24,
24,
26,
26,
18,
5,
6,
6,
3,
3,
5,
5,
8,
19,
18,
18,
12,
1,
2,
2,
2,
2,
12,
12,
9,
9,
8,
8,
15,
15,
6,
6,
2,
2,
7,
7,
2,
2,
3,
3,
0,
0,
4,
4,
4,
4,
2,
2,
8,
8,
6,
6,
6,
6,
5,
5,
1,
1,
5,
5,
8,
8,
1,
1,
2,
2,
9,
9,
13,
13,
6,
6,
6,
6,
8,
8,
18,
18,
16,
4,
5,
5,
1,
1,
7,
7,
15,
15,
15,
15,
14,
14,
9,
9,
5,
5,
3,
3,
2,
2,
3,
3,
3,
3,
8,
8,
12,
12,
10,
10,
6,
6,
5,
5,
2,
2,
0,
0,
0,
0,
0,
12,
12,
12,
16,
16,
8,
8,
18,
30,
25,
2,
5,
5,
6,
6,
2,
2,
6,
6,
3,
17,
16,
16,
18,
18,
12,
1,
2,
2,
5,
5,
8,
8,
14,
14,
19,
19,
16,
1,
1,
1,
-1,
-1,
2,
2,
5,
5,
6,
6,
10,
10,
6,
6,
3,
3,
5,
5,
6,
6,
2,
2,
3,
3,
11,
25,
24,
24,
20,
1,
2,
2,
6,
6,
5,
5,
9,
9,
4,
4,
0,
0,
2,
2,
4,
4,
5,
5,
5,
5,
1,
1,
9,
9,
11,
11,
2,
2,
0,
0,
0,
0,
1,
1,
2,
2,
-1,
-1,
0,
0,
6,
6,
12,
12,
7,
7,
2,
13,
12,
12,
10,
10,
19,
31,
28,
4,
4,
4,
9,
9,
10,
10,
9,
9,
3,
3,
6,
6,
2,
2,
4,
4,
0,
0,
1,
1,
2,
2,
7,
7,
2,
2,
8,
8,
1,
1,
8,
8,
12,
12,
4,
4,
10,
21,
21,
10,
10,
-1,
1,
1,
3,
3,
8,
8,
6,
6,
1,
1,
4,
4,
9,
9,
11,
11,
10,
10,
12,
1,
2,
14,
13,
13,
19,
19,
16,
16,
9,
9,
6,
20,
19,
19,
20,
20,
14,
14,
12,
12,
6,
6,
10,
21,
21,
21,
19,
19,
13,
13,
13,
13,
10,
10,
1,
1,
3,
3,
6,
6,
3,
3,
-1,
-1,
4,
4,
12,
12,
18,
18,
14,
14,
8,
8,
4,
4,
2,
2,
6,
6,
6,
6,
6,
6,
10,
10,
7,
7,
14,
2,
3,
3,
0,
0,
0,
0,
2,
2,
1,
1,
0,
0,
0,
0,
8,
8,
13,
13,
10,
10,
2,
2,
-1,
-1,
1,
1,
5,
5,
7,
7,
12,
27,
27,
27,
32,
5,
5,
25,
24,
24,
25,
8,
9,
9,
13,
13,
5,
22,
22,
22,
30,
16,
17,
2,
6,
18,
18,
18,
19,
19,
18,
7,
8,
8,
3,
3,
5,
5,
0,
0,
1,
1,
0,
0,
5,
5,
3,
3,
7,
7,
14,
14,
14,
14,
6,
6,
6,
6,
12,
12,
10,
10,
2,
2,
9,
9,
13,
1,
2,
2,
10,
10,
5,
5,
2,
2,
0,
13,
12,
12,
21,
21,
14,
1,
2,
2,
2,
2,
1,
1,
3,
3,
0,
0,
0,
0,
5,
5,
4,
4,
0,
0,
6,
6,
1,
1,
-1,
20,
19,
36,
34,
16,
17,
3,
3,
3,
1,
1,
1,
1,
6,
6,
6,
6,
9,
9,
7,
7,
6,
6,
5,
5,
7,
7,
7,
7,
1,
1,
8,
8,
4,
4,
3,
3,
6,
6,
2,
2,
0,
0,
2,
2,
2,
13,
13,
13,
10,
10,
1,
1,
2,
2,
5,
5,
1,
17,
16,
16,
19,
19,
10,
10,
4,
4,
2,
13,
12,
12,
6,
6,
1,
1,
0,
0,
2,
2,
5,
5,
2,
14,
14,
14,
15,
15,
13,
13,
4,
4,
-1,
-1,
0,
0,
8,
8,
10,
10,
10,
10,
9,
9,
6,
6,
5,
5,
10,
10,
2,
2,
8,
8,
2,
2,
5,
5,
3,
3,
3,
3,
5,
5,
13,
13,
17,
17,
10,
10,
1,
1,
1,
1,
0,
0,
-1,
-1,
0,
0,
3,
3,
7,
7,
9,
9,
9,
9,
12,
12,
10,
10,
3,
3,
1,
1,
3,
3,
-1,
-1,
2,
2,
6,
6,
10,
10,
14,
14,
6,
6,
1,
1,
0,
0,
0,
11,
10,
21,
21,
21,
22,
4,
4,
4,
5,
5,
11,
11,
11,
11,
4,
4,
2,
2,
2,
2,
0,
0,
5,
20,
20,
20,
19,
1,
4,
4,
14,
14,
14,
1,
3,
3,
1,
1,
0,
0,
3,
3,
10,
10,
12,
12,
8,
8,
10,
10,
17,
17,
10,
10,
5,
5,
8,
8,
11,
11,
9,
9,
1,
1,
8,
8,
9,
9,
6,
6,
6,
6,
6,
6,
5,
5,
6,
6,
5,
5,
4,
4,
11,
11,
3,
3,
2,
2,
3,
3,
0,
0,
6,
6,
14,
14,
17,
17,
21,
21,
25,
25,
24,
24,
18,
2,
4,
20,
20,
33,
33,
33,
39,
39,
45,
45,
39,
22,
23,
6,
18,
34,
32,
14,
14,
2,
2,
2,
6,
6,
7,
7,
5,
5,
5,
5,
6,
6,
5,
5,
4,
4,
7,
7,
3,
3,
2,
2,
-1,
-1,
4,
4,
3,
3,
4,
4,
8,
8,
8,
8,
4,
4,
2,
2,
4,
4,
5,
5,
6,
6,
4,
4,
10,
10,
11,
11,
5,
5,
5,
5,
0,
0,
10,
10,
9,
9,
3,
3,
4,
4,
2,
24,
24,
24,
31,
8,
8,
8,
6,
6,
13,
13,
13,
13,
9,
9,
6,
6,
4,
4,
5,
5,
3,
3,
1,
1,
2,
2,
0,
0,
2,
13,
12,
12,
20,
6,
6,
6,
5,
5,
0,
0,
5,
5,
4,
4,
1,
1,
5,
5,
14,
14,
6,
6,
7,
7,
11,
11,
8,
8,
12,
12,
14,
14,
8,
8,
4,
4,
6,
6,
6,
6,
1,
1,
7,
7,
7,
7,
10,
22,
20,
20,
22,
22,
14,
14,
18,
6,
8,
8,
4,
4,
11,
11,
20,
20,
26,
26,
20,
3,
4,
4,
9,
9,
17,
17,
9,
9,
7,
7,
17,
17,
8,
8,
2,
2,
7,
7,
10,
10,
6,
6,
5,
5,
8,
8,
6,
6,
2,
20,
19,
19,
26,
10,
10,
-1,
1,
1,
5,
5,
6,
6,
10,
28,
28,
12,
13,
1,
7,
21,
21,
21,
30,
30,
36,
36,
32,
8,
8,
8,
11,
11,
11,
11,
2,
2,
2,
19,
18,
18,
22,
5,
6,
6,
1,
20,
19,
19,
20,
3,
4,
4,
1,
1,
1,
1,
5,
5,
5,
5,
1,
1,
-1,
-1,
6,
6,
8,
8,
6,
6,
2,
2,
3,
3,
6,
6,
4,
4,
5,
5,
3,
3,
7,
7,
2,
2,
2,
2,
1,
1,
7,
7,
11,
11,
9,
9,
7,
7,
2,
2,
-2,
-2,
2,
2,
3,
18,
18,
18,
20,
20,
14,
14,
12,
12,
7,
7,
0,
0,
3,
3,
2,
2,
7,
7,
9,
9,
10,
10,
5,
5,
4,
4,
2,
2,
2,
2,
4,
4,
8,
8,
11,
11,
9,
9,
2,
2,
6,
6,
11,
11,
12,
1,
2,
2,
0,
0,
5,
5,
5,
5,
2,
2,
1,
1,
1,
1,
0,
0,
6,
6,
7,
7,
2,
2,
-1,
-1,
3,
3,
7,
7,
13,
2,
2,
14,
14,
14,
15,
15,
18,
18,
18,
6,
7,
7,
2,
2,
3,
3,
10,
10,
15,
4,
4,
4,
3,
15,
14,
14,
14,
2,
3,
27,
27,
27,
26,
2,
2,
2,
10,
10,
10,
10,
