EMG_S3/DS0032.CSV

Memory Length,4000,
Trigger Level,-4.80000e+02,
Source,CH1,
Probe,1.0X,
Vertical Units,V,
Vertical Scale,1.00000e+00,
Vertical Position,0.00000e+00,
Horizontal Units,S,
Horizontal Scale,1.00000e-01,
Horizontal Position,0.0000000e+00,
Horizontal Mode,Roll Mode,
Waveform Last Dot Address,4000,
Sampling Period,4.00000e-04,
Firmware,V1.14,
Time, ,
Mode,Fast,
Waveform Data,
7,
7,
1,
1,
0,
0,
1,
1,
6,
6,
8,
8,
7,
7,
6,
6,
1,
1,
3,
3,
5,
5,
13,
13,
4,
4,
12,
12,
14,
14,
11,
0,
0,
11,
10,
10,
2,
14,
13,
13,
13,
33,
33,
9,
10,
58,
58,
24,
24,
6,
14,
14,
21,
9,
9,
9,
6,
6,
5,
5,
0,
0,
5,
5,
7,
7,
6,
6,
3,
3,
3,
3,
3,
3,
7,
7,
7,
7,
6,
6,
4,
4,
0,
0,
2,
2,
7,
7,
12,
12,
8,
8,
2,
2,
8,
8,
13,
13,
13,
13,
17,
1,
1,
1,
0,
0,
5,
5,
10,
10,
6,
6,
14,
14,
5,
5,
0,
0,
1,
1,
11,
22,
22,
22,
25,
14,
14,
3,
3,
3,
0,
0,
3,
3,
2,
13,
13,
13,
4,
4,
1,
12,
11,
22,
22,
22,
20,
20,
13,
13,
5,
5,
1,
1,
1,
14,
14,
14,
13,
13,
5,
5,
4,
4,
4,
4,
3,
3,
2,
2,
6,
6,
2,
2,
8,
8,
2,
2,
6,
6,
1,
1,
3,
3,
8,
8,
6,
6,
13,
13,
16,
16,
8,
8,
10,
26,
26,
26,
17,
2,
5,
5,
0,
23,
23,
42,
39,
10,
11,
0,
2,
17,
16,
16,
24,
13,
14,
2,
3,
3,
4,
4,
6,
6,
4,
4,
9,
9,
2,
16,
15,
15,
14,
14,
19,
34,
33,
33,
34,
34,
26,
2,
2,
2,
6,
21,
20,
20,
26,
26,
24,
24,
29,
29,
35,
8,
8,
30,
30,
30,
21,
10,
11,
11,
9,
9,
5,
5,
1,
1,
0,
0,
9,
9,
10,
10,
17,
17,
20,
20,
14,
14,
5,
5,
2,
14,
13,
13,
20,
20,
21,
21,
18,
18,
17,
1,
4,
4,
10,
10,
4,
4,
7,
21,
20,
20,
21,
7,
8,
8,
2,
2,
6,
6,
8,
8,
8,
8,
8,
8,
8,
8,
8,
8,
3,
14,
13,
13,
9,
9,
1,
1,
5,
5,
4,
4,
5,
5,
5,
5,
10,
10,
5,
5,
9,
9,
6,
6,
14,
2,
2,
2,
1,
1,
1,
1,
1,
1,
2,
2,
3,
3,
5,
5,
2,
14,
13,
13,
14,
14,
14,
14,
14,
0,
1,
1,
4,
4,
1,
1,
1,
1,
6,
6,
7,
7,
1,
1,
2,
2,
10,
10,
3,
3,
10,
10,
5,
5,
4,
4,
5,
5,
2,
20,
18,
31,
30,
8,
16,
62,
61,
61,
57,
10,
10,
10,
17,
29,
28,
28,
31,
31,
29,
29,
22,
22,
13,
13,
5,
5,
7,
7,
5,
30,
30,
30,
32,
9,
9,
9,
10,
10,
8,
8,
5,
5,
1,
1,
9,
9,
4,
4,
0,
0,
4,
4,
2,
2,
2,
2,
4,
4,
7,
7,
2,
2,
10,
10,
6,
6,
4,
4,
13,
30,
29,
10,
10,
10,
10,
28,
28,
28,
26,
4,
5,
5,
5,
5,
7,
7,
12,
12,
8,
8,
4,
17,
16,
16,
14,
14,
5,
5,
9,
9,
9,
9,
2,
2,
7,
7,
6,
6,
1,
1,
3,
3,
1,
1,
2,
2,
2,
25,
25,
25,
17,
17,
7,
7,
1,
1,
0,
0,
4,
4,
0,
0,
8,
21,
20,
31,
30,
42,
42,
42,
34,
8,
23,
56,
55,
44,
44,
14,
14,
1,
6,
6,
14,
14,
8,
8,
13,
13,
17,
17,
13,
1,
3,
3,
6,
6,
1,
1,
1,
29,
29,
29,
35,
15,
16,
0,
1,
1,
6,
6,
14,
14,
13,
13,
13,
13,
16,
16,
38,
49,
46,
24,
24,
2,
5,
5,
6,
6,
15,
15,
24,
24,
33,
33,
38,
22,
22,
5,
12,
12,
7,
7,
6,
6,
10,
10,
1,
1,
-1,
-1,
7,
7,
11,
11,
3,
3,
0,
0,
4,
4,
10,
10,
10,
10,
14,
1,
3,
14,
13,
13,
10,
10,
12,
12,
3,
34,
34,
45,
38,
5,
6,
6,
12,
12,
6,
6,
3,
3,
4,
4,
12,
12,
20,
20,
19,
19,
24,
24,
30,
30,
26,
5,
15,
39,
38,
38,
30,
14,
14,
3,
5,
5,
11,
11,
8,
8,
2,
2,
2,
2,
6,
6,
5,
5,
1,
1,
1,
1,
4,
4,
1,
1,
4,
4,
1,
1,
0,
0,
6,
6,
14,
1,
2,
2,
10,
10,
3,
3,
0,
0,
0,
11,
10,
25,
25,
13,
14,
14,
21,
33,
32,
32,
30,
30,
23,
23,
21,
6,
6,
6,
14,
14,
18,
3,
6,
6,
4,
23,
23,
23,
30,
15,
16,
16,
10,
10,
5,
5,
1,
1,
-1,
-1,
2,
2,
8,
8,
6,
28,
28,
28,
31,
17,
18,
6,
7,
7,
2,
2,
10,
10,
1,
1,
0,
0,
0,
0,
6,
17,
16,
3,
6,
19,
17,
1,
1,
1,
4,
4,
6,
6,
2,
2,
0,
0,
8,
8,
12,
1,
6,
6,
8,
8,
10,
10,
8,
8,
5,
5,
0,
0,
1,
1,
8,
8,
8,
8,
-1,
-1,
2,
2,
6,
6,
4,
4,
1,
1,
0,
0,
0,
0,
2,
2,
5,
5,
10,
10,
9,
9,
3,
3,
4,
4,
1,
1,
7,
7,
9,
9,
4,
4,
0,
0,
5,
18,
18,
18,
12,
12,
10,
21,
21,
21,
25,
25,
23,
11,
12,
1,
7,
7,
6,
6,
0,
0,
8,
20,
19,
19,
11,
11,
6,
18,
17,
17,
13,
1,
6,
6,
12,
12,
12,
12,
6,
6,
-1,
-1,
4,
4,
3,
3,
3,
3,
5,
5,
5,
5,
2,
2,
4,
4,
2,
2,
6,
6,
2,
2,
4,
4,
8,
8,
10,
10,
2,
15,
14,
14,
8,
8,
2,
2,
-1,
16,
15,
15,
15,
1,
4,
4,
12,
12,
4,
4,
6,
6,
10,
10,
9,
9,
10,
10,
6,
17,
17,
17,
18,
1,
3,
3,
9,
21,
21,
37,
34,
5,
5,
5,
13,
13,
18,
18,
13,
13,
8,
8,
1,
1,
1,
1,
5,
5,
2,
2,
0,
0,
-1,
-1,
1,
1,
1,
1,
4,
4,
9,
9,
6,
6,
0,
0,
4,
4,
-1,
-1,
0,
0,
2,
2,
5,
5,
5,
5,
1,
1,
1,
1,
6,
6,
5,
5,
-1,
-1,
0,
0,
6,
6,
4,
4,
1,
1,
1,
1,
2,
2,
5,
5,
2,
2,
2,
2,
0,
0,
8,
8,
10,
10,
5,
21,
20,
20,
25,
3,
4,
4,
5,
5,
6,
6,
6,
6,
4,
4,
2,
2,
2,
2,
4,
4,
6,
6,
2,
2,
2,
13,
12,
1,
3,
3,
12,
12,
11,
0,
2,
2,
7,
7,
0,
0,
6,
6,
2,
20,
20,
20,
22,
6,
6,
18,
17,
5,
8,
28,
26,
3,
4,
4,
14,
14,
10,
10,
3,
3,
5,
5,
11,
11,
17,
17,
20,
20,
12,
1,
6,
6,
6,
6,
1,
1,
4,
4,
4,
4,
1,
1,
2,
2,
6,
18,
18,
18,
26,
26,
16,
0,
1,
1,
-1,
-1,
3,
3,
7,
7,
10,
10,
5,
5,
5,
5,
12,
12,
5,
5,
5,
5,
14,
28,
26,
3,
4,
16,
15,
15,
12,
12,
8,
8,
10,
40,
39,
20,
20,
6,
21,
21,
28,
6,
6,
6,
2,
2,
6,
6,
8,
8,
12,
12,
21,
21,
19,
2,
3,
3,
10,
10,
10,
27,
27,
48,
47,
29,
29,
4,
5,
5,
6,
6,
10,
10,
13,
13,
14,
14,
10,
10,
7,
7,
8,
8,
13,
13,
14,
0,
5,
5,
2,
2,
4,
42,
42,
58,
56,
25,
26,
1,
3,
3,
3,
14,
14,
25,
24,
24,
23,
23,
19,
8,
8,
8,
5,
5,
5,
5,
4,
4,
6,
6,
2,
2,
2,
2,
5,
5,
4,
4,
2,
2,
5,
5,
1,
28,
28,
43,
41,
21,
21,
8,
9,
9,
0,
0,
3,
3,
8,
19,
17,
17,
8,
8,
2,
2,
8,
8,
7,
7,
9,
9,
11,
11,
1,
1,
3,
3,
5,
5,
10,
10,
1,
1,
2,
2,
5,
30,
29,
29,
29,
12,
12,
12,
4,
4,
6,
6,
14,
14,
23,
23,
30,
16,
17,
4,
5,
5,
3,
3,
0,
0,
4,
4,
3,
3,
3,
3,
5,
23,
22,
22,
31,
20,
21,
7,
7,
7,
1,
1,
9,
9,
15,
15,
18,
18,
12,
12,
18,
38,
37,
19,
19,
19,
27,
27,
20,
1,
3,
3,
9,
9,
18,
18,
21,
21,
18,
18,
18,
18,
23,
23,
30,
30,
22,
3,
7,
7,
13,
13,
3,
3,
9,
9,
16,
48,
48,
12,
12,
1,
1,
18,
18,
5,
6,
6,
0,
0,
0,
0,
6,
6,
5,
5,
7,
7,
2,
2,
2,
2,
3,
3,
4,
4,
1,
18,
17,
30,
29,
29,
30,
8,
26,
43,
38,
4,
5,
5,
9,
9,
1,
1,
2,
2,
9,
9,
9,
9,
9,
9,
9,
9,
5,
5,
2,
18,
17,
17,
22,
1,
2,
2,
5,
17,
16,
16,
17,
17,
10,
-1,
0,
0,
2,
2,
2,
15,
15,
15,
21,
21,
16,
16,
9,
9,
9,
9,
14,
14,
9,
9,
5,
20,
20,
4,
5,
23,
22,
22,
17,
1,
2,
2,
2,
2,
10,
10,
15,
15,
10,
10,
10,
10,
15,
1,
3,
14,
14,
14,
14,
3,
16,
27,
23,
9,
10,
10,
6,
6,
11,
11,
1,
1,
6,
6,
7,
7,
7,
7,
8,
8,
16,
16,
12,
1,
6,
6,
6,
6,
1,
1,
3,
18,
18,
31,
31,
17,
18,
2,
7,
7,
10,
10,
6,
6,
15,
15,
24,
9,
10,
10,
16,
30,
29,
29,
20,
1,
1,
1,
6,
6,
12,
0,
1,
1,
3,
14,
14,
29,
28,
28,
8,
35,
35,
35,
33,
1,
3,
3,
4,
4,
1,
16,
15,
15,
22,
7,
7,
7,
9,
9,
17,
17,
21,
21,
20,
20,
21,
4,
4,
28,
28,
46,
7,
7,
7,
7,
1,
1,
3,
3,
4,
4,
2,
2,
6,
6,
14,
26,
25,
25,
24,
4,
5,
16,
15,
15,
7,
7,
0,
22,
21,
21,
20,
2,
2,
2,
5,
5,
2,
2,
3,
3,
0,
0,
2,
2,
5,
5,
4,
17,
17,
31,
30,
30,
35,
16,
17,
4,
18,
60,
60,
60,
60,
24,
24,
6,
6,
6,
10,
22,
22,
22,
30,
30,
30,
13,
13,
2,
3,
3,
5,
5,
5,
5,
1,
1,
0,
0,
4,
4,
2,
2,
6,
6,
12,
0,
1,
1,
2,
2,
10,
10,
12,
12,
9,
9,
14,
14,
15,
15,
9,
9,
3,
3,
6,
25,
25,
25,
29,
14,
14,
0,
2,
2,
2,
2,
2,
2,
9,
9,
1,
1,
2,
2,
3,
3,
1,
1,
4,
4,
1,
1,
2,
2,
-1,
-1,
2,
2,
2,
2,
9,
9,
9,
9,
1,
14,
13,
2,
4,
16,
15,
2,
3,
3,
9,
35,
32,
5,
5,
5,
11,
30,
30,
30,
37,
14,
14,
30,
30,
46,
42,
23,
24,
8,
9,
9,
4,
15,
14,
29,
28,
28,
31,
31,
22,
22,
18,
18,
16,
2,
3,
3,
13,
31,
31,
44,
42,
17,
17,
1,
2,
2,
2,
2,
1,
1,
0,
0,
4,
4,
5,
5,
6,
6,
2,
2,
5,
21,
21,
21,
25,
5,
10,
29,
29,
29,
22,
2,
5,
5,
9,
9,
11,
11,
12,
12,
15,
15,
20,
7,
8,
8,
2,
2,
6,
6,
14,
14,
12,
12,
5,
5,
0,
0,
1,
1,
5,
5,
7,
7,
5,
5,
13,
13,
18,
6,
7,
7,
6,
17,
16,
16,
23,
12,
12,
0,
1,
1,
6,
6,
0,
0,
5,
5,
1,
1,
5,
5,
4,
17,
10,
21,
21,
21,
29,
29,
33,
33,
28,
4,
4,
4,
11,
23,
22,
42,
41,
41,
47,
47,
41,
41,
39,
16,
16,
35,
34,
45,
38,
19,
20,
20,
25,
25,
29,
29,
20,
2,
2,
17,
16,
29,
29,
29,
25,
6,
7,
39,
38,
38,
29,
17,
18,
6,
6,
6,
7,
7,
7,
7,
11,
11,
5,
5,
6,
6,
1,
1,
0,
0,
5,
17,
16,
16,
20,
20,
11,
11,
1,
1,
-1,
-1,
1,
1,
7,
7,
13,
13,
10,
10,
6,
6,
0,
0,
5,
5,
0,
0,
1,
14,
13,
13,
18,
4,
17,
49,
47,
47,
46,
21,
22,
22,
20,
20,
14,
3,
3,
21,
20,
38,
38,
38,
41,
41,
39,
39,
38,
38,
29,
6,
7,
7,
1,
1,
2,
16,
15,
15,
12,
12,
13,
13,
20,
20,
21,
21,
14,
14,
13,
13,
9,
9,
1,
1,
1,
1,
0,
0,
2,
2,
9,
9,
7,
7,
13,
13,
20,
3,
4,
50,
49,
62,
50,
9,
15,
29,
28,
28,
24,
24,
20,
20,
10,
10,
13,
1,
2,
2,
2,
13,
11,
11,
7,
7,
1,
1,
0,
0,
4,
19,
18,
18,
22,
10,
10,
10,
2,
2,
5,
5,
1,
1,
0,
0,
2,
2,
1,
1,
9,
9,
13,
13,
5,
5,
2,
2,
2,
2,
0,
0,
6,
6,
13,
2,
10,
10,
10,
10,
8,
8,
18,
18,
17,
4,
4,
4,
2,
2,
4,
4,
2,
2,
-1,
-1,
0,
0,
3,
3,
1,
1,
6,
6,
1,
14,
13,
13,
17,
17,
9,
9,
0,
0,
1,
1,
1,
1,
3,
3,
11,
11,
5,
5,
0,
0,
4,
4,
11,
11,
3,
3,
6,
32,
30,
42,
26,
26,
26,
5,
5,
5,
1,
1,
6,
20,
20,
31,
30,
30,
26,
26,
19,
19,
14,
14,
18,
6,
6,
6,
10,
10,
5,
5,
0,
0,
3,
3,
8,
8,
12,
12,
5,
5,
2,
2,
4,
4,
10,
10,
18,
2,
3,
3,
4,
4,
6,
6,
8,
8,
16,
16,
16,
16,
9,
9,
2,
2,
8,
8,
14,
14,
20,
20,
23,
23,
28,
28,
30,
11,
11,
11,
7,
7,
10,
10,
16,
16,
21,
1,
2,
2,
1,
1,
8,
20,
20,
32,
32,
32,
28,
8,
9,
9,
8,
8,
7,
7,
14,
14,
23,
23,
31,
31,
27,
15,
16,
1,
4,
4,
3,
3,
6,
6,
7,
7,
1,
1,
6,
6,
11,
11,
3,
16,
15,
38,
38,
38,
34,
15,
16,
16,
6,
6,
6,
6,
2,
2,
4,
4,
11,
11,
11,
11,
3,
3,
-1,
-1,
0,
0,
0,
0,
6,
6,
0,
0,
6,
6,
6,
6,
12,
12,
13,
1,
5,
5,
8,
8,
4,
4,
14,
14,
18,
0,
1,
1,
3,
3,
1,
1,
7,
7,
2,
2,
-1,
-1,
2,
2,
7,
25,
25,
39,
34,
5,
7,
39,
38,
38,
41,
15,
15,
1,
5,
24,
23,
23,
14,
1,
2,
2,
4,
4,
5,
5,
3,
3,
2,
15,
14,
3,
6,
34,
32,
32,
27,
13,
13,
13,
17,
17,
12,
12,
7,
7,
6,
6,
9,
9,
9,
9,
8,
8,
8,
8,
13,
13,
10,
10,
8,
8,
11,
11,
9,
9,
8,
8,
10,
10,
5,
5,
10,
10,
5,
23,
22,
1,
2,
2,
2,
24,
22,
9,
10,
10,
7,
7,
5,
5,
1,
1,
7,
7,
6,
6,
0,
0,
5,
17,
17,
17,
14,
14,
20,
20,
14,
0,
1,
1,
5,
16,
15,
15,
6,
6,
2,
15,
14,
14,
10,
25,
25,
44,
41,
12,
12,
1,
6,
17,
16,
16,
17,
17,
10,
10,
4,
4,
8,
8,
14,
14,
6,
18,
18,
45,
44,
12,
26,
49,
44,
6,
6,
6,
5,
5,
11,
11,
1,
1,
7,
7,
0,
0,
9,
9,
10,
10,
1,
14,
13,
13,
18,
18,
12,
12,
14,
32,
32,
13,
13,
42,
41,
41,
44,
19,
19,
19,
14,
1,
3,
3,
9,
9,
16,
16,
14,
14,
8,
8,
0,
0,
6,
6,
14,
32,
30,
7,
8,
8,
6,
6,
10,
10,
8,
8,
2,
2,
10,
10,
6,
6,
7,
7,
7,
7,
1,
1,
3,
3,
1,
1,
10,
10,
11,
11,
14,
30,
27,
9,
10,
10,
18,
3,
6,
6,
5,
21,
20,
3,
5,
18,
17,
17,
16,
16,
12,
12,
14,
14,
20,
20,
17,
2,
6,
17,
17,
2,
2,
2,
6,
6,
6,
17,
16,
16,
10,
10,
2,
2,
10,
10,
18,
18,
10,
10,
19,
19,
10,
21,
21,
36,
32,
4,
5,
5,
4,
4,
2,
2,
10,
10,
18,
18,
23,
5,
11,
11,
18,
2,
3,
3,
2,
18,
18,
18,
14,
1,
5,
5,
7,
7,
0,
0,
1,
1,
3,
3,
5,
5,
9,
9,
11,
11,
5,
5,
10,
10,
15,
15,
20,
2,
2,
14,
14,
3,
3,
3,
9,
9,
4,
4,
1,
1,
1,
1,
4,
15,
14,
14,
7,
7,
0,
0,
5,
5,
6,
50,
50,
63,
56,
8,
8,
26,
26,
26,
18,
18,
9,
9,
14,
14,
13,
13,
10,
10,
6,
6,
2,
25,
24,
4,
27,
27,
26,
26,
18,
1,
4,
4,
6,
6,
7,
7,
9,
9,
11,
11,
12,
0,
1,
1,
1,
25,
25,
44,
43,
12,
13,
1,
1,
1,
6,
21,
21,
21,
19,
19,
10,
10,
7,
7,
11,
11,
10,
10,
6,
6,
1,
1,
0,
0,
9,
9,
3,
20,
20,
38,
37,
50,
45,
9,
10,
10,
9,
9,
4,
4,
5,
5,
10,
10,
13,
13,
10,
10,
8,
8,
8,
8,
12,
12,
17,
2,
4,
21,
21,
9,
10,
10,
6,
6,
8,
8,
2,
2,
1,
13,
12,
0,
0,
0,
4,
4,
2,
15,
14,
14,
9,
9,
18,
42,
41,
41,
34,
3,
5,
5,
13,
13,
17,
17,
20,
20,
18,
18,
17,
17,
14,
14,
8,
8,
2,
2,
8,
8,
7,
7,
2,
2,
11,
11,
16,
16,
12,
12,
7,
7,
5,
5,
1,
1,
0,
0,
4,
4,
5,
5,
2,
2,
4,
4,
0,
0,
0,
0,
4,
4,
3,
3,
3,
3,
3,
3,
5,
5,
4,
18,
17,
17,
12,
12,
4,
4,
3,
3,
5,
5,
6,
20,
20,
20,
22,
3,
6,
20,
20,
20,
26,
26,
32,
18,
18,
1,
2,
2,
2,
2,
7,
7,
14,
14,
13,
13,
12,
0,
1,
1,
0,
0,
1,
1,
2,
2,
1,
1,
1,
1,
4,
4,
4,
4,
5,
5,
11,
11,
8,
8,
4,
4,
2,
2,
1,
1,
6,
6,
13,
13,
16,
2,
3,
17,
16,
16,
10,
33,
33,
33,
38,
8,
8,
8,
9,
23,
22,
22,
20,
8,
8,
8,
10,
10,
9,
9,
2,
2,
6,
19,
18,
18,
23,
5,
10,
38,
38,
19,
20,
6,
7,
7,
1,
13,
12,
12,
9,
9,
1,
1,
1,
1,
3,
3,
3,
15,
14,
14,
10,
10,
9,
9,
18,
32,
31,
8,
9,
9,
17,
28,
24,
1,
3,
3,
2,
2,
8,
8,
17,
17,
13,
13,
10,
10,
11,
11,
18,
2,
4,
4,
2,
2,
6,
6,
2,
2,
0,
0,
6,
6,
12,
12,
22,
22,
28,
28,
7,
41,
41,
64,
63,
40,
40,
13,
14,
14,
8,
8,
2,
2,
8,
8,
9,
22,
22,
22,
27,
27,
24,
24,
23,
23,
24,
8,
8,
8,
10,
10,
12,
1,
4,
4,
4,
30,
29,
58,
57,
40,
40,
14,
15,
0,
1,
14,
13,
26,
26,
26,
22,
22,
16,
16,
12,
12,
6,
6,
7,
7,
5,
5,
7,
7,
1,
1,
1,
14,
13,
13,
21,
21,
13,
13,
10,
10,
10,
10,
2,
2,
9,
9,
3,
3,
12,
12,
3,
3,
0,
0,
6,
20,
19,
19,
14,
14,
13,
13,
9,
21,
21,
21,
23,
3,
4,
19,
17,
17,
14,
2,
7,
7,
3,
3,
8,
8,
3,
25,
25,
11,
12,
0,
1,
1,
6,
6,
2,
2,
2,
2,
8,
8,
5,
5,
7,
7,
10,
10,
2,
2,
7,
24,
23,
23,
22,
4,
9,
26,
26,
26,
18,
39,
39,
25,
25,
4,
7,
7,
15,
15,
15,
15,
16,
16,
9,
9,
2,
2,
0,
0,
1,
1,
2,
2,
2,
2,
1,
1,
1,
1,
2,
2,
1,
1,
8,
8,
6,
6,
0,
0,
3,
3,
4,
4,
-1,
-1,
9,
9,
9,
9,
0,
0,
0,
0,
9,
21,
20,
20,
18,
18,
9,
9,
5,
5,
11,
11,
9,
21,
20,
20,
16,
1,
2,
2,
6,
6,
8,
8,
5,
5,
1,
1,
4,
4,
5,
5,
0,
0,
1,
1,
2,
2,
4,
4,
1,
1,
9,
9,
9,
9,
9,
9,
1,
1,
5,
5,
10,
10,
3,
3,
6,
6,
2,
2,
8,
8,
7,
7,
4,
4,
0,
0,
4,
4,
4,
4,
5,
5,
1,
1,
1,
1,
6,
6,
6,
6,
3,
3,
-1,
-1,
2,
2,
0,
0,
8,
8,
14,
14,
13,
2,
2,
2,
5,
18,
17,
17,
26,
26,
7,
39,
38,
53,
44,
11,
11,
11,
9,
9,
10,
10,
6,
6,
9,
9,
5,
5,
5,
5,
6,
6,
13,
1,
2,
2,
10,
10,
9,
9,
6,
6,
6,
6,
8,
8,
1,
1,
9,
23,
22,
22,
17,
5,
26,
46,
44,
12,
12,
12,
8,
8,
10,
10,
6,
6,
2,
2,
8,
19,
18,
5,
6,
6,
10,
10,
14,
14,
9,
9,
12,
12,
5,
5,
11,
11,
18,
18,
21,
21,
13,
1,
2,
17,
16,
16,
25,
10,
11,
11,
3,
3,
2,
2,
6,
6,
6,
6,
5,
5,
0,
0,
1,
1,
0,
0,
7,
7,
7,
7,
5,
5,
12,
12,
4,
4,
3,
3,
0,
0,
5,
5,
1,
1,
6,
6,
10,
10,
6,
6,
3,
3,
6,
6,
5,
5,
6,
6,
2,
15,
14,
14,
6,
31,
30,
9,
9,
9,
9,
9,
6,
6,
10,
10,
16,
3,
4,
15,
14,
1,
2,
2,
4,
4,
10,
10,
7,
7,
10,
28,
28,
7,
8,
57,
57,
41,
42,
2,
2,
2,
6,
6,
8,
8,
15,
15,
18,
18,
16,
16,
10,
10,
16,
16,
21,
9,
9,
24,
24,
40,
39,
26,
26,
26,
21,
9,
10,
10,
12,
12,
14,
14,
9,
9,
10,
10,
10,
10,
9,
9,
13,
13,
4,
4,
3,
3,
0,
0,
1,
1,
7,
7,
10,
10,
6,
6,
13,
13,
11,
0,
0,
0,
2,
2,
3,
3,
6,
6,
6,
6,
1,
1,
2,
2,
5,
18,
18,
18,
10,
10,
14,
14,
19,
3,
9,
24,
23,
23,
19,
5,
19,
44,
44,
25,
25,
2,
4,
4,
9,
9,
13,
13,
18,
18,
17,
17,
18,
18,
14,
14,
8,
8,
2,
2,
6,
6,
10,
10,
19,
19,
13,
13,
3,
3,
0,
0,
6,
6,
7,
7,
2,
2,
6,
6,
11,
11,
12,
12,
12,
12,
18,
3,
8,
28,
28,
28,
22,
3,
4,
4,
7,
7,
12,
12,
17,
17,
24,
24,
26,
26,
21,
2,
4,
4,
14,
14,
9,
9,
2,
2,
3,
3,
10,
10,
17,
36,
34,
34,
34,
14,
14,
1,
1,
12,
11,
23,
23,
23,
24,
24,
21,
21,
22,
22,
20,
5,
14,
14,
18,
2,
2,
2,
5,
5,
3,
19,
18,
18,
14,
3,
11,
24,
24,
24,
20,
4,
5,
5,
5,
5,
9,
9,
4,
4,
4,
18,
18,
35,
33,
33,
24,
1,
2,
15,
14,
28,
27,
27,
27,
27,
22,
2,
4,
21,
20,
20,
19,
6,
6,
6,
6,
19,
18,
18,
20,
20,
18,
18,
9,
9,
8,
8,
11,
11,
2,
2,
2,
16,
15,
15,
11,
11,
3,
3,
5,
5,
11,
11,
3,
3,
0,
0,
3,
28,
28,
16,
17,
3,
11,
26,
25,
25,
26,
26,
17,
6,
6,
6,
10,
10,
16,
1,
1,
1,
9,
9,
8,
8,
12,
12,
11,
11,
3,
3,
12,
12,
10,
10,
12,
12,
18,
18,
13,
13,
4,
4,
10,
10,
11,
11,
6,
6,
5,
5,
