EMG_S3/DS0028.CSV

Memory Length,4000,
Trigger Level,-4.80000e+02,
Source,CH1,
Probe,1.0X,
Vertical Units,V,
Vertical Scale,1.00000e+00,
Vertical Position,0.00000e+00,
Horizontal Units,S,
Horizontal Scale,1.00000e-01,
Horizontal Position,0.0000000e+00,
Horizontal Mode,Roll Mode,
Waveform Last Dot Address,4000,
Sampling Period,4.00000e-04,
Firmware,V1.14,
Time, ,
Mode,Fast,
Waveform Data,
4,
4,
14,
14,
19,
2,
3,
17,
17,
5,
5,
5,
5,
5,
7,
7,
8,
8,
5,
5,
9,
9,
2,
17,
16,
16,
10,
10,
1,
1,
1,
1,
4,
4,
6,
6,
12,
12,
6,
6,
0,
0,
5,
5,
5,
5,
6,
6,
16,
16,
16,
16,
12,
12,
10,
10,
4,
4,
3,
3,
11,
22,
21,
21,
25,
10,
10,
10,
2,
2,
8,
8,
14,
2,
3,
35,
33,
33,
34,
3,
3,
14,
13,
13,
17,
17,
20,
20,
20,
20,
12,
12,
8,
8,
7,
7,
2,
22,
22,
22,
25,
14,
15,
15,
14,
14,
9,
9,
1,
1,
8,
19,
18,
18,
18,
18,
13,
13,
9,
9,
3,
3,
7,
7,
5,
5,
13,
13,
18,
18,
16,
16,
12,
1,
1,
1,
9,
9,
3,
3,
11,
11,
5,
5,
0,
0,
2,
2,
5,
5,
5,
5,
3,
3,
-1,
-1,
1,
1,
-1,
-1,
2,
2,
2,
2,
9,
9,
12,
12,
6,
6,
0,
0,
7,
35,
34,
51,
49,
19,
19,
2,
7,
7,
11,
11,
13,
13,
11,
11,
10,
10,
5,
5,
3,
3,
10,
10,
13,
13,
11,
11,
10,
10,
12,
12,
3,
3,
6,
19,
18,
18,
24,
24,
25,
37,
37,
37,
36,
8,
9,
9,
12,
25,
24,
24,
30,
18,
19,
6,
7,
7,
7,
7,
6,
6,
10,
10,
13,
13,
15,
1,
3,
19,
19,
19,
24,
24,
15,
15,
6,
6,
1,
1,
5,
18,
18,
30,
25,
25,
18,
18,
25,
10,
10,
10,
12,
27,
26,
26,
24,
24,
21,
21,
18,
18,
14,
14,
5,
5,
2,
2,
3,
3,
2,
2,
5,
5,
1,
1,
-1,
-1,
3,
3,
3,
3,
2,
2,
9,
20,
20,
32,
31,
14,
15,
1,
2,
2,
5,
5,
4,
4,
8,
8,
10,
10,
4,
4,
1,
1,
2,
2,
4,
4,
8,
8,
16,
16,
7,
7,
1,
1,
2,
2,
6,
20,
20,
31,
31,
17,
18,
5,
20,
39,
38,
17,
17,
2,
7,
7,
7,
7,
3,
3,
1,
1,
2,
2,
6,
6,
10,
10,
7,
7,
1,
1,
0,
0,
3,
3,
7,
7,
9,
9,
11,
11,
7,
7,
5,
5,
14,
14,
12,
12,
6,
6,
5,
5,
2,
2,
11,
11,
16,
16,
21,
21,
16,
4,
5,
5,
5,
5,
1,
1,
9,
9,
6,
6,
3,
3,
-1,
-1,
5,
5,
1,
1,
3,
21,
21,
38,
37,
20,
20,
2,
4,
4,
2,
2,
5,
22,
22,
22,
28,
7,
7,
7,
4,
4,
12,
12,
16,
16,
15,
15,
8,
8,
7,
7,
12,
12,
6,
6,
2,
2,
0,
0,
0,
0,
1,
1,
2,
2,
1,
1,
2,
2,
5,
17,
16,
16,
6,
6,
8,
8,
11,
11,
12,
12,
21,
21,
15,
1,
2,
2,
2,
2,
10,
10,
13,
0,
0,
0,
1,
1,
7,
7,
5,
5,
3,
3,
2,
2,
5,
5,
6,
6,
2,
2,
2,
2,
1,
1,
-1,
-1,
0,
0,
1,
1,
0,
0,
1,
1,
2,
2,
2,
2,
1,
1,
2,
13,
12,
12,
18,
18,
13,
1,
1,
16,
15,
15,
13,
1,
2,
13,
12,
12,
10,
10,
5,
5,
5,
5,
5,
5,
1,
1,
4,
4,
8,
8,
6,
6,
6,
6,
4,
4,
3,
3,
3,
3,
0,
0,
-1,
-1,
4,
4,
6,
6,
2,
2,
0,
0,
1,
1,
3,
3,
0,
0,
6,
6,
13,
13,
10,
10,
6,
6,
5,
5,
2,
2,
1,
1,
2,
2,
-1,
-1,
4,
4,
10,
10,
14,
14,
9,
9,
7,
7,
2,
2,
0,
11,
11,
28,
28,
28,
20,
1,
1,
1,
9,
9,
12,
12,
8,
8,
8,
8,
2,
15,
14,
14,
22,
22,
14,
2,
3,
3,
1,
1,
2,
2,
0,
0,
3,
3,
2,
2,
2,
2,
9,
9,
14,
14,
18,
18,
19,
19,
14,
14,
7,
7,
2,
17,
17,
17,
21,
21,
14,
14,
8,
8,
14,
14,
20,
6,
6,
6,
0,
0,
5,
5,
2,
2,
10,
25,
24,
24,
30,
19,
19,
1,
2,
2,
6,
6,
8,
20,
20,
20,
13,
2,
4,
4,
-1,
-1,
8,
8,
6,
6,
0,
0,
3,
3,
4,
4,
1,
1,
2,
2,
1,
1,
2,
2,
1,
1,
7,
7,
12,
12,
6,
6,
1,
1,
5,
5,
8,
8,
2,
2,
5,
5,
12,
12,
16,
16,
10,
-1,
1,
1,
5,
5,
5,
18,
18,
6,
7,
7,
0,
0,
5,
5,
8,
8,
7,
7,
1,
1,
9,
9,
6,
6,
2,
2,
0,
0,
3,
3,
2,
2,
4,
4,
9,
9,
12,
12,
8,
8,
6,
6,
5,
5,
1,
1,
8,
8,
7,
7,
7,
7,
9,
9,
1,
1,
6,
6,
9,
9,
5,
5,
14,
14,
16,
2,
2,
2,
6,
6,
8,
8,
8,
8,
8,
8,
2,
2,
6,
6,
15,
15,
16,
16,
18,
18,
10,
10,
2,
2,
7,
7,
12,
12,
16,
16,
24,
24,
18,
1,
3,
3,
8,
8,
6,
6,
1,
1,
6,
6,
8,
8,
2,
2,
0,
0,
0,
0,
2,
2,
1,
1,
9,
9,
11,
11,
12,
12,
7,
7,
6,
6,
14,
14,
5,
5,
11,
11,
10,
10,
1,
1,
9,
9,
18,
18,
18,
18,
14,
1,
4,
15,
13,
13,
5,
5,
2,
2,
2,
2,
2,
2,
1,
1,
2,
2,
6,
6,
10,
10,
4,
4,
1,
1,
3,
3,
7,
7,
7,
7,
2,
2,
0,
0,
1,
1,
5,
5,
10,
10,
11,
11,
11,
11,
6,
6,
10,
10,
2,
2,
3,
3,
2,
2,
0,
0,
0,
0,
6,
6,
4,
4,
6,
6,
9,
9,
10,
10,
3,
3,
12,
12,
4,
4,
4,
4,
2,
2,
0,
0,
-1,
11,
11,
11,
18,
3,
3,
3,
8,
8,
4,
4,
7,
7,
11,
11,
2,
2,
12,
12,
13,
13,
10,
10,
11,
11,
10,
10,
8,
8,
10,
10,
6,
6,
5,
20,
19,
19,
20,
20,
19,
19,
29,
18,
18,
1,
2,
2,
12,
12,
13,
13,
8,
8,
8,
8,
10,
10,
9,
9,
2,
2,
7,
7,
9,
9,
5,
16,
16,
16,
21,
21,
20,
20,
19,
8,
9,
9,
7,
7,
14,
14,
5,
5,
4,
4,
4,
4,
1,
1,
10,
10,
17,
17,
25,
5,
7,
31,
30,
8,
8,
8,
11,
11,
11,
11,
3,
3,
11,
11,
1,
1,
5,
5,
6,
6,
8,
8,
8,
8,
3,
3,
2,
2,
6,
6,
6,
6,
8,
8,
10,
10,
9,
9,
5,
5,
4,
4,
5,
5,
4,
4,
1,
1,
10,
10,
11,
0,
1,
1,
7,
7,
6,
6,
8,
8,
3,
3,
3,
3,
3,
3,
12,
1,
5,
20,
19,
19,
14,
14,
8,
8,
7,
7,
2,
2,
2,
2,
6,
6,
5,
5,
2,
2,
0,
12,
11,
29,
29,
29,
23,
5,
6,
6,
0,
0,
-1,
-1,
-1,
-1,
6,
17,
16,
16,
12,
12,
3,
3,
-1,
-1,
-1,
-1,
-1,
10,
10,
23,
23,
23,
20,
9,
10,
10,
8,
19,
17,
17,
12,
12,
6,
6,
12,
12,
9,
9,
1,
1,
2,
2,
1,
1,
2,
2,
7,
7,
14,
14,
16,
16,
8,
8,
2,
2,
2,
2,
8,
8,
9,
9,
9,
9,
4,
4,
8,
8,
1,
1,
8,
8,
13,
13,
10,
10,
2,
2,
6,
6,
12,
12,
15,
26,
25,
25,
18,
2,
3,
3,
6,
6,
5,
5,
8,
8,
14,
14,
10,
10,
13,
13,
15,
15,
8,
8,
3,
3,
0,
0,
6,
6,
13,
13,
9,
9,
7,
7,
2,
2,
5,
5,
6,
23,
21,
21,
14,
1,
2,
2,
6,
6,
7,
7,
10,
10,
10,
10,
6,
20,
19,
5,
6,
6,
3,
3,
5,
5,
5,
5,
5,
5,
6,
6,
0,
0,
4,
4,
1,
1,
2,
2,
1,
1,
3,
3,
2,
2,
4,
4,
1,
1,
6,
6,
12,
12,
4,
4,
2,
2,
5,
5,
11,
11,
6,
6,
10,
31,
30,
51,
50,
31,
31,
2,
3,
15,
14,
28,
27,
27,
26,
26,
21,
21,
20,
20,
20,
20,
15,
15,
10,
10,
3,
3,
3,
3,
7,
7,
9,
9,
12,
12,
11,
11,
9,
9,
12,
12,
13,
13,
7,
7,
3,
3,
6,
6,
6,
6,
1,
1,
4,
4,
0,
0,
0,
0,
-1,
-1,
1,
1,
2,
2,
3,
14,
14,
14,
12,
1,
6,
6,
5,
5,
5,
5,
3,
3,
3,
3,
7,
7,
6,
25,
24,
13,
14,
0,
1,
1,
6,
6,
14,
1,
2,
19,
19,
32,
30,
30,
29,
29,
22,
22,
13,
13,
8,
8,
2,
2,
10,
10,
20,
20,
25,
25,
21,
5,
5,
20,
20,
33,
30,
4,
5,
17,
17,
17,
24,
24,
19,
19,
15,
4,
5,
5,
7,
7,
6,
6,
2,
2,
6,
6,
6,
6,
0,
0,
9,
9,
6,
6,
6,
6,
15,
15,
22,
8,
9,
9,
1,
1,
4,
4,
7,
7,
10,
10,
6,
6,
6,
6,
10,
10,
10,
10,
8,
8,
4,
4,
1,
12,
12,
12,
18,
18,
13,
13,
6,
6,
0,
0,
5,
5,
9,
9,
5,
5,
1,
1,
4,
4,
8,
8,
12,
1,
3,
3,
8,
8,
8,
8,
2,
2,
3,
3,
3,
19,
18,
18,
17,
5,
6,
6,
5,
5,
4,
4,
2,
2,
10,
10,
2,
14,
14,
25,
25,
25,
25,
25,
23,
23,
14,
14,
7,
7,
4,
25,
25,
25,
21,
6,
6,
6,
10,
10,
13,
2,
2,
2,
0,
22,
22,
48,
48,
35,
36,
4,
5,
5,
14,
14,
20,
20,
22,
22,
27,
27,
25,
25,
23,
23,
26,
26,
23,
12,
12,
1,
4,
4,
13,
13,
14,
14,
14,
14,
14,
14,
14,
14,
10,
10,
6,
6,
6,
6,
5,
5,
0,
12,
12,
12,
21,
21,
18,
1,
2,
2,
10,
10,
9,
9,
12,
12,
12,
12,
13,
13,
14,
14,
16,
3,
3,
3,
10,
10,
14,
14,
8,
8,
6,
6,
4,
4,
4,
4,
2,
2,
2,
2,
8,
8,
8,
8,
10,
10,
11,
11,
5,
5,
11,
11,
2,
2,
1,
14,
14,
14,
16,
1,
3,
3,
6,
6,
8,
8,
10,
10,
1,
1,
6,
6,
10,
10,
12,
12,
5,
5,
2,
2,
5,
5,
7,
7,
6,
6,
6,
6,
5,
5,
1,
1,
1,
1,
6,
6,
9,
9,
17,
5,
5,
31,
31,
31,
28,
9,
9,
9,
6,
6,
13,
13,
11,
11,
10,
10,
17,
17,
13,
13,
10,
10,
3,
26,
25,
25,
30,
30,
30,
30,
30,
30,
22,
22,
15,
15,
10,
10,
1,
1,
10,
10,
12,
12,
14,
14,
19,
19,
16,
16,
6,
6,
1,
1,
2,
2,
5,
18,
17,
17,
21,
1,
4,
4,
9,
9,
10,
10,
5,
5,
1,
1,
1,
1,
2,
2,
1,
1,
6,
6,
0,
0,
1,
1,
1,
1,
7,
7,
12,
12,
6,
6,
0,
0,
7,
7,
11,
11,
6,
6,
2,
2,
1,
1,
1,
1,
-1,
-1,
4,
4,
10,
10,
14,
3,
4,
29,
28,
16,
17,
5,
6,
6,
12,
12,
6,
6,
5,
5,
7,
7,
8,
8,
1,
25,
24,
24,
23,
9,
10,
10,
8,
8,
13,
13,
9,
9,
2,
17,
16,
16,
17,
1,
1,
1,
10,
10,
13,
2,
2,
20,
20,
35,
34,
34,
30,
14,
15,
15,
9,
9,
5,
17,
17,
17,
20,
20,
19,
19,
22,
22,
21,
21,
13,
1,
4,
4,
12,
12,
11,
11,
10,
10,
9,
9,
13,
13,
14,
3,
4,
4,
3,
3,
2,
2,
9,
9,
6,
6,
4,
4,
10,
10,
9,
9,
5,
5,
2,
2,
6,
6,
3,
3,
3,
3,
4,
4,
2,
2,
4,
4,
9,
9,
2,
2,
7,
7,
5,
5,
5,
5,
5,
5,
1,
1,
4,
4,
6,
6,
10,
10,
5,
5,
7,
7,
9,
9,
5,
5,
2,
2,
11,
23,
22,
22,
18,
2,
5,
16,
15,
15,
17,
17,
14,
14,
6,
6,
1,
1,
5,
5,
1,
1,
0,
0,
1,
1,
1,
1,
4,
4,
-1,
-1,
1,
1,
0,
0,
5,
5,
7,
7,
1,
1,
-1,
-1,
2,
2,
7,
7,
9,
9,
3,
18,
18,
18,
11,
0,
3,
3,
6,
6,
9,
9,
14,
14,
6,
6,
1,
1,
9,
9,
2,
2,
1,
1,
5,
5,
9,
9,
17,
17,
15,
15,
20,
20,
13,
1,
2,
13,
12,
46,
46,
46,
41,
15,
16,
1,
4,
21,
20,
20,
26,
4,
4,
18,
18,
7,
8,
8,
2,
2,
4,
4,
2,
2,
7,
7,
8,
8,
3,
3,
4,
4,
4,
4,
0,
0,
8,
8,
13,
13,
16,
16,
16,
16,
8,
8,
2,
2,
8,
8,
6,
6,
8,
8,
3,
3,
-1,
-1,
-1,
-1,
6,
6,
10,
10,
17,
17,
8,
8,
12,
12,
21,
21,
16,
16,
10,
10,
9,
9,
12,
12,
7,
7,
5,
19,
17,
17,
16,
16,
11,
11,
9,
9,
3,
3,
2,
2,
4,
4,
10,
10,
22,
22,
21,
21,
16,
16,
7,
7,
0,
0,
4,
4,
11,
11,
17,
17,
7,
7,
4,
4,
3,
3,
2,
2,
0,
0,
2,
2,
8,
8,
5,
5,
2,
2,
6,
6,
2,
2,
0,
0,
2,
2,
6,
6,
2,
2,
1,
1,
2,
2,
4,
4,
5,
5,
5,
5,
5,
5,
6,
6,
5,
5,
8,
8,
2,
2,
10,
10,
14,
14,
14,
14,
10,
10,
8,
8,
5,
5,
3,
3,
9,
21,
20,
20,
10,
10,
7,
7,
0,
0,
6,
6,
5,
5,
0,
0,
2,
2,
3,
3,
9,
9,
2,
17,
16,
29,
29,
18,
18,
2,
6,
6,
11,
11,
6,
6,
6,
6,
13,
1,
6,
18,
16,
16,
9,
9,
2,
2,
7,
7,
10,
32,
32,
21,
22,
4,
5,
5,
4,
4,
12,
12,
14,
14,
6,
6,
0,
0,
4,
4,
6,
6,
6,
6,
4,
4,
5,
5,
14,
14,
12,
12,
6,
6,
3,
3,
4,
4,
11,
11,
2,
2,
9,
9,
10,
10,
6,
6,
5,
5,
4,
4,
5,
5,
3,
3,
2,
17,
17,
17,
17,
6,
6,
6,
12,
12,
10,
10,
4,
4,
12,
12,
9,
9,
10,
10,
14,
14,
15,
15,
10,
10,
8,
8,
6,
6,
9,
23,
22,
22,
16,
16,
7,
7,
1,
1,
5,
5,
13,
13,
6,
6,
10,
21,
20,
20,
13,
1,
2,
2,
2,
2,
1,
1,
5,
5,
2,
2,
2,
2,
0,
0,
-1,
-1,
1,
1,
0,
0,
0,
0,
1,
1,
6,
6,
9,
9,
1,
1,
8,
8,
8,
8,
6,
6,
14,
2,
2,
2,
2,
2,
4,
26,
25,
25,
20,
6,
8,
8,
2,
2,
2,
2,
10,
10,
2,
14,
14,
14,
21,
21,
12,
1,
3,
3,
10,
10,
10,
10,
6,
6,
4,
4,
14,
14,
17,
5,
6,
6,
5,
5,
12,
12,
13,
13,
10,
10,
5,
5,
0,
0,
7,
7,
9,
9,
4,
4,
1,
1,
1,
1,
0,
0,
-1,
-1,
0,
0,
4,
4,
0,
0,
8,
8,
11,
11,
9,
9,
5,
5,
1,
1,
6,
6,
6,
6,
0,
0,
0,
0,
2,
2,
1,
1,
-1,
-1,
3,
3,
4,
4,
0,
0,
1,
1,
1,
1,
2,
2,
1,
1,
7,
7,
16,
5,
5,
27,
27,
40,
38,
27,
27,
6,
6,
6,
7,
7,
16,
16,
12,
12,
11,
11,
21,
21,
28,
14,
14,
14,
22,
36,
32,
9,
10,
-1,
1,
1,
3,
3,
7,
7,
6,
6,
3,
3,
4,
4,
10,
10,
12,
12,
14,
14,
12,
12,
11,
11,
15,
15,
7,
7,
4,
17,
17,
17,
26,
26,
21,
21,
15,
15,
6,
6,
2,
2,
-1,
-1,
8,
8,
9,
9,
6,
6,
2,
14,
14,
14,
12,
12,
10,
21,
20,
20,
16,
16,
9,
9,
7,
7,
7,
7,
2,
2,
0,
0,
1,
1,
1,
1,
5,
5,
6,
6,
2,
2,
-1,
-1,
1,
1,
-1,
-1,
2,
2,
10,
10,
12,
12,
7,
7,
5,
5,
11,
0,
1,
1,
7,
7,
2,
2,
9,
9,
18,
18,
10,
10,
2,
2,
1,
1,
0,
0,
0,
0,
1,
1,
1,
1,
4,
4,
1,
13,
12,
12,
15,
15,
6,
6,
1,
1,
-1,
-1,
2,
2,
10,
10,
9,
9,
1,
1,
7,
7,
3,
3,
1,
1,
5,
5,
6,
6,
6,
6,
7,
7,
2,
18,
18,
33,
32,
32,
27,
5,
5,
5,
0,
0,
2,
2,
5,
5,
7,
7,
9,
9,
10,
10,
10,
10,
3,
3,
4,
4,
8,
8,
5,
5,
0,
0,
8,
8,
17,
17,
16,
16,
10,
10,
2,
2,
1,
1,
6,
6,
14,
14,
15,
2,
6,
6,
13,
13,
23,
8,
8,
8,
7,
7,
13,
13,
11,
11,
6,
6,
12,
12,
5,
5,
9,
9,
13,
13,
8,
8,
2,
2,
3,
3,
6,
6,
3,
3,
2,
2,
7,
7,
12,
12,
8,
8,
3,
3,
-1,
-1,
-1,
-1,
4,
4,
6,
6,
4,
4,
3,
3,
3,
3,
1,
1,
3,
3,
6,
6,
5,
5,
1,
1,
2,
2,
3,
3,
5,
5,
2,
2,
1,
1,
2,
2,
0,
0,
1,
1,
2,
2,
3,
3,
5,
5,
10,
10,
5,
5,
3,
3,
2,
2,
2,
2,
8,
19,
18,
18,
16,
16,
10,
10,
3,
3,
0,
0,
3,
3,
6,
6,
9,
22,
21,
32,
32,
32,
31,
8,
9,
9,
4,
4,
2,
2,
7,
7,
5,
5,
14,
14,
14,
14,
14,
14,
6,
6,
3,
3,
3,
3,
2,
2,
6,
6,
3,
3,
3,
3,
5,
5,
8,
8,
13,
13,
18,
31,
30,
30,
31,
4,
4,
21,
20,
20,
26,
26,
25,
13,
14,
14,
6,
6,
5,
16,
15,
15,
22,
10,
10,
10,
1,
1,
6,
19,
18,
18,
20,
20,
13,
0,
2,
2,
4,
4,
5,
5,
4,
4,
3,
3,
1,
1,
2,
2,
5,
5,
14,
14,
18,
18,
13,
13,
5,
5,
1,
1,
1,
1,
1,
1,
4,
4,
6,
6,
12,
12,
16,
16,
17,
17,
11,
11,
9,
9,
13,
1,
2,
2,
2,
14,
13,
13,
18,
18,
13,
13,
13,
2,
2,
2,
10,
10,
3,
3,
1,
1,
6,
6,
10,
10,
9,
9,
12,
12,
14,
14,
13,
13,
7,
7,
4,
4,
10,
10,
14,
14,
20,
20,
16,
5,
6,
6,
1,
1,
2,
2,
6,
6,
11,
11,
1,
1,
3,
3,
0,
0,
2,
2,
0,
0,
3,
3,
11,
11,
2,
2,
11,
11,
9,
9,
3,
3,
6,
6,
0,
0,
8,
8,
10,
10,
4,
4,
2,
2,
8,
8,
13,
13,
12,
12,
6,
6,
3,
3,
4,
4,
8,
8,
8,
8,
2,
2,
1,
1,
5,
5,
6,
6,
1,
18,
17,
33,
32,
18,
19,
1,
2,
13,
13,
13,
16,
16,
17,
17,
13,
1,
2,
15,
15,
15,
12,
12,
9,
9,
5,
5,
2,
2,
0,
0,
2,
2,
7,
7,
10,
10,
14,
14,
13,
13,
8,
8,
4,
4,
7,
7,
5,
5,
3,
3,
3,
3,
5,
5,
9,
9,
9,
9,
3,
3,
2,
2,
6,
6,
10,
10,
6,
6,
2,
2,
11,
11,
16,
5,
5,
5,
4,
4,
0,
0,
5,
5,
6,
6,
6,
6,
2,
2,
0,
0,
5,
5,
6,
6,
6,
6,
6,
6,
3,
3,
0,
0,
6,
6,
12,
12,
11,
11,
2,
2,
9,
20,
19,
19,
22,
22,
13,
2,
2,
2,
4,
4,
8,
8,
11,
11,
10,
10,
2,
2,
-1,
-1,
1,
1,
3,
3,
6,
6,
7,
7,
1,
13,
13,
13,
12,
12,
10,
10,
14,
14,
8,
8,
0,
0,
3,
3,
4,
4,
8,
8,
9,
9,
9,
9,
6,
6,
1,
12,
12,
12,
21,
21,
16,
16,
8,
8,
2,
13,
13,
29,
28,
28,
31,
16,
18,
2,
3,
28,
28,
28,
30,
14,
0,
0,
1,
1,
1,
1,
3,
3,
1,
1,
5,
5,
1,
1,
8,
8,
2,
2,
5,
18,
18,
3,
4,
22,
22,
22,
14,
1,
4,
4,
8,
8,
7,
7,
0,
0,
3,
3,
8,
8,
7,
7,
6,
6,
4,
4,
10,
25,
25,
25,
27,
16,
17,
2,
3,
3,
8,
20,
20,
20,
24,
24,
14,
14,
10,
10,
5,
5,
4,
4,
9,
9,
10,
10,
20,
20,
24,
10,
10,
10,
4,
4,
2,
2,
6,
6,
9,
9,
8,
8,
2,
2,
5,
5,
2,
2,
2,
2,
6,
6,
7,
7,
6,
6,
5,
5,
4,
4,
3,
3,
4,
4,
11,
11,
14,
14,
6,
6,
0,
0,
5,
5,
8,
23,
22,
22,
16,
3,
3,
3,
2,
2,
10,
10,
13,
13,
10,
10,
8,
8,
7,
7,
9,
9,
7,
7,
4,
4,
3,
3,
1,
13,
13,
13,
18,
18,
11,
11,
10,
10,
5,
5,
12,
25,
25,
13,
13,
2,
7,
7,
10,
10,
10,
10,
16,
16,
15,
15,
14,
14,
17,
17,
11,
11,
2,
2,
1,
1,
3,
3,
2,
2,
1,
1,
1,
13,
13,
29,
29,
43,
42,
20,
20,
2,
4,
4,
10,
10,
18,
7,
8,
8,
10,
27,
27,
27,
33,
33,
23,
23,
21,
4,
5,
23,
23,
23,
23,
10,
10,
10,
6,
6,
14,
14,
18,
18,
12,
1,
4,
4,
4,
4,
4,
4,
12,
27,
27,
27,
21,
1,
2,
2,
10,
10,
8,
8,
0,
0,
1,
1,
2,
2,
4,
4,
6,
6,
2,
2,
5,
5,
13,
2,
4,
4,
14,
38,
38,
38,
33,
13,
13,
13,
5,
5,
1,
1,
0,
0,
4,
4,
14,
27,
26,
26,
34,
34,
30,
17,
18,
18,
10,
10,
3,
3,
0,
0,
5,
5,
11,
11,
19,
19,
26,
26,
21,
5,
5,
5,
1,
1,
2,
2,
7,
7,
6,
6,
6,
29,
29,
29,
34,
34,
28,
12,
12,
1,
4,
4,
5,
5,
14,
31,
31,
31,
33,
33,
28,
28,
25,
25,
18,
6,
6,
6,
0,
0,
3,
14,
13,
13,
18,
18,
20,
20,
16,
16,
11,
11,
4,
4,
0,
0,
1,
1,
-1,
-1,
3,
3,
6,
17,
17,
1,
3,
15,
15,
15,
15,
2,
10,
10,
14,
0,
1,
12,
12,
24,
23,
23,
23,
7,
8,
8,
0,
19,
17,
17,
26,
26,
25,
25,
16,
4,
4,
4,
0,
0,
5,
5,
9,
9,
11,
11,
7,
7,
13,
2,
3,
3,
-1,
-1,
5,
5,
10,
10,
3,
3,
13,
13,
22,
22,
21,
21,
14,
1,
2,
2,
7,
7,
7,
7,
6,
6,
3,
3,
2,
2,
4,
4,
-1,
-1,
1,
1,
2,
2,
4,
4,
1,
1,
3,
3,
4,
4,
2,
2,
3,
3,
1,
1,
2,
15,
15,
15,
16,
1,
2,
2,
2,
2,
4,
4,
2,
2,
2,
2,
2,
2,
0,
0,
6,
6,
7,
7,
6,
6,
3,
3,
1,
1,
3,
3,
4,
4,
2,
2,
1,
1,
9,
9,
3,
21,
20,
20,
22,
6,
6,
6,
1,
1,
0,
0,
6,
6,
8,
8,
9,
9,
2,
2,
1,
1,
1,
1,
-1,
-1,
2,
2,
1,
1,
3,
3,
6,
6,
1,
1,
9,
9,
12,
12,
12,
12,
5,
5,
1,
1,
0,
0,
2,
2,
9,
9,
2,
2,
1,
1,
6,
6,
9,
9,
7,
22,
21,
8,
9,
9,
5,
5,
0,
0,
1,
1,
6,
6,
