EMG_S3/DS0043.CSV

Memory Length,4000,
Trigger Level,-4.80000e+02,
Source,CH1,
Probe,1.0X,
Vertical Units,V,
Vertical Scale,1.00000e+00,
Vertical Position,0.00000e+00,
Horizontal Units,S,
Horizontal Scale,1.00000e-01,
Horizontal Position,0.0000000e+00,
Horizontal Mode,Roll Mode,
Waveform Last Dot Address,4000,
Sampling Period,4.00000e-04,
Firmware,V1.14,
Time, ,
Mode,Fast,
Waveform Data,
0,
16,
16,
35,
34,
34,
26,
11,
0,
0,
2,
13,
13,
13,
20,
20,
20,
9,
10,
10,
2,
2,
2,
2,
8,
8,
1,
1,
10,
10,
16,
16,
12,
0,
2,
2,
5,
5,
0,
0,
4,
4,
1,
1,
2,
18,
18,
18,
14,
1,
2,
2,
2,
2,
3,
3,
3,
3,
2,
2,
9,
9,
11,
11,
8,
8,
3,
3,
1,
1,
1,
1,
2,
2,
2,
2,
1,
1,
2,
2,
2,
2,
0,
0,
5,
16,
14,
14,
14,
14,
4,
4,
1,
1,
1,
1,
0,
0,
1,
1,
4,
4,
0,
0,
1,
1,
0,
0,
0,
0,
5,
5,
4,
4,
2,
2,
6,
6,
9,
9,
7,
24,
24,
24,
18,
18,
9,
9,
3,
3,
9,
9,
12,
1,
1,
12,
11,
11,
9,
9,
2,
2,
7,
7,
4,
4,
4,
4,
7,
7,
8,
8,
5,
5,
5,
5,
3,
3,
6,
29,
28,
28,
25,
6,
7,
7,
1,
1,
8,
8,
9,
9,
1,
1,
1,
1,
0,
0,
0,
0,
6,
6,
9,
9,
8,
8,
0,
0,
3,
3,
0,
0,
2,
2,
11,
23,
22,
22,
18,
1,
3,
14,
14,
14,
5,
28,
27,
54,
53,
18,
19,
4,
10,
21,
20,
20,
24,
24,
22,
22,
20,
20,
21,
21,
22,
22,
14,
1,
2,
2,
8,
8,
10,
10,
15,
15,
15,
15,
12,
1,
2,
2,
6,
6,
4,
4,
2,
28,
28,
28,
30,
7,
8,
8,
3,
3,
9,
9,
9,
9,
5,
5,
1,
1,
4,
4,
2,
2,
1,
13,
13,
13,
9,
9,
0,
0,
-1,
-1,
5,
5,
12,
12,
15,
15,
9,
9,
2,
2,
12,
23,
23,
23,
31,
31,
26,
8,
9,
9,
6,
6,
10,
10,
12,
12,
8,
8,
5,
5,
5,
5,
-1,
-1,
0,
0,
2,
2,
5,
5,
6,
6,
5,
5,
1,
1,
2,
2,
7,
7,
10,
10,
5,
5,
7,
7,
8,
8,
1,
1,
2,
2,
6,
6,
1,
12,
12,
12,
5,
5,
12,
12,
15,
15,
12,
0,
1,
1,
7,
7,
14,
14,
12,
12,
7,
7,
5,
5,
4,
4,
6,
6,
4,
4,
6,
6,
1,
1,
10,
10,
18,
6,
6,
6,
4,
4,
7,
25,
25,
25,
18,
1,
2,
2,
8,
8,
12,
27,
26,
15,
16,
5,
22,
22,
17,
4,
4,
4,
2,
2,
4,
4,
0,
0,
2,
2,
3,
3,
6,
6,
12,
12,
12,
12,
7,
21,
20,
35,
33,
14,
14,
0,
0,
0,
4,
4,
12,
12,
9,
9,
5,
5,
5,
5,
2,
14,
13,
24,
22,
10,
10,
10,
3,
3,
5,
5,
8,
8,
10,
10,
15,
15,
9,
9,
5,
5,
0,
0,
7,
7,
4,
20,
19,
32,
31,
31,
26,
10,
10,
10,
2,
2,
11,
11,
17,
17,
16,
16,
10,
10,
6,
6,
8,
8,
7,
7,
2,
2,
1,
1,
1,
1,
4,
4,
8,
8,
12,
12,
8,
8,
6,
6,
10,
10,
13,
2,
3,
3,
3,
3,
5,
5,
3,
3,
2,
2,
6,
6,
11,
11,
4,
4,
6,
6,
4,
4,
2,
2,
2,
2,
2,
2,
1,
1,
4,
4,
5,
5,
2,
2,
2,
2,
10,
10,
18,
18,
17,
17,
8,
8,
2,
2,
8,
8,
4,
4,
6,
6,
6,
6,
2,
2,
0,
0,
0,
0,
0,
0,
6,
6,
9,
9,
1,
1,
9,
9,
4,
4,
0,
0,
4,
4,
8,
8,
2,
2,
5,
5,
1,
1,
0,
11,
11,
11,
20,
20,
13,
0,
2,
2,
1,
1,
5,
5,
13,
13,
12,
0,
1,
1,
2,
2,
1,
1,
7,
7,
9,
9,
11,
11,
8,
8,
2,
2,
6,
6,
6,
6,
7,
7,
9,
9,
5,
5,
0,
0,
2,
2,
4,
4,
2,
2,
4,
4,
14,
14,
21,
21,
18,
1,
3,
3,
13,
13,
9,
9,
3,
3,
3,
15,
15,
15,
21,
8,
8,
8,
4,
4,
14,
14,
22,
22,
20,
20,
13,
13,
5,
5,
2,
2,
2,
2,
0,
0,
5,
5,
7,
7,
8,
8,
6,
6,
4,
4,
11,
11,
12,
1,
2,
2,
12,
12,
9,
9,
14,
14,
22,
6,
6,
6,
8,
8,
15,
15,
10,
10,
10,
10,
12,
0,
2,
2,
0,
0,
0,
11,
10,
10,
17,
17,
10,
10,
2,
2,
4,
4,
7,
7,
6,
6,
2,
2,
2,
2,
1,
1,
0,
0,
-1,
-1,
4,
4,
3,
3,
-1,
-1,
-1,
-1,
4,
4,
13,
1,
2,
21,
20,
36,
36,
20,
20,
1,
2,
15,
15,
15,
16,
16,
10,
10,
6,
6,
9,
9,
2,
2,
2,
2,
3,
3,
2,
2,
8,
8,
6,
6,
3,
3,
2,
2,
1,
1,
7,
7,
6,
6,
4,
4,
1,
1,
2,
2,
8,
8,
12,
12,
12,
12,
9,
9,
1,
1,
8,
8,
3,
3,
12,
12,
7,
7,
8,
8,
16,
16,
15,
15,
10,
10,
4,
4,
0,
0,
-1,
-1,
5,
5,
9,
9,
6,
6,
9,
9,
7,
7,
3,
3,
5,
5,
6,
6,
5,
5,
1,
1,
9,
9,
6,
6,
2,
2,
4,
4,
6,
6,
7,
7,
3,
3,
2,
2,
3,
3,
1,
1,
11,
11,
11,
11,
6,
6,
2,
2,
1,
1,
-1,
-1,
2,
2,
3,
3,
1,
1,
5,
5,
5,
5,
9,
9,
14,
14,
10,
10,
3,
3,
6,
6,
13,
13,
20,
20,
15,
3,
4,
4,
3,
3,
0,
0,
0,
0,
1,
1,
2,
2,
6,
6,
2,
2,
0,
0,
7,
25,
24,
24,
23,
23,
17,
17,
13,
1,
2,
15,
14,
14,
18,
7,
8,
8,
1,
1,
2,
2,
5,
5,
7,
7,
12,
12,
15,
15,
14,
3,
16,
49,
49,
33,
33,
7,
8,
8,
1,
1,
2,
2,
7,
7,
14,
14,
16,
16,
11,
11,
7,
7,
4,
4,
6,
6,
3,
3,
5,
5,
6,
6,
12,
25,
25,
25,
33,
16,
17,
1,
2,
2,
9,
9,
13,
13,
18,
18,
18,
18,
14,
1,
2,
2,
1,
1,
2,
2,
0,
0,
3,
3,
0,
0,
-1,
11,
10,
24,
24,
24,
20,
6,
6,
6,
0,
0,
5,
5,
12,
12,
11,
11,
10,
10,
2,
18,
18,
18,
21,
21,
1,
1,
1,
1,
6,
6,
9,
9,
14,
14,
14,
14,
5,
5,
1,
1,
0,
0,
1,
1,
0,
0,
6,
6,
8,
8,
8,
8,
10,
10,
8,
8,
6,
45,
45,
45,
42,
18,
18,
1,
3,
3,
6,
6,
10,
10,
12,
12,
9,
9,
5,
5,
-1,
-1,
1,
1,
2,
2,
-1,
-1,
1,
1,
2,
2,
2,
2,
4,
4,
6,
6,
6,
6,
0,
0,
1,
1,
1,
1,
7,
7,
8,
27,
27,
13,
14,
3,
6,
21,
20,
38,
36,
10,
10,
10,
1,
1,
5,
5,
12,
12,
8,
8,
0,
12,
11,
30,
30,
30,
27,
13,
14,
2,
3,
3,
6,
6,
6,
6,
1,
1,
-1,
-1,
5,
5,
8,
8,
6,
6,
6,
6,
12,
12,
12,
12,
10,
10,
10,
10,
12,
1,
2,
2,
2,
2,
4,
4,
10,
10,
14,
14,
8,
8,
6,
6,
8,
8,
6,
6,
1,
1,
2,
2,
9,
9,
10,
10,
7,
7,
3,
3,
-1,
-1,
1,
1,
2,
2,
1,
1,
0,
0,
-1,
-1,
0,
0,
3,
3,
10,
10,
12,
1,
1,
1,
5,
5,
10,
10,
13,
13,
9,
9,
5,
5,
0,
0,
3,
3,
1,
1,
2,
2,
3,
3,
0,
11,
10,
10,
5,
19,
18,
39,
38,
38,
31,
12,
13,
13,
15,
15,
10,
10,
8,
35,
34,
34,
42,
31,
31,
20,
20,
20,
11,
11,
5,
5,
2,
2,
7,
7,
4,
4,
2,
2,
9,
9,
14,
14,
9,
9,
1,
1,
10,
10,
18,
18,
9,
9,
0,
0,
1,
1,
2,
2,
0,
0,
2,
2,
2,
2,
2,
2,
5,
5,
8,
8,
3,
3,
0,
0,
-1,
-1,
0,
0,
4,
4,
2,
2,
0,
0,
1,
1,
1,
1,
10,
10,
17,
17,
12,
1,
8,
20,
20,
6,
6,
6,
16,
16,
19,
1,
2,
2,
1,
1,
10,
10,
3,
17,
16,
29,
28,
28,
21,
21,
15,
15,
7,
19,
19,
34,
33,
33,
30,
19,
19,
19,
9,
9,
3,
3,
11,
11,
13,
13,
10,
10,
10,
10,
10,
10,
8,
8,
4,
4,
4,
4,
8,
8,
5,
5,
3,
3,
3,
3,
4,
4,
4,
4,
6,
6,
6,
6,
3,
3,
0,
0,
0,
0,
-1,
-1,
2,
2,
2,
2,
-1,
-1,
0,
0,
1,
1,
0,
0,
1,
1,
2,
2,
4,
4,
0,
0,
1,
1,
2,
2,
2,
2,
5,
5,
3,
3,
12,
12,
13,
13,
5,
5,
9,
9,
13,
13,
9,
9,
6,
6,
2,
2,
4,
4,
7,
7,
1,
1,
0,
0,
0,
0,
-1,
-1,
2,
2,
5,
16,
16,
16,
14,
0,
1,
1,
2,
2,
5,
5,
9,
9,
12,
12,
12,
12,
13,
13,
10,
10,
5,
5,
0,
0,
2,
2,
1,
1,
2,
14,
14,
45,
44,
44,
43,
22,
22,
2,
6,
18,
17,
17,
21,
21,
30,
30,
29,
9,
9,
9,
13,
13,
12,
12,
4,
4,
0,
0,
4,
4,
7,
7,
12,
12,
6,
26,
26,
42,
41,
41,
32,
12,
13,
1,
6,
17,
17,
17,
22,
22,
25,
25,
21,
21,
14,
14,
6,
6,
0,
0,
6,
6,
5,
5,
1,
1,
3,
3,
1,
17,
16,
16,
19,
19,
10,
10,
8,
8,
12,
12,
10,
10,
10,
10,
6,
6,
7,
7,
12,
12,
9,
9,
15,
15,
21,
21,
16,
16,
8,
8,
4,
18,
18,
18,
20,
20,
21,
21,
1,
1,
4,
4,
0,
0,
7,
7,
14,
14,
14,
14,
9,
9,
0,
0,
4,
4,
2,
2,
0,
0,
1,
1,
0,
0,
0,
0,
0,
0,
0,
0,
1,
1,
3,
3,
1,
1,
5,
5,
8,
8,
4,
4,
2,
2,
7,
7,
4,
4,
0,
0,
4,
4,
6,
6,
5,
5,
6,
6,
12,
28,
27,
13,
14,
0,
5,
5,
12,
12,
13,
13,
12,
12,
8,
8,
6,
6,
2,
2,
1,
1,
2,
2,
2,
2,
1,
1,
0,
0,
3,
3,
5,
5,
4,
4,
8,
8,
17,
17,
13,
13,
5,
5,
1,
1,
10,
10,
9,
9,
9,
9,
18,
18,
18,
18,
13,
13,
8,
8,
2,
2,
5,
5,
13,
13,
16,
5,
6,
6,
1,
1,
2,
2,
1,
1,
2,
2,
2,
2,
1,
1,
5,
5,
5,
5,
6,
6,
6,
6,
2,
2,
-1,
-1,
4,
4,
7,
7,
8,
8,
17,
17,
16,
1,
2,
2,
6,
36,
34,
34,
28,
4,
9,
9,
17,
17,
24,
52,
50,
13,
14,
14,
14,
1,
2,
2,
3,
3,
0,
0,
-1,
-1,
3,
3,
5,
5,
2,
2,
3,
3,
8,
8,
8,
8,
6,
6,
10,
10,
10,
10,
7,
7,
6,
6,
5,
5,
2,
2,
9,
9,
14,
14,
14,
1,
2,
2,
6,
6,
7,
7,
2,
2,
1,
1,
6,
6,
6,
6,
6,
6,
1,
1,
8,
8,
11,
11,
7,
7,
4,
4,
2,
2,
0,
0,
2,
2,
-1,
-1,
1,
1,
2,
2,
4,
4,
1,
1,
9,
9,
14,
14,
13,
13,
6,
6,
0,
0,
2,
2,
3,
3,
4,
4,
2,
2,
2,
2,
2,
2,
2,
2,
5,
5,
4,
4,
5,
5,
0,
0,
-1,
-1,
4,
4,
8,
8,
6,
6,
0,
0,
4,
4,
9,
9,
10,
10,
2,
2,
1,
1,
1,
1,
0,
0,
-1,
-1,
2,
2,
2,
2,
2,
2,
1,
1,
7,
7,
16,
16,
12,
12,
3,
3,
3,
3,
10,
10,
6,
6,
10,
10,
14,
14,
11,
11,
5,
5,
0,
0,
5,
5,
10,
10,
8,
8,
5,
5,
0,
0,
5,
19,
18,
6,
7,
7,
14,
14,
21,
21,
13,
2,
2,
2,
7,
7,
8,
8,
10,
10,
14,
3,
4,
4,
3,
3,
7,
20,
19,
38,
37,
24,
24,
9,
9,
9,
3,
3,
13,
13,
14,
3,
4,
4,
2,
2,
2,
2,
5,
5,
5,
5,
2,
2,
9,
9,
8,
8,
4,
4,
8,
8,
13,
13,
7,
7,
10,
22,
22,
22,
18,
5,
6,
6,
0,
0,
10,
10,
9,
9,
4,
4,
14,
14,
17,
1,
2,
2,
2,
2,
2,
2,
0,
0,
1,
1,
0,
0,
1,
1,
3,
3,
3,
3,
2,
2,
3,
3,
3,
3,
4,
4,
4,
4,
-1,
-1,
6,
6,
6,
6,
7,
7,
9,
9,
8,
8,
3,
3,
1,
1,
8,
8,
7,
7,
0,
0,
1,
1,
2,
2,
5,
5,
6,
6,
1,
1,
1,
1,
-1,
-1,
2,
2,
3,
3,
2,
2,
0,
0,
0,
0,
1,
1,
0,
0,
2,
2,
6,
6,
1,
1,
2,
2,
2,
2,
0,
0,
2,
2,
5,
5,
3,
3,
0,
0,
5,
5,
10,
10,
9,
9,
6,
6,
1,
1,
6,
6,
6,
6,
5,
5,
1,
1,
7,
7,
10,
10,
2,
2,
7,
7,
10,
10,
10,
10,
5,
5,
0,
0,
0,
0,
-1,
-1,
2,
2,
6,
6,
11,
11,
10,
10,
4,
4,
5,
5,
5,
5,
0,
0,
3,
3,
2,
2,
1,
1,
2,
2,
1,
1,
5,
5,
7,
7,
4,
4,
6,
18,
18,
5,
5,
5,
0,
0,
6,
6,
7,
7,
1,
1,
9,
9,
10,
10,
8,
8,
0,
0,
6,
6,
1,
1,
5,
5,
8,
8,
10,
10,
13,
2,
2,
25,
25,
25,
30,
10,
11,
11,
3,
3,
1,
1,
2,
2,
3,
3,
3,
3,
5,
5,
1,
1,
6,
6,
0,
0,
0,
0,
4,
4,
12,
12,
15,
15,
7,
7,
1,
1,
10,
10,
7,
7,
2,
2,
8,
8,
2,
33,
33,
48,
46,
29,
30,
12,
12,
1,
8,
20,
20,
20,
27,
27,
30,
30,
25,
25,
22,
22,
21,
21,
13,
13,
7,
7,
2,
2,
3,
3,
11,
11,
19,
19,
18,
18,
16,
16,
17,
17,
20,
20,
24,
13,
13,
1,
2,
2,
5,
5,
1,
1,
8,
8,
13,
1,
2,
2,
3,
3,
-1,
-1,
1,
1,
2,
2,
6,
6,
5,
5,
4,
4,
1,
1,
1,
1,
3,
3,
3,
3,
1,
1,
1,
1,
0,
0,
1,
1,
2,
2,
2,
2,
1,
1,
1,
1,
2,
2,
6,
20,
19,
19,
14,
2,
2,
2,
3,
3,
3,
3,
2,
2,
2,
2,
0,
0,
0,
0,
2,
2,
1,
1,
5,
5,
2,
2,
3,
3,
1,
1,
0,
0,
5,
5,
7,
7,
2,
22,
22,
40,
39,
20,
21,
2,
5,
20,
20,
20,
26,
26,
21,
3,
3,
3,
3,
3,
7,
7,
9,
9,
2,
2,
2,
2,
7,
7,
12,
12,
18,
18,
23,
23,
15,
1,
2,
2,
10,
10,
12,
12,
15,
15,
15,
15,
6,
6,
8,
8,
13,
13,
6,
6,
3,
3,
3,
3,
2,
2,
-1,
-1,
0,
0,
0,
0,
1,
1,
3,
3,
6,
6,
6,
6,
1,
1,
2,
2,
8,
8,
2,
2,
3,
3,
2,
2,
5,
5,
1,
1,
4,
4,
1,
1,
9,
9,
4,
4,
2,
2,
0,
0,
8,
8,
2,
2,
2,
2,
3,
3,
1,
1,
8,
8,
10,
10,
10,
10,
8,
8,
6,
18,
17,
17,
10,
10,
4,
4,
7,
7,
10,
10,
16,
16,
22,
22,
21,
2,
2,
2,
10,
10,
10,
10,
3,
3,
3,
3,
1,
1,
9,
9,
12,
12,
10,
-1,
0,
0,
2,
2,
4,
4,
4,
4,
8,
8,
3,
3,
2,
2,
7,
7,
8,
8,
2,
2,
4,
4,
6,
6,
8,
8,
6,
6,
4,
4,
2,
2,
0,
0,
1,
1,
0,
0,
1,
1,
-1,
-1,
4,
4,
9,
9,
6,
6,
6,
6,
13,
13,
15,
15,
8,
8,
4,
4,
11,
11,
7,
7,
1,
1,
2,
2,
1,
1,
7,
7,
12,
12,
13,
13,
13,
13,
6,
6,
1,
1,
2,
2,
5,
5,
3,
3,
0,
0,
1,
1,
10,
10,
9,
9,
11,
11,
12,
12,
5,
5,
1,
1,
4,
4,
5,
5,
15,
2,
3,
15,
15,
15,
15,
15,
6,
6,
1,
1,
4,
4,
0,
0,
8,
8,
10,
10,
8,
8,
6,
6,
6,
6,
5,
5,
1,
1,
10,
10,
13,
13,
10,
10,
8,
8,
6,
6,
5,
5,
2,
2,
1,
1,
2,
2,
0,
0,
-1,
-1,
3,
3,
6,
6,
5,
5,
1,
1,
4,
4,
9,
9,
11,
11,
5,
5,
6,
6,
6,
6,
3,
3,
10,
10,
9,
9,
5,
5,
3,
3,
2,
2,
5,
5,
4,
4,
1,
1,
4,
15,
14,
40,
39,
21,
21,
1,
2,
2,
11,
11,
15,
15,
14,
14,
10,
10,
7,
7,
7,
7,
6,
6,
1,
1,
2,
2,
4,
4,
-1,
-1,
4,
4,
5,
5,
6,
6,
8,
8,
3,
3,
6,
6,
12,
31,
30,
30,
31,
31,
28,
14,
14,
1,
4,
4,
13,
13,
21,
21,
29,
29,
28,
28,
24,
24,
20,
20,
10,
10,
6,
20,
20,
20,
18,
7,
8,
8,
1,
1,
5,
5,
10,
10,
8,
8,
1,
1,
5,
5,
4,
4,
0,
0,
0,
0,
0,
0,
1,
1,
0,
0,
3,
3,
1,
1,
0,
12,
12,
12,
13,
1,
2,
2,
4,
4,
0,
0,
9,
9,
8,
8,
2,
2,
2,
13,
12,
12,
15,
15,
9,
9,
2,
2,
1,
1,
4,
4,
3,
3,
2,
2,
4,
4,
3,
3,
3,
3,
6,
6,
7,
7,
6,
6,
5,
5,
0,
0,
4,
4,
3,
3,
2,
2,
0,
0,
5,
5,
2,
2,
1,
1,
4,
4,
2,
2,
3,
3,
10,
10,
13,
2,
4,
4,
5,
5,
2,
2,
1,
1,
6,
6,
1,
1,
4,
4,
3,
3,
3,
3,
1,
1,
2,
2,
2,
2,
3,
3,
12,
12,
11,
11,
2,
2,
5,
5,
6,
6,
5,
5,
3,
3,
0,
0,
7,
7,
9,
9,
2,
2,
1,
1,
2,
2,
5,
5,
14,
14,
14,
1,
2,
13,
12,
12,
6,
6,
2,
2,
0,
0,
1,
1,
1,
1,
-1,
-1,
5,
5,
11,
11,
13,
13,
10,
10,
1,
1,
10,
10,
17,
17,
15,
15,
11,
11,
4,
4,
0,
0,
-1,
-1,
-1,
-1,
1,
1,
0,
0,
1,
1,
1,
1,
8,
8,
9,
9,
8,
8,
12,
12,
12,
1,
2,
14,
13,
13,
10,
10,
5,
5,
0,
0,
4,
4,
11,
11,
17,
17,
16,
16,
9,
9,
0,
0,
6,
6,
14,
14,
21,
21,
19,
19,
13,
1,
2,
2,
1,
1,
4,
4,
5,
5,
1,
1,
6,
6,
6,
6,
2,
2,
8,
8,
13,
13,
10,
10,
8,
8,
10,
10,
9,
9,
2,
14,
14,
14,
18,
4,
10,
37,
36,
17,
17,
2,
6,
6,
13,
13,
8,
8,
2,
2,
6,
6,
11,
11,
11,
11,
9,
9,
1,
1,
8,
8,
11,
11,
5,
5,
4,
4,
3,
3,
10,
22,
21,
21,
18,
4,
16,
45,
44,
44,
36,
14,
15,
2,
3,
3,
5,
5,
5,
5,
9,
9,
16,
16,
18,
18,
17,
17,
13,
13,
6,
6,
2,
2,
0,
0,
2,
2,
6,
6,
6,
6,
5,
5,
7,
7,
10,
10,
7,
7,
3,
3,
-1,
-1,
4,
4,
2,
2,
3,
3,
3,
3,
0,
0,
2,
2,
7,
7,
6,
6,
-1,
-1,
0,
0,
0,
0,
0,
0,
-1,
-1,
0,
0,
0,
0,
2,
2,
1,
1,
3,
3,
0,
0,
2,
2,
0,
0,
5,
5,
12,
12,
8,
8,
7,
34,
33,
46,
46,
34,
34,
5,
8,
28,
26,
26,
30,
17,
17,
17,
9,
9,
6,
6,
5,
5,
2,
2,
4,
4,
4,
4,
1,
1,
6,
6,
10,
10,
14,
14,
10,
10,
2,
2,
1,
1,
2,
2,
0,
0,
0,
0,
0,
0,
1,
1,
0,
0,
1,
16,
15,
15,
14,
14,
13,
13,
9,
9,
6,
21,
21,
21,
30,
30,
31,
6,
7,
24,
24,
24,
26,
26,
20,
9,
9,
9,
3,
3,
9,
9,
11,
11,
10,
10,
10,
10,
11,
11,
12,
12,
5,
5,
10,
10,
19,
19,
17,
17,
9,
9,
2,
2,
2,
2,
9,
9,
5,
5,
10,
10,
8,
8,
8,
8,
8,
8,
3,
3,
1,
1,
6,
6,
5,
5,
2,
2,
4,
4,
8,
8,
8,
8,
8,
8,
6,
6,
4,
4,
9,
9,
14,
14,
9,
9,
6,
6,
4,
4,
0,
0,
2,
2,
8,
8,
1,
1,
9,
9,
12,
12,
6,
6,
2,
2,
7,
7,
8,
8,
8,
8,
1,
12,
11,
11,
9,
9,
4,
4,
10,
10,
13,
13,
10,
10,
3,
3,
4,
4,
4,
4,
0,
0,
1,
1,
0,
11,
10,
10,
7,
7,
0,
0,
4,
4,
8,
8,
10,
10,
5,
5,
0,
0,
1,
1,
-1,
-1,
3,
3,
8,
8,
6,
6,
0,
0,
5,
5,
-1,
-1,
3,
3,
5,
5,
1,
1,
1,
1,
0,
0,
0,
0,
6,
6,
8,
8,
5,
5,
1,
1,
2,
2,
1,
1,
3,
3,
0,
0,
7,
7,
10,
10,
5,
5,
12,
31,
30,
44,
44,
33,
33,
9,
10,
10,
9,
21,
21,
21,
26,
26,
28,
17,
17,
17,
14,
14,
9,
9,
1,
1,
9,
9,
12,
12,
13,
13,
13,
1,
3,
3,
7,
7,
8,
8,
16,
1,
2,
2,
6,
6,
7,
7,
8,
8,
6,
6,
6,
6,
5,
5,
0,
0,
3,
3,
7,
7,
4,
4,
4,
4,
12,
12,
12,
12,
7,
7,
1,
1,
1,
1,
3,
3,
6,
6,
6,
6,
5,
5,
0,
0,
-1,
-1,
0,
0,
3,
3,
0,
0,
0,
0,
5,
5,
2,
2,
0,
0,
6,
6,
14,
14,
9,
9,
13,
13,
22,
8,
8,
8,
4,
4,
0,
0,
3,
3,
4,
4,
12,
12,
7,
7,
7,
21,
20,
20,
12,
0,
2,
2,
7,
7,
2,
2,
2,
2,
5,
5,
4,
4,
6,
6,
2,
14,
14,
14,
14,
14,
9,
9,
10,
10,
15,
15,
13,
1,
1,
14,
14,
14,
21,
21,
14,
14,
9,
9,
5,
5,
10,
10,
10,
10,
2,
2,
0,
0,
0,
0,
1,
1,
6,
6,
9,
9,
6,
6,
6,
6,
4,
4,
0,
0,
-2,
-2,
-1,
-1,
-1,
-1,
1,
1,
2,
2,
4,
4,
4,
4,
3,
3,
3,
3,
0,
0,
6,
6,
1,
1,
9,
9,
15,
15,
14,
14,
8,
8,
2,
13,
12,
12,
19,
19,
17,
17,
11,
11,
6,
6,
4,
4,
2,
13,
12,
12,
8,
8,
5,
5,
6,
6,
5,
5,
0,
0,
6,
6,
8,
8,
4,
4,
-1,
-1,
-1,
-1,
5,
5,
13,
13,
12,
12,
6,
6,
0,
0,
0,
0,
2,
2,
4,
4,
2,
2,
4,
4,
2,
2,
0,
0,
1,
1,
-1,
-1,
2,
2,
0,
0,
2,
2,
5,
5,
7,
7,
4,
4,
2,
2,
10,
10,
16,
2,
5,
17,
16,
16,
11,
11,
3,
3,
8,
8,
10,
10,
5,
5,
6,
6,
9,
9,
1,
1,
10,
10,
10,
10,
2,
2,
6,
6,
1,
1,
1,
1,
0,
0,
5,
5,
4,
16,
15,
15,
8,
8,
11,
11,
21,
21,
20,
4,
6,
36,
36,
22,
22,
1,
3,
3,
6,
6,
5,
5,
2,
2,
10,
10,
18,
18,
18,
18,
8,
8,
