EMG_S3/DS0047.CSV

Memory Length,4000,
Trigger Level,-4.80000e+02,
Source,CH1,
Probe,1.0X,
Vertical Units,V,
Vertical Scale,1.00000e+00,
Vertical Position,0.00000e+00,
Horizontal Units,S,
Horizontal Scale,1.00000e-01,
Horizontal Position,0.0000000e+00,
Horizontal Mode,Roll Mode,
Waveform Last Dot Address,4000,
Sampling Period,4.00000e-04,
Firmware,V1.14,
Time, ,
Mode,Fast,
Waveform Data,
6,
6,
-1,
-1,
0,
0,
8,
8,
6,
6,
2,
2,
2,
2,
5,
5,
3,
3,
1,
1,
2,
2,
9,
9,
5,
5,
0,
0,
-1,
-1,
-1,
-1,
-1,
-1,
0,
0,
2,
2,
-1,
-1,
-1,
-1,
0,
0,
1,
1,
1,
1,
0,
0,
1,
1,
-1,
-1,
0,
0,
2,
20,
18,
18,
20,
1,
2,
2,
1,
16,
16,
31,
30,
8,
8,
8,
8,
8,
7,
7,
13,
13,
5,
5,
9,
9,
8,
8,
0,
0,
2,
2,
11,
11,
9,
9,
7,
7,
9,
9,
2,
2,
9,
9,
18,
18,
10,
10,
5,
5,
1,
1,
1,
1,
6,
20,
19,
5,
17,
34,
29,
5,
7,
18,
17,
17,
12,
12,
3,
3,
2,
2,
8,
8,
9,
9,
6,
6,
8,
8,
8,
8,
6,
6,
2,
20,
20,
20,
14,
2,
2,
2,
2,
2,
2,
2,
11,
11,
20,
20,
29,
29,
20,
1,
3,
18,
17,
17,
20,
20,
15,
15,
20,
20,
23,
5,
6,
22,
22,
22,
21,
4,
5,
5,
4,
4,
5,
5,
1,
1,
4,
4,
7,
7,
1,
1,
5,
5,
1,
1,
2,
2,
1,
1,
2,
2,
7,
7,
2,
2,
4,
4,
7,
20,
18,
18,
20,
7,
8,
8,
2,
2,
8,
8,
5,
5,
5,
5,
4,
4,
5,
5,
1,
1,
6,
6,
3,
3,
1,
1,
3,
3,
7,
7,
2,
2,
2,
2,
5,
5,
1,
1,
0,
0,
5,
5,
1,
17,
16,
16,
20,
4,
4,
4,
5,
5,
12,
12,
17,
1,
2,
14,
14,
14,
20,
20,
14,
1,
5,
5,
8,
8,
5,
22,
21,
21,
24,
5,
10,
36,
35,
16,
17,
-1,
2,
2,
3,
3,
6,
6,
15,
15,
6,
21,
20,
20,
21,
8,
8,
8,
4,
4,
1,
1,
2,
2,
5,
5,
2,
2,
2,
2,
2,
2,
4,
4,
10,
10,
8,
8,
6,
6,
2,
2,
2,
2,
12,
12,
10,
10,
17,
17,
19,
1,
2,
2,
2,
2,
7,
7,
16,
16,
9,
24,
24,
24,
27,
3,
4,
15,
14,
14,
13,
13,
10,
10,
5,
5,
2,
2,
10,
10,
15,
15,
10,
10,
1,
16,
15,
15,
21,
21,
18,
18,
10,
10,
3,
3,
6,
6,
8,
8,
2,
2,
8,
8,
12,
12,
16,
16,
15,
4,
5,
5,
9,
9,
9,
9,
5,
5,
5,
5,
10,
10,
5,
5,
2,
2,
6,
6,
9,
9,
8,
8,
2,
2,
1,
1,
1,
1,
-1,
-1,
2,
2,
1,
1,
5,
5,
8,
21,
21,
21,
20,
7,
9,
26,
26,
26,
30,
4,
5,
23,
23,
23,
33,
33,
30,
14,
14,
2,
3,
3,
10,
21,
20,
20,
21,
5,
5,
29,
29,
29,
32,
9,
10,
10,
10,
10,
14,
14,
5,
5,
1,
1,
1,
1,
1,
1,
2,
2,
6,
6,
8,
8,
7,
7,
3,
3,
0,
0,
5,
5,
7,
7,
8,
8,
6,
6,
8,
8,
5,
5,
0,
0,
6,
6,
8,
8,
11,
11,
9,
9,
3,
3,
10,
10,
12,
12,
4,
4,
3,
3,
3,
3,
2,
2,
8,
8,
5,
5,
6,
6,
15,
15,
14,
1,
2,
13,
13,
13,
14,
14,
9,
9,
2,
2,
10,
10,
13,
13,
9,
9,
5,
19,
18,
18,
10,
10,
3,
3,
10,
10,
17,
17,
11,
11,
9,
9,
2,
2,
8,
8,
1,
1,
4,
4,
8,
8,
12,
12,
6,
6,
5,
5,
6,
6,
0,
0,
10,
10,
6,
6,
13,
13,
13,
2,
4,
4,
1,
1,
5,
5,
7,
7,
2,
2,
5,
5,
2,
2,
6,
6,
1,
1,
1,
1,
4,
4,
1,
1,
4,
4,
6,
6,
12,
12,
6,
6,
3,
3,
0,
0,
6,
6,
10,
10,
14,
1,
2,
2,
10,
10,
16,
16,
14,
14,
8,
8,
6,
6,
8,
8,
12,
12,
4,
4,
6,
6,
2,
2,
3,
3,
7,
7,
2,
2,
11,
11,
10,
10,
1,
1,
6,
6,
1,
1,
2,
2,
6,
6,
9,
9,
8,
8,
1,
1,
10,
27,
27,
27,
25,
13,
14,
2,
3,
3,
6,
6,
9,
9,
6,
6,
1,
1,
1,
1,
1,
1,
6,
6,
9,
9,
9,
9,
6,
6,
4,
4,
0,
0,
1,
1,
8,
8,
4,
4,
12,
12,
8,
8,
2,
2,
1,
1,
9,
9,
10,
30,
30,
44,
40,
8,
8,
8,
5,
5,
-1,
-1,
5,
5,
13,
1,
5,
5,
12,
12,
4,
4,
6,
6,
2,
16,
15,
15,
18,
18,
13,
13,
12,
12,
13,
13,
15,
15,
6,
6,
8,
8,
17,
17,
12,
0,
1,
1,
1,
1,
1,
1,
6,
23,
22,
22,
18,
6,
6,
6,
0,
0,
6,
6,
4,
4,
8,
8,
5,
5,
5,
5,
6,
6,
7,
7,
14,
14,
11,
11,
9,
9,
9,
9,
6,
6,
1,
1,
5,
5,
1,
1,
4,
4,
6,
6,
5,
5,
14,
14,
14,
1,
1,
1,
5,
5,
8,
8,
7,
7,
1,
1,
2,
2,
6,
6,
2,
2,
9,
9,
9,
9,
2,
2,
1,
1,
1,
1,
1,
1,
2,
15,
14,
14,
12,
12,
20,
20,
22,
1,
2,
2,
9,
9,
8,
8,
4,
4,
1,
1,
10,
10,
14,
2,
3,
3,
8,
8,
12,
12,
12,
1,
1,
1,
6,
6,
11,
11,
12,
39,
38,
25,
26,
4,
4,
4,
8,
8,
8,
8,
2,
2,
5,
5,
1,
1,
6,
6,
10,
10,
9,
9,
3,
3,
4,
15,
14,
14,
4,
19,
18,
4,
5,
5,
12,
12,
9,
9,
1,
1,
8,
8,
18,
18,
27,
27,
22,
22,
20,
2,
3,
19,
19,
19,
22,
22,
14,
14,
9,
9,
6,
6,
4,
4,
6,
6,
4,
18,
17,
4,
5,
5,
1,
1,
2,
2,
9,
9,
14,
1,
2,
2,
7,
7,
2,
2,
9,
9,
3,
3,
3,
3,
4,
4,
6,
18,
17,
30,
29,
29,
25,
5,
10,
26,
25,
38,
38,
38,
42,
21,
22,
9,
10,
10,
1,
12,
12,
12,
19,
19,
23,
23,
25,
25,
25,
25,
20,
20,
14,
14,
14,
2,
5,
25,
25,
50,
50,
36,
36,
6,
6,
6,
6,
17,
17,
17,
18,
2,
4,
20,
19,
19,
18,
4,
12,
12,
9,
26,
26,
26,
24,
1,
2,
17,
17,
17,
19,
19,
10,
10,
7,
7,
6,
6,
1,
1,
3,
3,
1,
1,
8,
8,
13,
1,
2,
23,
23,
23,
20,
3,
4,
4,
5,
5,
4,
4,
0,
0,
7,
7,
7,
7,
4,
4,
5,
5,
6,
6,
0,
0,
1,
1,
4,
4,
11,
11,
7,
7,
6,
6,
6,
6,
6,
6,
11,
11,
10,
10,
10,
10,
4,
4,
4,
4,
1,
1,
5,
5,
13,
13,
10,
10,
9,
9,
7,
7,
2,
2,
6,
21,
21,
21,
22,
2,
3,
15,
14,
14,
17,
2,
5,
5,
8,
8,
2,
2,
2,
2,
5,
5,
0,
0,
2,
2,
6,
6,
6,
6,
5,
5,
0,
0,
4,
4,
4,
4,
6,
6,
6,
6,
8,
8,
5,
5,
0,
0,
-1,
-1,
1,
1,
0,
0,
6,
6,
1,
13,
13,
13,
18,
18,
8,
8,
11,
11,
14,
3,
4,
4,
2,
2,
4,
4,
1,
1,
0,
0,
0,
0,
4,
4,
4,
4,
1,
1,
5,
5,
1,
1,
2,
2,
1,
1,
4,
4,
0,
0,
3,
3,
6,
6,
5,
5,
14,
2,
8,
20,
19,
6,
6,
6,
1,
1,
9,
9,
13,
13,
14,
14,
16,
16,
21,
21,
26,
6,
15,
61,
60,
60,
65,
44,
44,
3,
4,
4,
5,
20,
20,
42,
42,
42,
42,
42,
34,
34,
27,
27,
18,
18,
12,
12,
9,
9,
9,
9,
18,
18,
18,
18,
17,
6,
7,
7,
1,
1,
1,
1,
1,
19,
18,
18,
23,
23,
19,
6,
6,
6,
8,
8,
10,
10,
9,
9,
5,
5,
14,
14,
10,
10,
6,
6,
2,
14,
13,
13,
18,
18,
17,
17,
13,
13,
12,
12,
7,
7,
0,
0,
0,
0,
0,
0,
2,
2,
4,
4,
7,
7,
10,
10,
8,
8,
8,
8,
9,
9,
6,
6,
0,
0,
4,
4,
0,
0,
-1,
-1,
1,
1,
4,
4,
3,
3,
1,
1,
6,
6,
0,
0,
-1,
-1,
3,
3,
6,
6,
2,
2,
4,
4,
6,
6,
0,
0,
-1,
-1,
2,
2,
1,
1,
1,
1,
1,
1,
9,
9,
11,
11,
5,
5,
-2,
-2,
0,
0,
1,
1,
0,
0,
2,
2,
4,
4,
4,
4,
1,
1,
1,
1,
5,
5,
6,
6,
0,
0,
0,
0,
0,
0,
0,
0,
3,
3,
4,
4,
0,
0,
8,
8,
4,
4,
2,
2,
2,
2,
2,
2,
2,
2,
2,
2,
0,
0,
5,
5,
7,
7,
0,
0,
6,
6,
2,
2,
6,
22,
21,
2,
3,
20,
19,
30,
30,
12,
12,
46,
46,
46,
49,
35,
36,
9,
9,
24,
23,
23,
28,
28,
23,
23,
24,
24,
21,
7,
8,
8,
4,
4,
6,
6,
1,
1,
2,
2,
0,
0,
-1,
-1,
0,
0,
4,
4,
5,
24,
24,
40,
39,
22,
23,
9,
10,
10,
4,
4,
6,
6,
11,
11,
8,
8,
4,
4,
4,
4,
4,
4,
8,
8,
10,
10,
8,
8,
5,
5,
3,
3,
-1,
-1,
1,
1,
5,
5,
6,
6,
1,
1,
5,
5,
5,
5,
9,
9,
10,
10,
12,
12,
12,
12,
8,
8,
3,
3,
10,
10,
11,
11,
6,
6,
5,
5,
14,
14,
14,
14,
6,
6,
2,
2,
8,
8,
5,
5,
10,
10,
13,
2,
2,
2,
3,
3,
5,
5,
3,
3,
7,
7,
7,
7,
2,
2,
4,
4,
2,
2,
10,
10,
20,
20,
23,
23,
18,
2,
3,
3,
5,
5,
5,
5,
4,
4,
13,
13,
18,
18,
18,
18,
12,
12,
14,
14,
9,
9,
8,
8,
8,
8,
4,
4,
7,
7,
14,
14,
8,
8,
1,
18,
17,
30,
30,
30,
30,
19,
19,
3,
8,
8,
14,
14,
7,
7,
3,
3,
4,
4,
2,
2,
5,
5,
5,
5,
8,
8,
9,
9,
5,
5,
6,
6,
4,
4,
1,
1,
2,
2,
0,
0,
1,
1,
7,
7,
1,
1,
2,
2,
4,
4,
6,
20,
19,
19,
27,
27,
25,
12,
12,
1,
4,
4,
8,
8,
8,
8,
10,
10,
4,
4,
6,
6,
5,
5,
9,
9,
6,
6,
5,
5,
5,
5,
6,
6,
2,
2,
2,
2,
6,
6,
8,
8,
8,
8,
4,
4,
2,
2,
9,
9,
9,
9,
5,
5,
2,
13,
13,
13,
14,
14,
5,
5,
5,
5,
13,
13,
9,
9,
16,
16,
10,
10,
2,
2,
11,
11,
14,
14,
12,
12,
11,
11,
1,
1,
8,
8,
0,
0,
4,
4,
2,
15,
15,
15,
6,
6,
-1,
-1,
6,
6,
4,
4,
9,
26,
26,
26,
23,
6,
6,
43,
43,
43,
40,
12,
12,
1,
5,
5,
9,
9,
4,
4,
6,
20,
20,
20,
20,
1,
2,
2,
6,
6,
1,
1,
10,
21,
19,
5,
21,
50,
49,
27,
28,
7,
7,
7,
6,
6,
7,
7,
1,
1,
4,
4,
8,
8,
17,
17,
18,
18,
20,
20,
15,
1,
4,
20,
20,
20,
22,
7,
7,
7,
-1,
-1,
4,
4,
4,
4,
1,
1,
3,
3,
-1,
-1,
3,
3,
1,
1,
7,
7,
3,
3,
2,
2,
8,
8,
10,
10,
11,
11,
5,
5,
4,
4,
4,
4,
0,
0,
0,
0,
-1,
-1,
0,
0,
2,
16,
16,
30,
30,
30,
38,
23,
23,
2,
2,
14,
14,
14,
22,
22,
23,
23,
25,
25,
23,
23,
19,
19,
13,
13,
7,
7,
2,
2,
9,
9,
5,
5,
4,
4,
2,
33,
33,
48,
46,
22,
22,
8,
9,
9,
3,
3,
6,
20,
19,
19,
21,
21,
15,
15,
10,
10,
1,
1,
2,
2,
6,
6,
1,
15,
15,
44,
43,
43,
33,
4,
4,
18,
17,
17,
26,
26,
32,
6,
6,
22,
22,
22,
18,
1,
2,
2,
8,
8,
6,
6,
8,
8,
6,
6,
11,
11,
13,
13,
5,
39,
39,
39,
31,
2,
2,
2,
6,
6,
12,
12,
15,
15,
12,
12,
6,
6,
6,
6,
12,
12,
7,
7,
6,
6,
3,
3,
5,
5,
8,
8,
10,
10,
14,
14,
8,
37,
37,
50,
38,
2,
3,
3,
6,
6,
13,
13,
18,
18,
13,
1,
3,
3,
4,
4,
7,
7,
1,
1,
9,
9,
11,
11,
9,
9,
2,
2,
1,
1,
0,
0,
0,
0,
2,
2,
3,
3,
2,
2,
1,
1,
3,
3,
8,
8,
10,
10,
11,
11,
6,
6,
1,
1,
2,
2,
1,
1,
3,
3,
6,
6,
5,
5,
2,
2,
8,
8,
8,
8,
1,
1,
0,
0,
0,
0,
2,
2,
1,
1,
0,
0,
5,
5,
8,
8,
1,
1,
2,
2,
0,
0,
6,
6,
10,
10,
2,
2,
9,
9,
10,
10,
13,
37,
36,
22,
23,
1,
4,
4,
3,
3,
10,
10,
15,
15,
15,
15,
7,
7,
3,
3,
2,
2,
7,
7,
15,
15,
10,
10,
1,
1,
6,
6,
7,
7,
10,
10,
18,
18,
19,
19,
12,
0,
1,
1,
1,
1,
4,
4,
12,
12,
10,
10,
18,
6,
7,
7,
10,
10,
10,
10,
2,
2,
4,
4,
5,
5,
9,
9,
18,
18,
24,
5,
8,
41,
41,
41,
32,
6,
6,
6,
12,
12,
13,
13,
12,
12,
6,
6,
2,
2,
7,
7,
10,
10,
13,
13,
10,
10,
4,
4,
9,
21,
21,
21,
21,
8,
8,
8,
2,
2,
6,
26,
26,
37,
35,
14,
14,
1,
5,
5,
13,
13,
14,
14,
6,
6,
1,
1,
10,
10,
14,
14,
20,
36,
30,
4,
4,
18,
18,
18,
15,
15,
6,
6,
4,
4,
1,
1,
4,
4,
1,
20,
19,
6,
6,
40,
40,
40,
46,
19,
19,
0,
2,
2,
1,
1,
2,
2,
9,
9,
18,
18,
14,
14,
10,
10,
8,
8,
6,
6,
5,
5,
-1,
-1,
-1,
-1,
2,
2,
3,
3,
2,
15,
14,
14,
14,
14,
16,
16,
16,
16,
9,
9,
3,
3,
3,
3,
2,
2,
4,
4,
5,
5,
7,
7,
12,
12,
10,
10,
1,
1,
4,
4,
4,
4,
2,
2,
1,
1,
3,
3,
5,
5,
9,
9,
4,
4,
10,
10,
16,
16,
12,
12,
3,
3,
2,
2,
4,
4,
3,
3,
0,
0,
7,
7,
6,
23,
22,
33,
29,
7,
7,
7,
5,
5,
5,
5,
6,
6,
4,
4,
2,
2,
7,
7,
11,
11,
8,
8,
1,
1,
5,
17,
17,
17,
18,
6,
26,
42,
38,
5,
6,
6,
3,
3,
1,
1,
1,
1,
9,
9,
13,
13,
20,
6,
6,
6,
4,
4,
13,
24,
24,
12,
12,
12,
5,
5,
10,
10,
15,
15,
10,
10,
12,
44,
43,
43,
34,
6,
6,
6,
9,
9,
7,
7,
12,
1,
2,
2,
6,
6,
6,
6,
4,
4,
5,
5,
13,
13,
15,
15,
11,
11,
6,
6,
5,
5,
10,
10,
4,
4,
2,
2,
4,
4,
6,
6,
5,
5,
6,
6,
2,
2,
2,
2,
8,
22,
22,
6,
7,
37,
37,
37,
38,
18,
19,
1,
2,
2,
10,
10,
17,
17,
18,
18,
19,
19,
15,
3,
4,
4,
6,
6,
10,
10,
10,
10,
4,
4,
2,
2,
1,
1,
1,
1,
1,
1,
0,
0,
4,
4,
1,
1,
1,
1,
1,
1,
-1,
-1,
-1,
-1,
4,
4,
6,
6,
0,
0,
6,
6,
10,
10,
18,
18,
27,
27,
32,
43,
41,
20,
21,
1,
3,
3,
12,
12,
17,
17,
21,
21,
28,
28,
26,
14,
14,
14,
6,
6,
5,
5,
6,
6,
2,
2,
9,
9,
14,
14,
22,
22,
17,
4,
5,
5,
5,
5,
12,
12,
6,
6,
2,
2,
4,
4,
7,
7,
14,
14,
9,
9,
9,
9,
8,
8,
16,
16,
12,
1,
3,
3,
8,
8,
7,
7,
7,
7,
11,
11,
13,
13,
5,
5,
3,
3,
-1,
-1,
3,
3,
11,
11,
11,
11,
4,
4,
0,
0,
0,
0,
2,
2,
2,
2,
1,
1,
6,
6,
4,
4,
1,
1,
4,
4,
6,
6,
4,
4,
2,
2,
0,
0,
1,
1,
2,
2,
10,
10,
5,
5,
0,
0,
2,
2,
7,
7,
13,
13,
14,
1,
2,
2,
10,
10,
9,
9,
7,
7,
6,
6,
2,
2,
2,
2,
0,
0,
2,
2,
4,
4,
5,
5,
5,
5,
7,
7,
5,
19,
18,
18,
21,
9,
10,
10,
6,
6,
8,
8,
9,
9,
9,
9,
13,
13,
4,
4,
6,
6,
12,
12,
8,
8,
7,
7,
8,
8,
7,
7,
6,
6,
3,
3,
1,
20,
20,
47,
46,
33,
34,
4,
4,
21,
21,
6,
7,
7,
0,
0,
2,
2,
3,
3,
5,
5,
9,
9,
12,
12,
9,
9,
3,
3,
0,
0,
0,
0,
1,
1,
1,
1,
3,
3,
5,
5,
12,
12,
9,
9,
3,
3,
0,
0,
-1,
-1,
0,
0,
3,
3,
3,
3,
3,
3,
2,
2,
0,
0,
4,
4,
1,
1,
5,
5,
7,
7,
2,
2,
12,
12,
18,
7,
7,
7,
0,
0,
0,
0,
5,
5,
13,
13,
15,
15,
10,
10,
3,
3,
0,
0,
3,
3,
6,
6,
5,
5,
3,
3,
0,
0,
3,
3,
3,
3,
4,
15,
15,
15,
12,
12,
6,
6,
1,
1,
0,
0,
0,
0,
1,
1,
1,
1,
4,
4,
5,
5,
0,
0,
5,
5,
9,
9,
13,
13,
6,
6,
2,
2,
0,
0,
6,
6,
1,
1,
-1,
-1,
8,
8,
5,
5,
3,
3,
1,
15,
14,
14,
17,
2,
7,
22,
21,
4,
4,
20,
20,
20,
29,
29,
24,
5,
5,
5,
14,
14,
22,
6,
6,
6,
1,
1,
10,
23,
22,
22,
20,
5,
6,
6,
4,
4,
10,
10,
18,
18,
19,
19,
11,
11,
6,
6,
1,
1,
6,
6,
5,
5,
3,
3,
4,
4,
3,
3,
10,
10,
11,
11,
2,
14,
14,
14,
15,
15,
7,
7,
10,
10,
19,
2,
3,
3,
6,
6,
2,
2,
6,
6,
9,
9,
8,
8,
9,
9,
3,
16,
16,
16,
16,
16,
6,
6,
9,
9,
10,
10,
1,
1,
0,
0,
9,
9,
10,
10,
4,
30,
29,
16,
16,
2,
7,
7,
10,
10,
9,
9,
5,
5,
3,
3,
5,
5,
5,
5,
2,
2,
2,
2,
1,
1,
3,
3,
10,
10,
13,
2,
6,
6,
14,
14,
8,
8,
6,
6,
5,
5,
3,
3,
0,
0,
1,
1,
1,
1,
0,
0,
7,
7,
13,
1,
4,
24,
23,
23,
14,
2,
4,
4,
6,
6,
5,
5,
9,
9,
5,
5,
5,
5,
1,
16,
16,
29,
28,
14,
15,
2,
10,
25,
24,
24,
14,
14,
5,
5,
2,
2,
2,
2,
2,
2,
4,
4,
0,
0,
9,
20,
19,
5,
5,
21,
20,
37,
36,
20,
21,
1,
3,
3,
12,
12,
20,
20,
12,
12,
6,
6,
1,
1,
3,
3,
3,
20,
20,
6,
6,
6,
7,
7,
10,
10,
7,
7,
1,
1,
4,
4,
10,
10,
4,
30,
29,
45,
43,
25,
25,
9,
9,
9,
5,
5,
2,
17,
17,
28,
27,
27,
26,
15,
16,
16,
7,
7,
5,
5,
0,
0,
3,
3,
6,
6,
14,
14,
19,
19,
9,
9,
1,
1,
6,
6,
5,
5,
1,
1,
4,
4,
9,
9,
6,
6,
-1,
-1,
-1,
-1,
2,
2,
5,
5,
3,
3,
0,
0,
8,
8,
13,
13,
10,
10,
6,
6,
2,
2,
6,
6,
9,
9,
6,
6,
1,
1,
2,
2,
3,
3,
3,
3,
2,
2,
1,
1,
0,
0,
6,
6,
10,
10,
12,
12,
5,
5,
14,
14,
20,
6,
6,
6,
2,
22,
22,
41,
40,
14,
14,
1,
4,
4,
13,
13,
19,
19,
16,
16,
13,
13,
12,
12,
9,
9,
7,
7,
2,
2,
1,
1,
0,
0,
9,
9,
13,
13,
9,
9,
18,
18,
18,
18,
9,
9,
5,
5,
0,
0,
2,
2,
1,
1,
8,
8,
9,
9,
12,
12,
11,
11,
5,
19,
18,
18,
12,
1,
1,
1,
2,
2,
1,
14,
13,
13,
5,
5,
6,
6,
12,
12,
10,
10,
4,
4,
3,
3,
1,
1,
9,
9,
5,
5,
9,
9,
14,
14,
10,
10,
5,
5,
9,
9,
15,
15,
6,
6,
5,
5,
10,
10,
12,
12,
7,
7,
1,
1,
0,
0,
4,
4,
0,
0,
8,
8,
9,
9,
4,
4,
1,
1,
3,
3,
4,
4,
1,
1,
0,
0,
1,
1,
0,
0,
2,
2,
1,
1,
2,
2,
7,
7,
10,
10,
1,
1,
4,
4,
2,
2,
2,
2,
0,
0,
4,
4,
2,
2,
0,
0,
2,
2,
3,
20,
19,
5,
6,
6,
12,
12,
4,
4,
1,
1,
9,
9,
14,
14,
6,
6,
10,
10,
10,
25,
25,
25,
24,
6,
7,
18,
17,
2,
4,
4,
13,
13,
22,
22,
20,
6,
6,
6,
5,
18,
16,
16,
10,
10,
2,
2,
5,
5,
1,
1,
8,
8,
11,
11,
5,
21,
21,
33,
32,
32,
32,
4,
5,
5,
9,
9,
10,
10,
8,
8,
2,
2,
1,
1,
4,
4,
0,
12,
10,
10,
20,
20,
18,
18,
10,
10,
4,
4,
0,
0,
0,
0,
0,
0,
-1,
-1,
1,
1,
3,
3,
11,
11,
10,
10,
5,
5,
4,
4,
4,
4,
-1,
-1,
5,
5,
3,
3,
2,
2,
5,
5,
3,
3,
6,
6,
6,
6,
2,
2,
3,
3,
1,
1,
1,
1,
1,
1,
9,
9,
6,
6,
1,
1,
5,
5,
6,
6,
0,
0,
-1,
-1,
0,
0,
3,
3,
7,
7,
8,
8,
3,
3,
6,
6,
8,
8,
5,
5,
0,
0,
1,
1,
-1,
-1,
0,
0,
0,
0,
0,
0,
1,
12,
11,
11,
9,
9,
5,
5,
0,
0,
2,
2,
2,
2,
5,
5,
2,
2,
8,
8,
7,
7,
4,
19,
18,
18,
16,
1,
1,
1,
1,
1,
1,
1,
5,
5,
14,
35,
34,
20,
21,
6,
6,
6,
14,
14,
17,
17,
19,
19,
13,
13,
5,
5,
1,
1,
4,
4,
3,
3,
9,
9,
6,
6,
3,
3,
2,
2,
9,
9,
9,
9,
3,
3,
2,
2,
5,
30,
29,
44,
44,
28,
28,
4,
6,
18,
16,
16,
17,
17,
8,
8,
6,
6,
2,
2,
4,
4,
9,
9,
10,
10,
10,
10,
9,
9,
2,
2,
2,
2,
7,
7,
13,
13,
14,
14,
9,
9,
3,
3,
1,
1,
1,
1,
1,
1,
6,
6,
5,
5,
3,
3,
12,
12,
17,
17,
10,
10,
3,
3,
1,
1,
5,
5,
10,
10,
12,
12,
17,
17,
15,
1,
2,
2,
1,
1,
2,
2,
5,
5,
7,
7,
0,
0,
3,
3,
1,
1,
2,
2,
2,
18,
18,
18,
16,
1,
1,
1,
5,
5,
6,
6,
10,
10,
11,
11,
15,
15,
14,
14,
4,
23,
22,
22,
27,
8,
9,
9,
2,
2,
1,
1,
0,
0,
0,
0,
1,
1,
2,
2,
4,
4,
1,
1,
5,
5,
15,
15,
16,
0,
1,
12,
10,
23,
21,
9,
10,
10,
12,
12,
10,
10,
10,
10,
3,
3,
11,
27,
26,
26,
34,
34,
28,
4,
5,
26,
26,
26,
29,
12,
13,
2,
3,
3,
3,
3,
6,
6,
3,
3,
1,
1,
0,
0,
5,
5,
6,
6,
1,
1,
5,
5,
5,
5,
4,
4,
8,
8,
10,
10,
7,
7,
2,
2,
2,
2,
4,
4,
0,
0,
0,
0,
6,
6,
10,
10,
