EMG_S3/DS0054.CSV

Memory Length,4000,
Trigger Level,-4.80000e+02,
Source,CH1,
Probe,1.0X,
Vertical Units,V,
Vertical Scale,1.00000e+00,
Vertical Position,0.00000e+00,
Horizontal Units,S,
Horizontal Scale,1.00000e-01,
Horizontal Position,0.0000000e+00,
Horizontal Mode,Roll Mode,
Waveform Last Dot Address,4000,
Sampling Period,4.00000e-04,
Firmware,V1.14,
Time, ,
Mode,Fast,
Waveform Data,
24,
24,
24,
5,
13,
13,
17,
2,
5,
5,
5,
5,
4,
4,
10,
10,
8,
8,
10,
10,
9,
9,
7,
7,
9,
9,
1,
12,
12,
12,
14,
14,
12,
12,
7,
7,
1,
1,
1,
1,
-1,
-1,
0,
0,
1,
1,
1,
1,
6,
6,
2,
2,
8,
21,
20,
6,
6,
6,
13,
13,
8,
8,
11,
11,
8,
8,
6,
6,
9,
9,
4,
4,
2,
2,
1,
1,
6,
6,
1,
1,
10,
10,
12,
12,
2,
2,
10,
10,
13,
13,
9,
9,
0,
0,
4,
4,
4,
4,
12,
12,
19,
3,
3,
3,
-1,
-1,
5,
5,
8,
8,
3,
3,
2,
2,
10,
10,
12,
12,
6,
6,
1,
1,
2,
2,
6,
6,
6,
6,
6,
6,
8,
8,
1,
1,
2,
2,
0,
0,
8,
8,
6,
6,
2,
2,
1,
1,
1,
1,
7,
7,
12,
12,
12,
12,
6,
6,
1,
1,
3,
3,
6,
6,
8,
8,
8,
8,
6,
6,
5,
5,
9,
9,
13,
0,
1,
1,
9,
9,
2,
2,
9,
9,
10,
10,
5,
5,
9,
22,
21,
2,
4,
4,
8,
8,
1,
1,
6,
6,
3,
3,
2,
15,
14,
25,
25,
4,
6,
35,
33,
33,
40,
18,
18,
2,
8,
8,
16,
16,
14,
14,
12,
12,
11,
11,
9,
9,
5,
5,
0,
0,
5,
5,
2,
2,
-1,
-1,
4,
4,
3,
3,
6,
6,
13,
13,
8,
8,
1,
1,
5,
5,
1,
1,
0,
0,
0,
0,
1,
1,
11,
11,
18,
4,
4,
4,
12,
12,
21,
6,
7,
27,
26,
26,
22,
3,
4,
4,
6,
6,
14,
14,
23,
10,
11,
0,
1,
1,
2,
2,
2,
2,
2,
2,
0,
0,
0,
0,
1,
1,
5,
5,
2,
2,
3,
28,
28,
28,
24,
1,
2,
2,
2,
2,
6,
6,
7,
7,
9,
9,
5,
5,
3,
3,
5,
5,
1,
1,
-1,
-1,
0,
0,
2,
2,
3,
18,
17,
17,
23,
5,
16,
32,
31,
10,
10,
10,
2,
2,
3,
3,
8,
8,
10,
10,
10,
10,
5,
5,
1,
1,
1,
1,
3,
3,
3,
3,
5,
5,
13,
13,
13,
13,
8,
8,
6,
6,
2,
2,
4,
4,
2,
2,
6,
6,
11,
11,
8,
8,
3,
3,
9,
9,
3,
3,
3,
3,
4,
4,
9,
9,
5,
5,
12,
12,
12,
1,
3,
21,
21,
21,
18,
1,
2,
2,
11,
11,
12,
1,
3,
24,
23,
23,
22,
6,
6,
6,
0,
0,
8,
8,
9,
9,
1,
1,
8,
8,
9,
9,
7,
7,
7,
7,
6,
6,
6,
6,
6,
6,
0,
0,
8,
20,
20,
20,
15,
15,
7,
7,
2,
2,
6,
6,
4,
4,
7,
7,
8,
8,
6,
24,
23,
23,
18,
4,
5,
5,
1,
1,
5,
17,
17,
17,
23,
9,
10,
10,
4,
4,
3,
3,
2,
2,
-1,
12,
12,
25,
24,
24,
15,
15,
10,
10,
6,
6,
0,
11,
10,
10,
14,
14,
15,
15,
10,
10,
6,
6,
0,
0,
0,
0,
5,
5,
4,
18,
17,
17,
11,
11,
4,
4,
6,
6,
9,
9,
2,
2,
6,
6,
7,
7,
5,
5,
7,
7,
1,
1,
6,
6,
3,
3,
1,
1,
-1,
-1,
2,
2,
0,
0,
5,
5,
7,
7,
6,
6,
0,
0,
8,
8,
7,
7,
2,
2,
1,
14,
13,
13,
13,
2,
3,
35,
35,
35,
43,
43,
42,
20,
21,
3,
10,
27,
27,
39,
39,
39,
20,
20,
16,
0,
1,
1,
4,
4,
6,
6,
3,
3,
0,
0,
1,
1,
2,
2,
0,
0,
5,
5,
9,
9,
6,
6,
2,
2,
8,
8,
4,
4,
3,
3,
5,
5,
6,
6,
2,
2,
5,
5,
1,
1,
1,
1,
3,
3,
5,
5,
1,
1,
1,
1,
3,
3,
7,
7,
2,
2,
9,
9,
10,
10,
9,
9,
8,
8,
6,
6,
3,
3,
0,
0,
1,
1,
4,
4,
6,
6,
9,
9,
8,
8,
3,
3,
1,
1,
0,
0,
2,
2,
6,
6,
6,
6,
1,
1,
3,
3,
6,
6,
3,
3,
0,
0,
-1,
-1,
1,
1,
5,
5,
3,
3,
4,
4,
10,
10,
14,
14,
7,
7,
2,
2,
1,
1,
2,
2,
1,
1,
3,
3,
6,
6,
2,
2,
9,
9,
11,
11,
11,
23,
22,
22,
21,
3,
3,
3,
3,
3,
13,
29,
29,
7,
8,
44,
44,
29,
29,
1,
2,
2,
7,
7,
4,
4,
1,
1,
4,
4,
8,
8,
7,
7,
4,
4,
12,
12,
14,
14,
13,
2,
4,
4,
1,
1,
6,
6,
11,
11,
4,
4,
2,
2,
2,
2,
0,
0,
5,
5,
8,
8,
6,
6,
2,
2,
0,
0,
3,
3,
0,
0,
4,
4,
11,
11,
15,
15,
20,
9,
9,
9,
4,
4,
2,
2,
5,
5,
12,
12,
10,
10,
1,
1,
5,
5,
10,
10,
6,
6,
1,
1,
7,
7,
13,
13,
13,
13,
10,
10,
4,
4,
1,
1,
0,
0,
2,
2,
2,
16,
16,
16,
15,
15,
8,
8,
5,
5,
2,
2,
1,
1,
5,
5,
1,
1,
-1,
-1,
0,
0,
0,
0,
2,
2,
1,
1,
0,
0,
2,
2,
1,
1,
3,
3,
1,
1,
2,
2,
5,
5,
0,
0,
3,
3,
4,
4,
7,
7,
7,
7,
3,
3,
1,
1,
-1,
-1,
3,
3,
6,
6,
2,
2,
10,
10,
10,
10,
2,
2,
2,
2,
3,
3,
1,
1,
-1,
-1,
6,
6,
13,
13,
6,
6,
6,
6,
9,
9,
4,
4,
1,
1,
6,
6,
10,
10,
6,
6,
4,
4,
9,
9,
6,
26,
26,
14,
14,
2,
8,
8,
13,
13,
10,
10,
1,
1,
3,
3,
6,
6,
2,
2,
1,
1,
7,
7,
9,
9,
2,
2,
3,
3,
9,
9,
12,
12,
17,
17,
14,
1,
3,
3,
12,
12,
14,
14,
7,
7,
2,
2,
0,
0,
4,
4,
5,
5,
1,
1,
-1,
-1,
1,
1,
7,
18,
17,
5,
6,
39,
38,
38,
41,
13,
14,
-1,
0,
0,
6,
6,
4,
20,
19,
31,
30,
30,
26,
4,
5,
20,
20,
20,
13,
0,
1,
1,
10,
10,
10,
10,
6,
6,
2,
2,
2,
2,
1,
1,
8,
8,
4,
4,
5,
5,
10,
10,
8,
8,
9,
9,
6,
6,
1,
1,
8,
20,
18,
18,
12,
0,
3,
3,
12,
12,
20,
20,
19,
2,
4,
20,
20,
20,
14,
2,
2,
2,
-1,
-1,
0,
0,
-1,
-1,
7,
18,
17,
17,
8,
8,
-1,
-1,
4,
4,
2,
2,
3,
3,
5,
5,
2,
2,
1,
1,
4,
4,
5,
5,
6,
6,
10,
10,
2,
13,
12,
12,
5,
5,
1,
1,
2,
2,
1,
1,
4,
4,
2,
2,
6,
6,
0,
0,
-1,
-1,
1,
1,
6,
6,
2,
2,
3,
3,
8,
8,
10,
10,
2,
2,
1,
1,
3,
3,
3,
3,
6,
6,
9,
9,
7,
7,
1,
1,
2,
2,
4,
4,
3,
3,
5,
5,
3,
3,
4,
4,
0,
0,
5,
5,
1,
1,
3,
3,
5,
5,
4,
4,
1,
1,
0,
0,
3,
3,
0,
0,
6,
6,
2,
2,
8,
8,
6,
6,
1,
1,
1,
17,
16,
16,
25,
13,
13,
1,
2,
2,
5,
5,
6,
17,
16,
16,
12,
12,
3,
3,
5,
5,
12,
12,
9,
9,
2,
2,
7,
7,
10,
10,
1,
1,
5,
5,
3,
3,
8,
8,
3,
3,
2,
15,
14,
14,
12,
0,
4,
4,
5,
5,
6,
6,
1,
1,
-1,
-1,
1,
17,
16,
16,
11,
0,
2,
2,
-1,
-1,
0,
0,
3,
3,
9,
9,
2,
2,
4,
4,
3,
3,
6,
18,
18,
18,
15,
1,
1,
1,
6,
6,
9,
9,
9,
9,
8,
8,
1,
1,
3,
3,
10,
21,
20,
4,
4,
24,
24,
24,
19,
4,
5,
5,
2,
2,
6,
6,
7,
7,
3,
3,
0,
0,
0,
0,
-1,
-1,
2,
2,
5,
5,
4,
4,
5,
21,
21,
21,
19,
19,
11,
0,
1,
1,
8,
8,
9,
9,
6,
6,
0,
0,
0,
0,
2,
2,
1,
1,
5,
5,
9,
9,
4,
4,
6,
6,
8,
8,
8,
8,
5,
5,
2,
2,
2,
2,
6,
6,
4,
4,
0,
0,
0,
0,
6,
6,
6,
6,
5,
5,
2,
2,
0,
0,
1,
1,
2,
2,
3,
3,
2,
2,
4,
4,
12,
12,
14,
14,
5,
5,
0,
0,
3,
3,
6,
6,
-1,
-1,
0,
0,
1,
1,
6,
6,
8,
8,
5,
5,
2,
2,
3,
3,
7,
7,
8,
8,
5,
5,
5,
5,
1,
1,
4,
4,
8,
8,
1,
1,
0,
0,
9,
22,
21,
9,
9,
9,
2,
2,
1,
1,
1,
1,
9,
9,
18,
18,
17,
17,
8,
8,
5,
5,
11,
11,
12,
12,
4,
4,
5,
5,
9,
9,
8,
8,
3,
3,
2,
2,
3,
3,
8,
8,
2,
2,
0,
12,
11,
11,
11,
11,
4,
4,
2,
2,
4,
4,
0,
0,
4,
4,
0,
0,
5,
5,
1,
1,
7,
7,
4,
4,
0,
14,
13,
13,
17,
2,
6,
20,
19,
19,
20,
20,
18,
18,
14,
14,
9,
9,
9,
9,
1,
12,
12,
12,
17,
17,
20,
7,
8,
8,
1,
1,
2,
2,
5,
5,
2,
2,
8,
8,
2,
2,
3,
3,
5,
5,
4,
4,
1,
1,
4,
4,
7,
7,
6,
6,
1,
1,
4,
4,
6,
6,
5,
5,
6,
6,
2,
2,
0,
12,
11,
11,
2,
16,
15,
15,
9,
9,
5,
5,
6,
6,
2,
2,
5,
5,
8,
8,
2,
2,
6,
17,
17,
17,
15,
15,
9,
9,
6,
6,
6,
6,
1,
1,
1,
1,
2,
2,
1,
1,
10,
22,
21,
10,
10,
10,
3,
3,
12,
12,
8,
8,
7,
7,
0,
0,
-1,
-1,
1,
14,
14,
14,
18,
5,
17,
30,
28,
2,
3,
14,
14,
14,
21,
21,
15,
2,
3,
3,
8,
8,
13,
13,
17,
17,
8,
8,
4,
4,
13,
24,
24,
24,
28,
14,
15,
1,
2,
2,
2,
2,
5,
5,
5,
5,
2,
2,
1,
1,
6,
6,
14,
14,
10,
10,
4,
4,
6,
6,
3,
3,
2,
2,
0,
0,
0,
0,
1,
1,
3,
3,
6,
6,
3,
3,
1,
1,
5,
5,
3,
3,
1,
1,
1,
1,
2,
2,
7,
7,
3,
3,
-1,
-1,
1,
1,
2,
2,
2,
2,
3,
3,
5,
5,
1,
1,
8,
8,
1,
1,
4,
4,
2,
2,
1,
1,
0,
0,
-1,
-1,
2,
13,
12,
12,
17,
5,
5,
5,
10,
10,
14,
14,
9,
9,
14,
27,
26,
8,
9,
9,
8,
8,
14,
14,
8,
8,
2,
2,
1,
1,
6,
6,
9,
9,
2,
2,
0,
0,
2,
2,
10,
10,
9,
9,
2,
23,
23,
23,
26,
6,
6,
6,
0,
0,
0,
0,
4,
4,
7,
7,
8,
8,
8,
8,
8,
8,
7,
7,
2,
2,
2,
2,
3,
3,
9,
9,
7,
7,
2,
2,
6,
6,
10,
10,
9,
9,
0,
0,
-1,
-1,
5,
5,
5,
5,
6,
6,
9,
9,
6,
6,
8,
8,
2,
2,
5,
5,
5,
5,
6,
6,
10,
10,
10,
10,
5,
5,
1,
1,
1,
1,
-1,
-1,
1,
1,
6,
6,
10,
10,
16,
16,
10,
10,
3,
3,
3,
3,
0,
0,
2,
2,
2,
2,
6,
6,
6,
6,
4,
4,
4,
4,
0,
0,
4,
4,
9,
9,
14,
1,
5,
18,
17,
17,
17,
17,
9,
9,
1,
12,
12,
12,
14,
14,
10,
10,
1,
1,
0,
0,
0,
0,
4,
4,
0,
0,
4,
15,
14,
3,
4,
4,
9,
9,
7,
7,
4,
19,
19,
5,
6,
6,
5,
5,
1,
1,
9,
9,
10,
10,
4,
4,
10,
10,
14,
14,
10,
10,
0,
0,
1,
1,
3,
3,
0,
0,
0,
0,
1,
1,
0,
0,
5,
5,
10,
10,
10,
10,
0,
0,
3,
17,
17,
17,
22,
1,
1,
1,
5,
5,
6,
6,
7,
7,
10,
10,
13,
13,
10,
10,
5,
5,
-1,
-1,
0,
0,
2,
2,
1,
1,
4,
4,
9,
9,
6,
6,
-1,
-1,
9,
26,
26,
26,
22,
22,
16,
1,
2,
13,
12,
12,
14,
14,
14,
14,
10,
10,
6,
6,
6,
6,
8,
8,
6,
6,
0,
0,
2,
2,
0,
0,
0,
0,
2,
2,
1,
1,
5,
5,
10,
10,
10,
10,
6,
6,
0,
0,
2,
2,
2,
2,
6,
6,
10,
10,
14,
14,
12,
12,
10,
10,
2,
16,
15,
15,
20,
20,
13,
13,
5,
5,
7,
7,
10,
10,
17,
17,
14,
2,
4,
30,
30,
30,
23,
6,
6,
6,
0,
0,
4,
4,
1,
1,
8,
8,
6,
6,
0,
0,
4,
4,
0,
0,
2,
2,
2,
2,
6,
6,
3,
3,
0,
0,
1,
1,
4,
4,
4,
4,
4,
4,
2,
2,
0,
0,
0,
0,
8,
8,
0,
0,
3,
3,
2,
2,
0,
0,
1,
1,
8,
8,
10,
10,
6,
6,
14,
14,
11,
11,
4,
4,
8,
8,
9,
9,
1,
1,
5,
5,
2,
2,
0,
0,
3,
3,
10,
10,
7,
7,
5,
5,
9,
9,
6,
6,
0,
0,
0,
0,
0,
0,
3,
3,
9,
9,
11,
11,
9,
9,
1,
15,
15,
28,
27,
27,
18,
18,
14,
14,
11,
11,
4,
4,
14,
14,
13,
13,
8,
8,
5,
5,
0,
0,
3,
3,
1,
1,
3,
3,
3,
3,
-1,
-1,
1,
1,
-1,
-1,
1,
1,
5,
5,
0,
0,
5,
5,
8,
8,
2,
2,
8,
8,
12,
12,
9,
9,
5,
5,
4,
4,
0,
0,
2,
2,
8,
8,
2,
13,
12,
12,
18,
18,
13,
1,
3,
3,
5,
5,
3,
3,
6,
6,
6,
6,
7,
7,
3,
3,
0,
0,
1,
1,
2,
2,
3,
3,
6,
6,
8,
8,
4,
4,
2,
2,
5,
5,
6,
6,
3,
3,
0,
0,
0,
0,
5,
5,
6,
6,
0,
0,
0,
0,
1,
1,
4,
4,
5,
5,
6,
6,
4,
4,
1,
1,
0,
13,
12,
36,
36,
36,
41,
15,
15,
1,
5,
5,
12,
12,
20,
20,
30,
30,
39,
39,
31,
6,
6,
6,
14,
26,
26,
26,
17,
6,
6,
6,
2,
2,
5,
5,
5,
5,
2,
2,
6,
6,
5,
5,
2,
2,
3,
3,
0,
0,
1,
1,
-1,
-1,
2,
2,
4,
4,
3,
3,
1,
1,
0,
0,
1,
1,
2,
2,
4,
4,
0,
0,
5,
19,
18,
18,
10,
10,
6,
6,
13,
13,
12,
12,
12,
12,
4,
4,
2,
2,
1,
1,
3,
3,
6,
6,
0,
11,
10,
10,
5,
5,
3,
3,
2,
2,
1,
1,
2,
13,
12,
12,
6,
6,
2,
2,
0,
0,
3,
3,
6,
6,
4,
4,
1,
1,
0,
0,
0,
0,
0,
0,
0,
0,
1,
1,
2,
2,
5,
5,
5,
5,
0,
0,
2,
2,
9,
9,
9,
9,
2,
2,
3,
3,
7,
7,
2,
2,
4,
4,
7,
7,
10,
10,
3,
3,
10,
10,
1,
1,
3,
3,
1,
1,
8,
8,
6,
6,
10,
10,
9,
9,
3,
3,
5,
5,
6,
6,
7,
7,
4,
4,
2,
2,
8,
8,
15,
15,
13,
13,
10,
10,
4,
15,
14,
25,
24,
24,
16,
16,
12,
12,
6,
6,
2,
2,
1,
1,
1,
1,
4,
4,
1,
1,
6,
6,
6,
6,
5,
5,
5,
5,
0,
0,
5,
5,
5,
5,
8,
8,
10,
10,
6,
6,
13,
13,
8,
8,
6,
6,
9,
9,
5,
5,
6,
6,
12,
0,
1,
1,
0,
0,
2,
2,
8,
8,
0,
0,
0,
0,
6,
6,
9,
9,
11,
11,
7,
7,
4,
18,
16,
16,
20,
20,
15,
15,
13,
1,
4,
18,
16,
5,
5,
5,
2,
2,
6,
6,
3,
3,
4,
4,
7,
27,
27,
15,
15,
1,
2,
18,
16,
16,
20,
20,
17,
17,
16,
16,
13,
13,
7,
7,
13,
31,
30,
30,
24,
24,
22,
22,
12,
12,
8,
8,
6,
26,
26,
26,
33,
33,
30,
10,
11,
26,
26,
47,
46,
17,
18,
5,
12,
12,
6,
25,
24,
9,
9,
9,
7,
21,
20,
33,
32,
32,
26,
3,
3,
3,
2,
2,
5,
5,
0,
0,
0,
0,
2,
2,
9,
9,
6,
6,
5,
5,
1,
1,
2,
2,
10,
10,
5,
5,
2,
2,
7,
7,
2,
25,
24,
24,
20,
6,
6,
6,
3,
20,
19,
19,
18,
18,
14,
14,
13,
13,
17,
32,
32,
17,
17,
0,
0,
0,
5,
5,
9,
9,
16,
16,
14,
14,
14,
14,
10,
10,
5,
5,
0,
0,
7,
7,
11,
11,
12,
12,
13,
13,
7,
7,
-1,
-1,
-1,
-1,
0,
0,
1,
1,
0,
0,
1,
1,
1,
1,
1,
1,
4,
4,
1,
1,
1,
1,
0,
0,
0,
0,
1,
1,
1,
1,
9,
9,
13,
13,
12,
12,
3,
3,
9,
9,
10,
10,
12,
12,
12,
12,
7,
7,
2,
2,
3,
3,
4,
4,
1,
1,
6,
6,
5,
5,
2,
2,
0,
0,
2,
2,
6,
6,
12,
12,
12,
12,
13,
13,
10,
10,
1,
1,
8,
8,
13,
13,
14,
1,
1,
1,
5,
5,
1,
1,
10,
10,
10,
10,
2,
2,
8,
8,
0,
0,
2,
2,
-1,
-1,
0,
0,
2,
18,
18,
18,
12,
0,
0,
0,
5,
5,
14,
14,
20,
3,
4,
26,
25,
25,
30,
14,
14,
14,
4,
4,
8,
8,
16,
16,
9,
9,
3,
3,
5,
5,
12,
12,
3,
3,
12,
12,
6,
6,
2,
2,
2,
2,
10,
10,
8,
8,
5,
5,
6,
6,
1,
1,
10,
10,
20,
20,
14,
1,
4,
4,
10,
10,
14,
14,
11,
11,
5,
5,
2,
2,
5,
5,
4,
4,
2,
2,
1,
1,
-1,
-1,
5,
5,
5,
5,
2,
2,
1,
1,
2,
2,
5,
5,
4,
4,
1,
1,
-1,
-1,
0,
0,
2,
2,
5,
5,
3,
3,
3,
3,
10,
10,
16,
1,
1,
1,
-1,
-1,
0,
0,
8,
8,
16,
16,
15,
1,
2,
2,
9,
9,
5,
5,
3,
3,
9,
9,
10,
10,
5,
5,
1,
1,
4,
4,
4,
4,
8,
8,
10,
10,
10,
10,
4,
4,
6,
6,
10,
28,
28,
51,
49,
16,
16,
1,
2,
2,
6,
6,
12,
24,
24,
24,
19,
5,
19,
42,
42,
8,
8,
8,
16,
16,
17,
5,
6,
6,
4,
15,
14,
14,
9,
9,
2,
2,
8,
8,
8,
8,
2,
2,
6,
6,
1,
13,
12,
12,
6,
6,
4,
4,
3,
3,
1,
22,
21,
21,
27,
5,
6,
6,
10,
10,
10,
10,
7,
7,
8,
8,
9,
9,
3,
3,
10,
29,
29,
29,
19,
5,
22,
45,
44,
29,
29,
5,
5,
5,
1,
1,
3,
3,
1,
1,
4,
4,
6,
6,
8,
8,
8,
8,
5,
5,
5,
5,
4,
4,
6,
6,
2,
2,
3,
3,
2,
2,
4,
4,
8,
8,
6,
6,
6,
6,
6,
6,
1,
1,
7,
7,
8,
8,
2,
2,
9,
9,
1,
1,
7,
7,
8,
8,
2,
2,
12,
12,
2,
2,
7,
7,
3,
3,
0,
0,
2,
2,
2,
2,
6,
6,
7,
7,
5,
5,
0,
0,
4,
4,
2,
2,
6,
6,
1,
1,
5,
5,
1,
1,
4,
4,
-1,
-1,
0,
0,
2,
13,
12,
12,
10,
10,
14,
14,
19,
4,
5,
5,
7,
7,
15,
2,
2,
2,
7,
21,
21,
21,
15,
15,
10,
10,
1,
16,
15,
26,
25,
25,
17,
1,
2,
2,
2,
2,
-1,
-1,
6,
6,
6,
6,
2,
2,
5,
5,
3,
14,
13,
13,
5,
5,
1,
1,
1,
1,
3,
3,
8,
8,
1,
1,
1,
1,
4,
4,
1,
1,
3,
3,
10,
10,
14,
14,
11,
11,
2,
2,
10,
10,
1,
1,
3,
3,
2,
2,
-1,
-1,
0,
0,
2,
14,
14,
30,
30,
18,
18,
2,
4,
4,
2,
2,
5,
5,
7,
7,
10,
10,
12,
12,
12,
12,
6,
6,
-1,
-1,
1,
1,
4,
4,
10,
10,
8,
8,
6,
6,
4,
4,
0,
0,
1,
1,
2,
2,
1,
1,
3,
3,
0,
0,
2,
2,
4,
4,
1,
1,
4,
4,
6,
6,
4,
4,
5,
5,
13,
2,
3,
3,
1,
1,
4,
4,
4,
4,
2,
2,
0,
0,
8,
23,
22,
22,
15,
3,
3,
3,
6,
6,
10,
10,
10,
10,
6,
6,
2,
2,
4,
4,
6,
6,
6,
6,
6,
6,
-1,
-1,
5,
5,
1,
1,
5,
5,
3,
3,
4,
4,
1,
1,
4,
4,
1,
1,
10,
10,
17,
17,
13,
2,
3,
3,
2,
2,
1,
1,
5,
18,
17,
17,
15,
15,
9,
9,
3,
3,
2,
2,
1,
1,
9,
9,
7,
7,
0,
0,
2,
15,
14,
14,
9,
9,
1,
1,
4,
4,
6,
6,
12,
12,
14,
14,
9,
9,
2,
16,
15,
15,
13,
13,
6,
22,
21,
21,
23,
1,
3,
14,
14,
14,
12,
12,
8,
8,
7,
7,
5,
5,
7,
7,
1,
1,
4,
4,
2,
2,
3,
3,
3,
3,
8,
8,
2,
2,
8,
8,
9,
9,
5,
5,
1,
1,
4,
4,
4,
4,
0,
0,
10,
10,
12,
0,
1,
1,
6,
6,
10,
10,
9,
9,
2,
2,
3,
3,
1,
1,
0,
0,
2,
2,
5,
5,
2,
2,
0,
0,
1,
1,
3,
3,
5,
5,
2,
2,
2,
2,
0,
0,
8,
8,
6,
6,
3,
3,
8,
8,
8,
8,
1,
1,
3,
3,
2,
2,
6,
6,
4,
4,
0,
0,
0,
0,
0,
0,
4,
4,
1,
1,
5,
5,
1,
1,
8,
8,
10,
33,
32,
20,
20,
1,
2,
13,
13,
13,
12,
12,
9,
9,
9,
9,
2,
2,
1,
1,
2,
2,
3,
3,
-1,
-1,
-1,
-1,
2,
2,
1,
1,
-1,
-1,
-2,
-2,
1,
1,
0,
0,
2,
2,
8,
8,
5,
5,
-1,
-1,
1,
1,
1,
1,
6,
6,
2,
18,
17,
17,
20,
2,
2,
2,
6,
6,
14,
14,
17,
5,
5,
5,
2,
2,
0,
0,
1,
1,
5,
5,
1,
1,
2,
30,
29,
29,
33,
3,
4,
4,
11,
11,
11,
11,
12,
12,
15,
15,
20,
20,
11,
11,
2,
2,
-1,
-1,
1,
1,
1,
1,
3,
3,
6,
6,
10,
10,
4,
4,
8,
8,
4,
28,
28,
28,
32,
4,
4,
4,
10,
10,
10,
10,
6,
6,
4,
4,
1,
1,
1,
1,
3,
3,
1,
1,
2,
2,
4,
4,
4,
4,
2,
2,
7,
7,
2,
2,
0,
0,
5,
5,
9,
9,
4,
4,
1,
1,
1,
1,
0,
0,
2,
16,
15,
15,
12,
1,
2,
2,
8,
8,
1,
1,
10,
10,
8,
8,
2,
2,
4,
4,
3,
3,
1,
1,
3,
3,
8,
8,
8,
8,
6,
6,
3,
3,
1,
1,
4,
4,
7,
7,
0,
0,
4,
4,
9,
9,
10,
10,
6,
6,
1,
1,
0,
0,
0,
0,
0,
0,
6,
6,
6,
6,
2,
2,
0,
0,
2,
2,
8,
8,
11,
11,
10,
10,
2,
2,
10,
10,
9,
9,
9,
9,
6,
6,
7,
7,
6,
6,
4,
16,
16,
16,
18,
4,
5,
5,
2,
2,
2,
2,
0,
0,
0,
0,
-1,
-1,
2,
2,
2,
2,
-1,
-1,
0,
0,
1,
1,
-2,
-2,
1,
1,
1,
1,
1,
1,
2,
2,
7,
7,
6,
6,
2,
2,
6,
6,
7,
7,
-1,
-1,
1,
1,
6,
6,
7,
7,
4,
4,
2,
15,
15,
15,
16,
4,
18,
51,
