EMG_S3/DS0027.CSV

Memory Length,4000,
Trigger Level,-4.80000e+02,
Source,CH1,
Probe,1.0X,
Vertical Units,V,
Vertical Scale,1.00000e+00,
Vertical Position,0.00000e+00,
Horizontal Units,S,
Horizontal Scale,1.00000e-01,
Horizontal Position,0.0000000e+00,
Horizontal Mode,Roll Mode,
Waveform Last Dot Address,4000,
Sampling Period,4.00000e-04,
Firmware,V1.14,
Time, ,
Mode,Fast,
Waveform Data,
5,
5,
4,
4,
20,
20,
19,
19,
27,
27,
29,
29,
22,
22,
14,
14,
5,
5,
0,
0,
1,
1,
10,
10,
6,
6,
1,
1,
0,
0,
5,
5,
1,
1,
6,
6,
12,
12,
13,
13,
7,
7,
3,
3,
2,
2,
1,
16,
16,
16,
23,
23,
19,
19,
10,
10,
6,
6,
7,
7,
10,
10,
8,
8,
11,
11,
10,
10,
3,
3,
2,
2,
5,
5,
10,
10,
4,
4,
-1,
-1,
3,
3,
2,
2,
5,
5,
15,
15,
20,
20,
20,
6,
6,
6,
14,
14,
12,
12,
7,
7,
6,
6,
2,
2,
4,
4,
4,
4,
3,
3,
2,
2,
0,
0,
1,
1,
4,
4,
0,
0,
2,
2,
4,
4,
6,
6,
3,
3,
6,
17,
16,
16,
16,
16,
9,
9,
1,
1,
2,
2,
1,
1,
-1,
-1,
0,
0,
5,
5,
4,
4,
4,
4,
6,
6,
1,
1,
3,
3,
10,
10,
3,
3,
11,
11,
13,
1,
1,
1,
6,
6,
9,
9,
9,
9,
8,
8,
3,
3,
1,
1,
4,
4,
7,
7,
12,
12,
12,
1,
2,
2,
5,
5,
10,
10,
12,
25,
24,
37,
36,
24,
25,
13,
13,
0,
1,
1,
3,
3,
12,
26,
26,
26,
27,
13,
13,
2,
3,
3,
0,
0,
2,
2,
4,
4,
4,
4,
0,
0,
3,
3,
2,
2,
8,
8,
5,
5,
10,
31,
31,
20,
21,
5,
6,
6,
4,
4,
0,
0,
4,
4,
1,
1,
2,
2,
10,
10,
6,
6,
1,
1,
9,
9,
5,
5,
1,
14,
14,
14,
22,
4,
5,
5,
7,
7,
16,
16,
16,
5,
6,
6,
3,
3,
0,
0,
1,
1,
2,
2,
6,
6,
2,
2,
5,
5,
1,
1,
1,
14,
14,
14,
20,
20,
16,
16,
14,
14,
9,
9,
1,
1,
5,
5,
1,
15,
14,
14,
17,
17,
12,
12,
9,
9,
5,
5,
4,
4,
8,
8,
12,
12,
4,
4,
9,
9,
15,
15,
16,
16,
12,
12,
3,
3,
4,
4,
4,
4,
0,
0,
3,
16,
16,
16,
12,
1,
4,
15,
15,
15,
14,
1,
2,
2,
5,
5,
8,
8,
2,
2,
9,
9,
12,
12,
7,
7,
1,
1,
4,
4,
3,
3,
4,
4,
-1,
-1,
0,
0,
1,
1,
2,
2,
4,
4,
1,
1,
3,
3,
6,
6,
7,
7,
13,
13,
15,
15,
13,
13,
12,
12,
5,
5,
14,
30,
29,
29,
28,
28,
26,
3,
5,
21,
21,
21,
28,
28,
29,
18,
18,
4,
4,
4,
5,
5,
12,
12,
19,
30,
29,
29,
20,
7,
8,
8,
1,
1,
0,
0,
0,
0,
6,
6,
9,
9,
9,
9,
12,
12,
22,
22,
21,
2,
2,
2,
9,
9,
10,
10,
7,
7,
6,
6,
8,
8,
10,
10,
4,
4,
12,
12,
16,
16,
18,
5,
6,
6,
2,
2,
3,
3,
2,
2,
4,
4,
1,
1,
8,
8,
7,
7,
5,
19,
18,
18,
22,
8,
8,
8,
0,
0,
5,
5,
2,
13,
13,
13,
17,
17,
17,
17,
17,
5,
5,
5,
6,
6,
14,
14,
16,
16,
9,
9,
5,
5,
4,
4,
4,
4,
10,
10,
2,
2,
8,
8,
12,
12,
2,
2,
6,
19,
18,
18,
18,
18,
8,
8,
4,
4,
1,
13,
13,
13,
15,
15,
14,
14,
12,
1,
2,
2,
2,
2,
3,
3,
10,
10,
2,
2,
7,
7,
3,
21,
21,
21,
25,
4,
4,
4,
6,
6,
6,
6,
9,
9,
8,
8,
6,
6,
1,
1,
0,
0,
21,
10,
11,
0,
3,
3,
1,
1,
0,
0,
6,
6,
10,
10,
9,
9,
7,
7,
12,
12,
14,
14,
14,
14,
9,
9,
4,
4,
0,
0,
0,
0,
0,
0,
0,
0,
2,
2,
-1,
-1,
2,
2,
5,
5,
1,
1,
3,
3,
7,
7,
9,
9,
9,
9,
2,
2,
2,
2,
9,
9,
2,
18,
17,
36,
34,
20,
20,
1,
3,
3,
10,
21,
20,
9,
9,
9,
13,
13,
13,
13,
13,
13,
19,
3,
4,
25,
25,
44,
43,
43,
41,
21,
21,
2,
3,
17,
16,
16,
25,
25,
28,
28,
25,
8,
9,
9,
6,
6,
12,
12,
15,
15,
5,
16,
15,
15,
7,
7,
0,
0,
3,
3,
3,
3,
0,
0,
1,
1,
2,
2,
3,
3,
0,
0,
1,
1,
0,
0,
3,
3,
6,
6,
4,
4,
0,
0,
3,
3,
1,
1,
-1,
-1,
-1,
-1,
-1,
-1,
2,
2,
6,
6,
6,
6,
11,
30,
30,
30,
21,
8,
9,
9,
6,
6,
14,
14,
10,
10,
5,
5,
6,
6,
9,
9,
13,
13,
17,
17,
10,
10,
1,
1,
10,
10,
8,
8,
1,
1,
4,
4,
2,
2,
0,
0,
6,
6,
8,
8,
9,
9,
10,
10,
10,
10,
7,
7,
8,
8,
6,
6,
2,
2,
2,
2,
6,
6,
5,
5,
2,
2,
4,
4,
4,
4,
0,
0,
-1,
-1,
4,
4,
7,
7,
9,
9,
9,
9,
5,
5,
2,
2,
4,
4,
0,
0,
4,
4,
5,
5,
4,
4,
10,
10,
11,
0,
1,
1,
9,
9,
6,
20,
20,
3,
7,
27,
26,
26,
25,
6,
22,
48,
47,
21,
21,
5,
12,
12,
16,
2,
2,
2,
10,
24,
24,
8,
9,
9,
8,
8,
11,
11,
7,
7,
6,
6,
2,
2,
9,
9,
14,
14,
14,
14,
13,
13,
17,
17,
15,
15,
7,
7,
2,
2,
12,
12,
20,
20,
20,
20,
15,
15,
13,
13,
14,
14,
14,
14,
13,
13,
10,
10,
2,
2,
3,
3,
6,
6,
10,
10,
15,
15,
17,
6,
6,
6,
7,
7,
8,
8,
8,
8,
4,
15,
15,
15,
14,
1,
1,
20,
19,
45,
44,
24,
24,
3,
9,
9,
16,
16,
23,
23,
26,
26,
25,
25,
18,
6,
6,
6,
10,
22,
21,
21,
18,
18,
12,
12,
8,
8,
2,
2,
3,
3,
3,
3,
6,
6,
1,
1,
3,
3,
2,
2,
4,
4,
4,
4,
2,
2,
3,
3,
3,
3,
3,
3,
0,
0,
5,
5,
6,
6,
5,
5,
2,
2,
0,
0,
0,
0,
0,
0,
-1,
-1,
5,
5,
8,
8,
2,
2,
-1,
-1,
0,
0,
4,
4,
0,
0,
0,
0,
6,
22,
21,
21,
15,
15,
7,
7,
1,
12,
12,
12,
21,
21,
30,
30,
24,
13,
13,
13,
5,
5,
7,
7,
17,
17,
14,
14,
6,
6,
0,
0,
7,
7,
13,
1,
2,
15,
14,
14,
14,
2,
10,
10,
18,
18,
11,
11,
8,
8,
2,
2,
0,
0,
6,
6,
10,
10,
1,
1,
1,
1,
8,
24,
22,
22,
16,
1,
4,
4,
11,
11,
18,
18,
22,
22,
17,
6,
6,
6,
1,
1,
-1,
-1,
-1,
-1,
3,
3,
10,
10,
12,
12,
5,
5,
6,
25,
24,
24,
22,
1,
3,
3,
12,
12,
21,
10,
10,
10,
10,
27,
26,
14,
14,
1,
5,
17,
16,
16,
18,
18,
18,
18,
18,
18,
10,
10,
1,
1,
2,
2,
9,
9,
10,
10,
3,
3,
2,
13,
12,
12,
13,
1,
2,
2,
0,
0,
1,
1,
-1,
-1,
1,
1,
9,
9,
6,
6,
4,
4,
8,
8,
4,
4,
5,
20,
20,
20,
18,
18,
13,
13,
16,
16,
9,
9,
11,
29,
28,
28,
28,
28,
26,
26,
28,
28,
27,
14,
14,
14,
22,
46,
46,
28,
28,
9,
9,
9,
2,
2,
8,
8,
7,
7,
4,
4,
1,
1,
3,
3,
1,
1,
4,
4,
7,
7,
13,
13,
17,
3,
4,
4,
0,
0,
0,
0,
2,
2,
2,
2,
2,
2,
5,
5,
8,
8,
8,
8,
3,
3,
4,
4,
7,
7,
1,
1,
5,
5,
6,
6,
5,
5,
3,
3,
5,
5,
6,
6,
15,
15,
17,
17,
17,
17,
12,
1,
10,
10,
15,
15,
14,
14,
8,
8,
8,
8,
13,
13,
10,
10,
10,
10,
7,
7,
12,
12,
12,
1,
3,
3,
10,
10,
14,
14,
18,
18,
18,
3,
3,
3,
6,
6,
8,
8,
8,
8,
16,
16,
9,
9,
2,
2,
-2,
9,
8,
8,
10,
10,
2,
2,
2,
2,
3,
14,
14,
14,
15,
2,
3,
3,
3,
3,
11,
11,
20,
20,
10,
10,
3,
3,
8,
8,
8,
8,
8,
8,
8,
8,
7,
7,
5,
5,
1,
1,
2,
2,
0,
0,
0,
0,
2,
2,
1,
1,
6,
6,
0,
11,
11,
24,
23,
23,
20,
9,
10,
10,
2,
15,
14,
1,
3,
3,
9,
9,
2,
2,
3,
3,
5,
5,
1,
1,
3,
3,
7,
7,
7,
19,
18,
18,
19,
19,
13,
13,
9,
9,
1,
1,
10,
10,
7,
7,
5,
5,
3,
3,
0,
0,
7,
7,
10,
10,
1,
1,
2,
2,
1,
1,
4,
4,
3,
3,
3,
3,
1,
1,
9,
9,
8,
8,
5,
5,
4,
4,
2,
2,
1,
1,
9,
9,
9,
9,
6,
6,
1,
1,
8,
8,
1,
16,
16,
27,
27,
27,
27,
27,
18,
6,
6,
6,
1,
1,
2,
2,
1,
14,
13,
13,
12,
25,
24,
35,
34,
17,
18,
4,
5,
5,
8,
8,
2,
2,
12,
1,
2,
14,
14,
14,
13,
1,
6,
6,
14,
14,
10,
10,
12,
12,
3,
3,
9,
9,
12,
12,
22,
22,
26,
26,
24,
24,
17,
2,
2,
2,
10,
24,
23,
10,
10,
10,
1,
1,
1,
1,
8,
8,
16,
5,
6,
6,
9,
21,
21,
21,
13,
1,
4,
4,
6,
6,
1,
1,
0,
0,
8,
8,
12,
12,
10,
10,
12,
12,
12,
12,
13,
13,
4,
4,
0,
0,
1,
23,
22,
41,
41,
26,
26,
12,
13,
1,
1,
13,
12,
12,
4,
4,
0,
0,
9,
9,
18,
18,
21,
9,
-1,
-1,
0,
0,
2,
2,
4,
4,
13,
13,
7,
7,
2,
2,
1,
1,
-1,
-1,
1,
1,
5,
5,
2,
2,
12,
12,
15,
1,
2,
2,
6,
6,
6,
6,
2,
2,
4,
4,
10,
10,
16,
5,
5,
5,
4,
4,
6,
6,
6,
6,
2,
2,
8,
8,
17,
2,
2,
2,
5,
5,
8,
8,
16,
16,
10,
10,
16,
16,
20,
20,
16,
3,
3,
3,
11,
23,
23,
23,
20,
2,
3,
15,
14,
14,
12,
12,
5,
5,
2,
2,
2,
2,
10,
10,
12,
12,
9,
9,
6,
18,
18,
18,
10,
10,
1,
1,
2,
2,
5,
5,
8,
8,
1,
1,
3,
3,
6,
6,
10,
10,
2,
2,
4,
4,
4,
4,
1,
1,
0,
0,
4,
4,
4,
4,
1,
1,
-2,
-2,
-1,
-1,
6,
6,
9,
9,
1,
1,
5,
5,
2,
2,
3,
3,
2,
2,
6,
6,
6,
6,
4,
4,
1,
1,
5,
5,
6,
6,
2,
2,
6,
6,
6,
6,
4,
4,
2,
2,
2,
2,
0,
0,
4,
4,
2,
2,
6,
6,
14,
2,
5,
26,
26,
38,
37,
52,
50,
9,
9,
9,
19,
19,
18,
18,
15,
15,
18,
18,
13,
13,
7,
7,
1,
1,
0,
0,
4,
4,
9,
9,
12,
12,
7,
7,
0,
0,
5,
17,
17,
31,
30,
30,
26,
26,
18,
2,
5,
18,
17,
17,
17,
2,
3,
3,
5,
5,
0,
0,
2,
2,
9,
9,
9,
9,
2,
32,
32,
21,
21,
3,
6,
6,
8,
8,
1,
1,
2,
2,
8,
8,
10,
10,
12,
12,
7,
7,
2,
2,
7,
7,
10,
10,
2,
2,
9,
9,
4,
4,
0,
11,
10,
10,
14,
2,
9,
9,
7,
30,
30,
30,
26,
13,
13,
13,
6,
6,
1,
1,
6,
6,
14,
14,
22,
22,
26,
26,
21,
6,
6,
6,
5,
5,
5,
5,
5,
5,
2,
2,
3,
3,
9,
9,
10,
10,
6,
6,
4,
4,
8,
8,
9,
9,
14,
32,
32,
32,
34,
14,
14,
0,
2,
2,
7,
7,
15,
15,
20,
20,
18,
18,
18,
18,
18,
18,
14,
14,
9,
9,
5,
5,
3,
3,
2,
2,
2,
2,
6,
6,
9,
9,
17,
17,
20,
20,
18,
18,
8,
8,
4,
4,
10,
10,
14,
14,
8,
8,
4,
22,
21,
32,
30,
18,
18,
1,
2,
2,
4,
4,
4,
4,
12,
12,
22,
22,
17,
17,
9,
9,
14,
14,
16,
16,
7,
7,
6,
6,
1,
1,
2,
14,
13,
13,
22,
22,
18,
18,
13,
13,
7,
7,
1,
1,
0,
0,
1,
1,
2,
14,
14,
14,
12,
12,
2,
2,
2,
2,
1,
1,
2,
2,
4,
18,
17,
17,
15,
15,
7,
7,
2,
2,
7,
7,
11,
11,
6,
6,
4,
4,
5,
5,
2,
2,
3,
3,
2,
2,
9,
9,
17,
2,
2,
19,
18,
18,
17,
17,
10,
26,
26,
13,
13,
2,
8,
8,
16,
16,
17,
17,
13,
13,
7,
7,
3,
3,
1,
1,
4,
4,
1,
1,
1,
1,
-1,
-1,
1,
1,
6,
6,
4,
26,
25,
40,
38,
17,
17,
2,
8,
8,
16,
16,
7,
7,
10,
10,
10,
10,
5,
5,
0,
0,
9,
9,
9,
9,
5,
5,
1,
1,
5,
5,
3,
3,
0,
0,
3,
3,
5,
5,
9,
9,
10,
10,
12,
12,
10,
10,
14,
14,
16,
1,
4,
17,
16,
5,
5,
5,
10,
10,
7,
7,
0,
0,
2,
2,
3,
3,
12,
12,
8,
8,
0,
0,
0,
0,
0,
0,
0,
0,
0,
0,
0,
0,
0,
0,
2,
2,
2,
2,
5,
5,
14,
14,
14,
0,
1,
1,
10,
34,
33,
33,
33,
13,
13,
0,
1,
1,
10,
22,
22,
22,
20,
8,
9,
9,
0,
0,
0,
0,
3,
3,
10,
10,
6,
6,
1,
1,
9,
9,
9,
9,
0,
0,
1,
1,
4,
4,
0,
0,
4,
4,
4,
4,
7,
7,
10,
10,
6,
6,
-1,
-1,
0,
0,
3,
3,
4,
4,
13,
13,
16,
3,
11,
34,
33,
21,
22,
4,
5,
5,
4,
4,
3,
3,
2,
2,
4,
4,
13,
13,
18,
18,
10,
10,
15,
15,
18,
3,
6,
34,
33,
33,
33,
17,
18,
2,
4,
4,
9,
9,
6,
6,
7,
7,
8,
8,
4,
19,
18,
18,
12,
12,
3,
3,
0,
11,
10,
10,
6,
6,
3,
3,
3,
15,
14,
14,
13,
1,
3,
3,
-1,
-1,
2,
2,
3,
3,
3,
3,
6,
6,
10,
10,
8,
8,
2,
2,
3,
3,
-1,
-1,
1,
1,
5,
5,
2,
2,
6,
6,
1,
1,
6,
6,
5,
5,
0,
0,
6,
6,
13,
13,
9,
9,
10,
10,
2,
14,
13,
27,
26,
6,
7,
40,
39,
24,
24,
2,
4,
4,
11,
11,
15,
15,
17,
17,
17,
17,
10,
10,
1,
1,
7,
7,
6,
6,
4,
4,
2,
2,
4,
4,
7,
7,
1,
1,
6,
6,
2,
2,
8,
8,
1,
1,
0,
18,
17,
17,
17,
1,
4,
4,
13,
13,
9,
9,
2,
2,
2,
2,
5,
5,
1,
1,
3,
3,
1,
1,
2,
2,
3,
3,
1,
1,
2,
2,
7,
7,
9,
9,
5,
5,
2,
2,
8,
8,
6,
6,
2,
2,
0,
0,
3,
3,
10,
10,
10,
-1,
0,
0,
1,
1,
1,
1,
6,
24,
24,
24,
31,
31,
22,
2,
3,
3,
10,
10,
8,
8,
9,
9,
12,
12,
8,
8,
3,
3,
-1,
-1,
2,
2,
6,
6,
14,
14,
14,
1,
3,
19,
18,
18,
24,
24,
27,
27,
20,
1,
2,
2,
10,
10,
15,
15,
20,
20,
18,
18,
13,
13,
4,
4,
0,
0,
0,
0,
3,
3,
4,
4,
5,
5,
5,
5,
6,
6,
8,
8,
8,
8,
3,
3,
2,
2,
5,
5,
1,
1,
7,
7,
10,
10,
2,
2,
10,
30,
30,
53,
51,
20,
20,
3,
10,
10,
18,
29,
28,
28,
31,
31,
21,
21,
20,
20,
20,
6,
6,
6,
4,
4,
4,
4,
1,
1,
5,
5,
6,
6,
1,
1,
8,
8,
18,
34,
33,
33,
30,
17,
18,
18,
10,
10,
2,
2,
5,
5,
14,
14,
13,
13,
8,
8,
4,
4,
2,
2,
6,
6,
0,
0,
5,
5,
3,
3,
10,
10,
15,
15,
7,
7,
3,
3,
2,
2,
1,
18,
17,
17,
16,
16,
17,
17,
22,
22,
16,
16,
6,
6,
0,
12,
12,
25,
24,
36,
35,
35,
27,
8,
8,
8,
1,
1,
3,
3,
2,
2,
-1,
-1,
3,
3,
5,
5,
3,
3,
-1,
-1,
1,
1,
8,
8,
13,
13,
16,
16,
12,
12,
10,
10,
5,
5,
4,
4,
8,
8,
8,
8,
5,
5,
5,
5,
5,
5,
4,
4,
1,
1,
5,
5,
10,
10,
11,
11,
3,
3,
3,
3,
7,
7,
8,
8,
3,
3,
5,
5,
1,
1,
1,
1,
4,
4,
5,
17,
16,
5,
6,
6,
8,
8,
9,
9,
4,
4,
0,
0,
2,
2,
6,
6,
6,
6,
1,
1,
5,
5,
7,
7,
6,
6,
1,
1,
-1,
-1,
-1,
-1,
5,
5,
10,
10,
3,
3,
6,
6,
14,
14,
13,
0,
1,
1,
4,
4,
1,
14,
13,
1,
2,
2,
3,
3,
10,
10,
1,
1,
2,
2,
1,
1,
4,
4,
0,
0,
5,
5,
0,
0,
6,
6,
3,
3,
6,
6,
7,
7,
8,
8,
1,
1,
7,
7,
5,
5,
0,
0,
1,
1,
6,
18,
17,
17,
9,
9,
6,
6,
7,
7,
9,
9,
12,
12,
6,
6,
0,
17,
16,
16,
25,
13,
13,
2,
2,
2,
9,
9,
13,
13,
10,
10,
5,
5,
2,
2,
3,
3,
2,
2,
-1,
-1,
-1,
-1,
2,
2,
0,
0,
3,
3,
7,
7,
5,
5,
0,
0,
1,
1,
8,
8,
10,
10,
9,
9,
4,
4,
0,
0,
0,
0,
6,
6,
5,
5,
0,
0,
0,
0,
1,
1,
0,
0,
6,
6,
8,
8,
8,
8,
8,
8,
5,
5,
5,
5,
1,
1,
2,
2,
3,
3,
3,
3,
1,
1,
9,
9,
10,
10,
1,
1,
10,
10,
15,
28,
28,
7,
7,
50,
50,
50,
54,
20,
20,
2,
5,
20,
20,
20,
25,
25,
17,
17,
7,
7,
9,
9,
9,
9,
7,
7,
3,
3,
2,
2,
6,
6,
2,
2,
1,
16,
16,
16,
16,
5,
6,
6,
1,
1,
2,
2,
-1,
-1,
3,
3,
1,
1,
5,
5,
1,
1,
6,
6,
10,
10,
5,
5,
8,
8,
10,
10,
2,
2,
2,
2,
4,
4,
2,
2,
11,
11,
16,
1,
2,
2,
5,
5,
5,
5,
4,
4,
9,
9,
6,
6,
6,
6,
4,
4,
9,
9,
11,
11,
3,
3,
7,
7,
2,
2,
11,
11,
20,
20,
11,
11,
4,
4,
1,
1,
10,
10,
11,
11,
5,
5,
4,
4,
3,
3,
0,
0,
5,
5,
6,
6,
6,
6,
1,
1,
4,
4,
9,
9,
9,
9,
8,
8,
4,
4,
4,
4,
6,
6,
9,
9,
12,
12,
8,
8,
3,
3,
5,
5,
1,
1,
1,
1,
1,
27,
27,
14,
14,
-1,
0,
0,
1,
1,
3,
3,
12,
12,
17,
17,
10,
10,
7,
7,
10,
10,
12,
1,
9,
41,
41,
27,
27,
1,
2,
2,
6,
6,
15,
15,
16,
16,
13,
2,
6,
6,
13,
1,
4,
4,
14,
14,
8,
8,
6,
6,
15,
15,
10,
10,
1,
14,
14,
14,
7,
7,
8,
22,
22,
33,
31,
12,
13,
0,
0,
0,
6,
6,
12,
12,
18,
18,
17,
17,
13,
13,
9,
9,
0,
0,
1,
1,
2,
2,
5,
5,
4,
4,
4,
23,
22,
22,
27,
13,
14,
0,
2,
2,
3,
3,
-1,
-1,
6,
6,
12,
12,
13,
13,
10,
10,
9,
9,
1,
1,
4,
4,
13,
13,
10,
10,
1,
1,
5,
5,
6,
6,
8,
8,
9,
9,
9,
9,
9,
9,
5,
5,
10,
10,
14,
14,
6,
6,
2,
2,
7,
7,
5,
5,
8,
8,
8,
8,
4,
4,
5,
5,
8,
8,
2,
2,
9,
9,
14,
14,
10,
10,
7,
7,
5,
5,
2,
15,
15,
30,
29,
29,
29,
29,
30,
5,
5,
22,
22,
22,
28,
28,
27,
27,
22,
4,
8,
36,
35,
35,
28,
2,
3,
3,
9,
9,
12,
12,
12,
12,
11,
11,
13,
13,
17,
17,
16,
1,
3,
3,
11,
24,
24,
24,
28,
13,
14,
2,
2,
2,
10,
10,
12,
1,
4,
4,
5,
5,
4,
4,
3,
3,
6,
6,
10,
10,
12,
12,
8,
8,
2,
2,
-1,
-1,
2,
2,
1,
1,
9,
9,
14,
14,
9,
9,
1,
1,
4,
4,
5,
5,
6,
6,
11,
11,
9,
9,
1,
1,
8,
8,
14,
14,
13,
1,
5,
17,
17,
17,
9,
9,
2,
15,
14,
14,
17,
17,
10,
10,
8,
8,
8,
25,
24,
24,
29,
17,
17,
17,
8,
8,
4,
4,
2,
2,
4,
4,
2,
2,
2,
2,
0,
15,
15,
41,
39,
39,
34,
4,
5,
19,
19,
19,
12,
-1,
0,
0,
1,
1,
5,
5,
2,
2,
4,
4,
4,
4,
10,
10,
12,
1,
7,
21,
20,
9,
9,
9,
0,
0,
0,
0,
4,
4,
2,
2,
3,
3,
12,
12,
14,
14,
9,
9,
2,
2,
-1,
-1,
0,
0,
2,
2,
2,
2,
10,
33,
32,
32,
28,
15,
15,
15,
12,
12,
13,
1,
1,
1,
8,
8,
12,
12,
20,
33,
33,
33,
30,
15,
15,
4,
4,
4,
4,
4,
3,
3,
4,
4,
14,
14,
17,
17,
13,
13,
5,
5,
2,
2,
2,
2,
9,
9,
1,
1,
3,
20,
19,
19,
21,
5,
6,
6,
8,
8,
12,
12,
7,
7,
0,
0,
2,
2,
6,
6,
8,
8,
8,
8,
7,
7,
3,
3,
1,
1,
5,
5,
8,
8,
7,
7,
4,
4,
2,
2,
0,
0,
1,
1,
5,
5,
6,
6,
5,
5,
1,
1,
2,
2,
3,
3,
0,
0,
9,
9,
12,
12,
9,
9,
5,
5,
0,
0,
2,
2,
3,
3,
7,
7,
1,
1,
1,
1,
2,
2,
2,
2,
-1,
-1,
3,
3,
1,
1,
10,
10,
7,
7,
2,
2,
1,
1,
1,
1,
2,
2,
2,
2,
2,
2,
0,
0,
-1,
-1,
1,
1,
2,
2,
3,
3,
3,
3,
0,
0,
7,
7,
10,
10,
7,
7,
3,
3,
1,
1,
5,
5,
4,
4,
5,
5,
10,
10,
2,
2,
10,
10,
5,
5,
6,
6,
10,
10,
5,
25,
24,
24,
30,
30,
24,
4,
4,
4,
7,
7,
9,
9,
18,
18,
23,
23,
18,
18,
23,
3,
4,
4,
11,
11,
10,
10,
2,
2,
2,
2,
4,
4,
6,
6,
3,
3,
3,
3,
6,
19,
19,
19,
18,
6,
6,
6,
1,
1,
5,
5,
5,
5,
0,
0,
-1,
-1,
0,
0,
2,
2,
3,
3,
7,
7,
2,
2,
0,
0,
4,
4,
4,
4,
4,
4,
7,
7,
4,
4,
5,
17,
16,
16,
15,
1,
3,
3,
10,
10,
7,
7,
5,
5,
3,
3,
9,
9,
10,
10,
2,
2,
9,
9,
10,
10,
8,
8,
3,
3,
3,
3,
5,
5,
4,
4,
1,
1,
2,
2,
4,
4,
7,
7,
2,
2,
4,
4,
5,
5,
13,
26,
25,
8,
9,
9,
5,
5,
11,
11,
10,
10,
8,
8,
8,
8,
9,
9,
4,
4,
5,
5,
10,
10,
7,
7,
1,
1,
1,
1,
0,
0,
6,
6,
7,
7,
6,
6,
5,
5,
2,
16,
15,
15,
15,
15,
7,
7,
1,
1,
4,
17,
15,
15,
14,
14,
8,
8,
3,
3,
0,
0,
6,
25,
24,
6,
6,
21,
21,
21,
12,
0,
2,
2,
9,
9,
6,
22,
21,
21,
28,
28,
22,
22,
21,
4,
5,
5,
7,
22,
21,
21,
28,
28,
30,
30,
30,
30,
22,
11,
12,
12,
