EMG_S3/DS0038.CSV

Memory Length,4000,
Trigger Level,-4.80000e+02,
Source,CH1,
Probe,1.0X,
Vertical Units,V,
Vertical Scale,1.00000e+00,
Vertical Position,0.00000e+00,
Horizontal Units,S,
Horizontal Scale,1.00000e-01,
Horizontal Position,0.0000000e+00,
Horizontal Mode,Roll Mode,
Waveform Last Dot Address,4000,
Sampling Period,4.00000e-04,
Firmware,V1.14,
Time, ,
Mode,Fast,
Waveform Data,
1,
1,
1,
1,
4,
4,
5,
5,
3,
3,
3,
3,
2,
2,
4,
4,
0,
0,
4,
27,
27,
27,
30,
18,
18,
2,
5,
24,
23,
23,
20,
5,
5,
5,
4,
4,
2,
2,
4,
4,
9,
9,
4,
4,
6,
6,
11,
11,
4,
4,
-1,
-1,
-1,
-1,
1,
1,
7,
7,
5,
5,
2,
2,
2,
2,
12,
12,
13,
1,
1,
1,
1,
1,
0,
0,
0,
0,
2,
2,
2,
2,
4,
4,
4,
16,
15,
15,
17,
1,
2,
2,
-2,
11,
10,
10,
18,
18,
14,
14,
13,
13,
6,
6,
1,
1,
9,
9,
13,
2,
10,
24,
22,
22,
23,
23,
25,
25,
22,
6,
6,
6,
7,
7,
5,
5,
1,
1,
1,
1,
0,
0,
5,
5,
2,
2,
2,
26,
25,
25,
28,
4,
4,
4,
4,
4,
6,
6,
7,
19,
18,
18,
20,
4,
11,
22,
21,
21,
15,
15,
15,
15,
12,
12,
16,
16,
15,
15,
15,
15,
12,
1,
5,
24,
22,
22,
31,
17,
17,
2,
2,
2,
6,
6,
8,
8,
1,
1,
7,
7,
2,
2,
3,
3,
10,
10,
17,
17,
8,
8,
13,
13,
13,
0,
2,
2,
2,
2,
-1,
-1,
2,
2,
11,
11,
1,
1,
9,
9,
4,
4,
8,
8,
3,
3,
6,
6,
6,
6,
2,
2,
-1,
-1,
3,
3,
2,
2,
6,
6,
9,
9,
1,
1,
2,
2,
0,
0,
0,
0,
2,
2,
10,
10,
17,
17,
13,
13,
5,
5,
5,
5,
8,
8,
2,
2,
3,
3,
1,
1,
8,
8,
13,
13,
10,
10,
6,
6,
1,
1,
5,
5,
2,
19,
19,
19,
10,
10,
12,
29,
29,
9,
9,
9,
12,
12,
20,
20,
18,
7,
7,
7,
6,
6,
12,
12,
21,
21,
26,
14,
14,
14,
20,
20,
20,
8,
8,
8,
9,
9,
6,
6,
2,
15,
14,
14,
10,
10,
5,
19,
18,
5,
10,
38,
37,
18,
18,
18,
9,
9,
1,
1,
8,
8,
14,
14,
12,
12,
12,
12,
10,
10,
8,
8,
0,
0,
2,
15,
14,
14,
15,
3,
4,
4,
6,
6,
9,
9,
7,
7,
11,
11,
8,
8,
6,
17,
16,
16,
13,
13,
6,
6,
0,
0,
3,
3,
2,
2,
3,
3,
8,
8,
7,
7,
4,
4,
0,
15,
14,
27,
26,
26,
19,
1,
2,
17,
16,
2,
2,
2,
8,
8,
1,
1,
2,
2,
7,
7,
11,
11,
10,
10,
13,
13,
5,
5,
6,
6,
12,
12,
11,
11,
6,
6,
8,
8,
13,
13,
11,
11,
4,
4,
2,
2,
5,
5,
10,
10,
16,
16,
14,
14,
5,
5,
1,
1,
2,
2,
6,
6,
12,
12,
15,
4,
22,
47,
46,
18,
18,
1,
1,
1,
-1,
-1,
1,
1,
2,
2,
6,
6,
13,
13,
13,
1,
5,
24,
24,
24,
20,
1,
1,
1,
6,
6,
5,
5,
11,
32,
31,
31,
37,
10,
25,
62,
62,
62,
55,
7,
9,
33,
33,
33,
30,
16,
17,
17,
15,
15,
17,
17,
12,
12,
4,
4,
4,
4,
9,
9,
8,
8,
3,
3,
3,
3,
-1,
-1,
1,
1,
0,
0,
9,
20,
18,
18,
14,
3,
5,
5,
0,
0,
2,
2,
8,
8,
10,
10,
8,
8,
15,
15,
13,
13,
8,
8,
6,
6,
6,
6,
4,
4,
-1,
-1,
5,
5,
11,
11,
14,
14,
6,
6,
1,
1,
-1,
-1,
3,
3,
4,
4,
1,
1,
7,
7,
0,
0,
0,
0,
0,
0,
0,
0,
2,
2,
2,
2,
0,
0,
-1,
-1,
4,
4,
0,
0,
5,
5,
5,
5,
12,
12,
10,
10,
4,
20,
20,
20,
29,
29,
26,
26,
26,
26,
30,
14,
15,
1,
3,
14,
14,
29,
29,
49,
48,
48,
49,
28,
28,
5,
14,
30,
29,
8,
9,
9,
10,
10,
13,
13,
21,
44,
41,
5,
5,
5,
13,
13,
15,
15,
8,
8,
0,
0,
0,
0,
6,
6,
4,
33,
33,
33,
34,
23,
24,
13,
13,
0,
1,
1,
3,
3,
12,
28,
28,
28,
30,
30,
24,
24,
26,
26,
20,
2,
3,
3,
9,
33,
33,
33,
26,
10,
12,
0,
1,
1,
2,
2,
4,
4,
5,
5,
4,
4,
2,
2,
0,
0,
8,
8,
14,
14,
10,
10,
4,
4,
2,
2,
1,
1,
6,
6,
6,
6,
4,
4,
1,
1,
1,
1,
5,
5,
0,
0,
2,
2,
6,
6,
13,
13,
12,
12,
3,
3,
8,
20,
18,
18,
20,
20,
15,
3,
4,
4,
5,
5,
14,
14,
17,
6,
6,
6,
2,
2,
0,
0,
3,
3,
4,
4,
4,
4,
1,
1,
0,
0,
6,
6,
6,
6,
10,
10,
15,
15,
8,
8,
9,
9,
6,
6,
2,
38,
37,
37,
42,
17,
18,
18,
10,
10,
10,
10,
14,
32,
32,
32,
27,
27,
21,
21,
20,
4,
10,
10,
17,
4,
5,
5,
0,
0,
2,
2,
6,
6,
8,
8,
5,
5,
2,
2,
0,
0,
1,
14,
14,
14,
22,
5,
6,
44,
44,
44,
41,
22,
23,
9,
10,
10,
14,
14,
23,
37,
36,
14,
14,
14,
18,
35,
34,
34,
33,
33,
33,
33,
24,
10,
12,
12,
12,
12,
7,
7,
5,
5,
5,
5,
4,
4,
0,
0,
10,
10,
13,
13,
13,
13,
17,
17,
16,
16,
13,
13,
6,
6,
0,
0,
10,
10,
13,
13,
8,
8,
2,
14,
14,
14,
20,
20,
22,
22,
20,
5,
18,
18,
21,
2,
3,
3,
6,
6,
6,
29,
28,
28,
19,
6,
6,
6,
6,
6,
3,
3,
9,
24,
23,
23,
22,
22,
19,
19,
11,
-1,
1,
1,
2,
2,
5,
5,
4,
4,
1,
1,
0,
0,
3,
3,
0,
0,
-1,
-1,
1,
1,
9,
9,
8,
22,
22,
52,
51,
28,
28,
5,
10,
10,
11,
11,
2,
2,
2,
2,
2,
2,
5,
17,
16,
16,
8,
20,
18,
2,
4,
4,
3,
3,
1,
14,
14,
14,
18,
18,
10,
10,
8,
8,
11,
11,
4,
4,
6,
18,
18,
31,
30,
30,
29,
10,
10,
10,
2,
2,
5,
5,
2,
2,
5,
5,
3,
3,
10,
10,
12,
12,
14,
14,
13,
2,
2,
2,
4,
4,
2,
13,
12,
12,
14,
14,
10,
10,
4,
4,
9,
60,
60,
60,
66,
31,
31,
7,
20,
37,
36,
36,
37,
51,
50,
50,
45,
13,
14,
14,
6,
6,
5,
5,
2,
2,
10,
10,
16,
16,
12,
12,
16,
16,
12,
0,
2,
2,
6,
6,
6,
6,
16,
16,
14,
14,
9,
9,
4,
4,
2,
13,
13,
13,
15,
1,
2,
15,
15,
15,
21,
21,
17,
17,
12,
12,
5,
5,
0,
0,
0,
0,
1,
1,
0,
0,
0,
0,
1,
1,
6,
6,
5,
5,
10,
10,
10,
10,
2,
2,
8,
8,
9,
9,
2,
2,
10,
10,
11,
11,
6,
6,
4,
4,
8,
8,
6,
6,
-1,
-1,
2,
2,
3,
14,
13,
42,
42,
25,
25,
2,
2,
2,
7,
7,
13,
13,
21,
21,
25,
25,
18,
18,
14,
14,
7,
7,
4,
4,
3,
3,
5,
5,
6,
18,
17,
17,
13,
13,
10,
10,
6,
6,
4,
4,
2,
2,
4,
4,
11,
11,
7,
7,
3,
3,
3,
3,
-2,
-2,
-1,
-1,
3,
3,
9,
9,
12,
12,
13,
13,
5,
5,
3,
3,
2,
2,
1,
1,
6,
6,
10,
10,
9,
9,
8,
8,
7,
7,
3,
3,
1,
1,
2,
2,
5,
5,
10,
10,
17,
17,
13,
13,
6,
6,
2,
15,
14,
14,
9,
9,
2,
2,
1,
1,
8,
8,
0,
0,
4,
4,
5,
5,
9,
9,
14,
35,
35,
24,
25,
6,
26,
62,
62,
62,
57,
24,
25,
1,
2,
13,
12,
23,
22,
22,
29,
29,
34,
21,
21,
21,
13,
13,
12,
12,
19,
19,
14,
3,
4,
4,
9,
22,
22,
22,
26,
37,
36,
36,
30,
9,
10,
10,
6,
6,
1,
1,
8,
8,
13,
13,
20,
20,
16,
16,
10,
10,
4,
4,
3,
3,
10,
10,
2,
2,
6,
6,
9,
9,
18,
30,
30,
16,
18,
1,
5,
5,
10,
10,
6,
6,
9,
9,
1,
1,
1,
1,
11,
11,
9,
9,
10,
10,
8,
8,
4,
4,
2,
2,
-1,
-1,
2,
2,
1,
1,
11,
11,
21,
21,
14,
3,
4,
4,
4,
4,
6,
6,
7,
7,
0,
0,
0,
0,
2,
17,
17,
17,
22,
9,
10,
10,
17,
29,
27,
4,
4,
4,
9,
9,
12,
12,
16,
4,
8,
38,
38,
16,
16,
4,
11,
11,
11,
11,
7,
7,
3,
3,
1,
1,
1,
1,
1,
1,
2,
2,
3,
3,
10,
10,
1,
28,
28,
28,
30,
5,
6,
6,
0,
0,
10,
10,
6,
6,
10,
10,
3,
3,
1,
12,
12,
12,
20,
2,
4,
19,
18,
18,
18,
18,
10,
10,
6,
6,
3,
3,
10,
10,
17,
17,
13,
13,
6,
6,
4,
4,
9,
9,
8,
8,
8,
8,
9,
9,
5,
5,
9,
9,
14,
14,
9,
9,
10,
10,
14,
14,
14,
14,
8,
8,
13,
26,
26,
26,
21,
3,
6,
26,
26,
26,
32,
32,
33,
22,
22,
1,
3,
27,
27,
27,
26,
3,
5,
5,
6,
6,
9,
9,
12,
12,
2,
32,
31,
31,
24,
2,
4,
17,
16,
16,
22,
8,
8,
8,
3,
3,
1,
1,
4,
4,
1,
1,
5,
5,
9,
22,
21,
36,
34,
16,
16,
1,
6,
23,
22,
22,
29,
29,
22,
10,
12,
12,
6,
6,
1,
1,
9,
25,
24,
24,
24,
6,
6,
6,
5,
5,
14,
14,
12,
12,
8,
8,
0,
11,
11,
11,
19,
19,
23,
23,
24,
24,
26,
26,
18,
1,
2,
2,
9,
9,
9,
22,
21,
36,
16,
16,
16,
1,
6,
6,
10,
10,
1,
1,
3,
3,
0,
11,
10,
10,
9,
9,
2,
2,
10,
30,
30,
30,
21,
21,
20,
20,
19,
2,
7,
27,
26,
26,
28,
28,
20,
20,
21,
21,
26,
26,
22,
5,
16,
34,
33,
33,
27,
9,
9,
9,
2,
2,
6,
6,
6,
6,
11,
11,
7,
7,
6,
26,
25,
9,
10,
33,
33,
33,
26,
2,
3,
14,
13,
13,
18,
18,
18,
18,
16,
16,
14,
1,
2,
2,
3,
3,
5,
5,
9,
9,
16,
16,
18,
18,
9,
9,
5,
5,
0,
0,
1,
1,
1,
1,
2,
2,
3,
3,
5,
5,
5,
5,
-1,
-1,
1,
1,
3,
3,
5,
5,
8,
8,
4,
4,
-1,
-1,
7,
18,
17,
17,
12,
12,
12,
32,
32,
32,
22,
1,
3,
3,
5,
5,
5,
5,
7,
7,
2,
2,
6,
6,
10,
10,
8,
8,
0,
12,
12,
12,
21,
10,
10,
10,
6,
6,
1,
1,
10,
10,
10,
10,
6,
6,
5,
5,
1,
1,
9,
9,
8,
8,
6,
6,
8,
8,
2,
2,
8,
8,
16,
16,
10,
10,
17,
17,
26,
15,
15,
3,
4,
4,
1,
1,
5,
5,
6,
6,
6,
6,
4,
4,
6,
6,
5,
5,
2,
2,
2,
2,
4,
4,
6,
6,
9,
9,
12,
12,
6,
6,
5,
5,
3,
15,
14,
1,
3,
3,
8,
8,
5,
5,
10,
10,
3,
3,
9,
9,
4,
4,
3,
3,
6,
6,
10,
10,
16,
16,
11,
11,
7,
32,
32,
17,
17,
2,
6,
6,
12,
12,
4,
4,
1,
1,
0,
0,
5,
5,
8,
8,
14,
33,
32,
17,
17,
2,
5,
19,
18,
3,
6,
30,
29,
29,
26,
26,
16,
1,
2,
18,
18,
18,
26,
26,
25,
25,
24,
24,
22,
22,
24,
24,
16,
5,
6,
6,
3,
3,
6,
6,
11,
34,
34,
48,
47,
27,
28,
7,
7,
7,
9,
23,
22,
22,
23,
5,
6,
27,
27,
42,
39,
9,
9,
9,
4,
4,
2,
2,
2,
2,
10,
10,
14,
14,
14,
14,
14,
14,
14,
14,
18,
18,
15,
4,
5,
5,
13,
13,
17,
17,
8,
8,
0,
0,
1,
1,
0,
0,
4,
4,
6,
20,
20,
36,
35,
35,
28,
8,
8,
8,
0,
0,
3,
3,
8,
8,
10,
26,
26,
26,
26,
26,
23,
23,
22,
22,
12,
12,
10,
10,
12,
12,
7,
7,
13,
1,
4,
4,
8,
8,
6,
6,
8,
8,
8,
8,
10,
10,
6,
6,
0,
0,
3,
22,
21,
21,
23,
7,
8,
8,
6,
6,
14,
14,
15,
15,
19,
19,
22,
22,
14,
2,
8,
21,
21,
10,
10,
10,
4,
4,
8,
8,
1,
1,
5,
5,
2,
2,
-1,
-1,
0,
0,
3,
3,
7,
7,
12,
12,
18,
2,
5,
19,
18,
18,
20,
2,
6,
6,
15,
15,
6,
6,
13,
13,
16,
1,
2,
2,
2,
2,
8,
8,
3,
3,
6,
19,
18,
18,
21,
21,
16,
16,
11,
11,
12,
12,
10,
10,
11,
41,
40,
21,
23,
0,
1,
1,
6,
6,
9,
9,
8,
8,
6,
18,
17,
17,
17,
17,
14,
14,
9,
9,
1,
1,
9,
9,
12,
12,
7,
7,
13,
13,
17,
1,
2,
2,
1,
1,
5,
5,
0,
0,
0,
0,
2,
2,
2,
2,
6,
6,
6,
6,
7,
21,
20,
20,
20,
20,
12,
1,
3,
3,
1,
19,
40,
40,
39,
50,
45,
9,
10,
10,
18,
18,
27,
27,
34,
34,
37,
37,
31,
31,
29,
29,
31,
31,
22,
5,
14,
26,
24,
10,
10,
10,
20,
20,
21,
21,
23,
23,
29,
29,
35,
17,
18,
3,
12,
12,
17,
17,
8,
8,
14,
14,
23,
23,
18,
1,
2,
2,
5,
5,
3,
3,
1,
1,
0,
0,
2,
2,
1,
1,
1,
1,
7,
7,
2,
2,
-1,
-1,
1,
1,
0,
0,
2,
2,
3,
3,
0,
0,
2,
2,
4,
4,
2,
2,
5,
5,
2,
18,
18,
38,
38,
15,
16,
4,
17,
30,
29,
29,
28,
8,
10,
10,
1,
14,
14,
2,
4,
18,
18,
18,
20,
20,
11,
11,
2,
2,
9,
9,
7,
7,
10,
10,
16,
16,
11,
11,
8,
8,
13,
13,
9,
9,
6,
6,
13,
13,
10,
10,
6,
6,
1,
1,
6,
6,
1,
1,
6,
6,
7,
7,
2,
2,
12,
29,
29,
29,
23,
6,
20,
20,
18,
4,
5,
5,
1,
1,
4,
4,
2,
2,
7,
7,
1,
1,
2,
2,
10,
10,
6,
6,
8,
8,
17,
6,
6,
17,
17,
30,
30,
10,
10,
10,
14,
14,
17,
2,
3,
15,
15,
15,
19,
19,
11,
11,
4,
4,
4,
4,
2,
2,
11,
11,
11,
11,
4,
21,
21,
21,
28,
9,
10,
-1,
0,
0,
-1,
-1,
2,
2,
4,
4,
6,
22,
21,
21,
15,
0,
1,
1,
3,
3,
1,
1,
2,
2,
0,
0,
4,
4,
6,
6,
7,
7,
7,
7,
6,
6,
8,
8,
12,
1,
2,
14,
13,
13,
9,
9,
1,
1,
-1,
-1,
2,
2,
1,
1,
2,
2,
5,
5,
4,
4,
0,
0,
2,
2,
0,
0,
6,
6,
6,
6,
-1,
-1,
0,
11,
10,
24,
24,
13,
14,
1,
5,
22,
22,
22,
24,
9,
9,
22,
21,
21,
24,
6,
6,
6,
0,
0,
2,
2,
9,
9,
13,
13,
14,
14,
14,
14,
5,
5,
10,
32,
31,
14,
14,
2,
5,
5,
5,
5,
2,
17,
17,
2,
3,
3,
2,
34,
34,
34,
32,
6,
6,
25,
24,
24,
33,
33,
24,
24,
20,
20,
22,
22,
24,
24,
23,
6,
6,
42,
41,
41,
38,
4,
4,
4,
9,
9,
5,
17,
15,
15,
10,
10,
6,
6,
5,
5,
4,
4,
-1,
-1,
3,
3,
0,
0,
2,
2,
8,
8,
8,
8,
0,
0,
0,
0,
7,
7,
6,
6,
14,
27,
26,
5,
5,
5,
3,
3,
2,
17,
16,
2,
4,
21,
20,
31,
30,
6,
6,
6,
5,
5,
6,
6,
9,
9,
11,
11,
17,
17,
19,
4,
12,
36,
34,
34,
32,
16,
16,
16,
6,
6,
3,
3,
2,
2,
10,
10,
12,
0,
1,
1,
5,
5,
9,
9,
13,
13,
19,
19,
26,
8,
9,
9,
17,
17,
17,
17,
13,
13,
6,
6,
6,
6,
14,
14,
13,
13,
9,
9,
4,
4,
13,
13,
12,
12,
14,
14,
10,
10,
4,
4,
6,
6,
6,
6,
0,
0,
6,
6,
7,
7,
3,
3,
2,
2,
10,
10,
14,
14,
10,
10,
2,
2,
4,
4,
8,
8,
6,
6,
7,
7,
2,
14,
14,
14,
12,
1,
2,
2,
2,
2,
1,
1,
4,
4,
12,
12,
8,
8,
5,
5,
3,
3,
0,
0,
4,
4,
8,
8,
5,
5,
6,
6,
12,
12,
9,
9,
11,
33,
32,
32,
28,
6,
19,
30,
30,
41,
30,
30,
30,
4,
5,
19,
18,
18,
26,
26,
24,
12,
13,
13,
10,
10,
12,
12,
9,
9,
6,
6,
2,
16,
15,
15,
22,
22,
14,
2,
2,
2,
5,
5,
7,
7,
13,
32,
32,
32,
24,
1,
2,
2,
7,
7,
10,
10,
8,
8,
10,
10,
15,
15,
21,
21,
15,
2,
7,
26,
26,
14,
14,
1,
3,
3,
8,
8,
11,
11,
5,
5,
10,
10,
3,
3,
6,
6,
5,
5,
1,
1,
0,
11,
10,
10,
5,
5,
10,
24,
23,
23,
16,
5,
6,
6,
10,
10,
5,
5,
0,
12,
11,
11,
6,
6,
1,
1,
3,
3,
2,
2,
1,
1,
1,
1,
1,
1,
2,
2,
11,
11,
11,
11,
9,
9,
5,
5,
-1,
10,
9,
9,
17,
17,
11,
-1,
0,
0,
0,
0,
0,
0,
2,
2,
4,
4,
13,
13,
14,
1,
2,
2,
1,
1,
2,
2,
5,
5,
2,
2,
4,
4,
0,
18,
17,
6,
6,
6,
6,
6,
0,
0,
0,
0,
7,
20,
20,
20,
20,
2,
4,
4,
1,
1,
6,
6,
9,
9,
6,
6,
7,
7,
10,
10,
2,
16,
15,
15,
18,
18,
22,
22,
18,
6,
6,
6,
14,
14,
22,
9,
9,
9,
8,
8,
12,
12,
17,
17,
23,
23,
17,
6,
7,
7,
5,
5,
6,
6,
4,
4,
8,
8,
10,
10,
1,
1,
1,
1,
9,
9,
9,
9,
6,
6,
5,
5,
2,
2,
4,
4,
7,
7,
0,
0,
2,
2,
5,
5,
13,
30,
29,
12,
12,
-1,
0,
0,
4,
4,
10,
10,
13,
13,
16,
16,
17,
17,
14,
14,
7,
7,
1,
1,
1,
1,
1,
1,
1,
1,
10,
10,
13,
13,
8,
8,
2,
2,
1,
1,
0,
0,
3,
3,
10,
10,
1,
1,
2,
2,
4,
4,
6,
6,
3,
3,
12,
36,
34,
18,
19,
2,
3,
3,
5,
5,
1,
1,
5,
5,
1,
1,
10,
10,
15,
15,
16,
30,
29,
29,
34,
34,
31,
16,
16,
2,
10,
21,
20,
20,
25,
25,
26,
26,
29,
29,
24,
12,
13,
13,
14,
14,
11,
11,
5,
5,
11,
11,
13,
13,
16,
16,
15,
15,
9,
9,
6,
6,
6,
6,
10,
10,
9,
9,
5,
5,
10,
10,
11,
11,
8,
8,
1,
1,
5,
5,
3,
3,
2,
22,
21,
1,
2,
23,
22,
40,
37,
11,
12,
-1,
0,
0,
8,
8,
17,
17,
25,
25,
16,
2,
6,
6,
7,
7,
1,
12,
12,
12,
17,
17,
13,
2,
2,
2,
2,
2,
6,
6,
1,
1,
2,
2,
1,
1,
5,
5,
10,
10,
4,
4,
0,
0,
0,
0,
0,
0,
8,
8,
11,
11,
6,
6,
0,
0,
6,
6,
10,
10,
12,
12,
7,
18,
17,
17,
9,
9,
6,
6,
1,
1,
1,
1,
1,
1,
2,
2,
1,
16,
15,
15,
13,
1,
8,
8,
13,
1,
4,
4,
9,
9,
6,
6,
2,
2,
2,
2,
2,
2,
0,
0,
-1,
-1,
0,
0,
2,
2,
1,
1,
0,
0,
5,
23,
22,
22,
24,
3,
5,
5,
9,
9,
1,
1,
-1,
-1,
0,
0,
2,
2,
5,
5,
8,
8,
2,
15,
14,
14,
22,
22,
23,
23,
22,
2,
4,
17,
17,
17,
12,
25,
25,
25,
31,
10,
10,
10,
2,
2,
11,
11,
17,
3,
6,
17,
14,
1,
6,
6,
8,
19,
18,
6,
6,
6,
9,
9,
13,
13,
18,
18,
18,
18,
10,
10,
5,
5,
1,
1,
2,
2,
5,
5,
5,
5,
6,
6,
5,
5,
7,
7,
15,
15,
13,
13,
9,
9,
4,
4,
0,
0,
8,
8,
17,
17,
21,
5,
11,
40,
40,
21,
21,
2,
5,
5,
8,
8,
9,
9,
6,
6,
4,
4,
4,
4,
11,
11,
12,
12,
11,
11,
12,
12,
8,
8,
0,
11,
10,
10,
15,
15,
13,
13,
8,
8,
4,
4,
2,
2,
2,
2,
1,
1,
0,
0,
1,
1,
1,
1,
8,
8,
16,
16,
6,
6,
2,
2,
0,
0,
5,
5,
8,
8,
9,
9,
11,
11,
12,
1,
5,
19,
19,
6,
6,
6,
6,
6,
1,
1,
6,
6,
1,
1,
2,
2,
3,
3,
5,
5,
6,
6,
2,
24,
24,
24,
29,
4,
5,
5,
6,
6,
0,
0,
4,
4,
2,
2,
5,
5,
10,
10,
14,
14,
13,
13,
9,
9,
1,
1,
9,
9,
12,
12,
5,
5,
0,
0,
1,
1,
6,
6,
14,
1,
2,
2,
6,
6,
7,
7,
1,
1,
4,
4,
3,
22,
22,
11,
12,
12,
14,
14,
18,
18,
17,
17,
8,
8,
1,
1,
6,
6,
9,
9,
5,
5,
13,
13,
9,
9,
2,
13,
13,
13,
18,
4,
4,
4,
8,
8,
10,
10,
8,
30,
30,
45,
41,
18,
19,
1,
4,
16,
15,
15,
22,
22,
24,
24,
18,
6,
7,
7,
7,
7,
6,
6,
7,
7,
6,
6,
0,
0,
5,
5,
5,
5,
3,
3,
9,
9,
6,
6,
6,
6,
5,
17,
16,
16,
20,
20,
10,
10,
0,
0,
4,
4,
12,
12,
8,
8,
12,
12,
11,
11,
14,
14,
7,
7,
2,
2,
10,
10,
7,
7,
7,
7,
3,
3,
4,
4,
8,
8,
6,
6,
5,
5,
4,
4,
2,
2,
9,
9,
12,
12,
8,
8,
14,
14,
11,
0,
1,
1,
2,
2,
11,
11,
3,
14,
14,
14,
9,
9,
6,
6,
12,
12,
16,
16,
11,
0,
1,
17,
16,
27,
25,
11,
12,
12,
4,
4,
3,
3,
5,
5,
5,
5,
3,
3,
1,
1,
4,
4,
7,
7,
2,
2,
10,
10,
12,
12,
4,
4,
3,
3,
2,
2,
9,
9,
8,
8,
1,
1,
5,
5,
5,
5,
6,
6,
1,
29,
29,
11,
11,
38,
38,
25,
26,
1,
2,
13,
12,
12,
13,
13,
16,
16,
17,
2,
6,
6,
13,
1,
1,
1,
1,
1,
5,
5,
12,
12,
6,
6,
1,
1,
0,
0,
4,
4,
7,
7,
1,
1,
9,
9,
4,
4,
3,
3,
11,
11,
5,
26,
25,
25,
18,
1,
1,
1,
9,
9,
11,
11,
2,
2,
3,
3,
4,
4,
2,
2,
4,
4,
3,
3,
0,
0,
2,
2,
5,
5,
5,
5,
9,
9,
3,
3,
12,
12,
7,
7,
0,
0,
2,
2,
1,
1,
4,
4,
5,
5,
4,
15,
14,
14,
12,
56,
55,
40,
41,
3,
5,
5,
9,
9,
8,
8,
8,
8,
10,
21,
21,
21,
20,
20,
16,
16,
17,
5,
5,
5,
2,
2,
2,
2,
4,
4,
10,
10,
4,
4,
0,
0,
5,
5,
3,
28,
28,
28,
29,
14,
14,
0,
2,
2,
5,
5,
5,
5,
2,
2,
1,
13,
12,
12,
6,
6,
10,
29,
29,
12,
12,
12,
10,
23,
22,
22,
29,
29,
31,
6,
6,
17,
16,
16,
13,
13,
7,
7,
10,
10,
4,
4,
1,
1,
0,
0,
0,
0,
3,
3,
0,
0,
3,
3,
0,
0,
