EMG_S3/DS0041.CSV

Memory Length,4000,
Trigger Level,-4.80000e+02,
Source,CH1,
Probe,1.0X,
Vertical Units,V,
Vertical Scale,1.00000e+00,
Vertical Position,0.00000e+00,
Horizontal Units,S,
Horizontal Scale,1.00000e-01,
Horizontal Position,0.0000000e+00,
Horizontal Mode,Roll Mode,
Waveform Last Dot Address,4000,
Sampling Period,4.00000e-04,
Firmware,V1.14,
Time, ,
Mode,Fast,
Waveform Data,
2,
2,
9,
9,
1,
1,
5,
5,
8,
8,
4,
4,
3,
3,
5,
5,
1,
13,
12,
12,
14,
14,
9,
9,
11,
11,
18,
18,
14,
3,
4,
4,
8,
8,
13,
13,
19,
19,
22,
22,
15,
2,
2,
2,
1,
1,
6,
6,
3,
3,
1,
1,
8,
8,
6,
6,
2,
23,
23,
23,
26,
26,
31,
31,
40,
17,
17,
3,
10,
39,
38,
52,
51,
51,
42,
42,
34,
21,
22,
22,
17,
17,
9,
9,
1,
1,
9,
30,
30,
47,
46,
31,
31,
20,
20,
20,
18,
6,
6,
6,
6,
6,
10,
10,
10,
10,
9,
9,
6,
6,
6,
6,
5,
5,
2,
2,
4,
4,
8,
8,
7,
7,
12,
12,
14,
0,
0,
0,
1,
1,
2,
2,
3,
3,
4,
4,
10,
10,
2,
14,
14,
14,
21,
21,
16,
1,
1,
1,
4,
4,
0,
0,
0,
17,
16,
16,
15,
1,
2,
2,
10,
10,
4,
18,
18,
18,
19,
1,
1,
1,
5,
5,
8,
8,
8,
8,
10,
10,
5,
5,
2,
2,
6,
6,
9,
9,
6,
6,
2,
2,
4,
4,
7,
7,
14,
14,
14,
2,
2,
2,
-1,
-1,
0,
0,
0,
0,
7,
20,
19,
8,
9,
35,
34,
48,
43,
14,
14,
1,
6,
6,
13,
13,
19,
19,
20,
20,
13,
13,
5,
5,
1,
1,
5,
5,
8,
8,
2,
2,
4,
4,
9,
9,
6,
6,
9,
9,
17,
17,
12,
12,
6,
6,
2,
2,
1,
1,
-1,
-1,
5,
5,
2,
2,
3,
3,
3,
3,
2,
2,
10,
10,
16,
16,
11,
11,
6,
6,
3,
3,
2,
2,
9,
9,
2,
2,
5,
5,
10,
10,
2,
14,
14,
14,
17,
1,
2,
2,
9,
9,
3,
26,
26,
26,
21,
2,
3,
3,
11,
11,
4,
4,
11,
11,
16,
16,
6,
6,
1,
1,
11,
11,
14,
14,
23,
23,
25,
25,
17,
17,
14,
1,
4,
4,
10,
10,
14,
14,
20,
7,
7,
7,
2,
2,
5,
22,
22,
22,
18,
6,
6,
6,
2,
2,
11,
11,
18,
18,
16,
2,
8,
8,
10,
10,
1,
1,
2,
2,
2,
2,
4,
4,
2,
14,
14,
1,
3,
3,
4,
4,
2,
2,
3,
3,
0,
0,
3,
3,
6,
6,
8,
8,
9,
9,
4,
4,
5,
20,
20,
9,
9,
9,
0,
0,
0,
0,
4,
4,
0,
0,
6,
6,
1,
1,
2,
2,
1,
1,
3,
3,
5,
5,
2,
2,
2,
2,
0,
0,
2,
2,
4,
4,
6,
6,
2,
2,
2,
2,
1,
1,
0,
0,
3,
3,
3,
3,
0,
0,
7,
7,
10,
10,
9,
9,
5,
5,
2,
2,
8,
8,
7,
7,
6,
6,
4,
4,
1,
1,
2,
2,
3,
3,
1,
1,
2,
2,
4,
4,
5,
5,
1,
1,
-2,
-2,
-2,
-2,
1,
1,
2,
2,
5,
5,
2,
2,
6,
6,
0,
0,
1,
1,
0,
0,
-1,
-1,
0,
0,
0,
0,
2,
2,
10,
10,
2,
2,
4,
4,
1,
1,
3,
3,
7,
7,
6,
6,
3,
3,
6,
6,
10,
10,
9,
9,
8,
8,
5,
5,
3,
3,
3,
3,
9,
9,
16,
4,
5,
17,
16,
16,
17,
17,
17,
33,
32,
44,
42,
24,
24,
3,
7,
19,
18,
18,
20,
20,
15,
15,
11,
11,
14,
14,
20,
20,
15,
15,
10,
22,
21,
21,
24,
5,
7,
52,
52,
63,
58,
24,
25,
4,
2,
2,
-1,
-1,
0,
0,
5,
5,
4,
4,
0,
0,
2,
2,
0,
0,
3,
3,
2,
2,
1,
12,
12,
12,
21,
21,
18,
1,
2,
19,
18,
52,
52,
52,
50,
20,
21,
2,
4,
23,
23,
23,
30,
30,
26,
26,
20,
20,
17,
17,
15,
15,
9,
9,
5,
5,
13,
13,
16,
16,
10,
10,
2,
2,
-1,
-1,
2,
14,
14,
14,
14,
14,
12,
12,
6,
6,
2,
2,
0,
0,
10,
10,
13,
13,
12,
12,
9,
9,
7,
7,
1,
1,
3,
3,
5,
5,
6,
6,
5,
5,
5,
5,
2,
2,
0,
0,
3,
3,
1,
1,
2,
2,
2,
2,
0,
0,
3,
3,
3,
3,
0,
0,
0,
0,
2,
2,
8,
20,
19,
19,
12,
1,
2,
2,
10,
26,
25,
11,
12,
12,
21,
21,
25,
5,
5,
5,
3,
3,
2,
2,
12,
12,
17,
17,
20,
20,
23,
23,
18,
2,
3,
18,
17,
17,
21,
21,
15,
15,
10,
10,
3,
3,
2,
2,
1,
1,
0,
0,
0,
0,
-1,
-1,
3,
3,
3,
3,
2,
2,
3,
3,
2,
2,
2,
2,
7,
7,
7,
7,
5,
5,
2,
2,
5,
5,
3,
3,
2,
2,
2,
2,
1,
1,
2,
2,
6,
6,
12,
1,
1,
1,
1,
1,
6,
6,
12,
1,
2,
2,
10,
10,
13,
13,
15,
15,
18,
18,
12,
12,
5,
5,
9,
9,
18,
18,
21,
21,
13,
1,
8,
8,
15,
15,
18,
18,
18,
6,
6,
23,
23,
23,
26,
13,
14,
14,
16,
16,
10,
10,
0,
0,
0,
0,
4,
17,
16,
16,
16,
1,
2,
2,
10,
10,
7,
7,
3,
3,
10,
10,
13,
13,
7,
7,
1,
13,
12,
12,
3,
3,
2,
2,
2,
2,
0,
0,
2,
2,
8,
8,
6,
6,
5,
19,
18,
18,
20,
2,
2,
13,
13,
13,
9,
9,
0,
0,
2,
2,
6,
6,
2,
2,
1,
1,
2,
2,
8,
8,
2,
2,
7,
7,
12,
12,
14,
14,
20,
20,
15,
1,
6,
33,
32,
32,
30,
9,
10,
-1,
-1,
-1,
-1,
-1,
6,
6,
3,
3,
2,
2,
2,
2,
1,
1,
1,
1,
0,
0,
1,
1,
2,
2,
-1,
-1,
2,
2,
0,
0,
0,
0,
6,
6,
8,
8,
9,
9,
2,
2,
1,
1,
2,
2,
5,
5,
6,
6,
5,
5,
6,
6,
0,
0,
4,
4,
4,
4,
0,
0,
0,
0,
3,
17,
16,
16,
15,
15,
7,
7,
3,
17,
16,
16,
23,
23,
28,
12,
12,
12,
20,
47,
46,
46,
40,
13,
13,
2,
8,
22,
22,
22,
27,
27,
22,
22,
14,
14,
13,
13,
12,
12,
5,
5,
5,
5,
9,
9,
9,
9,
7,
7,
6,
6,
3,
3,
12,
1,
19,
19,
18,
18,
23,
23,
26,
26,
30,
30,
20,
20,
14,
2,
3,
14,
14,
28,
28,
28,
30,
30,
26,
26,
27,
27,
24,
10,
10,
10,
4,
4,
4,
4,
4,
4,
12,
12,
14,
14,
14,
14,
12,
12,
8,
8,
10,
10,
8,
8,
1,
1,
4,
4,
10,
10,
16,
3,
4,
16,
16,
16,
10,
-1,
1,
1,
7,
7,
9,
9,
8,
8,
5,
5,
2,
2,
4,
4,
2,
2,
2,
2,
6,
6,
7,
7,
3,
3,
2,
2,
2,
2,
6,
6,
4,
4,
2,
2,
0,
0,
6,
6,
3,
3,
0,
0,
1,
1,
-1,
-1,
7,
7,
6,
6,
0,
0,
1,
1,
2,
2,
11,
11,
16,
16,
21,
21,
20,
1,
2,
15,
14,
25,
24,
24,
25,
25,
17,
1,
2,
13,
12,
12,
18,
2,
2,
2,
7,
7,
6,
6,
15,
15,
14,
0,
1,
1,
4,
4,
6,
6,
1,
1,
1,
1,
3,
3,
1,
1,
6,
6,
8,
8,
10,
10,
12,
12,
13,
13,
5,
5,
0,
0,
2,
2,
3,
3,
5,
5,
8,
8,
7,
7,
2,
2,
2,
2,
7,
7,
8,
8,
1,
1,
5,
5,
13,
34,
33,
12,
12,
12,
9,
9,
12,
12,
8,
8,
6,
6,
2,
2,
2,
2,
5,
5,
2,
2,
7,
7,
8,
8,
1,
1,
0,
0,
1,
1,
3,
3,
1,
1,
0,
0,
1,
1,
8,
8,
12,
12,
4,
4,
2,
2,
10,
10,
8,
8,
2,
2,
12,
12,
10,
10,
6,
6,
1,
1,
10,
10,
8,
8,
0,
0,
2,
2,
2,
2,
2,
2,
3,
3,
9,
9,
16,
1,
2,
2,
3,
3,
5,
5,
2,
2,
9,
20,
19,
19,
20,
9,
9,
9,
8,
8,
12,
1,
2,
2,
9,
9,
15,
15,
6,
6,
5,
5,
5,
19,
18,
31,
31,
18,
18,
1,
2,
2,
1,
13,
12,
12,
12,
0,
1,
1,
8,
8,
10,
10,
8,
8,
8,
8,
12,
12,
17,
17,
14,
14,
4,
4,
0,
0,
10,
33,
33,
33,
35,
15,
15,
1,
4,
4,
6,
6,
1,
1,
5,
19,
18,
18,
14,
14,
9,
9,
9,
9,
5,
24,
24,
13,
14,
0,
1,
1,
4,
4,
3,
3,
4,
4,
1,
1,
5,
5,
8,
8,
6,
6,
3,
3,
3,
3,
5,
5,
7,
7,
2,
2,
0,
0,
2,
2,
4,
4,
8,
8,
7,
7,
2,
2,
2,
2,
2,
2,
6,
6,
9,
9,
3,
3,
2,
2,
4,
4,
1,
1,
-1,
-1,
1,
1,
6,
6,
3,
3,
2,
2,
5,
5,
0,
0,
3,
3,
3,
3,
9,
9,
3,
14,
14,
14,
6,
6,
4,
4,
2,
25,
25,
14,
15,
1,
2,
2,
1,
1,
6,
6,
2,
17,
17,
17,
18,
18,
12,
12,
9,
9,
10,
10,
4,
4,
8,
8,
11,
11,
3,
3,
2,
2,
3,
3,
4,
4,
0,
0,
3,
3,
2,
2,
4,
4,
9,
9,
10,
10,
7,
27,
26,
26,
32,
32,
26,
7,
7,
7,
10,
24,
24,
24,
23,
8,
9,
9,
1,
1,
6,
6,
5,
5,
2,
2,
3,
3,
0,
0,
3,
3,
7,
7,
9,
9,
10,
10,
4,
4,
3,
3,
0,
0,
7,
7,
3,
3,
-1,
-1,
0,
0,
1,
1,
2,
2,
1,
1,
7,
7,
13,
13,
4,
4,
2,
2,
1,
1,
1,
1,
5,
5,
1,
1,
1,
1,
4,
4,
2,
2,
0,
0,
0,
11,
10,
10,
16,
16,
8,
8,
12,
12,
10,
10,
2,
2,
6,
6,
9,
9,
4,
15,
15,
15,
6,
6,
1,
1,
4,
4,
10,
10,
1,
1,
7,
7,
6,
6,
3,
3,
1,
1,
1,
1,
5,
5,
7,
7,
8,
8,
10,
41,
40,
40,
34,
8,
8,
8,
7,
7,
13,
13,
22,
22,
17,
2,
6,
20,
18,
2,
2,
19,
19,
19,
24,
24,
17,
1,
2,
2,
10,
10,
15,
15,
7,
7,
1,
1,
5,
5,
5,
5,
2,
2,
2,
2,
5,
5,
2,
14,
13,
13,
16,
1,
1,
1,
9,
26,
26,
26,
23,
3,
7,
26,
25,
25,
23,
23,
20,
1,
2,
2,
2,
2,
1,
1,
6,
6,
9,
9,
13,
13,
6,
6,
1,
1,
5,
5,
6,
6,
8,
8,
6,
6,
2,
2,
9,
9,
12,
12,
18,
18,
17,
17,
12,
12,
5,
5,
4,
4,
11,
11,
6,
6,
2,
2,
7,
7,
6,
6,
5,
5,
5,
5,
5,
5,
12,
12,
8,
8,
4,
4,
7,
7,
9,
9,
12,
12,
14,
43,
42,
42,
44,
29,
30,
10,
10,
10,
9,
23,
22,
22,
26,
26,
26,
13,
13,
2,
3,
3,
3,
3,
10,
10,
11,
0,
2,
2,
9,
9,
7,
7,
6,
6,
12,
12,
17,
17,
10,
10,
4,
4,
4,
4,
9,
27,
26,
13,
14,
1,
5,
20,
19,
19,
21,
21,
13,
13,
9,
9,
-1,
-1,
2,
2,
1,
1,
4,
4,
1,
1,
5,
5,
1,
1,
-1,
-1,
1,
1,
2,
2,
10,
10,
13,
13,
6,
6,
-1,
-1,
3,
3,
0,
0,
4,
4,
3,
3,
4,
4,
9,
9,
12,
12,
13,
1,
5,
20,
20,
20,
18,
18,
15,
3,
4,
4,
4,
4,
4,
4,
3,
3,
8,
19,
19,
19,
18,
1,
2,
2,
6,
6,
3,
3,
8,
8,
12,
12,
9,
9,
8,
8,
15,
15,
13,
1,
8,
8,
15,
15,
11,
11,
13,
13,
8,
8,
5,
5,
2,
2,
2,
2,
1,
1,
4,
15,
15,
15,
15,
4,
4,
4,
2,
2,
2,
2,
5,
5,
0,
0,
5,
5,
4,
4,
1,
1,
0,
0,
2,
2,
2,
2,
1,
1,
1,
1,
3,
3,
2,
2,
4,
4,
1,
1,
2,
2,
1,
1,
4,
4,
14,
14,
13,
13,
18,
18,
23,
5,
5,
5,
6,
6,
5,
5,
1,
1,
3,
3,
1,
1,
5,
5,
5,
5,
6,
6,
3,
3,
11,
11,
12,
12,
8,
8,
5,
5,
0,
0,
3,
3,
1,
1,
-1,
-1,
2,
2,
6,
6,
9,
9,
7,
7,
1,
1,
2,
2,
11,
11,
9,
9,
1,
1,
5,
5,
6,
6,
1,
1,
1,
12,
11,
30,
29,
10,
10,
44,
44,
63,
61,
37,
37,
8,
8,
8,
18,
36,
34,
34,
28,
17,
18,
18,
18,
18,
25,
25,
20,
8,
9,
9,
2,
2,
5,
5,
5,
5,
6,
6,
8,
23,
22,
41,
40,
40,
44,
44,
41,
16,
16,
2,
8,
21,
20,
31,
30,
30,
34,
34,
28,
16,
17,
5,
6,
6,
0,
0,
1,
1,
1,
1,
2,
2,
6,
19,
18,
18,
14,
3,
4,
4,
2,
2,
1,
1,
3,
3,
5,
5,
11,
11,
2,
2,
4,
4,
10,
10,
4,
4,
5,
5,
2,
2,
0,
0,
1,
1,
1,
13,
13,
13,
13,
1,
4,
21,
20,
2,
17,
17,
16,
4,
5,
5,
8,
8,
13,
13,
19,
19,
20,
20,
13,
13,
5,
5,
1,
12,
11,
26,
26,
26,
21,
6,
7,
7,
2,
17,
17,
17,
14,
1,
3,
3,
12,
12,
14,
14,
12,
12,
12,
12,
14,
2,
3,
3,
6,
6,
0,
0,
5,
5,
8,
8,
11,
11,
18,
18,
10,
10,
4,
4,
8,
8,
12,
24,
22,
22,
16,
1,
2,
13,
13,
13,
16,
16,
17,
6,
6,
6,
7,
18,
17,
17,
12,
1,
6,
6,
11,
11,
6,
6,
2,
2,
7,
7,
1,
1,
3,
3,
2,
2,
4,
4,
3,
3,
1,
1,
0,
0,
7,
7,
16,
16,
15,
15,
14,
14,
10,
10,
7,
7,
4,
4,
2,
2,
4,
4,
11,
11,
21,
21,
21,
21,
20,
20,
18,
18,
11,
11,
5,
5,
13,
28,
28,
17,
18,
18,
10,
10,
4,
4,
8,
8,
13,
2,
2,
2,
5,
5,
5,
5,
2,
2,
0,
0,
7,
7,
13,
13,
9,
9,
2,
2,
0,
0,
1,
1,
2,
2,
8,
24,
24,
24,
15,
2,
2,
2,
6,
19,
18,
18,
23,
6,
7,
7,
6,
6,
4,
4,
3,
3,
2,
28,
28,
14,
14,
14,
21,
37,
36,
9,
9,
9,
6,
6,
5,
5,
12,
23,
23,
23,
23,
23,
16,
16,
9,
9,
14,
2,
3,
3,
12,
12,
5,
5,
0,
0,
1,
1,
4,
4,
4,
4,
14,
14,
15,
3,
4,
4,
3,
3,
4,
4,
1,
1,
3,
15,
14,
14,
18,
6,
7,
7,
10,
10,
20,
8,
8,
8,
14,
14,
17,
17,
7,
7,
4,
4,
8,
8,
11,
11,
12,
12,
15,
15,
13,
13,
6,
6,
1,
1,
5,
5,
11,
11,
18,
30,
30,
30,
33,
7,
8,
8,
18,
18,
19,
19,
12,
12,
8,
8,
4,
4,
2,
2,
0,
0,
0,
0,
0,
0,
2,
2,
1,
1,
-1,
-1,
1,
1,
2,
2,
10,
10,
5,
5,
10,
24,
24,
24,
18,
18,
8,
8,
4,
4,
2,
2,
2,
2,
9,
9,
13,
13,
6,
6,
12,
12,
16,
1,
2,
2,
5,
5,
6,
6,
2,
2,
2,
2,
10,
10,
12,
12,
12,
12,
12,
12,
13,
13,
6,
6,
9,
9,
7,
7,
3,
14,
14,
37,
37,
20,
21,
3,
8,
20,
20,
4,
8,
19,
18,
2,
2,
2,
6,
6,
6,
6,
3,
3,
6,
6,
8,
8,
8,
8,
8,
8,
2,
2,
6,
6,
10,
10,
9,
9,
6,
6,
4,
19,
18,
18,
26,
13,
13,
0,
1,
1,
9,
22,
21,
21,
23,
5,
11,
42,
42,
24,
24,
2,
2,
2,
1,
1,
1,
1,
5,
5,
14,
14,
17,
17,
18,
7,
7,
7,
9,
9,
12,
12,
17,
6,
7,
7,
9,
9,
14,
14,
14,
14,
13,
1,
2,
14,
14,
14,
22,
22,
16,
1,
1,
1,
1,
1,
2,
2,
2,
2,
2,
2,
9,
9,
9,
9,
1,
1,
5,
5,
9,
9,
6,
6,
3,
3,
2,
13,
12,
12,
17,
5,
5,
5,
9,
9,
6,
6,
4,
4,
2,
2,
1,
1,
3,
3,
2,
2,
2,
2,
0,
0,
5,
22,
21,
21,
14,
2,
8,
31,
30,
30,
32,
12,
12,
12,
12,
12,
5,
5,
1,
1,
9,
28,
28,
28,
25,
2,
2,
2,
1,
1,
5,
5,
6,
6,
5,
5,
5,
5,
5,
5,
10,
10,
8,
8,
8,
8,
6,
6,
3,
3,
0,
0,
2,
2,
7,
7,
1,
1,
2,
2,
5,
5,
8,
8,
13,
13,
12,
1,
2,
2,
6,
6,
2,
20,
20,
20,
21,
1,
2,
2,
10,
10,
12,
12,
14,
14,
10,
10,
10,
10,
12,
12,
6,
6,
5,
5,
6,
6,
0,
0,
8,
8,
9,
9,
1,
1,
3,
3,
2,
2,
11,
11,
9,
9,
10,
22,
22,
22,
18,
1,
5,
19,
18,
18,
12,
12,
9,
9,
6,
6,
-1,
-1,
2,
2,
2,
2,
0,
0,
2,
2,
7,
7,
3,
3,
2,
2,
5,
5,
4,
4,
4,
4,
5,
5,
1,
1,
2,
2,
0,
0,
6,
17,
17,
17,
24,
24,
7,
38,
38,
65,
64,
64,
64,
16,
16,
3,
10,
10,
14,
27,
26,
44,
44,
44,
42,
20,
21,
21,
17,
17,
17,
17,
14,
1,
4,
17,
17,
17,
11,
11,
15,
15,
14,
14,
6,
6,
5,
5,
6,
6,
9,
9,
14,
14,
12,
12,
3,
3,
2,
2,
7,
7,
12,
1,
1,
1,
4,
4,
0,
0,
1,
1,
3,
3,
2,
2,
1,
1,
6,
6,
14,
14,
12,
1,
1,
1,
0,
0,
0,
0,
5,
5,
12,
12,
15,
15,
16,
16,
16,
16,
13,
0,
1,
12,
11,
11,
19,
19,
17,
17,
14,
14,
12,
12,
6,
6,
1,
1,
2,
2,
3,
3,
1,
1,
6,
6,
9,
9,
8,
8,
8,
8,
6,
6,
2,
2,
3,
3,
7,
7,
10,
10,
14,
2,
6,
6,
10,
10,
1,
1,
2,
22,
21,
21,
18,
0,
3,
3,
8,
8,
4,
17,
17,
17,
12,
1,
3,
17,
17,
17,
21,
8,
8,
8,
4,
4,
2,
2,
8,
8,
13,
13,
13,
2,
3,
3,
9,
9,
6,
6,
1,
1,
1,
1,
2,
14,
13,
13,
18,
18,
14,
14,
16,
16,
9,
9,
4,
4,
6,
6,
13,
13,
13,
13,
10,
10,
13,
13,
10,
10,
0,
0,
4,
4,
1,
1,
2,
2,
2,
2,
2,
14,
13,
13,
14,
14,
10,
10,
2,
2,
3,
3,
10,
10,
5,
5,
6,
6,
2,
2,
2,
21,
21,
21,
20,
20,
12,
12,
2,
2,
9,
9,
10,
10,
8,
8,
11,
11,
10,
10,
12,
12,
13,
13,
9,
9,
4,
4,
0,
0,
1,
1,
5,
5,
11,
11,
17,
17,
19,
19,
10,
10,
0,
0,
4,
4,
5,
5,
8,
8,
3,
3,
13,
13,
7,
7,
10,
10,
16,
16,
12,
1,
1,
1,
7,
7,
15,
15,
16,
16,
16,
16,
17,
17,
13,
13,
4,
4,
2,
2,
6,
6,
10,
10,
9,
9,
3,
3,
6,
6,
5,
5,
12,
12,
6,
6,
3,
28,
28,
28,
30,
9,
9,
9,
5,
5,
13,
13,
16,
16,
14,
14,
16,
16,
15,
15,
12,
12,
6,
6,
1,
1,
6,
6,
3,
3,
0,
0,
5,
5,
13,
13,
4,
4,
7,
7,
9,
9,
16,
38,
37,
23,
23,
2,
2,
2,
6,
6,
10,
10,
6,
6,
3,
3,
8,
8,
15,
15,
15,
15,
8,
8,
1,
1,
6,
6,
6,
6,
1,
1,
4,
4,
11,
11,
9,
9,
10,
10,
11,
11,
2,
2,
1,
1,
2,
13,
12,
12,
14,
14,
12,
12,
7,
7,
2,
2,
9,
9,
6,
6,
4,
4,
1,
1,
1,
1,
2,
2,
3,
3,
0,
0,
1,
1,
0,
0,
0,
0,
2,
2,
0,
0,
1,
1,
1,
1,
0,
0,
0,
0,
4,
4,
14,
14,
14,
1,
3,
17,
17,
17,
17,
4,
16,
16,
22,
2,
2,
16,
15,
15,
14,
14,
12,
12,
13,
0,
1,
1,
5,
5,
2,
2,
10,
23,
23,
23,
18,
1,
1,
12,
12,
12,
20,
20,
13,
0,
1,
1,
6,
6,
10,
10,
2,
2,
3,
32,
31,
31,
34,
6,
6,
17,
16,
30,
30,
30,
27,
12,
13,
0,
2,
2,
3,
3,
3,
3,
6,
6,
1,
1,
5,
5,
8,
8,
9,
9,
9,
9,
1,
15,
14,
14,
16,
4,
19,
59,
58,
39,
39,
6,
6,
6,
10,
10,
17,
17,
25,
25,
23,
10,
10,
10,
2,
2,
2,
2,
7,
7,
10,
10,
7,
7,
2,
2,
-1,
-1,
1,
1,
2,
2,
7,
7,
14,
14,
17,
17,
17,
17,
17,
17,
10,
10,
7,
7,
14,
14,
13,
1,
4,
22,
22,
22,
29,
12,
12,
1,
4,
4,
0,
11,
10,
10,
10,
10,
2,
2,
0,
0,
1,
1,
2,
2,
6,
6,
6,
6,
8,
8,
8,
8,
3,
3,
0,
0,
9,
9,
14,
1,
2,
2,
9,
9,
9,
9,
9,
9,
5,
5,
0,
0,
2,
2,
6,
6,
1,
1,
3,
3,
5,
5,
5,
5,
0,
0,
5,
5,
5,
5,
7,
7,
10,
38,
37,
37,
32,
32,
24,
9,
10,
10,
9,
22,
22,
22,
17,
6,
8,
8,
16,
16,
25,
25,
18,
1,
3,
3,
3,
3,
11,
11,
5,
21,
20,
20,
22,
10,
10,
10,
1,
17,
16,
34,
32,
21,
21,
2,
2,
2,
1,
1,
2,
2,
9,
21,
20,
20,
22,
22,
22,
22,
18,
18,
9,
9,
5,
5,
0,
0,
3,
3,
2,
2,
6,
19,
18,
38,
37,
22,
22,
22,
27,
27,
22,
4,
4,
4,
11,
11,
17,
17,
10,
10,
17,
17,
14,
14,
8,
8,
2,
2,
0,
0,
4,
4,
5,
5,
5,
18,
18,
18,
13,
0,
1,
1,
8,
8,
1,
1,
0,
0,
8,
8,
8,
8,
3,
3,
4,
4,
12,
12,
18,
18,
23,
23,
15,
2,
6,
6,
12,
12,
9,
9,
16,
16,
16,
1,
3,
3,
7,
7,
4,
4,
0,
0,
-1,
-1,
1,
1,
5,
5,
2,
2,
4,
4,
8,
8,
4,
4,
6,
6,
2,
2,
1,
1,
2,
2,
2,
2,
5,
5,
2,
2,
4,
4,
2,
2,
3,
16,
16,
16,
20,
6,
6,
6,
7,
7,
11,
11,
9,
9,
8,
8,
8,
8,
7,
7,
9,
9,
2,
2,
2,
2,
8,
8,
12,
1,
2,
17,
16,
16,
20,
9,
9,
9,
7,
7,
11,
11,
6,
6,
0,
0,
-1,
-1,
0,
0,
3,
3,
6,
6,
1,
1,
2,
2,
0,
0,
0,
0,
0,
0,
-1,
-1,
0,
0,
0,
0,
2,
2,
5,
5,
4,
4,
4,
4,
6,
6,
2,
2,
-1,
-1,
3,
3,
5,
5,
5,
5,
4,
4,
2,
2,
2,
2,
6,
6,
9,
9,
4,
4,
0,
0,
4,
4,
6,
6,
11,
11,
3,
3,
1,
1,
1,
13,
13,
13,
14,
1,
2,
2,
2,
2,
5,
5,
8,
8,
1,
1,
6,
6,
9,
9,
6,
6,
10,
10,
8,
8,
3,
3,
5,
20,
19,
19,
13,
0,
1,
1,
9,
9,
17,
17,
18,
3,
10,
22,
21,
9,
10,
10,
6,
6,
2,
16,
14,
14,
13,
2,
9,
20,
18,
1,
3,
3,
5,
5,
