EMG_S3/DS0023.CSV

Memory Length,4000,
Trigger Level,-4.80000e+02,
Source,CH1,
Probe,1.0X,
Vertical Units,V,
Vertical Scale,1.00000e+00,
Vertical Position,0.00000e+00,
Horizontal Units,S,
Horizontal Scale,1.00000e-01,
Horizontal Position,0.0000000e+00,
Horizontal Mode,Roll Mode,
Waveform Last Dot Address,4000,
Sampling Period,4.00000e-04,
Firmware,V1.14,
Time, ,
Mode,Fast,
Waveform Data,
0,
0,
2,
2,
0,
0,
2,
2,
10,
10,
14,
14,
18,
18,
14,
2,
4,
4,
1,
1,
0,
0,
5,
5,
10,
10,
8,
8,
8,
8,
8,
8,
3,
3,
0,
0,
5,
5,
13,
13,
19,
19,
20,
20,
18,
18,
10,
10,
0,
0,
1,
1,
3,
3,
4,
4,
6,
6,
6,
6,
6,
6,
6,
6,
3,
3,
0,
0,
2,
2,
7,
7,
9,
9,
1,
1,
4,
4,
5,
5,
4,
4,
5,
5,
8,
8,
10,
10,
4,
4,
4,
4,
7,
7,
10,
10,
11,
0,
1,
1,
5,
5,
10,
10,
13,
13,
9,
9,
8,
8,
2,
2,
2,
2,
1,
1,
-1,
-1,
0,
0,
0,
0,
7,
7,
9,
9,
9,
9,
12,
12,
10,
10,
6,
6,
7,
7,
10,
10,
1,
1,
10,
10,
14,
14,
5,
5,
1,
1,
1,
1,
10,
10,
5,
5,
5,
5,
12,
12,
14,
14,
4,
4,
11,
28,
27,
27,
21,
1,
4,
4,
8,
8,
9,
20,
18,
18,
20,
7,
7,
7,
14,
25,
23,
6,
7,
7,
1,
1,
2,
2,
9,
9,
9,
9,
2,
2,
0,
0,
0,
0,
-1,
-1,
2,
2,
1,
1,
5,
5,
6,
6,
5,
5,
5,
5,
5,
5,
1,
1,
0,
0,
2,
2,
0,
0,
3,
3,
4,
4,
0,
0,
1,
1,
-1,
-1,
0,
0,
4,
4,
13,
13,
19,
19,
20,
6,
28,
63,
62,
36,
36,
22,
22,
22,
22,
3,
4,
26,
26,
48,
47,
47,
51,
39,
40,
28,
28,
16,
17,
1,
2,
2,
2,
2,
6,
6,
9,
28,
28,
28,
37,
37,
32,
32,
24,
24,
20,
20,
14,
14,
7,
7,
0,
11,
10,
10,
12,
12,
11,
11,
12,
12,
15,
2,
3,
3,
4,
4,
2,
2,
1,
1,
8,
8,
10,
10,
7,
7,
7,
7,
3,
3,
-1,
-1,
2,
2,
6,
6,
10,
10,
9,
9,
13,
13,
6,
6,
8,
34,
33,
33,
31,
2,
3,
3,
11,
11,
15,
15,
14,
14,
12,
12,
9,
9,
4,
4,
-1,
-1,
3,
3,
7,
7,
6,
6,
9,
9,
13,
13,
6,
6,
0,
0,
0,
0,
0,
0,
6,
6,
5,
5,
3,
3,
3,
3,
3,
16,
15,
15,
24,
24,
16,
16,
6,
6,
3,
19,
18,
18,
26,
26,
23,
23,
15,
2,
4,
4,
2,
2,
3,
3,
2,
2,
2,
2,
1,
1,
1,
1,
8,
8,
9,
9,
5,
5,
0,
0,
7,
7,
7,
7,
1,
1,
1,
19,
18,
32,
32,
32,
28,
10,
10,
10,
6,
19,
18,
18,
22,
22,
26,
26,
27,
27,
23,
12,
12,
1,
7,
18,
17,
17,
10,
10,
6,
6,
15,
15,
8,
8,
17,
29,
27,
4,
4,
4,
8,
8,
2,
15,
14,
14,
16,
16,
12,
1,
3,
3,
5,
5,
6,
6,
10,
10,
7,
7,
4,
4,
10,
10,
4,
4,
2,
2,
0,
0,
3,
3,
2,
13,
12,
12,
14,
2,
3,
3,
2,
2,
4,
4,
-1,
-1,
1,
1,
2,
2,
6,
6,
2,
2,
-1,
-1,
2,
2,
2,
2,
4,
16,
15,
33,
33,
33,
35,
16,
17,
1,
3,
16,
15,
31,
30,
13,
14,
14,
17,
17,
14,
14,
4,
4,
2,
13,
12,
12,
21,
21,
30,
30,
29,
15,
15,
1,
2,
2,
3,
3,
12,
12,
21,
21,
20,
20,
20,
20,
15,
15,
6,
6,
12,
12,
12,
12,
5,
5,
4,
4,
6,
6,
8,
8,
10,
10,
13,
13,
19,
19,
18,
18,
10,
10,
2,
2,
8,
8,
15,
15,
8,
8,
1,
1,
6,
6,
9,
9,
2,
2,
8,
8,
15,
15,
10,
10,
6,
6,
2,
2,
8,
8,
10,
10,
2,
17,
17,
17,
22,
8,
8,
8,
7,
7,
6,
6,
0,
0,
5,
5,
9,
9,
6,
6,
5,
5,
10,
10,
5,
5,
5,
5,
9,
9,
10,
10,
3,
3,
7,
7,
5,
5,
2,
2,
5,
5,
3,
3,
2,
2,
4,
4,
6,
6,
9,
9,
4,
4,
0,
0,
7,
7,
13,
1,
3,
15,
15,
15,
10,
10,
2,
2,
2,
2,
1,
1,
2,
2,
2,
2,
1,
1,
4,
4,
8,
8,
2,
2,
5,
5,
3,
3,
-1,
-1,
5,
5,
10,
10,
9,
9,
1,
1,
7,
7,
8,
8,
7,
7,
5,
5,
6,
6,
2,
2,
2,
2,
6,
6,
1,
1,
8,
8,
14,
14,
20,
7,
7,
7,
6,
6,
6,
6,
12,
12,
6,
6,
1,
1,
2,
2,
2,
2,
0,
0,
-1,
-1,
-1,
-1,
0,
0,
2,
2,
9,
9,
5,
5,
10,
24,
23,
23,
27,
11,
12,
0,
1,
1,
8,
8,
12,
0,
1,
1,
3,
3,
6,
23,
22,
22,
13,
2,
10,
10,
12,
1,
2,
2,
11,
11,
6,
6,
15,
15,
8,
8,
2,
2,
0,
0,
4,
18,
18,
18,
24,
4,
5,
27,
27,
27,
29,
14,
15,
1,
2,
16,
14,
14,
16,
16,
21,
21,
23,
4,
5,
24,
24,
10,
10,
10,
4,
4,
0,
14,
14,
14,
18,
3,
4,
4,
2,
2,
3,
3,
-1,
-1,
4,
4,
7,
7,
8,
8,
13,
13,
8,
8,
16,
16,
18,
5,
5,
5,
0,
0,
2,
2,
0,
0,
0,
0,
4,
4,
2,
14,
13,
13,
13,
1,
9,
9,
14,
14,
7,
7,
9,
9,
12,
1,
2,
2,
6,
6,
10,
10,
15,
15,
18,
18,
10,
10,
2,
2,
2,
2,
4,
4,
0,
0,
4,
4,
0,
0,
6,
6,
6,
6,
9,
9,
14,
14,
16,
16,
12,
12,
9,
9,
2,
2,
7,
7,
7,
7,
15,
15,
20,
8,
9,
23,
22,
33,
28,
4,
6,
17,
16,
16,
15,
15,
17,
3,
11,
24,
24,
24,
18,
2,
2,
2,
10,
10,
13,
1,
5,
5,
14,
14,
14,
14,
7,
7,
1,
1,
3,
3,
5,
5,
3,
3,
3,
3,
11,
11,
11,
11,
2,
2,
1,
1,
2,
13,
13,
31,
30,
30,
21,
10,
10,
10,
5,
5,
2,
2,
-1,
-1,
0,
0,
2,
2,
6,
17,
15,
2,
5,
18,
17,
17,
8,
8,
9,
9,
13,
13,
12,
1,
2,
2,
4,
15,
14,
2,
4,
15,
14,
14,
18,
18,
16,
1,
2,
2,
6,
6,
5,
5,
2,
2,
6,
6,
1,
1,
2,
2,
2,
2,
5,
5,
6,
6,
2,
2,
9,
9,
5,
5,
0,
0,
8,
8,
10,
10,
4,
4,
6,
6,
7,
7,
13,
13,
5,
5,
1,
1,
0,
0,
6,
6,
6,
6,
9,
9,
11,
11,
10,
10,
6,
6,
3,
3,
1,
1,
11,
25,
25,
25,
26,
11,
12,
1,
3,
3,
12,
12,
10,
10,
5,
5,
14,
14,
13,
13,
13,
13,
20,
4,
9,
28,
28,
28,
30,
30,
20,
20,
18,
18,
20,
8,
8,
8,
6,
6,
11,
11,
11,
11,
15,
15,
16,
16,
8,
8,
2,
2,
0,
0,
6,
18,
17,
30,
30,
30,
25,
4,
5,
5,
1,
1,
10,
10,
15,
15,
15,
15,
21,
21,
17,
6,
6,
6,
10,
10,
6,
6,
9,
9,
6,
6,
6,
6,
8,
8,
6,
6,
9,
9,
7,
7,
4,
4,
2,
2,
5,
5,
6,
6,
5,
5,
2,
2,
4,
4,
1,
1,
-1,
-1,
2,
2,
2,
2,
2,
2,
2,
18,
18,
18,
13,
1,
2,
2,
1,
1,
9,
20,
19,
7,
7,
7,
2,
2,
5,
5,
13,
13,
6,
6,
8,
8,
16,
16,
17,
17,
11,
11,
5,
5,
8,
8,
2,
2,
9,
9,
10,
10,
12,
12,
7,
7,
0,
0,
1,
1,
6,
6,
0,
0,
0,
0,
8,
8,
10,
10,
1,
1,
9,
9,
13,
13,
10,
10,
2,
2,
6,
6,
0,
0,
1,
1,
4,
15,
14,
14,
14,
2,
3,
14,
13,
13,
16,
16,
10,
10,
9,
9,
10,
10,
6,
6,
-1,
-1,
4,
4,
2,
2,
1,
1,
2,
2,
6,
6,
9,
9,
10,
10,
8,
8,
8,
8,
9,
9,
6,
6,
5,
24,
23,
23,
17,
17,
9,
9,
6,
21,
21,
21,
14,
1,
4,
4,
7,
7,
0,
0,
9,
9,
10,
10,
12,
29,
29,
29,
21,
21,
14,
14,
14,
14,
8,
8,
3,
3,
0,
0,
-1,
-1,
4,
4,
6,
6,
13,
36,
36,
36,
40,
15,
15,
3,
10,
28,
27,
27,
27,
2,
3,
3,
10,
10,
6,
6,
0,
0,
0,
0,
0,
0,
6,
6,
3,
3,
1,
1,
6,
6,
8,
8,
1,
1,
10,
10,
13,
13,
13,
1,
2,
13,
12,
12,
7,
7,
6,
6,
6,
6,
6,
6,
1,
1,
7,
7,
2,
2,
2,
2,
9,
9,
9,
9,
3,
3,
4,
4,
7,
7,
6,
6,
9,
9,
18,
18,
17,
17,
9,
9,
5,
5,
6,
6,
2,
2,
2,
2,
6,
6,
2,
2,
4,
4,
9,
9,
8,
21,
21,
10,
10,
10,
3,
3,
10,
24,
23,
12,
13,
1,
4,
4,
12,
12,
17,
17,
23,
23,
14,
3,
12,
12,
9,
9,
2,
2,
0,
0,
5,
20,
18,
18,
13,
0,
0,
0,
7,
7,
16,
16,
13,
13,
6,
6,
6,
6,
2,
2,
5,
5,
7,
7,
9,
9,
0,
0,
5,
16,
15,
15,
8,
8,
4,
4,
1,
1,
5,
5,
11,
11,
7,
7,
0,
0,
3,
3,
7,
7,
8,
8,
2,
2,
12,
12,
7,
7,
3,
3,
2,
15,
14,
14,
10,
10,
9,
9,
14,
14,
6,
6,
3,
3,
8,
8,
12,
12,
15,
15,
9,
9,
3,
3,
0,
0,
2,
2,
1,
1,
0,
0,
5,
5,
6,
6,
5,
5,
1,
1,
2,
2,
5,
5,
4,
4,
1,
1,
7,
7,
8,
8,
1,
1,
6,
6,
5,
5,
1,
1,
1,
1,
2,
2,
8,
22,
22,
22,
22,
10,
11,
11,
6,
6,
6,
6,
1,
13,
13,
13,
19,
19,
20,
20,
20,
20,
17,
17,
9,
9,
2,
2,
0,
0,
0,
0,
7,
7,
5,
5,
1,
1,
2,
2,
1,
1,
10,
24,
23,
23,
28,
17,
18,
2,
3,
3,
8,
8,
8,
8,
18,
18,
22,
2,
3,
24,
23,
23,
20,
3,
7,
7,
8,
8,
7,
20,
19,
19,
10,
10,
6,
6,
15,
15,
21,
6,
6,
6,
4,
4,
0,
0,
2,
2,
3,
3,
12,
12,
13,
13,
6,
6,
2,
2,
4,
17,
16,
16,
16,
16,
10,
10,
5,
5,
8,
8,
2,
2,
0,
0,
4,
18,
17,
17,
12,
0,
1,
1,
1,
16,
16,
16,
25,
25,
22,
8,
8,
8,
5,
5,
10,
10,
2,
2,
2,
2,
9,
9,
16,
16,
9,
9,
2,
2,
4,
4,
2,
2,
7,
7,
3,
3,
8,
8,
14,
1,
2,
2,
10,
10,
5,
5,
9,
9,
8,
8,
6,
6,
15,
15,
15,
2,
2,
2,
4,
4,
11,
11,
17,
17,
14,
14,
10,
10,
8,
8,
6,
6,
2,
2,
2,
2,
3,
3,
1,
1,
10,
23,
22,
22,
22,
22,
12,
12,
3,
3,
2,
16,
15,
15,
21,
21,
11,
11,
18,
18,
15,
3,
10,
10,
14,
51,
51,
28,
28,
4,
8,
21,
21,
21,
24,
24,
25,
25,
22,
22,
17,
6,
6,
6,
4,
4,
8,
8,
6,
6,
1,
1,
8,
8,
13,
13,
8,
8,
10,
10,
16,
16,
14,
14,
10,
10,
5,
5,
0,
0,
4,
4,
5,
5,
3,
3,
5,
21,
20,
20,
14,
1,
1,
1,
6,
6,
14,
14,
15,
15,
9,
9,
5,
5,
5,
5,
3,
3,
4,
4,
5,
5,
5,
5,
0,
0,
2,
2,
-1,
-1,
6,
6,
14,
14,
8,
8,
2,
2,
6,
6,
13,
13,
9,
9,
7,
7,
1,
1,
7,
7,
10,
10,
8,
8,
6,
6,
4,
4,
0,
0,
5,
5,
4,
4,
12,
12,
4,
4,
2,
2,
2,
2,
7,
7,
8,
8,
7,
7,
8,
8,
9,
9,
6,
6,
3,
3,
3,
3,
5,
5,
8,
8,
6,
6,
2,
2,
0,
0,
1,
1,
2,
2,
9,
9,
4,
4,
1,
1,
1,
1,
1,
1,
3,
3,
5,
5,
1,
1,
2,
2,
3,
3,
6,
6,
6,
6,
9,
9,
5,
5,
0,
0,
2,
2,
2,
2,
10,
10,
13,
13,
18,
18,
9,
9,
6,
19,
18,
6,
6,
19,
18,
18,
21,
2,
5,
22,
21,
21,
19,
7,
7,
7,
8,
8,
10,
10,
8,
8,
1,
1,
8,
8,
1,
1,
5,
5,
8,
8,
1,
14,
13,
13,
22,
22,
21,
3,
5,
29,
29,
16,
17,
0,
1,
1,
4,
4,
1,
1,
2,
2,
3,
3,
9,
9,
2,
2,
-1,
-1,
4,
15,
14,
14,
7,
7,
6,
6,
14,
14,
19,
19,
17,
17,
10,
26,
26,
37,
33,
12,
12,
12,
8,
8,
6,
6,
1,
1,
9,
20,
20,
20,
28,
28,
30,
9,
10,
10,
6,
6,
1,
1,
6,
6,
4,
4,
12,
12,
15,
15,
9,
9,
10,
10,
18,
18,
15,
3,
3,
3,
0,
0,
5,
5,
12,
1,
2,
17,
16,
27,
26,
15,
15,
1,
2,
2,
5,
5,
1,
1,
-1,
-1,
4,
4,
1,
1,
4,
4,
3,
3,
3,
3,
1,
1,
10,
10,
9,
9,
2,
2,
0,
0,
1,
1,
5,
5,
8,
8,
7,
7,
4,
4,
2,
2,
0,
0,
4,
4,
6,
6,
6,
6,
0,
0,
4,
4,
10,
10,
10,
10,
4,
4,
0,
0,
3,
3,
2,
2,
10,
10,
9,
9,
9,
9,
7,
7,
6,
6,
0,
0,
5,
5,
7,
7,
5,
5,
3,
3,
5,
5,
9,
9,
12,
12,
11,
11,
2,
2,
2,
2,
9,
9,
10,
10,
5,
5,
7,
7,
12,
12,
5,
5,
1,
1,
6,
6,
5,
5,
2,
2,
9,
9,
13,
2,
2,
19,
18,
29,
28,
9,
10,
10,
6,
28,
26,
26,
29,
9,
10,
10,
13,
25,
25,
25,
20,
20,
18,
18,
16,
16,
19,
19,
26,
26,
21,
21,
11,
11,
6,
6,
2,
2,
4,
29,
29,
48,
48,
30,
30,
15,
15,
15,
9,
9,
2,
24,
24,
24,
26,
4,
4,
37,
36,
53,
50,
14,
15,
4,
13,
13,
22,
22,
21,
21,
12,
12,
2,
2,
9,
20,
19,
19,
17,
5,
6,
6,
6,
6,
14,
14,
10,
10,
4,
4,
5,
5,
5,
5,
10,
10,
15,
15,
6,
6,
2,
2,
4,
15,
15,
15,
14,
14,
6,
6,
0,
0,
3,
3,
6,
6,
4,
4,
5,
5,
9,
9,
0,
0,
2,
2,
4,
4,
1,
1,
1,
1,
4,
4,
6,
6,
12,
12,
2,
2,
10,
10,
11,
11,
12,
12,
4,
4,
5,
5,
2,
2,
3,
3,
3,
3,
0,
0,
3,
3,
1,
1,
4,
4,
1,
1,
0,
0,
3,
3,
5,
5,
0,
0,
-2,
-2,
1,
1,
8,
8,
14,
14,
8,
8,
2,
2,
8,
8,
6,
6,
3,
3,
3,
3,
2,
2,
2,
2,
10,
10,
2,
2,
11,
11,
6,
6,
6,
6,
9,
9,
4,
4,
12,
12,
10,
10,
2,
2,
1,
1,
8,
8,
12,
12,
5,
5,
2,
2,
2,
19,
19,
19,
24,
9,
10,
-1,
0,
12,
11,
11,
17,
17,
16,
16,
8,
8,
4,
4,
3,
3,
2,
2,
4,
4,
0,
0,
10,
10,
5,
5,
0,
0,
2,
2,
10,
10,
5,
5,
6,
6,
0,
0,
3,
3,
0,
0,
2,
23,
22,
22,
26,
13,
14,
0,
1,
1,
9,
9,
16,
16,
20,
20,
26,
26,
24,
24,
14,
1,
2,
2,
8,
8,
12,
12,
10,
10,
3,
3,
3,
3,
10,
32,
31,
18,
19,
1,
2,
2,
9,
9,
11,
11,
4,
19,
18,
18,
15,
2,
3,
3,
4,
4,
2,
2,
4,
4,
6,
6,
11,
11,
17,
17,
13,
13,
6,
6,
2,
2,
2,
2,
-1,
-1,
7,
19,
18,
18,
16,
5,
6,
6,
1,
1,
7,
7,
3,
14,
13,
13,
8,
8,
-1,
-1,
0,
0,
2,
2,
7,
7,
7,
7,
4,
4,
2,
2,
7,
7,
2,
2,
1,
1,
4,
4,
4,
4,
1,
1,
4,
4,
6,
6,
1,
1,
-1,
-1,
0,
0,
6,
6,
4,
4,
6,
6,
3,
3,
0,
0,
1,
1,
1,
1,
6,
6,
15,
15,
22,
22,
29,
18,
18,
4,
4,
4,
5,
17,
17,
36,
35,
35,
30,
9,
9,
9,
4,
4,
6,
6,
6,
6,
1,
1,
5,
5,
10,
10,
11,
11,
10,
10,
10,
10,
10,
10,
6,
6,
0,
0,
3,
3,
9,
9,
14,
14,
12,
12,
6,
6,
1,
13,
12,
12,
5,
5,
6,
6,
16,
35,
35,
35,
25,
5,
13,
26,
25,
12,
12,
-1,
0,
0,
4,
4,
12,
12,
13,
1,
5,
5,
5,
5,
3,
3,
2,
2,
5,
5,
3,
3,
1,
24,
24,
24,
30,
12,
12,
1,
4,
4,
6,
6,
8,
8,
10,
10,
14,
14,
10,
10,
5,
5,
4,
4,
5,
5,
5,
5,
6,
6,
13,
13,
21,
9,
9,
9,
1,
1,
9,
9,
18,
18,
10,
10,
2,
2,
5,
5,
4,
4,
5,
5,
1,
1,
6,
6,
12,
12,
12,
12,
15,
15,
6,
6,
8,
8,
15,
15,
14,
14,
9,
9,
4,
4,
2,
2,
1,
1,
-2,
-2,
2,
2,
2,
2,
0,
0,
1,
1,
5,
5,
7,
7,
1,
1,
2,
2,
10,
10,
11,
11,
5,
5,
2,
2,
3,
3,
2,
2,
1,
1,
3,
15,
15,
15,
6,
6,
1,
1,
9,
9,
16,
16,
10,
10,
5,
5,
4,
4,
2,
2,
0,
0,
5,
5,
3,
3,
4,
4,
9,
9,
4,
4,
3,
3,
2,
2,
6,
6,
5,
5,
6,
6,
9,
9,
8,
8,
2,
2,
0,
0,
1,
1,
1,
1,
9,
9,
10,
10,
1,
1,
2,
2,
2,
2,
4,
4,
2,
2,
1,
1,
6,
6,
5,
5,
6,
6,
2,
2,
6,
6,
4,
4,
9,
9,
16,
16,
12,
1,
1,
1,
9,
9,
12,
12,
13,
13,
8,
8,
2,
2,
4,
4,
13,
1,
2,
2,
1,
1,
2,
2,
5,
5,
2,
2,
9,
9,
3,
3,
7,
7,
10,
10,
4,
4,
13,
31,
30,
10,
10,
10,
13,
13,
15,
2,
2,
2,
2,
2,
6,
6,
4,
4,
0,
0,
7,
7,
6,
6,
2,
2,
4,
4,
3,
3,
4,
4,
0,
0,
7,
21,
20,
20,
27,
27,
34,
20,
21,
3,
7,
24,
24,
24,
34,
34,
34,
34,
33,
33,
26,
26,
19,
8,
9,
9,
1,
1,
3,
3,
11,
11,
13,
13,
16,
16,
22,
22,
24,
24,
18,
18,
16,
16,
12,
1,
2,
2,
2,
2,
12,
1,
2,
2,
5,
5,
3,
3,
1,
1,
1,
1,
6,
6,
9,
9,
8,
8,
6,
6,
1,
1,
2,
2,
5,
5,
5,
5,
4,
4,
5,
5,
1,
1,
2,
2,
6,
6,
8,
8,
5,
5,
8,
8,
4,
4,
1,
1,
2,
2,
1,
1,
2,
2,
2,
2,
-1,
-1,
3,
3,
5,
5,
4,
4,
0,
0,
1,
1,
1,
1,
2,
2,
0,
0,
0,
0,
2,
2,
2,
2,
2,
2,
0,
0,
9,
9,
10,
10,
6,
6,
0,
0,
4,
4,
9,
9,
14,
1,
2,
2,
11,
27,
26,
26,
31,
18,
18,
1,
2,
2,
4,
4,
4,
4,
1,
1,
2,
2,
2,
2,
2,
2,
6,
6,
9,
9,
6,
6,
12,
29,
28,
28,
26,
6,
6,
6,
0,
12,
11,
11,
20,
20,
21,
21,
14,
1,
4,
4,
13,
13,
13,
13,
7,
7,
4,
4,
6,
6,
6,
18,
17,
17,
10,
10,
9,
9,
14,
14,
18,
18,
13,
13,
5,
5,
1,
1,
9,
21,
21,
21,
21,
21,
15,
15,
11,
11,
9,
9,
9,
9,
2,
2,
2,
2,
4,
4,
7,
7,
10,
10,
15,
2,
3,
3,
12,
12,
5,
5,
3,
3,
3,
3,
1,
1,
5,
5,
10,
10,
2,
23,
23,
23,
28,
12,
13,
13,
4,
4,
6,
23,
23,
23,
30,
30,
28,
28,
32,
12,
12,
12,
20,
20,
25,
13,
14,
3,
4,
4,
0,
0,
5,
17,
17,
17,
21,
10,
10,
10,
2,
2,
7,
7,
5,
5,
2,
2,
4,
4,
8,
8,
10,
10,
16,
16,
14,
1,
3,
3,
4,
4,
12,
12,
18,
18,
9,
9,
2,
2,
0,
0,
3,
3,
12,
12,
14,
3,
3,
3,
-1,
-1,
5,
5,
8,
8,
10,
10,
6,
6,
7,
7,
2,
2,
7,
7,
9,
9,
10,
10,
6,
6,
2,
2,
5,
5,
5,
5,
6,
6,
3,
3,
6,
6,
4,
4,
4,
4,
8,
8,
1,
1,
10,
10,
8,
8,
2,
2,
3,
3,
5,
5,
9,
9,
9,
9,
1,
1,
0,
18,
17,
17,
25,
10,
10,
-1,
0,
0,
1,
1,
0,
0,
4,
4,
4,
4,
12,
0,
2,
13,
12,
12,
18,
18,
17,
6,
6,
6,
0,
0,
0,
0,
0,
0,
3,
3,
10,
10,
18,
18,
14,
14,
7,
7,
0,
0,
8,
8,
9,
9,
9,
9,
6,
6,
4,
4,
1,
1,
2,
2,
2,
24,
24,
6,
9,
20,
20,
20,
14,
14,
14,
14,
8,
8,
3,
3,
6,
6,
5,
5,
5,
5,
0,
0,
4,
4,
9,
9,
2,
2,
1,
12,
11,
11,
13,
13,
7,
7,
5,
5,
0,
0,
1,
1,
4,
4,
6,
6,
14,
14,
10,
10,
2,
2,
3,
3,
9,
9,
3,
3,
1,
1,
0,
0,
9,
9,
14,
14,
10,
10,
2,
2,
10,
10,
8,
8,
2,
2,
1,
1,
3,
3,
3,
3,
5,
18,
18,
18,
16,
16,
8,
8,
6,
6,
3,
3,
12,
12,
19,
19,
17,
17,
11,
11,
15,
15,
16,
16,
6,
6,
4,
4,
1,
1,
9,
9,
15,
15,
16,
16,
20,
20,
21,
6,
7,
7,
11,
11,
9,
9,
6,
6,
4,
4,
5,
5,
9,
9,
4,
4,
9,
9,
14,
3,
3,
17,
16,
16,
14,
3,
13,
13,
12,
12,
9,
9,
18,
29,
29,
12,
13,
2,
5,
5,
7,
24,
23,
23,
30,
17,
17,
2,
3,
3,
10,
10,
17,
17,
17,
17,
13,
13,
8,
8,
4,
4,
8,
8,
7,
7,
5,
5,
6,
6,
1,
1,
1,
1,
6,
6,
13,
13,
7,
7,
4,
15,
14,
14,
18,
18,
13,
13,
14,
14,
14,
0,
1,
1,
2,
2,
4,
4,
5,
5,
3,
3,
2,
2,
6,
6,
8,
8,
8,
8,
10,
10,
12,
12,
12,
12,
8,
8,
0,
0,
2,
2,
0,
0,
1,
1,
7,
7,
8,
19,
18,
18,
26,
10,
10,
-1,
0,
0,
4,
4,
6,
6,
4,
15,
15,
29,
28,
15,
15,
1,
5,
5,
8,
8,
10,
10,
19,
19,
24,
24,
18,
18,
13,
13,
14,
14,
9,
9,
5,
5,
12,
12,
14,
14,
11,
11,
9,
9,
5,
5,
1,
1,
4,
4,
0,
0,
0,
12,
12,
26,
26,
6,
6,
6,
15,
27,
26,
26,
20,
1,
2,
2,
9,
9,
13,
13,
15,
15,
13,
13,
5,
5,
3,
3,
5,
5,
4,
4,
13,
13,
17,
5,
6,
6,
1,
1,
3,
3,
10,
10,
8,
8,
2,
2,
0,
0,
9,
9,
15,
61,
61,
61,
66,
46,
46,
11,
12,
12,
20,
31,
30,
30,
32,
32,
32,
32,
32,
21,
22,
9,
10,
10,
6,
6,
5,
5,
2,
2,
