EMG_S3/DS0058.CSV

Memory Length,4000,
Trigger Level,-4.80000e+02,
Source,CH1,
Probe,1.0X,
Vertical Units,V,
Vertical Scale,1.00000e+00,
Vertical Position,0.00000e+00,
Horizontal Units,S,
Horizontal Scale,1.00000e-01,
Horizontal Position,0.0000000e+00,
Horizontal Mode,Roll Mode,
Waveform Last Dot Address,4000,
Sampling Period,4.00000e-04,
Firmware,V1.14,
Time, ,
Mode,Fast,
Waveform Data,
-1,
-1,
0,
0,
4,
4,
8,
8,
3,
3,
1,
1,
2,
2,
2,
2,
5,
5,
7,
7,
4,
4,
0,
0,
6,
6,
9,
9,
6,
6,
0,
0,
6,
6,
8,
8,
2,
2,
1,
1,
2,
2,
6,
6,
10,
10,
8,
8,
1,
1,
5,
5,
2,
2,
2,
21,
20,
20,
22,
4,
6,
6,
14,
14,
15,
15,
10,
10,
4,
4,
7,
7,
5,
5,
0,
0,
1,
1,
8,
8,
6,
6,
2,
2,
5,
5,
4,
4,
3,
3,
6,
6,
5,
5,
2,
2,
2,
15,
14,
35,
35,
23,
23,
1,
4,
17,
16,
16,
20,
8,
8,
8,
5,
5,
2,
2,
3,
3,
3,
3,
-1,
-1,
0,
0,
1,
1,
0,
0,
2,
2,
2,
2,
2,
2,
5,
5,
5,
5,
3,
3,
2,
13,
12,
12,
17,
17,
8,
8,
2,
2,
4,
4,
3,
3,
0,
0,
2,
2,
-1,
-1,
2,
2,
0,
0,
-1,
-1,
5,
5,
7,
7,
2,
2,
1,
1,
4,
4,
7,
7,
7,
7,
2,
2,
-1,
-1,
-1,
-1,
8,
8,
14,
14,
10,
10,
5,
5,
3,
3,
0,
0,
5,
5,
3,
3,
2,
2,
0,
0,
-1,
-1,
3,
3,
5,
5,
4,
4,
0,
0,
0,
0,
4,
4,
5,
5,
1,
1,
3,
3,
0,
0,
3,
3,
0,
0,
5,
5,
9,
9,
9,
9,
2,
2,
0,
0,
4,
4,
2,
2,
2,
2,
0,
0,
2,
2,
-1,
-1,
-1,
12,
12,
12,
18,
18,
24,
24,
28,
8,
8,
8,
7,
7,
14,
14,
18,
18,
22,
22,
20,
8,
8,
8,
4,
4,
8,
8,
8,
8,
2,
2,
-1,
-1,
2,
2,
1,
1,
-1,
-1,
0,
0,
7,
7,
7,
7,
0,
0,
-1,
-1,
1,
1,
9,
9,
6,
21,
21,
21,
18,
5,
5,
5,
7,
7,
12,
12,
10,
10,
10,
10,
0,
0,
4,
4,
1,
1,
4,
4,
4,
4,
4,
4,
1,
1,
4,
4,
2,
2,
3,
3,
2,
2,
1,
1,
4,
19,
18,
18,
20,
7,
8,
8,
5,
5,
6,
6,
9,
9,
6,
6,
6,
6,
10,
10,
14,
14,
9,
9,
1,
1,
6,
6,
2,
2,
10,
10,
7,
7,
5,
5,
0,
0,
1,
1,
0,
0,
3,
3,
4,
4,
3,
3,
0,
0,
0,
0,
2,
2,
3,
3,
1,
1,
2,
2,
6,
6,
10,
10,
14,
14,
11,
0,
0,
0,
-2,
-2,
2,
2,
12,
12,
18,
18,
13,
1,
2,
2,
10,
10,
5,
5,
3,
3,
5,
5,
4,
4,
2,
2,
0,
0,
7,
7,
6,
6,
2,
2,
-1,
-1,
-1,
-1,
0,
0,
0,
0,
3,
3,
2,
2,
3,
3,
1,
1,
0,
0,
8,
8,
16,
16,
14,
3,
3,
3,
2,
2,
8,
8,
3,
3,
5,
5,
6,
6,
1,
1,
6,
6,
5,
5,
6,
6,
6,
6,
2,
2,
0,
0,
-1,
-1,
-1,
-1,
1,
1,
-1,
-1,
0,
0,
4,
4,
6,
6,
6,
6,
3,
3,
4,
4,
6,
6,
2,
15,
15,
15,
17,
5,
5,
5,
3,
3,
5,
5,
6,
6,
14,
14,
6,
6,
12,
12,
16,
1,
2,
14,
14,
14,
13,
13,
7,
7,
2,
2,
0,
0,
7,
7,
6,
6,
6,
6,
5,
5,
8,
8,
7,
7,
2,
2,
9,
9,
10,
10,
6,
6,
0,
0,
5,
5,
7,
7,
2,
2,
3,
3,
5,
5,
3,
3,
0,
0,
-2,
-2,
1,
1,
2,
2,
4,
4,
13,
13,
17,
17,
15,
1,
1,
1,
6,
6,
6,
6,
6,
6,
0,
0,
5,
5,
7,
7,
1,
1,
5,
5,
4,
4,
1,
1,
2,
2,
4,
4,
3,
3,
1,
1,
4,
4,
10,
10,
10,
10,
4,
4,
1,
1,
1,
1,
6,
6,
11,
11,
7,
7,
3,
14,
14,
14,
12,
12,
4,
4,
4,
4,
6,
6,
5,
5,
3,
3,
-2,
-2,
0,
0,
9,
9,
9,
9,
14,
14,
15,
15,
12,
1,
5,
5,
14,
14,
7,
7,
8,
8,
0,
0,
2,
2,
6,
6,
5,
5,
5,
5,
5,
5,
4,
4,
0,
0,
7,
7,
10,
10,
8,
8,
10,
10,
5,
5,
0,
0,
1,
1,
-1,
-1,
2,
2,
4,
4,
3,
3,
-1,
-1,
6,
6,
9,
9,
2,
2,
0,
0,
0,
0,
0,
0,
0,
0,
3,
3,
3,
3,
6,
6,
13,
13,
7,
7,
0,
0,
1,
1,
8,
8,
10,
-1,
0,
0,
5,
5,
3,
3,
4,
4,
0,
0,
5,
5,
10,
10,
1,
13,
13,
13,
17,
17,
7,
7,
2,
15,
15,
15,
6,
6,
3,
3,
6,
29,
29,
17,
17,
1,
5,
16,
15,
15,
21,
21,
18,
18,
12,
12,
4,
4,
0,
0,
4,
4,
5,
5,
6,
6,
6,
6,
9,
9,
4,
4,
5,
5,
7,
7,
1,
1,
10,
10,
14,
14,
9,
9,
0,
0,
8,
8,
14,
14,
5,
5,
6,
20,
19,
19,
10,
10,
1,
1,
6,
6,
2,
2,
2,
2,
5,
5,
2,
2,
-1,
12,
10,
24,
23,
23,
22,
6,
6,
6,
0,
0,
-1,
-1,
0,
0,
1,
1,
0,
0,
-1,
-1,
0,
0,
0,
14,
13,
25,
23,
23,
14,
1,
2,
2,
6,
6,
3,
3,
1,
1,
1,
14,
13,
13,
22,
22,
23,
7,
8,
8,
11,
25,
24,
24,
27,
27,
20,
20,
18,
18,
17,
17,
10,
10,
2,
2,
3,
3,
8,
8,
13,
13,
20,
20,
22,
9,
9,
9,
3,
21,
21,
21,
16,
2,
6,
6,
15,
15,
16,
16,
12,
12,
12,
12,
8,
8,
9,
21,
20,
7,
7,
7,
4,
4,
11,
11,
14,
14,
14,
14,
6,
6,
10,
27,
26,
26,
21,
21,
14,
14,
14,
14,
5,
5,
8,
8,
8,
8,
9,
9,
7,
7,
6,
6,
6,
6,
5,
5,
-2,
-2,
3,
3,
2,
2,
0,
0,
0,
0,
8,
8,
7,
7,
2,
2,
5,
5,
0,
0,
8,
8,
10,
10,
13,
13,
13,
13,
5,
5,
3,
3,
12,
12,
14,
14,
5,
5,
1,
1,
1,
1,
4,
4,
10,
10,
18,
18,
21,
6,
25,
49,
48,
30,
30,
8,
8,
8,
1,
1,
2,
2,
6,
6,
15,
15,
15,
15,
13,
13,
14,
1,
2,
13,
12,
0,
1,
1,
5,
5,
1,
1,
8,
8,
4,
4,
2,
2,
6,
6,
2,
2,
1,
1,
0,
0,
4,
4,
2,
2,
1,
1,
4,
4,
5,
5,
3,
3,
3,
3,
11,
11,
8,
8,
9,
9,
10,
10,
6,
6,
1,
1,
6,
19,
18,
7,
8,
8,
11,
11,
2,
2,
-1,
-1,
0,
0,
5,
5,
5,
5,
13,
13,
14,
14,
6,
6,
1,
1,
10,
10,
12,
12,
6,
6,
4,
4,
2,
2,
1,
1,
-1,
-1,
1,
1,
2,
2,
0,
0,
3,
3,
8,
8,
2,
2,
2,
2,
1,
1,
-1,
-1,
1,
1,
1,
1,
2,
2,
6,
6,
1,
1,
1,
1,
4,
4,
5,
5,
2,
2,
3,
3,
5,
5,
6,
22,
22,
22,
21,
2,
5,
5,
12,
12,
9,
9,
12,
12,
10,
10,
4,
4,
5,
5,
10,
10,
12,
12,
10,
10,
8,
8,
4,
4,
6,
6,
1,
1,
0,
0,
4,
4,
8,
8,
9,
9,
9,
9,
7,
7,
5,
5,
1,
1,
7,
7,
9,
9,
1,
1,
4,
4,
0,
0,
6,
6,
12,
12,
12,
12,
17,
17,
14,
14,
11,
11,
5,
21,
20,
20,
25,
25,
26,
26,
32,
9,
9,
21,
21,
61,
61,
61,
64,
18,
19,
2,
6,
20,
19,
35,
34,
34,
38,
22,
23,
23,
17,
17,
12,
12,
12,
12,
9,
9,
1,
12,
11,
11,
21,
21,
18,
18,
11,
11,
5,
5,
6,
6,
9,
9,
13,
13,
14,
14,
7,
7,
1,
1,
4,
4,
9,
9,
14,
14,
11,
11,
4,
4,
-1,
-1,
1,
1,
8,
8,
13,
2,
3,
21,
21,
21,
15,
15,
15,
15,
13,
0,
2,
2,
2,
2,
0,
0,
1,
12,
12,
12,
21,
7,
8,
8,
8,
8,
3,
3,
0,
0,
-1,
-1,
2,
2,
0,
0,
1,
1,
4,
4,
4,
4,
4,
4,
2,
2,
3,
3,
2,
2,
2,
2,
5,
5,
2,
2,
1,
12,
12,
12,
13,
0,
2,
2,
11,
11,
8,
8,
1,
1,
1,
1,
1,
12,
11,
11,
14,
14,
10,
10,
2,
14,
14,
14,
17,
6,
7,
7,
6,
6,
5,
5,
0,
0,
1,
1,
-1,
-1,
5,
5,
4,
4,
2,
2,
3,
14,
14,
14,
21,
21,
12,
25,
25,
38,
37,
37,
33,
17,
18,
7,
8,
8,
2,
13,
13,
13,
16,
16,
12,
12,
13,
13,
11,
11,
7,
7,
0,
0,
2,
2,
0,
0,
1,
1,
-1,
-1,
2,
2,
4,
4,
5,
5,
7,
7,
3,
3,
3,
3,
0,
0,
9,
9,
10,
10,
13,
13,
10,
10,
2,
2,
6,
6,
13,
13,
13,
13,
6,
6,
4,
4,
1,
1,
7,
7,
2,
16,
15,
15,
6,
6,
4,
4,
4,
4,
5,
5,
1,
1,
2,
2,
2,
2,
5,
5,
1,
1,
2,
2,
2,
2,
2,
2,
-1,
-1,
2,
2,
3,
3,
5,
5,
2,
2,
2,
2,
3,
3,
0,
0,
-1,
-1,
5,
5,
7,
7,
3,
3,
0,
0,
0,
0,
2,
2,
6,
6,
10,
10,
2,
2,
7,
7,
9,
9,
16,
16,
7,
7,
1,
1,
4,
4,
3,
3,
6,
6,
10,
10,
13,
13,
13,
13,
8,
8,
2,
2,
6,
6,
10,
10,
6,
6,
7,
7,
10,
10,
10,
10,
2,
2,
0,
0,
4,
4,
9,
9,
14,
14,
9,
-2,
0,
0,
18,
18,
18,
18,
14,
14,
14,
14,
12,
1,
2,
2,
0,
0,
2,
13,
13,
13,
16,
16,
8,
8,
12,
12,
14,
2,
2,
2,
5,
5,
6,
6,
2,
2,
3,
3,
-1,
-1,
2,
2,
1,
1,
2,
2,
6,
6,
9,
9,
10,
10,
6,
6,
1,
1,
1,
1,
8,
8,
4,
4,
0,
0,
-1,
-1,
0,
0,
1,
1,
1,
12,
11,
11,
5,
5,
5,
5,
7,
7,
4,
4,
5,
5,
4,
4,
1,
1,
1,
1,
1,
1,
3,
3,
11,
11,
8,
8,
1,
1,
5,
5,
12,
12,
9,
9,
1,
1,
5,
5,
12,
12,
13,
13,
12,
12,
8,
8,
9,
9,
5,
5,
2,
13,
13,
13,
16,
16,
12,
12,
10,
10,
5,
5,
1,
1,
3,
3,
6,
6,
6,
6,
7,
7,
2,
2,
0,
0,
2,
2,
11,
11,
6,
6,
2,
2,
6,
6,
5,
5,
6,
6,
8,
8,
2,
2,
6,
6,
13,
13,
10,
10,
3,
3,
2,
2,
8,
8,
12,
12,
13,
13,
7,
7,
4,
4,
0,
0,
6,
6,
10,
10,
9,
9,
1,
1,
9,
9,
2,
2,
5,
5,
11,
11,
6,
6,
5,
5,
9,
9,
6,
6,
4,
4,
2,
2,
10,
10,
8,
8,
4,
4,
10,
10,
16,
16,
7,
18,
17,
17,
19,
5,
6,
6,
5,
16,
16,
16,
18,
7,
8,
8,
6,
6,
6,
6,
4,
4,
2,
2,
1,
1,
2,
2,
0,
0,
3,
3,
7,
7,
2,
2,
1,
1,
5,
5,
5,
5,
3,
3,
3,
3,
0,
0,
1,
1,
0,
0,
-1,
-1,
1,
1,
7,
7,
5,
5,
4,
4,
12,
12,
5,
18,
17,
38,
38,
38,
30,
2,
2,
14,
13,
13,
20,
20,
10,
10,
6,
21,
20,
20,
22,
22,
19,
4,
5,
5,
15,
15,
12,
12,
4,
4,
1,
1,
0,
0,
1,
1,
2,
2,
6,
6,
7,
7,
4,
4,
1,
1,
6,
6,
9,
9,
7,
7,
0,
0,
5,
5,
2,
2,
-1,
-1,
0,
0,
-1,
-1,
-1,
-1,
2,
2,
6,
6,
13,
13,
5,
17,
16,
16,
14,
1,
1,
1,
-1,
-1,
0,
0,
2,
2,
5,
5,
2,
2,
1,
1,
1,
1,
4,
4,
7,
7,
2,
2,
0,
0,
10,
10,
17,
17,
14,
3,
4,
4,
3,
3,
4,
4,
0,
0,
3,
3,
9,
9,
13,
1,
2,
2,
5,
5,
8,
8,
6,
6,
11,
11,
10,
10,
5,
5,
4,
4,
12,
12,
5,
5,
2,
2,
3,
3,
3,
3,
13,
13,
11,
11,
4,
4,
2,
2,
5,
5,
2,
2,
0,
0,
2,
2,
6,
6,
5,
5,
2,
2,
1,
1,
2,
2,
5,
5,
0,
0,
4,
4,
3,
3,
0,
0,
5,
5,
8,
8,
11,
11,
16,
16,
16,
16,
8,
8,
2,
2,
0,
0,
5,
5,
9,
28,
26,
26,
19,
7,
8,
8,
3,
3,
2,
2,
2,
2,
6,
17,
16,
4,
5,
36,
35,
35,
31,
7,
8,
8,
2,
2,
2,
2,
2,
2,
0,
0,
7,
7,
14,
14,
14,
1,
3,
18,
17,
17,
16,
16,
7,
7,
3,
3,
8,
8,
5,
5,
0,
0,
2,
15,
14,
14,
6,
6,
7,
7,
11,
11,
2,
2,
9,
9,
4,
4,
-1,
-1,
0,
0,
9,
9,
5,
5,
12,
27,
27,
6,
7,
32,
31,
18,
19,
4,
5,
5,
5,
5,
9,
9,
11,
11,
14,
14,
13,
2,
2,
2,
7,
7,
10,
10,
6,
6,
4,
4,
3,
3,
1,
1,
5,
5,
0,
0,
3,
3,
5,
5,
5,
5,
1,
1,
2,
2,
4,
4,
0,
0,
1,
1,
0,
0,
2,
2,
1,
1,
4,
4,
7,
7,
1,
1,
9,
9,
9,
9,
5,
5,
1,
1,
9,
9,
10,
10,
5,
5,
3,
3,
0,
0,
1,
1,
3,
3,
1,
1,
5,
5,
5,
5,
1,
1,
4,
4,
1,
1,
6,
6,
7,
7,
10,
10,
16,
16,
9,
9,
2,
2,
0,
0,
2,
2,
5,
5,
9,
9,
13,
13,
10,
10,
4,
4,
2,
2,
4,
4,
2,
2,
5,
5,
12,
12,
6,
6,
2,
2,
6,
6,
2,
2,
1,
1,
3,
3,
3,
3,
8,
22,
21,
4,
4,
4,
10,
10,
10,
10,
3,
3,
11,
11,
11,
0,
1,
1,
5,
5,
4,
4,
3,
3,
7,
7,
5,
5,
1,
1,
5,
5,
1,
1,
0,
0,
0,
0,
9,
21,
20,
20,
18,
1,
2,
2,
4,
4,
2,
2,
10,
10,
14,
0,
2,
2,
9,
9,
14,
14,
13,
13,
6,
6,
4,
4,
6,
6,
6,
6,
4,
4,
3,
3,
1,
12,
11,
11,
8,
8,
1,
1,
2,
2,
2,
2,
0,
0,
2,
2,
7,
7,
8,
8,
2,
2,
5,
5,
2,
2,
0,
0,
4,
4,
4,
4,
3,
3,
0,
0,
0,
0,
0,
0,
1,
1,
1,
17,
16,
16,
19,
19,
12,
0,
1,
12,
12,
12,
16,
16,
12,
12,
16,
16,
15,
15,
5,
5,
6,
17,
16,
16,
14,
14,
14,
14,
16,
4,
5,
5,
13,
13,
20,
9,
10,
10,
10,
10,
2,
2,
1,
1,
1,
1,
1,
1,
0,
0,
1,
1,
2,
2,
0,
0,
6,
6,
5,
5,
2,
2,
2,
2,
1,
1,
0,
0,
6,
6,
5,
5,
9,
9,
9,
9,
6,
6,
4,
4,
0,
0,
8,
8,
10,
10,
1,
12,
11,
11,
16,
5,
5,
5,
9,
9,
6,
6,
5,
5,
6,
6,
5,
5,
6,
6,
4,
4,
4,
4,
4,
4,
6,
18,
18,
18,
22,
22,
12,
12,
22,
22,
22,
4,
4,
4,
-1,
-1,
0,
0,
3,
3,
8,
8,
2,
2,
7,
7,
4,
4,
11,
11,
3,
14,
14,
36,
34,
22,
22,
1,
2,
2,
8,
8,
12,
12,
8,
8,
3,
3,
3,
3,
6,
6,
9,
9,
8,
8,
6,
6,
3,
3,
0,
0,
0,
0,
1,
1,
9,
9,
14,
14,
6,
6,
7,
7,
10,
10,
6,
6,
1,
1,
6,
6,
8,
8,
7,
7,
16,
16,
13,
1,
5,
5,
12,
12,
14,
14,
14,
14,
7,
7,
6,
6,
10,
10,
10,
10,
6,
6,
0,
0,
3,
3,
7,
7,
3,
3,
2,
2,
0,
0,
0,
0,
2,
2,
4,
4,
-1,
-1,
0,
0,
3,
3,
0,
0,
1,
1,
2,
2,
1,
1,
8,
8,
8,
8,
3,
3,
7,
7,
6,
6,
5,
5,
1,
1,
8,
8,
12,
12,
8,
8,
4,
4,
10,
10,
10,
10,
8,
8,
7,
7,
7,
7,
2,
2,
1,
1,
-1,
-1,
6,
6,
6,
6,
3,
22,
21,
21,
22,
22,
22,
8,
8,
8,
2,
2,
0,
0,
4,
4,
12,
12,
13,
13,
8,
8,
6,
6,
0,
0,
1,
1,
-1,
-1,
-1,
-1,
4,
4,
0,
0,
5,
5,
1,
1,
1,
1,
2,
2,
3,
3,
2,
2,
2,
2,
3,
3,
1,
1,
6,
17,
16,
16,
9,
9,
1,
1,
4,
4,
4,
4,
6,
6,
5,
5,
6,
6,
6,
6,
6,
6,
2,
2,
1,
22,
22,
22,
26,
10,
10,
-1,
0,
0,
-1,
-1,
0,
0,
2,
2,
5,
5,
5,
5,
10,
10,
12,
12,
9,
9,
6,
6,
1,
1,
0,
0,
0,
0,
2,
2,
4,
4,
2,
2,
3,
3,
6,
6,
7,
7,
5,
5,
3,
3,
3,
3,
2,
2,
-1,
-1,
4,
4,
2,
2,
1,
1,
1,
1,
2,
2,
6,
6,
4,
4,
9,
9,
0,
0,
5,
5,
8,
8,
8,
8,
10,
10,
12,
12,
14,
14,
9,
9,
8,
8,
10,
10,
1,
1,
1,
1,
5,
5,
3,
3,
10,
10,
17,
17,
20,
20,
21,
10,
11,
11,
3,
14,
14,
14,
22,
22,
13,
13,
5,
5,
5,
5,
3,
3,
1,
1,
4,
4,
6,
6,
1,
1,
1,
1,
5,
5,
8,
8,
8,
8,
1,
1,
2,
2,
7,
7,
13,
13,
20,
2,
2,
2,
7,
7,
3,
3,
1,
1,
0,
0,
10,
10,
17,
17,
9,
9,
8,
33,
32,
17,
17,
0,
2,
2,
8,
8,
14,
14,
13,
13,
15,
15,
14,
1,
4,
4,
6,
6,
2,
2,
4,
4,
1,
1,
0,
0,
6,
6,
12,
12,
10,
10,
6,
6,
0,
0,
6,
6,
2,
2,
6,
6,
12,
12,
5,
5,
1,
1,
1,
1,
5,
5,
1,
1,
4,
4,
9,
9,
6,
6,
11,
0,
2,
2,
6,
6,
8,
8,
5,
5,
1,
1,
1,
1,
1,
1,
2,
2,
3,
3,
1,
1,
2,
2,
1,
1,
2,
2,
1,
1,
3,
3,
0,
0,
3,
3,
-1,
-1,
1,
1,
9,
9,
16,
5,
6,
6,
-1,
-1,
-1,
-1,
2,
2,
3,
3,
9,
9,
5,
5,
1,
1,
10,
10,
14,
14,
10,
10,
6,
6,
1,
1,
1,
1,
-1,
-1,
-1,
-1,
-1,
-1,
1,
1,
5,
5,
4,
4,
6,
6,
6,
6,
1,
1,
4,
4,
2,
2,
1,
1,
0,
0,
8,
8,
5,
5,
0,
0,
1,
1,
2,
2,
5,
5,
4,
4,
0,
0,
4,
4,
3,
3,
1,
1,
1,
1,
6,
6,
9,
9,
1,
1,
1,
1,
4,
4,
3,
3,
3,
3,
6,
6,
4,
4,
2,
2,
5,
5,
0,
0,
0,
0,
1,
1,
0,
0,
2,
2,
6,
6,
5,
5,
4,
4,
5,
5,
6,
6,
4,
4,
1,
1,
8,
8,
14,
14,
15,
15,
17,
4,
4,
25,
25,
25,
27,
27,
20,
1,
2,
2,
8,
8,
11,
11,
8,
8,
8,
8,
8,
8,
10,
10,
6,
6,
6,
32,
30,
16,
17,
3,
10,
23,
23,
23,
24,
24,
22,
11,
12,
12,
8,
8,
4,
4,
10,
10,
9,
9,
16,
16,
23,
23,
16,
16,
11,
11,
6,
6,
1,
1,
7,
7,
11,
11,
8,
8,
7,
19,
18,
18,
12,
1,
2,
2,
2,
2,
0,
0,
1,
1,
6,
6,
8,
8,
9,
9,
10,
10,
7,
7,
1,
1,
2,
2,
12,
12,
17,
6,
6,
6,
0,
0,
3,
3,
0,
0,
2,
2,
0,
0,
5,
5,
0,
0,
2,
2,
4,
4,
4,
4,
10,
10,
10,
10,
7,
7,
12,
12,
7,
7,
0,
0,
2,
2,
1,
1,
1,
1,
2,
2,
2,
2,
1,
1,
0,
0,
2,
2,
4,
4,
4,
4,
5,
5,
0,
0,
1,
1,
0,
0,
0,
0,
4,
4,
7,
7,
8,
8,
9,
9,
0,
0,
2,
2,
4,
4,
6,
6,
0,
0,
0,
0,
2,
2,
2,
2,
1,
1,
3,
3,
9,
9,
10,
10,
1,
1,
2,
2,
0,
0,
-1,
-1,
9,
9,
12,
12,
10,
10,
5,
5,
1,
1,
8,
8,
7,
7,
1,
1,
2,
2,
1,
1,
2,
2,
4,
4,
0,
0,
9,
9,
2,
2,
10,
10,
7,
38,
38,
38,
31,
11,
11,
11,
9,
25,
25,
25,
26,
26,
22,
22,
21,
21,
17,
17,
10,
10,
2,
2,
10,
10,
14,
14,
12,
12,
4,
4,
5,
5,
10,
10,
10,
10,
3,
3,
1,
1,
2,
2,
1,
1,
2,
2,
12,
12,
21,
10,
10,
10,
10,
21,
21,
21,
23,
23,
15,
4,
5,
5,
2,
2,
2,
2,
2,
2,
0,
0,
9,
22,
21,
21,
15,
0,
5,
17,
16,
16,
12,
1,
5,
5,
5,
5,
1,
1,
6,
6,
9,
9,
2,
21,
21,
33,
28,
1,
2,
2,
6,
6,
5,
5,
7,
7,
6,
6,
2,
2,
2,
2,
0,
0,
6,
6,
4,
4,
1,
1,
0,
0,
-1,
-1,
0,
0,
5,
5,
4,
4,
2,
2,
1,
1,
1,
1,
5,
5,
13,
13,
12,
0,
1,
1,
3,
3,
4,
4,
6,
6,
4,
4,
2,
2,
1,
1,
0,
0,
2,
2,
7,
7,
14,
14,
22,
22,
13,
37,
37,
65,
63,
41,
41,
4,
4,
17,
17,
17,
16,
16,
8,
8,
9,
9,
14,
14,
14,
14,
9,
9,
9,
9,
5,
5,
-2,
-2,
0,
0,
5,
5,
7,
7,
6,
24,
24,
49,
48,
19,
20,
1,
2,
2,
6,
6,
8,
8,
6,
6,
0,
0,
0,
0,
6,
6,
3,
3,
4,
4,
4,
4,
2,
2,
1,
1,
5,
5,
1,
1,
2,
2,
-1,
-1,
2,
2,
-1,
-1,
6,
6,
6,
6,
2,
2,
1,
1,
-1,
-1,
4,
4,
9,
9,
9,
9,
1,
1,
5,
5,
6,
6,
8,
8,
3,
17,
16,
3,
3,
14,
13,
13,
11,
11,
10,
10,
8,
8,
0,
0,
0,
0,
1,
1,
3,
3,
3,
3,
3,
3,
9,
9,
6,
6,
2,
2,
10,
10,
4,
4,
0,
0,
1,
1,
4,
4,
1,
1,
3,
3,
1,
1,
1,
13,
12,
12,
9,
9,
1,
1,
4,
4,
12,
12,
17,
17,
14,
3,
15,
15,
19,
2,
3,
3,
5,
5,
2,
2,
1,
1,
1,
1,
5,
5,
10,
23,
22,
22,
13,
13,
20,
20,
25,
9,
10,
-1,
0,
0,
1,
1,
2,
2,
0,
0,
3,
3,
6,
6,
10,
10,
12,
1,
7,
20,
19,
5,
5,
5,
2,
2,
7,
7,
9,
9,
5,
5,
2,
2,
1,
1,
4,
4,
0,
0,
3,
14,
13,
13,
6,
6,
0,
0,
1,
1,
9,
9,
7,
7,
1,
1,
5,
5,
11,
11,
12,
12,
8,
8,
3,
17,
17,
2,
2,
2,
0,
12,
11,
11,
5,
5,
10,
10,
0,
0,
0,
0,
3,
3,
2,
2,
-1,
-1,
7,
7,
14,
14,
8,
8,
3,
3,
7,
7,
4,
4,
2,
2,
0,
0,
4,
4,
10,
10,
5,
5,
6,
6,
5,
5,
5,
5,
3,
3,
2,
2,
6,
6,
4,
4,
2,
2,
0,
0,
