EMG_S3/DS0046.CSV

Memory Length,4000,
Trigger Level,-4.80000e+02,
Source,CH1,
Probe,1.0X,
Vertical Units,V,
Vertical Scale,1.00000e+00,
Vertical Position,0.00000e+00,
Horizontal Units,S,
Horizontal Scale,1.00000e-01,
Horizontal Position,0.0000000e+00,
Horizontal Mode,Roll Mode,
Waveform Last Dot Address,4000,
Sampling Period,4.00000e-04,
Firmware,V1.14,
Time, ,
Mode,Fast,
Waveform Data,
6,
6,
3,
3,
11,
11,
20,
6,
0,
0,
2,
14,
14,
29,
27,
5,
5,
5,
13,
13,
13,
13,
12,
12,
3,
25,
24,
35,
33,
5,
5,
5,
13,
13,
6,
6,
12,
12,
20,
20,
22,
22,
16,
2,
5,
21,
21,
21,
22,
22,
17,
17,
11,
11,
2,
2,
8,
8,
1,
1,
1,
1,
-1,
-1,
1,
1,
6,
6,
6,
6,
2,
2,
6,
6,
8,
21,
21,
21,
17,
1,
2,
2,
3,
3,
0,
0,
0,
12,
12,
12,
17,
17,
10,
10,
6,
6,
4,
4,
1,
1,
6,
6,
14,
2,
2,
19,
19,
19,
9,
20,
19,
6,
7,
7,
3,
3,
7,
7,
4,
16,
16,
16,
19,
19,
12,
1,
8,
21,
20,
20,
10,
23,
22,
22,
26,
2,
3,
3,
6,
6,
16,
16,
7,
7,
0,
0,
4,
4,
6,
6,
5,
5,
5,
21,
20,
20,
19,
8,
8,
8,
2,
2,
9,
9,
5,
5,
6,
40,
40,
40,
42,
9,
10,
10,
6,
6,
8,
8,
5,
5,
1,
1,
7,
7,
8,
8,
1,
1,
1,
1,
2,
2,
2,
2,
1,
1,
2,
2,
11,
11,
7,
7,
4,
4,
6,
6,
6,
6,
3,
3,
9,
38,
37,
37,
34,
7,
7,
7,
14,
14,
16,
1,
2,
2,
8,
34,
33,
10,
12,
47,
47,
60,
49,
9,
10,
10,
8,
8,
12,
12,
14,
14,
17,
17,
12,
12,
15,
15,
15,
2,
2,
2,
5,
5,
3,
3,
2,
2,
0,
0,
8,
8,
12,
12,
7,
7,
10,
10,
14,
14,
6,
6,
2,
2,
5,
5,
2,
2,
4,
4,
2,
2,
2,
14,
13,
25,
23,
2,
2,
20,
20,
31,
30,
15,
16,
16,
10,
10,
8,
8,
5,
5,
2,
2,
-1,
-1,
4,
4,
10,
10,
2,
15,
14,
26,
26,
26,
17,
0,
0,
0,
2,
2,
0,
0,
5,
5,
9,
9,
13,
13,
7,
7,
6,
6,
9,
9,
6,
6,
12,
12,
10,
10,
6,
6,
0,
0,
5,
5,
9,
9,
5,
5,
4,
4,
7,
7,
0,
0,
2,
2,
9,
21,
20,
2,
4,
16,
15,
15,
11,
11,
10,
10,
14,
14,
8,
8,
6,
6,
10,
10,
3,
19,
18,
30,
28,
13,
13,
1,
2,
2,
6,
6,
3,
15,
14,
14,
16,
16,
8,
8,
0,
0,
6,
6,
4,
4,
2,
2,
6,
6,
1,
13,
13,
13,
18,
18,
17,
17,
17,
2,
4,
26,
25,
25,
22,
2,
4,
4,
6,
6,
3,
3,
6,
6,
2,
2,
6,
6,
10,
10,
10,
10,
5,
5,
3,
3,
1,
14,
13,
30,
29,
29,
31,
11,
11,
11,
16,
16,
25,
25,
26,
26,
18,
18,
9,
9,
6,
6,
1,
1,
2,
2,
6,
26,
26,
26,
22,
6,
6,
6,
3,
3,
2,
2,
2,
2,
6,
6,
10,
10,
5,
5,
6,
6,
14,
14,
14,
14,
8,
8,
1,
1,
5,
5,
4,
4,
7,
7,
3,
3,
1,
1,
8,
8,
14,
14,
18,
18,
14,
14,
4,
4,
1,
1,
7,
7,
8,
8,
5,
5,
3,
3,
5,
5,
4,
4,
4,
4,
2,
2,
2,
2,
6,
6,
2,
2,
5,
5,
10,
10,
12,
12,
10,
10,
1,
17,
17,
17,
21,
3,
4,
4,
9,
9,
5,
5,
2,
2,
8,
8,
13,
13,
22,
22,
26,
26,
26,
3,
5,
21,
20,
20,
30,
30,
32,
32,
29,
29,
22,
9,
9,
9,
5,
5,
7,
7,
5,
30,
30,
50,
48,
48,
42,
18,
18,
3,
7,
19,
18,
18,
25,
9,
10,
10,
8,
8,
14,
1,
3,
3,
2,
2,
5,
5,
7,
22,
22,
22,
15,
1,
1,
1,
8,
8,
16,
16,
18,
18,
10,
10,
6,
20,
18,
3,
9,
20,
18,
18,
12,
0,
1,
1,
9,
9,
12,
12,
10,
10,
11,
11,
12,
12,
3,
3,
0,
0,
6,
6,
14,
14,
10,
10,
3,
3,
7,
7,
15,
42,
41,
15,
15,
1,
2,
2,
3,
3,
4,
21,
21,
21,
25,
13,
14,
14,
11,
11,
15,
15,
8,
8,
0,
0,
2,
2,
2,
2,
1,
1,
4,
4,
5,
5,
1,
15,
14,
32,
32,
32,
32,
5,
6,
17,
17,
17,
9,
9,
4,
4,
2,
2,
2,
2,
8,
8,
5,
5,
7,
7,
15,
15,
16,
16,
9,
9,
1,
1,
8,
8,
18,
6,
8,
8,
1,
13,
12,
12,
21,
21,
16,
1,
1,
1,
6,
6,
12,
12,
20,
20,
11,
11,
6,
6,
5,
19,
18,
18,
14,
14,
12,
1,
2,
2,
9,
9,
1,
1,
10,
10,
17,
17,
11,
11,
9,
26,
25,
25,
16,
16,
10,
10,
6,
6,
7,
7,
11,
11,
4,
4,
4,
4,
12,
12,
9,
9,
13,
35,
35,
18,
18,
1,
1,
1,
6,
6,
4,
4,
4,
4,
2,
2,
1,
1,
6,
6,
10,
10,
1,
1,
1,
1,
2,
2,
1,
1,
0,
0,
9,
9,
14,
14,
8,
8,
3,
18,
17,
17,
24,
24,
25,
25,
22,
6,
7,
7,
12,
12,
13,
13,
6,
6,
3,
3,
10,
10,
7,
7,
10,
10,
9,
9,
13,
13,
18,
18,
13,
2,
5,
25,
25,
25,
29,
29,
29,
29,
26,
4,
5,
23,
22,
22,
18,
18,
14,
14,
22,
22,
23,
23,
16,
16,
6,
6,
0,
0,
5,
5,
10,
10,
14,
14,
15,
15,
9,
9,
1,
1,
1,
1,
2,
2,
0,
11,
10,
10,
20,
20,
13,
0,
2,
2,
9,
9,
8,
8,
5,
30,
30,
12,
12,
12,
15,
15,
21,
21,
16,
16,
9,
9,
8,
8,
5,
5,
9,
9,
6,
6,
1,
12,
12,
12,
17,
17,
9,
9,
0,
0,
6,
6,
1,
14,
13,
13,
10,
10,
9,
9,
2,
2,
11,
11,
18,
18,
11,
0,
1,
1,
2,
2,
1,
1,
8,
8,
4,
4,
4,
4,
5,
26,
25,
25,
21,
4,
8,
8,
16,
16,
19,
19,
17,
17,
7,
7,
10,
10,
6,
6,
3,
3,
0,
0,
6,
6,
2,
2,
6,
19,
18,
18,
10,
10,
10,
10,
12,
12,
3,
3,
5,
5,
1,
1,
3,
3,
12,
12,
21,
21,
16,
1,
2,
2,
5,
5,
12,
12,
17,
17,
11,
11,
8,
8,
6,
6,
4,
4,
0,
0,
2,
2,
5,
18,
18,
18,
20,
20,
14,
14,
13,
13,
9,
9,
7,
7,
14,
14,
11,
0,
2,
2,
3,
3,
4,
4,
1,
1,
9,
9,
10,
10,
3,
3,
1,
1,
6,
6,
6,
6,
3,
3,
2,
2,
4,
4,
5,
5,
9,
9,
8,
8,
4,
4,
1,
1,
4,
4,
8,
8,
12,
12,
5,
5,
4,
16,
15,
15,
10,
10,
5,
5,
5,
5,
6,
6,
-1,
-1,
5,
5,
8,
8,
2,
26,
25,
25,
17,
1,
3,
3,
5,
5,
3,
3,
6,
6,
1,
1,
2,
2,
9,
9,
13,
13,
8,
8,
14,
14,
6,
6,
12,
12,
13,
13,
9,
9,
5,
5,
10,
10,
11,
11,
10,
10,
11,
11,
13,
2,
8,
23,
23,
23,
24,
5,
10,
34,
32,
16,
16,
1,
2,
2,
4,
4,
6,
6,
1,
1,
0,
0,
3,
3,
6,
6,
6,
6,
8,
8,
1,
1,
5,
5,
0,
0,
2,
2,
8,
8,
5,
5,
-1,
-1,
-2,
-2,
5,
5,
0,
0,
1,
1,
10,
22,
21,
21,
24,
13,
14,
14,
10,
10,
3,
14,
14,
26,
25,
25,
23,
10,
11,
0,
1,
1,
0,
0,
-1,
-1,
2,
2,
-1,
-1,
1,
1,
4,
4,
6,
6,
4,
19,
19,
19,
20,
5,
6,
6,
5,
5,
7,
7,
9,
9,
12,
12,
6,
6,
4,
4,
13,
13,
20,
20,
25,
25,
21,
5,
5,
5,
2,
2,
5,
5,
12,
12,
20,
20,
21,
21,
26,
26,
26,
13,
14,
2,
16,
30,
28,
28,
22,
22,
32,
18,
18,
3,
9,
27,
26,
13,
13,
13,
17,
17,
10,
10,
6,
6,
2,
2,
7,
7,
4,
4,
2,
2,
4,
4,
8,
8,
10,
10,
6,
6,
0,
0,
0,
0,
6,
6,
12,
36,
35,
35,
29,
29,
21,
8,
8,
8,
6,
6,
15,
15,
16,
16,
10,
10,
6,
6,
6,
6,
8,
8,
2,
2,
-1,
-1,
1,
1,
3,
3,
4,
4,
0,
0,
6,
17,
17,
4,
4,
27,
25,
13,
14,
14,
15,
15,
12,
12,
7,
7,
7,
7,
2,
13,
13,
13,
9,
9,
10,
10,
13,
13,
14,
1,
2,
2,
3,
3,
6,
6,
13,
13,
12,
12,
9,
9,
17,
33,
32,
32,
32,
32,
25,
25,
25,
25,
17,
2,
5,
17,
17,
17,
21,
21,
25,
25,
28,
10,
10,
10,
20,
4,
5,
5,
9,
9,
6,
6,
2,
2,
6,
6,
9,
9,
6,
6,
6,
6,
13,
13,
9,
9,
12,
26,
25,
6,
6,
6,
8,
8,
2,
2,
1,
18,
17,
17,
8,
8,
6,
26,
26,
14,
15,
4,
10,
10,
6,
6,
12,
12,
21,
21,
14,
14,
6,
6,
14,
27,
26,
10,
12,
12,
4,
4,
1,
1,
-1,
-1,
1,
1,
9,
9,
14,
14,
6,
6,
5,
5,
10,
10,
6,
6,
3,
3,
9,
9,
5,
5,
12,
27,
26,
37,
37,
37,
32,
12,
12,
12,
19,
30,
28,
28,
25,
25,
20,
20,
12,
12,
7,
7,
2,
2,
9,
9,
15,
3,
12,
32,
31,
13,
14,
3,
4,
4,
1,
1,
6,
6,
10,
10,
8,
8,
2,
2,
10,
10,
13,
13,
8,
8,
7,
7,
10,
10,
2,
2,
6,
6,
7,
7,
2,
2,
1,
1,
1,
1,
0,
0,
3,
3,
4,
4,
4,
4,
1,
1,
1,
1,
1,
1,
0,
0,
8,
8,
5,
5,
3,
3,
-1,
-1,
3,
3,
1,
13,
13,
28,
28,
28,
21,
1,
2,
2,
3,
3,
10,
10,
16,
3,
4,
4,
1,
1,
10,
10,
12,
12,
9,
26,
25,
12,
12,
1,
4,
4,
12,
12,
15,
15,
13,
13,
5,
20,
20,
20,
17,
3,
3,
3,
1,
1,
4,
4,
2,
2,
2,
2,
8,
26,
25,
12,
13,
13,
13,
13,
20,
20,
28,
28,
20,
8,
9,
9,
6,
6,
14,
14,
18,
5,
6,
6,
3,
3,
6,
6,
4,
19,
18,
1,
1,
1,
11,
11,
15,
15,
6,
6,
2,
2,
10,
10,
14,
14,
16,
16,
20,
7,
7,
7,
7,
7,
13,
13,
13,
13,
10,
10,
11,
11,
6,
6,
1,
1,
0,
0,
2,
34,
33,
13,
13,
13,
9,
9,
3,
3,
-1,
-1,
7,
7,
2,
2,
6,
6,
0,
0,
2,
2,
6,
6,
1,
1,
3,
3,
6,
6,
6,
6,
1,
1,
5,
5,
6,
6,
1,
1,
7,
7,
3,
3,
2,
2,
6,
6,
11,
11,
10,
10,
3,
15,
14,
3,
8,
36,
35,
17,
18,
0,
2,
2,
12,
12,
18,
18,
14,
14,
4,
4,
3,
3,
6,
6,
0,
0,
2,
2,
6,
6,
4,
4,
0,
0,
5,
5,
6,
6,
1,
1,
3,
3,
2,
2,
1,
1,
-1,
-1,
0,
0,
0,
0,
2,
2,
2,
2,
12,
1,
5,
21,
21,
21,
14,
14,
8,
8,
17,
17,
13,
1,
2,
2,
7,
7,
8,
8,
14,
14,
19,
19,
10,
10,
5,
5,
1,
1,
1,
1,
3,
3,
5,
19,
18,
18,
14,
1,
2,
2,
5,
5,
5,
5,
1,
1,
5,
5,
10,
10,
8,
8,
18,
18,
12,
1,
6,
18,
17,
17,
20,
20,
14,
14,
10,
10,
9,
9,
6,
6,
7,
7,
0,
0,
0,
0,
3,
3,
12,
38,
38,
38,
28,
2,
3,
3,
2,
2,
0,
0,
3,
3,
6,
6,
10,
10,
7,
7,
1,
1,
10,
10,
8,
8,
3,
3,
8,
8,
6,
6,
6,
6,
4,
4,
11,
11,
5,
19,
17,
17,
13,
29,
28,
11,
11,
11,
6,
6,
4,
4,
5,
5,
13,
28,
27,
27,
35,
24,
24,
7,
29,
47,
44,
12,
13,
1,
5,
5,
9,
9,
12,
12,
11,
11,
8,
8,
2,
2,
5,
5,
3,
3,
1,
1,
8,
8,
2,
17,
16,
3,
5,
5,
7,
41,
41,
52,
45,
9,
9,
9,
8,
8,
6,
18,
18,
18,
24,
24,
19,
6,
7,
7,
6,
6,
9,
9,
6,
6,
6,
20,
18,
18,
12,
0,
2,
2,
6,
6,
2,
2,
8,
8,
6,
6,
3,
3,
1,
1,
3,
3,
4,
4,
12,
12,
14,
14,
4,
4,
5,
5,
5,
5,
1,
1,
-1,
-1,
0,
0,
6,
6,
10,
10,
12,
12,
7,
7,
1,
1,
1,
1,
2,
2,
2,
2,
9,
9,
11,
11,
10,
10,
10,
10,
8,
8,
5,
5,
0,
0,
0,
0,
1,
1,
6,
19,
18,
2,
2,
15,
14,
14,
9,
9,
1,
1,
1,
1,
6,
6,
13,
1,
4,
19,
18,
18,
24,
2,
2,
2,
2,
2,
3,
3,
2,
2,
2,
16,
15,
15,
10,
10,
4,
15,
14,
14,
12,
0,
1,
1,
9,
9,
10,
10,
15,
15,
21,
6,
7,
7,
5,
5,
6,
6,
7,
7,
13,
13,
19,
19,
19,
8,
9,
9,
1,
1,
1,
1,
0,
0,
4,
4,
9,
9,
10,
10,
6,
6,
5,
24,
24,
24,
16,
3,
12,
12,
20,
20,
16,
1,
2,
2,
2,
2,
2,
2,
7,
7,
9,
22,
22,
22,
14,
1,
2,
2,
6,
6,
1,
1,
1,
1,
0,
0,
1,
1,
8,
8,
8,
8,
6,
6,
3,
3,
1,
1,
-1,
-1,
2,
2,
4,
4,
2,
2,
1,
1,
1,
13,
12,
12,
9,
9,
4,
4,
5,
5,
10,
10,
6,
6,
5,
5,
10,
10,
6,
6,
7,
7,
16,
16,
13,
0,
2,
2,
1,
1,
5,
5,
8,
26,
26,
52,
50,
26,
26,
2,
3,
3,
10,
10,
14,
14,
16,
16,
12,
12,
2,
2,
6,
19,
18,
18,
13,
1,
1,
1,
-1,
-1,
4,
4,
14,
14,
16,
16,
18,
18,
9,
9,
2,
2,
1,
1,
10,
10,
18,
18,
15,
4,
16,
32,
30,
13,
14,
0,
2,
13,
13,
13,
17,
1,
2,
2,
10,
10,
5,
5,
4,
4,
6,
6,
1,
1,
0,
0,
8,
8,
13,
13,
8,
8,
0,
0,
10,
10,
6,
6,
2,
2,
5,
5,
5,
5,
2,
2,
2,
2,
1,
1,
0,
0,
0,
0,
-1,
-1,
-1,
-1,
2,
2,
2,
2,
5,
5,
7,
7,
4,
4,
0,
0,
0,
11,
10,
27,
27,
27,
18,
1,
2,
2,
11,
11,
17,
17,
15,
15,
10,
10,
5,
5,
3,
3,
12,
12,
13,
2,
2,
2,
8,
8,
9,
9,
2,
2,
5,
5,
8,
8,
18,
7,
8,
8,
0,
0,
4,
4,
9,
9,
5,
5,
2,
2,
6,
6,
13,
13,
16,
16,
16,
3,
13,
13,
17,
1,
2,
13,
12,
12,
5,
5,
10,
10,
8,
8,
6,
6,
5,
5,
5,
5,
5,
5,
5,
5,
13,
13,
12,
12,
7,
7,
0,
0,
-1,
-1,
2,
2,
0,
0,
2,
2,
2,
2,
2,
2,
3,
3,
8,
8,
16,
16,
17,
17,
14,
14,
6,
6,
0,
0,
4,
4,
7,
7,
9,
9,
14,
14,
14,
26,
24,
4,
5,
16,
16,
16,
13,
13,
13,
13,
12,
12,
13,
13,
6,
6,
2,
2,
7,
7,
7,
7,
6,
6,
8,
8,
8,
8,
2,
2,
-1,
-1,
2,
2,
1,
1,
1,
1,
9,
9,
12,
12,
7,
7,
5,
5,
4,
4,
10,
10,
6,
6,
1,
1,
6,
17,
16,
16,
10,
10,
4,
4,
0,
0,
2,
2,
5,
5,
5,
5,
2,
2,
4,
4,
14,
14,
13,
13,
4,
4,
13,
13,
22,
11,
12,
12,
6,
6,
5,
5,
6,
6,
2,
2,
2,
2,
6,
6,
8,
8,
4,
4,
4,
4,
1,
1,
3,
3,
9,
9,
8,
8,
2,
2,
2,
2,
2,
2,
5,
5,
3,
3,
3,
3,
2,
2,
5,
20,
19,
2,
5,
34,
34,
34,
41,
16,
16,
1,
6,
24,
23,
23,
32,
6,
6,
29,
28,
12,
13,
13,
14,
34,
33,
33,
34,
8,
11,
40,
39,
6,
6,
6,
8,
8,
4,
4,
2,
2,
1,
1,
3,
3,
5,
5,
12,
12,
6,
6,
7,
7,
11,
0,
2,
2,
6,
6,
0,
0,
0,
0,
5,
5,
7,
7,
5,
5,
6,
6,
9,
9,
8,
8,
6,
6,
6,
6,
10,
10,
18,
18,
11,
24,
22,
33,
29,
6,
6,
6,
2,
2,
6,
6,
3,
3,
6,
18,
18,
18,
22,
22,
17,
17,
24,
24,
24,
5,
13,
60,
60,
34,
2,
2,
4,
4,
12,
24,
23,
4,
6,
33,
32,
32,
31,
4,
5,
30,
30,
30,
28,
6,
6,
6,
2,
17,
17,
17,
14,
1,
4,
4,
1,
1,
10,
10,
5,
17,
16,
16,
16,
5,
17,
17,
17,
2,
2,
2,
5,
5,
6,
6,
2,
2,
4,
4,
7,
7,
10,
10,
2,
2,
0,
0,
6,
6,
3,
3,
6,
6,
8,
8,
6,
6,
2,
2,
9,
9,
2,
2,
5,
5,
3,
3,
0,
0,
1,
1,
6,
6,
2,
14,
14,
14,
13,
13,
9,
9,
10,
10,
6,
22,
21,
21,
23,
23,
13,
0,
1,
1,
3,
3,
2,
2,
2,
2,
5,
5,
7,
7,
7,
7,
2,
2,
5,
5,
2,
2,
8,
8,
10,
10,
5,
5,
6,
6,
3,
3,
2,
2,
1,
1,
2,
2,
12,
12,
17,
6,
6,
6,
13,
13,
18,
18,
9,
9,
1,
1,
3,
3,
0,
0,
0,
0,
2,
2,
6,
6,
11,
11,
6,
6,
8,
8,
5,
5,
7,
7,
10,
24,
22,
5,
5,
5,
2,
2,
4,
4,
6,
6,
10,
10,
5,
19,
18,
18,
8,
8,
2,
2,
6,
6,
3,
3,
10,
10,
0,
0,
2,
14,
13,
13,
13,
2,
2,
2,
8,
8,
15,
15,
12,
12,
5,
5,
1,
1,
6,
6,
4,
4,
8,
8,
10,
10,
12,
12,
14,
14,
13,
2,
3,
3,
7,
7,
7,
7,
2,
2,
2,
2,
2,
2,
5,
5,
3,
3,
9,
9,
1,
1,
7,
7,
12,
0,
2,
2,
6,
6,
3,
3,
3,
3,
4,
4,
5,
5,
6,
6,
4,
4,
1,
1,
-1,
-1,
0,
0,
6,
6,
9,
9,
5,
5,
4,
4,
-1,
-1,
2,
2,
5,
5,
1,
1,
6,
6,
7,
7,
7,
7,
10,
10,
9,
9,
9,
9,
3,
3,
-1,
-1,
2,
2,
5,
5,
4,
4,
2,
2,
0,
0,
0,
0,
5,
5,
5,
5,
2,
2,
2,
2,
4,
4,
2,
2,
0,
0,
0,
0,
1,
1,
6,
28,
28,
28,
34,
16,
17,
1,
7,
28,
28,
28,
31,
31,
22,
10,
10,
10,
10,
27,
26,
3,
4,
4,
13,
13,
14,
1,
2,
2,
8,
8,
3,
3,
3,
3,
4,
4,
5,
5,
1,
1,
8,
22,
22,
22,
13,
1,
4,
4,
8,
29,
29,
7,
8,
8,
6,
6,
6,
6,
10,
10,
14,
14,
14,
14,
14,
14,
21,
21,
26,
13,
13,
0,
1,
1,
6,
6,
7,
7,
10,
21,
21,
39,
38,
38,
38,
14,
14,
0,
4,
4,
9,
9,
14,
14,
12,
12,
10,
10,
13,
13,
10,
10,
6,
6,
5,
5,
1,
12,
11,
11,
14,
14,
5,
5,
0,
0,
2,
2,
5,
5,
2,
2,
0,
0,
8,
8,
2,
2,
5,
5,
1,
1,
10,
10,
4,
4,
6,
6,
5,
5,
4,
4,
7,
7,
11,
11,
5,
5,
4,
4,
2,
2,
8,
8,
9,
9,
10,
10,
4,
4,
1,
1,
-1,
-1,
4,
4,
4,
4,
1,
1,
1,
1,
5,
5,
2,
2,
4,
4,
6,
6,
6,
6,
5,
5,
9,
9,
3,
3,
5,
5,
6,
6,
5,
5,
8,
8,
14,
14,
12,
12,
12,
12,
18,
18,
14,
14,
9,
9,
15,
15,
22,
5,
10,
24,
22,
5,
11,
11,
9,
9,
12,
12,
21,
8,
8,
8,
2,
2,
4,
4,
5,
5,
9,
9,
11,
11,
8,
8,
1,
1,
2,
2,
6,
6,
2,
2,
2,
2,
8,
8,
14,
14,
9,
9,
2,
2,
10,
10,
11,
0,
2,
23,
22,
22,
20,
20,
11,
11,
10,
10,
12,
1,
6,
17,
15,
15,
10,
10,
1,
1,
3,
3,
2,
25,
24,
36,
33,
4,
5,
19,
18,
18,
14,
14,
6,
6,
2,
2,
1,
1,
6,
6,
11,
11,
11,
33,
31,
6,
6,
6,
5,
5,
6,
6,
12,
12,
9,
9,
1,
13,
12,
12,
6,
6,
5,
5,
10,
10,
8,
8,
5,
5,
10,
22,
21,
32,
30,
8,
9,
9,
10,
21,
20,
20,
17,
17,
13,
13,
13,
1,
2,
2,
12,
12,
5,
5,
6,
26,
26,
26,
17,
1,
4,
4,
13,
24,
23,
23,
23,
5,
6,
6,
13,
13,
16,
16,
11,
11,
10,
10,
8,
8,
6,
6,
2,
2,
5,
5,
10,
10,
10,
10,
10,
10,
12,
12,
4,
4,
4,
4,
9,
9,
9,
9,
3,
3,
-1,
-1,
1,
1,
0,
0,
1,
1,
5,
5,
4,
4,
1,
1,
1,
1,
0,
0,
0,
0,
0,
0,
0,
0,
6,
6,
10,
10,
2,
2,
9,
9,
2,
2,
0,
0,
1,
1,
0,
0,
6,
6,
0,
0,
7,
7,
15,
15,
10,
10,
10,
10,
16,
4,
5,
5,
2,
2,
4,
4,
6,
6,
1,
1,
1,
1,
1,
1,
0,
0,
0,
0,
2,
2,
3,
3,
5,
5,
2,
2,
5,
5,
8,
8,
7,
7,
12,
12,
10,
10,
10,
10,
5,
5,
3,
3,
8,
8,
6,
6,
10,
10,
15,
15,
16,
16,
18,
18,
25,
25,
18,
5,
22,
49,
49,
23,
23,
1,
2,
14,
14,
14,
20,
2,
4,
25,
25,
25,
30,
10,
11,
0,
2,
2,
10,
23,
22,
33,
32,
15,
16,
3,
10,
10,
17,
17,
18,
18,
15,
15,
20,
20,
21,
5,
5,
22,
22,
22,
14,
14,
7,
7,
4,
4,
3,
3,
6,
6,
2,
2,
4,
4,
1,
1,
5,
5,
6,
6,
6,
6,
1,
1,
5,
5,
1,
16,
15,
15,
13,
13,
5,
5,
2,
2,
5,
5,
13,
13,
13,
13,
12,
12,
5,
5,
0,
0,
6,
6,
8,
8,
5,
5,
3,
3,
1,
1,
10,
22,
21,
21,
17,
17,
9,
9,
0,
0,
1,
1,
2,
2,
2,
2,
2,
2,
11,
11,
12,
12,
8,
8,
3,
14,
14,
14,
8,
8,
-1,
-1,
0,
0,
3,
3,
4,
4,
0,
0,
8,
8,
8,
8,
6,
6,
2,
2,
5,
5,
7,
7,
2,
14,
13,
13,
12,
0,
1,
1,
0,
0,
5,
5,
9,
9,
1,
1,
5,
5,
5,
5,
0,
0,
6,
6,
1,
1,
4,
4,
13,
13,
10,
10,
7,
7,
9,
9,
3,
3,
7,
7,
6,
6,
13,
13,
12,
1,
3,
3,
1,
13,
12,
12,
8,
8,
1,
1,
0,
0,
9,
9,
14,
0,
1,
1,
-1,
10,
9,
9,
18,
18,
18,
18,
11,
11,
9,
9,
15,
2,
6,
6,
14,
3,
12,
23,
21,
9,
9,
9,
3,
3,
10,
10,
5,
5,
2,
2,
4,
4,
5,
5,
5,
5,
6,
6,
2,
2,
4,
4,
11,
11,
13,
1,
3,
15,
14,
14,
8,
8,
3,
3,
6,
6,
4,
4,
6,
6,
6,
6,
3,
3,
5,
5,
4,
4,
4,
4,
1,
1,
2,
2,
1,
1,
2,
2,
10,
10,
