EMG_S3/DS0044.CSV

Memory Length,4000,
Trigger Level,-4.80000e+02,
Source,CH1,
Probe,1.0X,
Vertical Units,V,
Vertical Scale,1.00000e+00,
Vertical Position,0.00000e+00,
Horizontal Units,S,
Horizontal Scale,1.00000e-01,
Horizontal Position,0.0000000e+00,
Horizontal Mode,Roll Mode,
Waveform Last Dot Address,4000,
Sampling Period,4.00000e-04,
Firmware,V1.14,
Time, ,
Mode,Fast,
Waveform Data,
4,
4,
0,
0,
3,
3,
1,
1,
-1,
-1,
4,
4,
6,
6,
5,
5,
12,
12,
13,
1,
2,
2,
8,
8,
6,
6,
5,
5,
1,
1,
-1,
-1,
2,
2,
1,
1,
3,
16,
15,
15,
18,
1,
2,
15,
14,
30,
30,
30,
34,
20,
20,
1,
2,
2,
9,
9,
10,
10,
10,
10,
16,
16,
17,
5,
5,
5,
5,
5,
0,
0,
2,
2,
1,
1,
2,
2,
3,
3,
3,
3,
1,
1,
2,
14,
13,
1,
2,
2,
8,
8,
12,
12,
6,
6,
5,
5,
7,
7,
7,
7,
3,
3,
2,
2,
9,
9,
12,
12,
5,
5,
9,
9,
14,
14,
7,
7,
7,
27,
26,
26,
25,
25,
21,
21,
24,
24,
15,
15,
6,
18,
16,
34,
34,
34,
34,
34,
26,
13,
14,
1,
5,
5,
14,
14,
16,
4,
5,
5,
5,
5,
0,
0,
0,
0,
2,
2,
5,
5,
1,
1,
-1,
-1,
4,
4,
0,
0,
0,
0,
1,
1,
1,
1,
7,
7,
6,
6,
1,
1,
8,
8,
3,
3,
0,
0,
3,
3,
10,
10,
18,
18,
19,
6,
7,
7,
10,
10,
12,
12,
9,
9,
10,
10,
10,
10,
5,
5,
2,
2,
3,
3,
-1,
-1,
-1,
-1,
3,
3,
1,
1,
6,
26,
26,
26,
24,
5,
6,
6,
0,
0,
2,
14,
14,
14,
16,
16,
6,
17,
16,
27,
25,
8,
9,
9,
2,
2,
12,
12,
19,
19,
12,
12,
6,
6,
2,
2,
0,
0,
2,
2,
3,
3,
8,
20,
20,
20,
13,
2,
3,
3,
-1,
-1,
3,
3,
2,
2,
0,
0,
0,
0,
1,
1,
3,
3,
1,
1,
4,
4,
4,
4,
9,
9,
10,
10,
1,
1,
0,
0,
5,
5,
5,
5,
2,
2,
10,
10,
10,
10,
9,
9,
10,
10,
12,
12,
5,
5,
3,
15,
14,
14,
13,
0,
1,
1,
6,
6,
9,
9,
1,
12,
11,
11,
16,
16,
18,
18,
19,
19,
12,
1,
2,
15,
14,
14,
21,
21,
16,
2,
2,
2,
0,
0,
0,
0,
3,
3,
2,
2,
2,
2,
2,
2,
5,
5,
2,
2,
7,
7,
5,
5,
1,
1,
0,
0,
4,
4,
10,
10,
13,
13,
10,
10,
3,
3,
1,
1,
3,
3,
5,
5,
7,
7,
7,
7,
5,
5,
3,
3,
1,
1,
2,
2,
2,
2,
-1,
-1,
0,
0,
0,
0,
2,
2,
1,
1,
-1,
-1,
-1,
-1,
0,
0,
1,
1,
2,
2,
7,
7,
13,
13,
13,
1,
5,
21,
21,
21,
21,
6,
6,
6,
5,
5,
11,
11,
13,
13,
11,
11,
7,
7,
0,
0,
6,
6,
14,
14,
12,
12,
4,
4,
-1,
-1,
0,
0,
3,
3,
0,
0,
4,
4,
5,
5,
1,
1,
3,
3,
6,
6,
10,
10,
9,
9,
3,
19,
18,
18,
15,
3,
4,
4,
2,
2,
4,
4,
1,
1,
4,
4,
1,
1,
4,
4,
4,
4,
2,
2,
6,
6,
10,
10,
8,
8,
2,
2,
9,
9,
1,
1,
5,
5,
1,
1,
4,
4,
-1,
-1,
-2,
-2,
5,
5,
6,
6,
2,
2,
2,
2,
2,
2,
2,
2,
1,
1,
6,
6,
10,
32,
31,
15,
15,
0,
1,
1,
6,
6,
7,
7,
2,
2,
6,
6,
12,
12,
11,
11,
2,
2,
3,
3,
11,
11,
16,
16,
14,
14,
13,
13,
6,
6,
5,
5,
14,
14,
13,
13,
9,
9,
6,
6,
4,
4,
6,
6,
4,
4,
0,
0,
3,
3,
2,
2,
3,
3,
8,
8,
8,
8,
8,
8,
8,
8,
5,
5,
3,
3,
6,
6,
2,
2,
5,
5,
11,
11,
18,
18,
15,
15,
8,
8,
6,
6,
6,
6,
2,
2,
5,
5,
8,
8,
6,
6,
6,
6,
4,
4,
2,
2,
5,
5,
9,
9,
12,
12,
3,
3,
9,
26,
25,
25,
25,
25,
18,
2,
2,
2,
9,
9,
15,
15,
10,
10,
5,
5,
0,
0,
5,
5,
13,
13,
17,
4,
4,
21,
21,
21,
29,
29,
28,
28,
27,
27,
19,
19,
10,
10,
10,
24,
23,
23,
30,
30,
30,
30,
26,
11,
12,
0,
1,
1,
0,
0,
3,
3,
6,
6,
10,
10,
9,
9,
5,
5,
2,
14,
14,
14,
21,
21,
11,
0,
1,
1,
5,
5,
7,
7,
10,
10,
4,
4,
9,
9,
14,
3,
4,
4,
5,
5,
1,
1,
0,
0,
7,
7,
10,
10,
7,
7,
7,
7,
6,
6,
5,
5,
2,
2,
6,
6,
1,
1,
0,
0,
2,
2,
2,
2,
3,
3,
4,
4,
2,
2,
2,
2,
8,
8,
9,
9,
5,
5,
0,
0,
2,
2,
4,
4,
7,
7,
12,
1,
1,
1,
10,
10,
5,
5,
1,
1,
5,
5,
4,
4,
7,
7,
11,
11,
10,
10,
5,
5,
1,
1,
6,
6,
6,
6,
3,
3,
7,
7,
9,
9,
8,
8,
6,
6,
10,
10,
12,
1,
2,
2,
6,
6,
12,
12,
13,
13,
10,
10,
9,
9,
2,
2,
6,
6,
0,
0,
3,
3,
0,
0,
2,
2,
1,
1,
1,
1,
4,
4,
6,
21,
20,
20,
19,
3,
4,
4,
6,
6,
6,
6,
10,
10,
10,
10,
3,
20,
20,
34,
30,
5,
9,
25,
24,
5,
8,
25,
24,
6,
6,
17,
17,
17,
26,
26,
25,
7,
8,
8,
13,
13,
20,
20,
10,
10,
5,
5,
0,
0,
7,
7,
14,
14,
12,
12,
8,
8,
5,
5,
1,
1,
5,
5,
11,
11,
12,
12,
11,
11,
11,
11,
10,
10,
5,
5,
0,
0,
1,
1,
4,
4,
7,
7,
1,
12,
12,
12,
11,
11,
5,
5,
7,
7,
6,
6,
5,
26,
25,
25,
31,
31,
29,
3,
5,
28,
28,
28,
20,
4,
5,
5,
2,
2,
0,
0,
-1,
-1,
4,
4,
6,
6,
6,
6,
2,
2,
1,
1,
6,
6,
6,
6,
3,
3,
4,
4,
2,
2,
0,
0,
1,
1,
4,
4,
4,
4,
3,
3,
3,
3,
2,
2,
0,
0,
1,
1,
6,
6,
8,
8,
8,
8,
6,
6,
8,
20,
18,
3,
4,
28,
28,
28,
28,
16,
17,
17,
9,
9,
1,
13,
12,
24,
23,
23,
25,
25,
21,
21,
13,
13,
8,
8,
3,
3,
1,
1,
2,
2,
0,
0,
8,
8,
14,
14,
10,
10,
10,
10,
10,
10,
6,
6,
1,
1,
1,
1,
2,
2,
2,
2,
5,
5,
5,
5,
1,
1,
4,
4,
6,
6,
6,
6,
4,
4,
7,
7,
2,
2,
3,
3,
6,
6,
0,
0,
0,
0,
5,
5,
2,
2,
1,
1,
0,
0,
2,
2,
1,
1,
5,
5,
9,
9,
6,
6,
7,
7,
13,
13,
7,
7,
2,
2,
8,
8,
5,
5,
5,
5,
9,
9,
0,
0,
0,
0,
8,
8,
6,
6,
0,
0,
6,
6,
6,
6,
3,
16,
15,
15,
22,
2,
3,
3,
8,
8,
12,
12,
13,
13,
16,
16,
16,
16,
14,
14,
8,
8,
9,
24,
24,
24,
30,
17,
17,
4,
5,
5,
4,
4,
12,
12,
6,
6,
0,
0,
1,
1,
0,
0,
4,
4,
5,
5,
6,
17,
16,
4,
4,
4,
5,
5,
6,
6,
5,
5,
1,
1,
1,
1,
2,
2,
5,
5,
1,
1,
2,
2,
2,
2,
-1,
-1,
-1,
-1,
-1,
-1,
-1,
-1,
0,
0,
7,
22,
21,
21,
26,
15,
17,
1,
3,
3,
12,
12,
15,
15,
16,
16,
13,
13,
11,
11,
8,
8,
6,
6,
6,
6,
2,
2,
2,
2,
4,
4,
6,
6,
9,
9,
9,
9,
10,
10,
7,
7,
5,
5,
3,
3,
0,
0,
0,
0,
1,
1,
5,
5,
6,
6,
2,
2,
0,
0,
-1,
-1,
-1,
-1,
2,
2,
6,
6,
4,
4,
2,
2,
1,
1,
6,
6,
12,
12,
6,
6,
0,
0,
1,
1,
-1,
-1,
0,
0,
0,
0,
-1,
-1,
0,
0,
7,
7,
5,
5,
0,
12,
10,
10,
11,
0,
1,
1,
5,
5,
7,
7,
8,
20,
20,
9,
9,
9,
2,
2,
5,
5,
2,
23,
22,
22,
30,
30,
24,
12,
13,
1,
4,
4,
10,
10,
7,
7,
1,
1,
6,
19,
18,
18,
14,
1,
1,
14,
13,
13,
9,
9,
3,
3,
7,
7,
8,
8,
12,
12,
13,
1,
2,
14,
13,
13,
16,
16,
12,
12,
11,
11,
6,
6,
3,
3,
9,
9,
9,
9,
2,
2,
6,
6,
7,
7,
4,
4,
3,
3,
11,
11,
17,
5,
6,
6,
7,
7,
10,
10,
6,
6,
5,
5,
9,
9,
10,
10,
6,
6,
8,
8,
13,
13,
4,
24,
23,
23,
26,
6,
6,
6,
1,
1,
7,
18,
17,
1,
2,
14,
13,
13,
5,
5,
5,
5,
4,
4,
6,
6,
11,
11,
7,
7,
0,
0,
5,
5,
8,
8,
13,
13,
18,
2,
6,
18,
16,
16,
9,
9,
2,
2,
5,
5,
1,
13,
13,
13,
5,
5,
14,
14,
21,
21,
14,
1,
2,
2,
6,
6,
0,
0,
-1,
-1,
1,
1,
3,
3,
4,
4,
4,
4,
1,
1,
5,
5,
5,
5,
1,
12,
11,
11,
19,
19,
16,
1,
2,
2,
2,
2,
1,
1,
2,
2,
6,
6,
5,
5,
1,
1,
1,
1,
1,
1,
0,
0,
3,
3,
9,
9,
8,
8,
2,
2,
1,
1,
3,
3,
0,
0,
1,
1,
3,
3,
4,
4,
-1,
-1,
-1,
-1,
-1,
-1,
0,
0,
5,
5,
8,
8,
1,
1,
2,
20,
20,
20,
25,
3,
4,
4,
13,
13,
18,
18,
18,
18,
16,
16,
13,
13,
10,
10,
3,
3,
1,
1,
7,
22,
21,
21,
21,
6,
6,
6,
1,
1,
4,
4,
5,
5,
4,
4,
1,
1,
6,
6,
6,
6,
9,
9,
12,
12,
5,
5,
1,
13,
13,
13,
19,
19,
10,
10,
5,
5,
5,
5,
8,
8,
13,
13,
8,
8,
1,
1,
10,
10,
14,
1,
3,
3,
11,
11,
2,
2,
12,
12,
14,
2,
2,
2,
8,
8,
7,
7,
10,
10,
18,
18,
10,
10,
7,
7,
12,
12,
13,
13,
11,
0,
0,
0,
1,
1,
1,
1,
4,
4,
4,
4,
8,
8,
15,
15,
9,
9,
5,
5,
9,
9,
2,
2,
3,
3,
-1,
-1,
-1,
-1,
5,
5,
7,
7,
6,
6,
1,
1,
1,
1,
0,
0,
3,
3,
8,
8,
11,
11,
7,
7,
5,
5,
2,
2,
4,
4,
7,
7,
5,
5,
6,
6,
6,
6,
3,
3,
2,
2,
2,
2,
2,
2,
0,
0,
2,
2,
6,
6,
5,
5,
1,
1,
3,
3,
9,
9,
6,
6,
6,
6,
9,
9,
6,
6,
1,
1,
0,
0,
5,
5,
3,
3,
1,
1,
9,
9,
6,
6,
0,
0,
4,
4,
10,
10,
12,
12,
6,
6,
1,
1,
10,
10,
2,
18,
17,
17,
10,
10,
3,
3,
9,
9,
6,
6,
7,
7,
8,
8,
9,
9,
2,
2,
0,
0,
0,
0,
1,
1,
2,
2,
6,
6,
1,
1,
5,
5,
4,
4,
-1,
-1,
0,
0,
0,
0,
1,
1,
6,
6,
11,
11,
18,
18,
15,
2,
3,
3,
12,
12,
6,
30,
29,
8,
8,
8,
14,
14,
18,
18,
16,
16,
15,
15,
14,
14,
8,
8,
2,
2,
3,
3,
2,
2,
3,
3,
3,
3,
0,
0,
8,
8,
14,
14,
14,
14,
13,
13,
8,
8,
2,
2,
2,
2,
1,
1,
-1,
-1,
1,
1,
5,
5,
7,
7,
4,
4,
2,
2,
4,
4,
0,
0,
4,
4,
6,
6,
6,
6,
6,
6,
2,
2,
-1,
-1,
0,
0,
1,
1,
0,
0,
1,
19,
18,
18,
21,
21,
15,
1,
2,
2,
5,
5,
3,
3,
0,
0,
5,
5,
7,
7,
1,
1,
0,
0,
2,
2,
4,
4,
12,
12,
10,
10,
3,
3,
6,
6,
7,
7,
13,
13,
11,
11,
4,
4,
9,
9,
12,
1,
10,
28,
27,
15,
16,
2,
6,
6,
13,
13,
11,
11,
2,
2,
6,
6,
9,
9,
9,
9,
12,
12,
10,
10,
6,
6,
14,
28,
28,
28,
20,
20,
13,
13,
12,
0,
1,
1,
9,
9,
11,
11,
8,
8,
1,
1,
10,
10,
5,
5,
9,
22,
21,
10,
11,
11,
20,
20,
26,
9,
10,
10,
1,
1,
6,
6,
6,
6,
1,
1,
2,
2,
0,
0,
8,
8,
9,
9,
5,
5,
12,
12,
13,
13,
6,
6,
1,
1,
-1,
-1,
2,
2,
2,
2,
2,
2,
6,
6,
13,
13,
14,
14,
12,
12,
6,
6,
5,
5,
11,
11,
9,
9,
6,
6,
4,
4,
5,
5,
5,
5,
3,
3,
1,
1,
3,
3,
7,
7,
10,
10,
6,
19,
18,
18,
23,
10,
10,
10,
2,
2,
9,
9,
14,
14,
15,
15,
16,
16,
14,
14,
8,
8,
2,
2,
1,
1,
4,
4,
5,
5,
2,
2,
4,
4,
4,
4,
1,
1,
2,
15,
14,
14,
10,
10,
3,
3,
0,
0,
-1,
-1,
5,
5,
7,
7,
1,
1,
4,
4,
4,
4,
2,
2,
2,
2,
6,
6,
5,
5,
6,
6,
5,
5,
3,
3,
2,
2,
-1,
-1,
1,
1,
0,
0,
2,
2,
3,
3,
6,
6,
8,
8,
6,
6,
1,
1,
2,
2,
2,
18,
17,
17,
14,
2,
4,
4,
0,
0,
1,
1,
0,
0,
7,
18,
18,
18,
21,
21,
14,
14,
6,
6,
0,
0,
0,
0,
3,
3,
2,
2,
10,
10,
10,
10,
14,
14,
13,
13,
18,
2,
3,
3,
5,
5,
3,
3,
2,
2,
8,
8,
8,
8,
5,
5,
7,
7,
6,
6,
2,
2,
2,
2,
1,
1,
-1,
-1,
3,
3,
7,
7,
9,
9,
5,
5,
0,
0,
1,
1,
1,
1,
4,
4,
10,
10,
2,
17,
17,
17,
22,
10,
11,
11,
3,
3,
-1,
-1,
2,
2,
6,
6,
9,
9,
9,
9,
12,
12,
14,
14,
13,
1,
2,
2,
4,
4,
7,
7,
14,
14,
13,
13,
14,
14,
6,
6,
-1,
-1,
6,
6,
5,
5,
1,
1,
4,
4,
2,
2,
3,
3,
4,
4,
1,
1,
2,
14,
13,
13,
21,
21,
14,
1,
1,
1,
6,
6,
8,
8,
10,
10,
9,
9,
1,
1,
4,
4,
0,
0,
3,
3,
1,
1,
6,
6,
3,
3,
2,
2,
-1,
-1,
0,
0,
1,
1,
0,
0,
4,
4,
4,
4,
2,
2,
7,
7,
6,
6,
6,
6,
14,
14,
5,
5,
-1,
-1,
0,
0,
1,
14,
13,
30,
30,
30,
21,
1,
2,
13,
13,
13,
20,
20,
19,
19,
14,
14,
6,
6,
2,
2,
12,
12,
15,
15,
9,
9,
0,
0,
5,
5,
9,
9,
16,
16,
10,
10,
13,
42,
41,
41,
33,
8,
9,
9,
7,
7,
12,
12,
12,
12,
2,
2,
2,
2,
3,
3,
12,
12,
13,
13,
10,
10,
6,
6,
0,
0,
0,
0,
0,
0,
4,
4,
5,
5,
6,
6,
12,
12,
15,
15,
16,
16,
12,
1,
2,
2,
2,
2,
-1,
-1,
5,
5,
9,
9,
10,
10,
8,
8,
7,
7,
6,
6,
4,
4,
1,
1,
1,
1,
5,
5,
7,
7,
8,
8,
8,
8,
2,
2,
1,
1,
1,
1,
-1,
-1,
-1,
-1,
1,
1,
3,
3,
2,
2,
5,
5,
5,
5,
1,
1,
2,
2,
3,
19,
18,
18,
11,
11,
2,
2,
5,
5,
7,
7,
8,
8,
7,
7,
7,
7,
10,
10,
10,
10,
5,
5,
8,
8,
10,
10,
5,
5,
4,
4,
1,
1,
-1,
-1,
1,
1,
2,
17,
16,
16,
17,
5,
5,
5,
1,
1,
3,
3,
8,
8,
13,
13,
6,
6,
1,
1,
4,
4,
0,
0,
3,
3,
1,
12,
11,
11,
11,
11,
4,
4,
2,
2,
-1,
-1,
6,
6,
5,
5,
8,
8,
9,
9,
1,
1,
6,
6,
8,
8,
6,
6,
6,
6,
12,
12,
16,
16,
15,
15,
7,
7,
1,
1,
1,
1,
5,
5,
3,
3,
-1,
-1,
3,
3,
9,
9,
9,
9,
5,
5,
0,
0,
-1,
-1,
-1,
-1,
-2,
-2,
0,
0,
2,
2,
2,
2,
6,
6,
6,
6,
6,
6,
2,
2,
-1,
-1,
2,
2,
5,
5,
5,
5,
2,
2,
0,
0,
6,
6,
8,
8,
8,
24,
23,
3,
4,
4,
10,
-1,
0,
0,
2,
2,
2,
2,
11,
11,
12,
12,
12,
12,
14,
2,
6,
23,
22,
22,
14,
1,
2,
2,
3,
3,
0,
0,
3,
3,
9,
9,
4,
4,
7,
7,
10,
10,
10,
10,
20,
20,
25,
9,
10,
10,
3,
3,
9,
9,
9,
9,
11,
26,
26,
26,
28,
28,
23,
23,
17,
6,
8,
8,
2,
2,
4,
4,
3,
3,
4,
4,
4,
4,
6,
6,
5,
5,
19,
19,
18,
30,
29,
29,
21,
2,
5,
5,
13,
13,
8,
8,
10,
10,
10,
10,
7,
7,
6,
6,
1,
1,
1,
1,
-1,
-1,
3,
3,
2,
2,
6,
6,
10,
10,
2,
2,
11,
11,
15,
15,
6,
6,
12,
12,
15,
15,
22,
22,
14,
1,
3,
3,
12,
12,
12,
12,
8,
8,
2,
2,
4,
4,
9,
9,
6,
6,
1,
1,
-1,
-1,
4,
4,
2,
2,
2,
2,
4,
4,
3,
3,
5,
5,
4,
4,
11,
11,
5,
5,
1,
1,
4,
4,
3,
3,
0,
0,
6,
6,
8,
8,
7,
7,
2,
2,
2,
2,
10,
10,
13,
13,
9,
9,
8,
8,
11,
11,
9,
9,
4,
4,
4,
4,
6,
6,
4,
4,
0,
0,
6,
6,
6,
17,
16,
36,
36,
36,
28,
7,
8,
8,
6,
6,
16,
16,
21,
21,
18,
18,
13,
13,
7,
7,
3,
3,
0,
0,
1,
1,
3,
3,
1,
1,
2,
2,
4,
4,
6,
6,
9,
9,
3,
3,
0,
0,
-1,
-1,
0,
0,
0,
0,
1,
1,
0,
0,
0,
0,
6,
6,
8,
8,
6,
6,
10,
10,
18,
6,
6,
6,
7,
7,
13,
13,
14,
14,
12,
12,
11,
11,
17,
17,
21,
21,
20,
6,
6,
6,
10,
38,
37,
37,
45,
33,
34,
10,
10,
10,
1,
1,
8,
19,
17,
17,
20,
20,
23,
12,
13,
0,
1,
1,
6,
6,
12,
12,
9,
9,
2,
2,
2,
2,
1,
1,
6,
6,
3,
3,
2,
2,
1,
1,
4,
4,
8,
8,
1,
1,
5,
5,
9,
9,
18,
18,
12,
1,
2,
14,
13,
24,
23,
23,
26,
26,
21,
2,
6,
6,
14,
1,
3,
3,
2,
30,
30,
44,
42,
21,
22,
1,
2,
2,
10,
10,
12,
12,
10,
10,
10,
10,
11,
11,
11,
11,
12,
12,
7,
7,
3,
3,
2,
2,
1,
1,
6,
6,
8,
8,
9,
9,
3,
3,
2,
2,
5,
5,
8,
20,
19,
19,
12,
-1,
0,
0,
3,
3,
6,
6,
3,
3,
1,
1,
-1,
-1,
1,
1,
9,
9,
11,
11,
5,
5,
12,
12,
11,
0,
1,
1,
5,
5,
6,
6,
6,
6,
5,
5,
0,
0,
2,
2,
4,
4,
1,
1,
-1,
-1,
5,
5,
6,
6,
6,
6,
9,
9,
5,
5,
6,
29,
29,
29,
23,
10,
12,
12,
9,
9,
2,
2,
8,
24,
23,
23,
23,
23,
17,
17,
12,
12,
6,
6,
1,
1,
1,
1,
2,
2,
4,
4,
3,
3,
2,
2,
1,
1,
5,
5,
14,
14,
8,
8,
0,
0,
0,
0,
0,
0,
1,
1,
1,
1,
1,
1,
7,
7,
1,
1,
6,
6,
6,
6,
2,
2,
2,
2,
5,
5,
7,
7,
12,
12,
4,
4,
7,
7,
12,
12,
10,
10,
6,
6,
1,
1,
4,
4,
4,
4,
1,
13,
12,
12,
11,
11,
7,
7,
14,
14,
10,
10,
3,
3,
1,
1,
9,
9,
2,
2,
3,
3,
2,
2,
1,
1,
5,
5,
2,
2,
8,
8,
0,
0,
4,
4,
4,
16,
15,
15,
8,
8,
5,
5,
13,
13,
17,
17,
16,
16,
12,
12,
8,
8,
1,
1,
6,
6,
10,
10,
9,
9,
6,
6,
8,
8,
6,
6,
2,
2,
1,
1,
1,
1,
1,
1,
0,
0,
1,
1,
2,
2,
3,
3,
0,
0,
2,
2,
0,
0,
1,
1,
2,
2,
0,
22,
21,
21,
29,
3,
4,
4,
10,
10,
11,
11,
16,
16,
17,
17,
8,
8,
8,
8,
8,
8,
10,
10,
3,
3,
10,
24,
23,
23,
26,
26,
18,
18,
13,
13,
6,
6,
2,
2,
10,
10,
16,
16,
18,
5,
6,
6,
9,
9,
10,
10,
2,
2,
10,
10,
10,
10,
6,
6,
2,
2,
2,
2,
6,
6,
9,
9,
10,
10,
6,
6,
0,
0,
1,
1,
5,
5,
6,
6,
1,
1,
-1,
-1,
2,
2,
2,
2,
7,
7,
9,
9,
3,
3,
7,
7,
7,
7,
2,
2,
3,
3,
3,
3,
3,
3,
-1,
-1,
2,
2,
2,
2,
1,
1,
2,
2,
2,
2,
0,
0,
5,
5,
3,
3,
2,
2,
2,
2,
8,
8,
8,
8,
2,
2,
6,
6,
13,
13,
8,
8,
1,
1,
6,
6,
9,
9,
7,
7,
7,
7,
7,
7,
8,
8,
8,
8,
5,
5,
0,
0,
5,
5,
4,
4,
5,
5,
10,
10,
15,
15,
10,
-1,
0,
0,
8,
8,
8,
8,
8,
20,
19,
19,
18,
5,
5,
19,
19,
38,
37,
24,
24,
2,
3,
17,
17,
31,
30,
30,
33,
14,
14,
0,
0,
0,
5,
17,
16,
16,
17,
1,
1,
1,
1,
17,
15,
30,
28,
10,
11,
11,
10,
26,
25,
25,
20,
2,
2,
2,
1,
1,
1,
1,
6,
6,
8,
8,
8,
8,
1,
1,
6,
6,
4,
4,
0,
0,
1,
1,
5,
5,
5,
5,
0,
0,
1,
1,
0,
0,
3,
3,
0,
0,
1,
1,
2,
2,
5,
5,
5,
5,
0,
0,
2,
2,
3,
3,
0,
0,
-1,
-1,
0,
0,
4,
4,
3,
3,
2,
2,
0,
0,
5,
5,
13,
13,
17,
3,
3,
3,
7,
7,
1,
1,
11,
26,
25,
25,
16,
1,
2,
2,
5,
5,
0,
0,
4,
15,
14,
14,
17,
17,
9,
9,
4,
4,
-1,
-1,
1,
1,
2,
2,
2,
2,
2,
2,
0,
0,
2,
2,
4,
4,
6,
6,
10,
10,
7,
7,
-1,
-1,
7,
7,
10,
10,
2,
2,
8,
8,
5,
5,
-1,
-1,
7,
7,
16,
16,
17,
17,
9,
9,
5,
5,
14,
14,
14,
14,
17,
17,
20,
20,
14,
14,
12,
12,
9,
9,
1,
12,
12,
12,
18,
18,
13,
13,
12,
12,
18,
18,
15,
4,
5,
5,
2,
2,
0,
0,
2,
2,
3,
3,
5,
5,
9,
9,
9,
9,
10,
21,
21,
21,
23,
6,
7,
24,
24,
24,
25,
3,
4,
4,
3,
3,
10,
10,
1,
1,
4,
4,
4,
4,
7,
7,
6,
6,
2,
18,
17,
17,
23,
23,
14,
14,
5,
5,
11,
29,
28,
12,
13,
13,
12,
12,
6,
6,
5,
5,
8,
8,
7,
7,
6,
6,
6,
6,
1,
1,
5,
5,
6,
6,
7,
7,
5,
5,
0,
0,
1,
1,
10,
10,
14,
14,
7,
23,
22,
41,
40,
23,
24,
9,
10,
10,
1,
1,
2,
2,
10,
25,
24,
24,
26,
11,
11,
11,
3,
3,
6,
6,
2,
2,
1,
1,
3,
3,
2,
2,
2,
2,
2,
2,
1,
1,
5,
5,
2,
2,
6,
6,
2,
2,
2,
2,
6,
6,
5,
5,
8,
8,
8,
8,
2,
2,
6,
6,
1,
1,
1,
1,
2,
2,
1,
1,
5,
28,
28,
28,
32,
8,
8,
8,
9,
9,
15,
15,
16,
16,
15,
15,
13,
13,
10,
10,
5,
5,
4,
4,
1,
1,
4,
4,
4,
4,
2,
2,
3,
3,
