EMG_S3/DS0039.CSV

Memory Length,4000,
Trigger Level,-4.80000e+02,
Source,CH1,
Probe,1.0X,
Vertical Units,V,
Vertical Scale,1.00000e+00,
Vertical Position,0.00000e+00,
Horizontal Units,S,
Horizontal Scale,1.00000e-01,
Horizontal Position,0.0000000e+00,
Horizontal Mode,Roll Mode,
Waveform Last Dot Address,4000,
Sampling Period,4.00000e-04,
Firmware,V1.14,
Time, ,
Mode,Fast,
Waveform Data,
5,
5,
14,
14,
9,
9,
3,
3,
4,
4,
8,
8,
11,
11,
10,
10,
8,
8,
3,
3,
4,
4,
10,
10,
9,
9,
2,
2,
1,
1,
3,
3,
5,
5,
1,
1,
-1,
-1,
1,
1,
2,
2,
1,
1,
7,
7,
4,
4,
6,
6,
3,
3,
4,
4,
7,
7,
14,
14,
21,
9,
10,
10,
13,
1,
1,
12,
12,
12,
16,
16,
18,
18,
26,
26,
19,
4,
14,
26,
25,
25,
17,
17,
18,
18,
10,
10,
5,
5,
9,
9,
14,
14,
14,
2,
10,
24,
21,
3,
7,
7,
8,
8,
14,
3,
3,
3,
6,
6,
2,
2,
5,
5,
12,
12,
6,
6,
0,
0,
0,
0,
10,
10,
10,
10,
5,
5,
1,
1,
1,
1,
5,
5,
6,
6,
1,
14,
14,
14,
17,
2,
4,
32,
32,
32,
34,
10,
11,
11,
5,
5,
14,
14,
21,
21,
19,
19,
13,
13,
13,
13,
17,
17,
9,
9,
10,
28,
28,
28,
30,
18,
18,
6,
6,
6,
0,
0,
2,
2,
4,
4,
3,
14,
14,
14,
16,
16,
19,
8,
8,
8,
12,
12,
5,
5,
7,
7,
9,
9,
6,
42,
41,
41,
44,
11,
11,
11,
11,
11,
17,
17,
12,
12,
14,
14,
24,
24,
26,
10,
10,
10,
3,
3,
7,
7,
6,
6,
6,
6,
9,
9,
17,
17,
14,
14,
6,
6,
1,
1,
6,
6,
2,
2,
4,
4,
7,
7,
3,
3,
5,
5,
9,
9,
7,
7,
1,
1,
6,
6,
11,
11,
9,
9,
12,
12,
13,
13,
5,
5,
0,
0,
8,
8,
16,
16,
12,
12,
8,
8,
3,
3,
2,
2,
6,
6,
12,
12,
5,
5,
5,
5,
6,
6,
6,
6,
8,
8,
7,
7,
4,
4,
9,
9,
14,
14,
9,
9,
13,
26,
25,
12,
13,
0,
2,
2,
12,
23,
21,
4,
4,
24,
23,
23,
17,
4,
10,
10,
8,
8,
13,
33,
32,
14,
15,
0,
0,
0,
3,
3,
1,
1,
9,
9,
3,
3,
8,
8,
17,
17,
18,
18,
17,
17,
14,
14,
6,
6,
2,
2,
3,
14,
14,
14,
21,
5,
6,
41,
41,
41,
37,
18,
18,
18,
12,
12,
10,
10,
13,
13,
12,
12,
2,
2,
10,
21,
21,
21,
14,
1,
2,
2,
3,
3,
4,
16,
15,
15,
12,
1,
4,
4,
5,
5,
6,
6,
12,
12,
8,
8,
7,
7,
8,
8,
3,
3,
8,
8,
5,
5,
6,
6,
6,
17,
16,
16,
18,
5,
6,
6,
0,
0,
0,
0,
1,
1,
2,
2,
1,
1,
2,
2,
8,
8,
2,
2,
2,
2,
10,
10,
10,
10,
3,
21,
20,
20,
16,
1,
1,
1,
9,
9,
15,
15,
10,
10,
9,
9,
7,
7,
9,
9,
8,
45,
45,
45,
46,
20,
21,
5,
6,
6,
1,
1,
5,
5,
10,
10,
13,
13,
11,
11,
12,
12,
9,
9,
6,
6,
5,
5,
3,
3,
1,
1,
9,
9,
11,
11,
4,
4,
5,
5,
2,
15,
14,
14,
8,
8,
0,
0,
2,
2,
7,
7,
13,
13,
13,
13,
9,
9,
1,
24,
24,
44,
44,
44,
38,
38,
29,
14,
14,
1,
2,
2,
11,
32,
31,
31,
40,
40,
37,
25,
26,
14,
14,
14,
6,
6,
5,
5,
2,
2,
6,
6,
6,
25,
25,
25,
19,
57,
57,
57,
65,
52,
53,
9,
9,
9,
13,
13,
20,
20,
18,
18,
15,
15,
21,
21,
16,
4,
5,
5,
2,
14,
14,
14,
15,
1,
2,
2,
5,
18,
18,
18,
26,
26,
23,
9,
9,
9,
4,
4,
12,
12,
18,
18,
21,
21,
15,
15,
10,
10,
8,
8,
3,
3,
1,
1,
2,
2,
0,
0,
8,
8,
6,
6,
2,
2,
2,
2,
2,
2,
3,
3,
4,
20,
19,
7,
8,
8,
4,
17,
16,
16,
15,
15,
7,
7,
10,
10,
17,
17,
13,
13,
12,
12,
18,
18,
19,
19,
10,
10,
10,
10,
5,
33,
33,
33,
37,
4,
5,
5,
1,
17,
16,
28,
26,
2,
3,
3,
11,
11,
18,
18,
28,
28,
29,
15,
16,
16,
9,
9,
5,
5,
0,
0,
0,
0,
6,
6,
9,
9,
10,
10,
10,
10,
12,
12,
9,
9,
5,
16,
15,
15,
24,
5,
5,
5,
8,
8,
2,
2,
10,
10,
9,
9,
3,
14,
14,
14,
19,
19,
21,
21,
24,
8,
9,
9,
15,
15,
18,
5,
6,
6,
5,
5,
12,
12,
12,
1,
4,
16,
16,
16,
17,
17,
14,
2,
2,
2,
2,
2,
1,
1,
6,
6,
10,
10,
4,
4,
0,
0,
2,
2,
2,
2,
0,
0,
0,
0,
1,
1,
4,
4,
9,
9,
1,
1,
1,
19,
18,
18,
8,
8,
6,
6,
9,
9,
12,
12,
6,
6,
15,
15,
21,
21,
12,
1,
4,
4,
10,
10,
2,
2,
7,
7,
15,
15,
8,
8,
4,
4,
4,
4,
6,
6,
7,
7,
3,
3,
12,
12,
14,
14,
18,
18,
13,
1,
2,
2,
12,
12,
13,
13,
10,
10,
10,
10,
7,
7,
14,
14,
17,
17,
8,
8,
4,
4,
12,
12,
13,
1,
7,
26,
25,
14,
14,
2,
10,
10,
18,
4,
4,
4,
-1,
-1,
4,
4,
10,
10,
6,
6,
2,
2,
5,
5,
8,
8,
2,
2,
10,
10,
3,
3,
8,
8,
10,
10,
9,
33,
32,
32,
25,
10,
11,
11,
14,
14,
10,
10,
1,
12,
11,
11,
19,
19,
11,
11,
4,
4,
3,
3,
2,
2,
10,
10,
16,
16,
12,
12,
6,
6,
8,
8,
5,
5,
2,
2,
12,
12,
19,
19,
17,
17,
12,
1,
2,
2,
2,
2,
2,
2,
5,
5,
3,
3,
1,
1,
5,
5,
10,
26,
25,
12,
12,
0,
1,
1,
9,
9,
8,
8,
11,
11,
6,
6,
3,
3,
13,
13,
20,
1,
2,
2,
1,
1,
0,
15,
14,
32,
31,
31,
27,
27,
19,
19,
17,
17,
10,
10,
2,
2,
10,
10,
3,
3,
2,
35,
34,
61,
60,
42,
42,
16,
16,
4,
4,
4,
-1,
-1,
6,
6,
15,
15,
18,
18,
14,
14,
13,
13,
9,
9,
9,
9,
10,
10,
8,
8,
2,
2,
2,
2,
5,
5,
1,
1,
9,
24,
23,
23,
14,
0,
2,
2,
7,
7,
4,
4,
7,
7,
10,
10,
13,
13,
9,
9,
4,
4,
5,
17,
16,
16,
19,
19,
17,
17,
22,
9,
10,
10,
6,
19,
18,
34,
33,
33,
30,
9,
9,
9,
2,
2,
4,
4,
11,
11,
16,
16,
14,
14,
14,
14,
17,
17,
16,
1,
3,
3,
12,
12,
20,
20,
29,
29,
36,
36,
38,
26,
26,
6,
6,
17,
16,
32,
32,
32,
30,
30,
22,
22,
21,
21,
18,
18,
13,
13,
9,
9,
2,
2,
3,
3,
0,
15,
14,
35,
34,
34,
38,
22,
23,
5,
5,
5,
8,
8,
13,
2,
2,
2,
8,
8,
7,
7,
2,
2,
6,
6,
9,
9,
1,
1,
4,
4,
10,
10,
15,
15,
24,
24,
21,
2,
4,
31,
31,
31,
29,
29,
26,
4,
4,
17,
17,
17,
22,
22,
21,
21,
16,
16,
9,
9,
0,
0,
7,
7,
6,
6,
5,
5,
5,
5,
12,
12,
18,
18,
9,
9,
3,
3,
5,
5,
1,
1,
6,
6,
14,
14,
16,
3,
13,
30,
29,
17,
17,
4,
4,
4,
2,
13,
12,
12,
18,
18,
19,
19,
20,
3,
3,
3,
6,
6,
2,
2,
-1,
-1,
5,
17,
16,
16,
14,
1,
1,
1,
5,
16,
15,
15,
20,
20,
12,
48,
48,
66,
65,
40,
40,
6,
11,
32,
31,
31,
37,
37,
33,
33,
29,
29,
25,
25,
21,
21,
17,
17,
17,
5,
5,
41,
41,
59,
58,
42,
42,
20,
21,
1,
1,
1,
10,
10,
8,
8,
10,
10,
13,
13,
13,
1,
2,
2,
11,
11,
4,
4,
6,
6,
2,
2,
5,
5,
6,
6,
6,
6,
9,
9,
1,
1,
6,
6,
7,
7,
1,
1,
2,
2,
3,
14,
14,
14,
7,
7,
1,
1,
6,
6,
5,
5,
0,
0,
9,
9,
16,
16,
14,
34,
33,
50,
47,
35,
36,
21,
22,
1,
2,
2,
5,
5,
6,
6,
9,
20,
20,
20,
24,
24,
23,
23,
18,
6,
7,
7,
4,
4,
10,
10,
10,
10,
6,
6,
2,
2,
2,
2,
3,
3,
-1,
-1,
5,
5,
5,
5,
1,
1,
3,
3,
2,
2,
4,
4,
10,
10,
5,
5,
2,
2,
0,
16,
16,
16,
23,
2,
2,
13,
13,
13,
20,
20,
22,
22,
28,
28,
31,
18,
18,
5,
24,
36,
30,
12,
13,
13,
10,
10,
12,
12,
10,
10,
3,
17,
17,
17,
20,
20,
11,
11,
6,
6,
0,
0,
1,
1,
0,
0,
1,
1,
4,
4,
1,
1,
5,
38,
38,
64,
63,
63,
58,
16,
17,
5,
14,
28,
28,
28,
37,
37,
42,
42,
36,
21,
22,
22,
20,
20,
11,
11,
2,
2,
2,
2,
5,
5,
10,
10,
18,
18,
12,
1,
7,
7,
15,
4,
18,
61,
60,
40,
41,
5,
7,
22,
22,
9,
9,
9,
2,
14,
13,
13,
13,
13,
17,
17,
16,
16,
11,
11,
15,
30,
29,
12,
12,
30,
30,
48,
47,
47,
41,
41,
32,
32,
24,
24,
18,
18,
9,
9,
2,
2,
6,
17,
16,
16,
23,
23,
23,
23,
16,
16,
13,
25,
24,
24,
29,
14,
14,
14,
5,
17,
17,
2,
3,
19,
19,
19,
22,
22,
12,
12,
8,
8,
14,
14,
12,
1,
6,
6,
13,
13,
5,
5,
10,
10,
15,
15,
9,
9,
5,
5,
9,
9,
0,
0,
3,
3,
8,
8,
0,
0,
5,
5,
7,
7,
7,
7,
2,
2,
10,
10,
2,
2,
6,
17,
15,
1,
2,
2,
3,
3,
9,
28,
26,
3,
4,
16,
15,
3,
4,
40,
40,
51,
34,
9,
21,
33,
30,
5,
8,
25,
23,
3,
5,
20,
19,
30,
29,
29,
24,
7,
7,
7,
2,
2,
6,
6,
5,
5,
7,
7,
12,
12,
3,
3,
3,
3,
11,
11,
12,
1,
2,
21,
20,
56,
56,
56,
46,
16,
17,
1,
4,
4,
9,
9,
15,
27,
26,
26,
35,
18,
18,
3,
11,
30,
30,
30,
24,
6,
7,
7,
2,
13,
13,
13,
22,
22,
18,
18,
12,
12,
10,
10,
3,
3,
10,
38,
38,
27,
27,
2,
4,
4,
6,
6,
3,
3,
7,
7,
6,
6,
1,
13,
13,
13,
18,
18,
9,
9,
0,
0,
-1,
-1,
2,
2,
2,
2,
5,
5,
9,
21,
20,
8,
9,
9,
5,
5,
11,
11,
4,
4,
2,
2,
6,
6,
6,
6,
6,
6,
1,
1,
8,
8,
15,
15,
15,
15,
8,
8,
0,
0,
2,
2,
1,
1,
2,
14,
14,
14,
13,
13,
6,
6,
2,
2,
1,
1,
3,
3,
4,
16,
15,
15,
9,
9,
1,
1,
2,
2,
5,
5,
7,
7,
4,
4,
0,
0,
4,
4,
2,
2,
8,
8,
10,
10,
3,
3,
6,
6,
14,
1,
2,
2,
2,
2,
1,
1,
3,
3,
5,
5,
3,
19,
18,
18,
20,
5,
6,
6,
5,
5,
4,
4,
0,
0,
1,
1,
6,
6,
9,
9,
7,
7,
2,
2,
4,
4,
8,
8,
4,
4,
4,
4,
6,
6,
3,
3,
2,
2,
0,
0,
1,
1,
6,
6,
15,
15,
11,
11,
2,
2,
3,
3,
4,
4,
13,
2,
2,
2,
2,
2,
3,
3,
4,
4,
1,
22,
22,
22,
17,
4,
5,
5,
1,
1,
2,
13,
12,
12,
8,
8,
2,
2,
5,
5,
10,
10,
17,
17,
18,
18,
22,
9,
9,
34,
33,
64,
63,
63,
66,
37,
37,
26,
27,
5,
5,
34,
33,
33,
42,
42,
38,
38,
39,
39,
38,
38,
33,
33,
25,
25,
20,
1,
1,
1,
10,
10,
18,
18,
18,
18,
18,
18,
13,
13,
19,
36,
35,
35,
26,
26,
17,
1,
2,
2,
4,
4,
3,
3,
3,
3,
9,
9,
12,
12,
5,
5,
11,
24,
23,
23,
24,
13,
13,
13,
8,
8,
10,
10,
13,
13,
18,
2,
3,
3,
12,
12,
9,
20,
19,
19,
12,
1,
2,
2,
3,
3,
10,
10,
8,
8,
5,
5,
5,
5,
1,
1,
9,
9,
15,
15,
10,
10,
8,
8,
7,
18,
17,
34,
33,
15,
16,
0,
1,
1,
8,
8,
10,
10,
18,
18,
23,
12,
13,
1,
4,
26,
26,
26,
18,
1,
1,
1,
2,
2,
2,
2,
0,
0,
4,
4,
13,
13,
11,
11,
6,
20,
19,
19,
17,
17,
15,
15,
8,
8,
5,
5,
3,
3,
10,
10,
6,
6,
14,
14,
10,
10,
9,
9,
6,
6,
8,
8,
17,
17,
23,
6,
6,
35,
34,
34,
27,
12,
12,
12,
8,
8,
4,
4,
0,
0,
6,
6,
10,
10,
8,
8,
1,
1,
2,
13,
12,
25,
24,
10,
11,
11,
6,
6,
11,
11,
6,
6,
2,
2,
8,
8,
7,
7,
15,
15,
10,
10,
6,
6,
3,
28,
26,
26,
33,
15,
17,
4,
20,
35,
32,
15,
15,
3,
4,
4,
5,
5,
13,
13,
13,
1,
6,
6,
10,
10,
1,
1,
4,
4,
5,
5,
0,
0,
18,
18,
18,
18,
22,
5,
12,
58,
57,
34,
34,
3,
4,
4,
10,
10,
5,
16,
15,
15,
24,
6,
17,
58,
58,
22,
22,
6,
16,
16,
24,
24,
20,
9,
9,
9,
1,
1,
1,
1,
6,
6,
6,
6,
14,
14,
16,
3,
4,
29,
28,
28,
33,
18,
18,
5,
6,
6,
1,
1,
4,
4,
9,
9,
12,
12,
10,
10,
6,
6,
5,
5,
4,
4,
1,
1,
7,
7,
7,
7,
4,
4,
5,
5,
5,
5,
4,
4,
7,
7,
4,
4,
0,
0,
2,
2,
6,
6,
2,
2,
3,
3,
4,
4,
6,
6,
5,
16,
16,
16,
13,
1,
2,
2,
10,
10,
6,
6,
16,
16,
17,
29,
29,
5,
6,
50,
50,
62,
56,
8,
9,
30,
29,
29,
33,
17,
17,
17,
20,
20,
13,
2,
7,
7,
6,
6,
4,
22,
22,
48,
47,
22,
22,
1,
2,
2,
6,
6,
14,
26,
26,
26,
28,
3,
5,
5,
5,
22,
22,
22,
14,
29,
29,
47,
46,
24,
25,
4,
5,
5,
1,
16,
16,
16,
13,
13,
16,
16,
14,
1,
1,
1,
1,
1,
9,
9,
4,
26,
25,
52,
52,
40,
41,
12,
12,
24,
24,
44,
44,
31,
32,
32,
35,
18,
19,
5,
12,
12,
14,
14,
14,
14,
21,
21,
22,
22,
18,
18,
14,
14,
10,
10,
3,
3,
7,
7,
17,
50,
50,
37,
37,
10,
11,
11,
6,
6,
12,
12,
5,
5,
7,
7,
9,
9,
17,
17,
20,
3,
9,
21,
20,
20,
16,
16,
12,
12,
13,
2,
7,
7,
2,
18,
16,
16,
10,
56,
56,
56,
48,
5,
5,
22,
22,
22,
31,
31,
32,
32,
31,
31,
27,
5,
9,
29,
29,
13,
14,
0,
1,
1,
10,
10,
16,
16,
14,
14,
8,
8,
1,
12,
12,
28,
28,
28,
34,
10,
31,
64,
63,
40,
41,
6,
12,
25,
20,
5,
14,
14,
9,
9,
9,
21,
20,
20,
27,
27,
30,
30,
28,
28,
20,
6,
6,
6,
3,
3,
7,
7,
11,
11,
2,
2,
1,
1,
-1,
11,
10,
21,
21,
21,
18,
6,
6,
6,
1,
1,
1,
12,
12,
25,
24,
24,
19,
2,
6,
24,
23,
4,
5,
5,
6,
18,
18,
35,
35,
35,
35,
5,
5,
20,
20,
34,
33,
13,
14,
14,
12,
25,
24,
12,
12,
12,
7,
19,
19,
19,
23,
23,
30,
5,
8,
8,
5,
5,
9,
9,
12,
12,
7,
7,
0,
0,
4,
4,
2,
2,
5,
5,
7,
7,
7,
7,
0,
0,
3,
3,
7,
7,
16,
30,
29,
29,
33,
9,
9,
9,
5,
5,
14,
14,
15,
15,
8,
8,
7,
7,
5,
5,
5,
5,
12,
12,
17,
17,
17,
17,
8,
8,
1,
22,
22,
38,
37,
24,
25,
4,
9,
9,
3,
16,
15,
2,
2,
19,
18,
18,
23,
23,
20,
6,
7,
26,
25,
25,
20,
4,
6,
20,
20,
20,
20,
3,
8,
19,
18,
18,
18,
18,
12,
12,
18,
18,
17,
1,
2,
2,
5,
5,
10,
10,
3,
3,
2,
23,
22,
22,
23,
9,
9,
9,
6,
28,
28,
10,
17,
34,
32,
18,
18,
6,
6,
6,
1,
1,
5,
5,
10,
10,
2,
15,
2,
2,
0,
0,
1,
1,
4,
4,
0,
0,
2,
2,
-1,
-1,
0,
0,
3,
3,
6,
6,
7,
7,
6,
6,
3,
3,
10,
10,
9,
9,
6,
6,
2,
2,
6,
6,
5,
5,
2,
2,
0,
0,
-1,
-1,
1,
1,
1,
1,
5,
5,
11,
11,
10,
10,
4,
4,
1,
1,
1,
1,
0,
0,
2,
2,
1,
18,
17,
17,
18,
2,
4,
4,
10,
10,
4,
4,
1,
1,
1,
1,
9,
9,
14,
2,
2,
14,
14,
1,
2,
22,
22,
22,
14,
41,
40,
64,
63,
50,
51,
9,
9,
9,
7,
18,
18,
36,
35,
35,
38,
5,
5,
5,
10,
10,
9,
9,
2,
2,
1,
1,
4,
4,
5,
5,
0,
0,
0,
0,
0,
0,
2,
2,
6,
6,
10,
10,
9,
9,
5,
5,
0,
0,
3,
3,
2,
2,
0,
0,
0,
0,
6,
6,
5,
5,
6,
6,
4,
4,
6,
6,
12,
1,
2,
2,
1,
14,
14,
14,
11,
11,
8,
20,
19,
19,
18,
18,
15,
15,
15,
15,
5,
5,
2,
2,
1,
19,
18,
18,
18,
18,
10,
10,
4,
4,
2,
2,
9,
9,
6,
6,
1,
1,
0,
0,
5,
5,
2,
2,
11,
11,
3,
3,
-1,
-1,
-1,
-1,
3,
3,
-1,
-1,
1,
1,
2,
15,
15,
15,
10,
10,
1,
1,
4,
4,
5,
5,
9,
9,
10,
10,
8,
8,
6,
6,
6,
6,
1,
1,
11,
11,
16,
16,
14,
14,
14,
14,
10,
10,
2,
2,
3,
3,
10,
10,
9,
9,
8,
8,
2,
2,
1,
1,
3,
3,
2,
2,
2,
2,
-1,
-1,
3,
3,
5,
5,
6,
6,
3,
3,
11,
26,
24,
4,
6,
18,
18,
42,
41,
26,
27,
4,
5,
25,
24,
24,
30,
30,
23,
23,
16,
16,
14,
14,
6,
6,
4,
4,
6,
6,
9,
9,
11,
11,
5,
18,
16,
2,
3,
3,
4,
4,
5,
5,
4,
18,
17,
30,
29,
29,
27,
12,
12,
1,
4,
4,
7,
7,
6,
6,
0,
0,
1,
1,
3,
3,
4,
4,
1,
1,
1,
1,
4,
4,
5,
16,
15,
4,
4,
28,
28,
14,
15,
1,
4,
4,
10,
10,
18,
18,
22,
22,
17,
17,
9,
9,
8,
22,
21,
21,
16,
16,
14,
14,
9,
9,
1,
1,
4,
4,
8,
8,
2,
2,
4,
4,
10,
10,
5,
5,
1,
1,
5,
5,
5,
16,
15,
15,
10,
10,
16,
16,
19,
1,
3,
3,
9,
9,
6,
6,
2,
2,
2,
2,
6,
6,
13,
13,
11,
11,
3,
3,
11,
11,
3,
21,
21,
21,
11,
11,
6,
6,
7,
7,
4,
4,
2,
2,
9,
28,
27,
27,
18,
1,
2,
2,
9,
9,
16,
16,
16,
1,
4,
4,
6,
6,
7,
7,
8,
8,
10,
10,
13,
13,
14,
1,
2,
2,
12,
12,
17,
17,
7,
7,
5,
5,
2,
29,
29,
29,
26,
3,
4,
4,
13,
13,
8,
8,
4,
4,
0,
0,
6,
18,
17,
17,
13,
2,
4,
16,
14,
1,
2,
2,
6,
6,
14,
28,
27,
27,
33,
5,
8,
28,
27,
27,
20,
2,
2,
2,
10,
37,
36,
9,
17,
55,
53,
15,
15,
15,
16,
29,
29,
29,
32,
21,
21,
8,
8,
8,
7,
18,
18,
38,
38,
20,
20,
2,
2,
2,
8,
8,
9,
29,
28,
28,
36,
16,
17,
0,
0,
0,
8,
25,
24,
35,
33,
8,
8,
8,
3,
3,
2,
2,
4,
4,
4,
4,
0,
0,
0,
0,
2,
2,
5,
17,
16,
16,
18,
2,
3,
32,
32,
43,
41,
23,
24,
13,
13,
13,
14,
14,
14,
2,
6,
26,
26,
26,
30,
30,
23,
8,
9,
9,
2,
2,
3,
3,
2,
2,
5,
5,
2,
2,
2,
2,
8,
8,
4,
4,
5,
5,
6,
6,
6,
6,
5,
5,
1,
1,
-1,
-1,
3,
3,
2,
2,
0,
0,
-1,
-1,
0,
0,
2,
2,
4,
4,
2,
2,
6,
6,
6,
6,
0,
14,
14,
14,
17,
6,
6,
6,
4,
4,
4,
4,
12,
12,
15,
15,
17,
17,
11,
11,
4,
4,
4,
4,
0,
0,
6,
6,
16,
30,
26,
6,
6,
6,
1,
1,
1,
1,
-1,
-1,
1,
1,
8,
8,
11,
11,
2,
2,
12,
12,
12,
12,
3,
3,
8,
8,
8,
8,
6,
6,
5,
5,
6,
6,
13,
13,
13,
13,
10,
10,
2,
2,
3,
3,
10,
10,
15,
15,
13,
2,
2,
2,
1,
1,
5,
5,
14,
14,
18,
18,
15,
3,
16,
47,
47,
36,
36,
10,
10,
10,
3,
3,
1,
13,
13,
42,
42,
58,
52,
10,
17,
53,
53,
38,
38,
4,
5,
5,
6,
6,
4,
19,
18,
34,
33,
33,
29,
29,
26,
26,
25,
4,
6,
33,
32,
32,
30,
30,
22,
10,
10,
10,
1,
1,
2,
2,
1,
1,
2,
2,
5,
5,
5,
5,
2,
2,
9,
9,
18,
18,
14,
14,
6,
6,
2,
2,
2,
2,
6,
6,
10,
10,
16,
16,
12,
12,
4,
4,
4,
4,
3,
3,
2,
2,
4,
4,
8,
8,
6,
6,
2,
2,
2,
2,
0,
0,
0,
0,
6,
6,
14,
14,
10,
10,
4,
16,
15,
15,
12,
1,
2,
2,
2,
2,
0,
0,
0,
0,
4,
4,
2,
2,
1,
1,
0,
0,
0,
0,
2,
2,
2,
2,
-1,
-1,
0,
0,
0,
0,
4,
4,
5,
5,
1,
1,
9,
9,
13,
13,
13,
1,
2,
15,
15,
15,
8,
8,
0,
0,
5,
5,
6,
6,
6,
6,
14,
3,
14,
26,
22,
1,
2,
2,
8,
8,
12,
12,
12,
12,
18,
18,
14,
14,
9,
9,
5,
5,
4,
4,
1,
1,
2,
2,
0,
0,
4,
4,
6,
6,
6,
6,
7,
7,
6,
6,
8,
8,
8,
8,
0,
0,
2,
2,
1,
1,
1,
13,
13,
13,
15,
15,
6,
6,
8,
50,
49,
60,
50,
7,
8,
8,
18,
18,
22,
22,
20,
20,
15,
15,
11,
11,
9,
9,
13,
13,
4,
4,
2,
2,
0,
0,
10,
10,
13,
13,
9,
9,
2,
2,
2,
2,
5,
5,
3,
3,
4,
4,
4,
4,
4,
4,
13,
13,
10,
10,
0,
0,
1,
1,
1,
1,
5,
5,
13,
13,
10,
10,
2,
2,
4,
4,
8,
8,
4,
4,
10,
25,
24,
6,
6,
6,
15,
15,
10,
26,
26,
57,
56,
43,
44,
10,
24,
62,
62,
62,
65,
10,
11,
40,
40,
26,
26,
6,
7,
7,
12,
12,
12,
12,
11,
0,
2,
14,
13,
13,
19,
19,
18,
2,
3,
14,
13,
13,
13,
13,
6,
6,
0,
0,
1,
1,
1,
1,
1,
13,
13,
13,
20,
20,
14,
14,
10,
10,
3,
3,
2,
2,
8,
8,
14,
14,
13,
1,
3,
3,
11,
11,
17,
17,
12,
12,
4,
4,
1,
1,
10,
22,
22,
22,
24,
24,
24,
5,
6,
6,
12,
25,
25,
25,
20,
1,
2,
2,
0,
0,
6,
6,
10,
10,
10,
10,
4,
4,
3,
3,
1,
1,
1,
1,
5,
5,
7,
7,
10,
10,
11,
11,
12,
12,
5,
5,
3,
3,
6,
6,
6,
6,
2,
2,
