EMG_S3/DS0055.CSV

Memory Length,4000,
Trigger Level,-4.80000e+02,
Source,CH1,
Probe,1.0X,
Vertical Units,V,
Vertical Scale,1.00000e+00,
Vertical Position,0.00000e+00,
Horizontal Units,S,
Horizontal Scale,1.00000e-01,
Horizontal Position,0.0000000e+00,
Horizontal Mode,Roll Mode,
Waveform Last Dot Address,4000,
Sampling Period,4.00000e-04,
Firmware,V1.14,
Time, ,
Mode,Fast,
Waveform Data,
14,
14,
7,
7,
5,
5,
10,
24,
23,
23,
18,
18,
8,
8,
0,
0,
1,
12,
12,
12,
19,
19,
18,
7,
8,
8,
5,
5,
0,
0,
4,
4,
8,
8,
9,
9,
7,
7,
5,
5,
2,
2,
0,
0,
4,
4,
5,
5,
6,
6,
9,
9,
2,
2,
0,
0,
1,
1,
5,
5,
5,
5,
-1,
-1,
2,
2,
6,
6,
7,
7,
6,
6,
5,
5,
2,
2,
0,
0,
4,
4,
3,
3,
5,
5,
6,
6,
10,
10,
11,
0,
3,
3,
8,
8,
4,
4,
0,
0,
1,
1,
6,
6,
9,
9,
1,
1,
6,
6,
8,
8,
8,
8,
2,
2,
6,
6,
6,
6,
2,
2,
3,
3,
9,
9,
5,
5,
1,
1,
-1,
-1,
1,
1,
1,
1,
6,
6,
5,
5,
6,
6,
2,
2,
1,
1,
4,
4,
0,
0,
4,
4,
8,
8,
6,
6,
2,
2,
3,
3,
0,
0,
1,
1,
3,
3,
9,
9,
5,
5,
1,
1,
4,
4,
2,
2,
1,
1,
9,
9,
6,
6,
9,
9,
16,
16,
14,
14,
7,
7,
2,
2,
1,
1,
1,
1,
2,
2,
5,
5,
4,
4,
1,
1,
0,
0,
2,
2,
0,
0,
5,
5,
0,
0,
5,
5,
4,
4,
4,
4,
2,
2,
1,
1,
2,
2,
6,
6,
5,
5,
4,
4,
5,
5,
2,
2,
1,
14,
14,
14,
14,
14,
10,
10,
12,
1,
2,
2,
4,
4,
7,
7,
9,
9,
4,
4,
2,
2,
1,
1,
2,
2,
0,
0,
1,
1,
0,
0,
4,
4,
6,
6,
1,
1,
-1,
-1,
6,
6,
16,
16,
18,
18,
14,
2,
2,
2,
9,
9,
4,
4,
6,
6,
9,
9,
15,
4,
5,
5,
8,
8,
2,
2,
1,
1,
4,
4,
1,
1,
4,
4,
6,
6,
5,
5,
2,
2,
2,
2,
2,
2,
0,
0,
1,
1,
0,
0,
5,
5,
3,
3,
1,
1,
10,
10,
17,
2,
2,
2,
10,
10,
9,
9,
2,
2,
8,
8,
3,
3,
1,
1,
8,
8,
10,
10,
7,
7,
4,
4,
1,
1,
-1,
-1,
2,
2,
5,
5,
2,
2,
1,
1,
1,
1,
0,
0,
4,
4,
2,
2,
5,
5,
4,
4,
6,
6,
5,
5,
0,
0,
1,
1,
1,
1,
1,
1,
3,
3,
6,
6,
8,
8,
5,
5,
3,
3,
1,
1,
2,
2,
8,
8,
17,
17,
14,
14,
6,
6,
2,
2,
3,
3,
13,
13,
18,
6,
7,
7,
11,
29,
29,
29,
28,
28,
18,
5,
5,
5,
6,
6,
10,
10,
6,
6,
2,
2,
5,
5,
4,
4,
1,
1,
2,
2,
9,
9,
16,
16,
10,
10,
4,
4,
2,
2,
0,
0,
2,
2,
2,
2,
1,
1,
1,
1,
0,
0,
1,
1,
3,
3,
5,
5,
0,
0,
6,
6,
5,
5,
1,
1,
1,
1,
4,
4,
2,
2,
2,
2,
11,
11,
2,
2,
4,
4,
11,
11,
11,
11,
10,
10,
10,
10,
12,
33,
33,
33,
38,
16,
17,
6,
23,
23,
28,
17,
17,
17,
11,
0,
1,
1,
5,
5,
9,
9,
12,
12,
8,
8,
6,
6,
3,
3,
1,
1,
1,
1,
3,
3,
7,
7,
12,
12,
9,
9,
7,
7,
5,
5,
4,
4,
4,
4,
2,
2,
9,
9,
15,
15,
6,
6,
0,
0,
5,
5,
5,
5,
2,
2,
0,
0,
2,
2,
-1,
-1,
0,
0,
4,
4,
5,
5,
4,
4,
1,
1,
3,
3,
2,
2,
3,
3,
0,
0,
1,
16,
15,
15,
14,
0,
2,
2,
9,
9,
13,
13,
14,
14,
23,
11,
11,
0,
2,
2,
11,
11,
16,
16,
20,
20,
13,
13,
7,
7,
2,
2,
6,
6,
1,
1,
5,
5,
1,
15,
14,
14,
16,
16,
12,
12,
9,
9,
7,
7,
1,
1,
9,
9,
8,
8,
3,
3,
-1,
-1,
1,
1,
4,
4,
2,
2,
2,
2,
10,
10,
11,
11,
13,
13,
10,
10,
9,
9,
18,
5,
6,
6,
0,
0,
1,
1,
8,
8,
3,
22,
21,
32,
8,
35,
35,
49,
41,
14,
14,
0,
1,
1,
6,
6,
6,
6,
0,
0,
0,
0,
7,
7,
9,
9,
4,
4,
6,
6,
10,
10,
10,
10,
5,
5,
1,
1,
4,
4,
1,
1,
-1,
-1,
-1,
-1,
2,
2,
10,
10,
13,
13,
13,
13,
13,
13,
8,
8,
1,
1,
6,
6,
5,
5,
6,
6,
8,
8,
5,
5,
2,
2,
10,
10,
7,
7,
2,
2,
6,
6,
5,
5,
0,
0,
1,
1,
3,
3,
3,
3,
1,
1,
0,
0,
3,
3,
-1,
-1,
2,
2,
1,
1,
4,
4,
2,
2,
0,
0,
2,
2,
2,
2,
1,
12,
11,
11,
13,
13,
8,
8,
1,
1,
5,
5,
3,
3,
7,
7,
5,
21,
20,
20,
16,
2,
6,
20,
18,
18,
15,
15,
6,
6,
2,
2,
5,
5,
8,
8,
5,
5,
12,
12,
4,
4,
1,
1,
1,
1,
6,
6,
4,
4,
4,
4,
8,
8,
2,
2,
7,
7,
2,
2,
3,
3,
6,
6,
6,
6,
2,
2,
7,
7,
10,
10,
1,
1,
0,
0,
2,
2,
2,
2,
1,
1,
0,
0,
0,
0,
4,
4,
9,
9,
5,
5,
14,
14,
12,
12,
4,
4,
3,
3,
6,
6,
6,
6,
1,
1,
5,
5,
1,
1,
1,
1,
0,
0,
2,
2,
2,
2,
0,
0,
8,
8,
17,
17,
8,
8,
7,
7,
7,
7,
6,
6,
7,
7,
10,
10,
6,
6,
1,
1,
5,
5,
6,
6,
2,
2,
0,
0,
1,
1,
4,
4,
10,
10,
8,
8,
6,
6,
8,
8,
10,
10,
9,
9,
6,
6,
13,
13,
13,
13,
7,
7,
6,
6,
4,
4,
2,
2,
-1,
-1,
4,
4,
0,
0,
2,
2,
3,
3,
0,
0,
2,
2,
6,
6,
10,
10,
13,
1,
2,
2,
2,
2,
2,
2,
2,
2,
2,
2,
0,
0,
6,
6,
3,
3,
0,
0,
-1,
-1,
5,
5,
6,
6,
5,
5,
3,
3,
2,
2,
4,
4,
3,
3,
10,
10,
9,
9,
0,
0,
0,
0,
2,
2,
1,
1,
4,
4,
4,
4,
2,
2,
3,
3,
1,
1,
2,
2,
4,
4,
2,
2,
2,
2,
6,
6,
5,
5,
6,
6,
7,
7,
6,
6,
4,
4,
11,
11,
9,
9,
2,
2,
0,
0,
2,
2,
5,
5,
2,
2,
8,
8,
6,
6,
1,
1,
-1,
-1,
-1,
-1,
0,
0,
0,
0,
-1,
-1,
2,
2,
2,
2,
6,
6,
6,
6,
4,
4,
6,
6,
12,
12,
13,
13,
13,
13,
11,
11,
5,
5,
1,
1,
6,
20,
20,
20,
17,
17,
11,
11,
6,
6,
5,
5,
2,
15,
14,
14,
15,
15,
6,
6,
14,
14,
13,
13,
5,
5,
12,
26,
26,
26,
25,
5,
6,
6,
11,
11,
16,
16,
9,
9,
1,
1,
5,
5,
9,
9,
1,
1,
-1,
-1,
0,
0,
9,
9,
16,
16,
18,
5,
5,
5,
15,
29,
28,
13,
13,
1,
3,
20,
18,
18,
22,
6,
18,
57,
56,
28,
28,
5,
10,
10,
14,
14,
17,
17,
14,
14,
11,
11,
12,
12,
8,
8,
11,
11,
21,
5,
6,
24,
24,
24,
23,
12,
13,
13,
11,
11,
2,
2,
-1,
-1,
0,
0,
2,
2,
2,
2,
2,
2,
0,
0,
-1,
-1,
1,
1,
0,
0,
0,
0,
2,
2,
4,
4,
4,
4,
1,
1,
6,
6,
3,
3,
12,
12,
6,
6,
2,
2,
4,
4,
3,
3,
2,
13,
12,
12,
11,
11,
3,
3,
0,
0,
-1,
-1,
2,
2,
1,
1,
0,
0,
2,
2,
1,
1,
0,
0,
1,
1,
2,
2,
8,
8,
6,
6,
4,
4,
0,
0,
0,
0,
1,
1,
4,
4,
1,
1,
0,
0,
1,
1,
0,
0,
2,
2,
2,
2,
3,
3,
3,
3,
1,
1,
4,
4,
0,
0,
0,
0,
2,
2,
2,
2,
3,
3,
3,
3,
5,
5,
14,
14,
13,
1,
3,
20,
20,
20,
22,
7,
8,
8,
5,
5,
7,
7,
2,
2,
5,
5,
4,
4,
6,
6,
7,
7,
2,
2,
4,
4,
7,
7,
8,
8,
4,
4,
1,
1,
4,
4,
6,
20,
19,
19,
15,
2,
7,
7,
8,
8,
7,
7,
12,
1,
2,
2,
6,
6,
5,
19,
18,
35,
34,
34,
26,
4,
5,
5,
14,
26,
25,
25,
28,
28,
23,
6,
6,
6,
1,
13,
13,
13,
21,
4,
5,
22,
21,
21,
24,
24,
18,
18,
24,
24,
17,
1,
1,
1,
7,
7,
9,
9,
9,
9,
4,
4,
0,
0,
2,
2,
1,
13,
12,
12,
13,
1,
2,
2,
2,
2,
6,
6,
8,
8,
11,
11,
9,
9,
2,
2,
0,
0,
2,
2,
5,
5,
4,
4,
10,
10,
19,
19,
11,
11,
3,
3,
1,
1,
1,
1,
1,
1,
0,
0,
3,
3,
4,
4,
3,
3,
3,
3,
0,
0,
1,
1,
1,
1,
3,
3,
4,
4,
5,
5,
2,
2,
6,
6,
6,
18,
17,
17,
21,
7,
8,
8,
0,
0,
5,
5,
6,
6,
3,
3,
2,
2,
1,
1,
4,
4,
4,
4,
0,
0,
1,
1,
1,
1,
-1,
-1,
0,
0,
1,
1,
-1,
-1,
5,
5,
2,
2,
7,
7,
8,
8,
2,
14,
14,
14,
14,
14,
8,
8,
6,
6,
4,
4,
5,
20,
19,
19,
18,
2,
2,
2,
-1,
-1,
3,
3,
5,
5,
2,
2,
-1,
-1,
0,
0,
3,
3,
13,
13,
12,
12,
14,
14,
22,
9,
10,
32,
31,
51,
49,
17,
17,
4,
10,
10,
2,
2,
1,
15,
14,
14,
16,
3,
4,
4,
12,
12,
9,
9,
8,
8,
16,
4,
5,
5,
10,
10,
8,
8,
0,
0,
5,
5,
4,
4,
2,
2,
-1,
-1,
5,
5,
9,
9,
12,
12,
10,
10,
2,
14,
14,
14,
10,
10,
5,
5,
5,
5,
14,
14,
13,
13,
6,
6,
3,
3,
9,
9,
4,
4,
5,
5,
6,
6,
0,
0,
4,
4,
1,
1,
6,
6,
7,
7,
2,
2,
3,
3,
3,
3,
-1,
-1,
0,
0,
7,
7,
5,
5,
5,
5,
4,
4,
1,
1,
4,
4,
2,
2,
1,
1,
0,
0,
1,
1,
6,
6,
6,
6,
4,
4,
0,
0,
3,
3,
4,
4,
1,
1,
-1,
-1,
1,
1,
1,
1,
2,
2,
7,
7,
4,
4,
0,
0,
0,
0,
1,
1,
4,
4,
6,
6,
1,
1,
5,
5,
3,
3,
1,
1,
2,
2,
1,
1,
-1,
-1,
1,
1,
3,
3,
4,
4,
1,
1,
1,
1,
0,
0,
0,
0,
0,
0,
6,
6,
6,
6,
2,
2,
10,
10,
13,
13,
11,
11,
11,
11,
4,
4,
5,
5,
8,
8,
8,
8,
6,
6,
9,
9,
9,
9,
2,
15,
14,
14,
17,
3,
4,
4,
7,
7,
7,
7,
8,
8,
8,
8,
16,
1,
2,
2,
7,
7,
5,
5,
7,
7,
9,
9,
10,
10,
1,
1,
3,
3,
0,
0,
0,
29,
29,
42,
39,
6,
7,
22,
21,
21,
30,
18,
18,
5,
20,
20,
20,
3,
3,
3,
4,
4,
4,
4,
1,
1,
4,
4,
8,
8,
6,
6,
6,
6,
2,
2,
4,
4,
6,
6,
6,
6,
1,
1,
2,
14,
13,
13,
8,
8,
6,
6,
7,
7,
9,
9,
5,
5,
1,
1,
10,
10,
12,
12,
10,
10,
2,
2,
5,
5,
3,
3,
6,
6,
6,
6,
1,
1,
2,
2,
4,
4,
2,
2,
5,
5,
7,
7,
1,
1,
0,
0,
-1,
-1,
5,
5,
6,
6,
7,
7,
2,
2,
4,
4,
6,
6,
6,
6,
4,
4,
1,
1,
6,
6,
6,
6,
2,
2,
4,
4,
6,
6,
-1,
-1,
2,
2,
2,
2,
2,
2,
1,
1,
4,
4,
-1,
-1,
2,
2,
2,
2,
1,
1,
2,
2,
2,
2,
5,
5,
11,
11,
5,
5,
4,
4,
5,
5,
2,
2,
6,
6,
11,
11,
5,
5,
1,
1,
0,
0,
4,
4,
4,
4,
0,
0,
1,
1,
1,
1,
1,
1,
1,
1,
5,
5,
10,
10,
7,
7,
0,
0,
0,
0,
-1,
-1,
1,
1,
-1,
-1,
0,
0,
0,
0,
-1,
-1,
4,
4,
2,
2,
1,
1,
5,
5,
7,
7,
1,
17,
16,
16,
11,
11,
16,
16,
15,
28,
28,
44,
41,
10,
10,
10,
10,
10,
14,
14,
18,
18,
14,
14,
10,
10,
2,
2,
1,
1,
0,
0,
2,
2,
3,
3,
5,
5,
6,
6,
1,
15,
14,
14,
17,
17,
15,
15,
13,
13,
18,
18,
11,
11,
6,
6,
3,
3,
6,
6,
14,
14,
18,
18,
17,
17,
13,
13,
9,
9,
4,
4,
-1,
-1,
-1,
-1,
1,
1,
9,
9,
13,
13,
6,
6,
2,
2,
0,
0,
4,
4,
10,
10,
11,
11,
4,
4,
4,
4,
3,
3,
0,
0,
0,
0,
7,
7,
9,
9,
8,
8,
2,
2,
1,
1,
-1,
-1,
0,
0,
0,
0,
0,
0,
2,
2,
2,
2,
-1,
-1,
3,
3,
12,
12,
12,
1,
2,
2,
4,
4,
8,
8,
5,
5,
2,
2,
1,
1,
6,
6,
1,
1,
2,
2,
8,
8,
10,
10,
18,
18,
13,
0,
2,
2,
5,
5,
11,
11,
14,
14,
5,
5,
0,
0,
2,
2,
0,
0,
1,
1,
2,
2,
1,
1,
2,
2,
2,
2,
1,
1,
6,
6,
9,
9,
1,
1,
9,
9,
4,
4,
1,
1,
3,
3,
3,
3,
9,
9,
11,
11,
10,
10,
2,
2,
5,
5,
7,
7,
9,
9,
7,
7,
4,
4,
2,
2,
0,
20,
19,
19,
26,
6,
6,
6,
6,
6,
10,
10,
12,
12,
9,
9,
1,
1,
5,
5,
12,
1,
2,
2,
6,
6,
0,
0,
0,
0,
-2,
-2,
1,
1,
2,
2,
6,
6,
7,
29,
28,
28,
25,
8,
9,
9,
2,
2,
6,
6,
10,
10,
10,
10,
8,
8,
2,
2,
2,
2,
0,
0,
2,
2,
2,
2,
0,
0,
0,
0,
3,
3,
0,
0,
8,
8,
8,
8,
3,
3,
-1,
-1,
1,
1,
7,
7,
4,
4,
1,
1,
5,
5,
5,
5,
1,
1,
1,
1,
3,
3,
6,
6,
3,
17,
16,
16,
9,
9,
3,
3,
0,
0,
1,
1,
1,
1,
4,
4,
7,
7,
1,
1,
2,
2,
6,
6,
6,
6,
3,
3,
0,
0,
0,
0,
0,
0,
6,
6,
6,
6,
3,
3,
5,
5,
7,
7,
4,
4,
0,
0,
5,
5,
8,
8,
1,
1,
8,
8,
7,
7,
2,
2,
6,
6,
0,
15,
14,
14,
14,
2,
2,
2,
3,
3,
9,
9,
10,
10,
13,
13,
16,
16,
10,
-1,
1,
1,
4,
4,
9,
9,
10,
10,
9,
9,
12,
12,
15,
15,
20,
3,
3,
3,
4,
4,
5,
5,
13,
13,
16,
16,
12,
12,
5,
5,
1,
1,
3,
3,
3,
3,
4,
4,
3,
3,
1,
1,
9,
9,
10,
10,
9,
9,
9,
9,
7,
7,
3,
3,
6,
6,
13,
13,
7,
7,
5,
5,
15,
15,
8,
8,
1,
1,
1,
1,
4,
4,
7,
7,
2,
2,
10,
10,
2,
2,
5,
5,
5,
5,
10,
10,
5,
25,
25,
25,
23,
7,
8,
8,
9,
9,
7,
7,
11,
11,
7,
7,
0,
0,
4,
4,
10,
10,
2,
2,
-1,
-1,
3,
3,
4,
18,
17,
17,
20,
8,
9,
9,
1,
1,
4,
4,
5,
5,
1,
1,
0,
0,
5,
5,
10,
10,
10,
10,
10,
10,
10,
10,
16,
4,
4,
4,
2,
2,
5,
5,
14,
14,
7,
7,
8,
8,
12,
12,
11,
11,
14,
1,
3,
3,
6,
6,
2,
2,
10,
10,
12,
12,
2,
2,
-1,
-1,
1,
1,
2,
2,
5,
5,
1,
1,
8,
8,
6,
6,
10,
10,
13,
13,
9,
9,
0,
0,
2,
2,
-1,
-1,
2,
2,
6,
6,
7,
7,
12,
12,
10,
10,
2,
2,
-1,
-1,
5,
5,
7,
7,
8,
8,
5,
5,
2,
2,
-1,
-1,
0,
0,
0,
0,
1,
1,
2,
2,
1,
1,
-1,
-1,
2,
2,
4,
4,
7,
7,
5,
5,
0,
0,
3,
3,
2,
2,
3,
3,
1,
1,
-1,
-1,
2,
2,
6,
6,
5,
5,
2,
2,
2,
2,
0,
15,
15,
15,
18,
18,
12,
12,
6,
6,
4,
4,
8,
8,
6,
6,
5,
5,
1,
1,
6,
6,
2,
2,
4,
4,
6,
6,
10,
10,
11,
11,
4,
4,
4,
4,
6,
6,
4,
4,
0,
0,
1,
13,
13,
13,
20,
3,
4,
4,
3,
3,
5,
5,
8,
8,
8,
8,
8,
8,
16,
16,
14,
14,
9,
9,
1,
1,
8,
8,
14,
14,
15,
15,
8,
8,
2,
2,
6,
6,
12,
12,
9,
9,
5,
5,
12,
12,
19,
8,
9,
9,
2,
2,
4,
4,
9,
9,
4,
4,
5,
5,
13,
13,
13,
13,
6,
6,
3,
3,
9,
21,
21,
21,
22,
22,
15,
15,
6,
6,
1,
1,
0,
0,
0,
0,
2,
2,
3,
3,
3,
3,
4,
4,
9,
9,
7,
7,
2,
2,
1,
1,
3,
3,
5,
5,
1,
1,
2,
2,
5,
5,
2,
15,
14,
14,
9,
9,
2,
2,
5,
5,
5,
5,
5,
5,
5,
5,
5,
5,
2,
2,
-1,
-1,
-1,
-1,
3,
3,
3,
3,
0,
0,
1,
1,
0,
0,
1,
1,
4,
4,
9,
9,
10,
10,
7,
7,
1,
1,
3,
3,
3,
3,
3,
3,
6,
6,
1,
1,
2,
2,
8,
8,
9,
9,
2,
2,
2,
2,
2,
2,
0,
0,
3,
3,
8,
8,
6,
6,
1,
1,
6,
6,
1,
1,
5,
5,
1,
1,
0,
0,
8,
8,
9,
9,
3,
3,
3,
3,
12,
12,
4,
4,
7,
7,
5,
5,
6,
6,
4,
4,
1,
12,
12,
12,
9,
9,
7,
7,
8,
8,
7,
7,
2,
2,
1,
1,
7,
7,
7,
7,
15,
15,
24,
24,
21,
7,
8,
8,
0,
0,
6,
20,
20,
20,
13,
0,
0,
0,
6,
6,
10,
10,
0,
0,
6,
24,
24,
24,
14,
1,
6,
6,
15,
15,
15,
15,
10,
10,
1,
1,
0,
0,
1,
1,
5,
18,
18,
18,
10,
10,
1,
1,
0,
0,
2,
2,
5,
5,
5,
5,
2,
2,
3,
3,
13,
13,
21,
10,
11,
0,
2,
2,
4,
4,
0,
0,
3,
3,
0,
0,
2,
2,
2,
2,
9,
9,
14,
14,
17,
17,
14,
14,
13,
13,
8,
8,
8,
8,
17,
17,
13,
13,
7,
7,
2,
2,
9,
9,
18,
18,
16,
16,
7,
7,
1,
1,
6,
6,
8,
8,
7,
7,
8,
8,
5,
5,
3,
3,
4,
4,
6,
6,
4,
4,
6,
20,
19,
19,
11,
0,
1,
1,
5,
5,
2,
2,
2,
2,
0,
0,
-1,
-1,
1,
1,
4,
4,
0,
0,
2,
2,
0,
0,
0,
0,
3,
3,
3,
3,
3,
3,
1,
1,
2,
2,
0,
0,
0,
0,
6,
6,
3,
3,
2,
2,
5,
5,
6,
6,
2,
2,
3,
3,
8,
8,
3,
3,
2,
2,
2,
2,
8,
8,
5,
5,
0,
0,
1,
1,
-1,
-1,
1,
1,
9,
9,
5,
5,
12,
12,
17,
5,
5,
5,
4,
4,
3,
3,
3,
3,
2,
2,
-1,
-1,
4,
4,
3,
3,
1,
1,
2,
2,
5,
5,
10,
10,
14,
14,
10,
10,
5,
40,
39,
51,
45,
12,
12,
12,
13,
13,
13,
1,
1,
1,
-1,
10,
10,
10,
17,
17,
20,
20,
13,
2,
3,
3,
1,
13,
12,
12,
14,
1,
2,
2,
6,
6,
12,
24,
24,
10,
10,
10,
2,
2,
8,
8,
3,
3,
3,
3,
7,
7,
9,
9,
5,
5,
3,
3,
3,
3,
11,
32,
31,
31,
22,
1,
2,
2,
9,
9,
10,
10,
10,
10,
10,
10,
9,
9,
4,
4,
0,
0,
0,
0,
1,
1,
2,
2,
3,
3,
11,
11,
12,
12,
10,
10,
5,
5,
2,
2,
-1,
-1,
1,
1,
1,
1,
-1,
-1,
3,
3,
5,
5,
6,
6,
1,
1,
2,
2,
2,
2,
0,
0,
0,
0,
-1,
-1,
0,
0,
0,
0,
5,
5,
10,
10,
6,
6,
0,
0,
-1,
-1,
5,
5,
8,
8,
10,
10,
13,
13,
9,
9,
18,
18,
8,
8,
1,
1,
2,
2,
1,
1,
6,
6,
8,
8,
12,
12,
18,
18,
17,
1,
2,
13,
13,
13,
14,
14,
9,
9,
14,
14,
19,
8,
9,
9,
1,
1,
3,
3,
0,
0,
2,
2,
6,
6,
1,
1,
2,
2,
5,
5,
8,
8,
0,
0,
2,
2,
1,
1,
3,
3,
6,
6,
9,
9,
1,
1,
2,
32,
30,
30,
20,
4,
13,
13,
22,
22,
13,
13,
6,
6,
2,
14,
13,
2,
3,
3,
5,
5,
10,
10,
3,
3,
4,
4,
2,
2,
2,
2,
2,
2,
6,
6,
0,
0,
1,
1,
1,
1,
1,
1,
0,
0,
2,
2,
0,
0,
2,
2,
-1,
-1,
5,
5,
1,
13,
13,
13,
17,
4,
22,
57,
57,
38,
38,
8,
9,
9,
5,
5,
7,
7,
14,
14,
22,
22,
30,
30,
28,
10,
10,
10,
1,
1,
1,
1,
5,
5,
2,
2,
0,
0,
8,
8,
12,
12,
13,
13,
13,
13,
6,
6,
2,
2,
3,
3,
2,
2,
1,
1,
2,
2,
0,
0,
2,
2,
3,
3,
2,
2,
3,
3,
1,
1,
0,
0,
0,
0,
2,
2,
6,
6,
8,
8,
2,
2,
2,
2,
7,
7,
11,
11,
12,
12,
9,
9,
5,
5,
4,
4,
3,
3,
9,
9,
12,
12,
5,
5,
10,
10,
5,
5,
0,
0,
0,
0,
8,
8,
2,
2,
0,
0,
6,
6,
2,
2,
10,
10,
4,
4,
1,
1,
2,
2,
7,
7,
8,
8,
2,
2,
-1,
-1,
2,
2,
0,
0,
10,
10,
17,
17,
13,
13,
4,
4,
1,
1,
1,
1,
1,
1,
6,
6,
11,
11,
4,
4,
10,
10,
17,
17,
14,
14,
9,
9,
7,
7,
5,
5,
0,
0,
9,
9,
14,
14,
10,
10,
2,
2,
2,
2,
1,
1,
4,
4,
6,
6,
5,
5,
2,
2,
11,
11,
4,
4,
4,
4,
1,
1,
1,
1,
1,
1,
9,
9,
9,
9,
9,
9,
8,
8,
6,
6,
4,
4,
12,
12,
15,
15,
9,
9,
5,
5,
5,
5,
11,
0,
4,
4,
10,
21,
20,
20,
29,
13,
13,
2,
12,
23,
22,
10,
11,
11,
2,
2,
9,
9,
7,
7,
2,
2,
4,
4,
2,
2,
4,
4,
2,
2,
0,
0,
1,
1,
7,
7,
9,
9,
6,
6,
1,
1,
2,
2,
9,
9,
6,
6,
1,
1,
5,
5,
12,
12,
9,
9,
11,
11,
9,
9,
0,
0,
6,
6,
15,
15,
18,
1,
2,
2,
6,
6,
5,
5,
0,
0,
0,
0,
3,
3,
1,
1,
0,
0,
-1,
-1,
0,
0,
1,
1,
4,
4,
5,
5,
2,
2,
1,
1,
1,
1,
2,
14,
13,
13,
18,
18,
9,
9,
3,
3,
6,
6,
11,
11,
13,
1,
2,
2,
10,
10,
7,
7,
0,
0,
-1,
-1,
2,
2,
6,
6,
2,
2,
0,
0,
1,
1,
3,
3,
6,
6,
7,
7,
1,
1,
7,
7,
7,
7,
5,
5,
8,
8,
16,
1,
2,
2,
8,
8,
1,
1,
6,
6,
1,
1,
-1,
-1,
-1,
-1,
4,
4,
12,
12,
9,
9,
2,
2,
5,
5,
5,
5,
6,
6,
2,
2,
5,
5,
1,
1,
2,
2,
6,
6,
10,
26,
25,
12,
12,
12,
9,
9,
9,
9,
2,
2,
10,
10,
11,
11,
11,
11,
