EMG_S3/DS0040.CSV

Memory Length,4000,
Trigger Level,-4.80000e+02,
Source,CH1,
Probe,1.0X,
Vertical Units,V,
Vertical Scale,1.00000e+00,
Vertical Position,0.00000e+00,
Horizontal Units,S,
Horizontal Scale,1.00000e-01,
Horizontal Position,0.0000000e+00,
Horizontal Mode,Roll Mode,
Waveform Last Dot Address,4000,
Sampling Period,4.00000e-04,
Firmware,V1.14,
Time, ,
Mode,Fast,
Waveform Data,
8,
8,
1,
1,
8,
8,
17,
17,
9,
9,
8,
8,
10,
10,
6,
6,
0,
13,
12,
12,
18,
18,
16,
16,
17,
17,
15,
15,
14,
14,
11,
11,
6,
6,
1,
1,
3,
14,
14,
25,
24,
24,
22,
5,
6,
6,
4,
17,
17,
17,
14,
1,
2,
13,
12,
12,
6,
6,
2,
2,
9,
9,
9,
9,
5,
5,
5,
5,
5,
5,
1,
16,
15,
15,
10,
10,
1,
1,
6,
6,
10,
10,
10,
10,
2,
15,
14,
25,
24,
24,
24,
24,
20,
8,
8,
8,
10,
10,
11,
11,
4,
4,
3,
3,
7,
7,
10,
10,
6,
6,
6,
19,
18,
18,
28,
28,
19,
4,
16,
36,
34,
11,
12,
1,
6,
6,
4,
4,
2,
13,
13,
30,
29,
29,
36,
36,
36,
17,
18,
2,
8,
21,
20,
20,
26,
26,
23,
23,
21,
21,
23,
23,
24,
13,
14,
1,
2,
2,
10,
10,
20,
20,
18,
1,
2,
2,
3,
3,
2,
2,
4,
4,
8,
8,
3,
3,
4,
4,
13,
13,
6,
6,
4,
4,
2,
2,
12,
12,
16,
2,
4,
30,
30,
30,
20,
1,
2,
2,
4,
4,
12,
32,
32,
21,
21,
1,
2,
14,
13,
27,
26,
13,
13,
0,
0,
0,
6,
6,
15,
15,
15,
15,
10,
10,
12,
12,
6,
6,
2,
2,
12,
12,
18,
18,
14,
3,
4,
4,
0,
0,
1,
1,
-1,
15,
15,
26,
24,
7,
7,
7,
0,
0,
1,
1,
3,
3,
10,
10,
12,
12,
11,
11,
12,
12,
14,
14,
10,
10,
1,
1,
0,
0,
10,
25,
24,
24,
18,
4,
15,
55,
55,
55,
58,
40,
40,
15,
16,
16,
18,
30,
25,
6,
23,
41,
41,
41,
46,
46,
41,
24,
25,
14,
15,
15,
7,
7,
3,
3,
5,
5,
12,
12,
14,
14,
5,
19,
18,
30,
29,
29,
21,
2,
5,
20,
20,
6,
6,
6,
0,
0,
-1,
-1,
2,
2,
10,
10,
3,
3,
1,
1,
10,
10,
2,
16,
15,
15,
13,
2,
9,
9,
10,
10,
5,
5,
12,
12,
9,
9,
7,
7,
3,
3,
-1,
-1,
1,
18,
16,
30,
30,
13,
14,
3,
12,
12,
7,
7,
3,
3,
6,
6,
1,
12,
12,
12,
12,
12,
4,
4,
0,
0,
7,
7,
15,
2,
11,
23,
22,
22,
14,
14,
5,
5,
0,
0,
-1,
-1,
0,
0,
0,
0,
1,
1,
2,
2,
2,
2,
5,
5,
5,
5,
6,
6,
11,
11,
12,
12,
12,
12,
19,
8,
8,
54,
54,
66,
65,
50,
50,
8,
8,
8,
13,
28,
27,
27,
31,
18,
18,
18,
13,
13,
12,
12,
16,
2,
4,
18,
17,
17,
12,
1,
3,
17,
17,
17,
19,
6,
6,
6,
10,
10,
5,
5,
2,
2,
5,
5,
9,
9,
6,
6,
3,
3,
13,
13,
18,
18,
14,
14,
12,
1,
2,
15,
14,
14,
17,
17,
18,
18,
20,
20,
13,
2,
12,
27,
25,
8,
9,
9,
5,
5,
7,
7,
2,
24,
24,
9,
9,
20,
19,
5,
5,
5,
13,
13,
18,
5,
10,
46,
46,
46,
37,
13,
14,
0,
1,
1,
5,
5,
10,
24,
23,
5,
6,
6,
4,
4,
11,
23,
22,
22,
18,
18,
10,
10,
3,
3,
2,
2,
-1,
-1,
0,
0,
4,
4,
5,
5,
0,
0,
4,
27,
26,
12,
13,
13,
10,
24,
24,
24,
14,
1,
2,
2,
2,
2,
8,
8,
15,
15,
17,
17,
8,
8,
1,
1,
2,
2,
1,
18,
18,
32,
31,
12,
21,
21,
13,
1,
1,
1,
8,
8,
3,
3,
3,
3,
2,
2,
3,
3,
0,
0,
5,
5,
12,
12,
20,
20,
14,
14,
13,
1,
3,
32,
32,
57,
57,
57,
50,
26,
26,
2,
5,
5,
9,
9,
13,
13,
17,
17,
26,
26,
28,
17,
18,
18,
9,
9,
1,
1,
5,
5,
5,
5,
12,
12,
4,
41,
41,
41,
40,
19,
19,
19,
13,
1,
2,
2,
12,
23,
23,
23,
18,
4,
4,
4,
1,
1,
0,
0,
4,
4,
1,
29,
29,
42,
39,
9,
9,
24,
23,
23,
22,
53,
53,
65,
64,
37,
37,
8,
17,
50,
49,
64,
64,
64,
64,
25,
41,
63,
62,
62,
64,
23,
23,
23,
18,
2,
6,
30,
30,
62,
61,
61,
61,
23,
24,
2,
3,
3,
3,
3,
12,
12,
18,
4,
5,
27,
26,
26,
19,
19,
14,
14,
23,
23,
30,
30,
24,
12,
13,
1,
8,
8,
14,
14,
8,
8,
7,
7,
12,
25,
25,
25,
30,
5,
7,
24,
24,
24,
20,
8,
9,
9,
1,
18,
17,
6,
6,
27,
26,
26,
26,
26,
20,
20,
17,
17,
15,
1,
3,
3,
2,
2,
6,
6,
5,
20,
19,
55,
54,
66,
64,
46,
46,
9,
9,
22,
21,
46,
45,
60,
60,
48,
49,
10,
10,
30,
30,
14,
15,
3,
10,
10,
2,
2,
2,
27,
27,
58,
57,
16,
17,
4,
12,
24,
23,
23,
19,
2,
4,
4,
10,
10,
17,
17,
11,
0,
2,
14,
14,
14,
7,
29,
29,
29,
7,
38,
38,
54,
52,
32,
33,
33,
25,
3,
4,
21,
21,
21,
18,
18,
23,
38,
38,
38,
34,
20,
21,
9,
9,
47,
46,
46,
46,
10,
10,
-1,
0,
19,
18,
33,
32,
19,
20,
5,
5,
5,
6,
6,
11,
11,
6,
26,
26,
38,
38,
38,
38,
7,
9,
22,
17,
5,
20,
36,
31,
7,
13,
13,
22,
22,
24,
12,
13,
1,
4,
4,
1,
1,
6,
6,
1,
1,
2,
2,
6,
6,
6,
6,
10,
23,
22,
9,
9,
9,
2,
2,
8,
8,
13,
13,
12,
1,
2,
2,
10,
10,
1,
1,
4,
4,
2,
2,
8,
8,
11,
11,
10,
10,
8,
8,
4,
17,
16,
16,
21,
21,
14,
14,
11,
11,
1,
1,
4,
4,
4,
4,
2,
2,
8,
8,
5,
18,
16,
40,
39,
39,
29,
10,
10,
-1,
1,
1,
6,
6,
16,
16,
19,
8,
9,
9,
2,
2,
10,
10,
10,
10,
1,
12,
11,
11,
12,
12,
9,
9,
10,
10,
2,
2,
-1,
-1,
2,
13,
12,
12,
5,
5,
4,
28,
26,
9,
34,
57,
47,
7,
12,
36,
35,
35,
34,
5,
6,
26,
25,
25,
28,
40,
39,
24,
24,
3,
7,
21,
21,
21,
30,
30,
33,
33,
33,
33,
25,
6,
7,
7,
13,
13,
21,
21,
14,
14,
12,
12,
6,
6,
1,
1,
8,
8,
2,
2,
7,
7,
2,
2,
2,
19,
18,
58,
57,
57,
61,
9,
10,
43,
43,
43,
41,
14,
14,
14,
10,
27,
27,
27,
18,
1,
2,
2,
5,
19,
18,
7,
7,
7,
9,
9,
6,
6,
14,
14,
22,
22,
29,
9,
10,
10,
14,
14,
20,
1,
3,
3,
12,
12,
12,
12,
11,
11,
8,
8,
18,
18,
18,
18,
13,
13,
14,
14,
6,
22,
22,
40,
39,
24,
25,
10,
11,
11,
1,
1,
11,
11,
14,
14,
4,
4,
0,
0,
0,
0,
9,
9,
6,
6,
1,
1,
2,
2,
6,
6,
5,
5,
2,
2,
1,
1,
9,
9,
9,
9,
17,
17,
22,
22,
30,
30,
25,
5,
5,
5,
0,
0,
1,
23,
22,
42,
41,
27,
28,
10,
12,
12,
6,
6,
4,
4,
3,
3,
6,
6,
9,
9,
16,
16,
17,
5,
6,
6,
12,
12,
15,
15,
18,
2,
3,
14,
13,
13,
15,
15,
10,
10,
4,
4,
12,
12,
9,
9,
17,
30,
30,
30,
22,
22,
20,
5,
7,
56,
56,
56,
65,
65,
55,
16,
17,
5,
26,
41,
38,
16,
17,
3,
8,
25,
23,
4,
4,
15,
15,
42,
42,
42,
35,
17,
19,
19,
11,
11,
14,
14,
19,
4,
5,
5,
3,
3,
1,
1,
1,
30,
30,
60,
59,
59,
59,
59,
61,
29,
30,
6,
14,
14,
23,
23,
19,
19,
29,
42,
42,
42,
46,
14,
14,
2,
6,
28,
28,
51,
49,
10,
10,
50,
49,
26,
26,
9,
9,
9,
6,
6,
5,
5,
7,
22,
22,
59,
59,
59,
58,
11,
11,
11,
20,
20,
11,
11,
8,
8,
11,
11,
8,
22,
22,
22,
21,
3,
6,
6,
9,
9,
16,
2,
3,
3,
7,
7,
11,
11,
15,
15,
7,
20,
20,
52,
51,
51,
45,
22,
22,
5,
14,
14,
20,
2,
4,
4,
1,
1,
6,
6,
4,
4,
10,
10,
13,
13,
9,
9,
4,
4,
1,
15,
14,
14,
13,
13,
5,
5,
0,
11,
10,
10,
16,
2,
2,
20,
20,
20,
26,
8,
8,
8,
13,
13,
10,
10,
4,
4,
9,
9,
5,
5,
6,
6,
8,
8,
2,
2,
2,
2,
9,
9,
12,
12,
5,
19,
19,
19,
22,
4,
10,
10,
15,
2,
7,
7,
6,
6,
0,
0,
0,
12,
12,
12,
21,
21,
12,
1,
4,
19,
18,
4,
4,
24,
23,
9,
9,
9,
2,
2,
6,
25,
25,
25,
33,
33,
40,
40,
32,
6,
7,
58,
58,
58,
65,
65,
61,
9,
10,
42,
42,
42,
47,
18,
18,
4,
7,
20,
20,
32,
29,
29,
32,
32,
39,
39,
33,
21,
22,
2,
3,
15,
14,
14,
17,
17,
8,
8,
16,
46,
46,
46,
38,
24,
25,
14,
14,
3,
4,
4,
2,
2,
4,
4,
-1,
18,
18,
51,
50,
37,
16,
58,
57,
57,
63,
16,
17,
2,
8,
8,
15,
15,
6,
6,
12,
12,
19,
19,
18,
5,
6,
6,
8,
8,
4,
15,
14,
14,
13,
13,
11,
11,
6,
6,
3,
3,
2,
13,
13,
13,
11,
0,
1,
1,
3,
3,
1,
1,
0,
0,
6,
24,
24,
24,
30,
30,
25,
4,
6,
20,
19,
19,
17,
4,
4,
20,
18,
7,
8,
8,
3,
3,
4,
4,
10,
10,
19,
5,
6,
19,
18,
34,
33,
22,
22,
22,
15,
15,
14,
14,
6,
6,
9,
9,
18,
18,
10,
10,
13,
25,
24,
24,
22,
22,
19,
19,
17,
17,
8,
8,
1,
1,
0,
0,
1,
1,
4,
23,
23,
34,
30,
8,
30,
64,
63,
40,
41,
3,
3,
3,
4,
15,
14,
14,
22,
22,
32,
32,
30,
11,
12,
12,
6,
6,
10,
10,
10,
10,
4,
4,
1,
1,
-1,
-1,
-1,
-1,
4,
4,
14,
14,
6,
6,
5,
5,
10,
10,
14,
14,
20,
20,
20,
5,
6,
6,
8,
8,
6,
6,
5,
5,
5,
5,
7,
19,
14,
14,
16,
16,
19,
3,
7,
22,
22,
10,
11,
0,
8,
28,
27,
27,
25,
25,
24,
4,
4,
28,
27,
14,
14,
14,
18,
18,
12,
12,
20,
45,
44,
33,
34,
11,
11,
11,
9,
28,
28,
16,
17,
17,
10,
10,
14,
14,
18,
18,
21,
21,
22,
22,
18,
4,
5,
50,
49,
65,
65,
45,
45,
18,
18,
3,
3,
3,
10,
10,
12,
12,
16,
16,
20,
20,
11,
11,
11,
11,
15,
15,
8,
8,
5,
5,
11,
11,
9,
29,
29,
29,
21,
6,
7,
7,
0,
0,
5,
20,
20,
33,
32,
18,
7,
35,
34,
34,
35,
6,
7,
21,
21,
35,
33,
5,
6,
6,
15,
15,
16,
16,
12,
25,
25,
55,
54,
54,
50,
11,
26,
62,
62,
46,
47,
16,
16,
16,
17,
17,
11,
11,
1,
17,
16,
37,
37,
49,
47,
47,
44,
21,
9,
41,
40,
51,
42,
12,
12,
0,
1,
1,
11,
11,
12,
1,
6,
6,
13,
13,
6,
6,
5,
5,
6,
6,
1,
1,
11,
11,
9,
9,
12,
12,
10,
10,
2,
2,
0,
0,
2,
2,
7,
7,
1,
21,
21,
33,
32,
32,
24,
5,
9,
9,
9,
9,
6,
25,
24,
6,
8,
46,
45,
29,
29,
10,
10,
10,
7,
7,
12,
12,
10,
10,
3,
3,
8,
8,
17,
17,
21,
21,
24,
24,
18,
18,
12,
12,
9,
9,
1,
1,
6,
6,
9,
9,
17,
17,
20,
20,
15,
2,
2,
13,
13,
30,
28,
3,
4,
4,
9,
9,
16,
28,
28,
28,
25,
25,
29,
29,
21,
5,
16,
40,
40,
63,
62,
62,
65,
33,
33,
5,
11,
39,
38,
50,
49,
38,
38,
38,
35,
35,
36,
36,
32,
32,
30,
30,
28,
6,
13,
38,
38,
38,
36,
36,
42,
28,
29,
29,
31,
31,
34,
4,
4,
4,
11,
11,
17,
17,
15,
15,
18,
18,
15,
1,
4,
4,
7,
7,
5,
5,
6,
23,
23,
4,
6,
20,
19,
19,
9,
9,
2,
2,
2,
2,
-1,
-1,
1,
1,
6,
6,
5,
5,
3,
3,
5,
5,
2,
15,
14,
14,
12,
12,
6,
6,
12,
12,
6,
6,
11,
11,
10,
25,
24,
24,
24,
6,
21,
32,
29,
16,
17,
2,
3,
3,
0,
0,
1,
14,
14,
1,
2,
2,
8,
22,
21,
8,
8,
21,
21,
37,
36,
36,
40,
40,
45,
45,
49,
12,
12,
60,
59,
32,
33,
6,
10,
10,
13,
1,
5,
27,
27,
27,
33,
33,
26,
26,
23,
7,
7,
7,
6,
6,
14,
14,
15,
15,
7,
7,
2,
13,
13,
13,
19,
19,
14,
14,
7,
7,
1,
14,
13,
13,
20,
8,
8,
8,
3,
3,
8,
23,
23,
23,
24,
4,
5,
22,
22,
22,
23,
23,
20,
9,
10,
10,
6,
6,
4,
4,
0,
0,
-1,
-1,
0,
0,
0,
0,
8,
8,
15,
15,
10,
10,
3,
3,
5,
5,
4,
4,
1,
1,
5,
5,
6,
6,
11,
11,
11,
11,
14,
14,
13,
0,
0,
0,
2,
2,
6,
6,
0,
0,
8,
8,
3,
3,
1,
1,
1,
1,
2,
2,
0,
0,
2,
2,
2,
2,
10,
10,
7,
7,
6,
6,
2,
13,
12,
23,
23,
11,
12,
1,
5,
5,
4,
22,
22,
2,
3,
3,
6,
19,
18,
18,
26,
26,
18,
1,
3,
3,
1,
1,
7,
7,
1,
1,
9,
9,
8,
8,
2,
2,
8,
8,
14,
14,
12,
12,
5,
35,
35,
64,
63,
63,
55,
14,
14,
14,
21,
32,
31,
31,
28,
28,
28,
28,
20,
20,
21,
10,
14,
14,
7,
28,
28,
28,
22,
22,
14,
1,
3,
3,
0,
0,
10,
23,
22,
22,
32,
19,
20,
3,
6,
6,
14,
14,
15,
15,
24,
24,
26,
14,
15,
15,
5,
5,
1,
1,
2,
2,
7,
7,
3,
3,
13,
13,
4,
4,
5,
5,
1,
1,
0,
20,
19,
36,
34,
15,
15,
1,
2,
2,
6,
6,
9,
9,
8,
8,
1,
13,
12,
12,
18,
18,
8,
8,
1,
1,
7,
7,
5,
5,
0,
12,
11,
11,
13,
2,
2,
2,
8,
8,
4,
4,
13,
13,
22,
6,
6,
6,
13,
24,
22,
8,
9,
9,
7,
7,
8,
43,
42,
42,
39,
9,
10,
10,
18,
45,
45,
45,
39,
22,
23,
2,
2,
2,
10,
10,
4,
4,
8,
8,
11,
0,
2,
2,
2,
2,
6,
6,
7,
7,
4,
4,
6,
6,
7,
7,
6,
6,
4,
4,
2,
2,
5,
5,
0,
0,
4,
4,
5,
5,
2,
2,
2,
2,
6,
6,
13,
13,
12,
12,
3,
3,
4,
4,
2,
2,
1,
1,
6,
6,
9,
34,
33,
33,
40,
40,
33,
6,
11,
36,
34,
34,
40,
40,
35,
35,
30,
30,
26,
26,
17,
3,
4,
4,
4,
4,
5,
5,
7,
7,
12,
27,
26,
26,
27,
11,
12,
12,
9,
9,
9,
9,
2,
2,
9,
9,
12,
1,
4,
4,
4,
4,
0,
0,
6,
6,
6,
6,
11,
0,
1,
1,
5,
5,
6,
29,
29,
18,
18,
4,
13,
25,
24,
24,
28,
28,
19,
19,
16,
16,
18,
18,
11,
11,
8,
8,
6,
19,
19,
32,
30,
16,
17,
17,
9,
9,
13,
31,
29,
14,
14,
1,
2,
2,
8,
8,
9,
9,
8,
8,
14,
2,
4,
4,
5,
5,
1,
1,
6,
6,
2,
21,
21,
21,
13,
1,
7,
7,
13,
1,
2,
2,
4,
4,
0,
0,
6,
6,
7,
7,
6,
6,
8,
8,
2,
2,
12,
12,
10,
10,
6,
6,
4,
4,
1,
1,
4,
4,
5,
5,
2,
2,
8,
8,
5,
5,
5,
5,
1,
1,
7,
7,
9,
9,
1,
1,
1,
1,
5,
5,
9,
9,
6,
6,
2,
2,
0,
0,
0,
0,
3,
3,
0,
0,
5,
5,
9,
9,
9,
9,
2,
2,
2,
2,
5,
5,
10,
10,
3,
3,
0,
0,
3,
3,
2,
2,
1,
1,
7,
7,
5,
5,
10,
10,
18,
7,
8,
8,
2,
14,
13,
30,
29,
29,
35,
15,
16,
1,
4,
4,
6,
20,
19,
19,
25,
10,
10,
10,
8,
8,
10,
10,
3,
3,
2,
19,
18,
18,
21,
21,
12,
12,
5,
5,
1,
1,
4,
4,
2,
2,
10,
10,
17,
17,
16,
16,
13,
13,
3,
19,
18,
46,
45,
45,
53,
22,
23,
6,
16,
16,
25,
25,
21,
21,
21,
21,
17,
17,
16,
16,
8,
8,
2,
17,
16,
16,
18,
7,
8,
8,
0,
0,
1,
1,
6,
6,
4,
4,
6,
6,
8,
8,
1,
1,
6,
6,
2,
2,
0,
0,
5,
5,
6,
6,
6,
6,
8,
8,
2,
16,
15,
52,
51,
31,
31,
5,
6,
6,
6,
6,
1,
1,
11,
28,
27,
27,
21,
1,
2,
2,
2,
2,
11,
11,
14,
14,
16,
16,
14,
14,
9,
9,
10,
10,
19,
19,
18,
18,
18,
3,
3,
3,
10,
10,
5,
20,
20,
36,
35,
35,
30,
16,
17,
1,
4,
4,
11,
11,
15,
30,
30,
55,
55,
55,
62,
12,
17,
56,
55,
41,
42,
29,
30,
11,
12,
12,
8,
8,
17,
17,
8,
8,
7,
7,
12,
12,
17,
17,
11,
11,
4,
4,
3,
3,
11,
11,
12,
12,
19,
44,
44,
44,
49,
49,
53,
41,
42,
8,
8,
27,
27,
27,
31,
31,
40,
40,
37,
37,
32,
32,
25,
12,
12,
1,
2,
2,
5,
5,
5,
5,
2,
2,
12,
23,
23,
23,
30,
14,
14,
1,
5,
5,
4,
30,
30,
12,
12,
25,
24,
24,
28,
5,
9,
34,
33,
21,
22,
2,
4,
4,
9,
9,
18,
18,
23,
23,
20,
20,
21,
21,
20,
6,
6,
17,
16,
16,
17,
5,
5,
5,
-1,
-1,
1,
1,
10,
10,
9,
9,
4,
4,
12,
31,
30,
47,
46,
26,
27,
6,
17,
17,
24,
24,
20,
20,
24,
24,
23,
23,
29,
29,
22,
3,
6,
6,
2,
2,
5,
5,
4,
4,
8,
8,
16,
4,
5,
5,
3,
3,
2,
26,
25,
25,
29,
29,
20,
20,
13,
13,
6,
6,
0,
0,
2,
15,
14,
35,
34,
45,
44,
18,
18,
4,
9,
9,
10,
10,
2,
36,
35,
64,
63,
63,
66,
14,
14,
30,
29,
45,
45,
45,
49,
49,
50,
50,
41,
41,
34,
34,
27,
14,
14,
14,
10,
10,
4,
26,
26,
26,
29,
4,
5,
5,
4,
56,
56,
56,
65,
50,
50,
5,
6,
18,
17,
17,
16,
16,
18,
18,
19,
19,
23,
23,
22,
22,
22,
22,
16,
16,
8,
8,
4,
4,
8,
8,
10,
10,
2,
2,
6,
6,
4,
26,
26,
49,
48,
48,
38,
4,
5,
5,
10,
10,
5,
5,
1,
1,
2,
2,
1,
1,
2,
14,
13,
13,
11,
11,
15,
15,
13,
13,
13,
26,
26,
26,
29,
29,
27,
27,
24,
9,
9,
9,
14,
14,
15,
15,
13,
13,
9,
23,
23,
23,
24,
24,
23,
12,
12,
1,
2,
2,
5,
5,
8,
8,
9,
9,
9,
9,
4,
4,
2,
2,
3,
3,
0,
0,
6,
6,
7,
7,
4,
4,
9,
9,
9,
9,
4,
4,
0,
0,
2,
2,
3,
3,
4,
15,
14,
14,
9,
9,
6,
6,
0,
0,
6,
6,
9,
9,
10,
10,
2,
2,
6,
6,
10,
10,
1,
12,
11,
22,
22,
22,
24,
8,
8,
8,
2,
2,
10,
42,
42,
42,
44,
24,
25,
3,
4,
30,
30,
53,
52,
29,
29,
1,
2,
2,
-1,
-1,
3,
3,
12,
12,
11,
11,
11,
11,
4,
4,
3,
3,
-1,
-1,
6,
18,
18,
18,
15,
3,
7,
39,
39,
39,
40,
15,
16,
1,
4,
4,
11,
11,
18,
18,
16,
16,
13,
13,
4,
4,
2,
15,
15,
26,
25,
25,
19,
2,
28,
28,
28,
28,
31,
5,
6,
6,
2,
2,
6,
6,
10,
10,
11,
0,
1,
12,
10,
10,
11,
11,
4,
4,
13,
13,
9,
9,
1,
1,
5,
5,
6,
6,
6,
6,
7,
26,
25,
25,
20,
4,
19,
61,
61,
61,
63,
19,
19,
5,
15,
15,
21,
21,
20,
20,
17,
17,
9,
9,
0,
0,
2,
2,
5,
5,
13,
13,
15,
15,
16,
16,
16,
5,
5,
5,
2,
2,
8,
8,
9,
9,
1,
1,
0,
0,
9,
27,
26,
26,
30,
30,
32,
32,
31,
31,
23,
4,
4,
23,
22,
37,
36,
36,
41,
41,
38,
24,
25,
5,
10,
10,
18,
2,
2,
2,
3,
3,
7,
7,
9,
9,
6,
6,
5,
5,
2,
2,
5,
5,
1,
1,
6,
6,
1,
14,
13,
13,
18,
3,
9,
9,
8,
8,
2,
14,
14,
27,
26,
9,
9,
9,
18,
30,
29,
6,
6,
20,
18,
18,
18,
18,
9,
9,
4,
4,
13,
2,
14,
42,
40,
12,
13,
13,
16,
30,
29,
29,
24,
10,
10,
10,
6,
6,
6,
6,
8,
23,
23,
23,
25,
3,
5,
25,
25,
25,
17,
1,
1,
19,
18,
30,
22,
6,
21,
21,
25,
11,
12,
12,
8,
8,
3,
3,
1,
1,
5,
5,
4,
28,
27,
40,
39,
8,
13,
58,
58,
58,
62,
31,
32,
18,
18,
4,
13,
41,
41,
41,
46,
46,
38,
38,
29,
29,
26,
26,
16,
1,
4,
4,
7,
7,
14,
26,
26,
26,
21,
1,
2,
2,
8,
8,
9,
38,
37,
25,
26,
1,
3,
3,
2,
2,
11,
11,
17,
17,
20,
20,
14,
3,
16,
16,
21,
6,
7,
7,
8,
8,
6,
6,
10,
10,
6,
6,
2,
2,
6,
6,
2,
2,
2,
2,
5,
5,
5,
5,
13,
24,
14,
42,
42,
65,
64,
17,
17,
32,
32,
32,
31,
18,
18,
18,
20,
20,
29,
8,
9,
9,
12,
12,
18,
18,
12,
12,
5,
5,
7,
7,
14,
14,
10,
10,
1,
1,
4,
4,
5,
5,
7,
7,
8,
8,
6,
6,
3,
3,
5,
5,
6,
6,
2,
2,
6,
6,
7,
7,
6,
6,
10,
10,
1,
1,
2,
2,
6,
6,
8,
8,
10,
10,
15,
15,
18,
18,
8,
8,
4,
18,
17,
17,
21,
5,
6,
6,
0,
0,
1,
1,
3,
3,
10,
10,
9,
9,
2,
2,
2,
2,
4,
4,
0,
0,
1,
1,
2,
2,
7,
7,
6,
6,
0,
0,
2,
2,
0,
0,
6,
6,
2,
2,
3,
3,
9,
9,
1,
1,
7,
7,
5,
5,
4,
4,
1,
1,
0,
0,
1,
1,
6,
6,
5,
5,
5,
5,
5,
5,
0,
0,
1,
1,
3,
3,
5,
17,
16,
16,
8,
8,
4,
4,
10,
10,
3,
3,
6,
6,
5,
5,
1,
1,
-1,
-1,
2,
2,
5,
5,
3,
3,
4,
4,
3,
3,
0,
0,
5,
5,
9,
9,
11,
11,
4,
4,
7,
21,
20,
20,
22,
22,
13,
0,
2,
2,
7,
7,
2,
2,
4,
17,
16,
2,
4,
4,
9,
9,
6,
26,
26,
7,
18,
62,
61,
61,
64,
49,
49,
6,
7,
24,
24,
24,
28,
40,
39,
62,
61,
32,
33,
6,
7,
7,
2,
2,
6,
6,
3,
3,
6,
6,
2,
2,
3,
3,
4,
4,
3,
3,
2,
2,
0,
0,
10,
21,
20,
20,
26,
12,
13,
2,
