EMG_S3/DS0034.CSV

Memory Length,4000,
Trigger Level,-4.80000e+02,
Source,CH1,
Probe,1.0X,
Vertical Units,V,
Vertical Scale,1.00000e+00,
Vertical Position,0.00000e+00,
Horizontal Units,S,
Horizontal Scale,1.00000e-01,
Horizontal Position,0.0000000e+00,
Horizontal Mode,Roll Mode,
Waveform Last Dot Address,4000,
Sampling Period,4.00000e-04,
Firmware,V1.14,
Time, ,
Mode,Fast,
Waveform Data,
-1,
-1,
5,
5,
1,
1,
2,
2,
3,
3,
10,
10,
11,
11,
5,
5,
5,
5,
6,
6,
4,
4,
8,
8,
9,
9,
7,
7,
8,
8,
5,
5,
0,
0,
1,
1,
0,
0,
5,
5,
15,
15,
17,
17,
13,
13,
9,
9,
1,
1,
4,
4,
9,
9,
3,
3,
2,
14,
13,
13,
5,
5,
7,
7,
10,
10,
12,
12,
16,
5,
5,
5,
0,
0,
1,
1,
6,
6,
8,
8,
5,
5,
13,
13,
18,
1,
2,
2,
11,
11,
4,
16,
15,
15,
18,
18,
10,
10,
8,
8,
2,
2,
10,
10,
14,
14,
15,
15,
13,
13,
12,
12,
9,
9,
5,
5,
4,
4,
1,
1,
5,
5,
9,
9,
9,
9,
15,
15,
21,
5,
5,
5,
6,
6,
2,
14,
14,
14,
6,
6,
4,
4,
12,
12,
13,
1,
2,
2,
9,
9,
4,
4,
-1,
-1,
2,
2,
6,
6,
12,
12,
14,
14,
6,
6,
5,
5,
10,
10,
6,
6,
0,
0,
-1,
-1,
5,
16,
16,
16,
14,
14,
4,
4,
2,
2,
8,
8,
5,
5,
0,
0,
4,
4,
5,
5,
8,
8,
6,
6,
1,
1,
2,
2,
5,
5,
6,
6,
11,
11,
2,
2,
5,
5,
8,
8,
5,
5,
10,
10,
7,
7,
-1,
-1,
2,
16,
15,
15,
18,
18,
10,
10,
16,
16,
14,
2,
6,
18,
18,
18,
14,
14,
6,
6,
7,
7,
10,
10,
5,
5,
2,
2,
6,
6,
8,
8,
12,
12,
17,
17,
20,
4,
7,
37,
36,
36,
28,
15,
15,
15,
10,
10,
7,
7,
3,
16,
14,
14,
18,
18,
10,
10,
4,
4,
0,
0,
6,
6,
6,
6,
3,
14,
13,
2,
9,
24,
22,
3,
3,
3,
1,
1,
1,
1,
4,
4,
13,
13,
4,
4,
4,
4,
2,
2,
0,
0,
3,
3,
3,
3,
10,
10,
12,
0,
4,
4,
5,
5,
2,
2,
10,
10,
14,
14,
6,
6,
2,
2,
8,
8,
10,
10,
8,
8,
9,
9,
14,
14,
7,
7,
2,
2,
10,
10,
17,
17,
23,
9,
9,
9,
0,
0,
1,
1,
0,
0,
3,
3,
2,
2,
2,
2,
2,
2,
10,
24,
23,
23,
29,
9,
9,
23,
21,
43,
40,
40,
30,
17,
18,
1,
1,
1,
11,
11,
16,
16,
10,
10,
9,
9,
12,
12,
11,
11,
2,
2,
4,
4,
0,
0,
1,
1,
1,
1,
3,
3,
7,
7,
0,
0,
3,
3,
2,
2,
5,
5,
0,
0,
5,
5,
12,
12,
17,
17,
14,
1,
1,
1,
2,
2,
3,
3,
6,
6,
5,
5,
4,
4,
1,
1,
0,
0,
7,
7,
14,
14,
11,
11,
1,
14,
13,
13,
10,
10,
7,
7,
10,
10,
3,
3,
-1,
-1,
2,
2,
0,
0,
9,
9,
16,
3,
4,
4,
12,
12,
4,
4,
0,
0,
2,
16,
15,
15,
22,
3,
4,
18,
18,
18,
21,
21,
12,
1,
2,
2,
1,
15,
14,
14,
12,
1,
6,
6,
9,
9,
1,
1,
1,
14,
14,
14,
15,
15,
17,
29,
28,
28,
22,
1,
2,
2,
12,
24,
23,
23,
20,
20,
17,
17,
13,
1,
2,
2,
2,
2,
6,
6,
3,
3,
2,
2,
0,
0,
0,
13,
13,
13,
19,
5,
5,
5,
3,
3,
4,
4,
10,
10,
2,
2,
3,
3,
5,
5,
6,
6,
13,
13,
6,
6,
8,
8,
9,
9,
8,
8,
8,
8,
8,
8,
8,
8,
2,
2,
2,
2,
12,
12,
7,
7,
2,
2,
2,
2,
10,
10,
6,
6,
7,
7,
12,
12,
9,
9,
0,
0,
0,
0,
2,
2,
6,
6,
7,
7,
1,
1,
2,
2,
9,
9,
11,
11,
7,
7,
2,
2,
0,
0,
6,
6,
10,
10,
13,
13,
17,
17,
9,
9,
5,
5,
4,
4,
0,
0,
6,
6,
7,
7,
7,
7,
7,
7,
5,
5,
2,
2,
4,
4,
4,
4,
7,
7,
6,
6,
13,
13,
21,
21,
16,
5,
6,
6,
-1,
-1,
1,
1,
0,
0,
4,
4,
1,
1,
4,
4,
14,
14,
14,
14,
7,
7,
6,
6,
2,
2,
1,
1,
-1,
-1,
2,
2,
2,
2,
8,
8,
10,
10,
5,
5,
2,
2,
6,
6,
7,
7,
3,
3,
0,
0,
4,
4,
7,
7,
12,
12,
4,
4,
4,
4,
8,
8,
1,
1,
1,
1,
2,
2,
2,
2,
6,
6,
6,
17,
16,
16,
6,
6,
3,
3,
6,
6,
6,
6,
2,
2,
2,
2,
5,
5,
6,
22,
22,
22,
20,
1,
2,
2,
3,
3,
9,
9,
10,
10,
10,
10,
9,
9,
7,
7,
8,
20,
19,
19,
14,
30,
30,
43,
41,
25,
25,
6,
7,
7,
4,
4,
6,
6,
3,
14,
14,
14,
19,
19,
13,
1,
2,
2,
4,
4,
1,
1,
6,
6,
5,
5,
5,
5,
0,
13,
12,
12,
7,
7,
10,
10,
2,
2,
4,
4,
6,
6,
4,
4,
2,
2,
7,
7,
8,
8,
5,
5,
2,
2,
8,
8,
7,
7,
6,
6,
3,
3,
3,
3,
1,
1,
2,
2,
0,
0,
4,
4,
2,
2,
-1,
-1,
-1,
-1,
1,
1,
2,
2,
3,
3,
1,
1,
0,
11,
10,
10,
1,
1,
2,
2,
4,
4,
9,
9,
7,
7,
1,
1,
0,
0,
4,
4,
-1,
-1,
3,
18,
17,
31,
30,
15,
16,
0,
2,
2,
6,
6,
5,
5,
4,
4,
6,
6,
7,
7,
7,
7,
6,
6,
6,
6,
2,
2,
0,
0,
2,
2,
1,
1,
3,
3,
1,
12,
10,
10,
12,
12,
9,
9,
2,
2,
1,
1,
0,
0,
0,
0,
3,
3,
2,
2,
5,
5,
13,
13,
6,
6,
0,
0,
2,
2,
2,
2,
0,
0,
2,
2,
5,
5,
6,
6,
5,
5,
2,
2,
1,
1,
4,
4,
1,
1,
7,
7,
3,
3,
5,
19,
18,
18,
10,
10,
5,
17,
17,
17,
19,
4,
5,
5,
12,
12,
9,
9,
10,
10,
20,
37,
37,
37,
32,
6,
6,
20,
20,
20,
26,
26,
18,
18,
14,
14,
16,
27,
26,
6,
6,
34,
34,
21,
21,
2,
6,
6,
13,
13,
13,
13,
9,
9,
1,
1,
0,
0,
7,
7,
2,
2,
5,
20,
19,
19,
20,
8,
8,
8,
0,
0,
3,
3,
1,
1,
7,
7,
8,
8,
1,
1,
5,
5,
10,
10,
10,
10,
5,
5,
1,
1,
7,
7,
2,
2,
9,
9,
10,
10,
15,
15,
19,
19,
13,
13,
6,
6,
2,
2,
8,
8,
2,
2,
2,
16,
16,
16,
23,
23,
18,
18,
14,
14,
14,
1,
2,
2,
9,
9,
6,
6,
0,
0,
1,
1,
7,
7,
1,
1,
2,
2,
9,
9,
12,
12,
17,
17,
11,
11,
5,
5,
2,
2,
6,
6,
3,
3,
4,
4,
9,
9,
8,
8,
3,
3,
1,
1,
5,
5,
11,
11,
11,
11,
6,
6,
5,
5,
2,
14,
13,
36,
35,
35,
27,
13,
13,
0,
2,
14,
14,
14,
23,
8,
8,
8,
3,
3,
0,
0,
5,
5,
3,
3,
4,
4,
9,
9,
11,
11,
10,
10,
1,
1,
7,
7,
3,
3,
2,
2,
5,
5,
5,
5,
1,
1,
0,
15,
14,
3,
14,
50,
48,
30,
30,
4,
4,
4,
6,
6,
14,
14,
14,
1,
5,
19,
18,
18,
12,
1,
2,
2,
8,
8,
12,
12,
7,
7,
4,
4,
4,
4,
5,
5,
5,
5,
0,
0,
4,
4,
1,
1,
0,
0,
-1,
-1,
0,
0,
2,
2,
1,
1,
3,
3,
1,
1,
2,
2,
12,
12,
13,
1,
3,
22,
22,
56,
56,
56,
57,
38,
38,
21,
21,
1,
2,
25,
24,
36,
36,
36,
37,
37,
42,
42,
37,
23,
24,
24,
17,
17,
10,
10,
1,
1,
-1,
-1,
7,
19,
18,
18,
20,
20,
18,
18,
8,
8,
-1,
-1,
9,
20,
19,
19,
21,
21,
18,
18,
13,
0,
2,
2,
8,
8,
9,
9,
10,
10,
8,
8,
9,
9,
8,
8,
5,
5,
0,
0,
2,
2,
2,
2,
6,
6,
2,
2,
0,
0,
0,
0,
-1,
-1,
-1,
-1,
-1,
-1,
3,
3,
6,
6,
15,
15,
24,
8,
8,
8,
5,
5,
4,
4,
11,
11,
4,
4,
7,
7,
9,
9,
10,
10,
6,
6,
1,
12,
11,
11,
7,
44,
43,
19,
20,
4,
7,
7,
1,
1,
4,
4,
4,
23,
23,
47,
46,
22,
22,
1,
2,
2,
11,
11,
20,
20,
22,
22,
16,
16,
7,
7,
9,
23,
22,
22,
26,
26,
26,
13,
13,
1,
4,
4,
13,
13,
11,
11,
9,
9,
8,
8,
10,
10,
12,
12,
10,
10,
4,
4,
9,
32,
32,
32,
30,
9,
9,
9,
9,
24,
24,
24,
26,
11,
12,
12,
13,
13,
9,
9,
10,
10,
8,
8,
2,
2,
10,
10,
15,
3,
9,
9,
10,
10,
12,
12,
3,
3,
4,
4,
3,
3,
2,
2,
3,
3,
5,
5,
3,
3,
0,
0,
1,
1,
6,
6,
9,
9,
9,
9,
1,
1,
5,
5,
12,
12,
8,
8,
0,
0,
2,
2,
5,
5,
5,
5,
3,
3,
2,
2,
4,
4,
6,
6,
12,
12,
4,
4,
1,
1,
2,
15,
14,
14,
15,
1,
4,
4,
5,
5,
13,
13,
18,
18,
11,
11,
6,
6,
4,
4,
5,
5,
4,
4,
6,
6,
6,
6,
6,
6,
5,
5,
7,
19,
18,
18,
17,
1,
4,
4,
4,
4,
2,
2,
3,
3,
2,
2,
3,
15,
14,
14,
21,
9,
9,
9,
9,
9,
13,
13,
6,
6,
5,
5,
9,
9,
7,
7,
4,
4,
-1,
-1,
1,
1,
1,
1,
2,
2,
2,
2,
4,
4,
5,
5,
10,
10,
13,
13,
7,
7,
4,
4,
5,
5,
10,
10,
18,
2,
4,
17,
28,
28,
28,
12,
12,
1,
1,
1,
6,
18,
17,
17,
21,
8,
8,
8,
5,
5,
0,
0,
6,
6,
9,
9,
12,
12,
11,
11,
7,
7,
4,
4,
1,
1,
6,
6,
3,
3,
9,
25,
24,
24,
23,
23,
14,
14,
6,
6,
3,
3,
0,
0,
7,
7,
5,
5,
5,
5,
8,
22,
21,
21,
17,
2,
6,
6,
8,
8,
13,
29,
27,
13,
13,
1,
6,
6,
13,
13,
10,
10,
3,
3,
1,
1,
-1,
-1,
-1,
-1,
2,
2,
0,
0,
9,
9,
8,
8,
2,
2,
9,
9,
2,
2,
-1,
-1,
4,
4,
9,
9,
9,
9,
6,
6,
0,
11,
10,
26,
25,
25,
28,
13,
13,
1,
3,
3,
9,
9,
13,
13,
11,
11,
5,
5,
3,
3,
2,
2,
1,
1,
-1,
-1,
1,
1,
7,
7,
4,
4,
7,
7,
17,
17,
13,
13,
8,
8,
1,
1,
2,
2,
1,
13,
12,
12,
13,
13,
14,
14,
10,
39,
38,
27,
28,
8,
9,
9,
4,
4,
6,
6,
9,
9,
16,
16,
18,
18,
15,
15,
13,
13,
9,
9,
6,
6,
3,
3,
2,
15,
14,
14,
22,
22,
22,
8,
9,
9,
4,
4,
3,
17,
16,
1,
4,
4,
8,
8,
8,
8,
2,
2,
5,
5,
9,
9,
2,
14,
14,
14,
9,
9,
7,
7,
14,
14,
12,
12,
19,
19,
12,
12,
18,
36,
35,
35,
31,
3,
4,
4,
3,
3,
2,
2,
2,
2,
11,
11,
18,
18,
12,
12,
3,
3,
8,
8,
5,
5,
3,
3,
9,
9,
14,
14,
12,
0,
1,
1,
5,
5,
5,
5,
11,
11,
4,
4,
9,
27,
26,
5,
8,
45,
44,
29,
29,
3,
5,
21,
19,
19,
16,
16,
11,
11,
13,
13,
12,
12,
4,
4,
6,
6,
5,
5,
4,
4,
8,
8,
5,
5,
2,
2,
8,
8,
16,
2,
6,
18,
17,
17,
20,
20,
17,
17,
8,
8,
3,
3,
8,
8,
6,
6,
5,
5,
0,
0,
1,
1,
7,
7,
8,
8,
5,
5,
2,
2,
6,
6,
2,
13,
13,
13,
10,
10,
5,
5,
10,
10,
4,
4,
5,
5,
1,
1,
0,
13,
12,
33,
32,
32,
26,
4,
6,
20,
20,
20,
20,
8,
9,
9,
6,
6,
9,
9,
1,
1,
2,
2,
2,
2,
2,
2,
5,
5,
2,
2,
4,
4,
5,
5,
2,
2,
2,
2,
3,
3,
4,
4,
1,
1,
8,
8,
3,
3,
2,
2,
2,
2,
6,
6,
2,
2,
-1,
-1,
-1,
-1,
-1,
-1,
1,
1,
1,
1,
3,
3,
4,
4,
5,
5,
5,
5,
6,
23,
22,
22,
19,
1,
2,
13,
13,
24,
23,
23,
23,
23,
26,
26,
27,
15,
16,
2,
8,
21,
20,
35,
34,
34,
42,
29,
29,
1,
2,
2,
2,
2,
0,
0,
2,
2,
0,
0,
3,
15,
14,
14,
23,
23,
14,
14,
8,
8,
7,
7,
1,
1,
10,
10,
9,
9,
8,
8,
6,
6,
5,
5,
2,
13,
12,
12,
16,
16,
18,
18,
9,
9,
2,
2,
12,
12,
15,
15,
13,
1,
3,
3,
0,
0,
7,
7,
10,
10,
9,
9,
5,
5,
2,
2,
-1,
-1,
2,
2,
9,
9,
11,
11,
14,
14,
6,
6,
5,
5,
14,
14,
11,
0,
1,
1,
4,
4,
3,
3,
1,
1,
1,
1,
1,
1,
6,
6,
1,
1,
9,
9,
12,
1,
2,
2,
7,
7,
6,
6,
1,
1,
2,
2,
-1,
-1,
1,
1,
0,
0,
1,
1,
0,
0,
1,
1,
5,
5,
2,
2,
3,
3,
9,
9,
7,
7,
3,
3,
-1,
-1,
2,
2,
4,
4,
0,
0,
0,
11,
10,
10,
20,
20,
18,
18,
8,
20,
20,
41,
41,
41,
31,
3,
4,
18,
17,
28,
26,
26,
17,
2,
2,
2,
2,
2,
-1,
-1,
0,
0,
1,
1,
-1,
22,
22,
22,
30,
12,
13,
2,
10,
21,
21,
21,
19,
5,
5,
5,
6,
6,
6,
6,
6,
6,
16,
16,
7,
7,
1,
1,
4,
4,
7,
7,
12,
12,
10,
10,
2,
2,
6,
6,
0,
0,
2,
2,
9,
9,
7,
7,
5,
5,
4,
4,
1,
1,
2,
2,
5,
5,
4,
4,
5,
5,
2,
2,
2,
2,
6,
6,
2,
2,
7,
7,
6,
6,
10,
10,
18,
18,
13,
13,
16,
16,
24,
24,
15,
1,
4,
15,
15,
15,
18,
18,
16,
16,
15,
15,
10,
10,
10,
10,
9,
9,
3,
3,
1,
15,
14,
3,
7,
25,
25,
25,
17,
17,
10,
10,
5,
5,
12,
12,
13,
13,
5,
5,
3,
3,
6,
6,
6,
6,
1,
1,
0,
0,
6,
6,
5,
5,
0,
0,
1,
1,
1,
1,
-1,
-1,
0,
0,
-1,
-1,
3,
3,
11,
11,
5,
5,
2,
2,
1,
1,
2,
2,
9,
20,
18,
18,
21,
21,
15,
15,
6,
6,
0,
0,
6,
6,
10,
10,
1,
1,
-1,
-1,
6,
6,
6,
6,
5,
5,
11,
11,
10,
10,
8,
8,
4,
4,
0,
0,
0,
0,
5,
5,
10,
10,
2,
2,
1,
1,
10,
10,
9,
9,
5,
5,
10,
10,
2,
28,
28,
42,
42,
29,
29,
2,
3,
20,
20,
34,
32,
5,
6,
6,
7,
7,
10,
10,
18,
18,
22,
22,
24,
24,
17,
2,
6,
23,
23,
23,
18,
18,
14,
14,
18,
18,
18,
2,
4,
4,
7,
7,
6,
6,
2,
2,
8,
8,
14,
14,
18,
18,
14,
14,
7,
7,
5,
5,
1,
1,
5,
5,
8,
8,
7,
7,
3,
3,
13,
25,
24,
24,
21,
6,
7,
7,
1,
1,
7,
7,
10,
10,
2,
2,
1,
1,
1,
1,
8,
8,
7,
7,
0,
0,
5,
5,
11,
11,
12,
12,
8,
8,
15,
15,
10,
10,
2,
2,
11,
11,
5,
5,
3,
3,
-1,
-1,
2,
13,
12,
12,
14,
14,
11,
11,
4,
4,
0,
0,
6,
6,
12,
12,
9,
9,
4,
4,
1,
1,
6,
6,
6,
6,
1,
1,
2,
2,
1,
1,
2,
2,
7,
7,
6,
6,
1,
13,
12,
12,
20,
8,
9,
9,
-1,
-1,
1,
1,
5,
5,
11,
11,
10,
10,
6,
6,
-1,
-1,
0,
0,
6,
29,
29,
45,
45,
24,
25,
3,
6,
17,
14,
2,
5,
5,
6,
37,
35,
35,
33,
33,
26,
26,
26,
26,
16,
16,
6,
17,
16,
28,
28,
16,
17,
3,
3,
3,
2,
2,
5,
16,
15,
15,
16,
5,
6,
6,
2,
2,
2,
2,
2,
2,
4,
4,
5,
5,
10,
10,
15,
2,
3,
3,
12,
12,
21,
21,
20,
20,
21,
21,
15,
15,
6,
6,
1,
1,
5,
5,
10,
10,
10,
10,
8,
8,
1,
1,
0,
0,
5,
5,
2,
2,
11,
11,
3,
3,
4,
4,
5,
5,
1,
1,
5,
5,
2,
2,
12,
12,
4,
4,
0,
0,
1,
1,
6,
6,
6,
6,
0,
0,
-1,
-1,
3,
3,
7,
7,
10,
10,
2,
21,
21,
9,
10,
10,
9,
9,
11,
11,
4,
4,
7,
7,
8,
8,
6,
6,
5,
5,
12,
12,
9,
9,
6,
6,
3,
3,
4,
4,
5,
5,
9,
9,
1,
1,
-1,
-1,
5,
5,
5,
5,
9,
9,
7,
7,
0,
0,
0,
0,
-1,
-1,
3,
3,
1,
1,
3,
3,
3,
3,
3,
3,
1,
1,
5,
5,
13,
13,
9,
9,
6,
6,
9,
9,
9,
9,
2,
2,
9,
9,
13,
13,
5,
5,
2,
2,
0,
0,
2,
2,
8,
8,
4,
4,
8,
8,
16,
4,
4,
4,
7,
7,
9,
9,
7,
26,
25,
25,
24,
4,
5,
5,
8,
8,
12,
12,
9,
9,
7,
7,
5,
5,
5,
17,
16,
16,
14,
14,
5,
5,
9,
21,
21,
21,
13,
2,
2,
2,
6,
17,
16,
16,
15,
4,
4,
4,
14,
29,
28,
28,
35,
35,
27,
10,
10,
10,
5,
22,
22,
22,
18,
5,
6,
6,
2,
2,
1,
1,
10,
10,
15,
15,
19,
19,
13,
0,
0,
0,
3,
3,
6,
6,
8,
8,
8,
8,
3,
3,
1,
1,
0,
0,
8,
8,
18,
18,
12,
0,
2,
2,
9,
9,
6,
6,
1,
1,
8,
8,
1,
1,
0,
0,
4,
4,
4,
4,
8,
8,
1,
1,
7,
7,
2,
2,
3,
3,
3,
3,
2,
2,
1,
1,
2,
2,
4,
4,
0,
0,
2,
2,
10,
10,
10,
10,
12,
12,
9,
9,
0,
0,
7,
7,
8,
8,
9,
9,
12,
12,
6,
6,
4,
4,
5,
5,
10,
10,
18,
18,
15,
1,
2,
2,
6,
6,
1,
1,
6,
6,
5,
5,
13,
13,
17,
17,
12,
0,
2,
2,
6,
19,
18,
18,
12,
12,
9,
9,
9,
9,
5,
5,
14,
14,
20,
20,
27,
27,
25,
25,
29,
18,
18,
2,
6,
6,
16,
16,
16,
4,
4,
4,
5,
16,
15,
15,
18,
18,
15,
15,
12,
0,
1,
1,
1,
1,
2,
19,
18,
18,
13,
0,
0,
0,
0,
0,
3,
3,
5,
5,
6,
6,
6,
6,
9,
9,
9,
9,
6,
6,
0,
0,
1,
1,
6,
6,
10,
10,
2,
2,
7,
25,
24,
11,
11,
11,
19,
19,
15,
1,
2,
2,
3,
3,
6,
6,
-1,
-1,
1,
23,
23,
37,
35,
6,
6,
6,
12,
12,
8,
8,
13,
13,
13,
2,
2,
2,
2,
2,
10,
10,
14,
14,
5,
5,
2,
2,
3,
3,
0,
0,
1,
1,
4,
4,
10,
10,
17,
17,
19,
19,
14,
14,
7,
7,
1,
1,
4,
4,
2,
2,
4,
4,
6,
6,
5,
5,
9,
9,
12,
12,
4,
4,
0,
0,
4,
4,
7,
7,
2,
2,
6,
6,
5,
5,
10,
10,
9,
9,
10,
10,
6,
6,
2,
2,
5,
5,
7,
7,
5,
5,
7,
7,
8,
8,
6,
6,
6,
6,
4,
4,
2,
2,
-1,
-1,
6,
6,
14,
14,
12,
12,
4,
4,
1,
1,
7,
7,
11,
11,
8,
8,
14,
14,
21,
5,
6,
6,
0,
0,
3,
3,
6,
6,
1,
1,
2,
2,
4,
4,
3,
3,
0,
0,
9,
24,
23,
23,
22,
9,
10,
10,
4,
4,
14,
14,
21,
21,
17,
5,
15,
61,
61,
61,
63,
21,
21,
3,
6,
6,
13,
13,
18,
18,
14,
14,
5,
5,
7,
7,
8,
8,
5,
5,
2,
2,
0,
0,
1,
1,
6,
6,
2,
2,
1,
1,
4,
4,
2,
2,
5,
5,
6,
6,
8,
8,
2,
2,
6,
6,
14,
14,
7,
7,
0,
0,
0,
0,
1,
1,
5,
5,
6,
6,
1,
1,
0,
0,
0,
0,
0,
0,
2,
2,
-1,
-1,
-1,
-1,
2,
2,
2,
20,
20,
20,
14,
1,
1,
1,
6,
6,
3,
3,
2,
2,
0,
0,
8,
20,
18,
4,
4,
21,
20,
9,
9,
9,
2,
2,
11,
11,
7,
7,
6,
20,
18,
18,
11,
11,
1,
1,
3,
3,
6,
6,
6,
6,
6,
6,
13,
13,
13,
13,
10,
10,
5,
5,
6,
6,
7,
7,
1,
1,
2,
2,
6,
6,
4,
19,
19,
34,
32,
10,
10,
-1,
1,
1,
2,
2,
11,
11,
12,
12,
5,
5,
1,
1,
8,
8,
13,
13,
12,
12,
9,
9,
9,
9,
4,
4,
3,
3,
3,
3,
-1,
-1,
4,
4,
8,
8,
14,
14,
8,
8,
2,
2,
0,
0,
5,
5,
6,
6,
0,
0,
0,
0,
1,
1,
1,
1,
6,
6,
6,
6,
1,
1,
6,
6,
8,
8,
8,
8,
9,
9,
4,
4,
5,
5,
13,
13,
7,
7,
1,
1,
7,
7,
1,
12,
12,
1,
3,
3,
6,
6,
4,
4,
2,
2,
-1,
-1,
6,
6,
6,
6,
8,
8,
7,
7,
6,
6,
8,
8,
1,
13,
12,
12,
12,
1,
1,
1,
8,
8,
15,
15,
10,
-1,
0,
0,
1,
1,
8,
8,
6,
6,
3,
3,
2,
2,
1,
1,
-1,
-1,
1,
1,
0,
0,
5,
5,
15,
15,
14,
3,
4,
4,
5,
5,
12,
12,
3,
3,
6,
6,
2,
2,
10,
10,
1,
13,
12,
29,
29,
29,
27,
27,
22,
22,
13,
1,
2,
2,
7,
21,
20,
20,
30,
30,
26,
14,
14,
14,
11,
11,
15,
15,
17,
17,
15,
15,
7,
7,
0,
0,
8,
20,
20,
20,
25,
25,
23,
12,
12,
12,
8,
8,
10,
10,
6,
6,
1,
1,
1,
1,
1,
1,
1,
1,
1,
1,
-1,
-1,
0,
0,
4,
4,
6,
6,
4,
4,
2,
2,
4,
4,
9,
9,
8,
8,
2,
2,
2,
2,
5,
5,
1,
1,
2,
2,
2,
2,
8,
8,
7,
7,
0,
0,
6,
6,
3,
3,
4,
4,
8,
8,
1,
1,
0,
12,
11,
11,
5,
5,
4,
4,
0,
0,
4,
4,
3,
3,
2,
2,
2,
2,
1,
1,
5,
5,
0,
12,
12,
12,
16,
16,
9,
9,
1,
1,
6,
6,
8,
8,
0,
0,
0,
0,
7,
24,
24,
24,
15,
0,
2,
17,
16,
16,
22,
5,
5,
17,
15,
15,
5,
5,
10,
10,
10,
10,
15,
44,
43,
26,
26,
2,
3,
20,
19,
19,
25,
25,
25,
25,
21,
4,
5,
5,
1,
1,
1,
1,
5,
5,
0,
0,
6,
6,
7,
7,
2,
2,
3,
3,
8,
8,
6,
6,
8,
8,
14,
14,
13,
13,
10,
10,
8,
8,
5,
5,
9,
9,
14,
14,
9,
9,
2,
2,
9,
9,
14,
14,
18,
18,
11,
-1,
0,
0,
1,
1,
5,
5,
7,
7,
0,
0,
5,
5,
2,
13,
11,
11,
1,
1,
9,
9,
10,
10,
16,
16,
16,
1,
4,
4,
6,
6,
10,
10,
7,
7,
6,
6,
6,
6,
2,
2,
5,
5,
7,
7,
4,
4,
0,
0,
3,
3,
2,
2,
2,
2,
6,
6,
11,
11,
9,
9,
4,
4,
1,
1,
-1,
-1,
1,
1,
