EMG_S3/DS0049.CSV

Memory Length,4000,
Trigger Level,-4.80000e+02,
Source,CH1,
Probe,1.0X,
Vertical Units,V,
Vertical Scale,1.00000e+00,
Vertical Position,0.00000e+00,
Horizontal Units,S,
Horizontal Scale,1.00000e-01,
Horizontal Position,0.0000000e+00,
Horizontal Mode,Roll Mode,
Waveform Last Dot Address,4000,
Sampling Period,4.00000e-04,
Firmware,V1.14,
Time, ,
Mode,Fast,
Waveform Data,
9,
9,
1,
13,
12,
12,
6,
6,
6,
6,
12,
12,
6,
6,
5,
5,
1,
1,
2,
2,
4,
4,
3,
3,
8,
8,
13,
13,
7,
7,
5,
5,
11,
11,
2,
19,
18,
29,
29,
9,
10,
29,
29,
43,
41,
13,
14,
1,
5,
5,
10,
10,
14,
14,
18,
18,
17,
17,
12,
12,
3,
3,
2,
2,
6,
6,
8,
8,
1,
1,
10,
10,
9,
9,
6,
6,
9,
30,
30,
30,
27,
1,
2,
2,
6,
6,
9,
9,
18,
29,
28,
28,
18,
2,
6,
28,
27,
27,
32,
32,
23,
2,
2,
18,
18,
18,
20,
2,
4,
4,
6,
6,
1,
1,
6,
6,
10,
10,
10,
10,
9,
9,
5,
5,
2,
2,
0,
0,
4,
4,
6,
6,
9,
9,
9,
9,
9,
9,
13,
2,
2,
13,
12,
12,
11,
11,
16,
3,
5,
17,
15,
1,
4,
4,
6,
6,
10,
10,
8,
8,
3,
3,
3,
3,
10,
10,
3,
3,
3,
3,
6,
6,
4,
4,
10,
10,
10,
10,
11,
11,
5,
5,
2,
2,
5,
5,
1,
15,
14,
14,
18,
18,
15,
15,
13,
13,
13,
13,
6,
6,
1,
1,
1,
1,
-1,
-1,
8,
27,
26,
26,
33,
33,
26,
12,
12,
0,
1,
1,
8,
8,
16,
27,
26,
26,
18,
5,
20,
20,
22,
1,
2,
2,
2,
2,
2,
2,
5,
5,
0,
0,
-1,
-1,
3,
3,
10,
10,
9,
9,
5,
5,
2,
2,
9,
9,
12,
12,
7,
7,
1,
1,
6,
18,
17,
17,
16,
1,
4,
4,
7,
7,
2,
2,
1,
1,
1,
1,
8,
56,
56,
56,
61,
9,
9,
20,
20,
20,
30,
30,
26,
26,
17,
17,
10,
10,
6,
6,
2,
2,
0,
0,
2,
2,
6,
6,
9,
9,
9,
9,
4,
4,
2,
2,
9,
9,
13,
13,
10,
10,
2,
2,
4,
17,
16,
16,
17,
17,
11,
11,
8,
8,
10,
10,
2,
2,
11,
11,
16,
16,
14,
14,
10,
10,
16,
16,
13,
1,
1,
1,
8,
8,
6,
6,
2,
2,
2,
18,
18,
18,
14,
14,
10,
10,
6,
6,
5,
5,
5,
5,
1,
1,
7,
7,
12,
12,
12,
12,
10,
10,
10,
10,
8,
8,
8,
8,
0,
0,
9,
9,
17,
17,
14,
14,
11,
11,
6,
6,
1,
1,
5,
5,
5,
5,
2,
2,
2,
2,
1,
1,
4,
4,
6,
6,
1,
1,
0,
0,
2,
2,
3,
14,
13,
13,
16,
2,
7,
7,
15,
15,
5,
5,
8,
8,
12,
0,
1,
1,
2,
2,
5,
5,
12,
12,
7,
7,
1,
1,
4,
4,
5,
5,
3,
3,
2,
2,
4,
4,
5,
5,
2,
2,
6,
6,
13,
28,
27,
6,
6,
6,
10,
10,
13,
13,
9,
9,
2,
2,
9,
9,
12,
1,
3,
16,
16,
16,
20,
20,
18,
18,
12,
12,
3,
18,
18,
18,
24,
4,
4,
4,
5,
5,
3,
26,
26,
11,
11,
11,
11,
11,
14,
14,
14,
14,
10,
10,
1,
1,
3,
3,
2,
2,
11,
11,
19,
19,
13,
0,
1,
1,
1,
1,
0,
0,
3,
3,
1,
1,
10,
10,
15,
15,
13,
13,
8,
8,
4,
4,
1,
1,
7,
7,
6,
6,
4,
4,
0,
0,
1,
1,
1,
1,
6,
6,
6,
6,
0,
0,
2,
2,
7,
7,
5,
5,
2,
2,
2,
2,
0,
0,
1,
1,
-1,
-1,
3,
3,
7,
7,
6,
6,
1,
1,
0,
0,
1,
1,
-1,
-1,
2,
2,
6,
6,
10,
10,
1,
1,
4,
18,
17,
17,
20,
20,
15,
15,
9,
9,
6,
6,
3,
26,
25,
45,
43,
8,
8,
8,
8,
33,
32,
32,
35,
10,
11,
11,
2,
17,
17,
32,
31,
18,
19,
3,
10,
22,
21,
6,
6,
6,
5,
19,
18,
18,
20,
20,
11,
11,
11,
11,
5,
5,
4,
4,
6,
6,
2,
2,
4,
4,
6,
6,
2,
26,
25,
41,
40,
25,
26,
4,
5,
5,
10,
10,
9,
9,
12,
12,
2,
2,
6,
6,
6,
6,
5,
5,
6,
6,
6,
6,
7,
7,
11,
11,
2,
2,
0,
0,
2,
2,
6,
6,
0,
0,
7,
7,
10,
10,
11,
11,
6,
6,
1,
1,
9,
9,
13,
13,
6,
6,
0,
0,
2,
2,
2,
2,
1,
1,
1,
1,
4,
4,
12,
12,
10,
10,
5,
5,
5,
5,
5,
5,
1,
1,
5,
5,
10,
10,
8,
8,
0,
0,
-1,
-1,
0,
0,
-1,
-1,
-1,
-1,
2,
2,
4,
4,
5,
5,
5,
5,
6,
6,
9,
9,
6,
25,
24,
24,
23,
23,
16,
16,
8,
8,
4,
4,
6,
6,
13,
13,
17,
17,
14,
14,
13,
13,
12,
12,
20,
20,
13,
1,
6,
6,
8,
8,
16,
34,
34,
34,
25,
2,
2,
2,
2,
2,
1,
14,
14,
14,
5,
5,
14,
34,
33,
22,
22,
4,
9,
25,
24,
24,
18,
3,
4,
21,
21,
21,
26,
26,
24,
3,
5,
21,
21,
21,
25,
25,
22,
22,
17,
1,
2,
2,
7,
7,
6,
6,
3,
3,
2,
2,
12,
24,
24,
24,
19,
2,
4,
18,
18,
18,
20,
7,
8,
8,
1,
1,
1,
1,
6,
6,
1,
1,
2,
2,
1,
1,
0,
0,
1,
1,
1,
1,
1,
12,
12,
12,
13,
2,
8,
8,
6,
6,
6,
6,
1,
1,
4,
4,
7,
7,
5,
5,
1,
1,
0,
0,
-2,
-2,
5,
5,
12,
12,
13,
13,
18,
5,
5,
22,
22,
22,
18,
18,
11,
11,
10,
10,
6,
6,
7,
7,
7,
7,
1,
1,
6,
6,
10,
10,
6,
6,
0,
0,
2,
2,
-1,
-1,
2,
2,
9,
9,
13,
13,
9,
9,
7,
7,
1,
14,
14,
14,
11,
11,
14,
14,
15,
15,
5,
5,
1,
1,
9,
9,
14,
14,
10,
10,
4,
4,
7,
7,
11,
11,
10,
10,
14,
30,
29,
15,
16,
1,
2,
2,
6,
6,
2,
2,
0,
0,
0,
0,
0,
0,
0,
0,
1,
1,
8,
20,
20,
20,
23,
6,
7,
23,
22,
22,
26,
26,
21,
9,
10,
10,
5,
5,
7,
7,
12,
1,
6,
6,
12,
12,
11,
11,
18,
18,
21,
21,
14,
14,
8,
8,
2,
2,
1,
1,
10,
10,
13,
13,
13,
13,
9,
9,
9,
9,
2,
2,
4,
4,
2,
2,
2,
2,
6,
6,
6,
6,
3,
3,
1,
1,
0,
0,
-2,
-2,
2,
2,
12,
12,
14,
14,
6,
22,
22,
22,
17,
0,
1,
1,
5,
5,
10,
10,
12,
12,
6,
6,
7,
7,
6,
6,
6,
6,
12,
12,
10,
10,
2,
2,
9,
9,
5,
5,
4,
4,
6,
6,
8,
8,
14,
14,
6,
6,
5,
5,
1,
1,
1,
1,
5,
5,
9,
9,
8,
8,
14,
14,
17,
3,
4,
4,
3,
3,
0,
0,
-1,
-1,
4,
4,
4,
4,
4,
4,
11,
11,
13,
28,
27,
27,
30,
4,
4,
17,
15,
3,
10,
21,
17,
2,
5,
5,
6,
6,
2,
2,
6,
6,
12,
12,
16,
16,
14,
14,
12,
12,
10,
10,
6,
6,
2,
2,
5,
5,
1,
1,
2,
2,
5,
5,
13,
13,
11,
11,
12,
12,
16,
16,
17,
17,
14,
14,
6,
6,
0,
0,
4,
4,
10,
10,
12,
12,
9,
9,
6,
6,
6,
6,
5,
5,
6,
6,
11,
11,
5,
16,
16,
16,
12,
0,
1,
1,
0,
0,
0,
0,
4,
4,
4,
4,
1,
1,
3,
3,
2,
2,
6,
6,
9,
9,
7,
7,
13,
29,
29,
29,
22,
0,
0,
0,
4,
4,
1,
12,
10,
10,
20,
20,
26,
26,
22,
22,
17,
17,
9,
9,
6,
6,
5,
5,
2,
2,
2,
2,
8,
8,
3,
17,
16,
29,
27,
27,
23,
23,
25,
10,
10,
10,
13,
1,
2,
20,
20,
20,
19,
6,
6,
6,
0,
12,
12,
12,
18,
18,
13,
13,
8,
8,
2,
15,
15,
15,
22,
22,
28,
28,
30,
17,
18,
2,
7,
7,
15,
15,
14,
14,
15,
2,
2,
2,
2,
2,
-2,
-2,
6,
6,
2,
2,
10,
10,
13,
13,
8,
8,
2,
2,
2,
2,
6,
6,
9,
9,
9,
9,
2,
13,
12,
12,
7,
7,
3,
3,
6,
6,
4,
4,
2,
2,
4,
4,
8,
8,
1,
18,
17,
17,
18,
7,
8,
8,
0,
0,
2,
2,
3,
3,
4,
4,
1,
1,
4,
4,
6,
6,
7,
7,
1,
1,
0,
0,
2,
2,
3,
3,
1,
1,
1,
1,
0,
0,
0,
0,
1,
1,
0,
0,
2,
2,
2,
2,
2,
2,
2,
2,
8,
8,
1,
1,
3,
3,
1,
1,
0,
0,
7,
7,
1,
1,
3,
3,
0,
0,
5,
5,
4,
4,
0,
20,
20,
32,
31,
18,
19,
8,
9,
9,
4,
17,
16,
16,
20,
20,
21,
21,
12,
12,
10,
10,
5,
5,
-2,
-2,
1,
1,
2,
2,
6,
6,
10,
10,
10,
10,
4,
4,
3,
3,
2,
2,
5,
16,
15,
26,
21,
3,
5,
20,
20,
20,
25,
14,
15,
1,
4,
4,
1,
1,
10,
10,
3,
3,
6,
6,
12,
12,
8,
47,
46,
64,
62,
32,
32,
5,
9,
27,
26,
26,
30,
30,
28,
28,
22,
22,
15,
15,
11,
11,
2,
2,
4,
4,
8,
8,
5,
5,
2,
2,
2,
2,
-1,
-1,
3,
3,
8,
8,
15,
15,
18,
18,
14,
14,
6,
6,
4,
4,
13,
13,
11,
11,
6,
6,
2,
2,
1,
1,
4,
4,
2,
2,
4,
4,
2,
2,
4,
4,
1,
1,
5,
5,
5,
5,
1,
1,
3,
3,
0,
0,
3,
3,
2,
2,
2,
2,
0,
0,
-1,
-1,
2,
2,
3,
3,
2,
2,
0,
0,
0,
0,
0,
0,
5,
5,
8,
8,
1,
1,
3,
3,
4,
4,
11,
11,
6,
6,
2,
2,
6,
6,
12,
12,
11,
11,
7,
7,
5,
5,
3,
3,
8,
8,
5,
5,
2,
2,
8,
8,
6,
6,
2,
14,
14,
14,
18,
1,
3,
3,
9,
9,
4,
4,
10,
10,
11,
11,
18,
18,
10,
10,
5,
5,
1,
1,
5,
5,
1,
1,
8,
8,
4,
4,
0,
0,
4,
4,
6,
6,
5,
5,
3,
3,
2,
2,
10,
10,
5,
5,
6,
6,
14,
14,
14,
1,
1,
1,
4,
18,
17,
17,
12,
12,
8,
8,
6,
6,
1,
1,
2,
2,
6,
6,
4,
4,
7,
7,
7,
7,
14,
14,
14,
14,
7,
7,
15,
15,
22,
22,
28,
10,
11,
11,
10,
10,
15,
15,
14,
14,
8,
8,
1,
1,
-1,
-1,
5,
5,
10,
10,
13,
13,
4,
4,
12,
12,
18,
18,
9,
9,
4,
4,
8,
8,
9,
9,
10,
10,
8,
8,
5,
5,
6,
24,
23,
5,
6,
6,
5,
5,
8,
8,
14,
14,
17,
17,
20,
20,
16,
16,
9,
9,
1,
1,
4,
4,
3,
3,
4,
4,
4,
4,
1,
1,
3,
15,
14,
14,
18,
18,
13,
13,
4,
4,
5,
5,
2,
2,
3,
3,
2,
2,
9,
9,
11,
11,
7,
7,
7,
7,
3,
3,
1,
1,
8,
8,
2,
2,
10,
10,
5,
5,
5,
5,
14,
14,
13,
13,
6,
6,
3,
18,
17,
17,
14,
1,
4,
21,
21,
21,
22,
2,
4,
4,
10,
21,
20,
20,
24,
24,
17,
1,
3,
3,
7,
7,
7,
7,
5,
5,
1,
1,
8,
8,
12,
1,
2,
29,
28,
42,
41,
27,
27,
8,
8,
8,
10,
10,
6,
6,
14,
3,
5,
20,
20,
20,
22,
22,
20,
20,
14,
14,
10,
10,
7,
7,
1,
1,
4,
4,
5,
5,
1,
17,
17,
33,
32,
19,
19,
3,
10,
29,
29,
29,
33,
8,
17,
52,
51,
24,
24,
4,
8,
8,
13,
2,
4,
4,
6,
6,
6,
6,
13,
13,
16,
16,
16,
16,
9,
9,
1,
1,
2,
2,
1,
1,
2,
2,
6,
6,
1,
41,
40,
65,
64,
33,
33,
4,
6,
17,
15,
15,
18,
18,
23,
23,
23,
23,
18,
18,
10,
10,
5,
5,
1,
1,
-1,
-1,
1,
1,
2,
2,
5,
5,
8,
8,
9,
9,
1,
1,
1,
1,
5,
5,
6,
6,
6,
6,
8,
8,
7,
7,
7,
7,
0,
0,
8,
8,
6,
6,
1,
1,
3,
3,
4,
4,
8,
8,
10,
10,
11,
11,
4,
22,
21,
21,
25,
10,
11,
11,
6,
6,
6,
6,
4,
4,
5,
5,
12,
12,
15,
15,
24,
24,
28,
10,
11,
11,
16,
16,
6,
6,
2,
21,
20,
32,
32,
32,
31,
17,
17,
1,
3,
3,
10,
10,
18,
18,
18,
18,
17,
17,
14,
14,
18,
18,
19,
19,
9,
9,
13,
24,
23,
23,
26,
26,
30,
30,
28,
28,
20,
2,
2,
15,
14,
14,
18,
7,
8,
8,
1,
16,
15,
15,
14,
3,
10,
10,
18,
18,
14,
14,
7,
7,
8,
8,
9,
9,
3,
3,
3,
3,
2,
2,
4,
4,
0,
0,
2,
2,
6,
19,
18,
18,
24,
24,
20,
2,
2,
2,
0,
0,
4,
4,
8,
26,
25,
25,
27,
5,
10,
24,
22,
22,
15,
15,
18,
18,
11,
11,
5,
5,
2,
2,
10,
24,
23,
23,
20,
20,
15,
15,
18,
18,
10,
10,
4,
4,
13,
25,
24,
24,
26,
26,
22,
7,
7,
7,
4,
4,
10,
10,
8,
8,
8,
8,
13,
13,
9,
9,
6,
6,
5,
5,
10,
10,
6,
6,
10,
10,
12,
12,
12,
12,
10,
10,
11,
11,
13,
13,
10,
10,
10,
10,
2,
2,
3,
3,
7,
7,
12,
12,
16,
16,
17,
17,
9,
9,
10,
10,
9,
9,
1,
25,
24,
41,
41,
41,
39,
21,
21,
4,
13,
13,
20,
20,
14,
14,
12,
12,
12,
12,
14,
14,
9,
9,
5,
18,
17,
17,
14,
1,
3,
3,
8,
8,
9,
9,
4,
4,
2,
2,
1,
1,
2,
2,
1,
1,
2,
2,
2,
2,
2,
2,
4,
4,
4,
4,
-1,
-1,
0,
0,
0,
0,
0,
0,
1,
1,
3,
18,
17,
17,
12,
12,
8,
8,
9,
9,
6,
6,
6,
6,
4,
4,
9,
9,
2,
2,
6,
6,
5,
5,
13,
25,
24,
24,
23,
9,
9,
36,
35,
51,
46,
14,
14,
0,
0,
0,
0,
0,
0,
15,
14,
14,
22,
22,
21,
4,
5,
5,
9,
9,
19,
19,
17,
3,
14,
35,
33,
9,
10,
40,
40,
40,
34,
7,
8,
8,
5,
5,
8,
8,
10,
10,
6,
6,
8,
8,
3,
3,
5,
5,
8,
8,
0,
0,
4,
4,
1,
1,
1,
1,
0,
0,
6,
6,
14,
14,
21,
21,
21,
4,
9,
33,
33,
33,
29,
17,
17,
2,
3,
3,
2,
21,
21,
21,
23,
4,
8,
28,
28,
28,
23,
11,
12,
12,
4,
4,
2,
2,
8,
8,
13,
13,
7,
7,
5,
5,
2,
2,
0,
0,
1,
1,
9,
21,
20,
20,
20,
20,
19,
19,
18,
18,
10,
10,
3,
3,
8,
8,
11,
11,
13,
13,
11,
0,
1,
1,
1,
1,
7,
7,
9,
9,
9,
9,
4,
4,
6,
6,
8,
8,
0,
0,
6,
6,
12,
12,
21,
21,
23,
10,
10,
10,
6,
6,
1,
1,
6,
6,
7,
7,
4,
4,
2,
2,
5,
5,
2,
14,
13,
2,
3,
3,
12,
12,
11,
11,
2,
2,
5,
5,
3,
3,
6,
6,
1,
1,
0,
0,
0,
0,
1,
1,
1,
1,
6,
6,
7,
7,
0,
0,
8,
8,
16,
16,
14,
14,
9,
9,
2,
2,
2,
2,
5,
5,
1,
1,
5,
5,
11,
11,
10,
10,
8,
8,
9,
9,
15,
1,
1,
26,
26,
58,
57,
57,
51,
18,
18,
5,
16,
16,
22,
22,
21,
21,
28,
28,
27,
27,
21,
21,
18,
6,
7,
7,
10,
10,
14,
14,
10,
10,
6,
6,
11,
11,
12,
1,
2,
2,
5,
5,
4,
4,
9,
9,
5,
5,
4,
4,
0,
0,
10,
10,
1,
1,
9,
9,
1,
1,
1,
1,
5,
5,
4,
4,
0,
0,
1,
1,
1,
1,
4,
4,
9,
9,
14,
14,
21,
21,
17,
2,
5,
19,
18,
18,
18,
18,
15,
15,
9,
9,
2,
2,
8,
8,
10,
10,
1,
1,
4,
4,
0,
0,
2,
2,
6,
6,
2,
2,
5,
5,
10,
10,
7,
7,
3,
3,
1,
1,
6,
6,
14,
14,
13,
13,
4,
4,
8,
8,
2,
2,
11,
11,
8,
8,
2,
2,
8,
8,
10,
10,
6,
6,
2,
2,
2,
2,
6,
6,
12,
1,
4,
4,
10,
10,
10,
10,
9,
9,
1,
1,
0,
0,
3,
3,
2,
2,
1,
1,
5,
5,
9,
9,
5,
5,
3,
3,
4,
4,
7,
7,
1,
1,
4,
4,
1,
1,
9,
9,
10,
-1,
1,
1,
0,
0,
4,
4,
5,
5,
4,
4,
0,
0,
0,
0,
1,
1,
2,
2,
3,
3,
1,
1,
2,
2,
-1,
-1,
0,
0,
0,
0,
0,
0,
3,
3,
4,
4,
1,
1,
0,
0,
0,
0,
0,
0,
6,
6,
6,
6,
5,
5,
6,
6,
5,
5,
4,
4,
12,
12,
17,
17,
24,
24,
16,
3,
12,
26,
26,
39,
38,
23,
23,
9,
11,
0,
2,
16,
15,
26,
25,
25,
16,
16,
10,
21,
20,
20,
19,
4,
13,
13,
18,
1,
2,
2,
4,
4,
6,
6,
5,
5,
5,
5,
10,
10,
10,
10,
2,
2,
8,
8,
14,
14,
5,
25,
25,
36,
34,
34,
28,
10,
11,
11,
6,
17,
16,
16,
21,
21,
26,
13,
13,
2,
3,
3,
6,
6,
6,
6,
6,
6,
9,
9,
5,
5,
1,
1,
-1,
-1,
0,
0,
1,
1,
3,
3,
6,
6,
5,
5,
5,
5,
1,
1,
0,
0,
2,
2,
2,
2,
1,
1,
2,
2,
0,
0,
4,
4,
5,
5,
9,
9,
5,
5,
1,
1,
10,
10,
20,
20,
11,
25,
25,
25,
25,
2,
2,
2,
5,
5,
2,
2,
-1,
-1,
2,
2,
0,
0,
0,
0,
6,
6,
5,
5,
2,
2,
2,
2,
2,
2,
2,
2,
3,
3,
9,
9,
10,
10,
2,
2,
1,
1,
1,
1,
1,
1,
-2,
-2,
2,
2,
1,
1,
6,
6,
6,
6,
2,
15,
14,
26,
25,
25,
21,
2,
2,
21,
21,
21,
29,
29,
25,
25,
24,
12,
12,
1,
5,
24,
22,
22,
23,
3,
3,
3,
5,
5,
2,
2,
6,
6,
4,
4,
0,
0,
0,
18,
17,
17,
19,
2,
2,
2,
7,
7,
13,
13,
10,
10,
1,
1,
4,
4,
9,
9,
16,
16,
10,
10,
2,
16,
16,
16,
14,
3,
3,
3,
9,
22,
21,
5,
6,
32,
31,
31,
28,
8,
9,
9,
-1,
-1,
0,
0,
5,
5,
10,
10,
4,
17,
17,
17,
10,
10,
9,
9,
9,
9,
10,
10,
10,
10,
10,
10,
5,
5,
1,
1,
3,
17,
17,
17,
20,
20,
11,
11,
6,
6,
1,
1,
2,
2,
4,
4,
0,
0,
0,
0,
-1,
-1,
2,
2,
-1,
-1,
1,
1,
0,
0,
0,
0,
5,
5,
2,
2,
1,
1,
5,
5,
9,
9,
14,
14,
11,
11,
8,
8,
4,
21,
20,
20,
17,
4,
5,
5,
-1,
-1,
6,
6,
0,
0,
3,
3,
10,
10,
6,
6,
2,
2,
7,
7,
10,
10,
6,
6,
0,
12,
12,
12,
18,
18,
20,
4,
5,
5,
5,
5,
6,
6,
2,
2,
2,
2,
2,
2,
2,
14,
13,
27,
24,
3,
5,
21,
20,
20,
20,
9,
9,
9,
2,
2,
2,
2,
6,
6,
10,
10,
9,
9,
0,
0,
2,
2,
4,
4,
6,
6,
0,
0,
0,
0,
-2,
-2,
2,
2,
6,
6,
1,
12,
11,
11,
4,
4,
5,
5,
12,
12,
8,
8,
2,
2,
4,
4,
14,
14,
10,
10,
1,
1,
4,
4,
1,
1,
0,
0,
4,
4,
1,
13,
12,
12,
6,
6,
2,
2,
5,
5,
5,
5,
3,
3,
5,
5,
6,
6,
4,
19,
18,
18,
14,
0,
2,
2,
8,
8,
11,
11,
10,
10,
16,
16,
23,
10,
10,
10,
8,
8,
10,
42,
42,
61,
59,
41,
41,
24,
25,
5,
15,
50,
49,
49,
49,
13,
13,
13,
16,
3,
16,
16,
14,
14,
8,
8,
6,
6,
2,
2,
1,
1,
5,
5,
3,
3,
3,
3,
1,
1,
1,
1,
4,
4,
11,
11,
12,
12,
5,
5,
9,
9,
8,
8,
2,
2,
4,
4,
4,
4,
3,
3,
4,
4,
6,
6,
10,
21,
20,
20,
22,
5,
9,
29,
29,
29,
34,
34,
36,
13,
14,
1,
7,
20,
20,
20,
28,
28,
35,
35,
38,
38,
35,
16,
16,
2,
7,
29,
28,
28,
37,
37,
31,
16,
17,
2,
2,
2,
3,
3,
5,
5,
9,
9,
7,
7,
0,
0,
4,
4,
4,
4,
2,
2,
4,
4,
1,
1,
10,
25,
24,
6,
20,
51,
50,
17,
18,
3,
6,
6,
8,
8,
4,
4,
0,
15,
14,
14,
9,
9,
12,
12,
14,
14,
19,
19,
27,
27,
28,
28,
23,
4,
5,
5,
4,
4,
4,
4,
14,
33,
32,
32,
26,
26,
24,
11,
12,
12,
14,
25,
24,
5,
5,
5,
8,
8,
15,
15,
14,
14,
16,
16,
15,
15,
11,
11,
2,
2,
2,
2,
3,
3,
4,
4,
0,
0,
9,
42,
41,
20,
20,
1,
5,
5,
6,
6,
2,
2,
7,
18,
17,
17,
19,
3,
4,
4,
7,
7,
3,
3,
1,
1,
2,
2,
2,
2,
1,
1,
2,
2,
2,
2,
1,
1,
0,
0,
1,
1,
2,
2,
2,
2,
9,
9,
11,
11,
6,
6,
4,
4,
3,
3,
2,
2,
1,
1,
4,
4,
0,
0,
6,
6,
12,
12,
6,
17,
16,
16,
8,
8,
7,
7,
1,
1,
0,
0,
1,
1,
3,
3,
3,
3,
9,
20,
20,
20,
23,
23,
22,
22,
19,
2,
5,
18,
17,
17,
14,
14,
16,
16,
10,
10,
10,
10,
13,
2,
2,
2,
1,
1,
2,
2,
1,
1,
0,
0,
1,
1,
2,
2,
6,
6,
13,
0,
2,
2,
1,
1,
7,
21,
21,
2,
2,
16,
16,
16,
22,
22,
21,
21,
16,
16,
18,
2,
2,
2,
11,
11,
11,
11,
14,
14,
7,
7,
3,
3,
4,
4,
4,
4,
5,
5,
7,
7,
1,
12,
11,
11,
18,
18,
9,
9,
15,
50,
49,
49,
40,
5,
7,
28,
28,
28,
31,
18,
18,
18,
17,
17,
13,
13,
13,
13,
16,
16,
12,
1,
2,
14,
13,
13,
14,
14,
7,
7,
3,
3,
3,
3,
2,
2,
0,
0,
0,
0,
3,
15,
14,
14,
21,
21,
13,
13,
3,
3,
4,
4,
11,
11,
14,
14,
14,
14,
11,
11,
7,
7,
8,
8,
1,
1,
6,
6,
6,
6,
4,
4,
6,
6,
3,
3,
0,
0,
1,
23,
23,
23,
30,
6,
7,
7,
10,
10,
11,
11,
11,
11,
14,
14,
14,
1,
2,
2,
9,
9,
14,
14,
5,
5,
6,
6,
14,
14,
21,
4,
4,
4,
5,
5,
12,
36,
35,
22,
22,
3,
6,
6,
11,
11,
6,
6,
9,
9,
10,
10,
9,
9,
3,
3,
-1,
-1,
5,
5,
14,
14,
10,
10,
3,
3,
1,
1,
6,
6,
1,
1,
6,
6,
6,
6,
3,
3,
10,
10,
12,
12,
9,
9,
8,
8,
13,
13,
14,
14,
14,
14,
16,
16,
8,
8,
4,
4,
7,
7,
6,
6,
16,
16,
15,
1,
3,
3,
13,
29,
28,
28,
20,
5,
20,
32,
31,
31,
22,
8,
8,
8,
3,
3,
8,
8,
5,
18,
18,
18,
14,
14,
12,
12,
