EMG_S3/DS0050.CSV

Memory Length,4000,
Trigger Level,-4.80000e+02,
Source,CH1,
Probe,1.0X,
Vertical Units,V,
Vertical Scale,1.00000e+00,
Vertical Position,0.00000e+00,
Horizontal Units,S,
Horizontal Scale,1.00000e-01,
Horizontal Position,0.0000000e+00,
Horizontal Mode,Roll Mode,
Waveform Last Dot Address,4000,
Sampling Period,4.00000e-04,
Firmware,V1.14,
Time, ,
Mode,Fast,
Waveform Data,
1,
1,
7,
7,
12,
12,
13,
13,
8,
8,
7,
7,
6,
6,
4,
4,
0,
0,
3,
3,
7,
7,
14,
14,
10,
10,
1,
1,
2,
2,
3,
3,
1,
1,
4,
4,
11,
25,
24,
24,
20,
2,
5,
5,
13,
13,
14,
14,
16,
16,
18,
18,
15,
15,
8,
8,
2,
2,
5,
5,
3,
3,
4,
4,
6,
6,
6,
6,
6,
6,
2,
2,
2,
2,
1,
1,
3,
3,
4,
4,
1,
1,
1,
1,
2,
2,
10,
10,
4,
4,
2,
2,
5,
5,
8,
8,
9,
9,
8,
8,
7,
7,
5,
5,
4,
4,
5,
5,
10,
10,
4,
4,
4,
4,
1,
1,
5,
5,
6,
6,
1,
25,
25,
25,
28,
10,
10,
10,
3,
3,
9,
9,
8,
8,
3,
3,
1,
1,
4,
4,
13,
1,
5,
25,
23,
23,
28,
28,
24,
10,
10,
10,
14,
14,
20,
20,
24,
12,
13,
0,
1,
1,
6,
6,
6,
6,
1,
14,
13,
13,
14,
2,
2,
2,
6,
6,
6,
6,
2,
2,
-1,
-1,
1,
1,
-1,
-1,
2,
2,
1,
1,
9,
9,
2,
2,
6,
6,
7,
7,
8,
8,
12,
12,
3,
3,
8,
8,
6,
6,
13,
13,
18,
18,
9,
9,
6,
6,
3,
3,
6,
6,
2,
2,
4,
4,
12,
12,
9,
9,
4,
20,
18,
18,
22,
22,
21,
21,
22,
9,
9,
9,
2,
2,
5,
20,
20,
20,
20,
6,
6,
6,
2,
2,
2,
2,
1,
1,
5,
5,
0,
0,
2,
2,
3,
3,
6,
6,
7,
7,
2,
2,
2,
2,
4,
4,
8,
8,
4,
15,
14,
14,
7,
7,
3,
3,
7,
7,
10,
10,
7,
7,
4,
4,
2,
2,
1,
14,
13,
2,
3,
3,
1,
1,
0,
0,
1,
1,
4,
4,
1,
1,
3,
3,
4,
4,
6,
6,
8,
8,
4,
4,
1,
1,
1,
1,
9,
9,
10,
10,
6,
6,
3,
3,
3,
3,
1,
1,
3,
3,
5,
5,
3,
3,
6,
6,
5,
5,
0,
0,
2,
2,
0,
0,
1,
1,
8,
8,
11,
11,
11,
11,
2,
13,
13,
13,
15,
15,
6,
6,
0,
0,
3,
3,
3,
3,
1,
1,
0,
0,
0,
0,
-1,
-1,
-1,
-1,
-1,
-1,
0,
0,
2,
2,
0,
0,
2,
2,
2,
2,
-1,
-1,
1,
1,
1,
1,
2,
2,
5,
5,
3,
3,
-1,
-1,
5,
5,
5,
5,
5,
27,
26,
37,
33,
12,
12,
0,
1,
1,
5,
5,
13,
13,
18,
18,
16,
16,
13,
13,
12,
12,
8,
8,
1,
1,
1,
1,
1,
1,
7,
7,
1,
1,
1,
1,
8,
8,
11,
0,
1,
1,
7,
7,
6,
6,
2,
2,
2,
2,
0,
14,
14,
14,
23,
23,
17,
2,
3,
3,
6,
6,
14,
14,
24,
24,
26,
5,
6,
35,
33,
21,
21,
1,
1,
1,
2,
2,
5,
5,
6,
6,
7,
7,
2,
2,
10,
10,
1,
1,
6,
6,
7,
7,
6,
6,
2,
2,
0,
0,
-1,
-1,
1,
1,
3,
3,
2,
2,
5,
5,
5,
5,
1,
1,
4,
4,
2,
2,
2,
2,
3,
3,
3,
3,
2,
2,
0,
0,
1,
1,
2,
2,
4,
4,
6,
6,
5,
5,
1,
1,
0,
0,
0,
0,
2,
2,
3,
3,
2,
2,
0,
0,
1,
1,
-1,
-1,
2,
2,
1,
1,
4,
4,
2,
2,
1,
1,
1,
1,
-1,
-1,
3,
3,
2,
2,
1,
1,
0,
0,
2,
2,
2,
2,
6,
6,
2,
2,
0,
0,
-1,
-1,
1,
1,
0,
0,
2,
2,
6,
6,
8,
8,
6,
6,
1,
1,
9,
9,
6,
6,
2,
2,
6,
6,
6,
6,
5,
5,
3,
3,
5,
5,
14,
14,
14,
1,
2,
2,
10,
10,
13,
13,
22,
22,
21,
9,
9,
9,
8,
22,
22,
22,
24,
24,
27,
27,
28,
10,
11,
11,
2,
26,
26,
56,
55,
29,
29,
5,
10,
26,
26,
26,
25,
5,
6,
26,
25,
25,
19,
19,
22,
37,
36,
16,
16,
5,
24,
24,
30,
14,
15,
15,
7,
7,
13,
13,
22,
22,
14,
14,
7,
7,
3,
3,
4,
4,
5,
5,
12,
12,
14,
14,
11,
11,
12,
12,
13,
13,
10,
10,
5,
5,
0,
0,
0,
0,
4,
4,
2,
2,
0,
0,
5,
5,
6,
6,
3,
3,
5,
5,
12,
12,
11,
11,
2,
2,
10,
10,
4,
4,
2,
2,
6,
6,
6,
6,
9,
9,
6,
6,
2,
2,
12,
12,
16,
16,
10,
10,
5,
5,
2,
2,
5,
5,
6,
6,
4,
4,
2,
2,
2,
2,
2,
2,
1,
1,
1,
1,
-1,
-1,
1,
1,
2,
2,
1,
1,
0,
0,
4,
4,
6,
6,
6,
6,
6,
6,
5,
5,
8,
8,
12,
12,
9,
9,
1,
14,
14,
14,
14,
14,
5,
5,
0,
0,
0,
0,
0,
0,
-1,
-1,
2,
2,
3,
3,
2,
2,
6,
6,
8,
8,
4,
4,
1,
1,
6,
6,
10,
10,
5,
5,
5,
5,
2,
2,
1,
1,
7,
7,
4,
4,
10,
10,
20,
8,
8,
8,
8,
8,
10,
10,
4,
4,
2,
13,
13,
26,
26,
26,
26,
14,
15,
2,
3,
3,
4,
4,
10,
10,
18,
18,
15,
15,
8,
8,
4,
4,
1,
1,
4,
21,
20,
20,
27,
27,
18,
5,
18,
34,
33,
33,
34,
21,
21,
2,
5,
5,
8,
8,
9,
9,
7,
7,
6,
6,
4,
4,
2,
2,
6,
6,
9,
9,
9,
9,
5,
5,
3,
3,
1,
1,
2,
2,
11,
26,
26,
26,
23,
23,
14,
1,
3,
3,
10,
10,
14,
14,
14,
14,
8,
8,
4,
4,
2,
2,
9,
9,
5,
5,
2,
2,
5,
5,
5,
5,
1,
1,
2,
2,
8,
8,
10,
10,
2,
2,
6,
6,
8,
8,
5,
5,
11,
11,
13,
13,
9,
9,
2,
2,
10,
10,
6,
6,
2,
2,
2,
2,
1,
1,
6,
6,
9,
9,
9,
9,
3,
3,
6,
6,
9,
9,
9,
9,
8,
8,
2,
2,
9,
9,
8,
8,
0,
0,
4,
4,
5,
5,
2,
2,
2,
2,
5,
5,
5,
5,
14,
54,
53,
29,
29,
7,
18,
18,
16,
2,
4,
4,
3,
3,
12,
12,
15,
15,
14,
14,
10,
10,
7,
7,
6,
6,
1,
1,
0,
0,
6,
6,
6,
6,
8,
8,
11,
11,
10,
10,
7,
7,
6,
6,
14,
14,
9,
9,
5,
5,
1,
1,
8,
8,
9,
9,
7,
7,
11,
11,
12,
12,
6,
6,
1,
1,
3,
3,
5,
5,
2,
2,
9,
9,
9,
9,
7,
7,
5,
5,
1,
1,
1,
1,
8,
22,
21,
7,
8,
8,
2,
15,
14,
14,
14,
1,
3,
3,
4,
4,
0,
0,
-1,
-1,
0,
0,
5,
5,
12,
12,
8,
8,
4,
4,
7,
7,
8,
8,
2,
2,
7,
7,
0,
0,
6,
6,
8,
8,
9,
9,
6,
6,
2,
2,
2,
2,
0,
0,
0,
11,
10,
10,
13,
13,
9,
9,
0,
0,
10,
10,
10,
10,
3,
3,
6,
6,
7,
7,
6,
6,
3,
3,
7,
7,
5,
5,
2,
2,
2,
2,
5,
5,
2,
2,
6,
19,
18,
6,
7,
7,
1,
1,
3,
3,
0,
0,
7,
7,
0,
0,
3,
3,
4,
4,
6,
6,
1,
1,
3,
3,
4,
4,
2,
2,
0,
0,
0,
0,
6,
6,
10,
10,
2,
2,
5,
5,
6,
6,
8,
8,
4,
4,
5,
5,
3,
3,
3,
3,
2,
2,
12,
12,
13,
13,
18,
6,
6,
6,
2,
2,
3,
3,
2,
2,
4,
4,
0,
0,
3,
3,
6,
6,
12,
12,
6,
6,
9,
9,
14,
14,
9,
9,
1,
1,
10,
10,
10,
10,
6,
6,
1,
18,
17,
17,
17,
6,
7,
7,
4,
4,
1,
1,
7,
7,
13,
13,
9,
9,
4,
4,
2,
2,
7,
7,
10,
10,
5,
5,
4,
4,
5,
5,
6,
6,
7,
7,
7,
7,
7,
7,
10,
10,
5,
5,
4,
4,
2,
2,
0,
0,
1,
1,
0,
0,
1,
1,
4,
4,
0,
0,
8,
8,
6,
6,
6,
6,
13,
13,
10,
10,
6,
6,
1,
1,
5,
5,
10,
10,
5,
5,
0,
0,
6,
6,
13,
13,
5,
5,
3,
3,
0,
0,
-1,
-1,
5,
5,
10,
10,
9,
9,
6,
6,
2,
2,
1,
1,
1,
1,
2,
2,
6,
6,
3,
3,
4,
4,
13,
13,
16,
16,
10,
10,
3,
3,
3,
3,
12,
12,
3,
14,
13,
13,
14,
0,
1,
1,
9,
9,
16,
16,
21,
21,
26,
6,
6,
25,
24,
24,
23,
5,
6,
6,
1,
1,
0,
0,
2,
2,
0,
0,
1,
1,
4,
4,
6,
6,
3,
3,
0,
0,
4,
4,
2,
2,
1,
1,
-1,
-1,
-1,
-1,
0,
0,
-1,
-1,
2,
2,
5,
5,
2,
2,
3,
3,
0,
0,
5,
5,
5,
5,
3,
3,
0,
0,
4,
4,
6,
6,
1,
1,
1,
1,
2,
2,
5,
5,
4,
4,
2,
2,
5,
5,
1,
17,
17,
5,
5,
5,
10,
10,
11,
11,
1,
1,
1,
1,
0,
0,
7,
7,
6,
6,
1,
1,
0,
0,
-1,
-1,
1,
1,
5,
5,
6,
6,
4,
4,
1,
1,
0,
0,
4,
4,
2,
2,
6,
6,
6,
6,
2,
2,
0,
0,
2,
2,
3,
14,
13,
13,
15,
15,
10,
10,
2,
2,
1,
1,
6,
6,
6,
6,
4,
4,
8,
8,
12,
12,
11,
11,
4,
4,
13,
13,
17,
17,
11,
11,
4,
4,
2,
2,
5,
5,
2,
2,
9,
9,
14,
14,
6,
6,
0,
0,
4,
4,
9,
9,
6,
6,
2,
2,
6,
6,
6,
6,
0,
0,
4,
4,
1,
21,
20,
20,
20,
1,
3,
3,
8,
8,
13,
2,
3,
3,
6,
6,
11,
11,
15,
15,
18,
18,
13,
0,
1,
1,
3,
3,
3,
3,
5,
5,
6,
6,
5,
5,
2,
2,
2,
2,
2,
2,
1,
1,
2,
2,
0,
0,
-1,
-1,
0,
0,
2,
2,
3,
3,
5,
5,
2,
2,
2,
2,
1,
1,
-2,
-2,
1,
1,
4,
4,
6,
6,
6,
6,
4,
4,
0,
0,
2,
2,
6,
6,
12,
12,
16,
16,
10,
-1,
1,
1,
4,
4,
1,
1,
6,
6,
3,
3,
1,
1,
2,
2,
9,
9,
10,
10,
6,
6,
4,
4,
6,
6,
12,
12,
13,
13,
12,
12,
6,
6,
5,
23,
23,
38,
38,
38,
38,
14,
15,
0,
2,
2,
6,
6,
6,
6,
6,
6,
6,
6,
12,
12,
18,
18,
18,
18,
8,
8,
8,
8,
12,
23,
22,
22,
24,
7,
8,
8,
1,
1,
6,
6,
10,
10,
14,
14,
10,
10,
5,
5,
4,
4,
5,
5,
0,
0,
0,
0,
4,
15,
13,
13,
10,
10,
4,
4,
3,
3,
5,
5,
6,
6,
3,
3,
0,
0,
3,
3,
4,
4,
8,
19,
18,
18,
22,
4,
8,
36,
36,
24,
25,
8,
9,
9,
4,
4,
2,
2,
9,
9,
10,
10,
10,
10,
4,
4,
0,
0,
2,
2,
1,
1,
1,
1,
0,
0,
2,
2,
1,
1,
0,
0,
-1,
-1,
4,
4,
13,
13,
8,
8,
1,
1,
3,
3,
4,
4,
0,
0,
2,
2,
0,
0,
3,
3,
2,
2,
1,
1,
5,
5,
9,
9,
5,
5,
0,
0,
1,
1,
0,
0,
4,
4,
7,
7,
5,
5,
5,
5,
1,
1,
2,
2,
10,
10,
10,
10,
1,
1,
6,
6,
4,
4,
3,
3,
4,
4,
1,
1,
2,
2,
1,
1,
3,
3,
2,
2,
2,
2,
5,
5,
4,
4,
7,
7,
9,
9,
1,
1,
4,
4,
4,
4,
4,
4,
1,
1,
2,
2,
9,
9,
7,
7,
3,
3,
7,
7,
5,
5,
4,
4,
4,
4,
1,
1,
0,
0,
8,
8,
11,
0,
2,
2,
5,
5,
6,
6,
5,
5,
12,
12,
9,
9,
8,
8,
17,
17,
9,
9,
1,
1,
6,
6,
6,
6,
4,
4,
10,
10,
13,
13,
10,
10,
6,
6,
8,
8,
4,
4,
3,
3,
8,
8,
6,
6,
1,
1,
5,
5,
1,
1,
6,
6,
6,
6,
6,
41,
41,
59,
55,
18,
19,
4,
8,
8,
12,
12,
12,
12,
14,
14,
8,
8,
1,
15,
14,
14,
14,
14,
4,
4,
12,
12,
13,
1,
2,
16,
15,
15,
8,
8,
0,
0,
5,
5,
3,
3,
2,
2,
6,
6,
2,
2,
1,
1,
-1,
-1,
2,
2,
4,
4,
1,
1,
9,
9,
12,
12,
7,
7,
1,
1,
0,
0,
0,
0,
2,
2,
4,
4,
9,
9,
4,
4,
2,
2,
2,
2,
0,
0,
1,
1,
1,
1,
6,
6,
5,
5,
4,
4,
14,
14,
10,
10,
14,
36,
34,
34,
29,
10,
10,
10,
0,
0,
-1,
-1,
8,
19,
18,
18,
18,
18,
12,
12,
5,
5,
3,
3,
7,
7,
2,
2,
0,
0,
0,
0,
4,
4,
14,
14,
20,
5,
9,
53,
53,
29,
29,
7,
8,
8,
9,
9,
3,
3,
6,
6,
9,
9,
14,
2,
8,
21,
21,
21,
25,
25,
20,
20,
6,
6,
6,
6,
5,
5,
10,
10,
10,
10,
2,
2,
4,
4,
5,
5,
0,
0,
5,
5,
4,
4,
2,
2,
-1,
-1,
5,
5,
7,
7,
1,
1,
5,
5,
14,
14,
16,
16,
13,
2,
3,
3,
4,
4,
11,
11,
7,
7,
2,
2,
4,
4,
8,
8,
7,
7,
8,
8,
14,
14,
17,
17,
12,
12,
4,
4,
2,
2,
4,
4,
3,
3,
2,
2,
11,
11,
14,
14,
12,
12,
9,
9,
9,
9,
8,
8,
1,
1,
0,
0,
2,
2,
2,
2,
0,
0,
8,
8,
13,
13,
10,
10,
6,
6,
0,
0,
6,
6,
13,
13,
12,
12,
4,
4,
2,
2,
6,
6,
7,
7,
8,
8,
7,
7,
2,
2,
0,
0,
4,
4,
6,
6,
4,
4,
2,
2,
5,
5,
6,
6,
2,
2,
1,
1,
1,
1,
2,
2,
2,
2,
1,
1,
5,
5,
6,
6,
4,
4,
2,
2,
0,
0,
1,
1,
2,
2,
1,
1,
2,
2,
6,
6,
4,
4,
4,
4,
5,
5,
0,
0,
1,
1,
0,
0,
0,
0,
0,
0,
0,
0,
8,
8,
14,
1,
1,
17,
16,
16,
21,
7,
7,
21,
20,
20,
20,
6,
7,
7,
0,
0,
0,
0,
6,
6,
6,
6,
2,
13,
12,
12,
2,
2,
6,
6,
6,
6,
4,
4,
4,
4,
4,
4,
3,
3,
1,
1,
5,
5,
0,
0,
9,
9,
18,
3,
7,
37,
36,
53,
53,
26,
26,
3,
5,
5,
9,
9,
6,
6,
10,
10,
14,
14,
17,
6,
6,
6,
2,
2,
5,
5,
12,
12,
10,
10,
5,
5,
0,
0,
0,
0,
1,
1,
2,
2,
6,
6,
6,
6,
9,
9,
10,
10,
10,
10,
6,
6,
10,
10,
4,
4,
2,
2,
7,
7,
9,
9,
5,
5,
5,
5,
10,
10,
7,
7,
5,
5,
9,
9,
4,
4,
1,
1,
0,
0,
0,
0,
0,
0,
1,
1,
2,
2,
4,
4,
5,
5,
5,
5,
1,
1,
6,
6,
11,
11,
9,
9,
3,
3,
-1,
-1,
0,
0,
6,
6,
9,
9,
3,
3,
4,
4,
5,
5,
8,
8,
13,
13,
10,
10,
6,
6,
1,
14,
13,
13,
11,
11,
9,
9,
0,
0,
1,
1,
2,
2,
2,
2,
8,
8,
9,
9,
6,
6,
2,
2,
2,
2,
4,
4,
6,
6,
6,
6,
1,
1,
2,
2,
1,
1,
1,
1,
0,
0,
1,
1,
6,
6,
2,
2,
0,
0,
2,
2,
2,
2,
11,
11,
11,
11,
3,
3,
1,
1,
8,
8,
2,
2,
4,
4,
10,
10,
13,
13,
4,
4,
4,
4,
6,
6,
5,
5,
4,
4,
0,
0,
3,
3,
5,
5,
4,
4,
2,
2,
-1,
-1,
1,
1,
2,
2,
2,
2,
0,
0,
1,
1,
1,
1,
0,
0,
8,
8,
10,
10,
8,
8,
6,
6,
2,
2,
3,
3,
0,
0,
1,
1,
0,
0,
5,
5,
10,
10,
15,
15,
15,
15,
12,
0,
2,
2,
7,
7,
14,
14,
17,
17,
18,
6,
7,
7,
3,
3,
4,
4,
7,
7,
10,
10,
13,
13,
9,
9,
4,
15,
14,
14,
18,
18,
9,
9,
7,
7,
9,
9,
1,
1,
0,
0,
0,
0,
4,
4,
6,
6,
4,
15,
14,
14,
6,
6,
2,
2,
2,
2,
1,
1,
3,
3,
2,
2,
4,
4,
6,
6,
1,
1,
5,
5,
0,
0,
6,
19,
18,
4,
4,
4,
9,
9,
13,
13,
10,
10,
5,
5,
1,
1,
1,
1,
2,
2,
0,
0,
1,
1,
1,
1,
6,
6,
10,
10,
5,
5,
1,
1,
1,
1,
0,
0,
2,
2,
3,
3,
2,
2,
1,
1,
2,
2,
0,
0,
0,
0,
6,
6,
12,
1,
4,
4,
13,
13,
17,
5,
6,
26,
26,
26,
22,
5,
5,
5,
3,
3,
2,
2,
4,
4,
13,
13,
16,
1,
2,
2,
9,
9,
2,
2,
1,
1,
7,
7,
9,
9,
6,
6,
0,
0,
2,
2,
-1,
-1,
1,
1,
0,
15,
14,
14,
20,
6,
7,
7,
0,
0,
1,
1,
2,
2,
0,
0,
0,
0,
5,
5,
6,
6,
2,
2,
1,
1,
1,
1,
2,
13,
12,
12,
14,
14,
5,
5,
2,
2,
6,
6,
4,
4,
6,
6,
6,
6,
1,
1,
-2,
-2,
1,
1,
1,
1,
1,
1,
0,
0,
4,
4,
2,
2,
3,
3,
9,
9,
2,
2,
9,
9,
18,
18,
14,
31,
30,
50,
48,
24,
24,
2,
5,
5,
14,
14,
14,
14,
14,
14,
16,
16,
13,
13,
10,
10,
2,
2,
0,
0,
2,
2,
2,
2,
-1,
-1,
2,
2,
6,
6,
5,
5,
0,
0,
3,
3,
12,
12,
16,
16,
9,
9,
6,
6,
10,
10,
4,
4,
0,
0,
5,
5,
13,
13,
15,
1,
2,
2,
3,
3,
4,
4,
1,
1,
4,
4,
10,
10,
1,
1,
9,
9,
1,
1,
4,
4,
0,
0,
4,
4,
6,
6,
1,
1,
1,
1,
3,
3,
0,
0,
3,
3,
2,
2,
9,
25,
24,
24,
25,
10,
10,
10,
4,
15,
14,
14,
16,
16,
10,
10,
4,
4,
2,
2,
10,
10,
12,
12,
9,
9,
1,
1,
8,
8,
13,
13,
11,
0,
0,
0,
1,
1,
6,
6,
9,
9,
4,
4,
6,
6,
9,
9,
1,
1,
2,
2,
4,
4,
2,
2,
5,
5,
9,
9,
4,
4,
0,
0,
1,
1,
3,
3,
8,
8,
2,
2,
5,
5,
8,
8,
10,
10,
8,
8,
7,
7,
7,
7,
3,
3,
2,
2,
6,
6,
7,
7,
6,
6,
8,
8,
6,
6,
3,
3,
1,
1,
2,
2,
6,
6,
8,
8,
8,
8,
1,
1,
8,
8,
14,
14,
17,
17,
13,
1,
1,
1,
4,
4,
6,
6,
16,
16,
17,
6,
7,
7,
6,
20,
20,
20,
15,
2,
3,
3,
2,
2,
1,
1,
2,
2,
6,
6,
6,
6,
2,
2,
0,
0,
2,
2,
6,
6,
6,
6,
4,
4,
2,
2,
-1,
-1,
0,
0,
2,
2,
2,
2,
-1,
-1,
4,
4,
6,
6,
3,
3,
2,
2,
5,
5,
6,
6,
5,
5,
1,
1,
0,
0,
0,
0,
1,
1,
-1,
11,
11,
11,
14,
14,
12,
12,
6,
6,
6,
6,
8,
8,
2,
2,
10,
10,
7,
7,
5,
5,
6,
6,
7,
7,
5,
5,
11,
11,
11,
11,
9,
9,
6,
6,
2,
2,
10,
10,
8,
8,
2,
2,
1,
1,
2,
2,
2,
2,
0,
0,
1,
1,
1,
1,
4,
4,
4,
4,
2,
2,
7,
7,
5,
5,
1,
1,
2,
2,
1,
1,
2,
2,
1,
1,
2,
2,
0,
0,
5,
5,
4,
4,
1,
1,
2,
2,
9,
9,
12,
1,
2,
28,
27,
44,
42,
12,
12,
12,
7,
7,
15,
15,
13,
13,
9,
9,
6,
6,
8,
8,
6,
6,
1,
1,
0,
0,
0,
0,
1,
1,
1,
1,
6,
6,
2,
2,
6,
6,
7,
7,
13,
13,
23,
23,
17,
1,
3,
3,
9,
9,
6,
6,
5,
20,
19,
19,
14,
3,
12,
12,
18,
18,
8,
8,
2,
2,
-1,
-1,
5,
5,
12,
12,
10,
10,
2,
2,
5,
5,
0,
0,
0,
0,
0,
0,
-1,
-1,
1,
1,
0,
0,
-1,
-1,
-1,
-1,
-1,
-1,
-1,
-1,
6,
6,
10,
10,
10,
10,
13,
13,
12,
1,
2,
2,
8,
8,
12,
12,
8,
8,
7,
7,
6,
6,
1,
1,
0,
0,
2,
2,
0,
0,
4,
4,
2,
2,
1,
1,
0,
0,
4,
4,
5,
5,
1,
1,
6,
20,
20,
20,
13,
13,
4,
4,
-1,
-1,
-2,
-2,
5,
5,
8,
8,
0,
0,
7,
7,
11,
11,
11,
11,
6,
6,
0,
0,
1,
1,
2,
2,
5,
5,
1,
1,
6,
6,
1,
1,
5,
5,
2,
18,
17,
17,
19,
7,
9,
9,
0,
0,
2,
2,
2,
2,
4,
4,
2,
2,
4,
4,
6,
6,
4,
4,
3,
3,
1,
1,
6,
6,
10,
10,
10,
10,
5,
5,
0,
0,
5,
5,
5,
5,
5,
5,
4,
4,
0,
0,
0,
0,
-1,
-1,
6,
22,
22,
22,
15,
0,
2,
2,
7,
7,
10,
10,
10,
10,
11,
11,
14,
14,
13,
13,
3,
3,
7,
7,
13,
13,
7,
7,
1,
1,
5,
5,
4,
4,
1,
1,
8,
25,
24,
24,
25,
9,
10,
10,
1,
1,
4,
4,
5,
5,
10,
10,
10,
10,
3,
3,
1,
1,
2,
2,
1,
1,
5,
5,
12,
12,
12,
12,
7,
7,
5,
5,
10,
10,
7,
7,
5,
5,
6,
19,
18,
18,
18,
1,
2,
2,
6,
6,
8,
8,
6,
6,
4,
4,
4,
4,
1,
1,
5,
5,
5,
5,
2,
2,
2,
2,
9,
9,
8,
8,
3,
3,
6,
6,
6,
6,
3,
3,
2,
2,
7,
7,
13,
13,
10,
10,
4,
4,
2,
2,
1,
1,
7,
7,
7,
7,
-1,
-1,
1,
1,
2,
2,
1,
1,
2,
2,
6,
6,
2,
2,
10,
10,
18,
18,
18,
2,
2,
13,
13,
13,
12,
12,
8,
8,
4,
4,
3,
3,
2,
2,
4,
4,
7,
7,
8,
8,
1,
1,
6,
6,
2,
2,
3,
3,
0,
0,
6,
6,
5,
5,
2,
2,
1,
1,
-1,
-1,
-1,
-1,
-1,
-1,
2,
2,
3,
3,
1,
1,
1,
1,
2,
2,
0,
0,
4,
4,
2,
2,
-1,
-1,
0,
0,
2,
2,
6,
6,
8,
8,
3,
3,
1,
1,
4,
4,
6,
6,
10,
10,
14,
14,
10,
10,
2,
20,
20,
20,
24,
7,
8,
8,
3,
3,
5,
5,
6,
6,
6,
6,
2,
2,
0,
0,
1,
1,
4,
4,
4,
4,
2,
2,
1,
1,
0,
0,
2,
2,
2,
2,
12,
12,
12,
1,
1,
1,
2,
2,
3,
3,
9,
9,
18,
7,
8,
8,
8,
8,
13,
13,
10,
10,
6,
6,
10,
10,
11,
11,
2,
13,
12,
12,
21,
21,
21,
5,
6,
32,
32,
32,
26,
3,
6,
17,
16,
16,
15,
15,
11,
0,
1,
1,
8,
8,
5,
5,
1,
1,
4,
4,
1,
1,
5,
5,
6,
6,
9,
9,
0,
0,
5,
5,
5,
5,
0,
0,
0,
0,
4,
4,
7,
7,
6,
6,
12,
12,
10,
10,
4,
4,
6,
6,
12,
12,
8,
8,
4,
4,
5,
5,
4,
4,
4,
4,
4,
4,
1,
1,
-1,
-1,
3,
3,
5,
5,
5,
5,
2,
2,
7,
7,
