EMG_S3/DS0048.CSV

Memory Length,4000,
Trigger Level,-4.80000e+02,
Source,CH1,
Probe,1.0X,
Vertical Units,V,
Vertical Scale,1.00000e+00,
Vertical Position,0.00000e+00,
Horizontal Units,S,
Horizontal Scale,1.00000e-01,
Horizontal Position,0.0000000e+00,
Horizontal Mode,Roll Mode,
Waveform Last Dot Address,4000,
Sampling Period,4.00000e-04,
Firmware,V1.14,
Time, ,
Mode,Fast,
Waveform Data,
20,
6,
6,
6,
5,
5,
2,
2,
1,
1,
6,
6,
14,
14,
18,
3,
3,
3,
0,
0,
1,
1,
7,
7,
9,
9,
6,
6,
6,
6,
6,
6,
9,
9,
5,
5,
1,
1,
4,
16,
15,
15,
14,
-1,
-1,
-1,
-1,
-1,
0,
0,
4,
4,
9,
9,
11,
11,
10,
10,
3,
3,
2,
2,
9,
9,
10,
10,
5,
5,
1,
1,
0,
0,
3,
3,
2,
2,
10,
10,
8,
8,
1,
1,
7,
7,
8,
8,
3,
3,
2,
2,
4,
4,
1,
1,
1,
1,
-1,
13,
13,
13,
19,
7,
8,
8,
5,
5,
14,
14,
13,
2,
6,
18,
17,
17,
15,
15,
10,
10,
4,
4,
2,
2,
5,
5,
7,
7,
6,
6,
8,
8,
10,
10,
19,
19,
14,
2,
8,
8,
7,
7,
1,
1,
0,
0,
-1,
-1,
8,
8,
14,
14,
10,
10,
1,
1,
0,
13,
13,
13,
14,
1,
2,
2,
4,
4,
5,
5,
5,
5,
14,
14,
10,
10,
5,
5,
6,
6,
10,
10,
5,
5,
8,
8,
13,
2,
4,
34,
34,
34,
37,
9,
9,
9,
1,
1,
9,
9,
14,
14,
11,
11,
8,
8,
0,
0,
4,
4,
7,
7,
7,
7,
2,
2,
2,
2,
4,
4,
2,
2,
0,
0,
7,
7,
12,
12,
13,
13,
14,
1,
2,
16,
14,
14,
8,
8,
13,
13,
21,
10,
11,
11,
2,
2,
7,
21,
20,
9,
10,
10,
4,
4,
2,
2,
3,
3,
4,
4,
2,
2,
4,
4,
8,
8,
3,
3,
7,
7,
0,
0,
5,
5,
5,
5,
0,
0,
0,
0,
0,
0,
4,
4,
6,
6,
2,
20,
18,
18,
21,
2,
5,
5,
14,
14,
5,
5,
7,
7,
6,
6,
0,
0,
5,
5,
2,
2,
8,
8,
2,
2,
8,
8,
3,
3,
0,
0,
9,
9,
14,
2,
10,
33,
32,
32,
27,
4,
5,
20,
18,
18,
17,
17,
11,
11,
5,
5,
2,
2,
4,
4,
2,
2,
5,
5,
5,
5,
1,
1,
0,
0,
4,
4,
6,
6,
4,
4,
2,
2,
0,
0,
2,
2,
4,
4,
9,
9,
7,
7,
2,
2,
5,
5,
2,
2,
2,
2,
6,
6,
6,
6,
-1,
-1,
2,
2,
2,
2,
3,
3,
10,
10,
17,
17,
13,
13,
9,
9,
1,
1,
10,
10,
13,
13,
5,
5,
7,
7,
14,
14,
11,
11,
3,
29,
29,
40,
37,
16,
17,
5,
5,
5,
2,
2,
6,
6,
6,
6,
5,
5,
7,
7,
9,
9,
6,
6,
2,
2,
1,
1,
2,
2,
5,
5,
6,
6,
6,
6,
1,
13,
13,
13,
13,
13,
8,
8,
2,
2,
1,
1,
0,
0,
5,
5,
1,
13,
13,
13,
12,
12,
9,
9,
8,
8,
1,
1,
6,
6,
9,
9,
6,
6,
3,
3,
0,
0,
0,
0,
2,
2,
8,
8,
10,
10,
8,
8,
3,
3,
2,
2,
2,
2,
1,
1,
4,
4,
4,
4,
9,
21,
19,
19,
16,
2,
2,
2,
6,
6,
2,
22,
21,
21,
17,
1,
3,
3,
2,
2,
0,
0,
5,
5,
9,
9,
10,
10,
2,
2,
-1,
-1,
6,
6,
12,
12,
11,
11,
7,
7,
4,
4,
0,
0,
6,
6,
5,
5,
0,
0,
0,
0,
4,
4,
12,
12,
16,
16,
8,
8,
1,
1,
4,
4,
6,
18,
17,
6,
6,
6,
1,
1,
4,
4,
1,
1,
9,
9,
14,
14,
11,
11,
14,
14,
15,
4,
5,
5,
7,
7,
10,
10,
2,
2,
0,
0,
4,
4,
5,
5,
9,
9,
18,
18,
15,
1,
5,
5,
10,
10,
6,
6,
4,
4,
1,
1,
8,
8,
6,
6,
1,
1,
1,
1,
1,
1,
0,
0,
0,
0,
0,
0,
1,
1,
2,
2,
2,
2,
1,
1,
2,
2,
1,
1,
2,
2,
6,
6,
2,
19,
18,
18,
16,
3,
4,
4,
0,
0,
-1,
-1,
0,
0,
5,
17,
16,
16,
10,
10,
7,
7,
13,
13,
14,
14,
10,
10,
7,
7,
4,
4,
-1,
-1,
0,
0,
3,
3,
0,
0,
2,
2,
4,
4,
4,
4,
0,
0,
0,
0,
1,
1,
0,
0,
-1,
-1,
3,
3,
7,
7,
16,
31,
30,
18,
19,
19,
14,
14,
6,
6,
1,
1,
6,
6,
5,
5,
5,
5,
9,
9,
14,
14,
14,
14,
14,
14,
11,
11,
4,
4,
-1,
-1,
0,
0,
2,
2,
0,
0,
2,
2,
3,
3,
6,
6,
9,
9,
14,
14,
12,
12,
12,
12,
9,
9,
2,
2,
10,
10,
12,
1,
2,
2,
9,
9,
6,
6,
1,
1,
3,
3,
0,
0,
0,
0,
6,
6,
13,
13,
12,
12,
9,
9,
7,
7,
3,
3,
2,
2,
9,
9,
13,
13,
12,
12,
8,
8,
2,
2,
5,
5,
6,
6,
0,
0,
2,
2,
4,
4,
5,
5,
3,
3,
4,
4,
0,
0,
2,
2,
5,
5,
5,
5,
4,
4,
4,
4,
1,
1,
3,
3,
11,
11,
4,
4,
2,
2,
1,
1,
2,
2,
0,
0,
2,
2,
4,
4,
4,
4,
0,
0,
3,
3,
0,
0,
-1,
-1,
1,
1,
2,
2,
1,
1,
-1,
-1,
0,
0,
2,
2,
0,
0,
1,
1,
0,
0,
-1,
-1,
8,
8,
6,
6,
0,
0,
1,
13,
12,
12,
12,
1,
8,
8,
8,
8,
6,
6,
8,
8,
10,
10,
9,
9,
2,
2,
8,
8,
4,
4,
0,
0,
1,
1,
0,
0,
6,
6,
4,
4,
-1,
-1,
0,
0,
6,
6,
9,
9,
1,
1,
4,
4,
4,
4,
3,
3,
4,
4,
2,
2,
6,
6,
4,
4,
1,
1,
1,
1,
3,
3,
4,
4,
0,
0,
2,
2,
5,
5,
4,
4,
2,
2,
0,
0,
3,
3,
5,
5,
6,
6,
7,
7,
8,
8,
9,
9,
5,
5,
5,
16,
16,
16,
19,
19,
16,
16,
13,
13,
12,
12,
8,
8,
2,
16,
16,
16,
18,
18,
12,
12,
4,
4,
2,
2,
4,
4,
0,
0,
0,
0,
2,
2,
3,
3,
5,
5,
6,
6,
3,
3,
2,
2,
6,
6,
5,
5,
1,
1,
5,
5,
6,
6,
1,
1,
2,
2,
0,
0,
1,
1,
1,
1,
1,
1,
1,
1,
3,
3,
4,
4,
-1,
-1,
4,
4,
8,
8,
9,
9,
6,
6,
2,
2,
1,
1,
0,
0,
2,
2,
2,
2,
4,
4,
4,
4,
-1,
-1,
-2,
-2,
1,
1,
6,
6,
2,
2,
12,
12,
16,
16,
10,
-1,
0,
0,
4,
4,
0,
0,
1,
1,
8,
8,
8,
8,
12,
30,
30,
30,
28,
12,
13,
1,
4,
4,
12,
12,
10,
10,
9,
9,
9,
9,
6,
6,
0,
0,
2,
2,
2,
2,
1,
1,
3,
3,
2,
2,
2,
2,
5,
5,
2,
2,
10,
10,
17,
5,
5,
5,
7,
7,
14,
14,
11,
11,
4,
4,
13,
13,
8,
8,
2,
2,
10,
10,
6,
6,
4,
4,
8,
8,
8,
8,
6,
6,
0,
0,
1,
1,
5,
5,
12,
12,
13,
13,
4,
4,
0,
0,
0,
0,
4,
4,
6,
6,
4,
4,
0,
0,
4,
4,
2,
2,
3,
3,
5,
5,
10,
10,
11,
11,
7,
7,
4,
4,
0,
0,
2,
2,
5,
5,
8,
8,
6,
6,
2,
2,
-1,
-1,
2,
2,
5,
5,
2,
2,
-1,
-1,
1,
1,
2,
2,
0,
0,
0,
0,
-1,
-1,
1,
1,
1,
12,
11,
11,
12,
0,
1,
1,
3,
3,
3,
3,
2,
2,
1,
1,
-1,
-1,
5,
5,
8,
8,
4,
4,
12,
12,
5,
5,
7,
7,
5,
5,
0,
0,
-1,
-1,
1,
1,
2,
2,
2,
2,
6,
6,
2,
2,
-1,
-1,
6,
6,
2,
2,
0,
15,
15,
29,
28,
3,
4,
4,
10,
10,
1,
1,
1,
1,
0,
0,
1,
1,
2,
2,
5,
5,
6,
6,
8,
8,
7,
7,
10,
10,
10,
10,
8,
8,
6,
6,
2,
2,
9,
9,
18,
18,
26,
26,
19,
3,
3,
3,
0,
0,
0,
0,
4,
4,
1,
1,
8,
8,
5,
5,
2,
2,
1,
1,
1,
1,
6,
6,
10,
10,
10,
10,
9,
9,
2,
2,
5,
5,
3,
3,
0,
0,
-1,
-1,
1,
1,
1,
1,
4,
4,
13,
13,
21,
21,
29,
4,
5,
19,
19,
19,
10,
-2,
0,
0,
-1,
-1,
0,
0,
3,
3,
6,
6,
5,
5,
3,
3,
6,
6,
6,
6,
1,
1,
1,
1,
4,
4,
8,
8,
14,
14,
16,
16,
13,
2,
12,
29,
28,
28,
21,
10,
10,
10,
11,
11,
14,
14,
10,
10,
1,
12,
11,
11,
16,
16,
13,
13,
10,
10,
9,
9,
8,
8,
8,
8,
2,
2,
4,
4,
3,
3,
0,
0,
3,
3,
6,
6,
9,
9,
14,
14,
12,
12,
5,
22,
22,
10,
12,
12,
9,
9,
9,
9,
3,
3,
4,
4,
14,
14,
8,
8,
5,
5,
7,
7,
11,
11,
11,
11,
5,
5,
6,
6,
15,
1,
3,
3,
13,
13,
16,
4,
5,
5,
1,
1,
-1,
-1,
2,
2,
1,
1,
1,
12,
12,
12,
9,
9,
5,
24,
18,
7,
14,
14,
6,
6,
1,
1,
2,
2,
5,
5,
12,
12,
13,
13,
5,
5,
8,
8,
14,
14,
16,
16,
13,
13,
4,
4,
2,
2,
1,
1,
0,
0,
1,
1,
5,
5,
9,
9,
10,
10,
4,
4,
-1,
-1,
2,
2,
4,
4,
6,
6,
7,
7,
9,
9,
6,
6,
3,
3,
10,
10,
18,
6,
6,
6,
5,
5,
14,
14,
10,
10,
12,
12,
5,
5,
4,
4,
5,
5,
12,
12,
12,
12,
8,
8,
4,
4,
8,
8,
5,
5,
0,
0,
3,
3,
0,
0,
-1,
-1,
2,
2,
1,
1,
1,
1,
8,
8,
16,
16,
14,
14,
4,
4,
1,
1,
5,
5,
12,
12,
3,
3,
1,
1,
3,
3,
6,
6,
4,
4,
5,
5,
12,
12,
20,
20,
18,
4,
13,
34,
33,
33,
28,
14,
14,
0,
1,
1,
3,
3,
13,
13,
17,
17,
10,
10,
9,
9,
6,
6,
5,
5,
1,
1,
6,
6,
6,
6,
5,
5,
7,
7,
0,
0,
4,
4,
8,
8,
2,
13,
12,
25,
24,
24,
16,
16,
16,
16,
11,
11,
2,
19,
18,
18,
26,
26,
24,
24,
20,
4,
4,
4,
7,
7,
13,
13,
23,
23,
14,
1,
4,
4,
6,
6,
7,
7,
3,
3,
2,
2,
2,
2,
1,
18,
17,
17,
12,
0,
0,
0,
4,
4,
6,
6,
6,
6,
7,
7,
8,
8,
2,
2,
7,
7,
11,
11,
8,
8,
1,
1,
1,
1,
4,
4,
11,
11,
12,
1,
3,
18,
17,
17,
13,
13,
5,
5,
2,
2,
3,
3,
4,
4,
4,
4,
7,
7,
3,
3,
1,
1,
6,
6,
4,
4,
0,
0,
-1,
-1,
1,
1,
4,
4,
1,
1,
1,
1,
1,
1,
2,
2,
1,
1,
1,
1,
-1,
-1,
2,
2,
1,
1,
1,
1,
0,
0,
9,
9,
17,
1,
2,
13,
12,
1,
2,
2,
4,
4,
2,
2,
12,
1,
3,
3,
11,
11,
12,
12,
6,
6,
0,
0,
1,
1,
3,
3,
0,
0,
6,
6,
12,
12,
11,
11,
4,
4,
3,
3,
5,
5,
4,
4,
1,
1,
1,
1,
8,
8,
9,
9,
4,
4,
2,
2,
2,
2,
6,
6,
6,
6,
3,
3,
2,
2,
9,
9,
13,
13,
10,
10,
1,
1,
5,
5,
6,
6,
6,
6,
4,
4,
6,
6,
5,
5,
1,
1,
1,
1,
0,
11,
11,
11,
17,
17,
9,
26,
26,
41,
38,
22,
22,
22,
16,
16,
10,
10,
6,
6,
7,
7,
1,
1,
7,
7,
14,
14,
16,
16,
12,
12,
5,
5,
4,
4,
7,
7,
10,
10,
12,
1,
2,
20,
19,
31,
30,
30,
20,
9,
10,
10,
8,
8,
0,
0,
8,
8,
10,
10,
6,
6,
0,
0,
4,
4,
1,
1,
2,
2,
0,
0,
-1,
-1,
1,
1,
0,
0,
0,
0,
5,
5,
12,
12,
18,
18,
17,
1,
3,
3,
6,
6,
0,
0,
3,
3,
0,
0,
5,
5,
9,
9,
9,
9,
7,
7,
5,
5,
0,
0,
4,
4,
6,
6,
9,
9,
7,
7,
3,
3,
4,
4,
5,
5,
4,
4,
1,
1,
0,
0,
3,
3,
3,
3,
2,
2,
1,
1,
-1,
-1,
0,
0,
3,
3,
5,
5,
0,
0,
5,
5,
3,
3,
4,
4,
6,
6,
5,
5,
5,
5,
4,
4,
2,
2,
2,
2,
6,
6,
13,
13,
9,
9,
1,
1,
6,
6,
6,
6,
8,
8,
17,
17,
9,
9,
0,
0,
1,
12,
11,
11,
8,
8,
4,
4,
10,
10,
10,
10,
6,
6,
3,
3,
1,
1,
1,
1,
0,
0,
2,
2,
2,
2,
3,
3,
0,
0,
0,
0,
2,
2,
4,
4,
1,
1,
0,
0,
1,
1,
2,
2,
10,
10,
10,
10,
13,
13,
9,
9,
3,
3,
10,
10,
10,
10,
9,
9,
9,
9,
1,
1,
9,
9,
4,
4,
1,
1,
6,
6,
4,
4,
0,
0,
2,
2,
4,
4,
5,
5,
4,
18,
18,
18,
13,
2,
2,
2,
-1,
-1,
2,
2,
2,
2,
6,
6,
10,
10,
2,
14,
13,
13,
13,
13,
8,
8,
1,
1,
5,
5,
6,
6,
9,
9,
8,
8,
2,
2,
6,
6,
9,
9,
10,
10,
8,
8,
1,
16,
16,
16,
15,
1,
1,
1,
1,
1,
6,
6,
5,
5,
1,
1,
6,
6,
8,
8,
6,
6,
1,
1,
-1,
-1,
1,
1,
9,
9,
12,
1,
3,
3,
6,
6,
5,
5,
6,
6,
10,
10,
14,
3,
8,
36,
35,
35,
32,
8,
9,
9,
5,
5,
7,
7,
3,
3,
2,
2,
11,
11,
14,
14,
12,
0,
2,
2,
8,
8,
3,
3,
2,
2,
9,
9,
5,
5,
0,
0,
1,
1,
0,
0,
-1,
-1,
0,
0,
2,
2,
6,
6,
12,
12,
20,
20,
16,
5,
6,
6,
0,
0,
2,
2,
5,
5,
2,
2,
10,
10,
13,
13,
10,
10,
6,
6,
-1,
-1,
2,
2,
5,
5,
10,
10,
5,
5,
2,
2,
10,
10,
12,
12,
9,
9,
3,
3,
-1,
-1,
0,
0,
2,
2,
4,
4,
2,
2,
0,
0,
7,
7,
10,
10,
5,
5,
2,
2,
9,
9,
5,
5,
5,
5,
7,
7,
4,
4,
2,
2,
7,
7,
6,
6,
4,
4,
5,
5,
1,
1,
-1,
-1,
-1,
-1,
1,
1,
6,
6,
6,
6,
6,
6,
6,
6,
10,
27,
26,
26,
18,
4,
4,
4,
7,
7,
13,
13,
14,
14,
7,
7,
6,
6,
10,
10,
15,
15,
8,
8,
9,
9,
15,
15,
23,
23,
13,
13,
8,
8,
13,
13,
6,
6,
5,
5,
14,
14,
19,
19,
20,
20,
12,
1,
4,
4,
13,
13,
13,
13,
9,
9,
2,
2,
0,
0,
0,
0,
2,
2,
2,
2,
0,
0,
2,
2,
1,
1,
3,
3,
1,
1,
1,
1,
1,
1,
1,
1,
0,
0,
0,
0,
-1,
-1,
5,
5,
6,
6,
4,
4,
6,
6,
0,
0,
4,
4,
2,
2,
4,
4,
1,
20,
19,
7,
8,
8,
2,
2,
2,
2,
8,
19,
19,
19,
15,
2,
9,
9,
13,
1,
2,
2,
2,
2,
4,
4,
7,
7,
7,
7,
3,
3,
1,
1,
9,
22,
21,
21,
18,
3,
4,
4,
5,
5,
1,
1,
5,
5,
10,
10,
11,
11,
6,
19,
18,
18,
11,
0,
2,
13,
12,
12,
12,
12,
7,
7,
8,
8,
3,
3,
0,
0,
6,
6,
8,
8,
6,
6,
2,
14,
14,
14,
9,
9,
6,
6,
12,
12,
18,
30,
26,
7,
8,
22,
22,
37,
35,
14,
14,
2,
8,
8,
15,
15,
19,
19,
21,
21,
22,
22,
22,
22,
17,
3,
9,
9,
13,
13,
5,
5,
1,
1,
5,
5,
6,
6,
0,
0,
0,
0,
1,
1,
0,
0,
3,
3,
2,
18,
18,
41,
40,
40,
35,
4,
5,
21,
20,
20,
19,
8,
8,
8,
6,
6,
2,
2,
7,
7,
15,
15,
6,
6,
4,
4,
5,
5,
14,
14,
6,
6,
2,
2,
6,
6,
5,
5,
2,
2,
0,
0,
1,
1,
3,
3,
4,
4,
9,
9,
9,
9,
4,
4,
0,
0,
0,
0,
-1,
-1,
1,
1,
4,
4,
4,
4,
6,
6,
5,
5,
7,
7,
12,
12,
9,
9,
0,
0,
2,
2,
6,
6,
6,
6,
1,
1,
2,
2,
0,
0,
2,
2,
1,
1,
2,
2,
8,
8,
10,
10,
8,
8,
3,
3,
-1,
-1,
3,
3,
2,
2,
2,
2,
-1,
-1,
7,
7,
9,
9,
13,
13,
17,
17,
16,
16,
13,
13,
5,
5,
8,
8,
16,
16,
16,
16,
13,
13,
4,
4,
2,
2,
4,
4,
1,
1,
2,
2,
3,
3,
4,
4,
3,
3,
1,
1,
-1,
-1,
1,
1,
3,
3,
2,
2,
1,
1,
5,
5,
2,
2,
0,
0,
1,
1,
1,
1,
3,
3,
2,
2,
-1,
-1,
3,
3,
5,
5,
2,
2,
7,
7,
2,
23,
22,
22,
25,
10,
12,
12,
2,
2,
9,
23,
22,
22,
23,
12,
12,
12,
9,
9,
8,
8,
1,
1,
4,
4,
2,
2,
6,
6,
7,
20,
19,
19,
14,
1,
2,
2,
0,
0,
0,
0,
0,
0,
2,
2,
5,
5,
1,
1,
0,
0,
-1,
-1,
0,
0,
2,
2,
1,
1,
6,
6,
1,
1,
4,
4,
0,
0,
2,
2,
6,
6,
5,
5,
10,
10,
4,
4,
8,
8,
2,
2,
6,
6,
8,
8,
7,
7,
7,
7,
6,
6,
0,
0,
0,
0,
0,
0,
-1,
-1,
0,
0,
5,
5,
10,
10,
18,
18,
12,
0,
0,
0,
5,
5,
6,
6,
4,
4,
4,
4,
2,
2,
4,
4,
5,
5,
6,
6,
2,
13,
13,
13,
18,
5,
5,
5,
3,
3,
4,
4,
4,
4,
2,
2,
0,
0,
1,
1,
2,
2,
0,
0,
0,
0,
0,
0,
3,
3,
5,
5,
0,
0,
3,
3,
1,
1,
1,
1,
1,
1,
8,
8,
8,
8,
3,
3,
4,
4,
5,
5,
8,
8,
2,
2,
2,
2,
2,
2,
1,
1,
6,
6,
6,
6,
3,
3,
-1,
-1,
2,
2,
0,
0,
1,
1,
0,
0,
6,
6,
8,
8,
1,
1,
4,
4,
7,
7,
0,
0,
6,
6,
11,
11,
11,
11,
4,
4,
8,
24,
23,
5,
6,
38,
38,
52,
44,
5,
6,
19,
18,
18,
19,
19,
13,
13,
13,
13,
17,
17,
17,
6,
6,
6,
12,
29,
28,
28,
18,
18,
16,
16,
12,
1,
6,
22,
21,
21,
21,
21,
15,
15,
13,
13,
10,
10,
7,
7,
14,
14,
23,
23,
25,
13,
14,
2,
2,
2,
3,
3,
9,
9,
9,
9,
3,
3,
11,
11,
7,
7,
1,
1,
3,
3,
10,
10,
8,
8,
4,
4,
9,
9,
5,
5,
2,
2,
2,
2,
2,
2,
0,
0,
0,
0,
5,
5,
11,
11,
11,
11,
2,
2,
12,
12,
19,
7,
9,
9,
12,
12,
17,
17,
12,
12,
2,
2,
4,
4,
9,
9,
6,
6,
2,
2,
0,
0,
1,
1,
-1,
-1,
0,
0,
0,
0,
0,
0,
0,
0,
1,
1,
-1,
-1,
0,
0,
-1,
-1,
0,
0,
3,
3,
2,
2,
1,
1,
5,
5,
8,
8,
7,
7,
6,
6,
1,
1,
2,
2,
1,
1,
0,
0,
3,
3,
8,
8,
16,
16,
16,
5,
5,
17,
15,
15,
21,
10,
11,
11,
4,
4,
5,
5,
8,
8,
0,
0,
1,
1,
-1,
-1,
7,
7,
12,
12,
10,
10,
7,
7,
1,
1,
1,
1,
2,
2,
4,
4,
3,
3,
2,
2,
8,
8,
1,
13,
12,
12,
7,
7,
0,
0,
0,
0,
1,
1,
3,
3,
5,
5,
1,
1,
4,
4,
5,
5,
0,
13,
13,
13,
9,
9,
3,
3,
0,
12,
12,
12,
2,
2,
8,
8,
9,
9,
7,
7,
0,
0,
5,
5,
2,
2,
7,
7,
15,
15,
12,
1,
5,
26,
25,
25,
23,
10,
10,
10,
5,
5,
13,
13,
11,
11,
10,
10,
6,
6,
4,
4,
10,
10,
2,
2,
5,
5,
8,
8,
4,
4,
2,
2,
4,
4,
13,
13,
13,
13,
9,
9,
6,
6,
12,
12,
8,
8,
4,
4,
14,
14,
10,
10,
5,
5,
2,
2,
4,
4,
8,
8,
13,
13,
8,
8,
2,
2,
3,
3,
2,
2,
2,
2,
10,
10,
16,
16,
13,
13,
8,
8,
5,
5,
0,
0,
5,
5,
5,
5,
3,
3,
0,
0,
-1,
-1,
3,
3,
1,
1,
4,
4,
-1,
-1,
5,
5,
8,
8,
5,
5,
3,
3,
-1,
-1,
2,
2,
2,
2,
-1,
-1,
6,
6,
12,
12,
8,
8,
8,
8,
9,
9,
4,
4,
0,
0,
4,
4,
9,
9,
6,
6,
2,
2,
5,
5,
4,
4,
0,
0,
6,
6,
9,
9,
2,
2,
12,
12,
17,
2,
3,
17,
17,
17,
13,
-1,
0,
0,
2,
2,
4,
4,
5,
5,
6,
6,
6,
6,
6,
6,
4,
4,
6,
6,
3,
3,
2,
2,
6,
6,
14,
14,
22,
22,
28,
28,
21,
5,
5,
5,
11,
22,
21,
21,
22,
22,
15,
15,
7,
7,
4,
4,
7,
7,
1,
1,
6,
6,
14,
14,
12,
0,
1,
1,
0,
0,
1,
1,
2,
2,
1,
1,
-1,
-1,
-1,
-1,
-1,
-1,
1,
1,
4,
4,
6,
6,
1,
1,
2,
2,
1,
1,
-1,
-1,
-1,
-1,
3,
3,
3,
3,
2,
2,
0,
0,
2,
2,
2,
2,
5,
5,
7,
7,
5,
5,
0,
0,
3,
3,
3,
3,
1,
1,
1,
1,
3,
3,
0,
0,
3,
3,
1,
1,
-1,
-1,
3,
3,
4,
4,
5,
5,
3,
3,
1,
1,
6,
6,
8,
8,
1,
1,
6,
6,
6,
6,
5,
5,
6,
6,
11,
11,
12,
1,
2,
2,
8,
8,
17,
17,
18,
18,
13,
2,
3,
3,
8,
8,
5,
5,
0,
0,
2,
2,
0,
0,
3,
3,
6,
6,
8,
8,
2,
31,
30,
42,
38,
13,
14,
0,
1,
1,
5,
5,
11,
11,
13,
13,
9,
9,
6,
6,
9,
9,
1,
1,
9,
9,
13,
13,
10,
10,
9,
23,
22,
9,
9,
31,
31,
31,
26,
5,
5,
5,
5,
5,
12,
12,
9,
26,
25,
3,
3,
16,
16,
16,
18,
18,
12,
12,
3,
3,
-1,
-1,
1,
1,
0,
0,
1,
1,
1,
1,
5,
5,
2,
2,
2,
2,
4,
4,
3,
3,
0,
0,
2,
2,
5,
5,
8,
8,
6,
6,
1,
1,
2,
2,
-1,
-1,
6,
6,
6,
6,
6,
6,
7,
7,
3,
3,
6,
19,
18,
3,
4,
4,
3,
18,
18,
18,
11,
11,
8,
8,
18,
31,
30,
18,
20,
1,
4,
4,
12,
12,
13,
13,
8,
8,
6,
6,
3,
3,
2,
2,
4,
4,
5,
5,
2,
2,
3,
3,
5,
5,
6,
6,
1,
17,
17,
28,
28,
28,
24,
10,
10,
10,
2,
2,
0,
0,
2,
2,
9,
9,
12,
12,
14,
14,
12,
1,
3,
18,
17,
17,
8,
8,
0,
0,
6,
6,
13,
13,
15,
15,
8,
8,
17,
40,
40,
29,
30,
8,
8,
8,
4,
4,
2,
2,
4,
4,
5,
5,
7,
7,
9,
9,
9,
9,
9,
9,
11,
11,
9,
9,
6,
6,
10,
10,
7,
7,
14,
32,
30,
18,
18,
6,
6,
6,
1,
1,
-1,
-1,
2,
2,
4,
4,
4,
4,
1,
1,
6,
6,
3,
3,
4,
4,
4,
4,
0,
0,
6,
6,
6,
6,
10,
10,
1,
1,
11,
11,
20,
20,
