EMG_S3/DS0042.CSV

Memory Length,4000,
Trigger Level,-4.80000e+02,
Source,CH1,
Probe,1.0X,
Vertical Units,V,
Vertical Scale,1.00000e+00,
Vertical Position,0.00000e+00,
Horizontal Units,S,
Horizontal Scale,1.00000e-01,
Horizontal Position,0.0000000e+00,
Horizontal Mode,Roll Mode,
Waveform Last Dot Address,4000,
Sampling Period,4.00000e-04,
Firmware,V1.14,
Time, ,
Mode,Fast,
Waveform Data,
28,
53,
53,
26,
1,
1,
1,
1,
9,
9,
13,
13,
14,
14,
11,
11,
6,
6,
5,
5,
5,
5,
2,
13,
12,
12,
9,
9,
2,
2,
5,
5,
6,
6,
2,
2,
2,
2,
8,
8,
12,
12,
6,
6,
5,
17,
16,
16,
16,
16,
24,
24,
30,
12,
12,
1,
2,
2,
7,
18,
17,
28,
27,
6,
6,
6,
14,
0,
1,
1,
0,
0,
1,
14,
14,
14,
16,
1,
2,
2,
10,
10,
2,
17,
15,
15,
22,
6,
6,
6,
13,
26,
26,
40,
38,
38,
28,
5,
6,
6,
7,
24,
22,
5,
10,
30,
30,
30,
31,
20,
20,
8,
8,
8,
4,
4,
2,
2,
9,
9,
12,
12,
5,
5,
5,
5,
12,
1,
2,
14,
14,
14,
11,
11,
8,
8,
13,
13,
6,
6,
2,
2,
9,
9,
8,
33,
32,
32,
31,
9,
9,
9,
1,
1,
3,
3,
1,
1,
5,
5,
13,
13,
5,
5,
3,
3,
0,
0,
9,
9,
17,
17,
20,
20,
29,
18,
18,
4,
14,
39,
38,
38,
34,
34,
25,
25,
29,
9,
10,
10,
14,
14,
14,
1,
3,
3,
13,
13,
18,
4,
10,
10,
13,
1,
1,
1,
8,
8,
5,
21,
21,
21,
27,
27,
24,
24,
23,
23,
16,
2,
2,
2,
6,
6,
6,
6,
8,
19,
19,
19,
28,
28,
25,
6,
10,
10,
4,
4,
13,
13,
10,
10,
5,
5,
14,
14,
15,
2,
3,
3,
6,
6,
4,
4,
6,
18,
17,
17,
17,
1,
3,
3,
4,
4,
0,
0,
2,
2,
4,
4,
2,
2,
4,
4,
4,
4,
1,
1,
0,
0,
-1,
-1,
2,
2,
1,
1,
2,
2,
5,
19,
18,
18,
17,
6,
7,
7,
8,
8,
17,
17,
18,
2,
4,
20,
19,
6,
7,
7,
1,
1,
8,
8,
10,
10,
1,
1,
3,
3,
7,
7,
9,
9,
4,
4,
1,
1,
9,
9,
13,
2,
3,
3,
6,
6,
6,
6,
2,
2,
-1,
-1,
2,
2,
2,
2,
1,
1,
9,
9,
1,
15,
15,
35,
34,
34,
29,
9,
9,
9,
4,
4,
5,
5,
9,
9,
11,
11,
18,
18,
25,
8,
9,
9,
11,
11,
12,
12,
4,
4,
6,
6,
15,
15,
18,
18,
14,
3,
4,
4,
6,
18,
18,
48,
48,
48,
48,
25,
25,
3,
6,
22,
21,
8,
9,
9,
1,
14,
14,
14,
18,
18,
21,
21,
13,
1,
2,
2,
1,
1,
1,
1,
4,
4,
0,
0,
5,
5,
6,
6,
1,
1,
9,
9,
14,
14,
16,
16,
12,
12,
10,
10,
2,
15,
15,
27,
26,
6,
6,
19,
19,
32,
31,
20,
21,
4,
4,
4,
-1,
-1,
5,
5,
14,
14,
13,
13,
8,
8,
6,
6,
8,
8,
8,
8,
6,
6,
1,
1,
1,
1,
6,
6,
11,
11,
7,
7,
4,
4,
0,
0,
0,
0,
3,
3,
1,
1,
0,
0,
8,
8,
1,
1,
7,
7,
2,
2,
4,
4,
0,
0,
1,
1,
0,
0,
4,
4,
3,
3,
8,
8,
11,
11,
2,
2,
2,
14,
14,
14,
15,
15,
6,
6,
3,
3,
7,
21,
21,
21,
24,
24,
25,
12,
12,
12,
22,
35,
33,
21,
22,
6,
6,
6,
3,
3,
6,
6,
3,
3,
10,
10,
13,
13,
12,
12,
8,
8,
6,
6,
3,
3,
5,
5,
9,
9,
9,
9,
9,
9,
4,
4,
1,
1,
0,
0,
2,
2,
2,
2,
0,
0,
6,
6,
6,
6,
8,
8,
10,
10,
28,
16,
18,
6,
7,
7,
5,
5,
5,
16,
15,
15,
12,
12,
10,
10,
13,
13,
11,
11,
8,
8,
4,
4,
0,
0,
2,
2,
8,
8,
13,
13,
5,
5,
2,
2,
2,
14,
13,
13,
21,
6,
8,
44,
44,
30,
31,
10,
10,
10,
5,
5,
4,
4,
6,
6,
6,
6,
12,
12,
8,
8,
12,
12,
21,
21,
21,
21,
18,
18,
18,
18,
16,
2,
2,
2,
9,
9,
8,
8,
6,
6,
2,
2,
5,
5,
1,
1,
9,
24,
23,
23,
28,
13,
13,
1,
1,
13,
13,
13,
18,
18,
20,
20,
16,
3,
5,
5,
8,
8,
12,
12,
12,
12,
9,
9,
3,
14,
13,
13,
17,
3,
4,
21,
21,
36,
34,
34,
25,
5,
5,
5,
7,
20,
19,
19,
24,
24,
23,
23,
20,
20,
21,
21,
16,
4,
12,
50,
50,
50,
40,
13,
14,
14,
5,
5,
1,
1,
5,
5,
9,
9,
11,
11,
10,
10,
8,
8,
5,
5,
4,
4,
2,
2,
1,
1,
3,
3,
0,
11,
10,
10,
13,
13,
13,
13,
14,
14,
5,
5,
1,
1,
6,
6,
9,
9,
8,
8,
8,
8,
6,
6,
1,
1,
9,
9,
12,
12,
17,
17,
13,
13,
4,
4,
5,
5,
11,
11,
3,
19,
18,
18,
10,
10,
1,
14,
14,
14,
19,
19,
18,
18,
14,
14,
10,
10,
9,
9,
6,
6,
1,
1,
1,
12,
11,
11,
20,
20,
22,
22,
17,
2,
3,
3,
5,
5,
6,
6,
2,
20,
19,
19,
20,
6,
6,
6,
5,
5,
7,
7,
2,
2,
6,
19,
18,
18,
24,
5,
7,
23,
21,
3,
4,
4,
0,
0,
1,
1,
3,
3,
1,
13,
12,
12,
15,
15,
5,
5,
5,
5,
8,
8,
1,
1,
-1,
-1,
2,
2,
3,
3,
0,
0,
4,
4,
2,
2,
11,
11,
5,
38,
37,
52,
51,
36,
37,
13,
14,
1,
3,
3,
13,
24,
23,
23,
31,
31,
34,
34,
29,
29,
22,
9,
10,
10,
2,
14,
13,
13,
19,
7,
7,
7,
0,
0,
4,
15,
14,
14,
8,
8,
3,
3,
8,
29,
28,
28,
20,
1,
3,
3,
12,
12,
11,
11,
14,
14,
10,
10,
2,
2,
1,
1,
2,
2,
0,
0,
2,
2,
3,
3,
5,
5,
5,
5,
2,
2,
2,
2,
2,
2,
0,
0,
1,
1,
9,
9,
4,
25,
24,
24,
16,
16,
13,
13,
15,
1,
2,
2,
10,
10,
18,
18,
19,
19,
10,
10,
3,
3,
6,
6,
1,
1,
1,
1,
2,
2,
2,
16,
15,
15,
15,
2,
5,
5,
15,
2,
3,
3,
13,
31,
30,
17,
18,
0,
1,
1,
1,
1,
-1,
-1,
2,
2,
0,
0,
1,
13,
12,
26,
25,
25,
23,
23,
14,
14,
5,
5,
1,
1,
6,
6,
10,
10,
10,
10,
3,
3,
1,
20,
19,
19,
17,
17,
8,
8,
4,
4,
-1,
-1,
5,
5,
1,
1,
4,
4,
6,
18,
17,
3,
4,
4,
8,
8,
9,
9,
5,
5,
3,
3,
6,
6,
6,
6,
3,
3,
0,
0,
4,
4,
9,
9,
12,
12,
11,
11,
12,
12,
7,
7,
1,
1,
1,
1,
7,
7,
10,
10,
8,
8,
5,
5,
5,
5,
4,
4,
5,
5,
6,
6,
13,
13,
15,
15,
6,
6,
0,
0,
8,
8,
15,
15,
15,
15,
10,
10,
9,
9,
9,
9,
12,
12,
9,
20,
18,
7,
8,
8,
4,
4,
4,
4,
11,
11,
2,
16,
15,
15,
13,
13,
22,
22,
30,
7,
7,
7,
10,
10,
8,
8,
12,
12,
21,
21,
19,
3,
5,
5,
0,
0,
2,
2,
1,
1,
3,
3,
5,
5,
7,
7,
2,
2,
7,
7,
12,
12,
5,
29,
29,
29,
30,
4,
5,
5,
9,
9,
6,
6,
2,
2,
5,
5,
5,
5,
5,
5,
1,
1,
0,
0,
4,
4,
3,
3,
0,
0,
1,
1,
0,
0,
3,
3,
2,
2,
1,
1,
10,
10,
16,
3,
8,
26,
25,
25,
17,
4,
4,
4,
0,
0,
4,
4,
12,
12,
14,
14,
15,
15,
10,
10,
5,
25,
25,
25,
32,
32,
22,
1,
2,
2,
10,
10,
14,
14,
14,
14,
15,
15,
14,
14,
6,
6,
-1,
-1,
6,
6,
2,
2,
12,
35,
34,
34,
25,
2,
5,
5,
10,
10,
2,
2,
3,
3,
9,
21,
21,
21,
15,
4,
19,
33,
31,
7,
8,
8,
12,
12,
10,
26,
25,
13,
14,
14,
6,
6,
0,
0,
8,
8,
12,
12,
16,
16,
13,
13,
12,
12,
10,
10,
7,
7,
1,
1,
6,
6,
0,
0,
1,
1,
1,
1,
1,
1,
2,
2,
6,
6,
9,
28,
27,
14,
15,
2,
4,
4,
2,
2,
2,
2,
6,
6,
12,
12,
7,
7,
6,
6,
4,
4,
5,
5,
3,
3,
4,
4,
10,
10,
10,
10,
13,
26,
26,
26,
29,
6,
7,
26,
26,
14,
14,
1,
3,
3,
9,
9,
2,
2,
4,
4,
5,
5,
1,
1,
8,
8,
6,
6,
1,
1,
8,
8,
1,
1,
6,
6,
5,
5,
14,
14,
20,
4,
5,
5,
5,
5,
9,
9,
14,
14,
21,
2,
3,
3,
5,
5,
14,
14,
9,
9,
1,
1,
3,
3,
7,
7,
6,
6,
4,
4,
0,
0,
10,
10,
15,
15,
8,
8,
1,
1,
6,
6,
12,
12,
2,
2,
1,
1,
6,
20,
20,
20,
14,
3,
5,
5,
2,
2,
10,
10,
18,
18,
26,
12,
12,
12,
17,
30,
28,
9,
10,
10,
5,
5,
8,
8,
4,
4,
1,
1,
3,
3,
3,
3,
-1,
-1,
3,
3,
8,
8,
7,
7,
4,
4,
3,
3,
6,
6,
1,
13,
12,
12,
13,
13,
7,
7,
3,
3,
2,
2,
2,
2,
2,
2,
0,
0,
1,
1,
0,
0,
0,
0,
9,
9,
13,
13,
8,
8,
2,
2,
0,
0,
0,
0,
3,
3,
11,
11,
10,
10,
1,
1,
6,
6,
5,
5,
1,
1,
-1,
-1,
1,
12,
12,
12,
8,
8,
3,
3,
7,
7,
8,
19,
18,
18,
23,
1,
2,
2,
5,
5,
4,
4,
6,
6,
8,
8,
8,
8,
4,
4,
-1,
-1,
2,
2,
2,
13,
13,
13,
7,
7,
-1,
-1,
0,
0,
-1,
-1,
9,
9,
15,
1,
3,
3,
12,
12,
4,
4,
6,
6,
10,
30,
29,
29,
22,
2,
2,
2,
9,
9,
12,
12,
18,
18,
18,
18,
10,
10,
2,
2,
0,
0,
0,
0,
0,
0,
8,
8,
12,
12,
15,
42,
41,
27,
28,
9,
10,
10,
1,
1,
9,
9,
10,
10,
10,
10,
6,
6,
2,
2,
1,
1,
5,
5,
5,
5,
5,
5,
6,
6,
14,
1,
5,
5,
13,
2,
8,
31,
30,
10,
12,
1,
8,
8,
9,
9,
6,
6,
8,
8,
5,
5,
9,
9,
14,
14,
23,
23,
20,
2,
4,
4,
13,
13,
10,
10,
8,
8,
6,
6,
6,
6,
0,
0,
6,
6,
4,
18,
18,
30,
28,
11,
11,
11,
3,
3,
6,
6,
2,
2,
0,
0,
3,
3,
10,
10,
13,
13,
10,
10,
6,
6,
3,
3,
3,
3,
1,
1,
6,
6,
9,
9,
8,
8,
14,
14,
15,
15,
7,
7,
3,
14,
14,
14,
16,
1,
3,
15,
14,
14,
9,
9,
2,
2,
1,
1,
8,
26,
25,
25,
20,
3,
7,
7,
15,
15,
9,
9,
18,
18,
15,
1,
2,
2,
10,
10,
10,
10,
4,
4,
6,
6,
2,
2,
6,
6,
-1,
-1,
0,
0,
6,
6,
9,
9,
4,
4,
8,
8,
3,
3,
4,
4,
2,
2,
4,
4,
4,
4,
4,
4,
1,
1,
2,
2,
12,
12,
14,
2,
7,
18,
17,
17,
15,
15,
8,
8,
1,
1,
2,
2,
10,
10,
5,
5,
3,
3,
6,
6,
2,
16,
15,
15,
6,
6,
0,
0,
4,
4,
13,
24,
23,
5,
5,
24,
24,
24,
24,
1,
3,
3,
5,
5,
4,
4,
7,
7,
8,
8,
7,
7,
7,
7,
2,
2,
7,
7,
10,
10,
2,
2,
1,
1,
2,
2,
5,
5,
10,
10,
6,
6,
14,
14,
20,
20,
12,
12,
12,
1,
2,
2,
12,
12,
20,
20,
19,
19,
13,
13,
13,
13,
12,
12,
7,
7,
1,
1,
-1,
-1,
0,
0,
6,
6,
8,
8,
6,
6,
3,
3,
1,
1,
1,
20,
20,
20,
20,
20,
17,
17,
10,
10,
6,
6,
16,
16,
13,
13,
5,
5,
1,
1,
7,
7,
14,
14,
13,
1,
2,
2,
8,
8,
2,
2,
4,
4,
1,
1,
5,
5,
14,
14,
22,
22,
19,
19,
9,
9,
4,
4,
12,
12,
15,
1,
2,
2,
2,
2,
8,
8,
6,
6,
3,
14,
13,
13,
21,
4,
4,
4,
14,
14,
8,
8,
9,
9,
2,
2,
7,
7,
2,
2,
3,
3,
1,
1,
4,
4,
5,
5,
4,
4,
9,
20,
20,
20,
12,
0,
1,
1,
1,
1,
5,
16,
16,
16,
13,
1,
2,
2,
6,
6,
6,
6,
6,
6,
7,
7,
8,
8,
13,
13,
5,
5,
8,
8,
14,
14,
7,
7,
9,
21,
20,
20,
11,
11,
2,
2,
6,
6,
2,
2,
6,
6,
8,
8,
2,
13,
12,
12,
14,
1,
1,
1,
5,
5,
2,
2,
4,
4,
5,
5,
4,
4,
10,
10,
9,
9,
4,
4,
3,
3,
6,
6,
6,
6,
1,
1,
7,
7,
6,
6,
4,
4,
4,
4,
0,
0,
-1,
-1,
2,
2,
10,
10,
19,
1,
2,
20,
20,
46,
46,
23,
23,
1,
1,
1,
7,
7,
15,
15,
15,
15,
12,
12,
9,
9,
4,
4,
2,
2,
2,
2,
1,
1,
6,
6,
10,
10,
14,
14,
10,
21,
21,
50,
50,
37,
37,
37,
30,
30,
22,
8,
9,
9,
8,
8,
12,
12,
20,
20,
25,
25,
28,
28,
26,
12,
13,
0,
1,
1,
1,
1,
1,
1,
1,
1,
2,
2,
5,
5,
4,
4,
7,
7,
9,
9,
9,
9,
11,
11,
10,
10,
5,
5,
1,
1,
4,
4,
1,
1,
1,
1,
2,
2,
0,
0,
0,
0,
4,
4,
3,
3,
9,
22,
22,
22,
16,
16,
10,
10,
7,
7,
5,
22,
22,
22,
28,
14,
14,
2,
3,
3,
3,
3,
6,
6,
10,
10,
17,
17,
14,
14,
9,
9,
6,
6,
2,
2,
0,
0,
3,
14,
14,
26,
26,
26,
20,
1,
2,
2,
4,
4,
9,
9,
6,
6,
2,
2,
3,
3,
5,
5,
7,
7,
6,
6,
1,
1,
5,
5,
7,
7,
6,
6,
1,
1,
8,
8,
5,
5,
6,
6,
14,
14,
9,
9,
2,
2,
9,
9,
6,
6,
1,
1,
1,
1,
6,
6,
10,
10,
2,
2,
10,
10,
10,
10,
4,
4,
7,
7,
10,
10,
3,
3,
5,
5,
6,
6,
10,
10,
10,
10,
2,
2,
10,
10,
14,
14,
5,
35,
35,
35,
29,
2,
4,
4,
7,
7,
7,
7,
7,
7,
6,
6,
5,
5,
0,
0,
0,
0,
6,
6,
6,
6,
1,
1,
0,
0,
0,
0,
0,
0,
2,
2,
5,
5,
6,
6,
5,
5,
2,
14,
13,
13,
16,
2,
8,
8,
15,
15,
6,
6,
2,
2,
6,
6,
4,
4,
2,
2,
3,
15,
14,
38,
38,
38,
34,
6,
6,
17,
16,
28,
26,
26,
24,
13,
14,
14,
8,
8,
9,
9,
7,
7,
4,
4,
2,
2,
0,
0,
4,
4,
10,
10,
8,
8,
8,
8,
9,
9,
6,
6,
8,
8,
8,
8,
10,
10,
4,
4,
4,
4,
12,
12,
12,
12,
8,
8,
7,
7,
2,
14,
14,
14,
23,
23,
16,
16,
8,
8,
0,
0,
1,
1,
6,
20,
20,
20,
22,
22,
15,
15,
8,
8,
5,
5,
4,
23,
22,
22,
27,
14,
15,
0,
1,
1,
5,
5,
11,
11,
11,
11,
8,
8,
2,
2,
0,
0,
2,
2,
1,
1,
-1,
-1,
1,
1,
0,
0,
1,
1,
6,
6,
8,
8,
8,
8,
5,
5,
4,
4,
5,
5,
0,
0,
4,
4,
2,
2,
-1,
-1,
2,
2,
2,
2,
10,
10,
7,
7,
5,
5,
8,
8,
9,
9,
0,
0,
6,
6,
6,
6,
2,
2,
2,
2,
2,
2,
6,
22,
21,
21,
26,
11,
11,
11,
11,
33,
32,
32,
34,
8,
14,
51,
50,
32,
33,
9,
10,
10,
9,
25,
24,
24,
27,
27,
20,
20,
13,
1,
2,
2,
5,
5,
1,
1,
0,
0,
0,
0,
5,
5,
3,
3,
10,
10,
16,
16,
14,
14,
15,
15,
7,
7,
0,
0,
-1,
-1,
1,
1,
1,
1,
0,
0,
0,
0,
2,
2,
8,
8,
9,
9,
5,
5,
5,
5,
2,
2,
1,
1,
0,
0,
0,
0,
6,
6,
8,
8,
12,
12,
16,
16,
11,
11,
3,
3,
0,
0,
3,
3,
8,
8,
13,
13,
12,
12,
15,
2,
2,
14,
13,
13,
12,
12,
10,
10,
8,
8,
4,
4,
6,
6,
5,
5,
11,
11,
12,
12,
5,
5,
3,
3,
10,
10,
9,
9,
4,
4,
6,
6,
8,
8,
2,
2,
5,
5,
5,
5,
2,
2,
0,
0,
-1,
-1,
0,
0,
0,
0,
0,
0,
0,
0,
0,
0,
4,
4,
6,
6,
4,
4,
4,
4,
10,
10,
11,
11,
5,
5,
6,
6,
9,
9,
5,
5,
8,
8,
11,
0,
1,
1,
6,
6,
3,
14,
13,
13,
6,
6,
1,
1,
1,
16,
15,
15,
14,
2,
12,
12,
7,
7,
10,
10,
16,
46,
45,
19,
20,
1,
5,
18,
17,
17,
19,
19,
11,
0,
1,
1,
2,
2,
5,
5,
13,
13,
8,
8,
1,
1,
6,
6,
10,
10,
9,
9,
2,
2,
6,
6,
10,
10,
6,
6,
1,
1,
2,
2,
4,
4,
3,
3,
4,
4,
4,
4,
4,
4,
6,
6,
1,
1,
5,
5,
4,
4,
4,
4,
5,
5,
5,
5,
2,
2,
-1,
-1,
3,
3,
1,
1,
0,
0,
0,
0,
3,
3,
4,
4,
5,
5,
0,
0,
5,
5,
2,
2,
1,
1,
1,
1,
8,
8,
15,
15,
10,
10,
9,
9,
18,
6,
7,
7,
4,
4,
5,
5,
2,
2,
5,
5,
7,
7,
4,
4,
3,
3,
1,
1,
1,
1,
5,
5,
1,
1,
6,
6,
14,
14,
15,
15,
11,
11,
5,
5,
4,
4,
6,
6,
8,
8,
6,
6,
4,
4,
2,
2,
10,
10,
14,
14,
5,
5,
5,
5,
9,
9,
11,
11,
9,
9,
6,
6,
5,
5,
11,
22,
21,
6,
6,
36,
36,
50,
48,
28,
28,
7,
7,
7,
7,
7,
2,
2,
6,
6,
2,
14,
13,
13,
15,
45,
44,
13,
13,
30,
30,
46,
45,
32,
32,
32,
25,
25,
24,
24,
16,
5,
5,
5,
1,
1,
0,
0,
2,
13,
12,
12,
20,
20,
19,
19,
23,
23,
22,
22,
21,
21,
15,
15,
6,
6,
1,
1,
0,
0,
2,
2,
3,
3,
11,
11,
14,
14,
13,
13,
11,
11,
8,
8,
4,
4,
4,
4,
4,
4,
4,
4,
3,
3,
0,
0,
9,
9,
11,
11,
3,
3,
4,
4,
2,
2,
1,
1,
2,
19,
18,
18,
24,
24,
18,
18,
14,
14,
10,
10,
2,
2,
3,
14,
14,
25,
25,
25,
29,
29,
25,
25,
18,
18,
9,
9,
3,
3,
5,
5,
5,
5,
7,
7,
9,
9,
12,
12,
14,
14,
9,
9,
7,
7,
2,
18,
18,
18,
20,
5,
14,
42,
41,
20,
20,
2,
3,
3,
3,
3,
6,
6,
3,
18,
18,
18,
16,
16,
7,
7,
9,
9,
11,
11,
9,
9,
7,
7,
5,
5,
1,
1,
-1,
-1,
1,
1,
2,
2,
6,
6,
10,
10,
7,
7,
4,
4,
2,
2,
0,
0,
3,
3,
0,
0,
4,
4,
0,
0,
4,
4,
8,
8,
1,
26,
25,
45,
44,
15,
16,
1,
2,
2,
8,
8,
5,
5,
2,
2,
0,
0,
1,
28,
27,
47,
46,
46,
45,
22,
22,
9,
10,
10,
13,
13,
12,
1,
2,
14,
14,
14,
20,
20,
18,
18,
16,
16,
15,
15,
11,
11,
6,
6,
9,
9,
9,
9,
13,
25,
25,
39,
38,
18,
18,
4,
13,
13,
22,
22,
18,
18,
12,
12,
14,
14,
18,
18,
13,
13,
8,
8,
5,
5,
4,
4,
1,
1,
-1,
-1,
3,
3,
2,
2,
1,
1,
0,
0,
1,
1,
1,
1,
5,
5,
6,
6,
4,
4,
10,
10,
6,
6,
6,
6,
6,
6,
4,
4,
7,
7,
6,
6,
1,
1,
7,
7,
14,
14,
18,
18,
16,
16,
6,
6,
10,
10,
17,
17,
17,
5,
6,
6,
3,
3,
5,
5,
6,
6,
9,
9,
11,
11,
5,
5,
9,
9,
14,
14,
6,
6,
8,
8,
10,
10,
6,
6,
6,
6,
6,
6,
0,
0,
2,
2,
8,
8,
10,
10,
6,
6,
5,
5,
1,
1,
1,
1,
0,
0,
-1,
-1,
2,
2,
1,
1,
0,
0,
6,
6,
10,
10,
5,
5,
2,
2,
6,
6,
5,
5,
3,
3,
0,
0,
3,
3,
2,
2,
1,
1,
10,
10,
11,
11,
5,
5,
1,
1,
2,
2,
4,
4,
10,
10,
10,
10,
1,
1,
8,
8,
3,
3,
10,
21,
20,
20,
11,
0,
0,
0,
5,
5,
14,
14,
14,
14,
8,
8,
4,
4,
4,
4,
6,
6,
10,
10,
9,
9,
2,
2,
-1,
-1,
2,
2,
5,
5,
9,
9,
2,
2,
10,
10,
6,
6,
5,
5,
6,
6,
12,
12,
14,
14,
5,
5,
2,
2,
5,
5,
6,
6,
15,
15,
19,
4,
20,
62,
62,
62,
64,
11,
12,
23,
23,
36,
36,
36,
35,
24,
25,
2,
5,
5,
2,
2,
10,
10,
3,
3,
1,
1,
2,
2,
6,
6,
10,
10,
17,
17,
12,
1,
5,
17,
17,
17,
16,
16,
16,
16,
14,
14,
9,
9,
3,
14,
14,
14,
5,
23,
23,
23,
20,
3,
4,
4,
3,
3,
1,
1,
1,
1,
0,
0,
10,
10,
15,
15,
13,
13,
10,
10,
7,
7,
5,
5,
3,
3,
2,
2,
3,
3,
1,
1,
0,
0,
0,
0,
6,
6,
12,
12,
13,
13,
6,
6,
4,
4,
6,
6,
5,
5,
1,
1,
1,
1,
6,
6,
3,
3,
0,
0,
9,
9,
11,
11,
15,
15,
20,
20,
16,
16,
9,
9,
9,
9,
17,
17,
14,
14,
10,
10,
12,
12,
6,
6,
2,
2,
2,
2,
6,
6,
8,
8,
6,
6,
6,
6,
4,
4,
1,
14,
14,
36,
36,
49,
47,
8,
9,
52,
52,
65,
64,
38,
38,
4,
5,
17,
17,
17,
17,
17,
17,
17,
14,
14,
19,
19,
20,
20,
14,
14,
8,
8,
2,
2,
2,
2,
0,
0,
0,
0,
0,
0,
9,
9,
16,
16,
24,
24,
25,
12,
12,
12,
5,
20,
19,
31,
26,
5,
9,
26,
26,
26,
21,
21,
16,
16,
17,
17,
18,
18,
13,
13,
8,
8,
5,
5,
3,
3,
7,
7,
1,
1,
-1,
-1,
3,
3,
2,
2,
9,
33,
32,
45,
45,
45,
38,
9,
9,
9,
17,
17,
22,
22,
21,
21,
16,
16,
16,
16,
12,
12,
8,
8,
11,
11,
7,
7,
1,
1,
0,
0,
2,
2,
6,
6,
1,
23,
23,
41,
40,
21,
21,
1,
2,
2,
0,
0,
5,
5,
4,
19,
18,
18,
12,
12,
20,
20,
23,
1,
4,
4,
14,
14,
21,
21,
13,
13,
6,
6,
3,
3,
-1,
-1,
2,
15,
14,
14,
18,
5,
5,
5,
0,
0,
3,
3,
5,
5,
6,
6,
1,
1,
1,
1,
4,
4,
2,
2,
1,
1,
2,
2,
7,
7,
7,
7,
8,
8,
3,
3,
7,
28,
27,
16,
17,
1,
3,
27,
26,
14,
15,
1,
3,
3,
8,
8,
14,
14,
9,
9,
13,
13,
22,
22,
21,
21,
18,
18,
10,
10,
2,
2,
10,
10,
11,
11,
2,
2,
2,
2,
3,
3,
9,
9,
10,
10,
5,
5,
7,
7,
17,
17,
18,
1,
1,
1,
7,
7,
5,
5,
4,
4,
3,
3,
3,
3,
10,
10,
8,
8,
5,
5,
10,
26,
25,
12,
12,
28,
