EMG_S3/DS0031.CSV

Memory Length,4000,
Trigger Level,-4.80000e+02,
Source,CH1,
Probe,1.0X,
Vertical Units,V,
Vertical Scale,1.00000e+00,
Vertical Position,0.00000e+00,
Horizontal Units,S,
Horizontal Scale,1.00000e-01,
Horizontal Position,0.0000000e+00,
Horizontal Mode,Roll Mode,
Waveform Last Dot Address,4000,
Sampling Period,4.00000e-04,
Firmware,V1.14,
Time, ,
Mode,Fast,
Waveform Data,
22,
22,
18,
18,
10,
10,
3,
25,
25,
25,
17,
5,
15,
15,
12,
12,
7,
7,
17,
17,
14,
2,
11,
34,
33,
18,
18,
5,
20,
34,
31,
17,
18,
2,
7,
7,
16,
16,
9,
9,
4,
4,
4,
4,
0,
0,
1,
1,
3,
16,
15,
3,
8,
8,
14,
14,
17,
17,
11,
11,
21,
8,
9,
9,
5,
5,
8,
8,
0,
0,
4,
4,
8,
8,
1,
1,
3,
20,
18,
2,
2,
2,
12,
12,
2,
2,
5,
5,
1,
12,
11,
11,
6,
6,
1,
1,
4,
4,
5,
5,
1,
1,
3,
3,
10,
10,
4,
4,
6,
6,
2,
2,
0,
0,
1,
1,
2,
20,
19,
42,
42,
19,
19,
7,
20,
5,
5,
5,
6,
19,
18,
34,
34,
12,
12,
12,
15,
15,
16,
4,
5,
5,
10,
23,
21,
21,
14,
2,
6,
6,
8,
8,
3,
3,
2,
2,
6,
17,
16,
2,
3,
3,
10,
22,
22,
3,
5,
22,
21,
35,
34,
34,
39,
14,
14,
14,
19,
19,
16,
16,
11,
11,
14,
14,
13,
13,
11,
11,
15,
3,
4,
26,
26,
10,
10,
10,
12,
12,
12,
1,
1,
1,
6,
6,
10,
10,
8,
8,
0,
0,
0,
13,
12,
12,
8,
22,
21,
21,
15,
1,
3,
3,
11,
24,
24,
40,
39,
39,
34,
7,
7,
32,
31,
57,
57,
57,
64,
49,
49,
12,
12,
12,
6,
20,
20,
20,
30,
30,
30,
30,
35,
35,
35,
35,
25,
14,
14,
14,
6,
6,
5,
20,
18,
18,
24,
24,
19,
19,
17,
17,
19,
6,
6,
6,
3,
3,
4,
4,
6,
6,
5,
5,
1,
1,
3,
3,
0,
0,
6,
6,
7,
7,
9,
9,
0,
0,
3,
3,
4,
4,
10,
22,
12,
41,
41,
41,
33,
4,
8,
21,
20,
20,
21,
21,
18,
18,
14,
1,
2,
2,
6,
21,
21,
21,
17,
4,
14,
14,
16,
16,
10,
10,
1,
1,
3,
3,
3,
3,
1,
1,
6,
6,
6,
19,
18,
18,
18,
0,
1,
1,
2,
2,
2,
2,
10,
10,
2,
2,
4,
4,
11,
11,
13,
2,
6,
6,
14,
14,
9,
9,
6,
6,
2,
2,
3,
3,
1,
1,
0,
0,
6,
6,
9,
9,
10,
10,
11,
11,
9,
9,
0,
0,
6,
6,
10,
10,
3,
20,
19,
30,
28,
10,
11,
0,
2,
2,
3,
3,
2,
2,
6,
18,
17,
17,
18,
18,
12,
12,
8,
8,
2,
2,
8,
8,
6,
6,
6,
6,
5,
32,
31,
31,
36,
14,
15,
2,
8,
8,
8,
8,
3,
3,
5,
5,
14,
26,
25,
25,
22,
11,
12,
1,
2,
2,
4,
4,
3,
3,
0,
0,
1,
1,
1,
1,
2,
2,
7,
7,
10,
10,
4,
4,
0,
0,
2,
2,
10,
10,
2,
22,
22,
22,
14,
0,
1,
1,
5,
5,
11,
25,
23,
11,
12,
1,
6,
17,
16,
16,
10,
10,
9,
23,
22,
22,
26,
26,
23,
23,
14,
14,
4,
30,
30,
50,
48,
26,
27,
9,
10,
10,
8,
8,
9,
9,
7,
19,
15,
15,
6,
6,
10,
10,
18,
18,
15,
15,
15,
15,
25,
25,
24,
4,
6,
41,
41,
58,
56,
28,
28,
7,
8,
8,
5,
5,
1,
1,
0,
0,
5,
5,
5,
5,
5,
5,
11,
11,
20,
20,
21,
21,
12,
12,
6,
6,
10,
27,
26,
13,
13,
0,
0,
0,
6,
6,
10,
10,
14,
14,
5,
5,
4,
4,
9,
9,
7,
7,
7,
7,
10,
10,
9,
9,
1,
1,
2,
2,
-1,
-1,
2,
2,
5,
5,
1,
1,
0,
0,
1,
1,
3,
3,
10,
10,
10,
10,
10,
10,
2,
2,
2,
19,
19,
19,
12,
12,
9,
9,
10,
10,
5,
5,
4,
4,
1,
1,
2,
2,
4,
4,
11,
11,
4,
40,
40,
40,
32,
3,
4,
17,
16,
16,
25,
25,
31,
31,
29,
29,
21,
5,
10,
10,
5,
5,
4,
4,
2,
17,
17,
17,
10,
10,
9,
9,
12,
12,
21,
21,
19,
6,
7,
7,
2,
2,
2,
2,
2,
2,
1,
20,
20,
20,
15,
15,
5,
5,
5,
5,
14,
14,
8,
8,
13,
13,
16,
28,
27,
12,
12,
-1,
1,
1,
1,
15,
14,
32,
31,
52,
52,
34,
13,
49,
48,
64,
63,
34,
34,
11,
12,
12,
6,
22,
21,
21,
30,
14,
14,
1,
3,
25,
24,
24,
14,
14,
5,
5,
1,
1,
7,
7,
0,
0,
6,
6,
8,
20,
18,
18,
10,
10,
7,
7,
3,
15,
15,
15,
14,
3,
4,
4,
2,
2,
1,
1,
1,
1,
4,
4,
14,
2,
4,
4,
10,
10,
11,
11,
10,
10,
8,
8,
1,
1,
2,
2,
2,
2,
8,
8,
7,
42,
41,
41,
38,
3,
4,
4,
6,
6,
8,
8,
7,
7,
8,
8,
12,
12,
18,
18,
22,
22,
21,
4,
4,
21,
20,
20,
14,
14,
17,
17,
22,
22,
18,
6,
7,
7,
13,
13,
12,
12,
14,
1,
2,
20,
19,
19,
28,
28,
31,
31,
30,
14,
14,
1,
1,
1,
0,
0,
2,
2,
4,
4,
10,
10,
13,
13,
19,
19,
13,
0,
0,
0,
0,
0,
1,
1,
6,
6,
5,
5,
9,
9,
8,
8,
9,
9,
7,
7,
0,
0,
6,
6,
12,
12,
18,
18,
21,
21,
20,
2,
4,
4,
13,
13,
12,
12,
21,
37,
37,
37,
32,
12,
12,
12,
17,
36,
35,
35,
35,
5,
6,
6,
8,
8,
2,
2,
2,
2,
8,
8,
2,
21,
20,
8,
9,
9,
1,
1,
10,
21,
18,
1,
2,
2,
4,
4,
2,
13,
13,
13,
9,
9,
5,
21,
21,
21,
16,
1,
2,
2,
3,
3,
2,
15,
14,
14,
18,
18,
17,
17,
18,
5,
5,
5,
6,
6,
11,
11,
20,
20,
24,
7,
8,
8,
12,
12,
17,
6,
6,
21,
21,
21,
21,
2,
4,
15,
14,
14,
21,
21,
15,
4,
5,
5,
5,
5,
10,
10,
17,
17,
12,
12,
11,
11,
6,
18,
18,
18,
24,
8,
8,
8,
14,
2,
6,
45,
45,
56,
51,
14,
15,
15,
22,
38,
37,
37,
43,
43,
33,
3,
4,
4,
2,
2,
6,
20,
20,
5,
5,
20,
20,
20,
19,
19,
20,
20,
13,
26,
26,
26,
27,
27,
22,
7,
7,
7,
8,
8,
9,
9,
14,
37,
36,
36,
31,
18,
19,
19,
18,
18,
25,
44,
40,
9,
18,
38,
38,
60,
60,
60,
64,
33,
34,
5,
5,
18,
17,
17,
24,
24,
21,
9,
10,
10,
10,
21,
21,
21,
26,
15,
17,
36,
34,
9,
18,
51,
50,
50,
42,
25,
25,
25,
18,
1,
3,
3,
9,
9,
5,
28,
28,
57,
57,
37,
38,
5,
9,
23,
22,
36,
34,
34,
34,
5,
6,
21,
20,
20,
22,
22,
17,
4,
5,
5,
1,
1,
2,
2,
0,
0,
0,
0,
9,
9,
5,
21,
20,
20,
28,
3,
5,
26,
24,
24,
20,
1,
4,
33,
33,
19,
20,
5,
15,
15,
21,
45,
44,
44,
47,
47,
45,
31,
32,
9,
28,
44,
41,
5,
6,
6,
6,
23,
22,
39,
38,
38,
30,
30,
27,
27,
22,
22,
17,
17,
12,
1,
1,
12,
12,
12,
11,
11,
17,
35,
34,
34,
38,
38,
30,
14,
14,
1,
1,
12,
11,
11,
18,
18,
17,
2,
8,
31,
31,
31,
22,
3,
6,
6,
9,
9,
7,
38,
38,
52,
50,
22,
8,
39,
38,
63,
62,
62,
52,
41,
42,
15,
16,
16,
12,
12,
6,
49,
49,
64,
64,
64,
61,
46,
46,
46,
45,
32,
34,
6,
6,
39,
38,
52,
47,
33,
34,
19,
20,
20,
12,
12,
15,
15,
20,
20,
27,
27,
18,
1,
5,
5,
11,
11,
5,
18,
17,
2,
6,
22,
21,
21,
27,
2,
2,
2,
5,
5,
0,
0,
5,
5,
14,
14,
14,
2,
12,
30,
30,
30,
34,
15,
15,
15,
19,
19,
18,
29,
28,
9,
9,
9,
3,
3,
9,
9,
14,
1,
2,
2,
3,
3,
4,
4,
6,
6,
7,
7,
13,
13,
13,
1,
6,
25,
24,
13,
13,
1,
5,
21,
21,
21,
29,
29,
20,
1,
2,
2,
2,
2,
9,
9,
12,
1,
1,
12,
12,
12,
20,
20,
16,
16,
14,
14,
17,
17,
18,
18,
14,
3,
7,
36,
35,
35,
26,
26,
21,
6,
6,
21,
20,
20,
19,
19,
13,
13,
18,
18,
10,
22,
22,
44,
43,
30,
30,
5,
8,
44,
42,
42,
33,
6,
10,
43,
43,
62,
60,
25,
26,
7,
24,
45,
44,
26,
26,
3,
3,
3,
0,
0,
2,
2,
2,
2,
5,
5,
3,
3,
6,
6,
2,
2,
1,
1,
2,
2,
2,
2,
8,
8,
2,
16,
15,
15,
8,
8,
6,
6,
11,
11,
18,
18,
20,
3,
6,
6,
9,
9,
5,
5,
5,
5,
0,
0,
4,
4,
3,
3,
1,
1,
9,
33,
32,
44,
44,
18,
18,
3,
9,
20,
20,
38,
38,
38,
30,
14,
14,
14,
6,
6,
8,
8,
4,
18,
18,
18,
22,
4,
5,
5,
1,
13,
12,
12,
20,
20,
22,
22,
22,
22,
25,
12,
13,
13,
10,
10,
1,
1,
5,
5,
5,
5,
-1,
-1,
8,
8,
12,
12,
12,
12,
12,
12,
9,
29,
28,
53,
52,
52,
48,
11,
11,
11,
15,
26,
25,
25,
28,
28,
24,
3,
4,
4,
2,
15,
15,
3,
4,
4,
10,
10,
6,
19,
18,
18,
28,
41,
37,
4,
4,
22,
22,
53,
53,
53,
47,
20,
20,
8,
9,
9,
12,
12,
9,
9,
2,
2,
7,
7,
5,
17,
16,
16,
17,
6,
7,
7,
1,
1,
6,
6,
10,
10,
8,
8,
1,
1,
5,
5,
8,
8,
8,
8,
3,
3,
10,
10,
19,
3,
4,
4,
10,
10,
9,
9,
2,
2,
1,
1,
1,
1,
2,
2,
4,
4,
0,
0,
4,
4,
2,
2,
12,
28,
28,
28,
24,
24,
23,
2,
4,
19,
18,
40,
39,
39,
45,
8,
9,
32,
31,
8,
9,
9,
17,
30,
28,
7,
21,
46,
46,
29,
30,
4,
7,
22,
22,
22,
20,
20,
17,
17,
13,
13,
10,
10,
6,
6,
5,
5,
5,
5,
13,
13,
11,
11,
6,
6,
3,
3,
3,
21,
21,
21,
24,
12,
12,
12,
6,
6,
6,
6,
12,
12,
4,
15,
14,
27,
26,
26,
19,
3,
8,
8,
3,
15,
14,
14,
17,
17,
17,
17,
20,
7,
7,
7,
15,
15,
16,
16,
14,
14,
18,
18,
21,
21,
16,
5,
5,
5,
2,
2,
6,
6,
10,
10,
12,
12,
9,
9,
9,
9,
10,
10,
6,
6,
10,
10,
7,
20,
19,
3,
4,
22,
22,
42,
40,
14,
14,
-1,
0,
0,
8,
8,
3,
17,
16,
16,
16,
16,
8,
8,
4,
4,
0,
0,
1,
1,
2,
2,
2,
2,
0,
0,
0,
0,
4,
4,
5,
5,
12,
12,
7,
29,
28,
10,
10,
10,
4,
4,
1,
1,
8,
8,
15,
15,
12,
12,
4,
4,
4,
4,
0,
0,
0,
0,
0,
0,
4,
4,
8,
8,
4,
4,
6,
21,
20,
20,
14,
14,
7,
7,
15,
15,
10,
10,
1,
1,
0,
0,
4,
4,
10,
10,
11,
11,
8,
8,
13,
13,
13,
13,
9,
9,
10,
10,
10,
10,
9,
31,
30,
48,
45,
8,
9,
41,
41,
11,
14,
53,
52,
18,
18,
4,
10,
10,
18,
30,
29,
29,
30,
30,
26,
26,
25,
13,
13,
2,
8,
26,
25,
8,
8,
8,
5,
5,
1,
28,
27,
41,
39,
28,
29,
9,
9,
9,
5,
5,
2,
21,
20,
33,
32,
32,
28,
28,
23,
6,
7,
7,
11,
24,
24,
24,
20,
2,
2,
2,
10,
10,
3,
3,
8,
8,
14,
14,
5,
5,
9,
9,
2,
2,
5,
5,
12,
23,
22,
22,
20,
4,
4,
17,
16,
16,
20,
20,
11,
11,
2,
2,
1,
1,
6,
6,
7,
7,
8,
8,
6,
6,
14,
14,
6,
6,
4,
4,
1,
1,
6,
6,
2,
2,
3,
3,
3,
3,
3,
3,
5,
5,
4,
4,
5,
5,
3,
3,
8,
8,
8,
8,
6,
24,
23,
23,
15,
15,
10,
10,
1,
1,
7,
7,
3,
3,
2,
2,
6,
6,
8,
8,
16,
2,
3,
3,
8,
8,
10,
10,
6,
6,
6,
6,
7,
7,
8,
20,
19,
19,
20,
7,
7,
7,
10,
10,
20,
48,
48,
48,
49,
8,
8,
22,
22,
22,
27,
27,
20,
20,
14,
1,
3,
3,
1,
1,
4,
4,
4,
4,
3,
3,
4,
4,
2,
2,
5,
5,
-1,
-1,
8,
8,
6,
6,
6,
29,
29,
29,
34,
34,
30,
4,
4,
22,
21,
21,
21,
21,
21,
21,
29,
29,
24,
10,
10,
10,
1,
1,
1,
15,
14,
14,
8,
8,
10,
47,
47,
64,
61,
11,
12,
12,
13,
13,
6,
17,
16,
27,
26,
26,
25,
5,
12,
43,
42,
28,
28,
5,
10,
37,
36,
21,
21,
1,
2,
2,
4,
4,
0,
0,
4,
4,
3,
3,
6,
6,
4,
4,
4,
4,
8,
26,
26,
15,
15,
1,
6,
6,
2,
2,
9,
9,
3,
3,
3,
3,
0,
0,
3,
3,
3,
3,
3,
3,
5,
5,
14,
1,
2,
2,
10,
10,
13,
13,
10,
10,
5,
5,
2,
2,
5,
5,
5,
16,
15,
15,
21,
21,
14,
14,
4,
4,
3,
14,
14,
14,
18,
6,
6,
6,
4,
4,
6,
6,
2,
2,
0,
0,
2,
2,
0,
0,
2,
2,
6,
6,
2,
26,
25,
44,
42,
18,
18,
0,
1,
1,
4,
4,
13,
13,
8,
8,
4,
4,
10,
10,
17,
17,
17,
17,
20,
6,
7,
7,
13,
13,
10,
10,
5,
5,
6,
6,
1,
1,
3,
15,
15,
26,
23,
4,
4,
4,
2,
2,
1,
15,
14,
14,
5,
5,
0,
0,
9,
9,
7,
22,
21,
5,
5,
23,
22,
22,
22,
4,
8,
22,
21,
21,
16,
16,
6,
6,
1,
1,
6,
6,
15,
15,
22,
22,
22,
7,
8,
8,
7,
7,
7,
7,
6,
6,
2,
2,
4,
4,
5,
5,
2,
2,
6,
6,
9,
9,
1,
12,
11,
11,
9,
26,
25,
25,
29,
18,
18,
3,
4,
15,
15,
15,
23,
23,
19,
19,
12,
12,
13,
13,
13,
13,
7,
7,
6,
6,
10,
10,
1,
1,
0,
0,
1,
17,
16,
16,
21,
21,
12,
-1,
0,
0,
0,
0,
1,
1,
1,
16,
15,
15,
24,
8,
9,
9,
0,
0,
10,
21,
20,
8,
8,
8,
3,
3,
8,
8,
7,
7,
6,
6,
14,
14,
6,
6,
0,
0,
2,
2,
5,
5,
4,
4,
2,
2,
5,
5,
6,
6,
5,
5,
12,
12,
14,
14,
20,
20,
16,
2,
8,
20,
20,
20,
16,
16,
6,
18,
18,
18,
17,
17,
10,
10,
6,
6,
5,
17,
16,
16,
10,
10,
15,
15,
11,
11,
1,
1,
6,
6,
2,
2,
8,
8,
8,
33,
32,
9,
9,
53,
52,
52,
44,
5,
6,
6,
13,
13,
14,
14,
19,
19,
14,
14,
6,
6,
2,
2,
10,
10,
13,
13,
21,
21,
20,
2,
5,
26,
25,
25,
25,
8,
9,
9,
5,
5,
6,
6,
6,
6,
5,
5,
5,
5,
6,
6,
4,
4,
4,
4,
1,
1,
10,
28,
28,
28,
24,
24,
20,
20,
20,
20,
20,
5,
6,
6,
8,
19,
18,
18,
26,
26,
22,
22,
18,
18,
8,
8,
14,
2,
2,
2,
10,
10,
11,
11,
3,
3,
12,
1,
2,
2,
6,
6,
2,
2,
10,
10,
9,
9,
6,
6,
5,
5,
3,
3,
6,
6,
8,
8,
2,
2,
1,
1,
7,
7,
9,
9,
8,
8,
13,
13,
15,
15,
24,
24,
14,
3,
4,
4,
5,
5,
11,
31,
30,
30,
22,
6,
7,
7,
1,
1,
1,
1,
0,
0,
5,
16,
14,
3,
4,
4,
3,
3,
1,
1,
5,
5,
5,
5,
13,
13,
6,
32,
32,
32,
33,
7,
7,
7,
4,
4,
2,
2,
4,
4,
5,
18,
17,
17,
21,
21,
26,
26,
27,
27,
22,
22,
16,
2,
2,
16,
14,
14,
12,
12,
9,
9,
5,
5,
6,
6,
14,
14,
21,
21,
24,
24,
19,
6,
6,
6,
2,
2,
6,
6,
7,
30,
30,
8,
8,
31,
31,
31,
24,
13,
13,
13,
15,
15,
19,
19,
17,
17,
17,
17,
14,
14,
8,
8,
6,
35,
34,
50,
48,
48,
46,
33,
34,
5,
5,
18,
17,
17,
24,
24,
20,
20,
14,
14,
15,
15,
21,
21,
20,
4,
4,
4,
2,
2,
1,
1,
9,
31,
31,
45,
44,
20,
21,
0,
1,
1,
3,
3,
8,
8,
2,
17,
16,
16,
9,
9,
4,
4,
4,
17,
16,
31,
29,
8,
9,
9,
14,
14,
13,
13,
4,
4,
4,
4,
1,
1,
2,
2,
5,
5,
0,
0,
3,
3,
1,
1,
4,
4,
0,
0,
5,
5,
9,
9,
14,
26,
25,
9,
10,
10,
13,
13,
16,
16,
9,
9,
4,
4,
4,
4,
2,
2,
12,
12,
20,
20,
10,
10,
3,
3,
3,
3,
2,
2,
4,
4,
2,
2,
2,
2,
6,
6,
2,
2,
3,
3,
6,
6,
4,
4,
2,
2,
2,
2,
11,
11,
13,
13,
15,
15,
8,
8,
9,
9,
8,
8,
8,
8,
1,
1,
7,
7,
11,
0,
2,
2,
3,
3,
5,
5,
2,
2,
1,
1,
9,
9,
10,
10,
4,
4,
5,
5,
0,
0,
4,
4,
5,
5,
14,
14,
23,
23,
23,
10,
10,
10,
0,
0,
2,
2,
9,
9,
10,
10,
2,
2,
5,
5,
12,
12,
9,
9,
9,
9,
8,
8,
2,
2,
10,
10,
3,
3,
12,
46,
46,
25,
25,
4,
5,
5,
5,
18,
17,
17,
14,
14,
13,
13,
5,
5,
3,
3,
4,
4,
9,
9,
4,
4,
0,
0,
0,
0,
2,
2,
0,
0,
2,
13,
13,
13,
23,
23,
14,
1,
1,
1,
2,
2,
4,
4,
5,
5,
13,
13,
8,
8,
8,
8,
5,
5,
14,
14,
22,
8,
9,
9,
9,
9,
18,
30,
29,
29,
31,
5,
7,
35,
33,
33,
37,
37,
39,
39,
31,
4,
5,
26,
26,
26,
32,
21,
21,
8,
9,
9,
10,
10,
5,
5,
8,
8,
12,
12,
7,
35,
35,
35,
25,
4,
8,
23,
21,
21,
6,
32,
32,
60,
57,
13,
13,
13,
18,
18,
22,
9,
9,
9,
2,
2,
3,
3,
1,
1,
3,
3,
5,
5,
6,
6,
8,
8,
5,
5,
1,
1,
10,
10,
20,
20,
20,
20,
13,
13,
12,
12,
12,
12,
8,
27,
26,
40,
40,
40,
48,
48,
40,
6,
6,
30,
30,
43,
43,
31,
31,
13,
13,
2,
3,
3,
4,
4,
4,
4,
7,
7,
13,
1,
2,
2,
2,
2,
2,
2,
-1,
-1,
1,
1,
1,
1,
3,
3,
6,
6,
2,
2,
2,
2,
6,
6,
6,
6,
8,
8,
15,
15,
9,
9,
12,
12,
5,
5,
7,
19,
18,
18,
13,
13,
11,
11,
9,
9,
9,
9,
4,
4,
9,
9,
10,
10,
18,
18,
10,
10,
4,
4,
0,
0,
-1,
-1,
5,
5,
11,
11,
15,
15,
6,
6,
1,
13,
12,
12,
7,
7,
10,
21,
21,
5,
6,
6,
13,
13,
14,
14,
17,
17,
15,
15,
6,
6,
13,
25,
25,
25,
21,
4,
5,
31,
30,
16,
16,
1,
2,
2,
4,
17,
15,
15,
18,
2,
7,
21,
20,
9,
10,
10,
17,
4,
5,
22,
21,
4,
5,
23,
22,
22,
24,
5,
6,
6,
13,
33,
32,
32,
32,
32,
26,
10,
11,
11,
13,
13,
13,
13,
14,
14,
14,
2,
3,
3,
1,
1,
0,
0,
10,
24,
23,
23,
32,
20,
20,
2,
4,
16,
15,
37,
36,
36,
28,
13,
13,
26,
25,
14,
16,
0,
3,
3,
10,
10,
13,
13,
12,
12,
5,
5,
7,
7,
3,
3,
9,
9,
10,
10,
12,
12,
3,
3,
12,
0,
1,
1,
2,
2,
1,
1,
4,
4,
7,
7,
9,
9,
16,
1,
1,
1,
4,
4,
-1,
-1,
1,
1,
-1,
-1,
1,
1,
4,
4,
0,
0,
2,
2,
0,
0,
2,
2,
2,
13,
12,
12,
18,
1,
2,
2,
-1,
18,
18,
18,
21,
8,
9,
9,
1,
1,
2,
2,
3,
3,
5,
5,
0,
0,
1,
1,
2,
2,
0,
12,
12,
12,
14,
14,
5,
5,
5,
5,
14,
14,
12,
1,
6,
6,
2,
2,
5,
5,
1,
1,
4,
4,
7,
7,
2,
2,
6,
6,
1,
1,
3,
3,
6,
17,
16,
16,
20,
4,
4,
4,
8,
8,
17,
28,
26,
26,
23,
11,
11,
11,
3,
3,
11,
23,
23,
23,
25,
25,
23,
10,
10,
10,
5,
5,
5,
5,
7,
7,
13,
13,
15,
2,
10,
40,
40,
20,
20,
4,
12,
12,
21,
21,
25,
25,
26,
5,
5,
16,
14,
1,
1,
1,
6,
6,
7,
7,
5,
5,
2,
2,
1,
1,
2,
2,
8,
8,
9,
9,
0,
0,
8,
8,
6,
6,
10,
10,
10,
10,
1,
1,
2,
2,
9,
9,
13,
1,
2,
2,
6,
6,
8,
8,
1,
1,
0,
0,
6,
6,
10,
10,
13,
13,
7,
35,
34,
7,
8,
8,
2,
16,
14,
14,
13,
13,
5,
5,
12,
12,
8,
8,
18,
31,
29,
13,
14,
14,
6,
19,
18,
6,
6,
6,
4,
4,
7,
7,
5,
5,
-1,
-1,
1,
1,
10,
10,
2,
2,
8,
8,
5,
29,
28,
28,
35,
46,
46,
35,
36,
9,
9,
9,
14,
28,
28,
28,
30,
30,
26,
26,
30,
8,
8,
8,
2,
2,
6,
6,
1,
1,
1,
1,
6,
6,
11,
11,
13,
13,
6,
6,
2,
2,
6,
6,
5,
5,
2,
2,
1,
1,
-1,
-1,
6,
6,
12,
12,
7,
7,
2,
2,
8,
30,
29,
29,
24,
24,
20,
20,
21,
21,
12,
12,
8,
8,
2,
14,
14,
14,
18,
18,
22,
22,
20,
20,
12,
12,
9,
9,
8,
8,
1,
1,
2,
2,
1,
1,
7,
7,
12,
12,
8,
8,
8,
8,
6,
6,
2,
18,
18,
29,
29,
15,
15,
50,
50,
65,
65,
20,
20,
1,
2,
2,
0,
0,
4,
4,
9,
9,
15,
15,
14,
14,
20,
20,
23,
10,
10,
10,
3,
3,
2,
2,
1,
1,
-1,
-1,
2,
2,
0,
0,
9,
9,
9,
9,
8,
8,
9,
9,
3,
3,
11,
11,
4,
24,
23,
34,
33,
22,
22,
1,
2,
2,
8,
8,
4,
4,
5,
5,
6,
6,
12,
12,
12,
12,
10,
10,
10,
10,
14,
14,
20,
6,
6,
6,
11,
11,
7,
7,
10,
10,
3,
3,
10,
10,
8,
8,
9,
9,
17,
17,
10,
10,
12,
12,
18,
18,
18,
18,
10,
10,
3,
14,
14,
14,
18,
18,
14,
14,
6,
6,
4,
4,
-1,
-1,
1,
1,
1,
1,
2,
2,
2,
13,
12,
12,
8,
8,
9,
9,
10,
10,
2,
2,
9,
9,
0,
0,
-1,
11,
10,
10,
7,
7,
6,
6,
15,
15,
10,
10,
10,
10,
8,
8,
3,
3,
0,
13,
12,
12,
20,
9,
10,
10,
2,
2,
8,
8,
7,
7,
7,
7,
0,
0,
3,
3,
9,
9,
6,
6,
0,
13,
12,
12,
13,
13,
15,
31,
30,
30,
22,
1,
2,
2,
7,
7,
14,
14,
15,
15,
9,
9,
8,
8,
9,
9,
7,
7,
10,
10,
11,
11,
3,
3,
5,
5,
0,
0,
6,
6,
13,
13,
17,
4,
4,
4,
4,
4,
5,
5,
6,
6,
3,
3,
8,
20,
20,
20,
18,
18,
