EMG_S3/DS0029.CSV

Memory Length,4000,
Trigger Level,-4.80000e+02,
Source,CH1,
Probe,1.0X,
Vertical Units,V,
Vertical Scale,1.00000e+00,
Vertical Position,0.00000e+00,
Horizontal Units,S,
Horizontal Scale,1.00000e-01,
Horizontal Position,0.0000000e+00,
Horizontal Mode,Roll Mode,
Waveform Last Dot Address,4000,
Sampling Period,4.00000e-04,
Firmware,V1.14,
Time, ,
Mode,Fast,
Waveform Data,
1,
20,
20,
20,
18,
1,
2,
2,
8,
8,
9,
9,
0,
0,
-1,
-1,
1,
1,
1,
1,
0,
0,
0,
0,
2,
2,
8,
8,
12,
1,
4,
4,
13,
13,
9,
9,
8,
8,
3,
3,
10,
10,
6,
6,
5,
5,
1,
1,
9,
9,
2,
2,
8,
24,
23,
23,
13,
1,
2,
14,
13,
13,
14,
14,
12,
12,
10,
10,
5,
5,
1,
1,
2,
2,
1,
1,
0,
21,
20,
20,
20,
1,
2,
2,
1,
1,
0,
0,
6,
6,
13,
13,
8,
8,
6,
6,
6,
6,
1,
1,
4,
4,
0,
0,
1,
1,
5,
5,
10,
10,
10,
10,
2,
14,
14,
14,
7,
7,
6,
21,
20,
20,
10,
10,
2,
2,
6,
19,
18,
18,
19,
1,
2,
2,
2,
2,
3,
24,
23,
36,
36,
36,
41,
25,
25,
5,
6,
6,
1,
17,
16,
16,
15,
3,
3,
3,
4,
15,
14,
28,
27,
10,
10,
-1,
0,
0,
1,
1,
5,
5,
2,
2,
5,
5,
11,
11,
10,
10,
5,
5,
13,
13,
7,
7,
0,
0,
5,
5,
12,
12,
13,
13,
8,
8,
2,
2,
6,
6,
1,
1,
-1,
-1,
5,
5,
3,
3,
4,
4,
13,
13,
18,
18,
14,
1,
2,
2,
6,
6,
5,
5,
9,
9,
13,
13,
14,
14,
13,
13,
9,
9,
2,
13,
13,
13,
14,
14,
13,
13,
9,
9,
0,
14,
13,
13,
14,
1,
2,
2,
12,
12,
17,
17,
14,
14,
10,
10,
6,
6,
2,
2,
1,
1,
0,
0,
5,
5,
6,
6,
9,
9,
8,
8,
8,
8,
10,
10,
11,
11,
2,
2,
2,
2,
2,
2,
4,
4,
3,
3,
1,
1,
1,
1,
0,
0,
10,
10,
18,
18,
22,
22,
20,
4,
12,
46,
45,
45,
50,
33,
33,
33,
25,
8,
8,
8,
8,
20,
19,
19,
27,
27,
25,
25,
28,
28,
33,
33,
24,
8,
8,
8,
5,
5,
9,
9,
5,
5,
1,
1,
4,
4,
6,
6,
8,
8,
12,
12,
14,
14,
13,
13,
14,
14,
18,
18,
17,
3,
4,
4,
10,
10,
10,
-1,
0,
13,
13,
13,
6,
6,
8,
8,
10,
10,
18,
2,
3,
19,
18,
18,
22,
22,
14,
14,
9,
9,
13,
2,
3,
3,
6,
6,
5,
5,
1,
1,
4,
4,
2,
2,
9,
9,
6,
6,
2,
2,
-1,
-1,
3,
3,
2,
2,
7,
7,
12,
12,
18,
18,
25,
25,
28,
28,
22,
4,
6,
21,
20,
20,
24,
24,
25,
25,
23,
23,
15,
15,
10,
10,
10,
10,
6,
6,
3,
3,
2,
2,
7,
7,
13,
13,
16,
16,
20,
20,
23,
23,
17,
5,
5,
5,
6,
6,
7,
7,
14,
2,
9,
25,
24,
24,
28,
28,
21,
3,
3,
3,
2,
2,
2,
2,
1,
1,
3,
3,
9,
9,
6,
38,
38,
57,
56,
33,
34,
2,
3,
3,
13,
13,
21,
36,
35,
35,
37,
8,
9,
9,
5,
5,
0,
0,
2,
2,
4,
4,
2,
2,
6,
6,
15,
15,
9,
9,
4,
4,
5,
5,
4,
4,
4,
4,
4,
4,
2,
2,
4,
4,
7,
19,
18,
18,
21,
21,
24,
24,
18,
2,
3,
3,
7,
7,
15,
15,
18,
18,
21,
21,
14,
14,
6,
6,
3,
3,
2,
2,
4,
4,
2,
2,
5,
5,
4,
4,
13,
40,
40,
40,
49,
33,
34,
13,
13,
1,
6,
22,
21,
21,
29,
29,
29,
29,
26,
26,
18,
18,
6,
6,
4,
4,
6,
6,
0,
0,
-1,
-1,
2,
2,
9,
9,
2,
2,
10,
10,
18,
18,
22,
22,
24,
24,
14,
14,
5,
5,
1,
1,
1,
13,
13,
13,
17,
17,
25,
25,
34,
34,
29,
15,
16,
1,
5,
5,
13,
13,
18,
5,
6,
6,
9,
9,
4,
16,
15,
15,
18,
18,
12,
1,
2,
2,
2,
2,
2,
2,
3,
3,
1,
1,
2,
2,
-1,
-1,
0,
15,
14,
41,
41,
29,
30,
6,
6,
6,
4,
4,
9,
9,
16,
16,
23,
23,
15,
3,
14,
28,
27,
6,
7,
20,
19,
19,
13,
1,
2,
2,
1,
1,
2,
2,
0,
0,
6,
6,
5,
5,
1,
1,
5,
5,
3,
3,
10,
10,
1,
1,
-2,
-2,
2,
2,
2,
15,
14,
14,
7,
7,
2,
2,
8,
8,
8,
8,
9,
9,
6,
6,
14,
14,
15,
15,
9,
9,
9,
9,
2,
16,
16,
16,
20,
6,
6,
6,
6,
6,
8,
8,
16,
16,
20,
1,
1,
1,
11,
11,
17,
6,
6,
6,
9,
9,
10,
10,
2,
14,
13,
13,
18,
1,
2,
2,
6,
6,
15,
15,
8,
8,
2,
2,
6,
6,
6,
20,
19,
19,
22,
22,
12,
12,
3,
3,
8,
8,
17,
17,
20,
20,
15,
15,
6,
6,
1,
1,
6,
6,
14,
0,
1,
1,
8,
20,
20,
20,
21,
10,
10,
10,
3,
3,
5,
5,
13,
13,
4,
21,
21,
21,
20,
20,
15,
15,
6,
6,
3,
3,
10,
10,
10,
10,
6,
6,
5,
5,
2,
2,
5,
5,
14,
14,
15,
15,
13,
13,
10,
10,
3,
14,
14,
26,
26,
26,
22,
5,
5,
5,
4,
4,
4,
4,
2,
2,
9,
9,
5,
5,
2,
2,
3,
3,
4,
4,
9,
9,
2,
2,
3,
3,
0,
0,
2,
2,
2,
2,
4,
4,
6,
6,
8,
8,
3,
3,
10,
10,
10,
10,
8,
8,
5,
5,
9,
32,
32,
32,
29,
2,
2,
2,
9,
9,
8,
8,
1,
1,
9,
9,
18,
18,
20,
20,
15,
15,
6,
6,
2,
2,
8,
8,
9,
9,
6,
6,
2,
2,
0,
0,
5,
5,
4,
4,
10,
40,
40,
52,
49,
29,
30,
5,
5,
17,
17,
29,
28,
28,
29,
29,
23,
23,
17,
17,
8,
8,
2,
2,
1,
1,
0,
0,
6,
6,
9,
9,
11,
11,
6,
6,
5,
5,
4,
4,
6,
6,
1,
1,
9,
9,
9,
9,
0,
0,
0,
0,
6,
6,
9,
9,
14,
14,
20,
20,
14,
14,
8,
8,
6,
6,
10,
10,
6,
6,
10,
10,
9,
9,
4,
4,
2,
2,
4,
4,
1,
1,
3,
3,
4,
4,
7,
7,
5,
5,
1,
1,
5,
5,
6,
6,
1,
12,
12,
12,
20,
20,
20,
33,
32,
32,
14,
14,
14,
14,
8,
8,
2,
18,
18,
18,
24,
24,
20,
20,
13,
13,
17,
17,
25,
25,
19,
8,
9,
9,
3,
3,
0,
13,
12,
12,
18,
18,
17,
17,
18,
18,
16,
3,
4,
4,
1,
1,
0,
0,
1,
1,
1,
1,
1,
1,
2,
2,
1,
12,
11,
11,
9,
9,
2,
2,
3,
19,
18,
18,
26,
13,
13,
1,
2,
21,
20,
20,
16,
16,
6,
20,
20,
36,
33,
9,
10,
10,
17,
30,
30,
17,
17,
4,
5,
19,
19,
19,
14,
0,
1,
1,
-1,
-1,
2,
2,
6,
6,
11,
11,
12,
12,
5,
5,
0,
0,
0,
0,
7,
7,
1,
1,
11,
11,
12,
12,
7,
7,
2,
2,
9,
9,
2,
13,
13,
13,
9,
9,
4,
4,
6,
6,
4,
4,
3,
3,
6,
6,
6,
6,
2,
2,
1,
1,
0,
0,
2,
2,
3,
3,
1,
1,
2,
2,
2,
2,
1,
1,
4,
4,
6,
6,
6,
6,
4,
4,
0,
0,
0,
0,
6,
6,
5,
5,
2,
2,
2,
2,
11,
11,
9,
9,
3,
3,
4,
4,
6,
20,
20,
20,
24,
24,
22,
22,
20,
8,
9,
9,
5,
5,
5,
5,
2,
2,
2,
2,
11,
11,
12,
12,
12,
12,
18,
18,
19,
3,
3,
3,
3,
3,
1,
1,
4,
4,
2,
2,
5,
5,
2,
2,
-1,
-1,
3,
3,
8,
8,
3,
3,
2,
2,
8,
8,
3,
3,
8,
8,
1,
1,
6,
6,
11,
0,
0,
0,
2,
2,
1,
1,
7,
7,
8,
8,
2,
2,
5,
5,
1,
20,
20,
20,
20,
2,
6,
19,
18,
18,
19,
19,
15,
15,
18,
18,
18,
4,
5,
5,
2,
2,
4,
4,
4,
4,
8,
8,
15,
15,
13,
13,
5,
5,
5,
5,
9,
9,
8,
8,
6,
6,
0,
0,
1,
1,
0,
0,
1,
1,
-1,
-1,
0,
0,
-1,
-1,
-1,
-1,
4,
4,
1,
1,
3,
3,
9,
9,
12,
12,
9,
9,
0,
0,
2,
2,
1,
1,
7,
7,
6,
6,
11,
11,
7,
7,
4,
4,
12,
12,
12,
12,
10,
10,
7,
7,
3,
3,
-1,
-1,
0,
0,
4,
4,
3,
3,
-1,
-1,
0,
0,
2,
2,
3,
3,
1,
1,
3,
3,
7,
7,
7,
7,
6,
6,
7,
7,
5,
5,
1,
17,
17,
17,
22,
22,
15,
1,
2,
2,
5,
5,
11,
11,
12,
12,
8,
8,
5,
5,
9,
9,
7,
7,
4,
23,
22,
22,
26,
2,
4,
4,
12,
12,
9,
9,
1,
14,
14,
14,
15,
15,
10,
10,
1,
1,
6,
6,
12,
12,
21,
32,
32,
32,
32,
12,
12,
30,
30,
47,
47,
47,
45,
19,
19,
1,
2,
2,
9,
9,
7,
7,
9,
21,
21,
21,
26,
26,
22,
22,
18,
18,
9,
9,
0,
0,
6,
6,
2,
2,
4,
4,
12,
12,
18,
18,
18,
18,
8,
8,
1,
1,
-1,
-1,
-1,
-1,
2,
2,
8,
8,
2,
2,
8,
8,
4,
4,
-1,
-1,
2,
2,
1,
1,
1,
1,
5,
5,
0,
0,
6,
6,
5,
5,
2,
2,
1,
1,
5,
19,
17,
17,
12,
0,
2,
2,
10,
10,
7,
7,
2,
2,
8,
8,
10,
10,
6,
6,
13,
13,
17,
1,
4,
4,
7,
7,
2,
2,
2,
2,
4,
4,
4,
4,
0,
0,
1,
1,
5,
5,
11,
11,
11,
11,
5,
5,
4,
4,
-1,
-1,
0,
0,
3,
3,
6,
6,
6,
6,
2,
2,
6,
6,
2,
2,
-1,
-1,
0,
0,
-1,
-1,
-1,
-1,
2,
2,
0,
0,
4,
4,
2,
2,
2,
2,
2,
2,
1,
1,
2,
2,
0,
0,
1,
13,
12,
12,
4,
15,
14,
14,
21,
21,
17,
17,
21,
21,
22,
10,
10,
10,
5,
21,
21,
21,
26,
26,
21,
4,
5,
5,
6,
6,
2,
2,
11,
11,
10,
10,
13,
1,
3,
3,
5,
5,
5,
5,
2,
2,
2,
2,
9,
9,
11,
11,
6,
6,
1,
1,
1,
1,
5,
18,
16,
16,
15,
0,
1,
1,
1,
1,
0,
0,
6,
6,
10,
10,
16,
16,
7,
7,
12,
12,
6,
6,
6,
6,
6,
6,
5,
5,
4,
4,
0,
0,
2,
2,
0,
0,
2,
2,
8,
8,
5,
5,
9,
9,
16,
5,
5,
5,
3,
3,
1,
1,
1,
1,
6,
6,
8,
8,
2,
2,
2,
2,
5,
5,
7,
7,
2,
2,
-1,
-1,
2,
2,
1,
1,
2,
2,
2,
2,
2,
2,
2,
2,
3,
3,
-1,
-1,
2,
2,
3,
3,
2,
2,
6,
17,
16,
16,
7,
7,
1,
1,
8,
8,
14,
14,
13,
13,
12,
25,
24,
24,
24,
5,
6,
6,
7,
7,
15,
15,
24,
24,
21,
10,
10,
10,
1,
1,
1,
1,
6,
6,
4,
4,
4,
4,
6,
6,
5,
5,
5,
5,
2,
2,
4,
4,
7,
7,
2,
2,
4,
4,
5,
5,
5,
5,
0,
0,
0,
0,
6,
6,
15,
15,
11,
11,
5,
5,
6,
17,
16,
16,
17,
17,
10,
10,
5,
17,
16,
16,
20,
20,
16,
1,
2,
2,
8,
8,
2,
2,
0,
0,
6,
6,
0,
0,
0,
11,
9,
9,
10,
22,
22,
22,
18,
4,
11,
24,
23,
23,
21,
10,
10,
10,
1,
1,
7,
7,
10,
10,
13,
13,
9,
9,
10,
10,
12,
1,
3,
19,
18,
4,
5,
33,
33,
33,
25,
1,
2,
2,
11,
11,
2,
2,
4,
19,
18,
6,
7,
7,
6,
6,
10,
10,
8,
8,
16,
16,
24,
24,
21,
21,
12,
12,
12,
12,
11,
11,
2,
2,
10,
10,
17,
17,
14,
14,
18,
18,
21,
21,
14,
14,
11,
11,
6,
6,
1,
1,
6,
6,
2,
2,
1,
1,
2,
2,
3,
3,
12,
12,
13,
2,
3,
3,
5,
5,
2,
2,
-1,
-1,
2,
2,
0,
0,
8,
8,
14,
14,
6,
6,
2,
2,
2,
2,
7,
7,
3,
3,
0,
0,
4,
4,
6,
6,
10,
10,
9,
9,
3,
3,
4,
4,
2,
2,
2,
2,
2,
2,
6,
6,
12,
12,
14,
14,
14,
14,
6,
6,
1,
1,
4,
4,
1,
1,
4,
21,
20,
20,
26,
26,
21,
21,
14,
1,
4,
4,
9,
9,
7,
7,
10,
10,
15,
15,
14,
14,
10,
10,
5,
5,
3,
3,
2,
2,
8,
8,
1,
15,
14,
14,
14,
14,
6,
6,
5,
5,
7,
7,
6,
30,
30,
50,
50,
21,
22,
5,
14,
14,
21,
21,
13,
0,
1,
1,
6,
22,
22,
33,
33,
33,
30,
15,
16,
2,
2,
19,
18,
48,
46,
46,
36,
12,
12,
12,
3,
3,
-1,
-1,
2,
2,
8,
8,
4,
4,
1,
1,
6,
6,
11,
0,
1,
1,
1,
1,
6,
6,
2,
2,
-1,
-1,
5,
5,
3,
3,
-1,
-1,
8,
8,
6,
6,
1,
1,
7,
7,
11,
11,
3,
3,
2,
2,
0,
0,
2,
18,
18,
18,
16,
1,
1,
1,
5,
5,
14,
14,
22,
22,
18,
6,
7,
7,
0,
0,
4,
4,
2,
2,
0,
0,
6,
6,
11,
11,
2,
2,
1,
1,
0,
0,
-1,
-1,
5,
5,
2,
2,
9,
9,
5,
5,
1,
1,
1,
1,
0,
0,
8,
8,
14,
3,
3,
15,
14,
14,
14,
0,
1,
1,
0,
0,
5,
5,
10,
10,
9,
9,
6,
6,
2,
2,
1,
1,
9,
9,
15,
15,
8,
8,
6,
6,
5,
5,
3,
3,
2,
2,
1,
1,
6,
6,
12,
12,
2,
2,
-1,
-1,
1,
1,
0,
0,
7,
7,
10,
10,
2,
2,
1,
1,
1,
1,
5,
5,
9,
9,
7,
7,
10,
10,
7,
7,
12,
24,
23,
10,
10,
10,
6,
6,
4,
4,
1,
1,
10,
10,
15,
15,
23,
23,
21,
4,
9,
42,
42,
42,
36,
9,
9,
9,
2,
2,
9,
20,
19,
19,
17,
17,
13,
13,
5,
5,
7,
20,
19,
33,
33,
33,
31,
4,
6,
34,
34,
34,
42,
42,
34,
5,
6,
36,
36,
36,
32,
18,
18,
2,
3,
3,
11,
11,
12,
12,
4,
4,
0,
26,
25,
59,
30,
53,
50,
35,
36,
36,
32,
32,
28,
17,
18,
6,
6,
6,
5,
16,
16,
16,
24,
24,
26,
26,
18,
7,
8,
8,
9,
20,
20,
20,
20,
6,
6,
6,
13,
13,
6,
19,
18,
18,
22,
4,
5,
5,
13,
28,
28,
28,
28,
28,
20,
20,
15,
15,
14,
14,
13,
1,
2,
16,
16,
16,
22,
7,
7,
7,
0,
0,
10,
10,
10,
10,
4,
4,
4,
4,
0,
0,
2,
2,
8,
8,
4,
4,
-1,
-1,
0,
0,
-1,
-1,
0,
0,
3,
3,
9,
9,
8,
8,
9,
9,
15,
15,
18,
2,
6,
22,
22,
22,
23,
23,
16,
5,
6,
6,
2,
2,
3,
3,
3,
3,
7,
7,
11,
11,
9,
9,
2,
2,
1,
1,
6,
6,
3,
3,
2,
2,
3,
3,
3,
3,
0,
0,
3,
3,
3,
3,
8,
8,
2,
2,
10,
10,
7,
7,
7,
7,
2,
2,
1,
1,
4,
4,
5,
5,
7,
7,
6,
6,
5,
17,
17,
17,
13,
13,
7,
7,
5,
5,
1,
1,
1,
1,
2,
2,
3,
3,
1,
1,
10,
10,
8,
8,
5,
5,
8,
8,
6,
6,
8,
8,
12,
12,
14,
14,
9,
9,
1,
1,
6,
6,
14,
14,
18,
18,
15,
15,
13,
13,
10,
10,
3,
3,
4,
4,
10,
10,
8,
8,
1,
1,
3,
3,
6,
6,
1,
1,
6,
6,
14,
14,
23,
8,
8,
8,
7,
7,
9,
9,
4,
4,
6,
6,
6,
6,
12,
12,
18,
6,
6,
6,
6,
6,
12,
12,
9,
9,
10,
27,
26,
26,
27,
27,
24,
24,
20,
9,
10,
10,
19,
36,
34,
15,
16,
3,
5,
5,
1,
1,
1,
1,
4,
4,
9,
9,
6,
6,
10,
10,
20,
20,
13,
13,
6,
6,
0,
0,
-1,
-1,
2,
2,
6,
6,
14,
14,
16,
16,
12,
12,
4,
4,
2,
2,
0,
0,
2,
2,
1,
16,
15,
15,
17,
17,
16,
16,
12,
12,
9,
9,
0,
0,
6,
6,
13,
13,
13,
1,
3,
20,
19,
30,
29,
29,
22,
9,
10,
10,
9,
9,
3,
3,
3,
3,
5,
5,
13,
13,
5,
5,
1,
1,
3,
3,
5,
5,
2,
2,
2,
2,
0,
0,
-1,
-1,
5,
5,
13,
13,
12,
12,
11,
11,
2,
2,
1,
1,
0,
11,
11,
11,
21,
7,
8,
8,
6,
6,
2,
2,
8,
8,
12,
12,
4,
4,
2,
2,
6,
22,
22,
4,
4,
16,
16,
16,
25,
25,
22,
22,
13,
1,
4,
4,
12,
1,
5,
5,
6,
6,
2,
2,
0,
0,
6,
6,
4,
4,
6,
6,
11,
11,
2,
2,
0,
0,
8,
22,
21,
7,
7,
7,
2,
2,
5,
5,
9,
9,
1,
1,
6,
6,
1,
1,
9,
9,
15,
15,
10,
10,
2,
2,
5,
5,
1,
1,
6,
6,
2,
2,
6,
6,
9,
9,
17,
17,
12,
12,
8,
8,
7,
7,
5,
5,
5,
17,
16,
16,
13,
13,
6,
6,
2,
15,
14,
14,
14,
14,
4,
4,
1,
1,
2,
13,
12,
12,
15,
15,
14,
14,
10,
10,
6,
18,
16,
16,
13,
13,
12,
27,
26,
38,
36,
11,
11,
11,
8,
19,
18,
18,
22,
22,
18,
18,
22,
22,
26,
11,
12,
1,
2,
2,
3,
3,
3,
3,
2,
2,
1,
1,
7,
7,
12,
12,
7,
7,
1,
1,
6,
6,
9,
9,
11,
11,
8,
8,
8,
8,
5,
5,
6,
20,
19,
19,
21,
2,
3,
17,
17,
17,
19,
19,
14,
14,
5,
5,
1,
1,
10,
22,
21,
21,
23,
23,
21,
5,
5,
5,
9,
9,
17,
17,
8,
8,
6,
6,
14,
2,
2,
2,
3,
3,
6,
6,
6,
6,
6,
6,
1,
1,
3,
3,
6,
6,
4,
4,
2,
2,
-1,
-1,
3,
3,
7,
7,
6,
6,
2,
2,
8,
23,
22,
22,
25,
14,
14,
14,
10,
10,
9,
9,
2,
14,
14,
30,
30,
30,
32,
32,
27,
27,
18,
18,
10,
10,
4,
4,
8,
22,
21,
21,
29,
29,
22,
9,
9,
9,
4,
4,
0,
0,
6,
6,
11,
11,
4,
4,
3,
3,
0,
0,
0,
0,
-1,
19,
19,
3,
4,
24,
24,
24,
17,
1,
1,
12,
12,
12,
8,
8,
4,
4,
2,
14,
14,
14,
17,
17,
12,
12,
10,
10,
7,
7,
1,
1,
5,
21,
20,
20,
24,
24,
18,
18,
11,
0,
2,
2,
10,
10,
9,
9,
6,
6,
8,
8,
9,
9,
12,
12,
10,
10,
8,
8,
14,
14,
16,
16,
20,
20,
16,
4,
4,
4,
2,
2,
5,
5,
6,
6,
6,
6,
0,
0,
0,
0,
1,
1,
5,
5,
4,
4,
2,
2,
6,
6,
2,
2,
8,
8,
1,
1,
6,
6,
10,
10,
3,
17,
16,
16,
19,
7,
7,
7,
6,
19,
18,
4,
8,
49,
48,
48,
51,
25,
25,
9,
11,
11,
1,
1,
9,
20,
20,
20,
24,
24,
25,
25,
20,
20,
14,
14,
9,
9,
2,
2,
1,
1,
4,
4,
0,
0,
1,
1,
10,
10,
19,
19,
28,
17,
17,
4,
5,
5,
-1,
-1,
2,
2,
9,
9,
12,
1,
1,
18,
17,
17,
24,
24,
14,
-1,
0,
0,
6,
6,
6,
6,
1,
1,
2,
2,
1,
1,
4,
4,
1,
1,
8,
8,
13,
13,
14,
14,
11,
11,
17,
17,
13,
0,
2,
2,
5,
5,
11,
11,
14,
14,
13,
13,
11,
11,
4,
4,
4,
4,
6,
6,
2,
2,
11,
11,
6,
6,
3,
3,
2,
2,
5,
5,
7,
45,
45,
57,
53,
29,
30,
4,
4,
15,
15,
26,
26,
26,
28,
28,
22,
22,
16,
16,
15,
15,
10,
10,
2,
2,
-1,
-1,
-1,
-1,
6,
6,
1,
19,
18,
18,
21,
9,
-1,
-1,
0,
0,
2,
2,
1,
1,
5,
5,
10,
10,
16,
16,
17,
17,
10,
-1,
1,
1,
4,
4,
9,
9,
18,
18,
18,
18,
12,
12,
10,
10,
3,
3,
5,
5,
9,
9,
12,
1,
1,
12,
12,
12,
12,
12,
16,
36,
34,
14,
14,
0,
2,
2,
1,
1,
10,
10,
1,
13,
13,
13,
20,
2,
2,
2,
6,
6,
5,
5,
12,
12,
10,
10,
6,
6,
10,
10,
6,
6,
3,
3,
5,
5,
5,
5,
4,
4,
5,
5,
6,
6,
6,
6,
8,
8,
6,
6,
3,
3,
8,
8,
9,
9,
6,
6,
3,
3,
0,
0,
0,
0,
-2,
-2,
-2,
-2,
-1,
-1,
6,
6,
13,
13,
10,
10,
5,
5,
2,
2,
2,
2,
0,
0,
0,
0,
4,
4,
5,
5,
13,
13,
9,
9,
5,
5,
1,
1,
5,
5,
12,
12,
3,
3,
3,
3,
0,
0,
9,
9,
12,
12,
4,
4,
1,
1,
3,
3,
5,
5,
2,
2,
0,
0,
1,
1,
3,
3,
1,
1,
1,
1,
6,
6,
4,
4,
2,
2,
12,
12,
9,
9,
1,
1,
7,
7,
7,
7,
9,
9,
9,
9,
6,
6,
5,
5,
2,
2,
4,
4,
3,
3,
5,
5,
13,
13,
6,
6,
0,
0,
3,
3,
1,
1,
0,
0,
0,
0,
0,
0,
2,
2,
0,
0,
7,
7,
12,
1,
6,
20,
19,
19,
17,
17,
10,
10,
16,
16,
25,
14,
14,
2,
3,
3,
9,
9,
17,
30,
30,
30,
28,
16,
16,
16,
10,
10,
7,
24,
23,
23,
14,
1,
2,
2,
10,
10,
18,
18,
16,
3,
8,
8,
11,
11,
4,
4,
2,
2,
3,
3,
1,
1,
2,
2,
0,
0,
3,
3,
9,
9,
16,
16,
13,
13,
7,
7,
6,
6,
2,
2,
-1,
-1,
4,
4,
2,
2,
1,
1,
9,
9,
9,
9,
0,
0,
6,
6,
10,
10,
6,
6,
6,
6,
14,
14,
14,
14,
8,
8,
5,
5,
10,
10,
6,
6,
9,
9,
2,
23,
22,
22,
30,
3,
4,
4,
12,
12,
12,
12,
11,
11,
6,
6,
1,
1,
4,
4,
2,
2,
2,
2,
0,
0,
5,
5,
8,
8,
7,
7,
7,
7,
0,
0,
3,
3,
3,
3,
4,
4,
5,
5,
1,
1,
5,
5,
5,
17,
16,
4,
5,
5,
4,
4,
0,
0,
2,
2,
0,
0,
2,
2,
1,
1,
4,
4,
5,
5,
5,
5,
3,
3,
5,
5,
2,
2,
5,
5,
13,
13,
11,
11,
2,
15,
14,
14,
13,
13,
6,
6,
8,
8,
10,
10,
1,
1,
8,
8,
13,
13,
14,
14,
12,
12,
8,
8,
1,
1,
11,
11,
15,
15,
14,
14,
5,
5,
1,
1,
2,
2,
6,
6,
3,
3,
5,
5,
12,
12,
20,
20,
18,
18,
9,
9,
13,
48,
47,
36,
37,
12,
12,
0,
1,
1,
9,
9,
12,
12,
20,
20,
25,
12,
13,
0,
2,
2,
4,
4,
4,
4,
5,
5,
5,
5,
9,
9,
1,
1,
7,
7,
6,
6,
12,
12,
18,
18,
19,
19,
14,
2,
3,
3,
-1,
-1,
2,
2,
8,
8,
8,
8,
5,
5,
5,
5,
4,
4,
0,
0,
6,
6,
11,
11,
12,
0,
1,
1,
5,
5,
6,
6,
6,
6,
6,
6,
6,
6,
1,
1,
0,
0,
2,
2,
2,
2,
7,
7,
10,
10,
2,
2,
