EMG_S3/DS0026.CSV

Memory Length,4000,
Trigger Level,-4.80000e+02,
Source,CH1,
Probe,1.0X,
Vertical Units,V,
Vertical Scale,1.00000e+00,
Vertical Position,0.00000e+00,
Horizontal Units,S,
Horizontal Scale,1.00000e-01,
Horizontal Position,0.0000000e+00,
Horizontal Mode,Roll Mode,
Waveform Last Dot Address,4000,
Sampling Period,4.00000e-04,
Firmware,V1.14,
Time, ,
Mode,Fast,
Waveform Data,
8,
8,
4,
4,
0,
0,
13,
13,
18,
18,
14,
1,
2,
16,
16,
16,
16,
16,
18,
18,
23,
23,
18,
5,
6,
6,
1,
1,
8,
8,
9,
9,
0,
0,
7,
22,
22,
22,
26,
26,
20,
3,
5,
18,
18,
7,
7,
7,
9,
9,
13,
1,
2,
20,
20,
20,
27,
27,
18,
1,
2,
13,
13,
13,
18,
4,
5,
5,
9,
9,
6,
6,
1,
1,
1,
1,
6,
6,
14,
14,
13,
13,
4,
4,
4,
4,
3,
3,
1,
12,
12,
12,
20,
20,
19,
19,
11,
11,
4,
4,
1,
1,
8,
8,
4,
4,
1,
1,
4,
4,
12,
1,
3,
21,
21,
21,
20,
20,
20,
20,
25,
25,
16,
2,
2,
2,
6,
18,
16,
16,
16,
16,
10,
10,
12,
12,
16,
16,
14,
14,
5,
5,
-1,
-1,
2,
2,
1,
1,
1,
1,
2,
14,
13,
13,
20,
20,
12,
12,
5,
5,
2,
2,
1,
1,
0,
0,
3,
3,
3,
3,
10,
10,
14,
14,
14,
14,
5,
5,
2,
2,
8,
8,
10,
10,
19,
19,
18,
3,
4,
4,
2,
2,
9,
9,
16,
16,
20,
20,
14,
1,
2,
14,
14,
14,
16,
16,
10,
10,
2,
2,
4,
4,
4,
4,
6,
6,
2,
2,
6,
6,
1,
1,
6,
6,
4,
4,
1,
1,
7,
7,
9,
9,
4,
4,
5,
16,
15,
15,
16,
16,
9,
9,
2,
2,
3,
3,
6,
6,
4,
4,
0,
0,
1,
1,
3,
3,
6,
6,
12,
1,
2,
2,
12,
12,
14,
14,
11,
11,
6,
6,
3,
3,
2,
2,
6,
6,
6,
6,
9,
9,
2,
2,
1,
1,
2,
2,
9,
9,
11,
11,
12,
12,
3,
21,
21,
21,
14,
2,
8,
8,
10,
10,
7,
7,
4,
4,
7,
7,
6,
6,
6,
18,
18,
5,
5,
5,
2,
2,
1,
1,
10,
10,
6,
6,
6,
6,
1,
13,
13,
13,
7,
7,
6,
6,
12,
12,
11,
11,
2,
2,
2,
14,
13,
25,
24,
10,
10,
10,
5,
5,
14,
14,
5,
5,
14,
14,
22,
22,
21,
21,
22,
22,
15,
4,
4,
4,
2,
2,
7,
7,
11,
11,
10,
10,
5,
5,
1,
1,
2,
2,
9,
9,
7,
7,
2,
2,
0,
0,
4,
4,
8,
8,
1,
1,
6,
6,
4,
4,
5,
30,
30,
19,
20,
3,
7,
7,
6,
6,
5,
5,
10,
10,
8,
8,
10,
10,
10,
10,
3,
3,
3,
3,
0,
0,
5,
5,
6,
6,
4,
4,
-1,
-1,
3,
3,
5,
5,
12,
12,
16,
16,
8,
8,
7,
7,
14,
14,
23,
23,
17,
17,
12,
12,
4,
4,
7,
21,
20,
20,
20,
20,
16,
16,
14,
14,
16,
16,
12,
1,
2,
15,
14,
14,
14,
2,
4,
4,
7,
7,
6,
6,
2,
2,
2,
2,
3,
3,
2,
2,
4,
4,
-1,
-1,
-1,
-1,
3,
3,
3,
14,
13,
13,
4,
4,
13,
13,
19,
8,
9,
9,
1,
1,
3,
3,
1,
1,
5,
5,
7,
7,
8,
8,
4,
4,
4,
4,
6,
6,
5,
5,
2,
2,
3,
14,
13,
13,
21,
21,
21,
21,
16,
2,
3,
3,
2,
2,
4,
4,
10,
10,
15,
15,
15,
15,
15,
15,
11,
11,
6,
6,
3,
3,
5,
5,
1,
1,
-1,
-1,
2,
2,
0,
0,
1,
1,
6,
6,
1,
1,
3,
3,
-1,
-1,
0,
0,
0,
0,
-1,
-1,
0,
0,
0,
0,
1,
1,
6,
6,
2,
2,
4,
4,
6,
6,
10,
10,
9,
9,
1,
1,
1,
1,
0,
0,
2,
2,
1,
1,
3,
3,
4,
4,
3,
3,
2,
2,
0,
0,
2,
2,
2,
2,
4,
4,
10,
10,
5,
5,
0,
0,
0,
0,
-1,
-1,
0,
0,
2,
2,
7,
7,
13,
13,
14,
14,
6,
6,
6,
19,
18,
18,
18,
1,
2,
2,
9,
9,
2,
20,
19,
19,
19,
6,
6,
6,
8,
8,
16,
16,
23,
23,
28,
28,
27,
11,
12,
12,
19,
34,
33,
33,
23,
6,
6,
6,
2,
2,
12,
12,
9,
9,
6,
6,
13,
13,
12,
12,
12,
1,
5,
31,
30,
30,
30,
13,
13,
2,
8,
19,
18,
18,
21,
21,
17,
17,
16,
16,
10,
10,
3,
3,
5,
5,
10,
10,
8,
8,
0,
0,
1,
1,
10,
10,
13,
13,
4,
4,
5,
5,
14,
14,
12,
0,
1,
1,
6,
6,
5,
5,
9,
9,
9,
9,
7,
7,
1,
1,
3,
3,
8,
8,
6,
6,
4,
15,
15,
27,
25,
25,
26,
26,
18,
1,
2,
13,
13,
13,
17,
17,
16,
16,
8,
8,
6,
6,
8,
8,
11,
11,
8,
8,
1,
1,
3,
3,
3,
3,
6,
6,
10,
10,
10,
10,
8,
8,
9,
9,
5,
5,
1,
1,
2,
2,
4,
4,
1,
1,
0,
0,
5,
5,
3,
3,
2,
2,
8,
8,
6,
6,
3,
3,
4,
4,
1,
1,
1,
1,
1,
1,
1,
1,
2,
2,
4,
4,
8,
8,
1,
1,
0,
0,
5,
5,
8,
8,
11,
22,
21,
21,
23,
23,
20,
1,
2,
13,
13,
13,
16,
16,
13,
13,
8,
8,
6,
6,
1,
1,
0,
0,
4,
4,
3,
3,
4,
4,
8,
8,
5,
5,
0,
0,
3,
3,
8,
8,
11,
11,
12,
12,
11,
11,
9,
9,
3,
3,
0,
0,
5,
5,
13,
13,
16,
16,
8,
8,
2,
2,
1,
1,
1,
1,
4,
4,
8,
8,
13,
13,
12,
12,
4,
4,
1,
1,
7,
7,
14,
14,
8,
8,
6,
6,
12,
12,
5,
5,
0,
0,
4,
4,
8,
8,
8,
8,
6,
6,
1,
1,
4,
4,
6,
6,
10,
10,
3,
3,
6,
6,
16,
16,
14,
1,
2,
21,
21,
34,
32,
32,
30,
30,
21,
2,
4,
23,
22,
39,
38,
38,
31,
31,
26,
15,
17,
1,
2,
2,
11,
11,
17,
17,
20,
20,
25,
25,
22,
10,
11,
11,
5,
5,
7,
7,
5,
20,
20,
51,
51,
37,
38,
10,
10,
10,
4,
4,
6,
6,
3,
3,
1,
1,
6,
6,
6,
6,
5,
5,
3,
3,
0,
0,
1,
1,
-1,
-1,
2,
2,
4,
4,
2,
2,
-1,
-1,
0,
0,
0,
0,
0,
0,
-1,
-1,
5,
5,
9,
9,
8,
8,
7,
7,
7,
7,
2,
2,
1,
1,
1,
1,
0,
0,
5,
5,
10,
10,
9,
9,
1,
1,
1,
1,
0,
0,
4,
4,
7,
7,
3,
3,
0,
0,
6,
6,
9,
9,
6,
6,
1,
1,
1,
1,
1,
1,
2,
2,
5,
5,
7,
7,
8,
8,
6,
6,
3,
3,
0,
0,
4,
4,
8,
8,
10,
10,
10,
10,
8,
8,
6,
6,
0,
0,
4,
4,
2,
2,
-1,
-1,
1,
1,
0,
0,
4,
4,
9,
9,
9,
9,
6,
6,
2,
2,
0,
0,
3,
3,
6,
6,
6,
6,
3,
3,
1,
1,
4,
4,
11,
11,
20,
20,
14,
0,
3,
3,
6,
27,
26,
26,
28,
6,
14,
60,
59,
59,
65,
31,
32,
4,
6,
26,
26,
26,
29,
29,
26,
26,
17,
6,
6,
6,
0,
0,
8,
8,
10,
10,
4,
4,
2,
2,
12,
12,
4,
17,
16,
16,
20,
20,
12,
12,
2,
2,
5,
5,
12,
12,
16,
16,
12,
12,
2,
2,
-1,
-1,
4,
4,
2,
17,
17,
39,
39,
39,
44,
19,
19,
2,
8,
26,
26,
26,
31,
31,
26,
26,
20,
20,
18,
6,
6,
6,
2,
2,
12,
12,
13,
13,
4,
4,
11,
11,
2,
2,
4,
4,
1,
1,
2,
2,
0,
0,
0,
0,
1,
1,
-1,
-1,
-1,
-1,
1,
1,
4,
4,
1,
1,
1,
1,
5,
5,
2,
13,
13,
13,
14,
14,
6,
6,
1,
1,
10,
10,
14,
14,
8,
8,
2,
2,
1,
1,
6,
6,
12,
12,
9,
9,
1,
1,
0,
0,
4,
4,
6,
6,
4,
4,
3,
3,
5,
5,
5,
5,
0,
0,
1,
1,
-1,
-1,
2,
2,
10,
10,
6,
6,
6,
6,
10,
10,
16,
16,
15,
15,
9,
9,
5,
17,
16,
4,
12,
25,
22,
2,
3,
3,
13,
13,
15,
15,
14,
2,
3,
3,
8,
8,
5,
5,
-1,
-1,
1,
1,
-1,
-1,
2,
2,
2,
2,
2,
2,
6,
6,
10,
10,
9,
9,
4,
4,
4,
4,
5,
5,
5,
26,
25,
37,
36,
25,
25,
12,
13,
1,
3,
14,
13,
13,
14,
1,
2,
2,
3,
3,
0,
0,
6,
6,
2,
13,
13,
13,
17,
17,
13,
1,
4,
4,
11,
11,
2,
13,
12,
12,
20,
20,
15,
1,
3,
3,
5,
5,
14,
29,
29,
29,
29,
13,
14,
14,
6,
6,
6,
6,
3,
3,
10,
10,
8,
8,
6,
6,
3,
3,
5,
5,
7,
7,
3,
3,
1,
1,
0,
0,
2,
2,
0,
0,
1,
1,
1,
1,
2,
2,
3,
3,
1,
1,
4,
4,
6,
6,
11,
11,
15,
15,
13,
13,
14,
14,
8,
8,
2,
2,
5,
5,
13,
13,
18,
18,
18,
18,
15,
15,
6,
17,
16,
27,
25,
13,
13,
1,
2,
2,
10,
10,
13,
13,
13,
13,
10,
10,
5,
5,
10,
10,
18,
18,
13,
13,
7,
7,
7,
7,
2,
2,
5,
5,
2,
2,
0,
0,
8,
8,
6,
6,
0,
0,
3,
3,
6,
6,
5,
5,
5,
5,
2,
2,
0,
0,
3,
3,
6,
6,
2,
2,
2,
2,
3,
3,
0,
0,
0,
0,
0,
0,
7,
7,
6,
6,
3,
3,
2,
2,
2,
2,
2,
2,
0,
0,
3,
3,
6,
6,
2,
2,
5,
5,
4,
4,
1,
1,
0,
0,
0,
0,
2,
2,
0,
0,
2,
2,
11,
11,
7,
21,
20,
9,
9,
9,
1,
1,
6,
6,
3,
3,
6,
6,
2,
14,
13,
13,
14,
14,
7,
7,
5,
5,
5,
5,
14,
14,
17,
17,
17,
17,
8,
8,
5,
5,
2,
2,
0,
0,
0,
0,
6,
6,
12,
12,
15,
15,
13,
13,
6,
6,
5,
5,
4,
4,
5,
5,
10,
10,
8,
8,
6,
6,
8,
8,
7,
7,
6,
6,
1,
1,
7,
7,
13,
1,
4,
4,
14,
14,
15,
15,
18,
18,
10,
10,
9,
9,
10,
10,
14,
2,
3,
3,
12,
25,
24,
24,
25,
25,
18,
18,
15,
15,
14,
14,
7,
7,
1,
1,
5,
5,
5,
5,
2,
2,
2,
2,
-1,
-1,
1,
1,
9,
9,
11,
11,
10,
10,
8,
8,
6,
6,
6,
6,
4,
4,
2,
2,
0,
0,
2,
2,
5,
5,
1,
1,
2,
2,
4,
4,
6,
6,
8,
8,
4,
4,
3,
3,
6,
6,
8,
8,
5,
5,
6,
6,
1,
21,
21,
21,
29,
9,
9,
9,
3,
3,
4,
4,
0,
0,
7,
7,
6,
6,
3,
3,
3,
3,
4,
4,
1,
1,
8,
8,
7,
7,
3,
3,
1,
1,
6,
6,
5,
5,
5,
5,
4,
4,
1,
1,
0,
0,
5,
5,
2,
2,
-1,
-1,
-1,
-1,
2,
2,
2,
2,
1,
19,
19,
19,
28,
28,
20,
20,
10,
10,
1,
12,
10,
10,
14,
14,
12,
12,
12,
12,
9,
9,
2,
2,
5,
5,
10,
10,
2,
2,
3,
3,
-1,
-1,
1,
1,
5,
5,
2,
2,
2,
14,
14,
14,
20,
20,
15,
15,
9,
9,
14,
14,
10,
10,
3,
3,
13,
13,
16,
16,
14,
14,
14,
1,
2,
2,
1,
1,
1,
1,
7,
7,
2,
2,
10,
10,
14,
14,
9,
9,
2,
2,
0,
0,
1,
1,
2,
2,
1,
12,
12,
32,
31,
31,
36,
36,
29,
13,
14,
1,
2,
15,
14,
14,
19,
19,
14,
14,
8,
8,
8,
8,
9,
9,
12,
12,
9,
9,
6,
6,
3,
3,
5,
5,
5,
5,
0,
0,
3,
3,
5,
5,
7,
7,
8,
8,
5,
5,
3,
3,
1,
1,
10,
10,
6,
6,
0,
0,
0,
0,
1,
1,
-1,
-1,
3,
3,
2,
2,
4,
15,
14,
14,
7,
7,
12,
12,
20,
2,
3,
3,
1,
1,
10,
10,
6,
6,
3,
3,
12,
12,
13,
13,
6,
6,
1,
1,
9,
9,
3,
3,
2,
2,
10,
10,
13,
13,
17,
17,
8,
8,
2,
2,
5,
5,
5,
5,
3,
3,
9,
9,
2,
14,
14,
25,
24,
6,
7,
7,
4,
4,
5,
5,
5,
5,
5,
5,
1,
1,
1,
1,
0,
0,
1,
1,
10,
10,
14,
14,
5,
5,
1,
1,
3,
3,
2,
2,
0,
0,
3,
3,
7,
7,
6,
6,
6,
6,
3,
3,
1,
1,
1,
1,
6,
6,
2,
2,
8,
8,
1,
1,
5,
5,
1,
1,
3,
3,
5,
5,
0,
0,
0,
0,
4,
4,
1,
1,
2,
2,
3,
3,
6,
6,
2,
2,
1,
1,
3,
3,
1,
1,
7,
7,
9,
9,
8,
8,
1,
1,
-1,
-1,
0,
0,
1,
1,
6,
6,
6,
6,
10,
10,
14,
14,
10,
10,
1,
1,
5,
5,
6,
6,
5,
5,
4,
4,
8,
8,
1,
1,
2,
2,
2,
2,
6,
6,
8,
8,
9,
9,
3,
3,
1,
1,
4,
4,
0,
0,
5,
20,
19,
8,
9,
9,
1,
1,
0,
0,
0,
0,
3,
3,
2,
2,
3,
3,
6,
19,
18,
18,
9,
27,
26,
9,
9,
21,
21,
21,
26,
26,
26,
26,
17,
2,
5,
5,
14,
14,
9,
9,
9,
9,
11,
11,
9,
9,
8,
8,
12,
12,
12,
12,
6,
17,
17,
17,
19,
19,
9,
9,
8,
8,
14,
14,
18,
18,
21,
21,
13,
13,
6,
6,
1,
1,
0,
0,
6,
6,
12,
12,
5,
5,
0,
0,
0,
0,
1,
1,
1,
1,
2,
2,
4,
4,
10,
10,
7,
7,
8,
8,
1,
1,
6,
6,
5,
5,
2,
2,
3,
3,
4,
4,
7,
7,
9,
9,
3,
18,
18,
18,
15,
0,
1,
1,
10,
10,
17,
17,
12,
12,
9,
9,
3,
3,
13,
13,
18,
18,
21,
9,
10,
10,
1,
1,
5,
5,
5,
5,
1,
1,
0,
0,
6,
6,
5,
5,
6,
6,
7,
7,
5,
5,
5,
5,
1,
12,
10,
10,
10,
10,
7,
7,
2,
2,
2,
2,
2,
2,
-1,
-1,
2,
2,
-1,
-1,
1,
1,
3,
3,
1,
1,
5,
5,
1,
1,
9,
9,
12,
12,
6,
6,
12,
27,
26,
40,
39,
39,
33,
3,
5,
21,
21,
21,
30,
30,
26,
6,
6,
6,
2,
2,
0,
0,
5,
5,
14,
14,
5,
5,
2,
2,
6,
6,
10,
10,
10,
10,
9,
9,
2,
2,
4,
4,
10,
10,
13,
13,
9,
9,
2,
2,
4,
4,
5,
5,
0,
0,
4,
4,
6,
6,
11,
11,
1,
1,
4,
4,
4,
4,
11,
33,
33,
33,
38,
14,
15,
3,
10,
10,
10,
10,
14,
14,
17,
2,
4,
4,
14,
28,
28,
13,
14,
14,
17,
36,
35,
35,
32,
15,
15,
15,
15,
15,
18,
18,
9,
9,
6,
17,
17,
17,
13,
13,
10,
10,
8,
8,
13,
13,
10,
10,
3,
3,
9,
9,
3,
3,
10,
21,
21,
21,
20,
20,
13,
13,
8,
8,
0,
0,
6,
6,
9,
9,
12,
12,
13,
13,
10,
10,
0,
0,
6,
6,
1,
1,
8,
8,
14,
14,
10,
10,
5,
5,
15,
28,
28,
28,
19,
19,
10,
10,
9,
9,
2,
2,
10,
10,
16,
16,
13,
13,
5,
5,
0,
0,
2,
2,
4,
4,
0,
0,
-1,
-1,
1,
1,
6,
6,
1,
1,
-1,
-1,
0,
0,
1,
1,
0,
0,
1,
1,
-1,
-1,
-1,
-1,
2,
2,
3,
3,
4,
4,
2,
2,
0,
0,
2,
2,
6,
6,
4,
4,
0,
0,
0,
0,
0,
0,
6,
6,
12,
12,
12,
12,
5,
5,
5,
5,
1,
1,
9,
9,
15,
15,
12,
12,
10,
10,
6,
6,
2,
2,
0,
0,
8,
28,
27,
27,
18,
6,
6,
6,
1,
1,
4,
4,
6,
6,
14,
14,
15,
15,
12,
1,
2,
27,
26,
26,
24,
1,
2,
13,
12,
12,
14,
14,
6,
6,
2,
2,
9,
9,
1,
1,
0,
0,
0,
12,
11,
11,
19,
19,
14,
14,
7,
7,
1,
1,
4,
4,
7,
7,
6,
6,
1,
1,
1,
1,
2,
2,
-1,
-1,
6,
6,
1,
1,
0,
0,
6,
6,
12,
12,
11,
11,
13,
1,
2,
2,
6,
6,
4,
4,
0,
0,
5,
5,
3,
3,
3,
3,
2,
2,
1,
1,
8,
8,
8,
8,
1,
1,
4,
4,
8,
8,
10,
10,
6,
6,
4,
4,
3,
3,
0,
0,
1,
1,
4,
4,
8,
8,
7,
7,
8,
8,
4,
4,
-1,
-1,
0,
0,
1,
1,
5,
5,
8,
8,
1,
1,
2,
2,
2,
2,
2,
2,
2,
2,
0,
0,
5,
5,
4,
4,
2,
2,
1,
1,
4,
4,
9,
9,
6,
6,
6,
6,
6,
6,
4,
4,
5,
5,
5,
5,
2,
2,
1,
1,
0,
0,
6,
6,
6,
6,
1,
1,
1,
1,
1,
1,
6,
6,
5,
5,
1,
1,
2,
2,
1,
1,
0,
0,
1,
1,
-1,
-1,
1,
1,
0,
0,
3,
3,
4,
4,
3,
3,
3,
3,
1,
1,
1,
1,
4,
4,
0,
0,
6,
6,
9,
9,
4,
4,
4,
4,
7,
7,
2,
2,
1,
1,
0,
0,
6,
6,
14,
14,
17,
17,
9,
9,
3,
3,
0,
0,
6,
6,
9,
20,
20,
20,
23,
7,
7,
7,
6,
6,
7,
7,
2,
2,
6,
6,
10,
10,
5,
5,
12,
12,
15,
15,
9,
9,
5,
5,
3,
3,
0,
0,
1,
1,
4,
4,
9,
9,
18,
18,
22,
22,
18,
18,
9,
9,
3,
3,
5,
17,
16,
16,
17,
17,
13,
13,
16,
16,
24,
24,
17,
1,
2,
2,
10,
10,
11,
11,
2,
2,
5,
5,
5,
5,
1,
1,
1,
1,
8,
8,
17,
17,
14,
3,
4,
4,
10,
10,
9,
9,
2,
2,
2,
2,
0,
0,
3,
3,
8,
8,
6,
6,
2,
2,
2,
2,
1,
1,
4,
4,
5,
5,
6,
6,
7,
7,
2,
2,
2,
2,
10,
10,
13,
13,
4,
4,
-1,
-1,
-1,
-1,
3,
15,
14,
14,
19,
19,
18,
18,
12,
12,
7,
7,
2,
2,
7,
22,
22,
22,
22,
6,
7,
7,
-1,
-1,
3,
3,
2,
2,
1,
1,
4,
4,
1,
1,
1,
1,
9,
9,
6,
6,
5,
5,
7,
7,
2,
2,
5,
5,
4,
4,
5,
5,
8,
8,
7,
7,
6,
6,
12,
12,
12,
1,
1,
1,
7,
7,
12,
12,
10,
10,
6,
6,
2,
2,
8,
8,
8,
8,
6,
6,
8,
8,
1,
12,
11,
11,
20,
20,
20,
20,
14,
14,
12,
12,
5,
5,
6,
6,
12,
12,
15,
15,
15,
15,
12,
12,
5,
5,
1,
20,
19,
50,
50,
30,
30,
3,
5,
22,
22,
22,
24,
4,
5,
5,
8,
21,
20,
20,
12,
0,
2,
2,
6,
6,
10,
10,
2,
2,
10,
10,
14,
14,
13,
13,
5,
5,
3,
3,
12,
12,
16,
16,
15,
15,
14,
14,
10,
10,
1,
1,
8,
23,
23,
23,
25,
25,
16,
16,
16,
16,
10,
10,
6,
6,
5,
5,
2,
13,
12,
12,
18,
18,
14,
14,
8,
8,
5,
5,
7,
7,
9,
9,
3,
3,
2,
2,
6,
6,
9,
9,
14,
14,
8,
8,
2,
2,
2,
2,
7,
7,
1,
1,
6,
6,
1,
1,
3,
3,
7,
7,
1,
1,
9,
9,
7,
7,
6,
6,
4,
4,
4,
4,
6,
6,
5,
5,
4,
4,
11,
11,
8,
8,
5,
5,
4,
4,
0,
0,
2,
2,
9,
9,
4,
17,
16,
16,
7,
7,
9,
23,
22,
22,
19,
6,
6,
6,
1,
1,
2,
2,
6,
6,
6,
6,
4,
4,
6,
6,
7,
7,
-1,
-1,
2,
2,
5,
5,
14,
29,
28,
28,
22,
22,
13,
2,
3,
3,
9,
21,
20,
20,
18,
6,
6,
6,
1,
1,
10,
10,
14,
14,
5,
5,
4,
4,
1,
1,
8,
8,
1,
1,
0,
0,
6,
6,
3,
3,
3,
3,
11,
11,
6,
6,
11,
23,
23,
12,
14,
1,
2,
2,
1,
1,
1,
1,
2,
2,
4,
4,
5,
5,
0,
0,
-1,
-1,
1,
1,
0,
0,
1,
1,
1,
1,
3,
3,
5,
5,
1,
1,
1,
1,
2,
2,
2,
2,
-1,
-1,
-1,
-1,
-2,
-2,
1,
1,
0,
0,
2,
2,
0,
0,
1,
1,
5,
5,
5,
5,
1,
1,
3,
3,
5,
5,
5,
5,
8,
8,
5,
5,
4,
4,
5,
5,
2,
2,
7,
7,
6,
6,
2,
2,
1,
1,
2,
2,
3,
3,
3,
3,
0,
0,
4,
4,
3,
3,
4,
4,
2,
2,
7,
7,
3,
3,
2,
2,
2,
2,
6,
6,
9,
9,
10,
10,
2,
20,
20,
20,
24,
13,
13,
0,
1,
1,
8,
8,
13,
13,
7,
7,
2,
2,
4,
4,
10,
10,
7,
7,
9,
9,
13,
13,
23,
23,
18,
18,
12,
12,
8,
8,
3,
14,
14,
29,
29,
29,
30,
30,
27,
6,
6,
6,
6,
6,
5,
5,
3,
3,
2,
2,
10,
10,
12,
0,
1,
1,
0,
0,
4,
4,
10,
10,
16,
16,
7,
7,
10,
10,
8,
8,
16,
16,
23,
3,
4,
22,
22,
22,
26,
4,
5,
17,
16,
1,
3,
3,
9,
9,
3,
3,
1,
1,
4,
4,
2,
2,
0,
0,
1,
1,
0,
0,
6,
6,
3,
20,
18,
2,
3,
17,
16,
16,
20,
2,
3,
3,
12,
12,
7,
7,
0,
0,
0,
0,
4,
4,
7,
7,
8,
8,
8,
8,
5,
5,
6,
6,
1,
1,
4,
4,
8,
8,
7,
7,
6,
6,
4,
4,
3,
3,
1,
1,
4,
4,
9,
9,
7,
7,
1,
1,
9,
9,
10,
10,
10,
10,
5,
5,
8,
8,
16,
16,
11,
11,
5,
5,
8,
8,
0,
0,
3,
3,
3,
3,
1,
13,
12,
12,
14,
14,
9,
9,
9,
9,
2,
18,
16,
28,
26,
14,
15,
3,
4,
4,
10,
10,
18,
18,
15,
3,
4,
4,
0,
0,
4,
4,
2,
2,
2,
2,
7,
7,
11,
11,
6,
6,
5,
5,
9,
9,
3,
3,
4,
4,
12,
12,
10,
10,
2,
2,
4,
4,
2,
2,
7,
7,
10,
10,
16,
16,
12,
0,
1,
1,
5,
18,
17,
17,
16,
2,
6,
6,
4,
4,
-1,
-1,
2,
2,
1,
1,
5,
5,
5,
5,
6,
6,
6,
6,
5,
5,
3,
3,
0,
0,
1,
1,
0,
0,
2,
2,
10,
24,
23,
23,
21,
21,
17,
17,
12,
1,
2,
2,
4,
4,
8,
8,
14,
14,
23,
23,
17,
2,
2,
2,
-1,
-1,
-1,
-1,
1,
1,
0,
0,
2,
2,
3,
3,
0,
0,
8,
8,
10,
10,
9,
9,
4,
4,
2,
18,
17,
28,
27,
27,
22,
3,
4,
16,
15,
15,
25,
25,
22,
22,
17,
6,
6,
6,
6,
6,
2,
2,
2,
2,
0,
11,
11,
11,
9,
9,
2,
2,
10,
10,
10,
10,
6,
17,
17,
17,
22,
22,
16,
16,
14,
1,
2,
2,
6,
6,
14,
14,
12,
0,
3,
3,
2,
2,
1,
1,
1,
1,
1,
1,
0,
0,
8,
8,
14,
14,
12,
12,
6,
6,
0,
0,
5,
5,
5,
5,
5,
5,
5,
5,
-1,
-1,
1,
1,
6,
6,
6,
6,
1,
1,
1,
1,
1,
1,
2,
2,
3,
3,
3,
3,
11,
11,
13,
13,
13,
13,
10,
10,
4,
4,
4,
4,
10,
10,
12,
12,
9,
9,
9,
9,
11,
11,
