EMG_S2/DS0033.CSV

Memory Length,4000,
Trigger Level,-4.80000e+02,
Source,CH1,
Probe,1.0X,
Vertical Units,V,
Vertical Scale,1.00000e+00,
Vertical Position,0.00000e+00,
Horizontal Units,S,
Horizontal Scale,1.00000e-01,
Horizontal Position,0.0000000e+00,
Horizontal Mode,Roll Mode,
Waveform Last Dot Address,4000,
Sampling Period,4.00000e-04,
Firmware,V1.14,
Time, ,
Mode,Fast,
Waveform Data,
2,
2,
4,
4,
0,
0,
4,
4,
5,
5,
1,
1,
1,
1,
1,
1,
-1,
-1,
1,
1,
4,
4,
3,
3,
3,
3,
1,
1,
0,
0,
-1,
-1,
2,
2,
4,
4,
2,
2,
1,
1,
4,
4,
3,
3,
1,
1,
1,
1,
4,
4,
5,
5,
5,
5,
2,
2,
0,
0,
0,
0,
3,
3,
1,
1,
3,
3,
5,
5,
9,
9,
1,
1,
0,
28,
25,
6,
15,
15,
22,
22,
20,
20,
18,
18,
12,
12,
4,
4,
0,
0,
0,
0,
2,
2,
6,
6,
10,
10,
13,
13,
14,
14,
14,
14,
10,
10,
1,
1,
7,
7,
12,
12,
11,
11,
8,
8,
4,
4,
0,
0,
0,
0,
4,
4,
11,
11,
6,
6,
1,
1,
6,
6,
6,
6,
4,
4,
1,
1,
-1,
-1,
0,
0,
2,
2,
5,
5,
6,
6,
4,
4,
0,
0,
1,
1,
2,
2,
0,
0,
0,
0,
0,
0,
2,
2,
1,
1,
0,
0,
-1,
-1,
0,
0,
0,
0,
2,
2,
5,
5,
5,
5,
2,
2,
0,
0,
1,
1,
1,
1,
1,
1,
1,
1,
2,
2,
-1,
-1,
2,
2,
4,
4,
5,
5,
7,
7,
10,
10,
9,
9,
9,
9,
5,
5,
0,
0,
9,
9,
12,
12,
11,
11,
8,
8,
7,
7,
1,
1,
2,
2,
3,
3,
5,
5,
8,
8,
8,
8,
4,
4,
0,
0,
2,
2,
1,
1,
2,
2,
2,
2,
4,
4,
6,
6,
4,
4,
0,
0,
2,
2,
5,
5,
6,
6,
7,
7,
6,
6,
1,
1,
1,
1,
2,
2,
0,
0,
3,
3,
0,
0,
1,
1,
3,
3,
2,
2,
0,
0,
2,
2,
2,
2,
3,
3,
4,
4,
6,
6,
5,
5,
4,
4,
2,
2,
0,
0,
1,
1,
6,
6,
4,
4,
2,
2,
3,
3,
1,
1,
2,
13,
12,
12,
14,
14,
12,
12,
7,
7,
0,
0,
5,
5,
12,
12,
16,
16,
13,
13,
12,
12,
6,
6,
2,
2,
0,
0,
-1,
-1,
3,
3,
6,
6,
5,
5,
2,
2,
2,
2,
3,
3,
4,
4,
5,
5,
4,
4,
3,
3,
0,
0,
0,
0,
1,
1,
1,
1,
2,
2,
-1,
-1,
-1,
-1,
1,
1,
1,
1,
1,
1,
1,
1,
1,
1,
0,
0,
1,
1,
1,
1,
0,
0,
5,
5,
6,
6,
5,
5,
2,
2,
0,
0,
0,
0,
3,
3,
2,
2,
2,
2,
3,
3,
2,
2,
8,
8,
10,
10,
9,
9,
6,
6,
6,
6,
6,
6,
6,
6,
5,
5,
2,
2,
2,
2,
4,
4,
3,
3,
2,
2,
0,
0,
-1,
-1,
2,
2,
5,
5,
2,
2,
0,
0,
2,
2,
5,
5,
4,
4,
5,
5,
2,
2,
1,
1,
-1,
-1,
0,
0,
0,
0,
6,
6,
4,
4,
13,
13,
6,
6,
5,
5,
11,
11,
7,
7,
5,
5,
5,
5,
5,
5,
6,
6,
2,
2,
1,
1,
5,
5,
7,
7,
8,
8,
6,
6,
5,
5,
3,
3,
2,
2,
5,
5,
3,
3,
1,
1,
-1,
-1,
2,
2,
6,
6,
9,
9,
7,
7,
3,
3,
1,
1,
1,
1,
-1,
-1,
4,
4,
5,
5,
3,
3,
-1,
-1,
3,
3,
5,
5,
5,
5,
4,
4,
4,
4,
2,
2,
1,
1,
4,
4,
3,
3,
0,
0,
2,
2,
1,
1,
0,
0,
1,
1,
3,
3,
5,
5,
4,
4,
4,
4,
3,
3,
2,
2,
0,
0,
6,
6,
9,
9,
10,
10,
11,
11,
10,
10,
5,
5,
1,
1,
2,
2,
7,
7,
10,
10,
5,
5,
0,
0,
-1,
-1,
0,
0,
1,
1,
0,
0,
-1,
-1,
0,
0,
2,
2,
3,
3,
2,
2,
0,
0,
2,
2,
0,
0,
1,
1,
0,
0,
1,
1,
0,
0,
2,
2,
5,
5,
6,
6,
6,
6,
8,
8,
5,
5,
0,
0,
8,
8,
14,
14,
15,
15,
6,
6,
3,
3,
7,
7,
6,
6,
1,
1,
7,
7,
12,
12,
8,
8,
3,
3,
12,
12,
19,
19,
15,
15,
6,
6,
2,
2,
-1,
-1,
2,
2,
3,
3,
1,
1,
-2,
-2,
1,
1,
2,
2,
2,
2,
-1,
-1,
1,
1,
-1,
-1,
6,
6,
14,
2,
2,
2,
5,
5,
8,
8,
11,
11,
12,
12,
8,
8,
2,
14,
13,
13,
12,
12,
8,
8,
2,
14,
13,
13,
15,
15,
11,
11,
9,
9,
9,
9,
5,
5,
1,
1,
6,
6,
9,
9,
10,
10,
13,
13,
13,
13,
14,
14,
14,
14,
6,
6,
8,
8,
15,
15,
17,
17,
14,
14,
8,
8,
0,
0,
2,
2,
4,
4,
2,
2,
10,
10,
12,
0,
1,
1,
6,
6,
8,
8,
11,
11,
1,
1,
0,
0,
0,
0,
1,
1,
0,
0,
3,
3,
3,
3,
2,
2,
-1,
-1,
4,
4,
6,
6,
5,
5,
9,
9,
18,
18,
16,
16,
7,
7,
2,
15,
15,
15,
18,
18,
14,
14,
12,
12,
10,
10,
6,
6,
1,
1,
2,
2,
10,
10,
9,
9,
7,
7,
2,
2,
0,
0,
2,
2,
8,
8,
14,
14,
14,
14,
10,
10,
3,
3,
2,
2,
8,
8,
12,
12,
13,
13,
12,
12,
8,
8,
2,
2,
2,
2,
0,
0,
1,
1,
4,
4,
3,
3,
1,
1,
7,
7,
14,
14,
17,
17,
15,
15,
6,
6,
2,
2,
11,
11,
10,
10,
2,
2,
1,
1,
4,
4,
1,
1,
4,
4,
4,
4,
2,
2,
9,
9,
2,
2,
4,
4,
1,
1,
0,
0,
1,
1,
5,
5,
6,
6,
1,
1,
3,
3,
4,
4,
0,
0,
7,
7,
12,
12,
9,
9,
3,
3,
6,
18,
17,
29,
29,
29,
37,
37,
33,
22,
22,
4,
4,
4,
11,
23,
22,
22,
29,
29,
29,
29,
20,
9,
9,
9,
8,
8,
6,
6,
4,
4,
1,
1,
-1,
-1,
5,
5,
10,
10,
7,
7,
10,
10,
17,
17,
14,
14,
6,
6,
1,
1,
8,
8,
13,
13,
9,
9,
3,
16,
15,
15,
16,
16,
11,
11,
6,
6,
2,
2,
3,
3,
5,
5,
9,
9,
12,
12,
10,
10,
5,
5,
1,
1,
3,
3,
1,
1,
0,
0,
-1,
-1,
5,
5,
14,
14,
12,
12,
5,
5,
4,
4,
8,
8,
1,
1,
1,
1,
1,
1,
2,
2,
4,
4,
6,
6,
3,
3,
-1,
-1,
2,
2,
1,
1,
-1,
-1,
1,
1,
2,
2,
3,
3,
1,
1,
2,
2,
6,
6,
6,
6,
2,
2,
5,
19,
19,
19,
27,
27,
20,
1,
2,
2,
12,
12,
10,
10,
13,
13,
19,
5,
5,
5,
6,
6,
5,
5,
0,
0,
-1,
-1,
1,
1,
8,
8,
13,
13,
8,
8,
1,
1,
2,
2,
6,
6,
7,
7,
6,
6,
4,
4,
1,
1,
0,
0,
1,
1,
0,
0,
2,
2,
1,
1,
0,
0,
2,
2,
5,
5,
10,
10,
10,
10,
5,
5,
4,
4,
9,
9,
2,
2,
1,
1,
4,
4,
6,
6,
7,
7,
5,
5,
-1,
-1,
2,
2,
10,
10,
16,
16,
18,
18,
9,
9,
3,
3,
11,
11,
20,
20,
24,
24,
24,
9,
10,
10,
8,
8,
18,
18,
15,
1,
2,
2,
2,
2,
0,
11,
10,
10,
9,
9,
0,
0,
-1,
-1,
2,
2,
-1,
-1,
1,
1,
5,
5,
10,
10,
5,
5,
0,
0,
0,
0,
5,
5,
2,
2,
5,
5,
6,
6,
0,
0,
2,
2,
-1,
-1,
1,
1,
0,
0,
2,
2,
0,
0,
2,
2,
2,
2,
2,
2,
3,
3,
4,
4,
2,
2,
2,
2,
3,
3,
0,
0,
5,
5,
5,
5,
1,
1,
1,
1,
9,
9,
10,
10,
5,
5,
1,
1,
-1,
-1,
7,
7,
13,
13,
11,
11,
2,
2,
5,
5,
12,
12,
10,
10,
6,
6,
3,
3,
3,
3,
-1,
-1,
1,
1,
2,
2,
6,
6,
7,
7,
8,
8,
6,
6,
-1,
-1,
3,
3,
3,
3,
1,
1,
5,
5,
11,
11,
14,
14,
12,
1,
2,
2,
8,
8,
18,
18,
18,
18,
14,
14,
6,
6,
3,
3,
5,
5,
9,
9,
10,
10,
2,
2,
2,
2,
6,
6,
6,
6,
3,
3,
6,
6,
6,
6,
2,
2,
4,
4,
3,
14,
13,
13,
15,
15,
13,
13,
12,
12,
10,
10,
2,
2,
7,
7,
13,
13,
14,
14,
8,
8,
6,
6,
6,
6,
8,
8,
6,
6,
2,
2,
0,
0,
3,
3,
6,
6,
9,
9,
10,
10,
9,
9,
6,
6,
2,
2,
0,
0,
2,
2,
3,
3,
1,
1,
-1,
-1,
2,
2,
2,
2,
2,
2,
0,
0,
4,
4,
8,
8,
12,
12,
10,
10,
5,
5,
3,
3,
9,
9,
14,
14,
16,
16,
20,
20,
14,
1,
2,
2,
3,
3,
6,
6,
10,
10,
7,
7,
5,
5,
4,
4,
10,
10,
15,
15,
19,
19,
18,
6,
6,
6,
6,
23,
23,
23,
30,
30,
25,
13,
14,
0,
1,
1,
2,
2,
6,
6,
5,
5,
0,
0,
5,
5,
6,
6,
4,
4,
6,
6,
2,
2,
3,
3,
4,
4,
3,
3,
5,
5,
3,
3,
1,
1,
2,
2,
6,
6,
6,
6,
1,
1,
1,
1,
2,
2,
7,
7,
4,
4,
7,
7,
9,
9,
1,
1,
5,
5,
5,
5,
1,
1,
1,
1,
1,
1,
2,
2,
3,
3,
0,
0,
2,
2,
6,
6,
9,
9,
15,
15,
16,
16,
8,
8,
5,
17,
16,
16,
23,
23,
28,
28,
24,
9,
10,
10,
0,
0,
5,
5,
10,
10,
10,
10,
10,
10,
10,
10,
6,
6,
3,
3,
2,
2,
1,
1,
-1,
-1,
-1,
-1,
2,
2,
2,
2,
-1,
-1,
1,
1,
4,
4,
6,
6,
9,
9,
14,
14,
16,
5,
6,
6,
2,
2,
6,
6,
7,
7,
6,
6,
7,
7,
6,
6,
0,
0,
0,
0,
3,
3,
8,
8,
2,
2,
4,
4,
9,
9,
13,
13,
12,
12,
3,
3,
2,
2,
6,
6,
2,
2,
1,
1,
0,
0,
2,
2,
3,
3,
0,
0,
-1,
-1,
-2,
-2,
1,
1,
3,
3,
0,
0,
2,
2,
1,
1,
-1,
-1,
0,
0,
0,
0,
2,
2,
3,
3,
2,
2,
0,
0,
1,
1,
1,
1,
5,
5,
9,
9,
12,
12,
9,
9,
4,
4,
1,
16,
15,
29,
28,
28,
28,
28,
18,
6,
6,
6,
2,
2,
6,
6,
7,
7,
12,
12,
14,
14,
9,
9,
6,
6,
4,
4,
4,
4,
4,
4,
1,
1,
8,
8,
12,
12,
6,
6,
1,
1,
4,
4,
8,
8,
12,
12,
8,
8,
1,
13,
13,
13,
21,
21,
20,
20,
14,
2,
4,
4,
5,
5,
8,
8,
6,
6,
2,
2,
0,
0,
0,
0,
0,
0,
0,
0,
4,
4,
5,
5,
5,
5,
3,
3,
2,
2,
2,
2,
1,
1,
2,
2,
7,
7,
10,
10,
10,
10,
8,
8,
5,
5,
0,
0,
3,
3,
5,
5,
9,
9,
5,
5,
4,
4,
8,
8,
7,
7,
1,
1,
2,
2,
5,
5,
5,
5,
4,
4,
2,
2,
2,
2,
2,
2,
1,
1,
4,
4,
4,
4,
0,
0,
2,
2,
1,
1,
6,
6,
6,
6,
4,
4,
1,
1,
0,
0,
2,
2,
4,
4,
3,
3,
1,
1,
0,
0,
-1,
-1,
0,
0,
2,
2,
1,
1,
2,
2,
5,
5,
2,
2,
0,
0,
0,
0,
1,
1,
5,
5,
4,
4,
1,
1,
0,
0,
-1,
-1,
1,
1,
-1,
-1,
2,
2,
4,
4,
2,
2,
1,
1,
4,
4,
12,
12,
10,
10,
7,
7,
2,
2,
3,
3,
6,
6,
6,
6,
7,
7,
6,
6,
7,
7,
0,
0,
4,
4,
8,
8,
10,
10,
10,
10,
6,
6,
5,
5,
2,
2,
0,
0,
9,
9,
14,
14,
14,
14,
7,
7,
1,
1,
9,
9,
15,
15,
17,
17,
14,
14,
9,
9,
2,
2,
10,
10,
11,
11,
10,
10,
13,
13,
14,
14,
6,
6,
2,
2,
1,
1,
5,
5,
9,
9,
10,
10,
10,
10,
6,
6,
5,
5,
5,
5,
6,
6,
10,
10,
8,
8,
1,
1,
5,
5,
10,
10,
14,
14,
13,
13,
6,
6,
2,
2,
1,
1,
1,
1,
1,
1,
-1,
-1,
0,
0,
2,
2,
8,
8,
1,
1,
7,
7,
14,
14,
22,
22,
21,
21,
12,
0,
1,
1,
3,
3,
6,
6,
9,
9,
11,
11,
10,
10,
8,
8,
2,
2,
0,
0,
2,
2,
0,
0,
5,
5,
12,
12,
10,
10,
4,
4,
2,
13,
12,
12,
12,
12,
6,
6,
5,
5,
11,
11,
13,
13,
8,
8,
0,
0,
-1,
-1,
-1,
-1,
0,
0,
4,
4,
6,
6,
5,
5,
2,
2,
1,
1,
0,
0,
0,
0,
3,
3,
5,
5,
5,
5,
2,
2,
4,
4,
4,
4,
0,
0,
2,
2,
1,
1,
1,
1,
1,
1,
1,
1,
2,
2,
1,
1,
3,
3,
2,
2,
-1,
-1,
0,
0,
2,
2,
4,
4,
2,
2,
-1,
-1,
0,
0,
1,
1,
1,
1,
0,
0,
3,
3,
2,
2,
1,
1,
1,
1,
4,
4,
4,
4,
1,
1,
4,
4,
5,
5,
2,
2,
5,
5,
7,
7,
2,
2,
-1,
-1,
5,
5,
12,
12,
20,
20,
16,
16,
7,
7,
4,
4,
14,
14,
20,
20,
23,
23,
15,
15,
6,
6,
0,
0,
1,
1,
0,
0,
2,
2,
7,
7,
11,
11,
13,
13,
8,
8,
4,
4,
2,
2,
2,
2,
2,
2,
-1,
-1,
1,
1,
0,
0,
3,
3,
6,
6,
5,
5,
2,
2,
2,
2,
1,
1,
5,
5,
9,
9,
15,
15,
19,
19,
14,
14,
8,
8,
-1,
-1,
3,
3,
10,
10,
13,
13,
16,
16,
16,
16,
13,
13,
8,
8,
5,
5,
2,
2,
0,
0,
0,
0,
4,
4,
6,
6,
8,
8,
9,
9,
6,
6,
4,
4,
4,
4,
6,
6,
7,
7,
2,
2,
5,
5,
5,
5,
1,
1,
1,
1,
6,
6,
4,
4,
2,
2,
2,
2,
0,
0,
0,
0,
-1,
-1,
1,
1,
2,
2,
3,
3,
1,
1,
4,
4,
2,
2,
1,
1,
1,
1,
1,
1,
4,
4,
7,
7,
8,
8,
7,
7,
1,
1,
0,
0,
3,
3,
9,
9,
16,
16,
14,
14,
5,
5,
0,
0,
2,
2,
2,
2,
2,
2,
2,
2,
2,
2,
8,
8,
14,
14,
5,
5,
0,
0,
1,
1,
-1,
-1,
2,
2,
2,
2,
4,
4,
1,
1,
2,
2,
-1,
-1,
5,
5,
8,
8,
4,
4,
2,
2,
5,
5,
4,
4,
1,
1,
4,
4,
5,
5,
1,
1,
5,
5,
4,
4,
6,
6,
6,
6,
1,
1,
4,
4,
5,
5,
1,
12,
11,
11,
6,
6,
5,
5,
6,
6,
8,
8,
8,
8,
2,
2,
5,
5,
9,
9,
6,
6,
1,
1,
6,
6,
9,
9,
9,
9,
10,
10,
8,
8,
1,
1,
0,
0,
2,
2,
6,
6,
5,
5,
5,
5,
8,
8,
8,
8,
6,
6,
1,
1,
4,
4,
9,
9,
7,
7,
6,
6,
2,
2,
2,
2,
5,
5,
7,
7,
8,
8,
7,
7,
2,
2,
6,
6,
9,
9,
14,
14,
19,
19,
17,
17,
10,
10,
3,
3,
6,
19,
19,
19,
22,
22,
20,
20,
14,
14,
6,
6,
7,
23,
21,
21,
18,
18,
12,
1,
1,
1,
7,
7,
7,
7,
9,
9,
9,
9,
2,
2,
0,
0,
5,
5,
6,
6,
1,
1,
-1,
-1,
-1,
-1,
0,
0,
2,
2,
6,
6,
5,
5,
0,
0,
0,
0,
3,
3,
3,
3,
-1,
-1,
1,
1,
5,
5,
7,
7,
7,
7,
2,
2,
0,
0,
3,
3,
3,
3,
-1,
-1,
0,
0,
3,
3,
2,
2,
4,
4,
7,
7,
5,
5,
0,
0,
5,
5,
6,
6,
1,
1,
-1,
-1,
0,
0,
1,
1,
0,
0,
2,
2,
5,
5,
5,
5,
5,
18,
17,
17,
17,
17,
8,
8,
0,
0,
1,
1,
4,
4,
4,
4,
3,
3,
1,
1,
-1,
-1,
2,
2,
1,
1,
-1,
-1,
1,
1,
2,
2,
3,
3,
4,
4,
6,
6,
5,
5,
5,
5,
0,
0,
2,
2,
1,
1,
2,
2,
12,
12,
18,
18,
21,
21,
13,
2,
2,
2,
1,
1,
5,
5,
4,
4,
7,
7,
8,
8,
1,
1,
3,
3,
3,
3,
0,
0,
-1,
-1,
0,
0,
1,
1,
6,
6,
14,
14,
15,
15,
13,
13,
9,
9,
1,
1,
7,
7,
13,
13,
12,
12,
8,
8,
6,
6,
10,
10,
14,
14,
13,
13,
9,
9,
1,
1,
6,
6,
6,
6,
3,
3,
0,
0,
1,
1,
4,
4,
1,
1,
5,
5,
10,
10,
10,
10,
7,
7,
4,
4,
3,
3,
0,
0,
2,
2,
0,
0,
0,
0,
1,
1,
0,
0,
-1,
-1,
0,
0,
2,
2,
4,
4,
9,
9,
14,
14,
19,
19,
18,
5,
5,
5,
2,
2,
5,
5,
10,
10,
13,
13,
20,
20,
18,
18,
10,
10,
5,
5,
0,
0,
0,
0,
1,
1,
3,
3,
6,
6,
6,
6,
2,
2,
4,
4,
8,
8,
8,
8,
7,
7,
6,
6,
6,
6,
5,
5,
8,
8,
6,
6,
1,
1,
1,
1,
5,
5,
14,
14,
18,
18,
14,
14,
11,
11,
9,
9,
4,
4,
0,
0,
3,
3,
6,
6,
10,
10,
12,
12,
10,
10,
4,
4,
1,
1,
5,
5,
7,
7,
6,
6,
3,
3,
2,
2,
6,
6,
10,
10,
8,
8,
0,
0,
1,
1,
2,
2,
2,
2,
5,
5,
6,
6,
2,
2,
3,
3,
9,
9,
12,
12,
10,
10,
5,
5,
3,
3,
2,
2,
7,
7,
14,
3,
4,
4,
1,
1,
6,
6,
6,
6,
0,
0,
3,
3,
2,
2,
0,
0,
2,
2,
5,
5,
9,
9,
10,
10,
2,
2,
6,
6,
12,
12,
14,
14,
12,
12,
8,
8,
0,
0,
2,
2,
5,
5,
8,
8,
9,
9,
8,
8,
5,
5,
-1,
-1,
-2,
-2,
0,
0,
0,
0,
1,
1,
6,
6,
3,
3,
0,
0,
1,
1,
3,
3,
3,
3,
2,
2,
4,
4,
4,
4,
0,
0,
4,
4,
9,
9,
12,
12,
3,
3,
-1,
-1,
1,
1,
4,
4,
8,
8,
2,
2,
1,
1,
1,
1,
8,
8,
8,
8,
1,
1,
0,
0,
2,
2,
4,
4,
2,
2,
1,
1,
5,
5,
6,
6,
1,
1,
6,
6,
11,
11,
14,
14,
12,
12,
7,
7,
5,
5,
5,
5,
3,
3,
1,
1,
7,
7,
12,
12,
12,
12,
6,
6,
4,
4,
5,
5,
7,
7,
6,
6,
5,
5,
2,
2,
10,
10,
13,
13,
4,
4,
5,
5,
6,
6,
6,
6,
1,
1,
8,
8,
7,
7,
1,
1,
6,
6,
10,
10,
7,
7,
10,
10,
6,
6,
2,
2,
10,
10,
13,
13,
13,
13,
9,
9,
2,
2,
0,
0,
0,
0,
6,
6,
6,
6,
9,
9,
6,
6,
0,
0,
1,
1,
-1,
-1,
2,
2,
5,
5,
2,
2,
5,
5,
7,
7,
8,
8,
10,
10,
6,
6,
2,
2,
1,
1,
5,
5,
7,
7,
10,
10,
10,
10,
6,
6,
5,
5,
4,
4,
2,
2,
1,
1,
-1,
-1,
1,
1,
2,
2,
0,
0,
1,
1,
0,
0,
0,
0,
7,
7,
10,
10,
7,
7,
0,
0,
1,
1,
6,
6,
4,
4,
0,
0,
0,
0,
2,
2,
2,
2,
0,
0,
1,
1,
3,
3,
0,
0,
-1,
-1,
1,
1,
1,
1,
5,
5,
5,
5,
2,
2,
0,
0,
-1,
-1,
2,
2,
3,
3,
1,
1,
5,
5,
6,
6,
7,
7,
8,
8,
1,
1,
2,
2,
6,
6,
6,
6,
5,
5,
2,
2,
1,
1,
-1,
-1,
2,
2,
0,
0,
3,
3,
5,
5,
1,
1,
2,
2,
5,
5,
3,
3,
5,
5,
2,
2,
1,
1,
2,
2,
5,
5,
8,
8,
9,
9,
4,
4,
1,
1,
1,
1,
1,
1,
2,
2,
-1,
-1,
2,
2,
1,
1,
0,
0,
6,
6,
10,
10,
10,
10,
4,
4,
2,
2,
5,
5,
3,
3,
0,
0,
1,
1,
6,
6,
10,
10,
9,
9,
8,
8,
8,
8,
9,
9,
1,
1,
2,
2,
8,
8,
7,
7,
9,
9,
13,
13,
10,
10,
4,
4,
-1,
-1,
-1,
-1,
-1,
-1,
1,
1,
3,
3,
3,
3,
2,
2,
2,
2,
-1,
-1,
3,
3,
7,
7,
12,
12,
11,
11,
7,
7,
5,
5,
1,
1,
2,
2,
5,
5,
9,
9,
13,
13,
14,
14,
9,
9,
7,
7,
2,
2,
0,
0,
1,
1,
2,
2,
2,
2,
8,
8,
14,
14,
17,
17,
11,
11,
10,
10,
6,
6,
0,
0,
2,
2,
6,
6,
9,
9,
12,
12,
10,
10,
6,
6,
4,
4,
4,
4,
3,
3,
1,
1,
4,
4,
7,
7,
4,
4,
6,
6,
5,
5,
2,
2,
2,
2,
2,
2,
0,
0,
0,
0,
-1,
-1,
0,
0,
-1,
-1,
-1,
-1,
-1,
-1,
0,
0,
1,
1,
4,
4,
2,
2,
0,
0,
4,
4,
2,
2,
3,
3,
9,
9,
9,
9,
3,
3,
2,
2,
4,
4,
3,
3,
1,
1,
6,
6,
14,
14,
22,
22,
26,
26,
20,
8,
9,
9,
2,
2,
1,
1,
1,
1,
6,
6,
9,
9,
13,
13,
17,
17,
15,
15,
12,
12,
10,
10,
8,
34,
31,
4,
7,
7,
10,
10,
12,
12,
12,
12,
12,
12,
13,
13,
13,
13,
9,
9,
5,
5,
2,
2,
3,
3,
0,
0,
2,
2,
3,
3,
3,
3,
3,
3,
5,
5,
4,
4,
4,
4,
2,
2,
0,
0,
2,
2,
3,
3,
4,
4,
7,
7,
8,
8,
1,
1,
3,
3,
3,
3,
5,
5,
5,
5,
6,
6,
5,
5,
5,
5,
2,
2,
8,
8,
14,
14,
15,
15,
7,
7,
2,
2,
0,
0,
2,
2,
5,
5,
4,
4,
4,
4,
7,
7,
7,
7,
4,
4,
1,
1,
3,
3,
1,
1,
2,
2,
2,
2,
1,
1,
1,
1,
5,
5,
7,
7,
6,
6,
4,
4,
5,
5,
2,
2,
0,
0,
3,
3,
7,
7,
6,
6,
2,
2,
1,
1,
3,
3,
5,
5,
5,
5,
6,
6,
2,
2,
2,
2,
4,
4,
0,
0,
0,
0,
1,
1,
2,
2,
0,
0,
0,
0,
-1,
-1,
0,
0,
-1,
-1,
0,
0,
1,
1,
0,
0,
1,
1,
-1,
-1,
-2,
-2,
3,
3,
2,
2,
1,
1,
2,
2,
0,
0,
-1,
-1,
2,
2,
3,
3,
2,
2,
0,
0,
3,
3,
3,
3,
5,
5,
6,
6,
7,
7,
2,
2,
0,
0,
0,
0,
5,
5,
6,
6,
5,
5,
4,
4,
0,
0,
3,
3,
5,
5,
7,
7,
8,
8,
5,
5,
2,
2,
1,
1,
0,
0,
-1,
-1,
1,
1,
1,
1,
-1,
-1,
1,
1,
2,
2,
0,
0,
-1,
-1,
0,
0,
1,
1,
1,
1,
2,
2,
4,
4,
4,
4,
9,
9,
10,
10,
7,
7,
3,
3,
0,
0,
4,
4,
1,
1,
0,
0,
-1,
-1,
1,
1,
6,
6,
7,
7,
7,
7,
7,
7,
2,
2,
2,
2,
7,
7,
7,
7,
6,
6,
2,
2,
-1,
-1,
2,
2,
0,
0,
-1,
-1,
0,
0,
3,
3,
2,
2,
2,
2,
6,
6,
5,
5,
3,
3,
2,
2,
0,
0,
1,
1,
0,
0,
2,
2,
2,
2,
0,
0,
-1,
-1,
1,
1,
4,
4,
6,
6,
7,
7,
5,
5,
0,
0,
1,
1,
0,
0,
2,
2,
2,
2,
-1,
-1,
