EMG_S2/DS0075.CSV

Memory Length,4000,
Trigger Level,-4.80000e+02,
Source,CH1,
Probe,1.0X,
Vertical Units,V,
Vertical Scale,1.00000e+00,
Vertical Position,0.00000e+00,
Horizontal Units,S,
Horizontal Scale,1.00000e-01,
Horizontal Position,0.0000000e+00,
Horizontal Mode,Roll Mode,
Waveform Last Dot Address,4000,
Sampling Period,4.00000e-04,
Firmware,V1.14,
Time, ,
Mode,Fast,
Waveform Data,
5,
5,
2,
2,
-1,
-1,
2,
2,
2,
2,
4,
4,
5,
5,
1,
1,
1,
1,
4,
4,
4,
4,
1,
1,
3,
3,
1,
1,
1,
1,
4,
4,
5,
5,
2,
2,
0,
0,
5,
5,
8,
8,
10,
10,
9,
9,
10,
10,
10,
10,
14,
14,
23,
23,
22,
2,
4,
20,
20,
20,
27,
27,
33,
33,
37,
37,
36,
24,
25,
7,
8,
8,
4,
4,
14,
14,
18,
18,
19,
19,
17,
17,
17,
17,
13,
13,
7,
7,
2,
2,
0,
0,
0,
0,
0,
0,
-1,
-1,
-1,
-1,
0,
0,
-2,
-2,
0,
0,
0,
0,
1,
1,
0,
0,
2,
2,
2,
2,
1,
1,
-1,
-1,
4,
4,
9,
9,
8,
8,
4,
4,
-1,
-1,
-1,
-1,
1,
1,
2,
2,
2,
2,
1,
1,
5,
5,
9,
9,
9,
9,
5,
5,
0,
0,
1,
1,
1,
1,
1,
1,
1,
1,
-1,
-1,
-2,
-2,
0,
0,
0,
0,
-1,
-1,
0,
0,
1,
1,
1,
1,
0,
0,
1,
1,
2,
2,
-1,
-1,
0,
0,
2,
2,
2,
2,
-1,
-1,
2,
2,
0,
0,
2,
2,
1,
1,
2,
2,
2,
2,
-2,
-2,
2,
2,
1,
1,
2,
2,
1,
1,
0,
0,
2,
2,
0,
0,
4,
4,
3,
3,
0,
0,
4,
4,
2,
2,
1,
1,
4,
4,
5,
5,
5,
5,
2,
2,
2,
2,
8,
8,
12,
12,
11,
11,
6,
6,
3,
3,
1,
1,
9,
22,
22,
22,
26,
26,
26,
26,
20,
6,
6,
6,
0,
0,
4,
4,
7,
7,
13,
13,
17,
17,
17,
17,
12,
12,
9,
9,
6,
6,
9,
9,
9,
9,
2,
2,
6,
6,
8,
8,
6,
6,
1,
1,
-2,
-2,
-1,
-1,
2,
2,
5,
5,
6,
25,
25,
43,
43,
43,
51,
51,
50,
31,
32,
5,
8,
34,
33,
44,
44,
44,
45,
45,
41,
41,
35,
35,
26,
14,
14,
14,
5,
5,
1,
1,
6,
6,
14,
14,
16,
16,
15,
15,
14,
14,
12,
12,
11,
11,
12,
12,
12,
12,
11,
11,
10,
10,
6,
6,
5,
5,
14,
14,
21,
21,
21,
9,
9,
9,
3,
3,
4,
4,
7,
7,
13,
13,
16,
16,
12,
12,
4,
4,
8,
8,
12,
12,
8,
8,
4,
4,
1,
1,
4,
4,
4,
4,
3,
3,
-1,
-1,
-1,
-1,
2,
2,
4,
4,
6,
6,
6,
6,
3,
3,
2,
2,
3,
3,
0,
0,
5,
5,
8,
8,
10,
10,
10,
10,
0,
0,
4,
4,
13,
13,
17,
17,
13,
13,
6,
6,
0,
0,
3,
3,
3,
3,
3,
3,
6,
6,
8,
8,
6,
6,
1,
1,
1,
1,
0,
0,
-2,
-2,
0,
0,
1,
1,
3,
3,
5,
5,
5,
5,
2,
2,
0,
0,
1,
1,
1,
1,
1,
1,
1,
1,
-1,
-1,
3,
3,
4,
4,
5,
5,
4,
4,
0,
0,
4,
4,
1,
1,
2,
2,
3,
3,
1,
1,
9,
9,
13,
13,
9,
9,
2,
2,
1,
1,
1,
1,
0,
0,
5,
5,
8,
8,
9,
9,
10,
10,
9,
9,
2,
2,
-1,
-1,
4,
4,
7,
7,
3,
3,
10,
10,
14,
14,
9,
9,
5,
5,
11,
11,
15,
15,
11,
11,
4,
4,
1,
1,
6,
6,
8,
8,
5,
5,
0,
0,
0,
0,
1,
1,
3,
3,
5,
5,
6,
6,
3,
3,
4,
4,
6,
6,
6,
6,
8,
8,
6,
6,
1,
1,
5,
5,
14,
26,
25,
25,
53,
53,
58,
38,
39,
23,
23,
10,
10,
10,
1,
1,
8,
8,
15,
15,
19,
19,
19,
19,
18,
18,
15,
15,
8,
8,
1,
1,
0,
0,
1,
1,
2,
2,
3,
3,
2,
2,
5,
5,
8,
8,
8,
8,
6,
6,
5,
5,
0,
0,
-2,
-2,
0,
0,
3,
3,
1,
1,
-1,
-1,
1,
1,
2,
2,
1,
1,
0,
0,
0,
0,
-1,
-1,
0,
0,
1,
1,
0,
0,
-1,
-1,
-1,
-1,
-2,
-2,
0,
0,
1,
1,
1,
1,
1,
1,
1,
1,
0,
0,
1,
1,
2,
2,
2,
2,
2,
2,
1,
1,
0,
0,
-1,
-1,
0,
0,
1,
1,
2,
2,
3,
3,
1,
1,
1,
1,
0,
0,
-1,
-1,
0,
0,
0,
0,
2,
2,
2,
2,
2,
2,
3,
3,
1,
1,
-1,
-1,
1,
1,
0,
0,
-1,
-1,
-1,
-1,
-2,
-2,
-1,
-1,
1,
1,
1,
1,
2,
2,
-2,
-2,
1,
1,
4,
4,
4,
4,
2,
2,
2,
2,
2,
2,
4,
4,
2,
2,
-2,
-2,
1,
1,
6,
6,
7,
7,
5,
5,
0,
0,
1,
1,
0,
0,
-1,
-1,
1,
1,
2,
2,
0,
0,
3,
3,
4,
4,
0,
0,
2,
2,
6,
6,
3,
3,
0,
0,
10,
10,
10,
10,
9,
9,
1,
1,
3,
3,
7,
7,
9,
59,
59,
28,
50,
50,
41,
28,
28,
16,
17,
6,
6,
6,
1,
1,
4,
4,
6,
6,
11,
11,
12,
12,
8,
8,
5,
5,
8,
8,
4,
47,
47,
30,
50,
62,
56,
41,
41,
28,
29,
15,
15,
3,
5,
5,
3,
3,
9,
26,
26,
26,
21,
21,
16,
16,
14,
14,
12,
12,
8,
8,
6,
38,
38,
62,
40,
62,
61,
61,
64,
64,
64,
64,
55,
37,
37,
19,
20,
4,
5,
5,
8,
8,
17,
17,
24,
24,
28,
28,
27,
27,
26,
26,
22,
22,
18,
18,
13,
13,
9,
9,
5,
5,
1,
1,
4,
4,
7,
7,
9,
9,
9,
9,
11,
11,
11,
11,
9,
9,
6,
6,
4,
4,
2,
2,
1,
1,
0,
0,
-2,
-2,
-1,
-1,
0,
0,
-1,
-1,
0,
0,
0,
0,
0,
0,
-1,
-1,
1,
1,
1,
1,
1,
1,
0,
0,
-1,
-1,
0,
0,
0,
0,
0,
0,
-1,
-1,
-1,
-1,
0,
0,
1,
1,
1,
1,
0,
0,
0,
0,
-1,
-1,
0,
0,
0,
0,
0,
0,
-1,
-1,
0,
0,
0,
0,
1,
1,
1,
1,
0,
0,
-1,
-1,
-1,
-1,
0,
0,
1,
1,
-2,
-2,
-1,
-1,
0,
0,
-1,
-1,
-2,
-2,
-1,
-1,
-1,
-1,
0,
0,
0,
0,
2,
2,
-1,
-1,
0,
0,
0,
0,
1,
14,
3,
3,
2,
2,
2,
2,
1,
1,
0,
0,
5,
5,
6,
6,
6,
6,
6,
6,
3,
3,
1,
1,
-1,
55,
55,
33,
58,
58,
61,
41,
41,
20,
20,
5,
5,
5,
5,
5,
11,
11,
15,
15,
16,
16,
17,
17,
19,
19,
20,
20,
24,
5,
6,
6,
2,
2,
0,
0,
3,
3,
10,
10,
11,
11,
6,
18,
16,
16,
6,
6,
2,
2,
-1,
-1,
0,
0,
-1,
35,
35,
62,
53,
34,
61,
61,
64,
64,
64,
64,
63,
47,
47,
26,
26,
7,
7,
7,
9,
22,
22,
22,
30,
30,
37,
37,
40,
40,
39,
39,
37,
37,
32,
32,
23,
12,
12,
0,
2,
2,
10,
10,
14,
14,
20,
20,
23,
23,
18,
18,
9,
9,
5,
5,
0,
0,
2,
2,
0,
0,
4,
4,
6,
6,
8,
8,
11,
11,
10,
10,
10,
10,
9,
9,
6,
6,
8,
8,
2,
2,
11,
22,
22,
22,
23,
23,
20,
20,
14,
14,
8,
8,
2,
2,
1,
1,
5,
5,
5,
5,
5,
5,
6,
6,
6,
6,
6,
6,
5,
5,
4,
4,
4,
4,
3,
3,
1,
1,
-1,
-1,
2,
2,
1,
1,
1,
1,
0,
0,
2,
2,
0,
0,
-1,
-1,
1,
1,
2,
2,
1,
1,
0,
0,
0,
0,
1,
1,
2,
2,
0,
0,
0,
0,
1,
1,
2,
2,
2,
2,
1,
1,
-1,
-1,
0,
0,
0,
0,
-1,
-1,
-2,
-2,
-1,
-1,
-1,
-1,
-1,
-1,
1,
1,
0,
0,
-2,
-2,
0,
0,
1,
1,
2,
2,
5,
5,
2,
2,
0,
0,
2,
2,
4,
4,
4,
4,
1,
1,
0,
0,
4,
4,
6,
6,
6,
6,
6,
6,
2,
2,
1,
1,
5,
5,
6,
6,
6,
6,
6,
6,
5,
5,
5,
5,
0,
0,
9,
20,
19,
19,
23,
23,
19,
8,
8,
8,
1,
1,
5,
5,
7,
7,
10,
10,
11,
11,
12,
12,
10,
10,
7,
7,
5,
5,
2,
2,
-1,
-1,
2,
2,
4,
4,
3,
3,
4,
4,
4,
4,
3,
3,
4,
4,
6,
6,
7,
7,
9,
9,
8,
8,
3,
3,
0,
0,
2,
2,
2,
2,
5,
5,
7,
7,
8,
8,
5,
5,
1,
1,
-1,
-1,
0,
0,
1,
1,
2,
2,
-1,
-1,
2,
2,
-1,
-1,
4,
4,
6,
6,
6,
6,
4,
4,
0,
0,
3,
3,
6,
6,
5,
5,
0,
0,
2,
2,
2,
2,
0,
0,
0,
0,
0,
0,
0,
0,
-1,
-1,
0,
0,
-1,
-1,
0,
0,
1,
1,
-1,
-1,
4,
4,
3,
3,
1,
1,
2,
2,
3,
3,
5,
5,
6,
6,
6,
6,
1,
1,
2,
2,
8,
8,
9,
9,
4,
4,
1,
1,
5,
5,
6,
6,
4,
4,
4,
4,
1,
1,
0,
0,
4,
4,
2,
2,
1,
1,
3,
3,
2,
2,
0,
0,
3,
3,
2,
2,
0,
0,
-1,
-1,
0,
0,
-1,
-1,
0,
0,
-1,
-1,
1,
1,
-1,
-1,
3,
3,
5,
5,
0,
0,
2,
2,
4,
4,
7,
7,
8,
8,
6,
6,
5,
5,
0,
0,
0,
0,
1,
1,
2,
2,
4,
4,
1,
1,
0,
0,
-1,
-1,
-1,
-1,
-1,
-1,
-1,
-1,
0,
0,
0,
0,
1,
1,
2,
51,
30,
43,
42,
27,
28,
14,
14,
14,
6,
6,
0,
0,
1,
1,
5,
5,
8,
8,
9,
9,
9,
9,
8,
8,
9,
9,
8,
8,
5,
5,
2,
2,
2,
2,
0,
0,
6,
6,
10,
10,
9,
9,
6,
6,
6,
6,
8,
8,
9,
9,
9,
9,
11,
11,
8,
8,
2,
2,
5,
5,
12,
12,
14,
14,
13,
13,
10,
10,
7,
7,
6,
6,
3,
3,
0,
0,
1,
1,
4,
4,
5,
5,
5,
5,
4,
4,
4,
4,
4,
4,
4,
4,
1,
1,
1,
1,
1,
1,
0,
0,
0,
0,
1,
1,
0,
0,
0,
0,
-1,
-1,
0,
0,
0,
0,
0,
0,
0,
0,
-1,
-1,
-1,
-1,
1,
1,
0,
0,
0,
0,
1,
1,
2,
2,
4,
4,
2,
2,
0,
0,
5,
5,
6,
6,
6,
6,
7,
7,
6,
6,
5,
5,
3,
3,
0,
0,
1,
1,
0,
0,
4,
4,
5,
5,
5,
5,
8,
8,
7,
7,
3,
3,
0,
0,
2,
2,
0,
0,
1,
1,
1,
1,
-1,
-1,
-1,
-1,
2,
2,
9,
9,
14,
14,
16,
16,
14,
14,
12,
12,
7,
7,
2,
2,
10,
10,
11,
11,
17,
17,
16,
16,
11,
11,
8,
50,
50,
14,
23,
23,
25,
25,
24,
24,
22,
22,
14,
2,
5,
5,
5,
5,
10,
10,
7,
7,
8,
8,
5,
42,
42,
14,
20,
20,
21,
21,
15,
15,
10,
10,
6,
6,
2,
2,
-1,
-1,
1,
1,
2,
2,
0,
0,
3,
3,
5,
5,
4,
4,
1,
1,
0,
26,
26,
58,
37,
62,
61,
45,
45,
30,
30,
18,
20,
9,
9,
9,
1,
1,
10,
10,
14,
14,
15,
15,
15,
15,
16,
16,
18,
18,
17,
17,
11,
11,
5,
5,
1,
1,
9,
9,
14,
14,
15,
15,
16,
16,
20,
20,
18,
18,
9,
51,
50,
22,
32,
32,
25,
12,
12,
12,
3,
3,
2,
2,
6,
6,
7,
7,
7,
7,
9,
9,
8,
8,
7,
7,
5,
5,
1,
1,
0,
0,
1,
1,
2,
2,
2,
2,
3,
3,
3,
3,
4,
4,
5,
5,
6,
6,
2,
2,
0,
0,
2,
2,
2,
2,
1,
1,
0,
0,
-1,
-1,
1,
1,
-1,
-1,
0,
0,
8,
8,
1,
1,
1,
1,
2,
41,
34,
16,
30,
30,
21,
10,
11,
11,
2,
2,
2,
2,
5,
5,
5,
5,
5,
5,
5,
5,
3,
3,
2,
2,
2,
2,
2,
2,
5,
5,
6,
6,
9,
9,
8,
8,
3,
3,
3,
3,
6,
6,
8,
8,
12,
12,
18,
18,
22,
22,
22,
22,
20,
20,
15,
1,
2,
2,
11,
11,
20,
20,
20,
20,
19,
19,
18,
18,
20,
20,
16,
16,
6,
6,
0,
0,
6,
6,
11,
11,
12,
12,
13,
13,
13,
13,
9,
51,
61,
38,
55,
55,
63,
63,
63,
42,
43,
20,
20,
2,
2,
2,
8,
8,
13,
13,
20,
20,
26,
26,
28,
28,
26,
26,
22,
22,
16,
16,
9,
9,
4,
4,
0,
0,
2,
2,
6,
6,
7,
7,
8,
8,
10,
10,
10,
10,
10,
10,
9,
9,
6,
6,
2,
2,
-1,
-1,
0,
0,
1,
1,
2,
2,
2,
2,
2,
2,
2,
2,
-1,
-1,
5,
5,
6,
6,
6,
6,
4,
4,
2,
2,
0,
0,
2,
2,
2,
2,
-1,
-1,
2,
2,
5,
5,
9,
9,
5,
5,
1,
1,
0,
0,
3,
3,
3,
3,
4,
4,
2,
2,
1,
1,
2,
17,
17,
-1,
0,
0,
-1,
-1,
0,
0,
-1,
-1,
0,
0,
2,
2,
3,
3,
1,
1,
-1,
-1,
0,
0,
0,
57,
56,
31,
58,
58,
58,
40,
40,
28,
28,
14,
15,
15,
10,
10,
9,
9,
5,
5,
12,
12,
15,
15,
16,
16,
15,
15,
13,
13,
10,
10,
4,
4,
2,
2,
1,
1,
2,
14,
13,
13,
14,
2,
10,
61,
37,
62,
61,
61,
63,
52,
52,
34,
35,
17,
18,
1,
3,
3,
7,
7,
14,
14,
19,
19,
21,
21,
20,
20,
17,
17,
15,
15,
11,
11,
7,
7,
3,
3,
2,
2,
-1,
-1,
1,
1,
5,
5,
7,
7,
10,
10,
10,
10,
10,
10,
6,
6,
3,
3,
4,
4,
3,
3,
-1,
-1,
2,
2,
7,
7,
10,
10,
7,
7,
3,
3,
0,
0,
3,
3,
5,
5,
10,
10,
13,
13,
6,
6,
1,
1,
-1,
-1,
2,
2,
1,
1,
2,
2,
5,
5,
9,
9,
17,
17,
17,
17,
13,
13,
5,
5,
5,
5,
14,
14,
21,
21,
29,
29,
29,
29,
21,
10,
12,
1,
1,
1,
6,
6,
12,
12,
14,
14,
18,
18,
20,
20,
18,
18,
14,
14,
9,
9,
3,
3,
0,
0,
4,
4,
6,
6,
8,
8,
9,
9,
7,
7,
7,
7,
6,
6,
6,
6,
5,
5,
4,
4,
2,
2,
2,
2,
1,
1,
0,
0,
1,
1,
1,
1,
1,
1,
1,
1,
1,
1,
1,
1,
1,
1,
2,
2,
2,
2,
1,
1,
-1,
-1,
0,
0,
-1,
-1,
1,
1,
2,
2,
2,
2,
3,
3,
2,
2,
0,
0,
5,
5,
11,
11,
14,
14,
17,
17,
17,
17,
16,
16,
12,
1,
3,
14,
14,
14,
16,
16,
16,
16,
16,
16,
14,
14,
10,
10,
6,
6,
3,
3,
0,
0,
1,
1,
6,
6,
7,
7,
6,
6,
7,
7,
6,
6,
6,
6,
5,
5,
5,
5,
2,
2,
1,
1,
0,
0,
1,
1,
0,
0,
1,
1,
1,
1,
0,
0,
-1,
-1,
0,
0,
0,
0,
1,
1,
2,
2,
-1,
-1,
0,
0,
-1,
-1,
-1,
-1,
1,
1,
3,
3,
4,
4,
4,
4,
0,
0,
3,
3,
9,
9,
6,
6,
1,
1,
4,
4,
4,
4,
-1,
-1,
0,
0,
2,
2,
4,
4,
5,
5,
3,
3,
0,
0,
-1,
-1,
0,
0,
1,
1,
1,
1,
3,
3,
2,
2,
0,
0,
-1,
-1,
1,
1,
0,
0,
-1,
-1,
1,
1,
2,
2,
2,
2,
3,
3,
2,
2,
1,
1,
0,
0,
2,
2,
2,
2,
0,
0,
-1,
-1,
-1,
-1,
2,
2,
4,
4,
5,
5,
4,
4,
2,
2,
-1,
-1,
-1,
-1,
0,
0,
1,
1,
5,
5,
7,
7,
10,
10,
12,
12,
6,
6,
2,
2,
1,
1,
3,
3,
1,
12,
12,
12,
22,
33,
32,
32,
34,
34,
30,
15,
15,
0,
1,
1,
9,
21,
20,
20,
27,
27,
29,
29,
23,
23,
14,
14,
14,
14,
18,
18,
16,
5,
6,
6,
6,
6,
12,
12,
13,
13,
14,
14,
15,
15,
13,
13,
12,
12,
12,
12,
10,
10,
6,
6,
2,
2,
0,
0,
3,
3,
6,
6,
6,
6,
7,
7,
5,
5,
1,
1,
-1,
-1,
1,
1,
5,
5,
5,
5,
6,
6,
4,
4,
3,
3,
0,
0,
0,
0,
5,
5,
6,
6,
7,
7,
8,
8,
6,
6,
3,
3,
-1,
-1,
2,
2,
2,
2,
2,
2,
5,
5,
4,
4,
2,
2,
2,
2,
1,
1,
1,
1,
3,
3,
1,
1,
-1,
-1,
0,
0,
0,
0,
0,
0,
-1,
-1,
1,
1,
2,
2,
8,
8,
9,
9,
10,
10,
5,
5,
2,
2,
3,
16,
16,
40,
18,
61,
61,
61,
56,
28,
29,
6,
6,
6,
5,
19,
18,
32,
31,
42,
41,
41,
40,
40,
33,
21,
22,
22,
12,
12,
3,
3,
3,
3,
9,
9,
14,
14,
15,
15,
15,
15,
15,
15,
12,
12,
10,
10,
9,
9,
6,
6,
5,
5,
1,
1,
0,
0,
0,
0,
1,
1,
1,
1,
2,
2,
1,
1,
0,
0,
1,
1,
3,
3,
3,
3,
2,
2,
2,
2,
2,
2,
1,
1,
0,
0,
2,
2,
2,
2,
1,
1,
-1,
-1,
2,
2,
1,
1,
6,
6,
10,
10,
9,
9,
3,
3,
-1,
-1,
4,
4,
5,
42,
42,
10,
13,
13,
14,
14,
10,
10,
7,
7,
4,
4,
5,
20,
5,
5,
3,
3,
6,
6,
7,
7,
10,
10,
15,
15,
19,
19,
13,
0,
2,
2,
6,
6,
14,
14,
20,
20,
24,
24,
27,
27,
24,
24,
19,
19,
15,
15,
10,
10,
2,
14,
14,
26,
26,
26,
34,
34,
36,
36,
31,
31,
23,
23,
14,
14,
7,
7,
0,
0,
6,
6,
12,
12,
14,
14,
15,
15,
16,
16,
15,
15,
13,
13,
10,
10,
9,
9,
8,
8,
6,
6,
1,
1,
3,
3,
6,
6,
7,
7,
9,
9,
6,
6,
0,
0,
2,
2,
2,
2,
3,
3,
-1,
-1,
1,
1,
1,
1,
2,
2,
1,
1,
0,
0,
0,
0,
1,
1,
3,
3,
3,
3,
2,
2,
2,
2,
4,
4,
1,
1,
1,
1,
0,
0,
1,
1,
3,
3,
5,
5,
6,
6,
3,
3,
1,
1,
-1,
-1,
0,
0,
1,
1,
2,
2,
0,
0,
0,
0,
-1,
-1,
2,
2,
4,
4,
3,
3,
1,
1,
9,
9,
9,
9,
1,
1,
5,
5,
6,
6,
4,
4,
-1,
-1,
-1,
-1,
-1,
-1,
0,
0,
5,
5,
12,
12,
10,
10,
10,
10,
8,
8,
2,
2,
3,
3,
4,
4,
4,
4,
6,
6,
10,
10,
10,
10,
8,
8,
6,
6,
3,
3,
0,
0,
5,
5,
4,
4,
1,
1,
-1,
-1,
0,
0,
4,
4,
6,
6,
9,
9,
10,
10,
6,
6,
3,
3,
0,
0,
2,
2,
1,
1,
1,
1,
3,
3,
4,
4,
5,
5,
2,
2,
-1,
-1,
-1,
-1,
2,
2,
1,
1,
1,
1,
5,
5,
2,
2,
8,
8,
6,
6,
0,
0,
9,
21,
20,
32,
32,
32,
38,
27,
28,
3,
5,
22,
22,
22,
29,
29,
29,
29,
22,
22,
12,
12,
7,
7,
6,
6,
3,
3,
2,
2,
1,
1,
5,
5,
5,
5,
7,
7,
7,
7,
5,
5,
9,
9,
12,
12,
9,
9,
5,
5,
0,
0,
2,
2,
0,
0,
-1,
-1,
0,
0,
1,
1,
2,
2,
-1,
-1,
0,
0,
2,
2,
0,
0,
0,
0,
1,
1,
3,
3,
2,
2,
2,
2,
2,
2,
2,
2,
1,
1,
0,
0,
2,
2,
2,
2,
1,
1,
-1,
-1,
1,
1,
0,
0,
2,
2,
2,
2,
-1,
-1,
2,
2,
3,
3,
4,
4,
4,
4,
1,
1,
-1,
-1,
2,
2,
5,
5,
1,
1,
0,
0,
0,
0,
0,
0,
-1,
-1,
0,
0,
0,
0,
0,
0,
2,
2,
1,
1,
-1,
-1,
-1,
-1,
1,
1,
5,
5,
6,
6,
4,
4,
4,
4,
10,
10,
13,
13,
16,
16,
20,
20,
11,
0,
2,
2,
8,
8,
4,
4,
12,
12,
12,
12,
10,
10,
6,
6,
1,
1,
6,
6,
6,
6,
3,
3,
1,
1,
4,
4,
3,
3,
4,
4,
4,
4,
3,
3,
0,
0,
2,
2,
1,
1,
2,
2,
3,
3,
4,
4,
4,
4,
6,
6,
4,
4,
1,
1,
0,
0,
-1,
-1,
0,
0,
2,
2,
4,
4,
4,
4,
2,
2,
0,
0,
8,
8,
13,
13,
13,
13,
5,
5,
2,
2,
11,
11,
14,
14,
12,
1,
2,
2,
8,
8,
15,
15,
20,
20,
13,
13,
5,
5,
2,
13,
12,
12,
14,
14,
14,
14,
10,
10,
4,
4,
2,
2,
1,
1,
-1,
-1,
2,
2,
6,
6,
6,
6,
5,
5,
5,
5,
3,
3,
2,
2,
2,
2,
1,
1,
3,
3,
2,
2,
0,
0,
0,
0,
1,
1,
0,
0,
0,
0,
0,
0,
1,
1,
9,
9,
12,
12,
8,
8,
5,
5,
-1,
-1,
7,
7,
14,
14,
13,
13,
4,
4,
2,
2,
3,
3,
1,
1,
8,
8,
4,
4,
1,
1,
5,
5,
5,
5,
4,
4,
2,
2,
3,
3,
3,
3,
3,
3,
-1,
-1,
0,
0,
2,
2,
2,
2,
1,
1,
1,
1,
0,
0,
-1,
-1,
-1,
-1,
-1,
-1,
3,
3,
4,
4,
4,
4,
3,
3,
1,
1,
-1,
-1,
1,
1,
2,
2,
1,
1,
1,
1,
3,
3,
4,
4,
0,
0,
0,
0,
2,
2,
3,
3,
2,
2,
0,
0,
1,
1,
0,
0,
0,
0,
-1,
-1,
2,
2,
5,
5,
8,
55,
36,
25,
46,
46,
38,
26,
27,
16,
17,
6,
7,
7,
1,
1,
9,
9,
12,
12,
14,
14,
14,
14,
12,
12,
9,
9,
3,
3,
4,
4,
10,
10,
7,
7,
0,
0,
2,
2,
3,
3,
1,
1,
4,
4,
7,
7,
8,
8,
6,
6,
4,
4,
0,
0,
4,
4,
5,
5,
4,
4,
2,
2,
0,
0,
3,
3,
4,
4,
2,
2,
0,
0,
3,
3,
5,
5,
10,
10,
9,
9,
6,
6,
1,
1,
5,
5,
2,
2,
0,
0,
1,
1,
-1,
-1,
0,
0,
-1,
-1,
-1,
-1,
6,
6,
12,
12,
11,
11,
6,
6,
1,
1,
2,
17,
17,
29,
27,
27,
28,
5,
6,
6,
10,
10,
15,
15,
14,
14,
12,
12,
7,
7,
5,
5,
1,
1,
1,
1,
5,
5,
5,
5,
5,
5,
8,
8,
7,
7,
5,
5,
0,
0,
0,
0,
-1,
-1,
2,
2,
1,
1,
2,
2,
5,
5,
7,
7,
5,
5,
1,
1,
4,
4,
4,
4,
1,
1,
2,
2,
6,
6,
0,
0,
6,
6,
14,
27,
27,
27,
30,
14,
14,
1,
6,
19,
18,
18,
22,
22,
18,
18,
14,
14,
13,
13,
9,
9,
6,
6,
2,
2,
1,
1,
4,
4,
6,
6,
6,
6,
6,
6,
8,
8,
9,
9,
6,
6,
5,
5,
4,
4,
4,
4,
2,
2,
-1,
-1,
2,
2,
5,
5,
2,
2,
0,
0,
5,
5,
6,
6,
0,
0,
1,
1,
6,
6,
5,
5,
4,
4,
2,
2,
0,
0,
0,
0,
0,
0,
2,
2,
2,
2,
-1,
-1,
0,
0,
0,
0,
0,
0,
0,
0,
0,
0,
3,
3,
5,
5,
2,
2,
1,
1,
-1,
-1,
-1,
-1,
-1,
-1,
-2,
-2,
-2,
-2,
1,
1,
6,
6,
6,
6,
3,
3,
1,
1,
1,
1,
6,
6,
15,
15,
17,
17,
10,
10,
2,
2,
2,
2,
5,
5,
3,
3,
5,
5,
6,
6,
9,
9,
6,
6,
