EMG_S2/DS0068.CSV

Memory Length,4000,
Trigger Level,-4.80000e+02,
Source,CH1,
Probe,1.0X,
Vertical Units,V,
Vertical Scale,1.00000e+00,
Vertical Position,0.00000e+00,
Horizontal Units,S,
Horizontal Scale,1.00000e-01,
Horizontal Position,0.0000000e+00,
Horizontal Mode,Roll Mode,
Waveform Last Dot Address,4000,
Sampling Period,4.00000e-04,
Firmware,V1.14,
Time, ,
Mode,Fast,
Waveform Data,
1,
1,
2,
2,
4,
4,
5,
5,
4,
4,
4,
4,
1,
1,
0,
0,
-1,
-1,
1,
1,
1,
1,
2,
2,
2,
2,
3,
3,
2,
2,
4,
4,
2,
2,
1,
1,
2,
2,
3,
3,
3,
3,
0,
0,
6,
6,
5,
5,
0,
0,
6,
6,
5,
5,
1,
1,
0,
0,
1,
1,
1,
1,
6,
6,
2,
2,
1,
1,
-1,
-1,
5,
5,
9,
9,
1,
1,
10,
10,
10,
10,
9,
9,
1,
1,
7,
7,
10,
10,
10,
10,
6,
6,
1,
1,
0,
0,
1,
1,
-1,
-1,
1,
1,
2,
2,
2,
2,
5,
5,
4,
4,
4,
4,
0,
0,
1,
1,
5,
5,
3,
3,
0,
0,
-1,
-1,
4,
4,
7,
7,
4,
4,
8,
8,
15,
15,
21,
21,
21,
10,
11,
11,
5,
5,
14,
14,
18,
18,
18,
18,
18,
18,
17,
17,
14,
14,
6,
6,
5,
5,
7,
7,
1,
1,
8,
8,
4,
4,
1,
1,
6,
6,
8,
8,
8,
8,
16,
16,
16,
16,
14,
14,
11,
11,
5,
5,
1,
1,
1,
1,
-1,
-1,
0,
0,
3,
3,
8,
8,
12,
12,
12,
12,
12,
12,
10,
10,
8,
8,
4,
4,
0,
0,
2,
2,
5,
5,
6,
6,
6,
6,
7,
7,
6,
6,
5,
5,
4,
4,
6,
6,
2,
2,
1,
1,
1,
1,
1,
1,
1,
1,
-1,
-1,
-1,
-1,
1,
1,
1,
1,
0,
0,
0,
0,
0,
0,
0,
0,
-1,
-1,
2,
2,
2,
2,
0,
0,
1,
1,
1,
1,
0,
0,
-1,
-1,
0,
0,
0,
0,
-1,
-1,
0,
0,
-1,
-1,
0,
0,
-1,
-1,
3,
3,
4,
4,
4,
4,
2,
2,
2,
2,
1,
1,
-1,
-1,
-1,
-1,
-1,
-1,
0,
0,
1,
1,
0,
0,
0,
0,
-1,
-1,
-1,
-1,
0,
0,
1,
1,
0,
0,
0,
0,
0,
0,
-1,
-1,
0,
0,
-1,
-1,
-1,
-1,
1,
1,
2,
2,
1,
1,
1,
1,
0,
0,
1,
1,
2,
2,
0,
0,
-2,
-2,
1,
1,
-1,
-1,
1,
1,
1,
1,
0,
0,
1,
1,
0,
0,
-1,
-1,
1,
1,
2,
2,
1,
1,
0,
0,
2,
2,
3,
3,
1,
1,
-1,
-1,
1,
1,
1,
1,
0,
11,
11,
11,
17,
17,
14,
14,
13,
13,
17,
17,
20,
5,
6,
6,
14,
14,
18,
18,
17,
17,
18,
18,
22,
22,
18,
18,
14,
14,
9,
9,
1,
1,
2,
2,
5,
5,
9,
9,
15,
15,
21,
21,
23,
23,
19,
19,
10,
10,
1,
1,
5,
5,
9,
9,
11,
11,
9,
9,
7,
7,
4,
4,
1,
1,
2,
2,
5,
5,
5,
5,
1,
1,
0,
0,
0,
0,
3,
3,
2,
2,
0,
0,
3,
3,
4,
4,
6,
6,
5,
5,
4,
4,
2,
2,
-1,
-1,
3,
3,
5,
5,
5,
5,
4,
4,
2,
2,
0,
0,
-1,
-1,
1,
1,
1,
1,
0,
0,
0,
0,
-1,
-1,
-2,
-2,
-1,
-1,
0,
0,
-1,
-1,
-1,
-1,
-1,
-1,
0,
0,
1,
1,
0,
0,
1,
1,
0,
0,
1,
1,
2,
2,
7,
7,
10,
10,
8,
8,
6,
6,
5,
5,
2,
2,
2,
2,
7,
7,
9,
9,
8,
8,
9,
9,
8,
8,
4,
4,
1,
1,
0,
0,
-1,
-1,
-1,
-1,
3,
3,
4,
4,
5,
5,
9,
9,
9,
9,
5,
5,
1,
1,
2,
2,
2,
2,
-1,
-1,
0,
0,
-1,
-1,
2,
2,
2,
2,
2,
2,
4,
4,
1,
1,
2,
15,
14,
28,
27,
27,
34,
34,
26,
2,
3,
19,
19,
19,
28,
28,
30,
30,
26,
26,
20,
20,
13,
2,
3,
3,
2,
2,
6,
6,
8,
8,
10,
10,
10,
10,
8,
8,
2,
2,
4,
4,
11,
11,
15,
15,
14,
14,
18,
6,
6,
20,
20,
48,
47,
63,
61,
61,
54,
40,
40,
14,
15,
1,
4,
21,
21,
32,
31,
31,
34,
34,
36,
36,
38,
38,
35,
35,
26,
26,
18,
18,
10,
10,
5,
5,
12,
12,
17,
17,
21,
21,
20,
20,
17,
17,
17,
17,
13,
13,
5,
5,
1,
1,
5,
5,
0,
0,
2,
2,
2,
2,
10,
10,
6,
6,
1,
1,
0,
20,
20,
36,
36,
36,
37,
13,
14,
14,
14,
26,
25,
25,
27,
27,
25,
25,
22,
22,
16,
16,
12,
12,
4,
4,
-1,
-1,
2,
2,
6,
6,
9,
9,
8,
8,
6,
6,
7,
7,
3,
3,
1,
1,
1,
1,
3,
3,
10,
10,
12,
12,
10,
10,
4,
4,
2,
2,
2,
2,
7,
7,
9,
9,
2,
2,
4,
4,
14,
14,
16,
16,
12,
12,
10,
10,
10,
10,
5,
5,
3,
3,
3,
3,
2,
2,
0,
0,
2,
2,
3,
3,
4,
4,
5,
5,
6,
6,
9,
9,
9,
9,
5,
5,
-1,
-1,
2,
2,
4,
4,
0,
0,
5,
5,
13,
13,
13,
13,
12,
1,
3,
16,
16,
16,
21,
21,
17,
17,
15,
15,
15,
15,
10,
10,
5,
5,
1,
1,
10,
21,
20,
20,
24,
24,
22,
22,
16,
16,
8,
8,
4,
4,
1,
1,
0,
0,
3,
3,
5,
5,
6,
6,
5,
5,
5,
5,
7,
7,
10,
10,
9,
9,
6,
6,
4,
4,
-1,
-1,
0,
0,
1,
1,
1,
1,
1,
1,
1,
1,
1,
1,
1,
1,
2,
2,
4,
4,
4,
4,
2,
2,
1,
1,
-1,
-1,
0,
0,
1,
1,
1,
1,
2,
2,
-1,
-1,
-1,
-1,
1,
1,
1,
1,
0,
0,
0,
0,
0,
0,
5,
5,
8,
8,
10,
10,
7,
7,
2,
2,
-1,
-1,
2,
2,
3,
3,
4,
4,
0,
0,
0,
0,
2,
2,
0,
0,
2,
2,
2,
2,
1,
1,
-1,
-1,
3,
3,
3,
3,
0,
0,
0,
0,
1,
1,
2,
2,
0,
0,
3,
3,
1,
1,
6,
6,
12,
12,
17,
17,
14,
1,
2,
19,
18,
32,
32,
32,
30,
8,
8,
8,
0,
0,
7,
7,
6,
6,
6,
6,
3,
3,
1,
1,
6,
6,
8,
8,
8,
8,
14,
14,
19,
19,
16,
16,
12,
12,
6,
6,
4,
4,
3,
3,
1,
1,
6,
6,
10,
10,
13,
13,
10,
10,
6,
6,
5,
5,
10,
10,
13,
13,
10,
10,
3,
3,
2,
2,
7,
7,
7,
7,
4,
4,
1,
1,
4,
4,
5,
5,
0,
0,
3,
3,
4,
4,
8,
8,
4,
4,
2,
2,
4,
4,
2,
2,
8,
8,
8,
8,
8,
8,
8,
8,
2,
2,
2,
2,
8,
8,
7,
7,
0,
0,
0,
0,
0,
12,
11,
11,
19,
19,
21,
21,
17,
17,
11,
11,
7,
7,
4,
4,
0,
0,
5,
5,
10,
10,
14,
14,
16,
16,
17,
17,
18,
18,
14,
14,
8,
8,
1,
1,
2,
2,
5,
5,
10,
10,
8,
8,
4,
4,
-1,
-1,
2,
2,
5,
18,
18,
18,
13,
13,
4,
4,
0,
11,
10,
10,
14,
14,
11,
11,
8,
8,
8,
8,
7,
7,
4,
4,
1,
1,
-1,
-1,
2,
2,
2,
2,
4,
4,
7,
7,
10,
10,
9,
9,
6,
6,
1,
1,
0,
0,
5,
5,
5,
5,
0,
0,
5,
5,
4,
4,
2,
2,
-1,
-1,
1,
1,
0,
0,
2,
2,
3,
3,
0,
0,
5,
5,
1,
1,
6,
6,
8,
8,
3,
3,
4,
4,
8,
8,
11,
11,
10,
10,
8,
8,
2,
2,
7,
7,
9,
9,
6,
6,
3,
3,
2,
2,
0,
0,
10,
10,
19,
19,
21,
21,
18,
18,
9,
9,
0,
0,
7,
24,
24,
51,
50,
64,
64,
64,
65,
47,
47,
6,
7,
30,
30,
43,
43,
57,
56,
56,
48,
26,
27,
15,
15,
15,
17,
17,
10,
10,
1,
1,
2,
2,
4,
4,
8,
8,
12,
12,
8,
8,
0,
13,
13,
31,
31,
31,
41,
41,
45,
34,
35,
14,
15,
4,
5,
5,
4,
4,
8,
8,
2,
2,
10,
29,
28,
28,
33,
33,
27,
27,
19,
8,
8,
8,
2,
2,
1,
1,
4,
4,
6,
6,
7,
7,
4,
4,
1,
1,
0,
0,
2,
2,
3,
3,
2,
2,
0,
0,
0,
0,
7,
7,
11,
11,
12,
12,
13,
13,
9,
9,
1,
1,
2,
2,
1,
1,
2,
2,
0,
0,
1,
1,
0,
0,
7,
7,
8,
8,
1,
1,
7,
7,
8,
8,
1,
1,
8,
8,
12,
12,
11,
11,
8,
8,
6,
6,
5,
5,
4,
4,
4,
4,
2,
2,
10,
10,
14,
14,
13,
13,
9,
9,
5,
5,
0,
0,
1,
1,
6,
6,
7,
7,
6,
6,
4,
4,
1,
1,
2,
2,
6,
6,
10,
10,
12,
12,
10,
10,
1,
1,
6,
6,
2,
2,
1,
1,
1,
1,
0,
0,
0,
0,
1,
1,
3,
3,
2,
2,
1,
1,
0,
0,
2,
2,
1,
1,
0,
0,
0,
0,
2,
2,
4,
4,
2,
2,
1,
1,
2,
2,
1,
1,
3,
3,
6,
6,
1,
1,
3,
3,
2,
2,
2,
2,
6,
6,
2,
2,
6,
6,
10,
24,
24,
24,
20,
6,
7,
25,
24,
53,
53,
53,
52,
52,
47,
47,
38,
16,
17,
1,
3,
17,
17,
17,
26,
26,
35,
35,
40,
40,
40,
40,
36,
36,
26,
26,
17,
17,
8,
8,
1,
1,
6,
6,
13,
13,
16,
16,
21,
21,
27,
27,
30,
30,
27,
16,
17,
17,
9,
9,
1,
1,
8,
8,
10,
10,
13,
13,
16,
16,
17,
56,
56,
31,
33,
63,
62,
62,
64,
64,
64,
45,
61,
30,
32,
62,
61,
61,
64,
64,
65,
47,
47,
8,
8,
21,
21,
44,
43,
57,
57,
57,
62,
62,
57,
57,
48,
48,
38,
38,
31,
20,
20,
9,
9,
9,
3,
3,
7,
7,
12,
12,
15,
15,
18,
18,
24,
24,
32,
32,
30,
30,
25,
25,
19,
19,
13,
13,
8,
8,
3,
3,
0,
0,
1,
1,
2,
2,
5,
5,
5,
5,
5,
5,
5,
5,
5,
5,
3,
3,
2,
2,
2,
2,
2,
2,
1,
1,
-1,
-1,
0,
0,
0,
0,
-1,
-1,
0,
0,
-1,
-1,
0,
0,
0,
0,
-1,
-1,
1,
1,
2,
2,
1,
1,
0,
0,
0,
0,
1,
1,
0,
0,
2,
2,
11,
11,
10,
10,
6,
6,
5,
5,
6,
6,
6,
6,
1,
18,
17,
17,
23,
23,
26,
38,
37,
50,
49,
36,
37,
9,
10,
10,
12,
28,
28,
41,
40,
40,
48,
48,
48,
35,
36,
18,
18,
6,
7,
7,
2,
2,
9,
25,
25,
25,
33,
33,
31,
17,
19,
4,
5,
5,
2,
2,
1,
1,
1,
1,
2,
2,
0,
0,
-1,
-1,
-1,
-1,
0,
0,
0,
0,
0,
0,
1,
1,
1,
1,
0,
0,
1,
1,
2,
2,
1,
1,
-1,
-1,
2,
2,
5,
5,
6,
6,
2,
2,
10,
10,
2,
13,
10,
10,
2,
2,
6,
6,
9,
9,
2,
2,
3,
3,
5,
5,
7,
7,
7,
7,
0,
0,
6,
62,
61,
25,
30,
62,
62,
62,
63,
63,
64,
64,
64,
49,
50,
21,
22,
2,
5,
24,
24,
40,
40,
40,
47,
47,
46,
46,
44,
44,
41,
41,
36,
36,
27,
27,
18,
18,
10,
10,
2,
2,
2,
2,
10,
10,
16,
16,
20,
20,
23,
23,
25,
25,
23,
23,
18,
18,
9,
9,
5,
5,
3,
3,
2,
2,
6,
6,
5,
5,
2,
2,
-1,
-1,
1,
1,
5,
5,
6,
6,
6,
6,
4,
4,
2,
2,
0,
0,
1,
1,
2,
2,
4,
4,
5,
5,
3,
3,
2,
2,
0,
0,
0,
0,
0,
0,
2,
2,
5,
5,
4,
4,
3,
3,
1,
1,
2,
2,
2,
2,
2,
2,
1,
1,
1,
1,
-2,
-2,
0,
0,
2,
2,
2,
2,
0,
0,
0,
0,
1,
1,
2,
2,
3,
3,
2,
2,
2,
2,
0,
0,
3,
3,
4,
4,
5,
5,
4,
4,
5,
5,
5,
5,
2,
2,
1,
1,
3,
3,
10,
10,
10,
10,
10,
10,
13,
13,
18,
18,
19,
4,
5,
5,
7,
19,
18,
18,
25,
25,
22,
8,
9,
9,
12,
12,
18,
18,
20,
20,
12,
1,
6,
27,
26,
26,
21,
6,
6,
6,
2,
2,
5,
5,
6,
6,
10,
10,
11,
11,
2,
2,
5,
5,
6,
6,
4,
4,
1,
1,
1,
1,
-2,
-2,
2,
2,
3,
3,
4,
4,
2,
2,
1,
1,
0,
0,
2,
2,
2,
2,
2,
2,
1,
1,
0,
0,
-1,
-1,
-1,
-1,
0,
0,
1,
1,
0,
0,
-1,
-1,
-1,
-1,
-1,
-1,
0,
0,
-1,
-1,
2,
2,
1,
1,
0,
0,
1,
1,
1,
1,
-1,
-1,
0,
0,
0,
0,
2,
2,
2,
2,
2,
2,
1,
1,
-1,
-1,
2,
2,
5,
5,
3,
3,
-1,
-1,
0,
0,
1,
1,
2,
2,
-2,
-2,
1,
1,
5,
5,
11,
11,
21,
21,
21,
21,
13,
1,
5,
34,
33,
33,
38,
38,
34,
34,
33,
33,
36,
36,
36,
16,
16,
3,
10,
26,
26,
37,
37,
37,
39,
39,
40,
40,
38,
38,
31,
31,
22,
22,
12,
12,
3,
3,
5,
5,
14,
14,
19,
19,
22,
22,
22,
22,
21,
21,
18,
18,
14,
14,
9,
9,
6,
6,
3,
3,
2,
2,
2,
2,
4,
4,
2,
2,
2,
2,
1,
1,
3,
3,
4,
4,
5,
5,
3,
3,
1,
1,
2,
2,
0,
0,
1,
1,
4,
4,
1,
1,
0,
0,
3,
3,
2,
2,
3,
3,
4,
4,
1,
1,
-1,
-1,
0,
0,
0,
0,
-1,
-1,
1,
1,
0,
0,
-1,
-1,
0,
0,
0,
0,
1,
1,
1,
1,
-1,
-1,
0,
0,
0,
0,
0,
0,
2,
2,
0,
0,
-1,
-1,
-1,
-1,
-1,
-1,
-1,
-1,
0,
0,
0,
0,
-1,
-1,
0,
0,
-1,
-1,
-1,
-1,
-1,
-1,
-1,
-1,
-1,
-1,
0,
0,
2,
2,
2,
2,
1,
1,
0,
0,
-1,
-1,
2,
2,
2,
2,
1,
1,
1,
1,
0,
0,
2,
2,
3,
3,
2,
2,
1,
1,
0,
0,
0,
0,
-1,
-1,
1,
1,
0,
0,
1,
1,
2,
2,
0,
0,
2,
2,
2,
2,
5,
5,
8,
8,
6,
6,
3,
14,
13,
13,
21,
21,
24,
24,
23,
11,
11,
11,
2,
13,
13,
13,
16,
16,
20,
20,
19,
19,
14,
14,
12,
12,
9,
9,
6,
6,
5,
5,
0,
0,
3,
3,
10,
10,
15,
15,
17,
17,
19,
19,
14,
14,
9,
9,
5,
5,
2,
2,
0,
0,
4,
4,
6,
6,
6,
6,
5,
5,
3,
3,
4,
4,
3,
3,
1,
1,
-1,
-1,
1,
1,
0,
0,
0,
0,
0,
0,
0,
0,
1,
1,
1,
1,
1,
1,
5,
5,
11,
11,
9,
9,
5,
5,
2,
2,
0,
0,
0,
0,
2,
2,
3,
3,
4,
4,
3,
3,
2,
2,
2,
2,
1,
1,
2,
2,
1,
1,
1,
1,
2,
2,
0,
0,
1,
1,
3,
3,
4,
4,
7,
7,
9,
9,
6,
6,
2,
2,
2,
2,
-1,
-1,
-1,
-1,
0,
0,
1,
1,
2,
2,
4,
4,
6,
6,
8,
8,
6,
6,
4,
4,
2,
2,
2,
2,
1,
12,
12,
24,
23,
23,
28,
28,
21,
21,
12,
0,
1,
1,
10,
10,
17,
17,
17,
17,
14,
14,
9,
9,
5,
5,
4,
4,
1,
1,
-1,
-1,
1,
1,
5,
5,
5,
5,
6,
6,
5,
5,
3,
3,
2,
2,
4,
4,
2,
2,
-1,
-1,
0,
0,
-2,
-2,
0,
0,
1,
1,
0,
0,
0,
0,
0,
0,
-2,
-2,
0,
0,
1,
1,
0,
0,
1,
1,
0,
0,
-2,
-2,
0,
0,
-1,
-1,
2,
2,
6,
6,
6,
6,
3,
3,
3,
3,
4,
4,
3,
3,
3,
3,
2,
2,
10,
10,
6,
6,
3,
3,
1,
1,
2,
2,
5,
5,
10,
10,
12,
12,
14,
14,
15,
15,
12,
0,
1,
1,
9,
9,
13,
13,
13,
13,
13,
13,
14,
14,
12,
12,
10,
10,
6,
6,
1,
1,
0,
0,
2,
2,
5,
5,
6,
6,
7,
7,
8,
8,
7,
7,
6,
6,
6,
6,
2,
2,
3,
3,
5,
5,
4,
4,
1,
1,
2,
2,
2,
2,
3,
3,
6,
6,
9,
9,
6,
6,
0,
0,
2,
2,
6,
6,
11,
11,
11,
11,
2,
2,
1,
1,
4,
4,
6,
6,
5,
5,
4,
4,
1,
1,
1,
1,
3,
3,
5,
5,
2,
2,
0,
0,
4,
4,
4,
4,
4,
4,
0,
0,
0,
0,
-1,
-1,
0,
0,
3,
3,
5,
5,
5,
5,
5,
5,
4,
4,
0,
0,
1,
1,
1,
1,
0,
0,
0,
0,
0,
0,
0,
0,
2,
2,
7,
7,
9,
9,
5,
5,
-1,
-1,
6,
6,
11,
11,
10,
10,
10,
10,
14,
14,
13,
13,
10,
10,
2,
2,
5,
5,
5,
5,
10,
10,
14,
14,
13,
13,
13,
13,
13,
13,
13,
13,
8,
8,
1,
1,
7,
7,
15,
15,
14,
14,
11,
11,
9,
9,
6,
6,
4,
4,
3,
3,
1,
1,
0,
0,
5,
5,
11,
11,
14,
14,
8,
8,
4,
4,
1,
1,
9,
9,
17,
17,
22,
22,
18,
18,
9,
9,
3,
3,
1,
1,
3,
3,
10,
10,
15,
15,
14,
14,
14,
14,
12,
12,
9,
9,
5,
5,
0,
0,
2,
2,
2,
2,
3,
3,
7,
7,
10,
10,
13,
13,
13,
13,
7,
7,
2,
2,
0,
0,
1,
1,
-1,
-1,
0,
0,
-1,
-1,
0,
0,
2,
2,
5,
5,
4,
4,
1,
1,
-1,
-1,
1,
1,
4,
4,
2,
2,
3,
3,
5,
5,
0,
0,
0,
0,
1,
1,
9,
9,
15,
15,
8,
8,
2,
2,
4,
4,
8,
8,
12,
12,
10,
10,
4,
4,
-1,
-1,
2,
2,
5,
5,
5,
5,
2,
2,
2,
2,
2,
2,
-1,
-1,
3,
3,
4,
4,
3,
3,
-1,
-1,
1,
1,
1,
1,
1,
1,
3,
3,
2,
2,
2,
2,
1,
1,
0,
0,
0,
0,
3,
3,
4,
4,
2,
2,
0,
0,
-2,
-2,
-1,
-1,
1,
1,
1,
1,
1,
1,
1,
1,
1,
1,
5,
5,
7,
7,
6,
6,
8,
8,
10,
10,
10,
10,
6,
6,
2,
13,
13,
35,
34,
34,
42,
30,
30,
16,
16,
16,
9,
9,
3,
3,
8,
21,
21,
21,
28,
28,
22,
22,
17,
17,
13,
13,
16,
16,
15,
15,
10,
10,
6,
6,
1,
1,
3,
3,
8,
8,
12,
12,
14,
14,
14,
14,
12,
12,
11,
11,
9,
9,
6,
6,
2,
2,
-1,
-1,
1,
1,
1,
1,
6,
6,
5,
5,
1,
1,
4,
4,
5,
5,
5,
5,
5,
5,
1,
1,
-1,
-1,
-1,
-1,
-1,
-1,
1,
1,
2,
2,
0,
0,
-1,
-1,
-1,
-1,
0,
0,
0,
0,
-1,
-1,
0,
0,
3,
3,
4,
4,
4,
4,
2,
2,
1,
1,
3,
3,
1,
1,
4,
4,
9,
9,
10,
10,
1,
1,
5,
5,
6,
6,
7,
7,
8,
8,
6,
6,
2,
2,
4,
4,
6,
6,
2,
2,
2,
2,
5,
5,
7,
7,
6,
6,
5,
5,
2,
2,
1,
1,
2,
2,
1,
1,
1,
1,
0,
0,
0,
0,
0,
0,
0,
0,
-1,
-1,
0,
0,
0,
0,
2,
2,
3,
3,
4,
4,
2,
2,
0,
0,
0,
0,
-1,
-1,
-1,
-1,
1,
1,
0,
0,
-1,
-1,
-1,
-1,
1,
1,
0,
0,
1,
1,
1,
1,
1,
1,
2,
2,
1,
1,
0,
0,
1,
1,
0,
0,
5,
5,
8,
8,
4,
4,
3,
3,
6,
6,
5,
5,
4,
4,
5,
5,
2,
2,
0,
0,
3,
3,
1,
1,
1,
1,
2,
2,
2,
2,
1,
1,
0,
0,
0,
0,
2,
2,
2,
2,
2,
2,
0,
0,
1,
1,
5,
5,
8,
8,
7,
7,
6,
6,
1,
1,
5,
5,
4,
4,
2,
2,
1,
1,
5,
17,
15,
32,
31,
31,
36,
36,
36,
23,
23,
4,
9,
34,
33,
33,
41,
41,
42,
42,
37,
22,
23,
8,
9,
9,
1,
1,
9,
9,
10,
10,
9,
9,
8,
8,
8,
8,
6,
6,
2,
2,
2,
2,
4,
4,
5,
5,
4,
4,
6,
6,
7,
7,
8,
8,
4,
4,
0,
0,
2,
2,
3,
3,
2,
2,
2,
2,
2,
2,
2,
2,
4,
4,
1,
1,
0,
0,
-1,
-1,
-1,
-1,
0,
0,
1,
1,
1,
1,
0,
0,
0,
0,
-1,
-1,
-1,
-1,
1,
1,
1,
1,
0,
0,
-1,
-1,
1,
1,
1,
1,
-1,
-1,
1,
1,
3,
3,
1,
1,
1,
1,
0,
0,
-1,
-1,
2,
2,
4,
4,
1,
1,
0,
0,
-1,
-1,
1,
1,
4,
4,
6,
6,
3,
3,
2,
2,
0,
0,
-1,
-1,
0,
0,
3,
3,
5,
5,
4,
4,
-1,
-1,
1,
1,
0,
0,
3,
3,
2,
2,
4,
4,
8,
8,
6,
6,
4,
4,
3,
3,
4,
4,
1,
1,
1,
1,
5,
5,
6,
6,
6,
6,
6,
6,
4,
4,
1,
1,
2,
2,
5,
5,
6,
6,
8,
8,
8,
8,
7,
7,
3,
3,
-1,
-1,
0,
0,
2,
2,
3,
3,
2,
2,
2,
2,
6,
6,
9,
9,
8,
8,
8,
8,
6,
6,
1,
1,
6,
6,
9,
9,
10,
10,
14,
14,
18,
18,
19,
19,
13,
13,
9,
9,
1,
1,
8,
8,
17,
17,
18,
18,
19,
19,
18,
18,
14,
14,
10,
10,
6,
6,
2,
2,
-1,
-1,
6,
6,
13,
13,
16,
16,
19,
19,
21,
21,
19,
19,
12,
0,
0,
0,
6,
6,
10,
10,
12,
12,
10,
10,
6,
6,
5,
5,
2,
2,
1,
1,
0,
0,
0,
0,
4,
4,
3,
3,
5,
5,
3,
3,
0,
0,
-1,
-1,
1,
1,
0,
0,
0,
0,
1,
1,
0,
0,
0,
0,
3,
3,
4,
4,
2,
2,
0,
0,
2,
2,
2,
2,
2,
2,
1,
1,
1,
1,
4,
4,
4,
4,
4,
4,
0,
0,
3,
3,
7,
7,
13,
13,
14,
3,
4,
4,
10,
10,
14,
14,
14,
14,
12,
1,
3,
18,
17,
17,
26,
26,
17,
3,
12,
12,
10,
30,
30,
30,
30,
30,
21,
4,
5,
5,
5,
22,
21,
21,
21,
7,
8,
8,
5,
24,
24,
24,
34,
34,
38,
38,
36,
36,
28,
28,
20,
20,
12,
12,
5,
5,
1,
1,
2,
2,
5,
23,
23,
23,
25,
25,
23,
23,
21,
21,
18,
18,
17,
17,
12,
12,
4,
4,
1,
1,
8,
8,
10,
10,
10,
10,
7,
7,
1,
1,
8,
8,
4,
4,
0,
0,
-1,
-1,
2,
2,
0,
0,
2,
2,
6,
6,
9,
9,
9,
9,
12,
12,
6,
6,
2,
2,
1,
1,
1,
1,
3,
3,
7,
7,
13,
13,
15,
15,
11,
11,
7,
7,
2,
2,
5,
5,
10,
10,
13,
13,
6,
6,
9,
20,
20,
20,
20,
20,
18,
18,
17,
17,
13,
13,
4,
4,
6,
6,
10,
10,
5,
5,
3,
3,
5,
5,
8,
8,
3,
3,
7,
7,
15,
15,
21,
21,
28,
28,
30,
14,
14,
1,
3,
3,
0,
0,
5,
5,
9,
9,
9,
9,
9,
9,
15,
15,
20,
20,
17,
17,
11,
11,
6,
6,
1,
1,
1,
1,
4,
4,
4,
4,
5,
5,
6,
6,
6,
6,
8,
8,
10,
10,
9,
9,
7,
7,
5,
5,
-1,
-1,
2,
2,
2,
2,
0,
0,
1,
1,
0,
0,
0,
0,
3,
3,
6,
6,
4,
4,
1,
1,
4,
4,
4,
4,
3,
3,
5,
5,
