EMG_S2/DS0023.CSV

Memory Length,4000,
Trigger Level,-4.80000e+02,
Source,CH1,
Probe,1.0X,
Vertical Units,V,
Vertical Scale,1.00000e+00,
Vertical Position,0.00000e+00,
Horizontal Units,S,
Horizontal Scale,1.00000e-01,
Horizontal Position,0.0000000e+00,
Horizontal Mode,Roll Mode,
Waveform Last Dot Address,4000,
Sampling Period,4.00000e-04,
Firmware,V1.14,
Time, ,
Mode,Fast,
Waveform Data,
0,
0,
1,
1,
3,
3,
7,
7,
12,
12,
12,
0,
3,
3,
12,
12,
21,
21,
28,
28,
25,
5,
5,
5,
14,
29,
28,
28,
29,
16,
17,
0,
2,
2,
4,
15,
14,
14,
12,
12,
4,
4,
-1,
-1,
3,
3,
6,
6,
5,
5,
0,
0,
6,
6,
12,
12,
9,
9,
5,
5,
0,
0,
5,
5,
11,
11,
20,
20,
21,
21,
13,
13,
7,
7,
1,
1,
8,
8,
10,
10,
12,
12,
7,
7,
6,
6,
5,
5,
5,
5,
6,
6,
12,
12,
14,
14,
11,
11,
4,
4,
14,
28,
28,
28,
33,
33,
32,
20,
21,
4,
4,
4,
9,
9,
16,
16,
20,
20,
20,
20,
14,
14,
10,
10,
6,
6,
5,
5,
9,
9,
5,
5,
8,
21,
21,
21,
21,
21,
20,
20,
14,
14,
5,
5,
8,
8,
9,
9,
1,
1,
0,
0,
5,
5,
10,
10,
16,
16,
10,
10,
1,
1,
9,
9,
13,
13,
17,
17,
24,
24,
24,
13,
13,
1,
4,
20,
19,
19,
22,
22,
18,
18,
14,
14,
14,
14,
14,
14,
10,
10,
3,
3,
0,
0,
5,
5,
11,
11,
13,
13,
11,
11,
8,
8,
8,
8,
9,
9,
9,
9,
6,
6,
3,
3,
1,
1,
1,
1,
5,
5,
5,
5,
2,
2,
1,
1,
6,
6,
5,
5,
6,
6,
10,
10,
2,
13,
13,
13,
18,
18,
16,
16,
11,
11,
3,
3,
7,
22,
22,
22,
30,
30,
33,
18,
18,
1,
2,
2,
12,
12,
20,
20,
18,
18,
8,
8,
4,
4,
6,
6,
9,
9,
10,
10,
10,
10,
1,
1,
8,
8,
13,
13,
10,
10,
7,
7,
6,
6,
1,
1,
0,
0,
1,
1,
2,
2,
2,
2,
3,
3,
5,
5,
4,
4,
0,
0,
5,
5,
8,
8,
12,
12,
9,
9,
2,
2,
11,
25,
25,
25,
21,
6,
6,
6,
0,
0,
5,
5,
3,
3,
4,
4,
4,
4,
8,
8,
14,
14,
13,
13,
11,
11,
10,
10,
6,
6,
3,
15,
15,
15,
22,
22,
18,
18,
14,
14,
8,
8,
2,
2,
5,
5,
6,
6,
2,
2,
5,
5,
7,
7,
10,
10,
9,
9,
5,
5,
8,
20,
19,
19,
28,
28,
30,
16,
17,
1,
3,
14,
14,
14,
17,
17,
13,
13,
6,
6,
7,
7,
5,
5,
6,
6,
11,
11,
15,
15,
19,
19,
18,
18,
10,
10,
3,
20,
19,
19,
26,
26,
32,
32,
33,
33,
26,
15,
16,
16,
9,
9,
9,
9,
7,
7,
9,
21,
21,
21,
20,
20,
13,
13,
11,
11,
16,
16,
23,
23,
18,
1,
2,
16,
16,
16,
25,
25,
26,
26,
18,
1,
2,
2,
9,
9,
16,
16,
12,
0,
1,
1,
5,
5,
2,
2,
9,
9,
8,
8,
1,
1,
-1,
-1,
2,
2,
5,
5,
2,
2,
-1,
-1,
0,
0,
5,
5,
14,
14,
14,
14,
6,
6,
0,
0,
3,
3,
6,
6,
4,
4,
0,
0,
4,
4,
6,
6,
3,
3,
1,
1,
0,
0,
1,
1,
0,
0,
4,
4,
5,
5,
3,
3,
1,
1,
4,
4,
2,
2,
0,
0,
4,
4,
11,
11,
15,
15,
14,
14,
7,
7,
0,
0,
6,
6,
14,
25,
24,
24,
23,
12,
13,
0,
1,
1,
3,
3,
2,
2,
3,
3,
3,
3,
1,
1,
0,
0,
5,
5,
7,
7,
4,
4,
-1,
-1,
-1,
-1,
0,
0,
0,
0,
10,
10,
7,
7,
9,
9,
16,
16,
21,
21,
21,
21,
14,
2,
2,
14,
13,
25,
25,
25,
30,
30,
28,
28,
22,
22,
18,
18,
11,
11,
4,
4,
1,
1,
6,
6,
10,
10,
13,
13,
13,
13,
11,
11,
8,
8,
9,
9,
9,
9,
13,
13,
14,
14,
10,
10,
2,
2,
0,
0,
-1,
-1,
0,
0,
5,
5,
12,
12,
14,
14,
10,
10,
6,
6,
7,
7,
10,
10,
13,
13,
14,
14,
8,
8,
5,
19,
18,
29,
29,
29,
32,
32,
26,
12,
13,
0,
0,
0,
10,
34,
34,
34,
36,
17,
18,
1,
3,
18,
17,
32,
31,
31,
36,
24,
24,
12,
13,
1,
2,
2,
10,
10,
20,
20,
27,
27,
30,
30,
27,
27,
21,
21,
14,
14,
9,
9,
2,
2,
6,
6,
13,
13,
20,
20,
15,
15,
16,
16,
23,
23,
22,
22,
21,
21,
18,
18,
14,
14,
13,
13,
7,
7,
5,
19,
18,
18,
27,
27,
30,
30,
37,
37,
28,
13,
14,
0,
1,
1,
6,
6,
8,
8,
10,
10,
10,
10,
9,
9,
10,
10,
10,
10,
8,
8,
8,
8,
7,
7,
8,
8,
4,
4,
1,
1,
4,
4,
4,
4,
2,
2,
0,
0,
0,
0,
3,
3,
1,
1,
8,
8,
9,
9,
6,
6,
1,
1,
1,
1,
2,
2,
2,
2,
2,
2,
2,
2,
9,
9,
8,
8,
2,
2,
4,
4,
13,
25,
25,
25,
32,
32,
32,
8,
8,
8,
14,
25,
25,
25,
26,
26,
21,
21,
13,
13,
5,
5,
-1,
-1,
4,
4,
5,
5,
1,
1,
0,
0,
0,
0,
0,
0,
6,
6,
8,
8,
6,
6,
0,
0,
6,
6,
14,
14,
14,
14,
12,
12,
2,
2,
0,
0,
5,
5,
9,
9,
1,
1,
5,
5,
9,
9,
6,
6,
1,
1,
6,
6,
3,
3,
6,
20,
19,
19,
22,
22,
16,
16,
9,
9,
9,
9,
4,
4,
5,
5,
14,
14,
13,
13,
8,
8,
6,
6,
6,
6,
11,
11,
14,
14,
12,
12,
9,
9,
5,
5,
0,
0,
0,
0,
7,
7,
14,
14,
19,
19,
22,
22,
25,
25,
17,
6,
6,
6,
11,
28,
26,
26,
35,
35,
30,
13,
14,
1,
2,
2,
10,
10,
10,
10,
9,
9,
6,
6,
6,
6,
0,
0,
6,
6,
9,
9,
4,
4,
0,
0,
-1,
-1,
1,
1,
-2,
-2,
2,
2,
6,
6,
4,
4,
1,
1,
-1,
-1,
6,
6,
12,
12,
12,
12,
4,
4,
0,
0,
6,
6,
14,
14,
21,
21,
24,
24,
20,
9,
9,
9,
0,
0,
3,
3,
0,
0,
0,
0,
1,
1,
8,
8,
14,
14,
14,
14,
13,
13,
9,
9,
3,
3,
1,
1,
2,
2,
3,
3,
1,
1,
0,
0,
-1,
-1,
0,
0,
-1,
-1,
1,
1,
0,
0,
0,
0,
6,
6,
8,
8,
15,
15,
21,
21,
17,
2,
3,
3,
4,
4,
2,
2,
8,
8,
10,
10,
6,
6,
6,
6,
4,
4,
4,
4,
9,
9,
10,
10,
10,
10,
4,
4,
4,
4,
12,
12,
13,
13,
12,
12,
16,
16,
16,
2,
2,
2,
10,
10,
17,
17,
12,
12,
4,
4,
0,
0,
6,
6,
15,
15,
15,
4,
4,
4,
11,
11,
17,
17,
11,
-1,
0,
0,
1,
1,
0,
0,
-1,
-1,
3,
3,
6,
6,
6,
6,
6,
6,
6,
6,
1,
1,
10,
10,
14,
14,
12,
12,
4,
4,
1,
1,
5,
5,
7,
7,
10,
10,
15,
15,
12,
12,
6,
6,
1,
1,
5,
5,
6,
6,
7,
7,
10,
10,
13,
13,
8,
8,
0,
0,
1,
1,
9,
9,
13,
13,
14,
14,
11,
11,
4,
4,
-1,
-1,
0,
0,
1,
1,
7,
7,
10,
10,
8,
8,
1,
1,
2,
2,
6,
6,
9,
9,
4,
4,
1,
1,
6,
6,
8,
8,
1,
1,
-1,
-1,
1,
1,
5,
5,
6,
6,
1,
1,
3,
3,
4,
4,
11,
11,
10,
10,
2,
2,
10,
10,
13,
13,
12,
12,
14,
14,
14,
14,
9,
9,
6,
6,
13,
13,
10,
10,
2,
2,
2,
2,
3,
3,
1,
1,
5,
5,
2,
2,
2,
2,
8,
8,
9,
9,
7,
7,
5,
5,
1,
1,
0,
0,
4,
4,
10,
10,
15,
15,
20,
20,
10,
10,
7,
7,
14,
14,
16,
1,
4,
16,
15,
15,
19,
19,
18,
18,
17,
17,
9,
9,
2,
2,
10,
10,
17,
17,
21,
21,
24,
24,
17,
4,
4,
4,
0,
0,
4,
4,
10,
10,
18,
18,
15,
15,
9,
9,
1,
1,
7,
7,
16,
16,
9,
9,
3,
3,
10,
10,
14,
14,
5,
5,
2,
2,
8,
8,
9,
9,
1,
1,
8,
8,
15,
15,
14,
14,
9,
9,
2,
2,
9,
9,
6,
6,
2,
2,
4,
4,
1,
1,
5,
5,
9,
9,
4,
4,
4,
4,
3,
3,
1,
1,
-1,
-1,
0,
0,
5,
5,
8,
8,
12,
12,
8,
8,
1,
13,
12,
12,
18,
18,
18,
18,
15,
15,
5,
5,
0,
0,
0,
0,
2,
2,
10,
10,
17,
17,
20,
20,
20,
20,
14,
14,
7,
7,
-1,
-1,
5,
5,
11,
11,
14,
14,
16,
16,
16,
16,
12,
12,
12,
12,
10,
10,
7,
7,
5,
5,
0,
0,
5,
5,
10,
10,
18,
18,
25,
25,
25,
13,
13,
1,
8,
23,
23,
23,
29,
18,
19,
6,
6,
6,
5,
5,
12,
12,
20,
20,
24,
24,
18,
4,
5,
5,
8,
8,
10,
10,
14,
14,
18,
18,
14,
14,
10,
10,
5,
5,
0,
0,
-1,
-1,
3,
3,
5,
5,
9,
9,
10,
10,
6,
6,
4,
19,
18,
33,
32,
32,
30,
18,
19,
3,
3,
3,
6,
6,
9,
9,
9,
9,
7,
7,
2,
2,
2,
2,
-1,
-1,
0,
0,
5,
5,
9,
9,
14,
14,
16,
5,
6,
6,
7,
7,
10,
10,
2,
2,
10,
10,
15,
15,
18,
18,
13,
2,
3,
3,
6,
6,
7,
7,
0,
0,
0,
0,
4,
4,
8,
8,
10,
10,
9,
9,
3,
3,
0,
0,
4,
4,
5,
5,
3,
3,
2,
2,
9,
9,
15,
15,
20,
20,
12,
0,
1,
1,
3,
3,
4,
4,
4,
4,
3,
3,
3,
3,
2,
2,
6,
18,
17,
17,
22,
22,
24,
24,
21,
21,
14,
1,
1,
1,
10,
10,
14,
14,
11,
11,
7,
7,
4,
4,
1,
1,
8,
22,
21,
21,
26,
26,
17,
17,
13,
1,
2,
2,
5,
5,
6,
6,
11,
11,
19,
19,
26,
26,
20,
20,
12,
12,
6,
6,
0,
0,
4,
4,
5,
5,
5,
5,
2,
2,
0,
0,
0,
0,
1,
1,
8,
19,
19,
19,
26,
26,
27,
2,
3,
14,
13,
13,
14,
14,
9,
9,
2,
2,
10,
10,
18,
18,
11,
0,
2,
2,
8,
8,
10,
10,
14,
14,
16,
16,
16,
16,
14,
1,
2,
18,
17,
17,
25,
11,
12,
-1,
0,
0,
4,
4,
6,
6,
4,
4,
3,
3,
10,
10,
13,
13,
6,
6,
0,
11,
10,
24,
23,
23,
28,
28,
21,
7,
8,
8,
6,
6,
11,
11,
10,
10,
4,
4,
1,
1,
1,
1,
2,
2,
3,
3,
0,
0,
5,
5,
10,
10,
11,
11,
2,
2,
9,
9,
7,
7,
11,
11,
19,
19,
13,
13,
6,
6,
3,
3,
12,
25,
24,
24,
30,
30,
21,
8,
8,
8,
6,
6,
12,
12,
8,
8,
6,
6,
6,
6,
6,
6,
3,
3,
-1,
-1,
0,
0,
0,
0,
1,
1,
3,
3,
5,
5,
6,
6,
6,
6,
2,
2,
8,
8,
9,
9,
5,
5,
2,
2,
3,
3,
4,
4,
1,
1,
0,
0,
2,
2,
1,
1,
1,
1,
3,
3,
8,
8,
5,
5,
1,
1,
1,
1,
6,
6,
4,
4,
0,
0,
0,
0,
-1,
-1,
2,
2,
0,
0,
4,
4,
8,
8,
10,
10,
11,
11,
9,
9,
1,
1,
9,
22,
22,
22,
32,
32,
24,
6,
6,
6,
10,
10,
17,
17,
18,
18,
15,
15,
6,
6,
2,
2,
11,
11,
14,
14,
13,
13,
10,
10,
8,
8,
2,
2,
2,
2,
9,
9,
14,
14,
14,
14,
7,
7,
0,
0,
1,
1,
2,
2,
2,
2,
1,
1,
8,
8,
6,
6,
0,
0,
2,
2,
-1,
-1,
8,
8,
9,
9,
1,
1,
10,
22,
22,
22,
28,
28,
26,
26,
20,
20,
14,
2,
2,
2,
9,
9,
15,
15,
17,
17,
13,
13,
12,
12,
11,
11,
8,
8,
2,
2,
3,
3,
6,
6,
11,
11,
6,
6,
3,
3,
11,
11,
12,
12,
9,
9,
8,
8,
8,
8,
7,
7,
5,
5,
0,
0,
4,
4,
0,
0,
1,
1,
1,
1,
8,
8,
8,
8,
5,
5,
0,
0,
1,
1,
4,
4,
10,
10,
9,
9,
9,
9,
8,
8,
10,
10,
12,
12,
8,
8,
3,
3,
12,
12,
13,
13,
14,
14,
16,
16,
14,
14,
10,
10,
8,
8,
5,
5,
1,
1,
1,
1,
6,
6,
10,
10,
12,
12,
11,
11,
10,
10,
10,
10,
7,
7,
4,
4,
1,
1,
-1,
-1,
0,
0,
0,
0,
4,
4,
8,
8,
5,
5,
0,
0,
0,
0,
-2,
-2,
-1,
-1,
-1,
-1,
0,
0,
-1,
-1,
7,
7,
14,
14,
10,
10,
5,
5,
7,
7,
15,
15,
19,
19,
20,
20,
19,
19,
10,
10,
0,
0,
6,
6,
12,
12,
16,
16,
18,
18,
14,
14,
9,
9,
4,
4,
2,
2,
0,
14,
14,
14,
22,
22,
25,
25,
20,
1,
1,
1,
2,
2,
4,
4,
7,
7,
8,
8,
5,
5,
2,
2,
2,
2,
6,
6,
8,
8,
10,
10,
6,
6,
4,
4,
11,
11,
12,
12,
8,
8,
3,
3,
0,
0,
1,
1,
4,
4,
8,
8,
10,
10,
5,
5,
2,
2,
7,
7,
6,
6,
3,
3,
0,
0,
1,
1,
2,
2,
5,
5,
7,
7,
3,
3,
3,
3,
8,
8,
16,
16,
10,
10,
7,
7,
16,
16,
10,
10,
3,
3,
12,
12,
4,
4,
0,
0,
7,
7,
11,
11,
4,
4,
5,
21,
21,
37,
37,
37,
38,
19,
19,
1,
4,
17,
16,
16,
26,
26,
26,
26,
21,
21,
21,
21,
21,
21,
18,
18,
12,
12,
4,
4,
0,
0,
2,
15,
14,
14,
21,
21,
24,
24,
18,
18,
16,
16,
16,
16,
13,
13,
4,
4,
5,
5,
9,
9,
4,
4,
11,
11,
16,
3,
3,
3,
7,
20,
19,
19,
24,
24,
18,
18,
10,
10,
3,
3,
5,
5,
1,
1,
6,
6,
6,
6,
1,
1,
1,
1,
-1,
-1,
1,
1,
2,
2,
6,
6,
9,
9,
12,
12,
8,
8,
1,
1,
1,
1,
2,
2,
2,
2,
0,
0,
3,
3,
5,
5,
14,
14,
13,
0,
1,
1,
6,
6,
6,
6,
5,
5,
0,
0,
0,
0,
4,
4,
2,
2,
1,
1,
10,
10,
14,
14,
17,
17,
18,
5,
5,
5,
8,
8,
14,
14,
19,
19,
26,
26,
32,
32,
32,
20,
20,
1,
2,
2,
9,
9,
14,
14,
18,
18,
18,
18,
24,
24,
18,
18,
9,
9,
1,
1,
2,
2,
1,
1,
2,
2,
4,
4,
6,
6,
6,
6,
7,
7,
6,
6,
5,
5,
4,
4,
0,
0,
2,
2,
4,
4,
11,
11,
10,
10,
1,
1,
4,
4,
13,
13,
20,
20,
25,
25,
19,
1,
2,
2,
1,
1,
1,
1,
1,
1,
10,
21,
20,
20,
21,
21,
14,
14,
4,
4,
2,
2,
0,
0,
2,
2,
5,
5,
7,
7,
1,
1,
6,
18,
16,
16,
20,
20,
12,
12,
4,
4,
-1,
-1,
0,
0,
1,
1,
2,
2,
2,
2,
8,
8,
5,
5,
2,
2,
9,
9,
4,
4,
0,
0,
5,
5,
10,
10,
9,
9,
8,
8,
4,
4,
14,
14,
14,
14,
11,
11,
5,
5,
0,
0,
7,
7,
8,
8,
7,
7,
5,
5,
2,
2,
8,
8,
10,
10,
2,
2,
2,
2,
2,
2,
5,
5,
11,
11,
12,
12,
10,
10,
9,
9,
6,
6,
6,
6,
2,
2,
3,
3,
6,
6,
6,
6,
6,
6,
5,
5,
10,
10,
10,
10,
5,
5,
0,
0,
-1,
-1,
6,
6,
9,
9,
9,
9,
6,
6,
3,
29,
28,
48,
48,
48,
43,
24,
25,
25,
17,
5,
6,
6,
11,
23,
22,
22,
23,
23,
16,
16,
13,
13,
16,
16,
13,
13,
8,
8,
8,
8,
10,
10,
8,
8,
2,
2,
-1,
-1,
1,
1,
5,
5,
3,
3,
9,
9,
10,
10,
8,
8,
6,
6,
1,
1,
1,
1,
8,
19,
17,
17,
20,
20,
20,
20,
21,
21,
17,
2,
3,
3,
11,
11,
14,
14,
12,
12,
10,
10,
12,
12,
15,
15,
18,
18,
19,
19,
13,
13,
8,
8,
0,
0,
6,
6,
8,
8,
5,
5,
7,
7,
11,
11,
15,
15,
10,
10,
1,
1,
5,
5,
12,
12,
10,
10,
6,
6,
3,
3,
4,
18,
17,
17,
20,
20,
12,
12,
5,
5,
9,
9,
13,
13,
10,
10,
6,
6,
1,
1,
8,
8,
13,
13,
16,
16,
14,
14,
11,
11,
7,
7,
13,
13,
22,
22,
30,
30,
22,
2,
3,
22,
22,
42,
42,
42,
50,
26,
27,
1,
2,
13,
13,
13,
13,
13,
5,
5,
10,
22,
22,
22,
19,
1,
3,
18,
18,
18,
25,
25,
24,
24,
19,
19,
9,
9,
4,
4,
6,
6,
0,
0,
0,
0,
2,
2,
2,
2,
1,
1,
5,
5,
9,
9,
10,
10,
14,
14,
17,
17,
22,
22,
16,
1,
3,
15,
14,
14,
20,
20,
18,
18,
9,
9,
2,
2,
5,
5,
5,
5,
4,
4,
11,
11,
8,
8,
7,
7,
6,
6,
5,
5,
8,
8,
5,
5,
2,
14,
14,
14,
20,
20,
17,
17,
15,
15,
12,
12,
5,
5,
1,
1,
-1,
-1,
-2,
-2,
1,
1,
4,
4,
9,
9,
17,
17,
20,
20,
18,
18,
15,
15,
9,
9,
1,
1,
8,
23,
23,
37,
37,
37,
38,
26,
27,
27,
19,
19,
14,
14,
11,
11,
7,
21,
21,
21,
29,
29,
28,
28,
26,
26,
22,
22,
13,
13,
6,
6,
2,
2,
2,
2,
3,
3,
2,
2,
-1,
-1,
2,
2,
7,
7,
6,
6,
0,
0,
6,
6,
3,
14,
14,
33,
33,
33,
42,
42,
44,
26,
27,
1,
2,
2,
10,
10,
20,
20,
29,
29,
29,
29,
29,
29,
23,
10,
10,
10,
7,
7,
8,
8,
2,
2,
6,
18,
18,
18,
22,
22,
19,
3,
3,
3,
8,
8,
13,
13,
12,
12,
9,
9,
2,
2,
10,
10,
15,
15,
8,
8,
1,
1,
2,
2,
2,
16,
16,
16,
21,
21,
15,
15,
8,
8,
1,
1,
5,
5,
12,
12,
12,
12,
9,
9,
11,
11,
18,
18,
17,
17,
8,
8,
0,
0,
4,
4,
7,
7,
1,
1,
2,
2,
6,
6,
5,
5,
5,
5,
6,
6,
4,
4,
7,
7,
12,
12,
18,
29,
28,
28,
26,
26,
17,
6,
7,
7,
9,
9,
18,
18,
14,
14,
14,
25,
23,
23,
33,
33,
33,
20,
20,
3,
4,
4,
6,
6,
14,
26,
25,
25,
32,
32,
27,
11,
11,
11,
4,
15,
14,
14,
16,
16,
13,
1,
2,
2,
6,
6,
12,
12,
16,
16,
9,
9,
5,
5,
0,
0,
3,
3,
3,
3,
0,
0,
1,
1,
6,
6,
8,
8,
4,
4,
-1,
-1,
4,
4,
5,
5,
0,
0,
1,
1,
-1,
-1,
1,
1,
1,
1,
0,
0,
5,
5,
7,
7,
9,
9,
3,
3,
1,
1,
-1,
-1,
-2,
-2,
2,
2,
6,
6,
5,
5,
1,
1,
2,
2,
2,
2,
0,
0,
-1,
-1,
0,
0,
1,
1,
1,
1,
-1,
-1,
4,
4,
8,
8,
10,
10,
18,
18,
18,
4,
4,
4,
2,
2,
5,
5,
9,
9,
10,
10,
6,
6,
-1,
-1,
0,
0,
5,
5,
7,
7,
2,
2,
2,
2,
1,
1,
2,
2,
2,
2,
0,
0,
9,
9,
9,
9,
1,
1,
10,
10,
18,
18,
18,
18,
18,
18,
14,
0,
1,
1,
6,
6,
8,
8,
15,
15,
17,
17,
21,
21,
19,
4,
4,
4,
10,
25,
25,
25,
29,
18,
18,
2,
3,
3,
6,
6,
13,
13,
12,
12,
13,
13,
10,
10,
8,
8,
4,
4,
1,
1,
4,
4,
1,
1,
4,
4,
12,
12,
15,
15,
13,
13,
6,
6,
7,
7,
4,
4,
1,
1,
3,
3,
10,
10,
12,
12,
8,
8,
2,
2,
0,
0,
0,
0,
1,
1,
-1,
-1,
4,
4,
6,
6,
14,
14,
22,
22,
16,
1,
3,
15,
15,
15,
23,
23,
23,
23,
22,
22,
20,
20,
11,
0,
1,
1,
10,
10,
17,
17,
18,
18,
12,
12,
8,
8,
9,
9,
9,
9,
1,
1,
6,
6,
8,
8,
9,
9,
2,
2,
2,
2,
7,
7,
12,
12,
12,
12,
5,
5,
2,
2,
2,
2,
2,
2,
5,
5,
6,
6,
6,
6,
4,
4,
2,
2,
4,
4,
6,
6,
6,
6,
1,
1,
4,
4,
5,
5,
7,
7,
2,
2,
1,
1,
2,
2,
4,
4,
2,
2,
0,
0,
1,
1,
4,
4,
1,
1,
7,
7,
10,
10,
11,
11,
4,
4,
0,
0,
1,
1,
7,
7,
12,
12,
13,
13,
11,
11,
6,
6,
2,
2,
6,
6,
6,
6,
10,
10,
6,
6,
5,
5,
14,
14,
20,
9,
10,
10,
7,
20,
19,
19,
21,
21,
13,
13,
4,
4,
2,
2,
11,
11,
9,
9,
1,
1,
8,
8,
12,
12,
10,
10,
6,
6,
0,
0,
1,
1,
5,
5,
5,
5,
4,
4,
11,
11,
14,
14,
14,
14,
6,
6,
1,
1,
-2,
-2,
4,
4,
3,
3,
-1,
-1,
3,
3,
6,
6,
7,
7,
4,
4,
6,
6,
5,
5,
6,
6,
11,
11,
6,
6,
2,
2,
2,
2,
10,
22,
22,
22,
26,
13,
14,
0,
1,
1,
2,
2,
3,
3,
0,
0,
0,
0,
5,
17,
16,
16,
13,
13,
7,
7,
1,
1,
0,
0,
-1,
-1,
3,
3,
6,
6,
9,
9,
6,
6,
1,
1,
0,
0,
1,
1,
2,
2,
1,
1,
1,
1,
-1,
-1,
5,
5,
7,
7,
6,
6,
5,
5,
4,
4,
14,
31,
30,
45,
45,
32,
33,
9,
10,
10,
9,
9,
18,
18,
22,
22,
25,
25,
25,
25,
25,
25,
17,
17,
12,
12,
8,
8,
1,
1,
5,
5,
13,
24,
23,
23,
28,
28,
20,
9,
9,
9,
5,
5,
0,
0,
1,
1,
5,
5,
7,
7,
8,
8,
2,
15,
15,
15,
21,
21,
18,
18,
13,
13,
8,
8,
1,
1,
4,
4,
12,
12,
10,
10,
1,
1,
4,
4,
4,
4,
1,
1,
4,
4,
1,
1,
10,
10,
18,
18,
13,
1,
3,
3,
7,
7,
16,
16,
17,
17,
17,
17,
14,
14,
6,
6,
4,
4,
8,
19,
18,
18,
21,
21,
14,
3,
3,
3,
2,
2,
7,
7,
3,
3,
-2,
-2,
6,
6,
13,
13,
13,
1,
2,
13,
12,
12,
14,
14,
12,
12,
11,
11,
4,
4,
0,
0,
6,
6,
3,
3,
4,
4,
9,
9,
17,
17,
23,
23,
21,
3,
4,
22,
22,
22,
29,
12,
13,
0,
2,
2,
10,
10,
7,
7,
2,
2,
7,
7,
7,
7,
6,
6,
0,
0,
6,
6,
6,
6,
-1,
-1,
1,
1,
1,
1,
8,
8,
10,
10,
8,
8,
5,
5,
1,
1,
2,
2,
1,
1,
0,
0,
2,
2,
3,
3,
1,
1,
4,
4,
0,
0,
3,
3,
2,
2,
2,
2,
7,
7,
2,
2,
0,
0,
-1,
-1,
3,
3,
1,
1,
8,
8,
6,
6,
5,
5,
7,
7,
9,
9,
2,
2,
1,
1,
4,
4,
7,
7,
7,
7,
10,
10,
12,
12,
11,
11,
5,
5,
2,
2,
10,
10,
11,
11,
2,
2,
0,
0,
7,
7,
6,
6,
5,
5,
4,
4,
3,
3,
5,
5,
5,
5,
2,
2,
1,
1,
1,
1,
2,
2,
4,
4,
0,
0,
3,
3,
2,
2,
1,
1,
3,
3,
