EMG_S2/DS0049.CSV

Memory Length,4000,
Trigger Level,-4.80000e+02,
Source,CH1,
Probe,1.0X,
Vertical Units,V,
Vertical Scale,1.00000e+00,
Vertical Position,0.00000e+00,
Horizontal Units,S,
Horizontal Scale,1.00000e-01,
Horizontal Position,0.0000000e+00,
Horizontal Mode,Roll Mode,
Waveform Last Dot Address,4000,
Sampling Period,4.00000e-04,
Firmware,V1.14,
Time, ,
Mode,Fast,
Waveform Data,
14,
14,
11,
11,
20,
20,
20,
20,
16,
16,
20,
20,
29,
16,
16,
3,
11,
29,
29,
29,
31,
31,
29,
29,
24,
24,
20,
20,
13,
13,
4,
4,
4,
4,
4,
4,
9,
9,
7,
7,
5,
5,
6,
6,
5,
5,
3,
3,
4,
4,
10,
10,
20,
20,
26,
26,
20,
9,
10,
10,
0,
0,
6,
6,
10,
10,
11,
11,
11,
11,
17,
17,
16,
16,
14,
14,
14,
14,
5,
5,
0,
0,
2,
2,
2,
2,
2,
2,
5,
5,
9,
9,
9,
9,
8,
8,
3,
3,
0,
0,
1,
1,
-1,
-1,
2,
2,
2,
2,
5,
5,
8,
8,
5,
5,
3,
3,
1,
1,
2,
2,
0,
0,
5,
5,
1,
1,
2,
2,
4,
4,
5,
5,
1,
13,
12,
12,
16,
16,
14,
14,
11,
11,
2,
2,
9,
9,
13,
13,
8,
8,
6,
6,
10,
10,
14,
1,
2,
2,
8,
8,
12,
12,
10,
10,
5,
5,
5,
5,
2,
2,
4,
4,
12,
12,
17,
17,
19,
19,
19,
19,
9,
9,
13,
25,
24,
24,
30,
30,
22,
2,
3,
14,
14,
25,
24,
24,
32,
32,
25,
2,
3,
3,
4,
4,
3,
3,
1,
1,
4,
4,
1,
1,
8,
20,
20,
20,
24,
24,
14,
1,
2,
2,
0,
0,
2,
2,
-1,
-1,
2,
2,
6,
6,
2,
2,
1,
1,
1,
1,
5,
5,
6,
6,
10,
10,
16,
16,
14,
14,
8,
8,
3,
3,
2,
2,
10,
10,
16,
16,
25,
25,
27,
15,
15,
2,
6,
22,
22,
36,
35,
35,
44,
44,
44,
17,
18,
1,
7,
21,
21,
21,
17,
17,
14,
14,
14,
14,
16,
16,
14,
14,
10,
10,
9,
9,
13,
13,
10,
10,
5,
5,
0,
0,
4,
4,
12,
12,
12,
12,
14,
14,
19,
19,
20,
20,
16,
16,
13,
13,
11,
11,
6,
6,
2,
2,
12,
12,
16,
16,
14,
14,
11,
11,
10,
10,
9,
9,
6,
6,
1,
1,
3,
3,
2,
2,
1,
1,
1,
1,
8,
8,
11,
11,
10,
10,
5,
5,
1,
1,
5,
5,
4,
4,
0,
0,
4,
4,
0,
0,
1,
1,
2,
2,
4,
4,
-1,
-1,
2,
2,
4,
4,
7,
7,
8,
8,
5,
5,
1,
1,
2,
2,
2,
2,
7,
7,
8,
8,
8,
8,
9,
9,
9,
9,
9,
9,
7,
7,
2,
2,
8,
8,
9,
9,
15,
26,
25,
25,
19,
1,
2,
2,
10,
10,
11,
11,
8,
8,
6,
18,
18,
18,
24,
24,
23,
4,
8,
27,
26,
26,
22,
22,
16,
16,
10,
10,
4,
4,
2,
2,
6,
6,
4,
4,
-1,
-1,
3,
14,
14,
14,
16,
16,
11,
11,
16,
16,
9,
9,
7,
7,
13,
13,
9,
9,
0,
0,
4,
4,
9,
9,
15,
15,
14,
3,
4,
4,
3,
3,
13,
13,
15,
15,
12,
12,
9,
9,
10,
10,
2,
2,
5,
5,
10,
10,
10,
10,
12,
12,
9,
9,
4,
4,
2,
2,
1,
1,
2,
2,
1,
1,
3,
3,
4,
4,
2,
2,
1,
1,
2,
2,
4,
4,
2,
2,
4,
4,
5,
5,
4,
4,
9,
9,
16,
16,
10,
10,
4,
4,
0,
0,
2,
2,
1,
1,
0,
0,
3,
3,
0,
0,
3,
3,
3,
3,
0,
0,
3,
3,
4,
4,
2,
2,
0,
0,
1,
1,
1,
1,
1,
1,
2,
2,
2,
2,
1,
1,
4,
4,
1,
1,
1,
1,
5,
5,
1,
1,
-1,
-1,
2,
2,
2,
2,
0,
0,
2,
2,
10,
10,
17,
17,
17,
17,
8,
8,
2,
17,
16,
29,
29,
29,
39,
39,
46,
28,
28,
11,
12,
0,
0,
0,
3,
3,
12,
35,
35,
49,
49,
49,
50,
38,
38,
21,
22,
5,
6,
6,
6,
17,
16,
16,
23,
23,
24,
24,
24,
24,
21,
21,
21,
21,
15,
0,
1,
1,
5,
5,
10,
10,
15,
15,
13,
13,
10,
10,
9,
9,
1,
13,
13,
13,
16,
28,
26,
26,
35,
35,
34,
19,
20,
1,
4,
17,
16,
30,
30,
30,
32,
32,
30,
30,
30,
30,
23,
12,
12,
0,
1,
1,
6,
6,
10,
10,
13,
13,
12,
12,
10,
10,
3,
3,
1,
1,
0,
0,
3,
3,
1,
1,
3,
3,
10,
10,
10,
10,
14,
26,
26,
26,
30,
30,
25,
3,
5,
23,
22,
22,
26,
26,
22,
22,
21,
21,
21,
21,
18,
18,
13,
13,
6,
6,
0,
0,
2,
2,
3,
3,
10,
10,
15,
15,
18,
18,
13,
13,
10,
10,
6,
6,
2,
2,
-1,
-1,
0,
0,
-1,
-1,
-1,
-1,
1,
1,
2,
2,
4,
4,
1,
1,
1,
1,
1,
1,
-1,
-1,
0,
0,
0,
0,
1,
1,
5,
5,
6,
6,
1,
1,
-1,
-1,
1,
1,
4,
4,
6,
6,
2,
2,
7,
7,
17,
17,
22,
22,
23,
23,
20,
5,
6,
6,
4,
15,
14,
14,
14,
14,
21,
21,
26,
26,
25,
12,
12,
1,
8,
28,
26,
44,
44,
29,
30,
5,
5,
5,
5,
5,
3,
3,
2,
2,
10,
10,
10,
10,
2,
17,
17,
17,
22,
22,
26,
26,
29,
29,
20,
4,
4,
4,
10,
10,
14,
14,
11,
11,
2,
2,
2,
2,
9,
9,
13,
25,
24,
24,
25,
12,
13,
13,
5,
5,
4,
16,
16,
16,
18,
18,
12,
12,
4,
4,
1,
1,
0,
0,
0,
0,
5,
5,
2,
2,
1,
1,
6,
6,
5,
5,
4,
4,
1,
1,
0,
0,
4,
4,
12,
12,
9,
9,
1,
1,
8,
8,
6,
6,
6,
6,
6,
6,
4,
4,
12,
12,
20,
20,
21,
8,
8,
8,
2,
2,
0,
0,
3,
3,
5,
5,
5,
5,
4,
4,
6,
6,
9,
9,
6,
6,
2,
2,
2,
14,
13,
13,
18,
18,
14,
3,
4,
4,
8,
25,
24,
40,
40,
40,
40,
28,
29,
29,
25,
25,
15,
1,
5,
16,
16,
16,
20,
20,
22,
22,
26,
26,
25,
25,
20,
20,
14,
14,
10,
10,
4,
4,
0,
0,
1,
1,
2,
13,
12,
12,
15,
15,
15,
15,
14,
14,
12,
12,
4,
4,
1,
1,
1,
1,
1,
1,
6,
6,
8,
8,
2,
2,
-1,
-1,
1,
1,
1,
1,
2,
2,
7,
7,
4,
4,
0,
0,
0,
0,
2,
2,
2,
2,
2,
2,
6,
6,
14,
14,
15,
15,
12,
12,
5,
5,
0,
0,
6,
6,
14,
14,
10,
10,
1,
1,
1,
1,
1,
1,
0,
0,
2,
18,
18,
18,
22,
11,
12,
-1,
1,
1,
0,
0,
0,
0,
2,
2,
4,
4,
9,
9,
9,
9,
0,
0,
1,
1,
3,
3,
0,
0,
8,
8,
9,
9,
2,
2,
10,
10,
13,
13,
11,
11,
9,
9,
1,
12,
12,
12,
13,
2,
4,
4,
9,
9,
10,
10,
6,
6,
6,
6,
3,
3,
13,
13,
15,
4,
5,
19,
18,
45,
44,
44,
51,
37,
37,
7,
14,
40,
39,
39,
41,
41,
37,
37,
28,
17,
18,
18,
14,
14,
5,
5,
0,
0,
2,
2,
11,
11,
18,
18,
14,
14,
5,
5,
5,
5,
6,
6,
1,
14,
14,
14,
18,
2,
2,
2,
12,
30,
30,
50,
49,
49,
57,
33,
33,
4,
4,
19,
18,
18,
23,
23,
25,
25,
26,
26,
25,
25,
26,
26,
20,
20,
21,
21,
21,
21,
12,
12,
4,
4,
11,
30,
28,
39,
38,
38,
35,
9,
10,
-1,
0,
0,
1,
1,
2,
2,
4,
4,
0,
0,
0,
0,
5,
5,
8,
8,
6,
6,
4,
4,
2,
2,
1,
1,
1,
1,
1,
1,
0,
0,
1,
1,
4,
4,
2,
2,
3,
3,
7,
7,
11,
11,
9,
9,
3,
3,
2,
2,
1,
1,
0,
0,
2,
2,
-1,
-1,
1,
1,
7,
7,
1,
16,
15,
15,
25,
25,
25,
14,
15,
1,
1,
1,
5,
5,
6,
6,
12,
12,
19,
19,
18,
18,
16,
16,
15,
15,
17,
17,
8,
8,
6,
6,
13,
13,
14,
14,
13,
13,
14,
14,
10,
10,
1,
12,
11,
11,
13,
13,
4,
4,
8,
20,
20,
20,
27,
27,
18,
1,
2,
17,
17,
45,
44,
44,
53,
53,
49,
31,
31,
2,
3,
3,
10,
10,
14,
29,
28,
28,
38,
38,
32,
18,
19,
19,
14,
14,
12,
12,
8,
8,
3,
3,
1,
1,
10,
10,
19,
19,
26,
26,
28,
28,
22,
6,
6,
6,
11,
11,
14,
14,
12,
12,
18,
18,
22,
8,
8,
8,
17,
36,
33,
47,
47,
47,
47,
30,
30,
9,
10,
10,
2,
2,
4,
4,
7,
7,
12,
38,
37,
52,
51,
51,
51,
51,
41,
41,
34,
34,
26,
14,
14,
1,
2,
17,
17,
17,
23,
23,
26,
26,
25,
25,
26,
26,
26,
26,
20,
6,
7,
7,
2,
2,
1,
1,
10,
10,
10,
10,
5,
5,
4,
4,
3,
3,
0,
0,
0,
0,
3,
3,
2,
2,
7,
7,
13,
13,
10,
10,
6,
6,
12,
32,
32,
32,
35,
35,
28,
28,
18,
18,
11,
11,
5,
5,
2,
2,
8,
8,
12,
12,
13,
13,
10,
10,
7,
7,
2,
2,
4,
4,
6,
6,
2,
13,
13,
24,
24,
24,
33,
33,
28,
2,
4,
4,
13,
13,
12,
12,
6,
6,
1,
1,
4,
4,
0,
0,
3,
3,
5,
5,
8,
8,
10,
10,
6,
6,
4,
4,
10,
10,
17,
17,
20,
20,
14,
1,
3,
22,
21,
36,
36,
36,
42,
42,
46,
32,
32,
4,
6,
20,
20,
20,
22,
22,
24,
24,
17,
6,
7,
7,
0,
0,
1,
1,
2,
2,
5,
5,
7,
7,
12,
12,
7,
7,
5,
5,
5,
5,
9,
9,
8,
8,
10,
10,
9,
9,
2,
2,
2,
2,
1,
1,
1,
1,
1,
1,
0,
0,
2,
2,
-1,
-1,
4,
4,
6,
6,
15,
38,
37,
26,
26,
4,
6,
17,
17,
17,
14,
1,
2,
2,
10,
25,
24,
9,
10,
10,
14,
29,
28,
28,
25,
13,
14,
2,
3,
3,
1,
1,
2,
2,
8,
8,
13,
2,
5,
16,
15,
26,
26,
41,
40,
40,
33,
5,
5,
5,
12,
12,
11,
11,
10,
10,
16,
16,
19,
19,
15,
1,
3,
3,
10,
10,
9,
9,
3,
21,
21,
21,
12,
12,
3,
3,
1,
1,
5,
5,
4,
4,
0,
0,
2,
2,
10,
10,
14,
14,
8,
8,
6,
6,
3,
3,
5,
5,
13,
13,
18,
18,
13,
1,
1,
1,
6,
6,
14,
14,
24,
24,
28,
28,
25,
25,
22,
22,
23,
23,
18,
18,
9,
9,
5,
22,
21,
32,
31,
31,
30,
18,
19,
6,
6,
6,
1,
1,
6,
6,
6,
6,
1,
1,
4,
4,
10,
10,
14,
14,
13,
13,
5,
5,
1,
1,
1,
1,
3,
3,
2,
13,
12,
12,
18,
18,
11,
11,
2,
2,
9,
20,
18,
18,
22,
22,
17,
3,
4,
4,
6,
6,
8,
8,
5,
5,
0,
0,
1,
1,
7,
7,
11,
11,
13,
13,
3,
17,
16,
16,
22,
22,
25,
25,
15,
15,
6,
6,
10,
30,
29,
42,
42,
42,
44,
24,
25,
5,
5,
5,
13,
27,
26,
26,
30,
30,
22,
9,
9,
9,
2,
2,
10,
10,
13,
13,
16,
16,
12,
12,
8,
8,
2,
13,
13,
13,
12,
12,
9,
23,
22,
43,
43,
55,
53,
31,
32,
9,
10,
10,
2,
21,
21,
37,
37,
37,
35,
35,
31,
31,
23,
7,
8,
8,
5,
5,
5,
5,
4,
4,
5,
5,
9,
9,
18,
18,
24,
24,
18,
18,
10,
10,
3,
3,
12,
12,
21,
21,
17,
17,
7,
7,
7,
7,
12,
12,
8,
8,
3,
3,
2,
2,
0,
0,
1,
1,
-1,
-1,
2,
2,
2,
2,
4,
4,
2,
2,
3,
3,
3,
3,
1,
1,
-1,
-1,
-1,
-1,
0,
0,
4,
4,
9,
9,
11,
11,
13,
13,
5,
5,
5,
17,
16,
16,
26,
41,
40,
56,
55,
55,
53,
53,
46,
26,
27,
5,
9,
44,
44,
44,
50,
50,
45,
45,
42,
42,
38,
38,
37,
37,
38,
38,
28,
12,
12,
1,
4,
4,
13,
13,
20,
20,
24,
24,
28,
28,
27,
27,
20,
4,
5,
5,
0,
0,
8,
26,
26,
46,
45,
45,
45,
25,
26,
9,
9,
9,
5,
24,
24,
37,
36,
36,
36,
36,
28,
28,
19,
19,
10,
10,
1,
1,
6,
6,
2,
2,
-1,
-1,
0,
0,
-1,
-1,
0,
0,
3,
3,
1,
1,
8,
8,
8,
8,
3,
3,
-1,
-1,
-1,
-1,
0,
0,
2,
2,
6,
6,
6,
6,
1,
1,
6,
6,
10,
10,
2,
2,
0,
0,
4,
4,
2,
2,
4,
4,
10,
10,
16,
16,
20,
5,
6,
6,
12,
12,
18,
18,
12,
1,
2,
2,
-1,
-1,
5,
5,
7,
7,
9,
9,
1,
1,
1,
1,
3,
3,
6,
6,
12,
12,
19,
19,
16,
2,
2,
2,
11,
11,
18,
18,
10,
10,
3,
14,
13,
13,
12,
1,
5,
25,
25,
45,
44,
27,
28,
3,
5,
5,
4,
4,
4,
4,
2,
2,
2,
19,
18,
6,
6,
6,
10,
10,
11,
11,
15,
15,
17,
17,
20,
20,
22,
22,
18,
5,
5,
5,
1,
1,
1,
1,
5,
5,
5,
5,
1,
1,
8,
8,
14,
14,
14,
14,
23,
23,
18,
7,
8,
22,
22,
22,
26,
26,
21,
21,
11,
11,
1,
13,
12,
12,
18,
18,
20,
20,
20,
20,
20,
20,
12,
1,
2,
2,
-2,
-2,
-1,
-1,
2,
2,
3,
3,
-1,
-1,
1,
1,
3,
3,
1,
1,
1,
1,
-1,
-1,
2,
2,
5,
5,
0,
0,
4,
4,
1,
1,
2,
14,
13,
13,
15,
15,
12,
12,
3,
3,
1,
1,
0,
0,
1,
1,
3,
3,
2,
2,
-1,
-1,
2,
2,
2,
2,
-1,
-1,
1,
1,
0,
0,
1,
1,
3,
3,
0,
0,
0,
0,
-1,
-1,
1,
1,
3,
3,
5,
5,
3,
3,
-1,
-1,
-1,
-1,
0,
0,
2,
2,
5,
5,
1,
1,
-2,
-2,
1,
1,
0,
0,
2,
2,
1,
1,
0,
0,
4,
4,
13,
13,
17,
17,
15,
3,
5,
5,
8,
8,
15,
15,
21,
21,
12,
1,
4,
4,
8,
8,
17,
17,
25,
14,
14,
14,
10,
10,
12,
12,
16,
16,
13,
2,
10,
30,
30,
30,
39,
39,
40,
40,
38,
38,
31,
17,
18,
2,
3,
23,
22,
22,
29,
29,
22,
22,
20,
20,
14,
14,
7,
7,
10,
10,
14,
14,
14,
14,
5,
5,
2,
2,
3,
3,
1,
1,
4,
4,
7,
7,
6,
6,
14,
14,
7,
7,
6,
6,
9,
9,
12,
12,
10,
10,
14,
14,
14,
14,
18,
18,
23,
23,
20,
6,
6,
6,
10,
33,
33,
33,
41,
21,
21,
1,
1,
1,
5,
5,
7,
7,
4,
4,
0,
0,
-1,
-1,
-1,
-1,
-1,
-1,
1,
1,
0,
0,
0,
0,
1,
1,
3,
3,
-1,
-1,
4,
4,
6,
6,
10,
10,
12,
12,
8,
8,
1,
1,
5,
5,
6,
6,
0,
0,
4,
4,
5,
5,
4,
4,
2,
2,
6,
6,
8,
8,
12,
12,
16,
16,
13,
13,
9,
9,
4,
4,
6,
20,
18,
18,
20,
20,
14,
14,
12,
12,
7,
7,
7,
7,
8,
8,
6,
6,
1,
1,
11,
11,
18,
18,
24,
24,
25,
25,
25,
8,
9,
9,
10,
29,
27,
40,
39,
39,
40,
28,
28,
5,
5,
5,
13,
13,
17,
5,
6,
6,
4,
4,
3,
3,
13,
13,
18,
3,
4,
25,
24,
37,
37,
37,
30,
30,
20,
9,
10,
10,
4,
4,
1,
1,
5,
5,
9,
9,
9,
9,
10,
10,
13,
13,
12,
12,
7,
7,
2,
2,
3,
3,
5,
5,
8,
8,
4,
4,
10,
10,
19,
19,
20,
20,
17,
6,
6,
6,
3,
3,
3,
3,
6,
6,
5,
5,
6,
17,
15,
15,
18,
18,
19,
19,
21,
21,
19,
19,
19,
19,
12,
12,
8,
8,
3,
3,
4,
4,
12,
12,
20,
20,
25,
25,
25,
25,
17,
6,
6,
6,
2,
2,
2,
2,
3,
3,
3,
3,
2,
2,
5,
5,
4,
4,
2,
2,
6,
6,
5,
5,
2,
2,
7,
7,
15,
15,
16,
5,
6,
6,
6,
17,
17,
17,
20,
20,
23,
23,
21,
10,
11,
11,
10,
10,
10,
10,
5,
5,
4,
4,
6,
6,
6,
6,
10,
23,
22,
34,
33,
33,
26,
14,
14,
14,
9,
9,
4,
4,
3,
3,
13,
13,
9,
9,
7,
7,
8,
8,
9,
9,
4,
4,
0,
0,
6,
6,
6,
6,
5,
5,
0,
0,
3,
3,
3,
3,
6,
6,
8,
8,
4,
4,
1,
1,
-1,
-1,
-1,
-1,
-1,
-1,
4,
4,
6,
6,
1,
1,
2,
2,
0,
0,
0,
0,
1,
1,
2,
2,
0,
0,
0,
0,
5,
5,
13,
26,
25,
25,
26,
5,
6,
6,
10,
10,
14,
14,
16,
16,
17,
17,
13,
13,
12,
12,
6,
6,
7,
7,
15,
15,
17,
17,
10,
-1,
1,
1,
0,
0,
0,
0,
1,
1,
-1,
-1,
0,
0,
2,
2,
2,
2,
-1,
-1,
0,
0,
6,
6,
2,
2,
5,
5,
4,
4,
6,
6,
2,
2,
2,
2,
1,
1,
9,
9,
11,
11,
13,
13,
13,
13,
6,
6,
6,
6,
8,
8,
5,
5,
13,
13,
18,
18,
16,
16,
9,
9,
6,
6,
15,
15,
18,
18,
17,
6,
6,
6,
5,
5,
13,
13,
17,
17,
14,
14,
14,
14,
7,
7,
5,
5,
9,
9,
16,
16,
17,
17,
15,
3,
3,
3,
7,
7,
8,
8,
5,
5,
5,
5,
14,
14,
11,
11,
12,
12,
13,
13,
10,
10,
1,
1,
8,
8,
7,
7,
12,
12,
20,
20,
18,
18,
17,
17,
13,
1,
2,
2,
6,
18,
17,
17,
13,
13,
10,
10,
17,
17,
13,
0,
1,
1,
6,
6,
6,
6,
4,
4,
4,
4,
2,
2,
1,
1,
6,
6,
9,
9,
12,
12,
8,
8,
2,
13,
12,
12,
11,
11,
6,
6,
2,
2,
4,
4,
6,
6,
2,
2,
1,
1,
2,
2,
1,
1,
-1,
-1,
0,
0,
1,
1,
1,
1,
6,
6,
2,
2,
2,
2,
9,
9,
13,
13,
21,
21,
26,
26,
17,
3,
4,
4,
4,
4,
10,
10,
14,
14,
19,
19,
18,
18,
20,
20,
19,
19,
12,
12,
6,
6,
5,
5,
13,
13,
16,
16,
17,
17,
15,
15,
10,
10,
10,
10,
5,
5,
1,
1,
8,
8,
15,
15,
12,
12,
3,
3,
4,
4,
11,
11,
9,
9,
4,
4,
2,
2,
2,
2,
3,
3,
2,
2,
2,
2,
3,
3,
2,
13,
13,
13,
14,
14,
9,
9,
0,
0,
7,
7,
11,
11,
14,
14,
8,
8,
2,
2,
5,
5,
6,
6,
9,
9,
6,
6,
0,
0,
-1,
-1,
1,
1,
9,
9,
1,
13,
13,
27,
26,
37,
36,
36,
32,
13,
13,
13,
12,
12,
22,
22,
23,
23,
22,
22,
17,
17,
14,
14,
11,
11,
6,
6,
1,
1,
4,
4,
7,
7,
10,
10,
10,
10,
5,
5,
5,
5,
6,
6,
10,
10,
12,
12,
12,
12,
10,
10,
10,
10,
2,
2,
0,
0,
1,
14,
14,
14,
20,
20,
25,
25,
28,
28,
20,
20,
10,
10,
1,
15,
14,
40,
39,
60,
60,
60,
50,
24,
24,
10,
12,
1,
6,
26,
26,
26,
34,
34,
36,
36,
28,
28,
20,
20,
14,
14,
9,
9,
3,
3,
2,
2,
8,
8,
10,
10,
10,
10,
8,
8,
6,
6,
5,
5,
4,
4,
6,
17,
16,
27,
27,
27,
26,
14,
14,
2,
3,
3,
6,
6,
14,
14,
18,
18,
8,
8,
2,
2,
1,
1,
5,
5,
1,
1,
5,
5,
11,
11,
11,
11,
4,
4,
4,
4,
4,
4,
5,
5,
1,
1,
1,
1,
3,
3,
5,
5,
6,
6,
8,
8,
6,
6,
6,
6,
5,
5,
3,
3,
2,
2,
2,
2,
1,
1,
2,
2,
2,
2,
5,
5,
1,
1,
-1,
-1,
1,
1,
1,
1,
5,
5,
7,
7,
7,
7,
1,
1,
0,
0,
0,
0,
0,
0,
6,
6,
5,
5,
2,
2,
3,
3,
-1,
-1,
1,
1,
4,
4,
5,
5,
2,
2,
1,
1,
2,
2,
-1,
-1,
2,
2,
6,
6,
12,
12,
12,
12,
10,
10,
7,
7,
4,
4,
2,
2,
4,
4,
5,
5,
9,
9,
7,
7,
4,
4,
1,
1,
-1,
-1,
-1,
-1,
-1,
-1,
0,
0,
1,
1,
2,
2,
6,
6,
1,
1,
6,
6,
12,
12,
14,
14,
14,
14,
13,
13,
5,
5,
7,
7,
14,
14,
17,
17,
17,
17,
10,
10,
4,
4,
0,
0,
5,
5,
12,
12,
17,
17,
21,
21,
17,
2,
7,
22,
21,
21,
18,
1,
2,
2,
11,
11,
17,
17,
20,
5,
6,
6,
13,
13,
12,
12,
4,
4,
0,
0,
1,
1,
2,
2,
6,
6,
4,
4,
0,
0,
-1,
-1,
0,
0,
7,
7,
13,
13,
14,
14,
14,
14,
11,
11,
4,
4,
12,
33,
33,
33,
37,
21,
22,
22,
15,
15,
15,
4,
5,
5,
10,
22,
21,
21,
22,
22,
19,
19,
15,
15,
11,
0,
3,
3,
8,
8,
6,
6,
3,
3,
1,
1,
3,
3,
6,
6,
9,
9,
7,
7,
1,
1,
2,
2,
6,
6,
9,
9,
7,
7,
4,
4,
-1,
-1,
4,
4,
12,
12,
16,
16,
8,
8,
0,
0,
1,
1,
2,
2,
1,
1,
4,
4,
3,
3,
0,
0,
1,
1,
1,
1,
-1,
-1,
1,
1,
1,
1,
0,
0,
0,
0,
3,
3,
1,
1,
0,
0,
2,
2,
0,
0,
1,
1,
1,
1,
6,
6,
10,
10,
6,
6,
1,
1,
2,
2,
2,
2,
9,
23,
23,
23,
31,
31,
23,
7,
8,
8,
3,
3,
10,
10,
10,
10,
12,
12,
14,
14,
14,
14,
11,
11,
5,
5,
0,
0,
5,
5,
9,
9,
9,
9,
9,
9,
5,
5,
1,
1,
-1,
-1,
3,
3,
10,
10,
10,
10,
1,
1,
8,
8,
8,
8,
2,
2,
11,
11,
12,
12,
6,
6,
6,
6,
14,
14,
14,
14,
10,
10,
6,
6,
7,
7,
7,
7,
2,
2,
2,
2,
5,
5,
8,
8,
9,
9,
4,
4,
3,
3,
12,
12,
11,
11,
15,
15,
17,
1,
1,
1,
7,
7,
10,
10,
4,
4,
1,
1,
9,
22,
21,
21,
25,
25,
22,
22,
18,
2,
2,
25,
23,
45,
44,
57,
57,
57,
63,
40,
41,
4,
5,
22,
22,
22,
27,
27,
26,
26,
24,
24,
30,
30,
26,
26,
22,
5,
5,
5,
-1,
-1,
5,
5,
5,
5,
4,
4,
1,
1,
2,
2,
9,
9,
17,
17,
20,
20,
19,
19,
15,
15,
13,
13,
11,
11,
6,
6,
1,
1,
4,
4,
6,
6,
6,
6,
0,
0,
5,
5,
4,
4,
1,
1,
3,
3,
1,
1,
3,
3,
6,
6,
3,
3,
0,
0,
-1,
-1,
3,
3,
6,
6,
9,
9,
5,
5,
1,
1,
-1,
-1,
5,
5,
12,
12,
21,
21,
25,
12,
12,
0,
2,
2,
5,
5,
8,
8,
10,
10,
14,
14,
17,
17,
15,
15,
12,
12,
5,
5,
1,
15,
15,
15,
23,
23,
21,
21,
13,
13,
5,
5,
2,
2,
6,
6,
8,
8,
8,
8,
1,
14,
14,
14,
17,
17,
11,
11,
5,
5,
2,
2,
-1,
-1,
2,
2,
6,
6,
9,
9,
11,
11,
12,
12,
5,
5,
1,
1,
2,
2,
1,
1,
3,
3,
-1,
-1,
1,
1,
2,
2,
0,
0,
5,
5,
12,
12,
