EMG_S2/DS0059.CSV

Memory Length,4000,
Trigger Level,-4.80000e+02,
Source,CH1,
Probe,1.0X,
Vertical Units,V,
Vertical Scale,1.00000e+00,
Vertical Position,0.00000e+00,
Horizontal Units,S,
Horizontal Scale,1.00000e-01,
Horizontal Position,0.0000000e+00,
Horizontal Mode,Roll Mode,
Waveform Last Dot Address,4000,
Sampling Period,4.00000e-04,
Firmware,V1.14,
Time, ,
Mode,Fast,
Waveform Data,
5,
5,
6,
6,
12,
12,
6,
6,
6,
6,
1,
1,
4,
4,
0,
0,
4,
4,
9,
9,
10,
10,
7,
7,
3,
3,
1,
1,
1,
1,
2,
2,
2,
2,
2,
2,
-1,
-1,
1,
1,
2,
2,
4,
4,
4,
4,
1,
1,
6,
6,
6,
6,
6,
19,
18,
18,
25,
25,
24,
6,
7,
7,
4,
18,
17,
33,
32,
53,
53,
65,
64,
47,
48,
9,
9,
24,
24,
37,
37,
37,
37,
37,
31,
31,
22,
22,
22,
22,
23,
23,
15,
15,
9,
9,
5,
5,
1,
1,
4,
4,
8,
8,
13,
13,
20,
20,
22,
22,
20,
20,
12,
12,
7,
7,
4,
4,
0,
0,
4,
4,
1,
1,
5,
5,
9,
9,
4,
4,
9,
9,
6,
6,
5,
5,
5,
5,
9,
9,
9,
9,
4,
4,
2,
2,
6,
6,
0,
0,
10,
10,
1,
1,
1,
1,
7,
19,
18,
18,
18,
18,
14,
14,
8,
8,
6,
6,
3,
3,
10,
10,
17,
17,
19,
19,
13,
2,
4,
4,
7,
21,
20,
20,
18,
5,
6,
6,
6,
6,
6,
6,
1,
1,
5,
5,
4,
4,
0,
0,
0,
0,
9,
9,
1,
1,
5,
5,
8,
8,
9,
9,
6,
6,
6,
6,
5,
5,
2,
2,
-1,
-1,
2,
2,
5,
5,
13,
13,
17,
17,
19,
19,
23,
23,
22,
5,
6,
6,
9,
9,
14,
14,
12,
12,
6,
6,
0,
0,
4,
4,
6,
6,
5,
5,
2,
2,
2,
2,
-1,
-1,
2,
2,
3,
3,
5,
5,
4,
4,
3,
3,
3,
3,
10,
10,
16,
16,
12,
12,
4,
4,
5,
30,
30,
61,
60,
60,
55,
38,
38,
38,
37,
24,
24,
5,
17,
45,
44,
44,
48,
48,
42,
42,
34,
34,
28,
8,
9,
9,
0,
0,
4,
4,
6,
6,
10,
10,
3,
3,
10,
10,
15,
15,
17,
17,
10,
10,
14,
14,
12,
12,
11,
11,
2,
2,
1,
1,
0,
0,
1,
1,
5,
5,
13,
13,
8,
8,
1,
1,
4,
4,
6,
6,
10,
10,
11,
11,
4,
4,
6,
6,
4,
4,
7,
7,
1,
1,
1,
1,
1,
1,
-1,
-1,
2,
2,
2,
2,
3,
3,
8,
8,
1,
1,
5,
5,
6,
6,
2,
2,
4,
4,
0,
0,
2,
2,
1,
1,
-1,
-1,
1,
1,
-1,
-1,
3,
3,
7,
7,
4,
4,
10,
10,
14,
14,
18,
18,
19,
19,
17,
17,
12,
12,
7,
7,
2,
17,
16,
16,
16,
16,
26,
26,
25,
25,
27,
6,
7,
7,
5,
5,
6,
19,
19,
19,
18,
18,
18,
30,
29,
29,
37,
37,
32,
11,
11,
11,
21,
52,
52,
64,
63,
63,
64,
50,
50,
7,
8,
8,
15,
34,
34,
34,
43,
43,
43,
43,
45,
29,
30,
13,
13,
2,
9,
9,
8,
8,
4,
4,
6,
6,
5,
5,
6,
6,
2,
2,
10,
10,
17,
17,
25,
25,
18,
18,
25,
25,
15,
1,
2,
2,
0,
0,
2,
2,
5,
5,
6,
6,
6,
6,
7,
7,
6,
6,
4,
4,
4,
4,
-1,
-1,
1,
1,
5,
5,
10,
10,
5,
5,
6,
6,
3,
14,
13,
13,
16,
16,
6,
6,
2,
2,
3,
3,
1,
1,
6,
6,
13,
13,
11,
11,
8,
8,
7,
7,
6,
6,
5,
5,
1,
1,
4,
4,
8,
8,
2,
2,
2,
15,
14,
33,
33,
52,
50,
50,
44,
32,
32,
13,
14,
3,
12,
12,
10,
10,
14,
37,
37,
37,
42,
42,
38,
20,
21,
6,
6,
6,
6,
26,
26,
26,
20,
2,
4,
4,
10,
10,
18,
18,
12,
1,
1,
1,
5,
5,
11,
22,
21,
21,
19,
19,
12,
12,
2,
2,
1,
1,
2,
2,
5,
5,
2,
2,
2,
2,
1,
1,
2,
2,
12,
12,
16,
16,
13,
1,
1,
14,
14,
31,
31,
45,
45,
32,
33,
12,
13,
0,
1,
13,
13,
27,
26,
26,
32,
32,
34,
34,
30,
30,
21,
21,
18,
6,
7,
7,
1,
1,
11,
25,
23,
23,
15,
15,
14,
14,
10,
10,
5,
5,
0,
0,
7,
7,
6,
6,
2,
2,
8,
8,
17,
17,
11,
11,
6,
6,
7,
7,
17,
17,
25,
4,
5,
22,
21,
38,
37,
37,
33,
9,
9,
9,
8,
29,
28,
39,
39,
15,
15,
3,
10,
28,
27,
27,
21,
2,
4,
4,
6,
6,
4,
20,
19,
19,
21,
4,
4,
4,
3,
3,
8,
8,
16,
16,
18,
18,
9,
9,
8,
8,
1,
1,
3,
3,
2,
2,
0,
0,
7,
7,
6,
6,
6,
6,
2,
2,
10,
10,
10,
10,
3,
3,
8,
8,
2,
2,
10,
10,
6,
6,
10,
10,
2,
25,
25,
39,
38,
38,
44,
17,
18,
5,
18,
39,
38,
38,
37,
23,
23,
11,
11,
11,
16,
16,
14,
14,
11,
11,
11,
11,
5,
5,
-1,
-1,
7,
7,
13,
13,
18,
18,
24,
24,
32,
32,
28,
15,
15,
15,
6,
6,
0,
0,
1,
1,
3,
3,
8,
8,
12,
12,
18,
18,
22,
10,
10,
10,
2,
16,
10,
10,
1,
1,
0,
0,
2,
2,
1,
1,
1,
1,
3,
3,
2,
2,
6,
6,
9,
9,
10,
10,
11,
11,
1,
1,
2,
2,
2,
2,
6,
6,
9,
28,
25,
9,
10,
10,
2,
2,
8,
8,
12,
12,
14,
14,
12,
12,
21,
4,
4,
4,
2,
2,
4,
4,
9,
9,
11,
11,
9,
9,
2,
2,
6,
6,
7,
7,
14,
14,
19,
19,
18,
3,
4,
32,
32,
32,
33,
33,
24,
24,
19,
19,
9,
9,
0,
0,
10,
10,
13,
13,
13,
13,
13,
13,
16,
16,
11,
11,
13,
13,
10,
10,
7,
7,
6,
6,
4,
4,
6,
6,
6,
31,
25,
44,
44,
44,
42,
63,
61,
41,
41,
21,
22,
6,
21,
36,
35,
46,
45,
45,
40,
28,
29,
29,
26,
26,
24,
24,
17,
17,
7,
7,
12,
43,
42,
59,
58,
44,
44,
20,
20,
9,
9,
9,
6,
6,
10,
32,
32,
32,
34,
34,
28,
13,
13,
0,
0,
0,
1,
1,
7,
7,
10,
10,
6,
6,
4,
4,
3,
3,
2,
2,
4,
4,
1,
1,
3,
3,
7,
7,
9,
9,
7,
7,
1,
1,
4,
4,
4,
4,
4,
4,
4,
4,
5,
5,
11,
11,
13,
13,
6,
6,
4,
4,
6,
6,
-1,
-1,
0,
0,
6,
6,
1,
1,
2,
2,
5,
5,
5,
5,
4,
4,
2,
2,
6,
6,
1,
1,
0,
0,
2,
2,
6,
6,
7,
7,
4,
4,
0,
0,
0,
0,
0,
0,
1,
1,
4,
4,
2,
2,
2,
2,
9,
9,
10,
10,
2,
17,
16,
1,
1,
1,
2,
2,
3,
3,
8,
8,
14,
14,
18,
18,
12,
1,
2,
2,
6,
6,
3,
3,
9,
9,
13,
13,
10,
10,
5,
5,
11,
26,
26,
26,
26,
26,
20,
20,
13,
1,
3,
3,
10,
10,
19,
19,
24,
13,
14,
1,
2,
2,
5,
5,
1,
1,
0,
0,
0,
11,
10,
26,
26,
26,
29,
29,
20,
1,
2,
19,
18,
39,
39,
56,
54,
54,
45,
45,
42,
42,
41,
23,
23,
6,
21,
53,
52,
63,
62,
62,
58,
58,
52,
52,
44,
29,
30,
5,
7,
41,
41,
41,
44,
32,
33,
21,
21,
21,
21,
21,
26,
26,
34,
34,
37,
9,
10,
21,
21,
36,
34,
34,
36,
36,
30,
30,
28,
12,
12,
12,
9,
9,
2,
2,
1,
1,
3,
3,
6,
6,
9,
22,
21,
8,
8,
8,
0,
18,
14,
1,
6,
6,
2,
2,
12,
12,
14,
14,
9,
9,
7,
7,
1,
1,
1,
1,
5,
16,
15,
15,
16,
16,
8,
8,
0,
0,
6,
6,
9,
9,
5,
5,
8,
8,
9,
9,
2,
2,
4,
4,
12,
12,
11,
11,
11,
11,
7,
7,
3,
3,
0,
0,
0,
0,
2,
2,
5,
5,
6,
6,
6,
6,
1,
1,
1,
1,
5,
5,
10,
10,
3,
3,
0,
0,
10,
10,
14,
14,
13,
13,
13,
13,
16,
16,
12,
12,
2,
2,
6,
17,
17,
17,
17,
17,
12,
12,
13,
13,
11,
11,
13,
1,
2,
2,
7,
7,
0,
0,
6,
6,
6,
6,
2,
2,
1,
15,
15,
34,
33,
33,
31,
15,
16,
3,
3,
3,
5,
5,
6,
6,
2,
2,
6,
6,
4,
17,
16,
16,
26,
26,
17,
2,
8,
21,
20,
20,
15,
3,
11,
11,
13,
13,
10,
10,
7,
7,
5,
5,
6,
6,
14,
14,
10,
10,
0,
0,
1,
1,
5,
19,
18,
18,
27,
27,
25,
25,
23,
23,
22,
22,
15,
15,
6,
6,
5,
5,
13,
13,
10,
10,
9,
9,
14,
14,
14,
14,
14,
14,
7,
7,
4,
4,
10,
10,
4,
4,
3,
3,
11,
11,
5,
5,
1,
1,
7,
25,
24,
40,
39,
39,
30,
2,
4,
4,
4,
4,
12,
12,
12,
12,
13,
13,
18,
18,
13,
13,
9,
9,
3,
3,
-1,
-1,
6,
6,
8,
8,
1,
1,
2,
2,
9,
9,
13,
13,
14,
14,
11,
11,
10,
10,
9,
9,
2,
2,
5,
5,
14,
14,
17,
17,
18,
18,
14,
14,
12,
12,
2,
2,
5,
5,
12,
12,
19,
19,
23,
23,
17,
17,
10,
10,
9,
9,
9,
9,
2,
2,
2,
2,
7,
7,
9,
23,
22,
22,
30,
11,
12,
12,
6,
6,
0,
0,
0,
0,
2,
2,
10,
10,
11,
11,
4,
4,
9,
9,
17,
5,
6,
6,
3,
16,
16,
29,
28,
15,
16,
2,
3,
3,
0,
0,
2,
2,
2,
2,
5,
5,
3,
3,
9,
9,
3,
3,
8,
8,
13,
0,
1,
1,
5,
5,
6,
6,
2,
2,
9,
9,
10,
10,
6,
6,
2,
2,
4,
4,
2,
2,
3,
3,
3,
3,
3,
3,
6,
6,
4,
4,
3,
3,
8,
8,
14,
14,
14,
14,
18,
18,
13,
13,
12,
12,
6,
6,
9,
9,
14,
14,
19,
19,
15,
15,
14,
14,
17,
17,
12,
12,
4,
4,
0,
0,
9,
9,
15,
15,
13,
13,
9,
9,
10,
10,
2,
2,
0,
0,
4,
4,
5,
5,
5,
5,
2,
2,
2,
2,
1,
1,
2,
2,
11,
11,
19,
19,
13,
0,
0,
0,
7,
7,
7,
7,
10,
10,
12,
1,
3,
3,
6,
6,
2,
2,
6,
6,
11,
22,
22,
10,
10,
10,
9,
21,
21,
21,
24,
24,
16,
2,
5,
30,
30,
42,
41,
20,
20,
4,
9,
20,
18,
18,
19,
19,
18,
18,
18,
18,
18,
18,
17,
5,
5,
20,
20,
35,
33,
22,
22,
22,
22,
22,
25,
14,
15,
15,
8,
8,
2,
2,
9,
9,
12,
12,
16,
16,
13,
13,
16,
16,
10,
10,
0,
0,
2,
2,
4,
4,
0,
0,
3,
3,
5,
5,
2,
2,
1,
1,
6,
6,
0,
0,
0,
0,
2,
2,
2,
15,
15,
15,
14,
14,
8,
8,
1,
1,
5,
5,
5,
5,
8,
8,
13,
13,
13,
13,
14,
14,
10,
10,
3,
16,
16,
30,
29,
47,
46,
46,
44,
22,
32,
14,
25,
5,
14,
14,
18,
54,
29,
5,
5,
5,
2,
2,
-1,
10,
10,
10,
18,
18,
20,
20,
14,
0,
1,
1,
2,
2,
6,
6,
7,
7,
1,
1,
5,
5,
10,
10,
10,
10,
10,
10,
13,
13,
13,
13,
16,
16,
14,
45,
45,
24,
44,
13,
13,
-1,
1,
40,
56,
29,
41,
16,
16,
1,
2,
2,
8,
8,
14,
14,
18,
18,
22,
2,
4,
4,
12,
23,
22,
22,
23,
23,
23,
23,
23,
23,
23,
23,
22,
22,
20,
6,
6,
6,
8,
38,
38,
63,
62,
62,
64,
47,
47,
24,
25,
3,
4,
21,
21,
36,
35,
35,
30,
30,
22,
22,
25,
25,
29,
29,
28,
28,
27,
27,
18,
5,
6,
6,
9,
22,
21,
35,
34,
34,
30,
17,
18,
5,
5,
5,
4,
4,
11,
11,
13,
13,
14,
14,
14,
14,
12,
12,
7,
7,
8,
8,
16,
27,
27,
27,
24,
24,
16,
5,
5,
5,
2,
2,
0,
0,
0,
0,
5,
5,
6,
6,
2,
2,
6,
6,
10,
10,
6,
6,
8,
8,
9,
9,
5,
5,
4,
4,
5,
5,
4,
4,
2,
2,
6,
18,
18,
18,
16,
52,
22,
50,
50,
50,
50,
34,
34,
17,
17,
17,
8,
8,
2,
2,
7,
7,
1,
16,
15,
15,
12,
23,
22,
22,
24,
24,
30,
30,
28,
15,
16,
5,
5,
5,
1,
1,
10,
42,
21,
59,
59,
37,
37,
20,
20,
47,
31,
61,
59,
15,
16,
4,
8,
53,
32,
32,
34,
6,
6,
6,
3,
3,
8,
8,
5,
38,
38,
21,
21,
7,
8,
8,
3,
3,
11,
30,
29,
29,
28,
15,
15,
1,
4,
23,
22,
33,
32,
14,
14,
0,
2,
2,
2,
2,
7,
7,
5,
5,
2,
2,
6,
35,
18,
42,
39,
13,
14,
14,
14,
14,
13,
13,
5,
16,
15,
29,
27,
15,
16,
16,
21,
6,
6,
6,
2,
2,
1,
1,
2,
2,
3,
3,
8,
8,
13,
13,
10,
10,
7,
31,
30,
30,
30,
18,
18,
18,
13,
13,
18,
3,
4,
4,
6,
21,
20,
20,
21,
21,
13,
1,
2,
19,
18,
35,
14,
14,
14,
2,
16,
31,
30,
30,
29,
17,
18,
18,
17,
2,
3,
3,
2,
2,
8,
8,
3,
3,
8,
8,
6,
6,
10,
10,
8,
8,
2,
2,
9,
9,
12,
12,
14,
14,
5,
5,
0,
0,
2,
2,
2,
2,
2,
2,
0,
0,
8,
8,
2,
2,
5,
5,
1,
1,
7,
7,
4,
4,
11,
11,
6,
6,
6,
6,
4,
4,
0,
12,
12,
12,
22,
22,
19,
6,
7,
7,
3,
18,
17,
3,
4,
4,
3,
3,
12,
12,
13,
13,
13,
13,
9,
9,
13,
13,
18,
5,
5,
5,
1,
1,
2,
2,
0,
0,
4,
4,
5,
5,
2,
2,
1,
1,
2,
2,
8,
8,
5,
5,
3,
3,
2,
2,
10,
10,
8,
8,
1,
1,
6,
6,
6,
6,
3,
3,
6,
6,
9,
9,
6,
6,
0,
0,
2,
2,
9,
9,
15,
15,
15,
15,
6,
6,
2,
23,
22,
22,
24,
24,
24,
24,
28,
28,
20,
1,
2,
13,
12,
12,
18,
18,
11,
11,
5,
5,
5,
20,
20,
20,
20,
5,
5,
5,
7,
26,
25,
25,
23,
10,
11,
11,
4,
4,
5,
5,
14,
14,
13,
13,
12,
12,
6,
6,
0,
0,
2,
2,
2,
2,
5,
5,
6,
6,
6,
17,
17,
17,
21,
9,
9,
9,
11,
11,
12,
12,
13,
13,
7,
7,
6,
6,
4,
4,
9,
9,
7,
7,
2,
2,
10,
10,
20,
20,
23,
11,
11,
11,
5,
5,
5,
5,
2,
16,
16,
16,
14,
14,
13,
2,
3,
3,
1,
1,
6,
6,
12,
12,
6,
6,
0,
0,
8,
8,
13,
25,
25,
25,
22,
11,
12,
12,
13,
48,
47,
64,
63,
47,
47,
5,
5,
18,
17,
17,
26,
26,
30,
44,
42,
31,
32,
32,
30,
6,
6,
18,
17,
42,
42,
42,
51,
33,
33,
4,
6,
17,
16,
16,
25,
25,
29,
29,
22,
1,
1,
1,
4,
15,
15,
15,
24,
24,
16,
16,
8,
8,
4,
4,
2,
2,
3,
3,
8,
8,
9,
9,
10,
10,
4,
4,
4,
4,
4,
4,
2,
2,
6,
6,
3,
3,
8,
8,
4,
4,
0,
0,
6,
6,
10,
10,
10,
10,
2,
13,
13,
13,
15,
15,
12,
12,
10,
10,
14,
14,
14,
1,
1,
12,
11,
11,
15,
15,
8,
8,
5,
5,
2,
2,
2,
2,
2,
2,
11,
11,
16,
16,
14,
14,
14,
2,
2,
2,
2,
2,
8,
8,
6,
6,
4,
4,
5,
5,
7,
20,
19,
34,
34,
34,
37,
37,
28,
3,
5,
5,
11,
11,
18,
18,
24,
24,
18,
18,
8,
8,
5,
5,
4,
4,
9,
9,
14,
14,
19,
19,
18,
18,
12,
1,
6,
26,
26,
26,
33,
33,
26,
12,
12,
0,
1,
1,
5,
5,
2,
2,
5,
5,
7,
7,
2,
2,
2,
2,
9,
9,
6,
6,
-1,
-1,
-1,
-1,
0,
0,
4,
4,
13,
1,
2,
2,
3,
3,
12,
12,
9,
9,
7,
7,
1,
13,
13,
13,
17,
5,
5,
5,
5,
5,
6,
6,
-1,
-1,
2,
2,
6,
6,
4,
4,
4,
4,
2,
2,
5,
5,
7,
7,
6,
6,
9,
9,
5,
5,
9,
24,
23,
23,
13,
0,
1,
1,
10,
10,
18,
18,
21,
21,
23,
23,
18,
3,
4,
4,
14,
26,
26,
26,
29,
29,
29,
29,
20,
6,
6,
6,
1,
1,
2,
2,
1,
13,
12,
12,
13,
13,
21,
21,
19,
19,
17,
17,
14,
14,
5,
5,
3,
3,
5,
5,
1,
12,
11,
11,
20,
20,
11,
11,
11,
11,
4,
4,
10,
10,
1,
1,
6,
6,
10,
10,
4,
4,
1,
1,
-1,
-1,
1,
26,
26,
8,
8,
8,
10,
24,
23,
6,
8,
8,
2,
2,
8,
8,
6,
6,
1,
13,
13,
13,
10,
10,
2,
2,
4,
4,
5,
16,
15,
15,
11,
11,
9,
9,
8,
8,
17,
17,
13,
13,
9,
9,
1,
1,
6,
6,
9,
9,
8,
8,
1,
1,
0,
0,
6,
6,
6,
22,
12,
12,
9,
21,
20,
20,
21,
2,
3,
3,
12,
31,
30,
30,
32,
17,
17,
1,
2,
2,
1,
1,
8,
8,
8,
8,
15,
15,
10,
10,
3,
20,
19,
19,
24,
24,
26,
26,
27,
15,
16,
2,
6,
26,
26,
26,
17,
2,
6,
6,
2,
2,
6,
6,
5,
5,
7,
7,
1,
1,
0,
0,
2,
2,
3,
3,
2,
2,
1,
1,
1,
1,
1,
1,
4,
4,
0,
0,
0,
0,
9,
9,
14,
14,
5,
5,
6,
33,
32,
55,
53,
53,
45,
19,
19,
2,
4,
4,
14,
14,
23,
23,
27,
27,
23,
23,
22,
22,
18,
18,
12,
12,
13,
13,
8,
8,
6,
6,
6,
6,
9,
9,
18,
18,
22,
22,
16,
16,
15,
15,
13,
13,
9,
9,
14,
28,
28,
28,
31,
31,
24,
8,
8,
8,
1,
1,
2,
14,
13,
26,
25,
46,
45,
45,
49,
26,
27,
27,
20,
20,
21,
3,
6,
31,
31,
42,
41,
41,
41,
41,
34,
34,
29,
29,
22,
22,
14,
14,
10,
10,
2,
2,
1,
12,
11,
11,
18,
18,
26,
26,
35,
35,
31,
31,
26,
26,
18,
18,
10,
10,
7,
7,
12,
12,
14,
14,
12,
12,
6,
6,
3,
3,
7,
7,
5,
5,
4,
4,
10,
10,
10,
10,
15,
15,
17,
17,
14,
14,
9,
9,
13,
13,
16,
16,
21,
21,
26,
26,
24,
24,
20,
20,
13,
13,
7,
7,
9,
9,
13,
13,
17,
17,
12,
0,
5,
26,
25,
25,
26,
13,
14,
1,
6,
18,
17,
17,
9,
9,
16,
16,
6,
6,
2,
2,
5,
5,
3,
3,
4,
4,
8,
8,
4,
4,
0,
0,
5,
5,
8,
8,
9,
9,
2,
2,
5,
5,
4,
4,
6,
6,
3,
3,
2,
14,
13,
1,
3,
3,
10,
10,
8,
8,
5,
5,
6,
6,
13,
13,
10,
10,
12,
12,
19,
7,
8,
8,
5,
5,
0,
20,
20,
43,
42,
56,
55,
32,
32,
15,
16,
1,
3,
3,
12,
12,
14,
27,
26,
26,
30,
30,
27,
27,
22,
22,
14,
14,
9,
9,
6,
6,
9,
9,
3,
3,
6,
6,
9,
9,
14,
14,
10,
27,
26,
26,
21,
5,
7,
7,
1,
1,
4,
4,
10,
10,
9,
9,
3,
3,
3,
3,
4,
4,
10,
10,
3,
3,
2,
2,
7,
7,
8,
55,
42,
26,
44,
19,
19,
8,
9,
9,
15,
32,
31,
31,
35,
9,
9,
9,
2,
26,
25,
25,
30,
30,
31,
31,
28,
28,
22,
22,
14,
1,
2,
2,
10,
10,
12,
12,
13,
13,
11,
11,
12,
12,
8,
8,
2,
2,
2,
2,
1,
1,
2,
2,
9,
9,
14,
14,
14,
3,
3,
3,
2,
2,
10,
10,
6,
6,
14,
1,
2,
2,
6,
6,
2,
2,
1,
1,
10,
10,
2,
2,
1,
1,
2,
2,
10,
10,
7,
7,
1,
1,
0,
0,
6,
6,
6,
6,
10,
10,
10,
10,
11,
11,
2,
2,
6,
19,
18,
18,
28,
28,
24,
24,
22,
11,
12,
1,
2,
15,
14,
14,
18,
18,
14,
14,
13,
2,
4,
4,
6,
6,
6,
6,
1,
1,
6,
6,
12,
12,
13,
0,
0,
0,
1,
14,
14,
30,
30,
30,
34,
21,
22,
22,
23,
23,
18,
2,
3,
14,
14,
14,
21,
21,
20,
20,
20,
20,
15,
15,
9,
9,
16,
1,
2,
2,
4,
4,
0,
0,
7,
7,
13,
13,
8,
8,
2,
2,
11,
11,
20,
20,
15,
15,
11,
11,
10,
10,
19,
19,
29,
29,
33,
33,
29,
10,
10,
10,
8,
20,
19,
19,
17,
17,
18,
18,
21,
21,
31,
31,
32,
32,
24,
24,
17,
17,
13,
13,
5,
5,
9,
9,
18,
33,
33,
33,
28,
8,
9,
9,
2,
2,
2,
2,
2,
2,
3,
3,
5,
5,
12,
12,
14,
14,
9,
9,
9,
21,
20,
20,
14,
2,
3,
14,
14,
26,
25,
10,
10,
-1,
0,
0,
2,
2,
-1,
-1,
1,
1,
11,
11,
13,
13,
18,
18,
14,
14,
8,
8,
1,
1,
6,
6,
8,
8,
6,
6,
0,
0,
3,
3,
10,
22,
21,
21,
18,
5,
5,
5,
1,
1,
6,
6,
10,
10,
17,
17,
22,
22,
14,
1,
3,
3,
12,
26,
24,
24,
29,
29,
26,
26,
18,
18,
15,
15,
11,
11,
8,
8,
6,
6,
1,
1,
-1,
-1,
5,
5,
10,
10,
11,
11,
10,
10,
18,
18,
15,
15,
9,
9,
6,
6,
10,
10,
1,
1,
2,
2,
2,
2,
1,
1,
4,
4,
2,
2,
4,
4,
9,
9,
10,
10,
11,
11,
3,
15,
14,
14,
17,
17,
14,
14,
10,
10,
1,
1,
3,
3,
10,
10,
11,
11,
11,
11,
2,
2,
2,
2,
1,
1,
5,
5,
1,
1,
6,
6,
13,
36,
35,
55,
54,
54,
49,
8,
8,
8,
17,
17,
9,
9,
5,
5,
5,
21,
20,
20,
17,
17,
13,
13,
21,
21,
26,
26,
21,
7,
8,
8,
1,
13,
13,
27,
26,
13,
14,
14,
6,
6,
3,
3,
2,
2,
7,
7,
6,
6,
0,
0,
4,
4,
0,
0,
4,
4,
2,
2,
5,
5,
6,
6,
4,
4,
8,
8,
1,
1,
4,
4,
1,
1,
6,
6,
4,
4,
7,
7,
8,
8,
2,
2,
5,
5,
1,
1,
3,
3,
11,
11,
10,
10,
2,
2,
7,
7,
6,
6,
10,
10,
11,
11,
16,
16,
17,
17,
12,
1,
2,
14,
13,
24,
24,
24,
18,
5,
5,
5,
8,
8,
7,
7,
6,
19,
18,
18,
18,
18,
17,
17,
8,
8,
4,
4,
0,
0,
2,
2,
1,
1,
11,
11,
19,
19,
18,
18,
13,
13,
5,
5,
0,
0,
6,
6,
2,
2,
1,
1,
3,
3,
-1,
-1,
1,
1,
5,
5,
2,
2,
0,
0,
2,
2,
6,
6,
10,
10,
8,
8,
1,
1,
9,
9,
1,
15,
14,
14,
6,
6,
2,
2,
1,
1,
1,
1,
6,
6,
12,
12,
3,
3,
2,
2,
5,
18,
16,
16,
12,
1,
2,
13,
12,
12,
18,
18,
21,
21,
15,
15,
6,
6,
0,
0,
6,
6,
1,
1,
0,
0,
3,
3,
10,
10,
6,
6,
0,
0,
8,
8,
6,
6,
1,
1,
8,
8,
15,
15,
6,
6,
4,
4,
5,
5,
6,
6,
