EMG_S2/DS0050.CSV

Memory Length,4000,
Trigger Level,-4.80000e+02,
Source,CH1,
Probe,1.0X,
Vertical Units,V,
Vertical Scale,1.00000e+00,
Vertical Position,0.00000e+00,
Horizontal Units,S,
Horizontal Scale,1.00000e-01,
Horizontal Position,0.0000000e+00,
Horizontal Mode,Roll Mode,
Waveform Last Dot Address,4000,
Sampling Period,4.00000e-04,
Firmware,V1.14,
Time, ,
Mode,Fast,
Waveform Data,
26,
12,
12,
1,
2,
2,
1,
1,
0,
0,
1,
1,
0,
0,
8,
8,
12,
12,
15,
15,
16,
16,
11,
11,
2,
2,
1,
1,
6,
6,
7,
7,
5,
5,
3,
3,
0,
0,
5,
5,
0,
0,
2,
2,
5,
5,
6,
6,
6,
6,
6,
6,
4,
4,
1,
1,
9,
9,
17,
17,
9,
9,
6,
21,
20,
31,
31,
31,
24,
3,
5,
5,
12,
26,
26,
26,
27,
27,
18,
6,
7,
7,
3,
19,
18,
18,
26,
26,
19,
19,
11,
11,
6,
6,
1,
1,
5,
5,
10,
10,
12,
12,
15,
15,
14,
14,
8,
8,
0,
0,
4,
4,
5,
5,
-1,
-1,
1,
1,
0,
0,
0,
0,
3,
3,
5,
5,
2,
2,
10,
10,
18,
18,
18,
18,
15,
15,
8,
8,
1,
1,
0,
0,
1,
12,
12,
12,
5,
5,
5,
5,
9,
9,
12,
12,
20,
20,
21,
5,
14,
33,
32,
32,
30,
30,
21,
21,
14,
14,
8,
8,
1,
1,
5,
5,
13,
13,
12,
12,
2,
2,
-1,
-1,
-1,
-1,
1,
1,
0,
0,
2,
2,
4,
4,
1,
1,
0,
0,
0,
0,
-1,
-1,
1,
1,
1,
1,
0,
0,
5,
5,
10,
10,
11,
11,
6,
6,
2,
2,
10,
10,
12,
12,
8,
8,
7,
7,
2,
2,
7,
7,
12,
12,
20,
36,
35,
35,
31,
3,
5,
22,
21,
21,
22,
22,
13,
13,
12,
12,
13,
13,
12,
12,
14,
14,
12,
12,
6,
6,
0,
0,
2,
2,
7,
7,
10,
10,
2,
17,
17,
31,
30,
44,
43,
43,
51,
51,
44,
22,
22,
2,
4,
15,
14,
14,
20,
20,
29,
29,
34,
34,
34,
34,
28,
28,
20,
20,
14,
1,
2,
13,
13,
13,
18,
18,
18,
30,
30,
30,
29,
14,
14,
1,
3,
3,
-1,
-1,
2,
2,
8,
8,
9,
9,
5,
5,
4,
4,
7,
7,
8,
8,
5,
5,
1,
1,
8,
8,
13,
13,
14,
14,
12,
12,
3,
3,
5,
5,
8,
8,
7,
7,
6,
6,
8,
8,
8,
8,
6,
6,
5,
5,
4,
4,
1,
1,
3,
3,
9,
9,
14,
14,
23,
23,
29,
14,
14,
0,
1,
1,
4,
4,
6,
6,
8,
8,
7,
7,
6,
6,
6,
6,
7,
7,
3,
3,
0,
0,
2,
2,
-1,
-1,
2,
2,
1,
1,
2,
2,
0,
12,
12,
26,
25,
25,
25,
11,
12,
1,
5,
18,
17,
17,
22,
22,
18,
18,
14,
14,
10,
10,
2,
2,
9,
30,
30,
30,
37,
19,
20,
1,
1,
1,
0,
0,
0,
0,
0,
0,
-1,
-1,
2,
2,
12,
12,
20,
20,
28,
28,
33,
33,
28,
28,
22,
22,
14,
2,
10,
44,
44,
64,
62,
62,
64,
43,
44,
12,
12,
0,
1,
1,
8,
19,
18,
18,
22,
22,
21,
21,
23,
23,
24,
24,
16,
16,
20,
20,
16,
16,
11,
11,
6,
6,
2,
2,
9,
9,
11,
11,
10,
10,
13,
13,
13,
13,
16,
16,
24,
24,
31,
16,
17,
2,
5,
19,
18,
18,
23,
23,
21,
21,
14,
14,
15,
15,
11,
11,
6,
22,
21,
36,
35,
46,
46,
32,
33,
10,
10,
10,
4,
4,
10,
10,
15,
26,
26,
26,
30,
30,
26,
14,
14,
14,
5,
5,
4,
4,
4,
4,
1,
1,
2,
2,
5,
5,
5,
5,
6,
6,
10,
10,
11,
11,
10,
10,
6,
6,
0,
0,
3,
3,
5,
5,
10,
10,
14,
14,
18,
6,
6,
6,
5,
5,
9,
9,
8,
8,
16,
16,
8,
8,
2,
2,
1,
1,
6,
6,
14,
29,
28,
28,
31,
31,
25,
25,
19,
19,
12,
12,
5,
5,
9,
9,
15,
15,
14,
14,
21,
21,
23,
23,
18,
18,
8,
8,
2,
2,
6,
6,
5,
5,
1,
1,
2,
2,
2,
2,
5,
5,
5,
5,
2,
2,
1,
1,
3,
3,
0,
0,
2,
2,
5,
5,
3,
3,
1,
1,
2,
2,
1,
1,
4,
4,
1,
1,
0,
0,
0,
0,
1,
1,
0,
0,
2,
2,
0,
0,
0,
0,
2,
2,
5,
5,
3,
3,
2,
2,
10,
22,
21,
21,
22,
22,
13,
13,
5,
5,
6,
6,
14,
14,
13,
13,
12,
12,
13,
13,
14,
14,
12,
12,
14,
14,
9,
9,
5,
21,
20,
32,
32,
32,
26,
15,
17,
17,
13,
13,
12,
12,
13,
13,
16,
16,
12,
12,
12,
30,
29,
42,
42,
42,
34,
20,
20,
2,
4,
4,
12,
12,
5,
5,
3,
3,
6,
6,
2,
2,
4,
4,
9,
9,
14,
14,
21,
21,
25,
10,
10,
10,
3,
3,
6,
6,
8,
8,
11,
11,
6,
6,
0,
0,
9,
9,
16,
1,
2,
2,
11,
11,
18,
18,
18,
18,
14,
14,
6,
6,
2,
2,
9,
9,
13,
13,
14,
14,
4,
4,
5,
5,
8,
8,
11,
11,
10,
10,
7,
7,
6,
6,
0,
0,
0,
0,
8,
8,
10,
10,
6,
6,
-1,
-1,
-1,
-1,
0,
0,
1,
15,
14,
14,
15,
1,
1,
13,
12,
12,
11,
11,
4,
4,
1,
1,
3,
3,
13,
13,
6,
6,
2,
2,
2,
2,
2,
2,
6,
6,
3,
3,
0,
0,
4,
4,
3,
15,
14,
14,
17,
17,
13,
13,
9,
9,
10,
42,
42,
53,
50,
24,
25,
4,
4,
15,
14,
25,
24,
24,
18,
4,
4,
4,
10,
10,
14,
14,
9,
9,
6,
6,
12,
12,
6,
6,
13,
13,
18,
18,
17,
17,
13,
2,
2,
2,
3,
3,
6,
6,
10,
10,
10,
10,
14,
14,
16,
16,
12,
12,
8,
8,
9,
9,
6,
6,
6,
6,
3,
3,
2,
2,
5,
5,
14,
14,
14,
2,
3,
3,
9,
20,
20,
20,
27,
13,
14,
1,
9,
30,
30,
30,
37,
37,
34,
34,
28,
13,
14,
0,
2,
2,
6,
6,
9,
9,
8,
8,
16,
29,
28,
28,
30,
30,
28,
14,
15,
0,
1,
1,
3,
3,
9,
9,
12,
12,
10,
10,
7,
7,
5,
5,
0,
0,
4,
4,
-1,
-1,
0,
12,
11,
11,
18,
18,
15,
2,
2,
13,
12,
26,
26,
40,
39,
39,
42,
29,
30,
16,
17,
3,
8,
28,
27,
27,
33,
33,
37,
37,
37,
26,
27,
27,
18,
18,
16,
16,
12,
1,
14,
14,
14,
28,
28,
44,
44,
44,
46,
46,
38,
18,
18,
1,
4,
15,
14,
14,
19,
19,
16,
16,
8,
8,
6,
6,
14,
14,
10,
10,
4,
4,
10,
22,
22,
22,
23,
23,
18,
5,
6,
6,
3,
3,
8,
8,
4,
4,
6,
17,
17,
17,
21,
21,
16,
1,
3,
23,
22,
22,
28,
28,
24,
2,
4,
4,
11,
11,
18,
36,
35,
35,
28,
13,
13,
13,
5,
5,
12,
25,
23,
23,
28,
6,
6,
25,
25,
46,
46,
57,
56,
56,
52,
41,
42,
29,
30,
17,
17,
3,
3,
3,
4,
4,
9,
9,
14,
14,
22,
22,
28,
28,
26,
26,
28,
28,
27,
27,
29,
29,
25,
25,
19,
19,
12,
12,
8,
8,
2,
2,
6,
6,
14,
14,
20,
20,
21,
21,
22,
22,
15,
2,
2,
2,
2,
2,
3,
3,
2,
2,
2,
2,
5,
5,
7,
7,
8,
8,
6,
6,
1,
1,
4,
4,
1,
1,
3,
3,
7,
7,
9,
9,
8,
8,
8,
8,
10,
10,
4,
4,
-1,
-1,
7,
24,
23,
23,
22,
22,
12,
12,
12,
30,
30,
42,
41,
41,
32,
17,
18,
1,
1,
1,
2,
2,
1,
1,
8,
8,
14,
14,
16,
16,
15,
30,
29,
29,
26,
13,
13,
0,
1,
14,
14,
30,
30,
30,
27,
12,
12,
0,
2,
2,
4,
4,
0,
0,
6,
6,
10,
10,
4,
4,
0,
0,
2,
2,
1,
1,
1,
1,
8,
20,
18,
18,
18,
1,
3,
3,
2,
2,
9,
9,
13,
13,
8,
8,
1,
1,
2,
2,
5,
5,
6,
6,
4,
4,
0,
0,
0,
0,
1,
1,
5,
5,
5,
5,
-1,
-1,
8,
8,
9,
9,
3,
3,
0,
0,
1,
1,
5,
5,
1,
13,
13,
13,
17,
17,
12,
1,
4,
22,
21,
32,
31,
17,
17,
4,
19,
58,
58,
58,
64,
35,
35,
6,
12,
27,
26,
26,
33,
33,
34,
16,
16,
16,
8,
8,
6,
6,
2,
2,
7,
7,
12,
12,
14,
14,
9,
9,
2,
2,
2,
2,
7,
7,
7,
7,
4,
4,
2,
2,
4,
17,
17,
29,
28,
28,
34,
34,
28,
16,
16,
5,
6,
6,
2,
2,
5,
5,
6,
6,
6,
6,
12,
12,
15,
15,
18,
18,
14,
14,
10,
10,
18,
18,
20,
20,
12,
12,
4,
4,
9,
29,
28,
28,
31,
31,
26,
26,
34,
34,
38,
38,
30,
5,
5,
5,
14,
27,
27,
27,
36,
36,
39,
39,
34,
22,
23,
5,
5,
5,
13,
13,
13,
13,
7,
7,
5,
5,
5,
5,
6,
6,
4,
4,
7,
7,
-1,
-1,
-1,
-1,
0,
0,
1,
1,
-1,
-1,
2,
18,
17,
29,
28,
28,
29,
6,
6,
47,
47,
64,
63,
63,
64,
64,
61,
25,
26,
4,
8,
36,
35,
54,
53,
64,
63,
63,
63,
63,
54,
40,
40,
24,
24,
24,
14,
14,
7,
7,
7,
18,
18,
18,
28,
28,
35,
35,
33,
18,
18,
18,
12,
12,
12,
12,
9,
9,
2,
2,
6,
6,
8,
8,
2,
2,
2,
2,
6,
6,
2,
2,
5,
5,
4,
4,
1,
1,
0,
0,
-1,
-1,
5,
5,
8,
8,
6,
6,
7,
7,
4,
4,
6,
6,
5,
21,
20,
20,
25,
25,
21,
21,
14,
14,
17,
17,
21,
9,
10,
10,
6,
23,
22,
44,
44,
44,
50,
26,
26,
6,
6,
6,
1,
1,
19,
19,
19,
30,
30,
30,
24,
24,
21,
21,
14,
1,
2,
27,
27,
43,
42,
42,
38,
38,
43,
30,
30,
14,
14,
2,
8,
22,
21,
21,
14,
14,
8,
23,
23,
23,
30,
30,
32,
32,
30,
30,
30,
30,
28,
28,
22,
8,
9,
9,
8,
35,
34,
54,
54,
42,
42,
18,
18,
18,
14,
14,
12,
12,
6,
6,
7,
7,
7,
7,
1,
1,
-1,
-1,
2,
13,
12,
26,
25,
25,
30,
30,
24,
12,
13,
2,
9,
47,
47,
64,
64,
64,
60,
32,
33,
6,
13,
47,
46,
57,
55,
38,
38,
21,
21,
9,
10,
10,
8,
8,
15,
15,
24,
24,
33,
33,
32,
14,
15,
2,
10,
38,
37,
53,
53,
53,
61,
61,
61,
61,
64,
64,
65,
43,
44,
8,
14,
49,
49,
63,
63,
63,
64,
64,
64,
47,
48,
22,
23,
1,
2,
2,
2,
2,
2,
2,
9,
9,
9,
9,
3,
3,
9,
40,
39,
56,
55,
55,
51,
24,
24,
4,
10,
10,
18,
6,
6,
6,
13,
38,
38,
22,
22,
5,
10,
10,
7,
7,
4,
4,
6,
6,
13,
37,
37,
37,
44,
32,
33,
17,
17,
3,
9,
20,
17,
2,
2,
2,
0,
0,
5,
5,
6,
6,
6,
6,
1,
1,
5,
5,
10,
10,
17,
17,
18,
6,
7,
7,
9,
43,
42,
64,
63,
63,
65,
33,
33,
5,
12,
25,
24,
24,
30,
53,
53,
53,
61,
41,
41,
6,
6,
35,
34,
60,
59,
59,
53,
31,
32,
4,
5,
33,
33,
49,
49,
49,
47,
47,
40,
29,
30,
13,
14,
2,
8,
24,
23,
23,
28,
15,
15,
15,
9,
9,
7,
7,
8,
8,
13,
13,
14,
14,
8,
8,
2,
2,
-1,
-1,
1,
1,
0,
0,
9,
21,
20,
20,
10,
10,
1,
1,
6,
6,
13,
24,
24,
24,
33,
33,
23,
1,
1,
13,
12,
32,
32,
32,
37,
37,
30,
30,
29,
9,
9,
9,
0,
0,
3,
27,
26,
38,
38,
38,
36,
36,
26,
13,
13,
13,
6,
6,
2,
2,
5,
5,
8,
8,
9,
9,
7,
7,
9,
9,
8,
8,
5,
5,
5,
5,
8,
8,
11,
11,
8,
8,
5,
5,
6,
6,
2,
2,
0,
0,
2,
2,
5,
5,
10,
10,
14,
2,
2,
2,
5,
5,
12,
12,
22,
22,
21,
6,
6,
6,
8,
8,
14,
14,
15,
15,
12,
12,
14,
14,
20,
20,
18,
18,
10,
10,
9,
33,
33,
44,
40,
11,
12,
1,
6,
17,
16,
16,
20,
2,
2,
13,
12,
31,
31,
42,
42,
42,
38,
13,
13,
27,
26,
55,
55,
55,
59,
43,
44,
15,
16,
4,
18,
42,
41,
61,
61,
61,
58,
30,
31,
6,
6,
6,
9,
30,
30,
42,
41,
41,
41,
28,
28,
15,
16,
16,
14,
14,
13,
1,
2,
2,
8,
8,
11,
11,
12,
12,
22,
22,
26,
26,
20,
20,
10,
10,
7,
7,
6,
6,
6,
6,
10,
10,
6,
6,
5,
5,
10,
10,
12,
12,
14,
14,
11,
11,
8,
8,
2,
2,
3,
3,
4,
4,
1,
1,
1,
1,
1,
1,
5,
5,
6,
6,
8,
8,
5,
5,
0,
0,
0,
0,
1,
1,
1,
1,
0,
0,
2,
2,
9,
9,
10,
10,
4,
4,
1,
1,
11,
11,
15,
15,
8,
8,
4,
4,
1,
1,
5,
5,
7,
7,
7,
7,
1,
1,
5,
5,
5,
5,
2,
17,
16,
28,
27,
27,
24,
24,
22,
6,
6,
30,
30,
62,
61,
61,
65,
65,
34,
34,
34,
6,
13,
46,
45,
45,
49,
34,
34,
20,
20,
20,
13,
13,
6,
6,
6,
19,
18,
18,
15,
1,
5,
16,
15,
15,
17,
17,
12,
12,
7,
7,
2,
2,
5,
5,
13,
13,
18,
30,
30,
30,
32,
7,
7,
7,
11,
11,
14,
14,
10,
10,
3,
3,
8,
23,
22,
22,
12,
1,
5,
5,
9,
9,
12,
12,
10,
10,
8,
8,
6,
6,
6,
6,
4,
15,
14,
30,
30,
30,
39,
22,
22,
1,
1,
1,
9,
9,
11,
11,
12,
12,
14,
14,
18,
18,
21,
21,
24,
24,
19,
7,
8,
8,
3,
3,
8,
8,
10,
10,
4,
4,
1,
1,
0,
0,
4,
4,
8,
24,
23,
23,
30,
30,
31,
31,
22,
22,
14,
14,
9,
9,
1,
1,
6,
6,
10,
10,
15,
15,
16,
16,
12,
12,
17,
17,
19,
19,
18,
18,
14,
14,
9,
9,
1,
1,
5,
5,
6,
6,
8,
8,
7,
7,
1,
1,
1,
1,
5,
5,
2,
16,
15,
15,
22,
22,
21,
21,
17,
17,
7,
7,
2,
2,
3,
15,
14,
34,
34,
21,
21,
2,
5,
27,
27,
27,
37,
37,
41,
41,
36,
25,
26,
10,
10,
10,
1,
1,
4,
4,
13,
13,
6,
6,
2,
2,
8,
8,
5,
5,
7,
7,
10,
38,
38,
61,
61,
61,
66,
52,
52,
22,
22,
3,
9,
27,
26,
26,
33,
33,
38,
38,
40,
40,
36,
36,
29,
16,
17,
17,
12,
12,
14,
14,
8,
8,
11,
32,
32,
32,
29,
12,
12,
12,
3,
3,
1,
1,
1,
1,
2,
2,
8,
8,
12,
12,
13,
13,
5,
5,
-1,
-1,
2,
2,
1,
1,
0,
0,
-1,
-1,
1,
1,
0,
0,
0,
0,
4,
4,
6,
6,
6,
6,
3,
3,
4,
4,
6,
6,
5,
5,
5,
5,
3,
3,
7,
20,
19,
19,
21,
21,
22,
9,
10,
10,
8,
8,
8,
8,
4,
4,
0,
0,
6,
6,
5,
5,
0,
0,
5,
5,
12,
12,
17,
17,
17,
17,
12,
12,
7,
7,
4,
4,
13,
13,
13,
13,
10,
10,
5,
5,
0,
0,
6,
21,
21,
21,
28,
4,
5,
25,
24,
24,
24,
5,
5,
20,
19,
19,
21,
21,
25,
25,
17,
4,
16,
46,
45,
45,
43,
24,
24,
6,
7,
7,
5,
5,
6,
6,
5,
5,
4,
4,
10,
10,
17,
17,
26,
26,
22,
2,
2,
2,
5,
5,
8,
8,
10,
10,
9,
9,
5,
5,
0,
0,
2,
2,
7,
7,
14,
14,
21,
21,
14,
14,
5,
5,
2,
2,
6,
6,
9,
9,
10,
10,
10,
10,
7,
7,
9,
9,
11,
11,
14,
14,
15,
15,
16,
16,
8,
8,
5,
5,
7,
28,
28,
28,
35,
35,
38,
38,
40,
40,
40,
20,
21,
5,
5,
5,
6,
23,
22,
22,
30,
30,
28,
28,
22,
22,
21,
21,
19,
19,
15,
15,
9,
9,
6,
6,
6,
6,
3,
3,
5,
5,
14,
14,
20,
20,
22,
22,
20,
9,
9,
9,
8,
23,
22,
22,
12,
1,
3,
28,
27,
50,
49,
49,
55,
55,
50,
34,
35,
22,
22,
5,
18,
53,
52,
52,
62,
62,
57,
57,
49,
35,
36,
36,
28,
28,
22,
4,
5,
5,
10,
10,
13,
13,
15,
15,
14,
14,
10,
10,
10,
24,
23,
36,
35,
35,
32,
32,
22,
9,
9,
9,
0,
0,
1,
1,
8,
8,
15,
15,
10,
10,
2,
16,
27,
27,
27,
27,
33,
33,
34,
34,
32,
21,
21,
7,
7,
7,
4,
20,
18,
29,
27,
27,
25,
12,
12,
0,
1,
1,
10,
10,
7,
7,
5,
19,
19,
19,
24,
10,
10,
10,
2,
2,
4,
4,
6,
6,
7,
7,
12,
12,
18,
18,
12,
0,
1,
1,
1,
1,
5,
5,
4,
4,
0,
0,
6,
19,
16,
16,
23,
23,
27,
27,
20,
9,
10,
10,
1,
1,
7,
7,
14,
14,
21,
21,
28,
28,
30,
19,
20,
5,
6,
6,
12,
26,
26,
26,
20,
9,
10,
10,
2,
2,
-1,
-1,
6,
6,
14,
14,
16,
16,
12,
1,
4,
4,
11,
11,
17,
17,
16,
16,
8,
8,
5,
5,
13,
13,
16,
16,
7,
7,
2,
2,
11,
11,
19,
19,
17,
6,
6,
6,
6,
22,
21,
21,
23,
23,
14,
1,
3,
3,
10,
10,
8,
8,
3,
3,
0,
0,
0,
0,
2,
2,
4,
4,
2,
2,
1,
1,
6,
6,
10,
10,
8,
8,
5,
21,
20,
39,
38,
38,
43,
32,
32,
9,
9,
9,
6,
6,
15,
15,
23,
23,
27,
27,
25,
25,
15,
1,
2,
14,
14,
14,
8,
8,
0,
0,
6,
6,
14,
14,
10,
10,
6,
21,
21,
21,
24,
24,
19,
5,
6,
6,
6,
18,
17,
17,
14,
14,
10,
10,
7,
7,
1,
1,
1,
1,
2,
2,
8,
8,
4,
4,
0,
0,
1,
1,
8,
22,
22,
38,
37,
37,
37,
37,
31,
13,
13,
1,
3,
16,
15,
15,
20,
20,
20,
20,
23,
23,
23,
23,
22,
22,
19,
19,
17,
17,
7,
7,
6,
6,
13,
13,
9,
9,
14,
29,
28,
28,
36,
22,
23,
7,
8,
8,
8,
8,
12,
12,
3,
18,
17,
17,
26,
26,
23,
23,
14,
14,
5,
5,
8,
8,
16,
1,
2,
2,
11,
11,
17,
17,
20,
20,
21,
21,
12,
1,
2,
2,
5,
17,
16,
16,
23,
23,
29,
29,
27,
15,
15,
2,
3,
3,
3,
3,
6,
6,
6,
6,
6,
6,
12,
12,
8,
8,
1,
19,
18,
33,
32,
32,
28,
28,
18,
2,
3,
22,
22,
22,
28,
28,
24,
24,
19,
19,
11,
11,
10,
10,
8,
8,
0,
0,
1,
1,
6,
6,
5,
5,
4,
4,
6,
6,
2,
2,
9,
9,
10,
10,
6,
6,
4,
4,
3,
3,
2,
15,
14,
28,
28,
28,
30,
17,
18,
2,
5,
31,
30,
52,
51,
64,
63,
63,
61,
49,
49,
14,
15,
15,
18,
41,
41,
53,
52,
52,
52,
52,
44,
44,
38,
38,
29,
12,
13,
1,
2,
2,
1,
1,
4,
4,
10,
10,
19,
19,
25,
25,
27,
27,
30,
30,
39,
39,
30,
10,
10,
10,
3,
3,
10,
10,
14,
14,
14,
14,
11,
11,
8,
8,
6,
6,
9,
9,
10,
10,
6,
6,
6,
6,
5,
5,
0,
0,
6,
18,
17,
33,
32,
32,
37,
17,
17,
1,
3,
17,
17,
28,
27,
27,
22,
2,
2,
14,
13,
29,
29,
29,
30,
4,
5,
20,
19,
19,
22,
22,
20,
20,
14,
14,
5,
5,
-1,
-1,
-1,
-1,
0,
0,
0,
0,
1,
1,
4,
4,
4,
4,
4,
4,
4,
4,
6,
6,
6,
6,
6,
6,
5,
5,
4,
4,
2,
2,
1,
1,
1,
1,
-2,
-2,
1,
1,
1,
1,
2,
2,
3,
3,
4,
20,
20,
34,
33,
18,
18,
3,
12,
33,
32,
32,
39,
23,
23,
5,
6,
6,
0,
0,
2,
2,
7,
7,
7,
7,
6,
6,
2,
2,
1,
1,
1,
1,
4,
4,
7,
7,
12,
12,
13,
13,
13,
13,
10,
10,
7,
7,
1,
1,
0,
0,
6,
6,
14,
14,
16,
16,
15,
15,
14,
14,
15,
15,
11,
11,
11,
11,
8,
8,
10,
10,
9,
9,
8,
8,
7,
7,
12,
38,
37,
48,
47,
47,
48,
48,
38,
10,
10,
21,
20,
20,
28,
28,
35,
57,
57,
57,
60,
36,
36,
36,
26,
13,
13,
13,
15,
30,
29,
44,
44,
44,
47,
47,
39,
39,
41,
41,
37,
23,
23,
8,
9,
9,
2,
2,
10,
10,
18,
18,
24,
24,
26,
26,
26,
26,
25,
25,
20,
20,
17,
17,
13,
13,
6,
6,
2,
2,
2,
2,
1,
1,
2,
2,
4,
4,
6,
6,
6,
6,
6,
6,
0,
0,
-2,
-2,
2,
2,
5,
5,
9,
9,
9,
9,
9,
9,
10,
10,
6,
6,
0,
0,
6,
6,
6,
6,
5,
5,
5,
5,
5,
5,
4,
4,
3,
3,
0,
0,
-1,
-1,
1,
1,
0,
0,
2,
2,
2,
2,
-1,
-1,
-1,
-1,
2,
2,
2,
2,
1,
1,
0,
0,
0,
0,
0,
0,
-1,
-1,
1,
1,
0,
0,
0,
0,
5,
5,
10,
10,
17,
17,
20,
20,
19,
19,
13,
1,
2,
23,
23,
57,
57,
57,
64,
64,
66,
55,
56,
14,
14,
32,
32,
61,
60,
60,
64,
64,
64,
64,
59,
41,
42,
29,
29,
29,
21,
21,
18,
18,
14,
14,
5,
5,
13,
35,
33,
33,
38,
38,
42,
42,
49,
49,
53,
53,
58,
58,
51,
10,
11,
25,
25,
41,
40,
40,
40,
40,
32,
15,
16,
1,
4,
4,
7,
7,
4,
4,
12,
12,
6,
6,
10,
34,
34,
34,
38,
8,
9,
9,
18,
18,
25,
25,
30,
30,
32,
32,
26,
26,
18,
18,
9,
9,
2,
2,
6,
19,
18,
30,
29,
29,
30,
17,
17,
17,
12,
12,
12,
12,
12,
12,
11,
11,
4,
4,
10,
10,
9,
9,
8,
8,
6,
6,
4,
4,
1,
1,
0,
0,
2,
2,
1,
1,
-1,
-1,
2,
2,
4,
4,
3,
3,
0,
0,
4,
4,
2,
2,
1,
1,
0,
0,
2,
2,
5,
5,
12,
12,
15,
15,
9,
9,
5,
5,
13,
13,
10,
10,
5,
5,
1,
1,
0,
0,
3,
3,
0,
0,
1,
1,
5,
5,
4,
4,
1,
1,
2,
2,
8,
8,
10,
10,
10,
10,
4,
4,
3,
3,
6,
6,
3,
3,
0,
0,
1,
1,
2,
2,
2,
2,
1,
1,
-1,
-1,
1,
1,
6,
6,
13,
13,
17,
17,
14,
14,
8,
8,
8,
30,
30,
46,
46,
46,
49,
25,
25,
1,
2,
18,
16,
16,
18,
18,
10,
10,
2,
2,
3,
18,
18,
18,
25,
25,
19,
19,
12,
12,
4,
4,
1,
1,
4,
4,
8,
8,
17,
17,
21,
9,
10,
10,
2,
2,
8,
8,
7,
7,
3,
3,
1,
1,
9,
9,
7,
7,
7,
21,
21,
21,
21,
6,
6,
19,
18,
41,
41,
41,
50,
50,
47,
23,
24,
9,
10,
10,
1,
17,
16,
16,
22,
22,
23,
23,
30,
30,
37,
37,
44,
44,
37,
21,
21,
1,
2,
14,
13,
33,
32,
32,
38,
21,
21,
10,
11,
11,
6,
6,
0,
0,
6,
6,
2,
2,
4,
19,
18,
18,
