EMG_S2/DS0072.CSV

Memory Length,4000,
Trigger Level,-4.80000e+02,
Source,CH1,
Probe,1.0X,
Vertical Units,V,
Vertical Scale,1.00000e+00,
Vertical Position,0.00000e+00,
Horizontal Units,S,
Horizontal Scale,1.00000e-01,
Horizontal Position,0.0000000e+00,
Horizontal Mode,Roll Mode,
Waveform Last Dot Address,4000,
Sampling Period,4.00000e-04,
Firmware,V1.14,
Time, ,
Mode,Fast,
Waveform Data,
1,
1,
-1,
-1,
2,
2,
4,
4,
-1,
-1,
7,
22,
22,
22,
30,
30,
30,
18,
20,
4,
13,
42,
42,
59,
59,
59,
65,
65,
65,
65,
56,
17,
18,
4,
14,
39,
38,
53,
53,
53,
52,
52,
48,
48,
45,
45,
36,
23,
23,
10,
12,
0,
1,
1,
6,
6,
13,
13,
18,
18,
23,
23,
23,
23,
22,
22,
21,
21,
17,
17,
11,
11,
5,
5,
2,
2,
3,
3,
1,
1,
1,
1,
0,
0,
2,
2,
4,
4,
6,
6,
7,
7,
6,
6,
4,
4,
4,
4,
3,
3,
2,
2,
2,
2,
2,
2,
0,
0,
2,
2,
2,
2,
1,
1,
0,
0,
0,
0,
1,
1,
4,
4,
3,
3,
4,
4,
2,
2,
1,
1,
-1,
-1,
-1,
-1,
1,
1,
-1,
-1,
0,
0,
1,
1,
0,
0,
0,
0,
3,
3,
8,
8,
9,
9,
5,
5,
5,
5,
7,
19,
18,
18,
15,
15,
9,
9,
4,
4,
11,
11,
9,
9,
5,
5,
6,
6,
0,
0,
6,
17,
16,
28,
28,
28,
27,
12,
12,
0,
1,
1,
6,
6,
8,
8,
12,
12,
14,
14,
13,
13,
10,
10,
5,
5,
2,
2,
6,
6,
6,
6,
5,
5,
5,
5,
1,
1,
2,
2,
5,
5,
4,
4,
4,
4,
1,
1,
0,
0,
1,
1,
6,
6,
8,
8,
10,
10,
13,
13,
12,
12,
6,
6,
2,
2,
1,
1,
2,
2,
0,
0,
2,
2,
6,
6,
5,
5,
5,
5,
6,
6,
0,
0,
3,
3,
6,
6,
7,
7,
3,
3,
3,
3,
5,
5,
2,
2,
2,
2,
2,
2,
2,
2,
0,
0,
1,
1,
0,
0,
1,
1,
1,
1,
1,
1,
4,
4,
4,
4,
0,
0,
-1,
-1,
-1,
-1,
-1,
-1,
0,
0,
0,
0,
2,
2,
0,
13,
13,
13,
21,
10,
11,
-1,
0,
0,
9,
21,
21,
34,
33,
46,
45,
45,
45,
31,
32,
20,
21,
10,
10,
10,
11,
24,
23,
23,
29,
29,
37,
37,
46,
46,
43,
43,
36,
24,
25,
14,
14,
3,
3,
3,
6,
6,
14,
14,
20,
20,
22,
22,
21,
21,
19,
19,
17,
17,
15,
15,
14,
14,
10,
10,
6,
6,
1,
1,
1,
1,
2,
2,
3,
3,
2,
2,
0,
0,
1,
1,
1,
1,
2,
2,
4,
4,
6,
6,
7,
7,
9,
9,
7,
7,
10,
10,
2,
2,
7,
7,
13,
13,
14,
14,
9,
9,
5,
5,
-1,
-1,
1,
1,
0,
0,
0,
0,
2,
2,
6,
6,
8,
8,
6,
6,
4,
4,
3,
3,
4,
4,
4,
4,
2,
2,
3,
3,
3,
3,
-1,
-1,
7,
7,
14,
14,
22,
33,
33,
33,
41,
41,
29,
29,
30,
3,
5,
24,
23,
23,
29,
29,
30,
30,
32,
32,
31,
31,
31,
31,
24,
13,
14,
14,
9,
9,
2,
2,
2,
2,
11,
11,
17,
17,
18,
18,
15,
15,
13,
13,
11,
11,
9,
9,
10,
10,
10,
10,
7,
7,
10,
10,
8,
8,
1,
1,
0,
0,
0,
0,
4,
4,
8,
8,
13,
13,
13,
13,
10,
10,
9,
9,
8,
8,
5,
5,
0,
0,
5,
5,
9,
9,
6,
6,
4,
4,
6,
6,
6,
6,
2,
2,
1,
1,
1,
1,
0,
0,
0,
0,
1,
1,
5,
5,
6,
6,
4,
4,
0,
0,
4,
4,
10,
10,
7,
7,
3,
3,
1,
1,
5,
5,
7,
7,
1,
1,
4,
16,
15,
15,
19,
7,
7,
7,
4,
4,
13,
13,
20,
20,
28,
28,
29,
29,
21,
21,
12,
12,
6,
6,
0,
0,
5,
5,
12,
12,
14,
14,
14,
14,
12,
12,
11,
11,
9,
9,
9,
9,
9,
9,
7,
7,
6,
6,
5,
5,
1,
1,
2,
2,
3,
3,
4,
4,
5,
5,
5,
5,
5,
5,
5,
5,
3,
3,
1,
1,
1,
1,
0,
0,
0,
0,
-1,
-1,
0,
0,
0,
0,
2,
2,
0,
0,
5,
5,
9,
9,
10,
10,
9,
9,
6,
6,
1,
1,
5,
5,
6,
6,
7,
7,
4,
4,
1,
1,
2,
2,
-1,
-1,
3,
3,
6,
6,
7,
7,
6,
6,
5,
5,
2,
2,
-1,
-1,
3,
3,
5,
5,
6,
6,
6,
6,
6,
6,
5,
5,
2,
2,
2,
2,
6,
6,
6,
6,
0,
0,
-1,
-1,
1,
1,
-1,
-1,
0,
0,
2,
2,
1,
1,
8,
8,
10,
10,
9,
9,
3,
3,
0,
0,
-1,
-1,
0,
0,
0,
0,
0,
0,
3,
3,
9,
9,
16,
16,
20,
20,
14,
14,
8,
8,
10,
26,
25,
25,
29,
29,
24,
24,
15,
15,
8,
8,
1,
1,
9,
9,
13,
13,
18,
18,
18,
18,
18,
18,
12,
12,
6,
6,
0,
0,
3,
3,
6,
6,
8,
8,
6,
6,
5,
5,
7,
7,
8,
8,
6,
6,
2,
2,
2,
2,
2,
2,
0,
0,
0,
0,
0,
0,
1,
1,
2,
2,
1,
1,
1,
1,
6,
6,
9,
9,
9,
9,
6,
6,
2,
2,
1,
1,
0,
0,
3,
3,
13,
13,
18,
18,
14,
14,
14,
14,
12,
0,
1,
1,
9,
9,
15,
15,
16,
16,
15,
15,
14,
14,
10,
10,
6,
6,
0,
0,
2,
2,
5,
5,
8,
8,
3,
3,
0,
0,
-1,
-1,
3,
3,
1,
1,
0,
0,
1,
1,
5,
5,
12,
12,
13,
0,
5,
34,
33,
57,
57,
57,
54,
54,
52,
25,
26,
4,
8,
27,
26,
26,
33,
33,
34,
34,
33,
33,
33,
33,
36,
36,
34,
34,
25,
12,
12,
1,
3,
3,
10,
10,
11,
11,
13,
13,
16,
16,
18,
18,
18,
18,
17,
17,
16,
16,
9,
9,
2,
19,
18,
18,
18,
2,
3,
3,
2,
2,
7,
33,
33,
54,
53,
53,
50,
26,
26,
8,
8,
8,
2,
18,
17,
38,
37,
48,
47,
47,
44,
44,
36,
23,
25,
25,
20,
20,
14,
14,
6,
6,
1,
1,
6,
6,
13,
13,
18,
18,
21,
21,
22,
22,
25,
25,
22,
22,
17,
17,
12,
12,
7,
7,
3,
3,
0,
0,
4,
4,
6,
6,
7,
7,
7,
7,
10,
10,
12,
12,
10,
10,
9,
9,
6,
6,
1,
1,
0,
0,
2,
2,
5,
5,
9,
9,
10,
10,
2,
2,
6,
6,
6,
6,
4,
4,
1,
1,
1,
1,
5,
5,
9,
9,
9,
9,
3,
3,
0,
0,
-1,
-1,
-1,
-1,
-1,
-1,
0,
0,
2,
2,
1,
1,
-1,
-1,
0,
0,
-1,
-1,
0,
0,
1,
1,
4,
4,
5,
5,
2,
2,
0,
0,
0,
0,
1,
1,
2,
2,
2,
2,
0,
0,
6,
6,
15,
26,
25,
25,
22,
22,
13,
1,
5,
24,
23,
40,
40,
52,
51,
51,
54,
54,
52,
29,
29,
5,
6,
17,
17,
35,
33,
33,
31,
31,
31,
44,
43,
43,
45,
45,
38,
23,
23,
3,
4,
4,
10,
10,
13,
13,
13,
13,
15,
15,
14,
14,
12,
12,
6,
6,
3,
3,
4,
4,
1,
1,
5,
5,
14,
33,
33,
46,
46,
46,
46,
31,
31,
4,
5,
20,
18,
31,
30,
30,
39,
39,
37,
37,
29,
13,
13,
0,
0,
0,
2,
2,
9,
9,
6,
6,
2,
2,
0,
0,
2,
2,
7,
7,
12,
12,
15,
15,
14,
14,
9,
9,
5,
5,
2,
2,
1,
1,
2,
2,
0,
0,
-1,
-1,
1,
1,
1,
1,
-1,
-1,
1,
1,
0,
0,
-1,
-1,
1,
1,
2,
2,
3,
3,
0,
0,
1,
1,
1,
1,
2,
2,
2,
2,
2,
2,
7,
7,
4,
4,
1,
1,
2,
2,
2,
2,
1,
1,
0,
0,
0,
0,
0,
0,
0,
0,
1,
1,
2,
2,
2,
2,
2,
2,
2,
2,
0,
0,
2,
2,
5,
5,
4,
4,
3,
3,
0,
0,
0,
0,
0,
0,
8,
8,
4,
4,
5,
5,
4,
4,
1,
1,
0,
0,
1,
1,
3,
3,
3,
3,
0,
12,
11,
11,
20,
20,
22,
22,
16,
3,
3,
3,
9,
9,
14,
14,
10,
10,
9,
9,
8,
8,
9,
9,
10,
10,
9,
9,
5,
5,
1,
1,
2,
2,
5,
5,
3,
3,
1,
1,
5,
5,
6,
6,
4,
4,
2,
2,
2,
2,
2,
2,
1,
1,
5,
5,
7,
7,
4,
4,
1,
1,
4,
4,
4,
4,
2,
2,
2,
2,
5,
5,
8,
8,
3,
3,
9,
9,
17,
6,
7,
7,
10,
31,
30,
30,
25,
25,
17,
30,
30,
46,
45,
30,
30,
2,
2,
16,
15,
31,
31,
45,
45,
45,
52,
52,
45,
27,
27,
13,
13,
13,
5,
5,
4,
4,
10,
10,
14,
14,
19,
19,
20,
20,
13,
13,
6,
6,
7,
7,
9,
9,
10,
10,
9,
9,
8,
8,
11,
11,
8,
8,
7,
7,
4,
4,
0,
0,
1,
1,
2,
2,
1,
1,
5,
5,
10,
10,
16,
16,
17,
17,
12,
12,
9,
9,
8,
8,
6,
6,
3,
3,
1,
1,
6,
6,
8,
8,
6,
6,
6,
6,
6,
6,
6,
6,
5,
5,
3,
3,
2,
2,
4,
4,
3,
3,
2,
2,
4,
4,
6,
6,
2,
2,
0,
0,
2,
2,
9,
9,
13,
13,
14,
14,
10,
10,
5,
5,
0,
0,
6,
6,
12,
12,
17,
17,
17,
17,
13,
13,
7,
7,
1,
1,
3,
3,
6,
6,
10,
10,
11,
11,
6,
6,
1,
1,
0,
0,
3,
3,
3,
3,
1,
1,
2,
2,
1,
1,
6,
6,
7,
7,
9,
9,
8,
8,
2,
2,
5,
5,
12,
12,
14,
14,
6,
6,
0,
0,
1,
1,
7,
18,
17,
17,
25,
25,
34,
34,
32,
20,
20,
1,
2,
21,
20,
34,
34,
34,
33,
33,
24,
24,
20,
20,
18,
18,
13,
13,
5,
5,
0,
0,
3,
3,
6,
6,
7,
7,
9,
9,
12,
12,
14,
14,
13,
13,
13,
13,
16,
16,
16,
16,
9,
9,
2,
17,
15,
15,
24,
24,
18,
18,
9,
9,
4,
23,
22,
22,
26,
13,
13,
0,
2,
2,
6,
6,
2,
2,
2,
2,
7,
7,
7,
7,
4,
4,
2,
2,
5,
5,
7,
7,
6,
6,
4,
4,
3,
3,
0,
0,
1,
1,
3,
3,
2,
2,
10,
10,
14,
14,
14,
14,
11,
11,
6,
6,
4,
4,
4,
4,
3,
3,
0,
0,
0,
0,
0,
0,
-1,
-1,
1,
1,
-1,
-1,
0,
0,
-1,
-1,
9,
26,
26,
39,
38,
38,
42,
31,
32,
6,
7,
27,
27,
54,
53,
65,
64,
64,
65,
65,
66,
49,
49,
6,
7,
35,
34,
59,
58,
58,
64,
64,
55,
42,
42,
42,
36,
36,
30,
17,
18,
5,
6,
6,
3,
3,
13,
13,
18,
18,
24,
24,
26,
26,
24,
24,
16,
16,
14,
14,
11,
11,
9,
9,
9,
9,
5,
5,
1,
1,
2,
2,
2,
2,
1,
1,
4,
4,
5,
5,
6,
6,
7,
7,
10,
10,
10,
10,
7,
7,
2,
2,
0,
0,
1,
1,
5,
5,
1,
1,
0,
0,
4,
4,
9,
9,
8,
8,
0,
0,
6,
6,
11,
11,
12,
12,
10,
10,
8,
8,
6,
6,
14,
14,
14,
14,
9,
9,
2,
2,
-1,
-1,
3,
3,
2,
2,
0,
0,
0,
0,
1,
1,
5,
5,
6,
6,
2,
2,
2,
2,
8,
8,
14,
14,
15,
15,
16,
16,
6,
6,
7,
7,
15,
15,
11,
0,
3,
3,
6,
6,
8,
8,
3,
3,
1,
1,
7,
18,
17,
17,
15,
15,
18,
18,
25,
25,
21,
5,
6,
6,
8,
8,
18,
18,
23,
23,
24,
24,
20,
20,
13,
13,
9,
9,
6,
6,
1,
1,
6,
6,
9,
9,
9,
9,
8,
8,
9,
9,
6,
6,
6,
6,
5,
5,
5,
5,
8,
8,
8,
8,
2,
2,
8,
8,
14,
14,
11,
11,
9,
9,
9,
9,
4,
4,
1,
1,
10,
10,
15,
15,
16,
16,
20,
20,
24,
24,
21,
21,
11,
11,
4,
20,
20,
20,
26,
26,
23,
23,
18,
18,
19,
19,
17,
17,
10,
10,
7,
7,
3,
3,
1,
1,
5,
5,
14,
14,
14,
14,
18,
18,
18,
18,
17,
17,
13,
13,
5,
5,
2,
2,
2,
2,
0,
0,
5,
5,
6,
6,
1,
1,
2,
2,
0,
0,
2,
2,
4,
4,
9,
9,
12,
12,
12,
12,
13,
13,
10,
10,
3,
3,
4,
4,
12,
12,
10,
10,
8,
8,
5,
5,
1,
1,
1,
12,
12,
12,
19,
19,
18,
6,
7,
7,
2,
2,
-1,
-1,
1,
1,
7,
18,
17,
17,
17,
17,
14,
14,
21,
21,
26,
26,
18,
5,
5,
5,
14,
28,
28,
28,
30,
30,
27,
27,
27,
27,
25,
9,
10,
10,
6,
17,
16,
16,
18,
18,
13,
13,
10,
10,
6,
6,
2,
2,
2,
2,
3,
3,
1,
1,
5,
5,
1,
1,
5,
5,
14,
14,
7,
7,
3,
3,
1,
1,
10,
10,
15,
15,
20,
20,
23,
23,
20,
20,
10,
10,
1,
1,
4,
4,
4,
4,
2,
2,
2,
13,
12,
12,
20,
20,
18,
18,
13,
13,
12,
12,
12,
12,
4,
4,
5,
5,
10,
10,
13,
13,
20,
20,
22,
22,
15,
15,
9,
9,
4,
4,
2,
2,
3,
3,
3,
3,
6,
6,
14,
14,
22,
22,
28,
28,
23,
23,
20,
20,
11,
11,
5,
20,
20,
34,
34,
50,
50,
50,
47,
36,
37,
37,
35,
12,
12,
12,
10,
21,
20,
33,
33,
33,
41,
41,
45,
45,
40,
29,
30,
18,
19,
8,
9,
9,
2,
2,
3,
3,
9,
9,
14,
14,
14,
14,
20,
34,
33,
33,
34,
34,
30,
18,
18,
4,
4,
4,
2,
2,
8,
8,
10,
10,
9,
9,
7,
7,
6,
6,
4,
4,
4,
4,
5,
5,
3,
3,
2,
2,
0,
0,
-1,
-1,
0,
0,
2,
2,
2,
2,
2,
2,
-1,
-1,
-1,
-1,
-1,
-1,
1,
1,
-1,
-1,
0,
0,
-2,
-2,
2,
2,
1,
1,
1,
1,
2,
2,
10,
10,
12,
12,
6,
6,
2,
2,
2,
2,
12,
12,
17,
17,
21,
21,
18,
18,
10,
10,
1,
1,
2,
2,
5,
5,
1,
1,
2,
2,
1,
1,
6,
18,
18,
18,
22,
22,
21,
21,
15,
15,
8,
8,
4,
16,
16,
16,
20,
20,
18,
18,
18,
18,
14,
14,
8,
8,
2,
2,
0,
0,
0,
0,
5,
5,
10,
10,
13,
13,
14,
14,
9,
9,
2,
2,
-1,
-1,
1,
1,
2,
2,
5,
5,
8,
8,
8,
8,
5,
5,
1,
1,
2,
2,
1,
1,
0,
0,
0,
0,
0,
0,
1,
1,
2,
2,
0,
0,
-1,
-1,
0,
0,
-1,
-1,
0,
0,
0,
0,
2,
2,
0,
0,
7,
7,
5,
5,
0,
0,
-1,
-1,
1,
1,
5,
5,
1,
1,
3,
14,
14,
14,
18,
18,
13,
13,
6,
6,
3,
18,
18,
29,
28,
28,
30,
30,
21,
5,
6,
6,
3,
3,
1,
1,
1,
1,
2,
2,
6,
6,
13,
13,
19,
19,
20,
20,
16,
16,
13,
13,
9,
9,
5,
5,
-1,
-1,
6,
6,
12,
12,
9,
9,
7,
7,
8,
8,
8,
8,
6,
6,
6,
6,
9,
9,
9,
9,
8,
8,
6,
6,
0,
0,
8,
25,
24,
24,
27,
14,
14,
1,
5,
22,
22,
36,
36,
36,
42,
42,
41,
14,
14,
3,
14,
29,
29,
29,
31,
31,
32,
32,
29,
18,
18,
18,
13,
13,
11,
11,
6,
6,
1,
1,
6,
6,
10,
10,
12,
12,
13,
13,
14,
14,
17,
17,
15,
15,
13,
13,
7,
7,
2,
2,
2,
2,
3,
3,
3,
3,
2,
2,
0,
0,
0,
0,
2,
2,
5,
5,
12,
12,
17,
17,
21,
21,
16,
16,
13,
0,
1,
18,
17,
44,
44,
44,
50,
50,
52,
52,
52,
26,
26,
4,
8,
28,
28,
41,
40,
40,
45,
45,
41,
41,
35,
35,
27,
16,
17,
17,
9,
9,
1,
1,
7,
7,
11,
11,
15,
15,
18,
18,
18,
18,
16,
16,
14,
14,
10,
10,
4,
4,
2,
2,
6,
6,
9,
9,
14,
14,
11,
0,
1,
1,
10,
10,
14,
14,
16,
16,
21,
21,
16,
16,
6,
6,
2,
2,
6,
6,
10,
10,
12,
12,
6,
6,
3,
3,
3,
3,
0,
0,
3,
3,
6,
6,
5,
5,
2,
2,
11,
11,
11,
11,
4,
4,
3,
3,
4,
4,
0,
0,
3,
3,
7,
7,
12,
12,
13,
13,
13,
13,
11,
11,
7,
7,
0,
0,
1,
1,
3,
3,
7,
7,
9,
9,
10,
10,
8,
8,
6,
6,
5,
5,
1,
1,
1,
1,
0,
0,
2,
2,
2,
2,
2,
2,
2,
2,
5,
5,
10,
10,
13,
13,
10,
10,
9,
9,
5,
5,
1,
1,
1,
1,
6,
6,
8,
8,
5,
5,
6,
6,
7,
7,
7,
7,
5,
5,
2,
2,
2,
2,
0,
0,
3,
3,
1,
1,
-1,
-1,
0,
0,
3,
3,
7,
7,
10,
10,
13,
13,
12,
12,
6,
6,
5,
16,
16,
16,
18,
18,
12,
1,
2,
2,
2,
2,
9,
9,
15,
15,
18,
18,
15,
15,
8,
8,
4,
4,
3,
3,
2,
2,
10,
10,
12,
1,
6,
22,
22,
22,
26,
26,
31,
31,
31,
31,
26,
26,
18,
5,
6,
6,
5,
5,
12,
12,
20,
20,
25,
25,
29,
29,
26,
26,
16,
16,
10,
10,
7,
7,
0,
0,
-1,
-1,
5,
5,
6,
6,
6,
6,
5,
5,
0,
0,
2,
2,
7,
7,
13,
13,
18,
18,
17,
17,
14,
14,
12,
12,
10,
10,
8,
8,
4,
4,
0,
0,
6,
6,
13,
13,
15,
15,
10,
10,
6,
6,
6,
6,
2,
2,
0,
0,
1,
1,
4,
4,
2,
2,
1,
1,
0,
0,
1,
1,
5,
5,
4,
4,
2,
2,
-1,
-1,
-1,
-1,
0,
0,
0,
0,
1,
1,
-2,
-2,
1,
1,
0,
0,
1,
1,
0,
0,
-1,
-1,
1,
1,
4,
4,
2,
2,
0,
0,
5,
5,
10,
10,
9,
9,
1,
1,
-2,
-2,
-1,
-1,
1,
1,
1,
1,
1,
1,
1,
1,
2,
2,
3,
3,
0,
0,
-1,
-1,
-1,
-1,
-1,
-1,
-1,
-1,
0,
0,
0,
0,
1,
1,
6,
6,
5,
5,
1,
1,
2,
2,
1,
1,
2,
2,
4,
4,
6,
6,
0,
0,
4,
4,
6,
6,
6,
6,
7,
7,
10,
10,
13,
13,
9,
9,
1,
1,
6,
6,
14,
14,
22,
22,
24,
24,
22,
22,
13,
1,
2,
2,
4,
4,
11,
11,
19,
19,
24,
24,
25,
25,
31,
31,
27,
3,
4,
24,
24,
46,
46,
46,
54,
35,
36,
15,
15,
15,
6,
6,
1,
1,
10,
10,
18,
18,
26,
26,
31,
31,
29,
29,
20,
20,
14,
2,
3,
3,
6,
6,
8,
8,
7,
7,
11,
11,
14,
14,
17,
17,
26,
26,
29,
29,
27,
27,
18,
1,
1,
1,
11,
11,
20,
20,
21,
21,
17,
17,
13,
13,
15,
15,
14,
14,
9,
9,
5,
5,
0,
0,
2,
2,
9,
9,
17,
17,
14,
1,
2,
2,
9,
9,
14,
14,
10,
10,
6,
6,
5,
5,
14,
14,
20,
31,
30,
30,
30,
30,
25,
25,
23,
23,
21,
9,
9,
9,
7,
26,
25,
37,
36,
36,
38,
38,
36,
36,
34,
34,
26,
15,
16,
16,
10,
10,
2,
2,
7,
7,
10,
10,
12,
12,
12,
12,
8,
8,
9,
9,
16,
16,
21,
21,
22,
22,
18,
18,
14,
14,
10,
10,
9,
9,
10,
10,
11,
11,
2,
13,
13,
13,
21,
21,
20,
20,
13,
13,
14,
14,
15,
15,
14,
14,
12,
12,
6,
6,
1,
1,
0,
0,
1,
1,
5,
5,
7,
7,
8,
8,
7,
7,
6,
6,
5,
5,
6,
6,
6,
6,
5,
5,
5,
5,
1,
1,
-1,
-1,
0,
0,
-1,
-1,
0,
0,
0,
0,
1,
1,
-1,
-1,
0,
0,
0,
0,
1,
1,
2,
2,
5,
5,
7,
7,
5,
5,
1,
1,
1,
1,
5,
5,
8,
8,
9,
9,
7,
7,
0,
0,
2,
2,
5,
5,
8,
8,
11,
11,
10,
10,
5,
5,
0,
0,
2,
2,
5,
5,
7,
7,
8,
8,
10,
10,
14,
14,
18,
18,
14,
1,
2,
2,
12,
12,
16,
16,
24,
24,
31,
31,
37,
37,
28,
9,
10,
10,
18,
40,
40,
62,
61,
61,
64,
64,
64,
42,
43,
8,
8,
8,
16,
40,
40,
56,
55,
55,
62,
62,
64,
64,
57,
40,
40,
24,
24,
8,
8,
8,
3,
3,
11,
11,
19,
19,
26,
26,
30,
30,
27,
27,
23,
23,
18,
18,
17,
17,
20,
20,
23,
23,
25,
25,
20,
9,
10,
10,
4,
4,
2,
16,
16,
16,
26,
26,
26,
26,
25,
25,
23,
23,
18,
18,
13,
13,
6,
6,
0,
0,
6,
6,
8,
8,
8,
8,
5,
5,
3,
3,
1,
1,
4,
4,
8,
8,
12,
12,
10,
10,
6,
6,
1,
1,
1,
1,
4,
4,
6,
6,
7,
7,
4,
4,
0,
0,
-1,
-1,
5,
5,
4,
4,
1,
1,
1,
1,
1,
1,
4,
4,
2,
2,
1,
1,
-1,
-1,
-1,
-1,
0,
0,
1,
1,
2,
2,
3,
3,
4,
4,
4,
4,
2,
2,
2,
2,
5,
5,
6,
6,
6,
6,
4,
4,
6,
26,
25,
25,
31,
31,
27,
27,
18,
3,
3,
3,
12,
12,
20,
20,
21,
21,
14,
14,
6,
6,
2,
2,
1,
1,
1,
1,
0,
0,
2,
2,
5,
5,
2,
2,
2,
2,
1,
1,
2,
2,
2,
2,
2,
2,
2,
13,
13,
13,
20,
20,
20,
9,
10,
10,
7,
25,
25,
38,
37,
37,
44,
44,
42,
28,
29,
6,
6,
6,
15,
26,
26,
26,
33,
33,
38,
38,
37,
25,
26,
4,
5,
5,
11,
11,
20,
20,
16,
4,
5,
5,
2,
2,
6,
6,
7,
7,
3,
3,
8,
8,
17,
17,
17,
17,
20,
20,
11,
11,
3,
3,
5,
5,
5,
5,
0,
0,
3,
3,
9,
9,
12,
12,
12,
12,
14,
14,
14,
14,
12,
12,
10,
10,
4,
4,
1,
1,
2,
2,
2,
15,
15,
34,
33,
33,
31,
17,
18,
5,
6,
6,
6,
6,
10,
10,
10,
10,
5,
5,
3,
3,
10,
10,
16,
28,
26,
26,
26,
26,
18,
7,
8,
8,
3,
3,
0,
0,
5,
5,
7,
7,
8,
8,
7,
7,
6,
6,
6,
6,
7,
7,
8,
8,
6,
6,
5,
5,
3,
3,
3,
3,
0,
0,
4,
4,
6,
6,
8,
8,
5,
5,
2,
2,
0,
0,
0,
0,
0,
0,
2,
2,
2,
2,
-1,
-1,
1,
1,
0,
0,
3,
3,
3,
3,
5,
5,
5,
5,
1,
1,
2,
2,
5,
5,
1,
1,
0,
0,
7,
7,
9,
9,
2,
14,
14,
14,
19,
19,
11,
-1,
1,
1,
5,
5,
8,
8,
16,
16,
18,
18,
12,
12,
4,
4,
2,
2,
9,
9,
12,
12,
17,
17,
16,
16,
13,
13,
13,
13,
12,
1,
6,
21,
20,
20,
27,
27,
31,
31,
24,
24,
19,
19,
16,
16,
15,
15,
20,
4,
6,
32,
32,
32,
42,
42,
38,
38,
30,
16,
17,
6,
8,
8,
0,
0,
6,
6,
10,
10,
6,
6,
5,
5,
8,
8,
14,
14,
17,
17,
12,
0,
1,
1,
2,
2,
3,
3,
6,
6,
6,
6,
5,
5,
3,
17,
16,
16,
18,
18,
17,
17,
13,
13,
6,
6,
5,
5,
13,
13,
15,
15,
14,
14,
15,
15,
14,
14,
9,
9,
1,
1,
4,
4,
9,
9,
12,
12,
12,
12,
8,
8,
3,
3,
1,
1,
