EMG_S2/DS0028.CSV

Memory Length,4000,
Trigger Level,-4.80000e+02,
Source,CH1,
Probe,1.0X,
Vertical Units,V,
Vertical Scale,1.00000e+00,
Vertical Position,0.00000e+00,
Horizontal Units,S,
Horizontal Scale,1.00000e-01,
Horizontal Position,0.0000000e+00,
Horizontal Mode,Roll Mode,
Waveform Last Dot Address,4000,
Sampling Period,4.00000e-04,
Firmware,V1.14,
Time, ,
Mode,Fast,
Waveform Data,
16,
16,
17,
17,
16,
16,
14,
14,
9,
9,
5,
5,
1,
1,
-1,
-1,
0,
0,
3,
3,
6,
6,
7,
7,
6,
6,
4,
4,
2,
2,
4,
4,
3,
3,
0,
0,
5,
5,
10,
10,
8,
8,
6,
6,
2,
2,
0,
0,
2,
2,
6,
6,
7,
7,
2,
2,
4,
4,
6,
6,
2,
2,
6,
6,
13,
13,
13,
13,
7,
7,
4,
4,
0,
0,
2,
2,
4,
4,
10,
10,
10,
10,
11,
11,
15,
15,
17,
17,
15,
15,
6,
6,
7,
7,
7,
7,
3,
3,
12,
12,
14,
14,
14,
14,
16,
16,
15,
15,
14,
14,
12,
12,
8,
8,
3,
3,
5,
5,
9,
9,
12,
1,
2,
16,
14,
38,
38,
50,
49,
49,
52,
41,
42,
23,
24,
2,
5,
21,
21,
21,
20,
20,
15,
28,
27,
27,
35,
35,
31,
31,
24,
24,
14,
14,
6,
6,
1,
1,
10,
10,
16,
16,
25,
25,
20,
20,
14,
14,
9,
9,
1,
1,
3,
3,
3,
3,
1,
1,
0,
0,
1,
1,
0,
0,
2,
2,
2,
2,
2,
2,
0,
0,
2,
2,
4,
4,
10,
10,
12,
12,
10,
10,
1,
15,
14,
30,
30,
30,
32,
14,
14,
14,
6,
6,
2,
2,
10,
10,
18,
18,
22,
22,
23,
23,
17,
17,
9,
9,
4,
4,
6,
6,
8,
8,
12,
24,
23,
23,
29,
16,
17,
3,
4,
4,
0,
0,
3,
3,
1,
1,
7,
7,
15,
15,
15,
15,
6,
6,
6,
6,
9,
9,
12,
12,
10,
10,
2,
2,
2,
2,
6,
6,
10,
10,
6,
6,
4,
4,
4,
4,
7,
7,
10,
10,
13,
13,
6,
6,
0,
0,
2,
2,
6,
6,
2,
2,
4,
4,
2,
2,
2,
2,
2,
2,
7,
7,
5,
5,
2,
2,
2,
2,
4,
4,
1,
1,
1,
1,
6,
6,
5,
5,
0,
0,
-2,
-2,
1,
1,
5,
5,
8,
8,
4,
4,
2,
2,
4,
4,
5,
5,
6,
6,
1,
1,
6,
6,
14,
14,
14,
14,
12,
12,
10,
10,
8,
8,
6,
6,
3,
3,
0,
0,
1,
1,
1,
1,
6,
6,
7,
7,
2,
13,
13,
13,
19,
19,
24,
24,
17,
6,
6,
6,
3,
3,
3,
3,
2,
2,
3,
3,
5,
5,
8,
8,
6,
6,
2,
2,
1,
1,
5,
5,
11,
11,
14,
14,
8,
8,
4,
4,
2,
2,
7,
7,
7,
7,
0,
0,
1,
1,
2,
2,
-1,
-1,
1,
1,
2,
2,
6,
6,
6,
6,
2,
2,
5,
5,
10,
10,
11,
11,
5,
5,
2,
2,
8,
8,
4,
4,
2,
2,
5,
5,
4,
4,
2,
2,
1,
1,
6,
6,
5,
5,
-1,
-1,
2,
2,
11,
11,
14,
14,
5,
5,
3,
3,
5,
5,
1,
1,
6,
6,
7,
7,
11,
11,
11,
11,
6,
6,
-1,
-1,
0,
0,
1,
1,
0,
0,
-2,
-2,
0,
0,
5,
5,
5,
5,
6,
6,
4,
4,
0,
0,
1,
1,
2,
2,
8,
8,
10,
10,
4,
4,
0,
0,
2,
2,
3,
3,
2,
2,
3,
3,
2,
2,
6,
6,
6,
6,
6,
6,
1,
1,
1,
1,
4,
4,
7,
7,
9,
9,
6,
6,
6,
6,
5,
5,
4,
4,
-1,
-1,
2,
2,
1,
1,
0,
0,
8,
8,
10,
10,
7,
7,
6,
6,
4,
4,
1,
1,
2,
2,
11,
25,
25,
25,
30,
30,
23,
11,
12,
0,
1,
1,
10,
10,
17,
17,
19,
19,
22,
22,
18,
18,
12,
12,
12,
12,
8,
8,
9,
9,
12,
0,
1,
1,
7,
7,
12,
12,
18,
18,
19,
19,
17,
17,
13,
13,
9,
9,
5,
5,
1,
12,
12,
12,
14,
14,
7,
7,
6,
6,
5,
5,
7,
21,
21,
21,
29,
29,
29,
16,
16,
1,
2,
17,
17,
17,
25,
25,
25,
25,
18,
18,
16,
16,
12,
12,
6,
6,
1,
1,
6,
6,
9,
9,
9,
9,
6,
6,
0,
0,
1,
1,
1,
1,
1,
1,
-1,
-1,
7,
7,
10,
10,
9,
9,
5,
5,
0,
0,
0,
0,
-1,
-1,
0,
0,
5,
5,
5,
5,
12,
1,
2,
2,
9,
21,
21,
21,
26,
26,
24,
24,
14,
1,
4,
29,
29,
29,
37,
22,
22,
10,
11,
11,
8,
8,
14,
14,
10,
10,
3,
3,
10,
10,
13,
13,
13,
13,
10,
10,
5,
5,
3,
3,
2,
2,
2,
2,
2,
2,
0,
0,
3,
3,
5,
5,
1,
1,
2,
2,
3,
3,
3,
3,
0,
0,
3,
3,
1,
1,
4,
4,
10,
10,
6,
6,
0,
0,
4,
4,
0,
0,
2,
2,
2,
2,
2,
2,
1,
1,
0,
0,
2,
2,
4,
4,
10,
10,
10,
10,
7,
7,
4,
16,
15,
15,
12,
1,
2,
2,
0,
0,
6,
6,
10,
10,
8,
8,
13,
13,
9,
9,
1,
1,
6,
6,
9,
9,
11,
11,
12,
12,
9,
9,
6,
6,
8,
8,
6,
6,
4,
4,
2,
2,
0,
0,
4,
4,
11,
11,
10,
10,
9,
9,
4,
4,
2,
2,
10,
10,
9,
9,
2,
2,
5,
5,
7,
7,
4,
4,
2,
2,
2,
2,
8,
8,
6,
6,
6,
6,
0,
0,
10,
22,
21,
21,
28,
28,
29,
29,
20,
1,
2,
18,
16,
16,
26,
26,
29,
29,
28,
28,
20,
7,
7,
7,
2,
2,
0,
0,
3,
3,
6,
6,
10,
10,
12,
12,
14,
14,
16,
16,
9,
9,
2,
2,
9,
9,
13,
13,
13,
13,
12,
12,
10,
10,
2,
2,
11,
11,
16,
16,
17,
17,
25,
25,
28,
28,
26,
26,
24,
13,
14,
1,
5,
22,
21,
21,
30,
30,
31,
31,
28,
28,
23,
23,
18,
18,
12,
12,
5,
5,
0,
0,
2,
2,
7,
7,
10,
10,
14,
14,
15,
15,
14,
14,
14,
14,
13,
13,
9,
9,
5,
5,
0,
0,
5,
5,
7,
7,
5,
5,
1,
1,
2,
2,
5,
5,
5,
5,
0,
0,
3,
3,
1,
1,
1,
1,
9,
20,
19,
19,
22,
6,
7,
7,
4,
4,
11,
11,
14,
14,
14,
14,
12,
12,
10,
10,
11,
11,
6,
6,
1,
1,
5,
5,
3,
3,
1,
1,
1,
1,
1,
1,
0,
0,
4,
4,
4,
4,
4,
4,
7,
7,
12,
12,
14,
14,
10,
10,
5,
5,
1,
1,
2,
2,
6,
6,
9,
9,
12,
12,
20,
20,
20,
20,
13,
13,
10,
10,
8,
8,
4,
19,
19,
32,
32,
44,
44,
44,
51,
51,
43,
15,
15,
2,
8,
24,
23,
36,
35,
35,
35,
35,
29,
29,
26,
26,
21,
21,
13,
13,
5,
5,
7,
7,
14,
14,
13,
13,
4,
4,
2,
2,
5,
5,
6,
6,
5,
5,
7,
7,
8,
8,
6,
6,
6,
6,
3,
3,
4,
4,
5,
5,
2,
2,
-1,
-1,
6,
6,
9,
9,
4,
4,
0,
0,
4,
4,
6,
6,
2,
2,
5,
5,
1,
1,
2,
2,
2,
2,
2,
2,
8,
8,
6,
6,
-1,
-1,
3,
3,
4,
4,
2,
2,
-2,
-2,
5,
5,
11,
11,
10,
10,
2,
2,
0,
0,
2,
2,
4,
4,
2,
2,
1,
1,
2,
2,
0,
0,
6,
6,
10,
10,
6,
6,
2,
2,
2,
2,
1,
1,
11,
11,
14,
14,
7,
7,
8,
19,
18,
18,
26,
26,
29,
29,
22,
6,
6,
6,
6,
6,
11,
11,
6,
6,
5,
5,
2,
2,
1,
1,
2,
2,
6,
17,
17,
17,
22,
22,
15,
4,
5,
5,
1,
1,
1,
1,
6,
18,
17,
17,
23,
23,
18,
18,
10,
10,
2,
2,
3,
3,
5,
5,
6,
6,
9,
9,
9,
9,
4,
4,
0,
0,
1,
1,
6,
6,
11,
11,
12,
12,
10,
10,
2,
2,
9,
26,
26,
26,
30,
16,
17,
2,
4,
4,
11,
11,
18,
18,
14,
14,
11,
11,
7,
7,
0,
0,
1,
1,
3,
3,
9,
9,
9,
9,
4,
4,
1,
1,
2,
2,
1,
1,
6,
6,
15,
15,
20,
20,
15,
15,
10,
10,
3,
3,
4,
4,
9,
9,
11,
11,
13,
13,
14,
14,
10,
10,
2,
2,
8,
8,
8,
8,
8,
8,
10,
10,
6,
6,
0,
0,
6,
6,
10,
10,
12,
12,
16,
16,
19,
5,
5,
5,
3,
3,
9,
9,
9,
9,
6,
6,
6,
6,
1,
1,
2,
2,
0,
0,
1,
1,
2,
2,
3,
3,
4,
4,
5,
5,
4,
4,
-1,
-1,
8,
8,
12,
12,
5,
5,
1,
1,
-2,
-2,
1,
1,
2,
2,
-1,
-1,
2,
2,
4,
4,
1,
1,
2,
2,
3,
3,
10,
10,
10,
10,
2,
2,
4,
4,
6,
6,
10,
10,
13,
13,
11,
11,
2,
2,
4,
4,
12,
12,
15,
15,
18,
18,
15,
15,
5,
5,
6,
6,
15,
15,
10,
10,
3,
15,
14,
14,
9,
9,
1,
1,
7,
7,
10,
10,
7,
7,
4,
4,
2,
2,
4,
4,
10,
25,
25,
25,
21,
6,
7,
7,
2,
15,
14,
14,
19,
19,
17,
17,
18,
18,
18,
4,
4,
4,
4,
4,
5,
5,
0,
0,
8,
8,
7,
7,
2,
2,
6,
6,
11,
11,
12,
12,
13,
13,
6,
6,
1,
1,
8,
8,
14,
14,
15,
4,
4,
4,
4,
4,
6,
6,
2,
2,
10,
10,
14,
14,
14,
14,
5,
5,
2,
2,
6,
6,
8,
8,
11,
11,
11,
11,
6,
6,
5,
5,
4,
4,
3,
3,
11,
11,
20,
20,
18,
18,
11,
11,
1,
1,
0,
0,
2,
2,
3,
3,
4,
4,
0,
0,
4,
4,
1,
12,
10,
10,
15,
15,
10,
22,
22,
22,
30,
30,
29,
12,
12,
0,
2,
13,
12,
28,
28,
28,
38,
38,
35,
35,
10,
10,
10,
10,
6,
6,
13,
13,
18,
18,
27,
27,
32,
18,
18,
1,
1,
1,
0,
0,
5,
5,
5,
21,
20,
20,
25,
25,
23,
23,
21,
21,
21,
21,
18,
7,
7,
7,
10,
24,
24,
24,
31,
31,
32,
20,
21,
10,
10,
10,
4,
4,
2,
2,
6,
6,
1,
1,
3,
3,
5,
5,
7,
7,
1,
1,
7,
7,
8,
8,
8,
8,
11,
11,
10,
10,
8,
8,
9,
9,
10,
10,
9,
9,
2,
2,
5,
16,
16,
16,
18,
18,
14,
14,
10,
10,
4,
4,
4,
4,
3,
3,
-1,
-1,
2,
2,
-1,
-1,
0,
0,
7,
7,
9,
9,
5,
5,
6,
6,
9,
9,
11,
11,
7,
7,
7,
19,
17,
17,
24,
24,
30,
30,
21,
2,
2,
2,
11,
22,
22,
22,
21,
21,
20,
20,
18,
18,
13,
1,
3,
3,
9,
9,
7,
7,
5,
5,
14,
29,
28,
28,
28,
28,
21,
21,
13,
1,
1,
18,
18,
18,
26,
26,
21,
21,
11,
11,
10,
10,
14,
14,
12,
12,
3,
14,
13,
25,
24,
8,
8,
8,
8,
8,
16,
16,
11,
0,
1,
16,
15,
34,
33,
33,
32,
12,
13,
13,
5,
5,
2,
16,
16,
16,
21,
21,
15,
15,
14,
14,
13,
13,
6,
6,
6,
6,
14,
0,
2,
14,
13,
13,
14,
1,
2,
18,
18,
18,
26,
26,
27,
27,
33,
33,
37,
26,
26,
2,
3,
20,
19,
37,
36,
36,
37,
37,
32,
32,
26,
26,
24,
10,
10,
10,
1,
1,
3,
3,
5,
5,
8,
8,
2,
2,
12,
31,
30,
43,
42,
42,
45,
33,
34,
14,
14,
-1,
1,
1,
5,
5,
9,
9,
10,
10,
10,
10,
11,
11,
17,
17,
20,
20,
18,
18,
13,
13,
5,
5,
3,
3,
2,
2,
2,
2,
-1,
-1,
4,
4,
13,
13,
18,
18,
16,
16,
14,
14,
11,
11,
8,
8,
6,
6,
1,
1,
2,
2,
2,
2,
6,
6,
11,
11,
13,
13,
17,
6,
8,
8,
0,
0,
-1,
-1,
1,
1,
6,
6,
2,
14,
13,
13,
21,
21,
30,
30,
31,
10,
10,
-1,
1,
14,
14,
14,
21,
21,
15,
15,
10,
10,
14,
14,
8,
8,
6,
6,
7,
7,
2,
2,
0,
0,
0,
0,
2,
2,
3,
3,
6,
6,
13,
25,
24,
24,
24,
24,
19,
8,
8,
8,
6,
6,
10,
10,
12,
12,
16,
16,
22,
22,
23,
23,
14,
1,
5,
24,
24,
24,
32,
32,
22,
22,
19,
8,
8,
8,
2,
2,
7,
7,
10,
10,
12,
12,
7,
7,
0,
0,
2,
2,
2,
2,
2,
2,
6,
6,
12,
12,
4,
4,
0,
0,
2,
2,
6,
6,
5,
5,
5,
5,
8,
8,
3,
3,
6,
6,
13,
13,
15,
15,
7,
7,
6,
6,
10,
10,
14,
29,
28,
28,
22,
7,
7,
7,
9,
21,
21,
21,
18,
1,
3,
16,
14,
14,
22,
22,
26,
26,
28,
28,
20,
6,
6,
6,
0,
0,
8,
8,
14,
2,
4,
4,
8,
8,
13,
13,
9,
9,
1,
1,
2,
2,
7,
7,
10,
10,
8,
8,
8,
8,
9,
9,
3,
3,
2,
2,
4,
4,
10,
10,
6,
6,
8,
8,
1,
1,
11,
11,
17,
17,
17,
17,
15,
3,
4,
20,
19,
33,
32,
32,
26,
26,
18,
6,
6,
6,
6,
6,
15,
15,
20,
20,
21,
21,
18,
18,
10,
10,
5,
5,
2,
2,
2,
2,
4,
4,
0,
0,
5,
5,
7,
7,
9,
9,
11,
11,
15,
15,
16,
16,
14,
14,
12,
1,
2,
14,
14,
28,
28,
28,
30,
19,
20,
5,
5,
5,
1,
1,
9,
9,
18,
18,
26,
38,
37,
50,
49,
38,
38,
21,
21,
3,
6,
28,
27,
27,
36,
36,
34,
34,
34,
34,
33,
33,
31,
31,
21,
10,
10,
10,
2,
2,
2,
2,
9,
9,
9,
9,
10,
10,
14,
14,
15,
15,
15,
15,
15,
15,
9,
9,
9,
9,
10,
10,
10,
10,
18,
33,
32,
32,
30,
12,
13,
2,
13,
29,
28,
28,
26,
26,
24,
24,
23,
23,
23,
23,
20,
9,
10,
10,
2,
2,
0,
0,
2,
2,
0,
0,
0,
0,
4,
16,
15,
15,
19,
19,
14,
14,
6,
6,
1,
1,
2,
2,
9,
9,
17,
17,
15,
15,
7,
7,
1,
1,
7,
7,
13,
13,
11,
11,
9,
9,
11,
11,
10,
10,
7,
7,
8,
8,
6,
6,
4,
4,
1,
1,
1,
1,
6,
6,
8,
8,
6,
6,
1,
1,
0,
0,
-1,
-1,
2,
2,
6,
6,
10,
10,
7,
7,
6,
17,
16,
16,
21,
21,
15,
15,
5,
5,
2,
17,
17,
33,
32,
32,
36,
20,
20,
4,
10,
32,
32,
32,
27,
10,
11,
0,
2,
13,
13,
13,
15,
15,
18,
18,
18,
18,
9,
9,
1,
1,
7,
7,
3,
3,
5,
5,
12,
12,
10,
10,
3,
3,
13,
13,
21,
21,
25,
25,
26,
26,
25,
10,
10,
10,
2,
2,
-1,
-1,
0,
0,
4,
4,
1,
1,
1,
1,
2,
2,
0,
0,
1,
13,
12,
12,
15,
15,
11,
11,
11,
11,
19,
19,
16,
16,
8,
8,
0,
0,
5,
5,
5,
5,
10,
10,
14,
14,
10,
10,
10,
10,
9,
9,
5,
5,
6,
6,
10,
10,
11,
11,
9,
9,
1,
1,
3,
3,
11,
23,
22,
22,
26,
26,
27,
27,
20,
1,
2,
17,
16,
27,
26,
44,
44,
57,
56,
42,
42,
7,
7,
21,
21,
33,
32,
32,
30,
17,
18,
18,
11,
11,
6,
6,
12,
12,
14,
14,
12,
12,
6,
6,
4,
4,
8,
8,
12,
12,
13,
1,
2,
22,
22,
46,
46,
46,
52,
40,
40,
18,
19,
2,
4,
4,
1,
1,
9,
9,
18,
18,
17,
17,
11,
11,
7,
7,
10,
10,
8,
8,
0,
0,
2,
2,
7,
7,
4,
4,
-1,
-1,
0,
0,
5,
5,
11,
11,
12,
12,
19,
19,
26,
9,
10,
26,
25,
58,
57,
57,
53,
53,
50,
50,
48,
31,
32,
21,
22,
2,
3,
30,
30,
61,
60,
60,
64,
64,
56,
28,
28,
14,
14,
14,
12,
12,
6,
6,
3,
3,
10,
10,
14,
14,
17,
17,
22,
22,
26,
26,
21,
9,
10,
10,
0,
0,
0,
0,
8,
8,
1,
1,
8,
8,
6,
6,
2,
2,
7,
7,
12,
12,
15,
15,
7,
7,
5,
5,
10,
10,
10,
10,
6,
6,
4,
4,
2,
2,
0,
0,
3,
3,
6,
6,
7,
7,
9,
9,
6,
6,
0,
0,
2,
2,
5,
5,
4,
4,
4,
4,
5,
5,
5,
5,
6,
6,
5,
5,
2,
2,
3,
3,
3,
3,
0,
0,
-1,
-1,
2,
2,
4,
4,
2,
2,
5,
5,
2,
2,
1,
1,
-1,
-1,
-1,
-1,
0,
0,
0,
0,
2,
2,
6,
6,
5,
5,
2,
2,
1,
12,
12,
12,
17,
17,
20,
20,
24,
24,
24,
13,
13,
13,
5,
5,
32,
32,
32,
52,
52,
64,
64,
64,
64,
47,
48,
19,
19,
4,
12,
32,
32,
44,
44,
44,
45,
45,
38,
38,
41,
41,
48,
48,
49,
30,
30,
3,
4,
16,
16,
16,
24,
24,
30,
30,
31,
31,
39,
39,
42,
42,
35,
22,
23,
23,
14,
1,
5,
5,
13,
13,
13,
13,
7,
7,
6,
6,
8,
8,
8,
8,
10,
10,
14,
14,
17,
17,
9,
9,
16,
4,
6,
6,
2,
2,
7,
7,
14,
25,
24,
24,
24,
9,
9,
9,
1,
1,
4,
4,
9,
9,
10,
10,
5,
5,
-1,
-1,
0,
0,
4,
4,
4,
4,
8,
8,
9,
9,
12,
12,
16,
16,
11,
11,
3,
3,
12,
12,
15,
29,
29,
29,
34,
34,
33,
33,
37,
37,
38,
38,
30,
5,
5,
33,
32,
51,
49,
49,
49,
49,
47,
47,
40,
29,
30,
17,
18,
4,
5,
5,
4,
4,
10,
10,
15,
15,
21,
21,
23,
23,
25,
25,
21,
21,
15,
15,
6,
6,
4,
4,
5,
5,
3,
3,
4,
4,
1,
1,
0,
0,
5,
5,
8,
8,
14,
14,
15,
15,
11,
11,
2,
2,
6,
6,
10,
10,
8,
8,
10,
10,
13,
13,
14,
14,
10,
10,
10,
10,
11,
11,
7,
7,
1,
1,
5,
5,
15,
15,
17,
17,
14,
14,
8,
8,
3,
3,
2,
2,
-1,
-1,
0,
0,
2,
2,
3,
3,
0,
0,
8,
8,
9,
9,
8,
8,
1,
13,
13,
13,
18,
18,
23,
23,
26,
10,
10,
10,
19,
34,
33,
33,
36,
36,
31,
31,
26,
26,
20,
3,
4,
4,
7,
7,
14,
14,
20,
20,
22,
22,
21,
21,
27,
27,
31,
31,
29,
29,
29,
15,
16,
2,
10,
31,
30,
45,
45,
45,
45,
45,
37,
24,
25,
6,
6,
6,
12,
12,
15,
4,
4,
4,
12,
12,
21,
10,
10,
10,
9,
9,
16,
16,
17,
17,
19,
19,
22,
22,
21,
21,
14,
14,
7,
7,
6,
6,
4,
4,
8,
8,
10,
10,
13,
13,
14,
14,
20,
20,
18,
18,
10,
10,
0,
0,
2,
2,
1,
1,
6,
6,
2,
2,
3,
3,
4,
15,
14,
14,
18,
1,
2,
17,
16,
16,
24,
24,
28,
28,
25,
25,
19,
19,
12,
0,
2,
2,
9,
9,
13,
13,
11,
0,
2,
2,
6,
6,
3,
3,
8,
22,
21,
21,
27,
27,
22,
10,
10,
10,
2,
2,
3,
3,
11,
11,
12,
12,
7,
7,
1,
1,
4,
4,
1,
1,
4,
4,
4,
4,
5,
5,
4,
4,
0,
0,
0,
0,
6,
6,
10,
10,
10,
10,
3,
3,
2,
13,
13,
13,
18,
18,
15,
15,
13,
13,
17,
17,
18,
2,
3,
3,
11,
11,
15,
15,
18,
18,
17,
17,
15,
15,
8,
8,
7,
7,
6,
6,
2,
2,
4,
4,
4,
4,
4,
4,
9,
9,
10,
10,
8,
8,
5,
5,
2,
2,
2,
2,
2,
2,
10,
10,
11,
11,
3,
15,
14,
14,
18,
18,
9,
9,
1,
1,
1,
1,
8,
19,
18,
18,
18,
1,
2,
2,
10,
10,
16,
16,
12,
12,
17,
17,
12,
1,
7,
7,
16,
16,
16,
16,
12,
1,
2,
2,
1,
1,
3,
3,
5,
5,
5,
5,
1,
1,
6,
6,
14,
14,
17,
17,
14,
1,
2,
2,
8,
22,
22,
22,
31,
31,
30,
30,
24,
1,
2,
2,
10,
10,
16,
16,
16,
16,
12,
12,
5,
5,
5,
5,
8,
8,
3,
3,
6,
6,
5,
5,
6,
6,
4,
4,
1,
1,
2,
2,
0,
15,
14,
28,
28,
28,
28,
13,
13,
1,
1,
1,
2,
2,
6,
17,
15,
15,
5,
5,
0,
0,
2,
2,
6,
6,
16,
16,
25,
25,
24,
24,
18,
2,
5,
5,
13,
13,
16,
16,
13,
2,
4,
4,
1,
1,
4,
4,
6,
6,
0,
0,
4,
4,
6,
6,
5,
5,
1,
1,
5,
5,
6,
6,
8,
8,
10,
10,
10,
10,
6,
6,
2,
2,
11,
11,
10,
10,
5,
5,
8,
8,
16,
16,
15,
15,
10,
10,
7,
7,
7,
7,
7,
7,
2,
2,
10,
21,
21,
21,
18,
18,
16,
16,
14,
14,
12,
12,
3,
3,
2,
2,
2,
2,
0,
0,
2,
2,
2,
2,
1,
1,
0,
0,
5,
5,
6,
6,
9,
9,
16,
16,
18,
18,
14,
14,
10,
10,
13,
2,
3,
3,
8,
8,
16,
16,
13,
13,
10,
10,
7,
7,
6,
6,
14,
14,
5,
5,
1,
1,
6,
6,
9,
9,
12,
12,
9,
9,
6,
6,
7,
26,
26,
37,
36,
36,
35,
22,
22,
2,
2,
2,
9,
9,
14,
14,
13,
13,
6,
6,
0,
0,
4,
4,
6,
6,
9,
9,
9,
9,
10,
10,
9,
9,
5,
5,
2,
2,
0,
0,
1,
1,
-1,
-1,
1,
1,
1,
1,
4,
4,
12,
12,
14,
1,
3,
3,
1,
1,
1,
1,
5,
17,
16,
35,
34,
34,
42,
42,
36,
21,
22,
2,
4,
26,
25,
50,
50,
62,
61,
49,
50,
31,
32,
16,
17,
0,
2,
2,
6,
6,
11,
11,
9,
21,
20,
37,
36,
36,
41,
41,
37,
26,
27,
15,
15,
15,
6,
6,
1,
1,
5,
16,
15,
15,
24,
24,
26,
26,
25,
25,
21,
21,
13,
2,
3,
3,
9,
9,
10,
10,
5,
5,
6,
20,
20,
31,
30,
30,
28,
28,
21,
2,
3,
15,
14,
25,
24,
24,
27,
27,
26,
26,
22,
22,
23,
23,
19,
7,
7,
7,
2,
2,
8,
8,
10,
10,
11,
11,
10,
10,
9,
9,
5,
5,
6,
6,
8,
8,
5,
5,
2,
2,
1,
1,
2,
2,
0,
0,
2,
2,
4,
4,
5,
5,
2,
2,
2,
2,
4,
4,
3,
3,
2,
2,
5,
5,
6,
6,
5,
5,
3,
3,
7,
7,
10,
10,
10,
10,
6,
6,
0,
0,
2,
2,
2,
2,
2,
2,
9,
21,
20,
31,
31,
31,
38,
38,
28,
9,
10,
10,
1,
1,
5,
16,
16,
28,
27,
27,
29,
29,
25,
25,
21,
21,
18,
4,
5,
5,
2,
2,
9,
9,
14,
14,
16,
16,
6,
6,
1,
1,
10,
10,
13,
1,
2,
2,
8,
21,
20,
20,
29,
29,
21,
21,
17,
17,
8,
8,
1,
1,
7,
7,
10,
10,
4,
4,
5,
5,
3,
3,
3,
20,
20,
20,
28,
28,
18,
6,
6,
6,
10,
21,
20,
8,
8,
8,
8,
8,
17,
17,
18,
18,
9,
9,
5,
5,
12,
12,
16,
16,
15,
15,
8,
8,
4,
4,
12,
12,
20,
20,
14,
1,
2,
15,
14,
35,
35,
46,
46,
46,
40,
29,
29,
29,
21,
2,
2,
22,
22,
34,
33,
33,
38,
38,
38,
38,
31,
31,
22,
8,
9,
9,
2,
2,
4,
4,
1,
1,
2,
2,
0,
0,
4,
4,
7,
7,
12,
12,
