EMG_S2/DS0066.CSV

Memory Length,4000,
Trigger Level,-4.80000e+02,
Source,CH1,
Probe,1.0X,
Vertical Units,V,
Vertical Scale,1.00000e+00,
Vertical Position,0.00000e+00,
Horizontal Units,S,
Horizontal Scale,1.00000e-01,
Horizontal Position,0.0000000e+00,
Horizontal Mode,Roll Mode,
Waveform Last Dot Address,4000,
Sampling Period,4.00000e-04,
Firmware,V1.14,
Time, ,
Mode,Fast,
Waveform Data,
29,
29,
26,
14,
15,
15,
48,
63,
62,
62,
63,
63,
64,
64,
64,
64,
54,
25,
25,
12,
13,
13,
10,
10,
2,
23,
23,
43,
42,
58,
58,
27,
27,
1,
4,
19,
18,
18,
24,
24,
16,
2,
7,
30,
29,
59,
59,
59,
63,
41,
42,
10,
10,
10,
5,
5,
4,
4,
2,
17,
15,
31,
31,
31,
34,
52,
51,
35,
37,
37,
36,
16,
17,
5,
5,
5,
6,
28,
28,
45,
44,
44,
35,
16,
17,
17,
9,
9,
7,
7,
3,
3,
0,
0,
4,
16,
15,
15,
14,
1,
6,
6,
10,
10,
18,
18,
27,
59,
26,
49,
45,
9,
11,
38,
22,
58,
58,
25,
44,
44,
28,
59,
59,
38,
57,
57,
62,
47,
47,
23,
23,
2,
3,
3,
12,
12,
18,
18,
26,
26,
34,
34,
34,
34,
27,
14,
14,
1,
1,
1,
7,
19,
18,
6,
7,
7,
4,
4,
7,
7,
6,
6,
4,
4,
3,
16,
15,
29,
28,
28,
32,
32,
23,
4,
10,
10,
19,
5,
6,
6,
1,
1,
0,
12,
12,
27,
26,
15,
15,
1,
2,
2,
9,
9,
15,
15,
14,
14,
21,
21,
27,
27,
24,
24,
20,
31,
30,
30,
29,
9,
10,
23,
22,
60,
60,
60,
64,
64,
64,
53,
54,
7,
7,
36,
36,
51,
50,
50,
53,
53,
50,
38,
39,
24,
24,
24,
17,
17,
13,
13,
10,
30,
24,
5,
18,
34,
33,
33,
30,
30,
20,
20,
16,
16,
15,
53,
17,
36,
22,
53,
20,
57,
57,
29,
16,
46,
46,
46,
43,
43,
35,
12,
12,
12,
14,
36,
36,
57,
56,
56,
62,
62,
56,
43,
61,
61,
62,
62,
63,
52,
53,
26,
26,
2,
3,
18,
17,
29,
28,
28,
32,
32,
31,
31,
29,
29,
32,
32,
26,
9,
10,
10,
9,
9,
12,
12,
10,
10,
2,
15,
15,
30,
29,
50,
50,
50,
58,
58,
53,
35,
36,
5,
6,
32,
32,
32,
40,
40,
38,
38,
31,
31,
25,
25,
18,
18,
11,
11,
1,
1,
7,
7,
8,
8,
8,
8,
9,
9,
16,
16,
23,
23,
25,
25,
17,
2,
4,
4,
1,
1,
6,
6,
13,
13,
19,
19,
11,
11,
3,
3,
-1,
-1,
2,
2,
5,
5,
10,
10,
15,
15,
13,
13,
12,
12,
6,
6,
5,
5,
12,
12,
9,
9,
5,
5,
4,
4,
2,
2,
4,
4,
11,
11,
20,
20,
26,
13,
14,
14,
6,
6,
7,
22,
22,
36,
35,
35,
42,
42,
33,
33,
29,
9,
9,
9,
6,
6,
8,
8,
18,
36,
35,
35,
36,
36,
28,
11,
12,
1,
6,
6,
13,
13,
8,
8,
8,
8,
7,
7,
9,
9,
9,
9,
5,
5,
1,
1,
4,
4,
3,
3,
5,
5,
10,
10,
11,
11,
5,
5,
-1,
-1,
2,
2,
0,
0,
4,
4,
4,
4,
3,
3,
11,
11,
19,
19,
22,
22,
17,
6,
6,
6,
6,
21,
20,
20,
27,
27,
20,
1,
1,
12,
11,
34,
34,
34,
35,
9,
10,
10,
9,
9,
19,
19,
19,
19,
14,
14,
9,
9,
5,
5,
0,
0,
5,
5,
3,
3,
2,
2,
3,
3,
4,
4,
-1,
-1,
1,
1,
0,
0,
2,
2,
7,
7,
6,
6,
5,
5,
2,
2,
0,
0,
1,
1,
2,
2,
4,
4,
5,
5,
4,
4,
2,
2,
6,
6,
8,
8,
5,
5,
1,
1,
2,
2,
6,
6,
8,
8,
2,
2,
9,
9,
14,
14,
8,
8,
6,
6,
11,
11,
2,
2,
6,
6,
2,
2,
1,
1,
2,
2,
2,
2,
6,
6,
8,
8,
5,
5,
1,
1,
-1,
-1,
2,
2,
2,
2,
2,
2,
7,
7,
13,
13,
14,
14,
13,
13,
10,
10,
1,
1,
10,
10,
18,
18,
21,
21,
26,
26,
22,
11,
11,
11,
4,
4,
4,
4,
4,
4,
12,
32,
32,
32,
34,
34,
28,
16,
17,
1,
4,
4,
0,
0,
0,
0,
2,
2,
1,
1,
3,
3,
9,
24,
23,
23,
31,
31,
39,
39,
45,
45,
37,
4,
4,
17,
17,
17,
21,
21,
20,
20,
24,
24,
31,
31,
31,
31,
29,
29,
25,
25,
18,
5,
5,
5,
9,
21,
20,
20,
28,
28,
28,
28,
25,
25,
22,
22,
18,
18,
8,
8,
2,
2,
12,
12,
13,
13,
15,
15,
21,
21,
16,
0,
1,
1,
8,
20,
19,
19,
19,
19,
12,
12,
8,
8,
5,
5,
1,
1,
0,
0,
1,
1,
1,
1,
7,
7,
10,
10,
11,
11,
12,
12,
10,
10,
7,
7,
6,
6,
5,
5,
2,
2,
0,
0,
0,
0,
0,
0,
2,
2,
7,
7,
12,
12,
17,
17,
18,
18,
20,
20,
12,
12,
10,
26,
26,
26,
30,
30,
21,
3,
5,
29,
29,
29,
37,
25,
26,
26,
24,
24,
28,
9,
9,
9,
6,
26,
25,
37,
37,
37,
32,
16,
17,
17,
13,
13,
17,
17,
16,
16,
11,
11,
6,
6,
1,
1,
3,
3,
10,
10,
16,
16,
16,
16,
17,
17,
10,
10,
12,
12,
10,
10,
7,
7,
14,
14,
18,
18,
12,
1,
2,
2,
9,
9,
2,
2,
6,
6,
9,
9,
6,
6,
10,
29,
28,
28,
31,
31,
30,
30,
26,
26,
17,
17,
15,
15,
6,
6,
11,
24,
23,
23,
30,
43,
42,
55,
54,
54,
45,
15,
16,
3,
10,
26,
25,
25,
29,
29,
26,
26,
22,
22,
15,
15,
10,
10,
8,
8,
4,
4,
0,
0,
2,
2,
7,
7,
9,
9,
1,
1,
9,
9,
10,
10,
12,
1,
2,
19,
19,
35,
34,
34,
42,
42,
43,
24,
25,
10,
10,
10,
1,
17,
16,
28,
27,
27,
22,
22,
19,
19,
25,
25,
21,
21,
11,
11,
3,
3,
1,
1,
-1,
-1,
0,
0,
0,
0,
1,
1,
7,
7,
6,
6,
2,
2,
-1,
-1,
4,
4,
9,
9,
9,
9,
7,
7,
6,
6,
4,
4,
2,
2,
9,
9,
15,
1,
2,
2,
7,
7,
6,
29,
29,
29,
21,
3,
7,
19,
18,
18,
25,
25,
30,
30,
32,
32,
29,
12,
12,
0,
2,
2,
11,
11,
14,
14,
7,
7,
4,
4,
2,
2,
10,
10,
6,
6,
15,
39,
39,
39,
40,
18,
18,
6,
7,
7,
11,
11,
2,
21,
36,
36,
34,
34,
30,
30,
22,
5,
5,
19,
18,
42,
41,
41,
37,
7,
8,
8,
9,
9,
14,
14,
18,
18,
22,
22,
18,
18,
10,
10,
16,
16,
18,
18,
13,
13,
6,
6,
2,
16,
15,
36,
34,
51,
51,
51,
50,
30,
30,
4,
6,
26,
26,
26,
28,
28,
23,
23,
18,
6,
6,
6,
6,
6,
8,
8,
4,
4,
3,
15,
15,
15,
21,
2,
3,
24,
24,
41,
40,
40,
40,
21,
21,
2,
4,
22,
21,
21,
30,
30,
32,
20,
21,
1,
2,
14,
14,
14,
12,
12,
3,
3,
5,
5,
6,
6,
14,
14,
8,
8,
2,
2,
1,
1,
9,
9,
1,
13,
13,
35,
33,
44,
43,
43,
36,
21,
21,
2,
6,
24,
24,
24,
27,
27,
24,
24,
15,
15,
11,
11,
8,
8,
5,
5,
4,
4,
7,
7,
15,
26,
26,
26,
30,
19,
20,
7,
8,
8,
11,
53,
53,
65,
64,
64,
66,
66,
65,
46,
46,
7,
12,
56,
55,
55,
63,
63,
63,
63,
64,
45,
46,
22,
22,
10,
10,
10,
2,
13,
13,
13,
16,
16,
14,
14,
14,
14,
15,
15,
12,
12,
12,
12,
14,
14,
14,
14,
10,
10,
3,
20,
19,
19,
26,
10,
11,
11,
8,
8,
10,
10,
13,
27,
27,
38,
38,
22,
23,
1,
3,
3,
-1,
-1,
2,
2,
7,
7,
8,
8,
17,
33,
32,
32,
36,
24,
24,
11,
12,
1,
2,
2,
2,
2,
2,
2,
2,
2,
6,
6,
9,
9,
14,
26,
25,
38,
37,
37,
33,
20,
21,
21,
24,
5,
9,
37,
37,
37,
38,
15,
16,
3,
12,
30,
30,
30,
24,
4,
10,
28,
28,
14,
14,
0,
1,
14,
13,
13,
18,
18,
20,
20,
20,
20,
12,
0,
1,
1,
6,
6,
0,
0,
3,
3,
1,
1,
5,
5,
11,
30,
30,
49,
49,
49,
44,
19,
19,
1,
1,
14,
14,
14,
4,
38,
38,
61,
61,
44,
44,
6,
8,
35,
34,
57,
57,
57,
63,
63,
64,
64,
56,
44,
44,
44,
38,
27,
28,
14,
14,
14,
18,
53,
53,
64,
64,
50,
51,
30,
31,
31,
27,
15,
15,
0,
0,
0,
1,
20,
19,
36,
34,
48,
47,
47,
42,
13,
14,
35,
34,
61,
60,
60,
64,
64,
55,
55,
46,
46,
37,
24,
25,
9,
10,
10,
8,
28,
28,
39,
38,
25,
26,
9,
10,
10,
2,
17,
16,
16,
22,
22,
18,
18,
21,
21,
26,
26,
23,
23,
16,
1,
4,
24,
24,
35,
34,
22,
22,
22,
15,
15,
15,
15,
14,
14,
8,
8,
3,
3,
5,
5,
4,
4,
1,
1,
1,
1,
7,
7,
1,
12,
10,
30,
30,
45,
45,
45,
42,
22,
22,
4,
5,
5,
2,
17,
17,
34,
33,
33,
38,
38,
44,
57,
57,
34,
34,
6,
11,
53,
52,
64,
63,
63,
64,
64,
64,
33,
33,
6,
15,
44,
44,
56,
54,
54,
54,
54,
47,
33,
35,
35,
26,
26,
20,
20,
12,
0,
2,
2,
8,
8,
12,
12,
11,
11,
13,
13,
11,
11,
9,
9,
11,
11,
13,
13,
14,
14,
16,
16,
14,
14,
11,
11,
14,
31,
31,
31,
38,
6,
6,
27,
27,
27,
21,
5,
6,
6,
8,
8,
17,
17,
18,
18,
25,
25,
28,
28,
26,
15,
17,
5,
5,
5,
3,
3,
11,
11,
6,
6,
2,
2,
1,
13,
13,
13,
22,
22,
23,
23,
20,
20,
16,
16,
13,
13,
10,
10,
2,
2,
0,
0,
1,
1,
3,
3,
13,
25,
25,
25,
27,
27,
18,
5,
5,
20,
20,
34,
33,
18,
18,
5,
5,
5,
7,
7,
6,
6,
2,
2,
1,
1,
0,
0,
9,
24,
23,
23,
25,
25,
22,
22,
18,
18,
10,
10,
3,
3,
2,
2,
0,
0,
0,
14,
14,
29,
29,
18,
19,
3,
4,
4,
3,
22,
22,
22,
27,
27,
26,
26,
26,
13,
14,
14,
5,
5,
2,
22,
22,
36,
36,
36,
38,
38,
43,
43,
39,
39,
30,
19,
20,
8,
9,
9,
1,
1,
9,
20,
19,
19,
28,
28,
29,
29,
24,
24,
22,
22,
20,
20,
12,
1,
1,
1,
2,
2,
3,
3,
1,
1,
-1,
-1,
0,
0,
7,
7,
9,
9,
1,
1,
3,
3,
2,
13,
12,
12,
12,
1,
2,
2,
8,
8,
4,
17,
16,
16,
23,
23,
18,
1,
3,
3,
10,
10,
5,
5,
0,
0,
-1,
-1,
5,
22,
22,
35,
34,
34,
34,
14,
15,
0,
2,
2,
8,
8,
14,
14,
16,
16,
15,
15,
18,
18,
19,
19,
14,
14,
8,
8,
1,
1,
9,
9,
14,
14,
9,
9,
4,
4,
4,
4,
8,
8,
10,
10,
12,
12,
9,
9,
3,
3,
1,
1,
4,
4,
5,
5,
5,
5,
10,
10,
13,
13,
6,
6,
-1,
-1,
0,
0,
4,
4,
2,
2,
8,
8,
10,
10,
10,
10,
14,
14,
8,
8,
2,
2,
4,
4,
6,
6,
2,
2,
8,
8,
11,
11,
9,
9,
6,
6,
3,
3,
9,
9,
18,
18,
21,
10,
10,
10,
2,
2,
10,
26,
25,
25,
30,
30,
25,
10,
10,
10,
3,
3,
12,
12,
12,
12,
2,
2,
8,
8,
17,
17,
20,
20,
11,
11,
4,
4,
6,
6,
5,
5,
12,
12,
18,
18,
18,
18,
12,
12,
8,
8,
5,
5,
3,
3,
4,
4,
2,
2,
1,
1,
10,
22,
22,
22,
28,
28,
30,
13,
13,
0,
1,
1,
7,
7,
7,
7,
0,
0,
4,
4,
2,
2,
6,
22,
21,
32,
32,
32,
30,
30,
21,
3,
7,
24,
23,
9,
9,
9,
0,
14,
14,
46,
45,
63,
63,
63,
57,
24,
24,
2,
6,
26,
26,
39,
39,
39,
34,
34,
32,
32,
38,
38,
40,
40,
33,
20,
20,
3,
3,
3,
10,
10,
14,
14,
17,
17,
19,
19,
20,
20,
19,
19,
16,
16,
10,
10,
8,
8,
6,
6,
5,
5,
4,
4,
0,
0,
0,
0,
2,
2,
8,
8,
7,
7,
5,
5,
0,
0,
0,
0,
9,
9,
12,
12,
5,
5,
2,
2,
-1,
-1,
3,
3,
6,
6,
10,
10,
5,
5,
8,
8,
15,
15,
10,
10,
7,
7,
2,
2,
1,
1,
-1,
-1,
1,
1,
5,
5,
9,
9,
10,
10,
10,
10,
9,
9,
6,
6,
2,
2,
-1,
-1,
0,
0,
0,
0,
-1,
-1,
-1,
-1,
2,
2,
5,
5,
5,
5,
2,
2,
0,
0,
3,
3,
5,
5,
6,
6,
4,
4,
0,
0,
4,
4,
6,
6,
9,
9,
6,
6,
4,
17,
16,
16,
18,
7,
8,
8,
6,
6,
8,
8,
6,
6,
1,
1,
6,
6,
10,
10,
9,
9,
9,
9,
10,
10,
6,
6,
1,
1,
2,
2,
7,
7,
10,
10,
6,
6,
0,
0,
10,
27,
27,
27,
35,
35,
38,
38,
33,
17,
18,
3,
4,
4,
10,
10,
19,
19,
26,
26,
32,
32,
32,
32,
30,
30,
23,
12,
12,
1,
2,
2,
9,
23,
23,
23,
31,
31,
27,
11,
12,
1,
4,
15,
14,
14,
12,
1,
3,
18,
18,
18,
20,
20,
26,
26,
20,
5,
5,
5,
0,
0,
3,
3,
12,
12,
8,
8,
2,
2,
0,
15,
15,
15,
24,
24,
21,
21,
13,
13,
9,
9,
4,
4,
-1,
-1,
0,
0,
2,
2,
8,
8,
14,
14,
10,
10,
1,
18,
18,
44,
44,
64,
64,
64,
65,
65,
65,
20,
20,
5,
16,
42,
41,
56,
56,
56,
58,
58,
53,
53,
44,
32,
33,
20,
20,
8,
8,
8,
3,
3,
9,
9,
10,
10,
9,
9,
15,
15,
21,
21,
24,
24,
24,
24,
24,
24,
20,
9,
9,
9,
2,
2,
2,
2,
5,
5,
9,
9,
10,
10,
6,
6,
5,
5,
2,
2,
1,
1,
3,
3,
2,
2,
6,
6,
9,
9,
11,
11,
6,
6,
0,
0,
1,
1,
3,
3,
5,
5,
2,
2,
-2,
-2,
0,
0,
-1,
-1,
5,
5,
12,
29,
29,
29,
23,
3,
6,
21,
20,
20,
22,
22,
20,
20,
30,
30,
24,
6,
6,
6,
6,
17,
16,
41,
41,
63,
62,
62,
64,
50,
50,
15,
16,
35,
35,
48,
46,
46,
44,
44,
49,
49,
46,
46,
37,
24,
25,
12,
12,
1,
1,
1,
6,
6,
7,
7,
8,
8,
14,
14,
14,
14,
10,
10,
20,
32,
32,
32,
37,
37,
38,
38,
29,
8,
8,
8,
7,
7,
10,
10,
13,
13,
18,
18,
22,
22,
25,
25,
27,
27,
24,
24,
18,
18,
13,
2,
3,
3,
10,
21,
20,
20,
22,
22,
13,
26,
26,
48,
48,
30,
30,
2,
3,
14,
14,
14,
15,
15,
11,
11,
7,
7,
10,
10,
14,
14,
14,
14,
7,
7,
2,
2,
4,
4,
6,
6,
8,
8,
9,
9,
12,
12,
9,
9,
1,
1,
2,
25,
24,
51,
50,
64,
63,
39,
40,
21,
21,
21,
14,
2,
6,
26,
26,
26,
34,
34,
34,
34,
30,
30,
22,
22,
14,
14,
5,
5,
2,
2,
8,
8,
7,
7,
2,
13,
13,
13,
16,
16,
12,
12,
15,
15,
21,
21,
17,
17,
8,
8,
5,
5,
12,
12,
12,
12,
8,
8,
3,
3,
6,
6,
14,
14,
20,
20,
11,
-1,
-1,
-1,
4,
4,
1,
1,
2,
2,
9,
9,
14,
14,
20,
20,
14,
2,
9,
29,
28,
28,
29,
12,
12,
1,
5,
5,
12,
12,
14,
14,
20,
20,
17,
6,
6,
6,
0,
0,
1,
1,
10,
10,
16,
16,
10,
10,
3,
3,
2,
2,
4,
16,
16,
39,
39,
39,
47,
47,
47,
47,
49,
49,
41,
21,
21,
4,
10,
35,
34,
50,
49,
49,
58,
58,
56,
56,
53,
39,
39,
22,
22,
6,
6,
6,
6,
26,
25,
46,
45,
45,
52,
52,
45,
26,
26,
10,
12,
12,
6,
6,
2,
13,
13,
13,
9,
9,
6,
6,
2,
14,
14,
26,
26,
26,
18,
2,
3,
3,
9,
9,
15,
15,
9,
9,
9,
9,
9,
9,
3,
3,
8,
22,
21,
21,
30,
30,
25,
25,
18,
1,
2,
25,
24,
47,
46,
46,
46,
21,
21,
1,
3,
3,
5,
5,
8,
8,
3,
3,
8,
23,
22,
22,
29,
29,
29,
16,
16,
1,
2,
19,
18,
18,
24,
7,
8,
8,
5,
5,
13,
13,
13,
13,
16,
16,
13,
13,
4,
4,
4,
18,
18,
39,
38,
54,
53,
41,
4,
4,
5,
5,
11,
11,
14,
14,
19,
19,
17,
17,
11,
11,
13,
13,
17,
17,
14,
14,
10,
10,
2,
16,
15,
15,
16,
16,
8,
8,
10,
10,
17,
5,
6,
6,
6,
6,
7,
7,
5,
5,
4,
4,
6,
6,
6,
6,
3,
3,
8,
8,
9,
9,
3,
3,
4,
4,
8,
8,
8,
8,
2,
2,
9,
21,
20,
20,
29,
13,
14,
1,
3,
3,
10,
10,
12,
12,
11,
11,
9,
9,
4,
4,
0,
0,
1,
1,
1,
1,
3,
3,
0,
0,
2,
2,
4,
4,
1,
1,
4,
4,
14,
14,
17,
3,
4,
4,
14,
25,
24,
24,
25,
25,
20,
4,
11,
43,
42,
63,
62,
62,
65,
38,
38,
5,
9,
35,
34,
34,
42,
42,
42,
42,
42,
29,
30,
8,
9,
9,
1,
1,
0,
0,
0,
0,
1,
1,
1,
1,
2,
2,
5,
5,
5,
5,
10,
21,
21,
21,
26,
26,
19,
19,
15,
2,
3,
3,
6,
6,
5,
5,
4,
4,
1,
1,
5,
5,
1,
1,
8,
8,
14,
14,
18,
18,
15,
15,
13,
13,
6,
6,
8,
20,
20,
20,
14,
1,
2,
2,
2,
2,
1,
1,
1,
1,
8,
8,
15,
15,
12,
0,
2,
2,
6,
6,
5,
5,
2,
2,
4,
4,
8,
8,
13,
13,
8,
8,
4,
4,
7,
7,
1,
1,
4,
4,
4,
4,
4,
4,
3,
14,
13,
13,
15,
15,
25,
38,
38,
38,
32,
10,
10,
10,
7,
25,
25,
36,
34,
34,
34,
34,
29,
29,
20,
20,
10,
10,
1,
1,
4,
4,
4,
4,
3,
3,
6,
6,
4,
4,
8,
8,
16,
16,
19,
19,
17,
17,
8,
8,
1,
1,
-1,
-1,
-2,
-2,
-1,
-1,
1,
1,
0,
0,
1,
1,
2,
2,
3,
3,
1,
1,
4,
4,
6,
6,
9,
9,
12,
12,
14,
14,
10,
10,
4,
4,
6,
6,
15,
15,
16,
16,
10,
10,
2,
2,
0,
0,
2,
2,
12,
12,
20,
20,
11,
11,
8,
8,
12,
12,
12,
12,
4,
4,
1,
1,
10,
22,
22,
33,
32,
15,
16,
4,
17,
17,
23,
5,
5,
5,
6,
6,
1,
1,
7,
20,
18,
18,
24,
24,
28,
28,
22,
8,
8,
8,
2,
2,
9,
9,
13,
13,
17,
17,
12,
12,
8,
8,
11,
11,
13,
13,
9,
9,
0,
0,
2,
2,
1,
1,
5,
5,
1,
1,
1,
1,
2,
2,
6,
6,
1,
1,
3,
3,
6,
6,
8,
8,
6,
6,
6,
6,
7,
7,
14,
14,
13,
0,
1,
1,
8,
20,
20,
20,
28,
28,
29,
15,
15,
4,
5,
5,
0,
11,
10,
27,
26,
26,
29,
29,
22,
8,
8,
8,
0,
0,
2,
2,
2,
2,
4,
4,
9,
9,
15,
15,
18,
18,
13,
2,
2,
2,
2,
2,
4,
4,
5,
5,
8,
8,
10,
10,
7,
7,
0,
0,
5,
5,
3,
3,
-1,
-1,
2,
2,
5,
5,
3,
3,
7,
7,
14,
14,
9,
9,
2,
2,
6,
6,
0,
0,
1,
1,
4,
4,
8,
8,
8,
8,
6,
6,
6,
6,
7,
7,
2,
2,
6,
6,
12,
12,
5,
5,
1,
1,
0,
0,
2,
2,
4,
4,
1,
1,
-1,
10,
10,
10,
17,
17,
15,
15,
8,
8,
0,
0,
4,
4,
1,
1,
1,
1,
2,
2,
9,
9,
13,
13,
14,
14,
14,
14,
10,
10,
6,
6,
1,
1,
2,
2,
6,
6,
11,
11,
19,
19,
28,
28,
24,
24,
18,
18,
12,
12,
3,
3,
11,
24,
23,
23,
17,
17,
11,
11,
8,
8,
5,
5,
1,
1,
4,
4,
6,
6,
3,
3,
1,
1,
-1,
-1,
2,
2,
-1,
-1,
6,
6,
6,
6,
4,
4,
8,
8,
11,
11,
10,
10,
6,
26,
25,
45,
44,
44,
46,
46,
38,
22,
23,
6,
7,
7,
5,
25,
25,
44,
44,
59,
59,
59,
50,
25,
26,
3,
7,
7,
13,
13,
8,
8,
10,
10,
12,
12,
9,
9,
4,
4,
1,
1,
0,
0,
-1,
-1,
-1,
-1,
2,
2,
3,
3,
5,
5,
5,
5,
6,
6,
6,
6,
2,
2,
1,
1,
3,
3,
2,
2,
0,
0,
3,
3,
6,
6,
2,
2,
0,
0,
-1,
-1,
0,
0,
3,
3,
4,
4,
2,
2,
2,
2,
4,
4,
9,
9,
9,
9,
8,
8,
2,
2,
9,
9,
17,
17,
20,
20,
16,
4,
4,
4,
2,
2,
6,
6,
9,
9,
8,
8,
5,
5,
2,
2,
0,
0,
1,
1,
3,
3,
1,
1,
1,
1,
3,
3,
0,
0,
-1,
-1,
3,
3,
4,
4,
4,
4,
4,
4,
6,
6,
1,
1,
5,
5,
6,
6,
5,
5,
2,
2,
1,
1,
2,
2,
4,
4,
0,
0,
3,
3,
7,
7,
4,
4,
2,
2,
1,
1,
2,
2,
0,
0,
0,
0,
6,
6,
12,
12,
18,
18,
21,
21,
14,
0,
1,
1,
8,
8,
14,
33,
33,
33,
42,
55,
55,
55,
63,
45,
45,
5,
6,
26,
25,
36,
34,
50,
49,
60,
60,
60,
52,
36,
36,
36,
30,
30,
24,
24,
18,
7,
7,
7,
6,
19,
19,
31,
31,
31,
38,
38,
37,
37,
28,
28,
21,
21,
17,
17,
12,
12,
7,
7,
1,
1,
-1,
-1,
2,
2,
5,
5,
5,
5,
3,
3,
0,
0,
6,
6,
14,
14,
15,
15,
9,
9,
1,
1,
10,
10,
14,
14,
6,
6,
0,
0,
5,
5,
5,
5,
4,
4,
4,
4,
7,
7,
11,
11,
6,
6,
0,
0,
3,
3,
10,
10,
10,
10,
10,
26,
26,
26,
23,
23,
27,
27,
34,
34,
31,
5,
5,
5,
13,
13,
16,
16,
18,
18,
17,
17,
11,
11,
8,
8,
12,
12,
13,
13,
10,
10,
3,
3,
-1,
-1,
0,
0,
2,
2,
2,
2,
2,
2,
4,
4,
2,
2,
3,
15,
15,
15,
13,
1,
2,
2,
12,
41,
41,
63,
62,
45,
45,
11,
11,
11,
8,
8,
1,
12,
12,
28,
27,
27,
37,
37,
34,
34,
29,
29,
25,
25,
21,
10,
11,
0,
2,
2,
8,
8,
11,
11,
12,
12,
14,
14,
13,
13,
9,
9,
12,
12,
12,
12,
13,
13,
10,
10,
8,
8,
1,
1,
2,
2,
7,
7,
13,
13,
22,
22,
20,
20,
15,
15,
5,
5,
14,
31,
30,
46,
45,
45,
42,
15,
15,
4,
16,
29,
29,
18,
19,
4,
4,
4,
5,
22,
22,
36,
35,
35,
31,
3,
4,
4,
14,
14,
18,
18,
12,
12,
5,
5,
2,
2,
2,
2,
3,
3,
4,
4,
5,
5,
1,
1,
2,
2,
1,
1,
6,
6,
9,
9,
4,
4,
2,
2,
6,
6,
10,
10,
10,
10,
4,
4,
6,
6,
13,
13,
21,
21,
30,
30,
39,
24,
25,
5,
13,
48,
48,
48,
55,
40,
41,
41,
33,
9,
9,
9,
11,
22,
21,
21,
27,
27,
