EMG_S2/DS0041.CSV

Memory Length,4000,
Trigger Level,-4.80000e+02,
Source,CH1,
Probe,1.0X,
Vertical Units,V,
Vertical Scale,1.00000e+00,
Vertical Position,0.00000e+00,
Horizontal Units,S,
Horizontal Scale,1.00000e-01,
Horizontal Position,0.0000000e+00,
Horizontal Mode,Roll Mode,
Waveform Last Dot Address,4000,
Sampling Period,4.00000e-04,
Firmware,V1.14,
Time, ,
Mode,Fast,
Waveform Data,
-1,
-1,
0,
0,
2,
2,
2,
2,
1,
1,
0,
0,
-1,
-1,
6,
6,
9,
9,
14,
14,
20,
20,
21,
21,
12,
0,
1,
1,
6,
6,
7,
7,
5,
5,
5,
5,
4,
4,
1,
1,
2,
2,
-1,
-1,
0,
0,
0,
0,
0,
0,
4,
4,
0,
0,
1,
1,
2,
2,
4,
4,
4,
4,
2,
2,
1,
1,
3,
3,
10,
10,
13,
13,
5,
5,
0,
0,
-1,
-1,
1,
1,
1,
1,
0,
0,
1,
1,
1,
1,
2,
2,
6,
6,
2,
2,
2,
2,
0,
0,
2,
2,
9,
9,
12,
12,
8,
8,
4,
4,
1,
1,
-1,
-1,
0,
0,
-2,
-2,
-1,
-1,
2,
2,
6,
6,
6,
6,
5,
5,
6,
6,
3,
3,
0,
0,
0,
0,
2,
2,
5,
5,
6,
6,
1,
1,
5,
5,
12,
12,
16,
16,
10,
10,
7,
7,
6,
6,
2,
2,
1,
1,
2,
2,
1,
1,
0,
0,
-1,
-1,
2,
2,
9,
9,
13,
13,
5,
5,
2,
2,
11,
11,
11,
11,
8,
8,
2,
2,
11,
11,
9,
9,
5,
5,
1,
1,
2,
15,
14,
25,
23,
23,
21,
8,
8,
8,
1,
1,
10,
10,
12,
12,
9,
9,
6,
6,
4,
4,
2,
2,
3,
3,
3,
3,
1,
1,
-1,
-1,
0,
0,
1,
1,
2,
2,
3,
3,
8,
8,
11,
11,
4,
4,
0,
0,
-1,
-1,
1,
1,
6,
6,
2,
2,
0,
0,
1,
1,
2,
2,
3,
3,
1,
1,
3,
3,
2,
16,
16,
16,
8,
8,
2,
2,
1,
1,
0,
0,
4,
4,
9,
9,
11,
11,
12,
12,
7,
7,
1,
1,
0,
0,
2,
2,
1,
1,
0,
0,
0,
0,
7,
7,
9,
9,
12,
12,
14,
14,
14,
14,
5,
5,
4,
4,
2,
2,
-2,
-2,
0,
0,
1,
1,
-1,
-1,
1,
1,
7,
7,
8,
8,
5,
5,
1,
1,
5,
5,
10,
10,
12,
12,
8,
8,
1,
1,
8,
8,
14,
14,
15,
15,
12,
12,
2,
2,
5,
5,
14,
14,
23,
23,
29,
29,
26,
26,
18,
5,
5,
5,
9,
20,
20,
20,
25,
25,
26,
26,
21,
21,
16,
16,
17,
17,
11,
0,
0,
0,
6,
18,
17,
17,
26,
26,
24,
24,
18,
18,
9,
9,
4,
4,
1,
1,
3,
3,
5,
5,
0,
0,
1,
1,
1,
1,
8,
8,
12,
12,
9,
9,
3,
3,
6,
17,
16,
16,
18,
1,
3,
3,
7,
7,
8,
8,
1,
1,
6,
6,
5,
5,
2,
2,
1,
1,
6,
6,
10,
10,
10,
10,
8,
8,
7,
7,
3,
3,
6,
6,
15,
15,
16,
16,
10,
10,
8,
8,
4,
4,
2,
2,
5,
5,
4,
4,
5,
5,
2,
2,
5,
5,
13,
13,
14,
14,
8,
8,
1,
1,
6,
6,
14,
14,
19,
19,
17,
6,
6,
6,
0,
0,
6,
6,
12,
12,
14,
14,
14,
14,
8,
8,
8,
8,
9,
9,
4,
4,
11,
29,
28,
28,
22,
8,
8,
8,
1,
13,
12,
12,
20,
20,
20,
20,
13,
13,
9,
9,
0,
0,
2,
2,
2,
2,
2,
2,
9,
9,
13,
13,
13,
13,
12,
12,
7,
7,
3,
3,
11,
11,
14,
14,
14,
14,
10,
10,
2,
2,
4,
4,
6,
6,
7,
7,
1,
1,
6,
6,
8,
8,
5,
5,
2,
2,
6,
6,
10,
10,
10,
10,
2,
2,
2,
2,
6,
6,
9,
9,
9,
9,
10,
10,
10,
10,
5,
5,
2,
2,
5,
5,
9,
9,
2,
2,
2,
2,
10,
10,
16,
16,
20,
20,
17,
6,
6,
6,
0,
0,
6,
6,
10,
10,
12,
12,
8,
8,
2,
2,
0,
0,
4,
4,
2,
2,
0,
0,
1,
1,
4,
4,
2,
2,
4,
4,
9,
9,
4,
4,
10,
10,
18,
18,
20,
5,
5,
5,
9,
23,
22,
22,
29,
29,
24,
24,
25,
25,
16,
1,
2,
2,
4,
4,
6,
6,
13,
13,
21,
21,
28,
28,
27,
27,
26,
26,
20,
9,
10,
10,
1,
1,
7,
7,
14,
14,
14,
14,
17,
17,
20,
20,
21,
21,
18,
18,
10,
10,
4,
4,
1,
1,
4,
4,
4,
4,
0,
0,
4,
4,
3,
3,
2,
2,
3,
3,
4,
4,
3,
3,
0,
0,
1,
1,
3,
3,
1,
1,
2,
2,
5,
5,
4,
4,
0,
0,
5,
5,
8,
8,
4,
4,
0,
0,
-1,
-1,
0,
0,
1,
1,
-2,
-2,
0,
0,
1,
1,
-1,
-1,
2,
2,
0,
0,
2,
2,
2,
2,
0,
0,
2,
2,
8,
8,
13,
13,
20,
20,
20,
20,
12,
12,
5,
5,
12,
29,
28,
28,
32,
18,
18,
1,
2,
2,
5,
5,
4,
4,
0,
0,
4,
4,
6,
6,
4,
4,
1,
1,
0,
0,
4,
4,
6,
6,
0,
0,
2,
2,
5,
5,
7,
7,
10,
10,
10,
10,
5,
5,
1,
1,
1,
1,
1,
1,
2,
2,
2,
2,
6,
6,
4,
4,
2,
2,
2,
2,
0,
0,
6,
6,
10,
10,
7,
7,
0,
0,
5,
5,
5,
5,
2,
2,
5,
5,
2,
2,
0,
0,
4,
4,
4,
4,
4,
4,
6,
6,
3,
3,
2,
2,
6,
6,
12,
12,
12,
1,
1,
1,
7,
7,
13,
13,
6,
6,
1,
1,
8,
8,
14,
14,
9,
9,
1,
1,
1,
1,
-1,
-1,
2,
2,
3,
3,
4,
4,
-1,
-1,
0,
0,
6,
6,
11,
11,
14,
14,
9,
9,
6,
6,
2,
2,
1,
1,
1,
1,
6,
6,
10,
10,
15,
15,
13,
13,
9,
9,
8,
8,
9,
9,
9,
9,
0,
0,
6,
6,
15,
15,
15,
15,
6,
6,
2,
2,
2,
2,
0,
0,
6,
6,
13,
13,
15,
15,
10,
10,
8,
8,
1,
1,
11,
11,
14,
14,
14,
14,
8,
8,
4,
4,
2,
2,
0,
0,
3,
3,
1,
1,
0,
0,
3,
3,
2,
2,
2,
2,
1,
1,
2,
2,
6,
6,
10,
10,
13,
13,
12,
12,
8,
8,
8,
8,
3,
3,
2,
2,
6,
6,
7,
7,
7,
7,
12,
12,
2,
2,
5,
5,
7,
7,
0,
0,
1,
1,
2,
2,
2,
2,
2,
2,
4,
4,
2,
2,
0,
0,
2,
2,
2,
2,
0,
0,
0,
0,
3,
3,
2,
2,
6,
6,
3,
3,
1,
1,
4,
4,
10,
10,
14,
14,
16,
16,
14,
14,
7,
7,
2,
2,
9,
9,
12,
12,
13,
13,
9,
9,
0,
0,
8,
8,
14,
14,
13,
13,
6,
6,
2,
2,
12,
12,
7,
7,
4,
4,
8,
8,
6,
6,
5,
5,
6,
6,
2,
2,
1,
1,
10,
10,
15,
15,
14,
14,
15,
15,
13,
13,
5,
5,
3,
3,
7,
7,
11,
11,
17,
17,
13,
13,
6,
6,
4,
4,
11,
11,
9,
9,
1,
1,
9,
29,
29,
46,
46,
46,
46,
21,
22,
2,
4,
20,
20,
32,
31,
31,
37,
37,
38,
38,
30,
30,
26,
12,
12,
0,
1,
1,
10,
10,
13,
13,
15,
15,
16,
16,
14,
14,
11,
11,
4,
4,
0,
0,
2,
2,
1,
1,
0,
0,
3,
3,
2,
2,
6,
18,
18,
18,
25,
25,
22,
22,
13,
1,
2,
20,
20,
31,
30,
30,
28,
28,
19,
19,
13,
13,
10,
10,
5,
5,
2,
2,
1,
1,
1,
1,
4,
4,
10,
10,
14,
14,
10,
10,
5,
5,
7,
7,
8,
8,
6,
6,
6,
6,
6,
6,
2,
2,
1,
1,
4,
4,
6,
6,
2,
2,
0,
0,
1,
1,
0,
0,
0,
0,
0,
0,
1,
1,
4,
4,
0,
0,
0,
0,
-1,
-1,
0,
0,
-1,
-1,
1,
1,
1,
1,
2,
2,
2,
2,
10,
10,
8,
8,
6,
6,
5,
5,
1,
1,
0,
0,
8,
8,
10,
10,
13,
13,
8,
8,
8,
19,
18,
18,
17,
5,
5,
5,
0,
0,
5,
5,
5,
5,
3,
3,
-1,
-1,
-2,
-2,
-1,
-1,
0,
0,
0,
0,
0,
0,
0,
0,
5,
5,
12,
12,
16,
16,
10,
10,
2,
2,
8,
8,
9,
9,
12,
12,
12,
12,
9,
9,
2,
2,
1,
1,
8,
8,
6,
6,
-1,
-1,
0,
0,
3,
3,
11,
22,
22,
22,
29,
29,
30,
30,
28,
28,
26,
7,
8,
8,
8,
8,
17,
17,
22,
22,
22,
22,
25,
25,
30,
30,
26,
13,
14,
14,
8,
8,
2,
2,
7,
7,
15,
15,
12,
12,
15,
15,
18,
18,
16,
16,
11,
11,
5,
5,
1,
1,
2,
2,
1,
1,
0,
0,
2,
2,
1,
1,
0,
0,
0,
0,
0,
0,
-2,
-2,
2,
2,
6,
6,
13,
13,
14,
14,
9,
9,
1,
13,
13,
13,
18,
18,
22,
22,
19,
8,
9,
9,
2,
2,
5,
5,
12,
12,
16,
16,
9,
9,
2,
2,
10,
10,
10,
10,
6,
6,
3,
3,
3,
3,
10,
10,
9,
9,
6,
6,
3,
3,
0,
0,
1,
1,
2,
2,
1,
1,
0,
0,
2,
2,
3,
3,
5,
5,
4,
4,
6,
6,
8,
8,
8,
8,
8,
8,
5,
5,
2,
2,
1,
1,
1,
1,
4,
4,
5,
5,
5,
5,
5,
5,
2,
2,
1,
1,
7,
7,
10,
10,
9,
9,
6,
6,
0,
0,
4,
4,
6,
6,
5,
5,
6,
6,
8,
8,
6,
6,
-1,
-1,
6,
6,
8,
8,
2,
2,
-1,
-1,
2,
2,
2,
2,
3,
3,
0,
0,
1,
1,
1,
1,
4,
4,
1,
1,
-1,
-1,
0,
0,
0,
0,
1,
1,
-1,
-1,
-1,
-1,
4,
4,
7,
7,
5,
5,
4,
4,
0,
0,
5,
5,
2,
2,
0,
0,
2,
2,
0,
0,
5,
5,
8,
8,
13,
2,
2,
2,
7,
20,
20,
20,
22,
22,
16,
16,
7,
7,
2,
2,
-1,
-1,
0,
0,
2,
2,
1,
1,
9,
9,
16,
16,
18,
18,
15,
15,
10,
10,
3,
3,
-1,
-1,
4,
4,
7,
7,
10,
10,
9,
9,
8,
8,
10,
10,
9,
9,
8,
8,
6,
6,
3,
3,
0,
0,
1,
1,
2,
2,
-1,
-1,
1,
1,
0,
0,
1,
1,
5,
5,
7,
7,
6,
6,
5,
5,
3,
3,
3,
3,
4,
4,
14,
14,
21,
21,
21,
21,
14,
1,
4,
15,
14,
14,
16,
16,
14,
14,
10,
10,
7,
7,
3,
3,
1,
1,
-1,
-1,
4,
4,
9,
9,
12,
12,
12,
12,
8,
8,
1,
1,
4,
4,
8,
8,
10,
10,
9,
9,
4,
4,
0,
0,
5,
5,
14,
14,
21,
21,
22,
22,
18,
18,
9,
9,
0,
0,
6,
6,
14,
14,
18,
18,
17,
17,
12,
12,
5,
5,
2,
2,
2,
2,
2,
2,
0,
0,
1,
1,
2,
2,
5,
5,
5,
5,
1,
1,
-1,
-1,
2,
2,
10,
10,
14,
14,
12,
12,
7,
7,
1,
1,
2,
2,
8,
8,
6,
6,
3,
3,
2,
2,
2,
2,
0,
0,
0,
0,
0,
0,
5,
5,
1,
1,
3,
3,
1,
1,
3,
3,
9,
9,
11,
11,
1,
1,
5,
5,
6,
6,
5,
5,
1,
1,
2,
2,
0,
0,
0,
0,
1,
1,
8,
8,
11,
11,
14,
14,
10,
10,
2,
2,
7,
7,
15,
15,
21,
21,
26,
26,
30,
30,
22,
4,
4,
4,
11,
11,
17,
17,
19,
19,
19,
19,
15,
15,
10,
10,
8,
8,
6,
6,
5,
5,
1,
1,
6,
6,
11,
11,
11,
11,
12,
12,
13,
13,
15,
15,
11,
0,
2,
2,
7,
7,
7,
7,
9,
9,
7,
7,
4,
4,
2,
2,
1,
1,
10,
10,
14,
14,
15,
15,
12,
12,
7,
7,
3,
3,
3,
3,
9,
9,
17,
17,
20,
20,
18,
18,
12,
1,
3,
3,
9,
9,
14,
14,
12,
1,
1,
1,
2,
2,
0,
0,
1,
1,
0,
0,
1,
1,
-1,
-1,
0,
0,
0,
0,
0,
0,
0,
0,
3,
3,
6,
6,
5,
5,
2,
2,
1,
1,
1,
1,
1,
1,
2,
2,
1,
1,
-1,
-1,
1,
1,
2,
2,
3,
3,
5,
5,
6,
6,
1,
1,
4,
4,
3,
3,
2,
2,
7,
7,
5,
5,
2,
2,
5,
5,
12,
12,
18,
18,
22,
22,
16,
3,
4,
4,
3,
16,
15,
15,
18,
18,
14,
14,
13,
13,
12,
12,
9,
9,
6,
6,
3,
3,
0,
0,
6,
6,
7,
7,
8,
8,
6,
6,
2,
2,
0,
0,
0,
0,
0,
0,
0,
0,
4,
4,
6,
6,
10,
10,
17,
17,
21,
21,
13,
1,
2,
14,
13,
13,
15,
15,
12,
12,
9,
9,
3,
3,
1,
1,
2,
2,
1,
1,
0,
0,
3,
3,
1,
1,
2,
2,
0,
0,
1,
1,
3,
3,
3,
3,
0,
0,
-1,
-1,
2,
2,
6,
6,
7,
7,
3,
3,
0,
0,
-1,
-1,
2,
2,
6,
6,
12,
12,
10,
10,
2,
2,
3,
3,
8,
8,
12,
12,
16,
16,
15,
4,
5,
5,
5,
5,
5,
5,
4,
4,
7,
7,
6,
6,
0,
0,
4,
4,
5,
5,
9,
9,
11,
11,
3,
3,
6,
6,
9,
9,
9,
9,
8,
8,
6,
6,
3,
3,
2,
2,
1,
1,
1,
1,
3,
3,
7,
7,
10,
10,
11,
11,
6,
6,
2,
2,
0,
0,
-1,
-1,
1,
1,
2,
2,
7,
7,
9,
9,
9,
9,
2,
2,
6,
6,
14,
14,
19,
19,
18,
18,
14,
14,
9,
9,
6,
6,
3,
3,
10,
10,
14,
14,
14,
14,
12,
12,
9,
9,
10,
10,
9,
9,
5,
5,
1,
1,
1,
1,
2,
2,
3,
3,
6,
6,
8,
8,
6,
6,
3,
3,
7,
7,
8,
8,
5,
5,
3,
3,
0,
0,
1,
1,
-1,
-1,
0,
0,
1,
1,
3,
3,
4,
4,
2,
2,
0,
0,
2,
2,
9,
9,
10,
10,
7,
7,
2,
2,
1,
1,
5,
5,
5,
5,
5,
5,
6,
6,
8,
8,
3,
3,
0,
0,
2,
2,
5,
5,
6,
6,
5,
5,
2,
2,
0,
0,
2,
2,
1,
1,
0,
0,
-1,
-1,
-1,
-1,
5,
5,
6,
6,
4,
4,
0,
0,
3,
3,
11,
22,
21,
21,
21,
21,
16,
16,
9,
9,
4,
4,
3,
3,
0,
0,
5,
5,
12,
12,
15,
15,
18,
18,
20,
20,
21,
21,
14,
14,
6,
6,
6,
6,
14,
14,
15,
15,
14,
14,
15,
15,
13,
13,
7,
7,
0,
0,
0,
0,
3,
3,
6,
6,
5,
5,
1,
1,
2,
2,
6,
6,
7,
7,
6,
6,
6,
6,
1,
1,
6,
6,
6,
6,
6,
6,
6,
6,
7,
7,
8,
8,
2,
2,
-1,
-1,
-1,
-1,
2,
2,
2,
2,
6,
6,
4,
4,
6,
6,
10,
10,
15,
15,
18,
18,
13,
1,
2,
2,
5,
5,
12,
12,
13,
13,
13,
13,
12,
12,
10,
10,
10,
10,
9,
9,
1,
1,
4,
4,
6,
6,
13,
13,
18,
18,
13,
13,
9,
9,
5,
5,
2,
2,
0,
0,
6,
6,
8,
8,
7,
7,
4,
4,
3,
3,
0,
0,
4,
4,
5,
5,
2,
2,
-1,
-1,
0,
0,
-1,
-1,
1,
1,
0,
0,
0,
0,
-1,
-1,
3,
3,
1,
1,
0,
0,
1,
1,
3,
3,
2,
2,
0,
0,
0,
0,
0,
0,
2,
2,
-1,
-1,
4,
4,
2,
2,
2,
2,
1,
1,
4,
4,
9,
9,
12,
12,
11,
11,
6,
6,
5,
5,
1,
1,
4,
4,
9,
9,
14,
14,
21,
21,
22,
22,
14,
3,
3,
3,
4,
4,
10,
10,
10,
10,
14,
14,
15,
15,
12,
12,
12,
12,
9,
9,
3,
3,
1,
1,
0,
0,
2,
2,
5,
5,
7,
7,
9,
9,
7,
7,
3,
3,
2,
2,
-1,
-1,
0,
0,
-1,
-1,
2,
2,
3,
3,
8,
8,
10,
10,
11,
11,
5,
5,
2,
2,
7,
7,
9,
9,
5,
5,
1,
1,
4,
4,
3,
3,
2,
2,
1,
1,
0,
0,
1,
1,
0,
0,
0,
0,
5,
5,
2,
2,
9,
9,
12,
12,
10,
10,
1,
1,
6,
6,
9,
9,
6,
6,
1,
1,
0,
0,
2,
2,
4,
4,
3,
3,
0,
0,
-2,
-2,
0,
0,
2,
2,
-1,
-1,
1,
1,
-1,
-1,
2,
2,
2,
2,
1,
1,
4,
4,
5,
5,
5,
5,
1,
1,
10,
10,
12,
12,
12,
12,
8,
8,
4,
4,
0,
0,
6,
6,
7,
7,
6,
6,
10,
10,
10,
10,
10,
10,
10,
10,
5,
5,
4,
4,
2,
2,
-1,
-1,
1,
1,
2,
2,
5,
5,
9,
9,
14,
14,
13,
13,
7,
7,
1,
1,
1,
1,
1,
1,
2,
2,
5,
5,
5,
5,
8,
8,
9,
9,
10,
10,
6,
6,
1,
1,
6,
6,
9,
9,
8,
8,
4,
4,
0,
0,
1,
1,
5,
5,
7,
7,
5,
5,
0,
0,
0,
0,
1,
1,
2,
2,
3,
3,
6,
6,
8,
8,
5,
5,
0,
0,
4,
4,
4,
4,
4,
4,
4,
4,
5,
5,
4,
4,
2,
2,
0,
0,
0,
0,
0,
0,
0,
0,
2,
2,
4,
4,
3,
3,
4,
4,
4,
4,
4,
4,
2,
2,
0,
0,
2,
2,
5,
5,
1,
1,
0,
0,
0,
0,
0,
0,
0,
0,
2,
2,
3,
3,
3,
3,
1,
1,
1,
1,
1,
1,
1,
1,
-2,
-2,
-1,
-1,
2,
2,
6,
6,
6,
6,
7,
7,
5,
5,
0,
0,
3,
3,
7,
7,
6,
6,
2,
2,
4,
4,
10,
10,
12,
12,
13,
13,
12,
12,
9,
9,
2,
2,
6,
6,
13,
13,
16,
16,
17,
17,
17,
17,
16,
16,
11,
11,
6,
6,
5,
5,
2,
13,
13,
13,
20,
20,
24,
24,
26,
26,
21,
10,
11,
11,
1,
1,
5,
5,
6,
6,
11,
11,
13,
13,
12,
12,
6,
6,
1,
1,
6,
6,
14,
14,
14,
14,
4,
4,
2,
2,
5,
5,
6,
6,
10,
10,
12,
12,
13,
13,
7,
7,
3,
3,
12,
12,
15,
15,
9,
9,
0,
0,
-1,
-1,
6,
6,
1,
1,
1,
1,
1,
1,
0,
0,
1,
1,
-1,
-1,
0,
0,
2,
2,
6,
6,
7,
7,
8,
8,
5,
5,
0,
0,
5,
5,
8,
8,
10,
10,
10,
10,
13,
13,
10,
10,
2,
2,
5,
5,
7,
7,
6,
6,
6,
6,
6,
6,
4,
4,
5,
5,
3,
3,
6,
6,
8,
8,
5,
5,
3,
3,
0,
0,
1,
1,
0,
0,
0,
23,
22,
22,
13,
0,
1,
1,
1,
1,
0,
0,
2,
2,
6,
6,
7,
7,
4,
4,
0,
0,
1,
1,
-1,
-1,
-2,
-2,
0,
0,
0,
0,
3,
3,
3,
3,
0,
0,
0,
0,
0,
0,
1,
1,
1,
1,
2,
2,
2,
2,
-1,
-1,
4,
4,
2,
2,
2,
2,
1,
1,
-1,
-1,
2,
2,
6,
6,
2,
2,
0,
0,
5,
5,
1,
1,
3,
3,
6,
6,
10,
10,
10,
10,
11,
11,
7,
7,
0,
0,
6,
6,
12,
12,
15,
15,
13,
13,
8,
8,
4,
4,
6,
6,
10,
10,
13,
13,
8,
8,
9,
24,
24,
24,
31,
31,
33,
33,
26,
26,
18,
2,
2,
2,
9,
9,
15,
15,
14,
14,
14,
14,
15,
15,
13,
13,
7,
7,
3,
3,
2,
2,
2,
2,
3,
3,
5,
5,
0,
0,
5,
5,
10,
10,
11,
11,
8,
8,
8,
8,
7,
7,
6,
6,
5,
5,
3,
3,
11,
11,
12,
12,
5,
5,
2,
2,
1,
1,
9,
20,
18,
18,
18,
18,
14,
14,
8,
8,
3,
3,
2,
2,
6,
6,
8,
8,
1,
1,
9,
9,
18,
18,
18,
18,
17,
17,
9,
9,
12,
12,
10,
10,
0,
0,
2,
2,
3,
3,
4,
4,
8,
8,
9,
9,
9,
9,
5,
5,
1,
1,
1,
1,
-1,
-1,
0,
0,
2,
2,
2,
2,
1,
1,
0,
0,
1,
1,
2,
2,
2,
2,
2,
2,
2,
2,
2,
2,
6,
6,
11,
11,
12,
12,
9,
9,
1,
1,
0,
0,
2,
2,
2,
2,
5,
5,
1,
1,
6,
6,
6,
6,
8,
8,
8,
8,
8,
8,
2,
2,
0,
0,
4,
4,
8,
8,
9,
9,
2,
2,
2,
2,
11,
11,
6,
6,
1,
1,
9,
9,
12,
12,
14,
14,
15,
15,
9,
9,
1,
1,
10,
10,
11,
11,
6,
6,
2,
2,
3,
3,
3,
3,
10,
10,
8,
8,
4,
4,
3,
3,
4,
4,
2,
2,
4,
4,
7,
7,
12,
12,
13,
13,
8,
8,
2,
2,
-2,
-2,
4,
4,
9,
9,
13,
13,
12,
12,
9,
9,
0,
0,
0,
0,
-1,
-1,
2,
2,
2,
2,
1,
1,
10,
10,
12,
12,
18,
18,
24,
24,
23,
10,
10,
10,
2,
2,
7,
7,
16,
16,
25,
25,
20,
20,
12,
12,
4,
4,
10,
10,
20,
20,
14,
14,
9,
9,
1,
1,
4,
4,
4,
4,
4,
4,
6,
6,
6,
6,
9,
9,
6,
6,
2,
2,
2,
2,
10,
10,
12,
12,
13,
13,
8,
8,
2,
2,
6,
6,
7,
7,
7,
7,
5,
5,
3,
3,
2,
2,
0,
0,
7,
7,
15,
27,
26,
26,
24,
13,
14,
0,
2,
17,
15,
15,
22,
22,
20,
20,
15,
15,
9,
9,
3,
3,
11,
11,
13,
13,
10,
10,
3,
3,
3,
3,
2,
2,
2,
2,
1,
1,
2,
2,
2,
2,
1,
1,
2,
2,
3,
3,
6,
6,
5,
5,
1,
1,
5,
5,
4,
4,
2,
2,
1,
1,
3,
3,
5,
5,
8,
8,
8,
8,
3,
3,
2,
2,
6,
6,
7,
7,
4,
4,
1,
1,
8,
8,
12,
12,
3,
3,
2,
2,
4,
4,
5,
5,
3,
3,
0,
0,
0,
0,
0,
0,
1,
1,
-1,
-1,
-1,
-1,
0,
0,
1,
1,
-1,
-1,
0,
0,
4,
4,
2,
2,
2,
2,
2,
2,
1,
1,
-1,
-1,
1,
1,
5,
5,
5,
5,
1,
1,
-1,
-1,
-1,
-1,
0,
0,
3,
3,
4,
4,
5,
5,
3,
3,
2,
2,
5,
5,
6,
6,
5,
5,
0,
0,
0,
0,
9,
9,
15,
15,
15,
15,
8,
8,
5,
5,
3,
3,
2,
2,
2,
2,
0,
0,
1,
1,
1,
1,
2,
2,
7,
7,
4,
4,
4,
4,
8,
8,
10,
10,
11,
11,
7,
7,
3,
3,
1,
1,
2,
2,
7,
7,
12,
12,
13,
13,
10,
10,
9,
9,
6,
6,
1,
1,
0,
0,
2,
2,
1,
1,
-1,
-1,
0,
0,
0,
0,
1,
1,
2,
2,
2,
2,
2,
2,
2,
2,
2,
2,
1,
1,
0,
0,
4,
4,
12,
12,
5,
5,
6,
6,
3,
3,
3,
15,
14,
14,
19,
19,
10,
10,
6,
6,
5,
5,
1,
1,
8,
8,
12,
12,
15,
15,
16,
16,
14,
14,
8,
8,
3,
3,
-1,
-1,
1,
1,
3,
3,
4,
4,
1,
1,
5,
5,
4,
4,
9,
9,
16,
16,
15,
15,
13,
13,
13,
13,
9,
9,
2,
2,
2,
2,
4,
4,
6,
6,
13,
13,
21,
21,
20,
20,
15,
15,
10,
10,
2,
2,
9,
9,
18,
18,
21,
21,
16,
16,
9,
9,
1,
1,
1,
1,
1,
1,
4,
4,
8,
8,
9,
9,
6,
6,
1,
1,
8,
8,
11,
11,
8,
8,
2,
2,
0,
0,
1,
1,
4,
4,
6,
6,
3,
3,
1,
1,
2,
2,
-1,
-1,
0,
0,
2,
2,
3,
3,
3,
3,
5,
5,
6,
6,
2,
2,
1,
1,
2,
2,
2,
2,
5,
5,
6,
6,
5,
5,
2,
2,
-1,
-1,
1,
1,
