EMG_S2/DS0061.CSV

Memory Length,4000,
Trigger Level,-4.80000e+02,
Source,CH1,
Probe,1.0X,
Vertical Units,V,
Vertical Scale,1.00000e+00,
Vertical Position,0.00000e+00,
Horizontal Units,S,
Horizontal Scale,1.00000e-01,
Horizontal Position,0.0000000e+00,
Horizontal Mode,Roll Mode,
Waveform Last Dot Address,4000,
Sampling Period,4.00000e-04,
Firmware,V1.14,
Time, ,
Mode,Fast,
Waveform Data,
-1,
-1,
0,
0,
0,
0,
0,
0,
1,
1,
2,
2,
5,
5,
5,
5,
6,
6,
2,
2,
4,
4,
8,
8,
2,
2,
1,
1,
1,
12,
12,
23,
23,
23,
28,
28,
23,
23,
18,
6,
7,
7,
11,
46,
45,
64,
64,
64,
65,
65,
66,
66,
61,
43,
44,
10,
10,
32,
32,
61,
61,
61,
64,
64,
64,
64,
64,
64,
55,
39,
40,
25,
26,
10,
12,
1,
3,
16,
16,
28,
27,
27,
36,
36,
39,
39,
36,
36,
27,
27,
26,
26,
25,
25,
19,
19,
14,
14,
14,
14,
10,
10,
1,
14,
13,
13,
21,
21,
16,
5,
5,
5,
6,
6,
14,
14,
20,
20,
18,
4,
10,
26,
26,
26,
27,
27,
20,
9,
10,
10,
12,
12,
14,
14,
13,
13,
10,
10,
8,
8,
3,
3,
2,
2,
8,
8,
14,
14,
18,
18,
16,
16,
14,
14,
12,
12,
9,
9,
6,
6,
2,
2,
3,
3,
9,
9,
5,
5,
1,
1,
8,
8,
9,
9,
2,
2,
3,
3,
4,
4,
1,
1,
10,
10,
14,
14,
13,
0,
0,
12,
11,
11,
18,
18,
20,
20,
14,
14,
6,
6,
0,
0,
2,
2,
4,
4,
2,
2,
2,
2,
2,
2,
1,
1,
1,
1,
1,
1,
2,
2,
3,
3,
5,
5,
15,
30,
29,
29,
37,
37,
33,
33,
30,
30,
30,
15,
15,
2,
10,
31,
30,
43,
42,
42,
42,
42,
37,
37,
30,
30,
25,
25,
17,
17,
9,
9,
1,
1,
6,
6,
12,
12,
14,
14,
16,
16,
19,
19,
20,
20,
17,
17,
17,
17,
12,
12,
7,
7,
6,
6,
6,
6,
2,
2,
1,
1,
3,
3,
10,
10,
14,
14,
16,
16,
13,
13,
15,
15,
8,
8,
2,
2,
11,
33,
33,
33,
40,
25,
26,
8,
8,
8,
7,
18,
18,
18,
17,
17,
12,
12,
13,
13,
18,
18,
16,
16,
11,
11,
12,
12,
14,
14,
16,
16,
10,
10,
8,
27,
27,
27,
35,
35,
35,
35,
31,
31,
26,
11,
11,
0,
0,
0,
6,
6,
9,
9,
7,
7,
8,
8,
16,
16,
22,
22,
26,
26,
22,
10,
12,
12,
4,
4,
12,
28,
28,
42,
41,
41,
42,
26,
27,
7,
8,
8,
3,
3,
2,
2,
8,
20,
20,
34,
33,
33,
37,
37,
32,
32,
23,
11,
12,
0,
1,
1,
3,
3,
4,
4,
5,
5,
9,
9,
6,
6,
10,
29,
28,
28,
35,
35,
34,
23,
23,
9,
9,
9,
3,
3,
12,
12,
14,
14,
6,
6,
10,
10,
14,
14,
16,
16,
13,
13,
9,
9,
6,
6,
2,
2,
1,
1,
2,
2,
2,
2,
3,
3,
6,
6,
1,
1,
2,
2,
5,
5,
3,
3,
7,
7,
14,
14,
23,
23,
33,
33,
31,
31,
21,
1,
3,
3,
10,
10,
9,
9,
11,
11,
14,
14,
23,
23,
27,
27,
28,
28,
24,
24,
14,
1,
2,
2,
5,
5,
10,
10,
10,
10,
7,
7,
6,
6,
6,
6,
1,
1,
0,
12,
12,
12,
17,
17,
11,
11,
8,
8,
10,
10,
12,
12,
10,
10,
10,
10,
2,
2,
6,
6,
13,
13,
14,
14,
13,
13,
7,
7,
4,
4,
5,
5,
9,
9,
6,
6,
4,
4,
3,
3,
-1,
-1,
1,
1,
6,
6,
8,
8,
6,
6,
6,
6,
5,
5,
4,
4,
2,
2,
4,
4,
4,
4,
2,
2,
1,
1,
1,
1,
-1,
-1,
6,
6,
6,
6,
8,
8,
4,
4,
3,
3,
16,
16,
6,
6,
6,
6,
13,
13,
22,
22,
19,
1,
2,
2,
9,
9,
12,
12,
12,
12,
9,
9,
1,
1,
5,
5,
9,
9,
5,
5,
2,
2,
2,
2,
2,
2,
0,
0,
0,
0,
-1,
-1,
-1,
-1,
2,
2,
3,
3,
2,
2,
2,
2,
1,
1,
6,
6,
14,
14,
17,
17,
9,
9,
1,
1,
10,
10,
17,
17,
24,
24,
28,
28,
29,
29,
21,
4,
5,
5,
12,
12,
21,
21,
20,
20,
17,
17,
15,
15,
16,
16,
14,
14,
10,
10,
1,
1,
10,
10,
7,
7,
1,
1,
-1,
-1,
2,
2,
9,
9,
12,
12,
18,
18,
24,
24,
15,
15,
8,
8,
6,
6,
4,
4,
-1,
12,
12,
12,
21,
21,
23,
23,
21,
21,
19,
19,
14,
14,
8,
8,
3,
3,
0,
11,
10,
10,
14,
14,
15,
15,
13,
13,
10,
10,
9,
9,
7,
7,
10,
10,
10,
10,
8,
8,
2,
2,
5,
5,
10,
10,
12,
12,
12,
12,
6,
6,
3,
3,
0,
0,
0,
0,
-1,
-1,
0,
0,
-1,
-1,
2,
2,
4,
4,
3,
3,
-1,
-1,
3,
3,
1,
1,
0,
0,
2,
2,
3,
3,
3,
3,
0,
0,
2,
2,
4,
4,
0,
0,
2,
2,
0,
0,
7,
7,
8,
8,
5,
5,
1,
1,
-1,
-1,
0,
0,
-2,
-2,
4,
4,
7,
18,
17,
17,
23,
12,
13,
13,
6,
6,
-1,
-1,
2,
2,
7,
7,
13,
13,
7,
7,
-1,
-1,
2,
2,
9,
9,
14,
14,
16,
16,
13,
13,
6,
6,
1,
1,
2,
2,
8,
8,
10,
10,
10,
10,
8,
8,
6,
6,
6,
6,
5,
5,
5,
5,
3,
3,
3,
3,
5,
5,
3,
3,
1,
1,
-1,
-1,
2,
2,
-1,
-1,
1,
1,
0,
0,
1,
1,
4,
4,
6,
6,
4,
4,
1,
1,
0,
0,
3,
3,
8,
8,
5,
5,
2,
2,
3,
3,
1,
1,
5,
5,
2,
2,
8,
8,
10,
10,
6,
6,
2,
2,
0,
0,
2,
2,
2,
2,
3,
3,
4,
4,
0,
0,
8,
8,
7,
7,
4,
4,
10,
10,
18,
18,
18,
18,
11,
11,
2,
2,
2,
2,
6,
6,
8,
8,
6,
6,
7,
7,
13,
13,
16,
16,
12,
12,
5,
5,
1,
1,
1,
1,
0,
0,
5,
5,
7,
7,
12,
12,
12,
12,
3,
3,
3,
3,
8,
8,
12,
12,
10,
10,
6,
6,
4,
23,
22,
36,
34,
34,
42,
42,
36,
12,
13,
1,
7,
18,
17,
17,
21,
21,
24,
24,
25,
25,
19,
19,
14,
14,
14,
14,
16,
16,
13,
13,
6,
6,
1,
1,
4,
4,
8,
8,
10,
10,
13,
13,
18,
18,
20,
20,
18,
18,
17,
17,
12,
12,
6,
6,
6,
6,
3,
3,
2,
2,
2,
13,
12,
27,
27,
27,
34,
23,
24,
5,
6,
6,
1,
14,
13,
26,
25,
25,
32,
32,
38,
38,
30,
14,
14,
1,
2,
2,
10,
10,
17,
28,
27,
27,
30,
30,
29,
29,
22,
22,
16,
16,
11,
0,
1,
1,
8,
8,
14,
14,
15,
15,
14,
14,
12,
12,
8,
8,
8,
8,
9,
9,
6,
6,
5,
5,
0,
0,
0,
0,
0,
0,
5,
5,
6,
6,
7,
7,
9,
9,
13,
13,
8,
8,
5,
5,
12,
27,
26,
26,
20,
7,
8,
8,
14,
14,
15,
15,
18,
18,
11,
11,
5,
5,
13,
13,
21,
21,
28,
28,
30,
30,
30,
30,
28,
28,
20,
20,
10,
10,
0,
0,
6,
6,
13,
13,
18,
18,
19,
19,
15,
15,
10,
10,
13,
13,
14,
14,
17,
17,
13,
13,
10,
10,
6,
6,
1,
1,
5,
5,
9,
9,
9,
9,
8,
8,
11,
11,
17,
17,
19,
19,
9,
9,
4,
19,
18,
29,
28,
28,
22,
7,
7,
7,
1,
1,
5,
5,
13,
13,
17,
17,
19,
19,
18,
18,
9,
9,
1,
1,
1,
1,
4,
4,
13,
13,
15,
15,
14,
14,
8,
8,
6,
6,
5,
5,
1,
1,
3,
3,
4,
4,
1,
1,
0,
0,
6,
6,
10,
10,
16,
16,
22,
22,
18,
2,
2,
16,
16,
37,
37,
37,
46,
46,
40,
22,
22,
5,
5,
5,
8,
8,
14,
14,
14,
14,
17,
17,
25,
25,
20,
20,
13,
13,
8,
8,
14,
14,
8,
8,
4,
4,
4,
4,
6,
6,
11,
11,
14,
14,
12,
12,
8,
8,
5,
5,
9,
9,
9,
9,
6,
6,
5,
5,
6,
6,
6,
6,
1,
1,
4,
4,
7,
7,
6,
6,
6,
6,
6,
6,
7,
7,
4,
4,
0,
0,
7,
7,
14,
14,
14,
14,
18,
18,
17,
17,
8,
8,
1,
13,
12,
12,
22,
22,
24,
24,
30,
30,
29,
17,
17,
5,
7,
7,
2,
15,
15,
15,
21,
21,
19,
19,
16,
16,
17,
17,
18,
18,
11,
11,
8,
8,
7,
7,
5,
5,
2,
14,
14,
14,
20,
20,
13,
13,
9,
9,
12,
12,
12,
0,
1,
12,
12,
12,
15,
15,
9,
9,
6,
6,
3,
3,
0,
0,
2,
2,
6,
6,
0,
0,
1,
1,
8,
8,
13,
13,
7,
7,
1,
1,
8,
8,
11,
11,
10,
10,
6,
6,
2,
2,
-1,
-1,
2,
2,
3,
3,
1,
1,
4,
4,
5,
5,
2,
2,
0,
0,
4,
4,
8,
8,
5,
5,
1,
1,
6,
6,
8,
8,
7,
7,
8,
8,
8,
8,
3,
3,
4,
4,
6,
6,
9,
9,
1,
1,
0,
0,
0,
0,
2,
2,
3,
3,
12,
12,
18,
18,
18,
18,
15,
2,
2,
2,
7,
7,
12,
12,
14,
14,
19,
19,
23,
23,
20,
6,
6,
6,
1,
1,
5,
5,
8,
8,
9,
9,
6,
6,
8,
8,
13,
13,
12,
0,
1,
1,
5,
5,
9,
22,
22,
22,
30,
30,
30,
30,
29,
29,
21,
10,
10,
10,
1,
12,
11,
28,
28,
28,
38,
38,
36,
25,
25,
7,
8,
8,
7,
19,
18,
18,
15,
1,
1,
1,
8,
8,
4,
4,
1,
1,
0,
0,
2,
2,
0,
0,
1,
1,
0,
0,
2,
2,
4,
4,
5,
5,
4,
4,
3,
3,
3,
3,
5,
5,
6,
6,
10,
10,
10,
10,
11,
11,
14,
14,
15,
15,
9,
9,
9,
31,
30,
30,
34,
34,
27,
27,
18,
18,
13,
2,
2,
2,
5,
5,
10,
10,
8,
8,
3,
3,
7,
7,
11,
11,
8,
8,
6,
6,
7,
7,
10,
10,
9,
9,
5,
5,
1,
1,
7,
7,
8,
8,
9,
9,
10,
10,
8,
8,
6,
6,
2,
2,
2,
2,
10,
10,
14,
14,
8,
8,
2,
2,
1,
1,
1,
1,
1,
1,
0,
0,
0,
0,
2,
2,
5,
5,
4,
4,
4,
4,
1,
1,
0,
0,
0,
0,
1,
1,
5,
5,
6,
6,
6,
6,
11,
11,
13,
13,
4,
4,
8,
21,
20,
20,
16,
16,
7,
7,
4,
18,
17,
17,
18,
18,
10,
10,
5,
5,
1,
1,
2,
2,
10,
10,
15,
15,
15,
15,
17,
17,
14,
3,
4,
4,
6,
6,
10,
10,
9,
9,
11,
11,
8,
8,
5,
5,
6,
6,
8,
8,
8,
8,
6,
6,
2,
2,
0,
0,
5,
5,
10,
10,
9,
9,
4,
4,
4,
4,
2,
2,
1,
1,
4,
4,
5,
5,
1,
1,
2,
2,
2,
2,
0,
0,
2,
2,
10,
10,
14,
14,
12,
1,
6,
6,
14,
14,
13,
13,
7,
7,
0,
0,
2,
2,
5,
5,
10,
10,
5,
5,
2,
2,
9,
9,
13,
13,
12,
12,
19,
19,
21,
10,
10,
10,
8,
27,
27,
42,
42,
53,
53,
53,
48,
26,
26,
2,
3,
15,
15,
27,
27,
27,
31,
31,
28,
28,
21,
21,
14,
14,
13,
13,
13,
13,
9,
9,
4,
4,
1,
1,
7,
7,
15,
15,
15,
15,
11,
11,
10,
10,
9,
9,
8,
8,
6,
6,
4,
4,
1,
1,
0,
0,
0,
0,
-1,
-1,
0,
0,
0,
0,
1,
1,
0,
0,
0,
0,
0,
0,
-1,
-1,
1,
1,
1,
1,
5,
5,
0,
0,
0,
0,
4,
4,
11,
11,
12,
12,
7,
7,
4,
4,
5,
5,
10,
10,
8,
8,
6,
6,
1,
17,
16,
32,
32,
32,
38,
38,
36,
36,
30,
30,
21,
5,
5,
5,
0,
0,
5,
5,
10,
25,
25,
36,
34,
34,
35,
35,
26,
15,
17,
17,
12,
12,
6,
6,
2,
2,
2,
2,
6,
6,
4,
4,
6,
6,
11,
11,
16,
16,
16,
16,
18,
18,
16,
16,
10,
10,
6,
6,
1,
1,
2,
2,
1,
1,
-1,
-1,
4,
4,
13,
13,
14,
14,
18,
18,
12,
1,
5,
5,
10,
10,
11,
11,
8,
8,
3,
3,
6,
6,
8,
8,
8,
8,
5,
5,
3,
3,
2,
2,
8,
8,
10,
10,
14,
14,
14,
14,
12,
12,
10,
10,
10,
10,
9,
9,
1,
1,
7,
7,
14,
14,
19,
19,
24,
24,
23,
11,
12,
0,
3,
3,
10,
10,
12,
12,
7,
7,
6,
6,
2,
2,
7,
18,
18,
18,
10,
10,
3,
3,
0,
0,
0,
0,
0,
0,
3,
3,
3,
3,
7,
7,
12,
12,
5,
5,
4,
4,
3,
3,
6,
6,
9,
9,
12,
12,
12,
12,
5,
5,
2,
2,
0,
0,
6,
6,
4,
4,
0,
0,
2,
14,
14,
26,
25,
25,
28,
16,
16,
5,
5,
5,
0,
0,
4,
4,
5,
5,
2,
2,
0,
0,
2,
2,
3,
3,
9,
9,
12,
12,
10,
10,
10,
10,
12,
12,
9,
9,
2,
2,
-1,
-1,
1,
1,
7,
7,
9,
9,
10,
10,
5,
5,
4,
4,
5,
5,
7,
7,
6,
6,
3,
3,
1,
1,
0,
0,
0,
0,
0,
0,
1,
1,
0,
0,
1,
1,
1,
1,
1,
1,
1,
1,
2,
2,
4,
4,
5,
5,
3,
3,
-1,
-1,
0,
0,
0,
0,
1,
1,
3,
3,
1,
1,
8,
8,
14,
14,
8,
8,
2,
2,
0,
0,
6,
6,
13,
13,
22,
22,
29,
29,
23,
12,
12,
1,
4,
4,
9,
9,
9,
9,
2,
2,
0,
0,
2,
2,
9,
9,
17,
17,
25,
25,
22,
22,
13,
13,
4,
4,
5,
5,
7,
7,
8,
8,
10,
10,
10,
10,
9,
9,
7,
7,
6,
6,
5,
5,
0,
0,
2,
2,
6,
6,
5,
5,
4,
4,
1,
1,
1,
1,
4,
4,
3,
3,
5,
5,
6,
6,
5,
5,
5,
5,
5,
5,
6,
6,
5,
5,
6,
6,
9,
9,
7,
7,
1,
1,
6,
6,
10,
10,
12,
12,
9,
9,
2,
2,
-1,
-1,
-1,
-1,
-1,
-1,
-1,
-1,
0,
0,
3,
3,
2,
2,
1,
1,
0,
0,
1,
1,
2,
2,
0,
0,
1,
1,
1,
1,
1,
1,
-1,
-1,
3,
3,
3,
3,
6,
6,
6,
6,
5,
5,
3,
3,
6,
6,
12,
12,
12,
12,
11,
11,
5,
5,
8,
20,
20,
20,
20,
20,
17,
17,
13,
13,
10,
10,
7,
7,
0,
0,
5,
5,
6,
6,
4,
4,
3,
3,
5,
5,
5,
5,
8,
8,
7,
7,
4,
4,
1,
1,
4,
4,
2,
2,
1,
1,
-1,
-1,
1,
1,
0,
0,
2,
2,
-1,
-1,
2,
2,
0,
0,
0,
0,
3,
3,
7,
7,
3,
3,
2,
2,
5,
5,
1,
1,
1,
1,
4,
4,
4,
4,
4,
4,
0,
0,
0,
0,
1,
1,
2,
2,
3,
3,
5,
5,
5,
5,
0,
0,
6,
6,
15,
15,
15,
15,
6,
6,
0,
0,
2,
16,
14,
35,
34,
34,
42,
42,
32,
14,
14,
14,
4,
4,
8,
24,
24,
36,
36,
36,
42,
42,
43,
28,
28,
3,
3,
26,
26,
40,
39,
39,
30,
6,
6,
6,
3,
3,
6,
6,
10,
10,
12,
12,
8,
8,
1,
1,
0,
0,
6,
6,
10,
10,
12,
12,
10,
10,
9,
9,
8,
8,
7,
7,
5,
5,
3,
3,
0,
0,
0,
0,
6,
6,
4,
4,
6,
6,
11,
11,
13,
13,
14,
14,
15,
15,
13,
13,
9,
9,
7,
7,
2,
2,
0,
0,
2,
2,
9,
9,
4,
4,
6,
6,
12,
12,
18,
18,
18,
18,
17,
17,
8,
8,
6,
6,
10,
10,
8,
8,
2,
2,
2,
2,
5,
5,
8,
8,
6,
6,
2,
2,
10,
10,
12,
12,
8,
8,
4,
4,
1,
1,
1,
1,
8,
8,
7,
7,
6,
6,
9,
9,
13,
13,
12,
12,
8,
8,
4,
4,
1,
1,
7,
7,
14,
14,
24,
24,
21,
21,
14,
14,
5,
5,
6,
17,
16,
30,
29,
29,
35,
35,
30,
3,
4,
4,
11,
11,
14,
14,
20,
20,
24,
24,
18,
18,
11,
11,
5,
5,
9,
9,
18,
18,
18,
18,
14,
14,
12,
12,
3,
3,
4,
4,
4,
4,
1,
1,
8,
21,
19,
19,
29,
29,
28,
28,
25,
14,
15,
1,
2,
2,
3,
3,
6,
18,
18,
29,
28,
28,
36,
36,
38,
38,
34,
18,
18,
3,
4,
4,
6,
6,
7,
7,
3,
3,
3,
3,
6,
6,
0,
0,
9,
22,
21,
21,
27,
27,
25,
25,
23,
23,
23,
23,
19,
19,
10,
10,
3,
3,
2,
2,
6,
6,
3,
3,
4,
4,
13,
13,
21,
21,
13,
1,
3,
3,
10,
10,
7,
7,
13,
2,
4,
37,
37,
63,
62,
62,
66,
66,
66,
66,
57,
14,
15,
37,
37,
63,
62,
62,
64,
64,
64,
64,
65,
65,
64,
53,
53,
33,
33,
12,
12,
1,
6,
22,
22,
38,
38,
38,
44,
44,
46,
46,
46,
46,
38,
38,
28,
28,
20,
20,
12,
12,
6,
6,
1,
1,
6,
6,
14,
27,
27,
27,
33,
33,
27,
8,
8,
8,
16,
40,
39,
50,
48,
18,
18,
5,
18,
44,
44,
44,
45,
25,
26,
2,
3,
16,
15,
15,
22,
22,
31,
50,
49,
49,
48,
25,
25,
2,
3,
21,
20,
20,
28,
40,
40,
52,
51,
51,
55,
55,
53,
32,
33,
9,
10,
10,
8,
26,
25,
38,
38,
38,
42,
42,
34,
34,
29,
29,
27,
27,
20,
8,
8,
8,
1,
1,
1,
1,
3,
3,
5,
5,
5,
5,
5,
5,
3,
3,
4,
4,
5,
5,
6,
6,
10,
10,
10,
10,
9,
9,
2,
2,
2,
2,
3,
3,
11,
11,
18,
18,
8,
8,
4,
4,
6,
6,
5,
5,
2,
2,
1,
1,
-1,
-1,
-1,
-1,
0,
0,
-1,
-1,
1,
1,
2,
2,
0,
0,
2,
2,
8,
8,
14,
14,
14,
14,
4,
4,
-1,
-1,
4,
4,
2,
2,
1,
1,
6,
6,
8,
8,
7,
7,
3,
3,
2,
2,
1,
1,
1,
1,
2,
2,
1,
1,
3,
3,
10,
10,
15,
15,
16,
16,
10,
10,
2,
2,
2,
2,
5,
5,
6,
6,
6,
6,
7,
7,
15,
15,
21,
21,
18,
1,
2,
14,
13,
13,
18,
18,
20,
20,
11,
11,
2,
2,
-1,
-1,
-1,
-1,
1,
1,
3,
3,
1,
1,
6,
6,
9,
9,
6,
6,
6,
6,
8,
22,
21,
21,
30,
30,
23,
9,
9,
9,
8,
20,
19,
19,
23,
23,
21,
21,
25,
25,
18,
18,
10,
10,
7,
7,
1,
1,
6,
6,
15,
15,
23,
23,
29,
29,
22,
5,
6,
6,
7,
7,
8,
8,
8,
8,
6,
6,
1,
1,
8,
8,
15,
15,
18,
18,
17,
17,
8,
8,
13,
31,
29,
29,
34,
23,
24,
6,
7,
7,
0,
0,
7,
20,
20,
20,
20,
20,
14,
14,
6,
6,
2,
2,
2,
2,
0,
0,
7,
7,
6,
6,
3,
3,
4,
4,
6,
6,
8,
8,
6,
6,
4,
4,
0,
0,
5,
5,
8,
8,
12,
12,
11,
11,
10,
10,
7,
7,
2,
2,
0,
0,
1,
1,
3,
3,
1,
1,
3,
3,
2,
2,
0,
0,
0,
0,
1,
1,
2,
2,
1,
1,
0,
0,
0,
0,
0,
0,
8,
8,
10,
10,
6,
6,
1,
1,
1,
1,
1,
1,
7,
7,
13,
13,
10,
10,
4,
4,
0,
0,
2,
2,
8,
8,
12,
12,
9,
9,
2,
2,
7,
7,
10,
10,
13,
13,
22,
22,
20,
7,
7,
7,
5,
5,
10,
10,
10,
10,
10,
10,
12,
12,
11,
11,
7,
7,
5,
5,
5,
5,
1,
1,
0,
0,
5,
5,
6,
6,
4,
4,
5,
5,
9,
9,
6,
6,
2,
2,
4,
4,
13,
13,
22,
22,
15,
1,
1,
12,
12,
12,
21,
21,
25,
25,
30,
30,
29,
29,
23,
6,
6,
18,
17,
50,
49,
64,
63,
63,
58,
16,
16,
16,
22,
50,
50,
63,
63,
63,
64,
50,
20,
20,
20,
4,
18,
42,
42,
60,
60,
60,
58,
58,
50,
28,
28,
9,
10,
10,
8,
8,
14,
14,
14,
14,
8,
8,
11,
11,
12,
12,
8,
8,
12,
12,
10,
10,
14,
1,
2,
2,
0,
0,
4,
4,
2,
2,
6,
6,
6,
6,
5,
5,
2,
2,
1,
1,
6,
6,
6,
6,
3,
3,
4,
4,
2,
2,
0,
0,
9,
9,
1,
1,
3,
3,
6,
6,
7,
7,
6,
6,
8,
8,
4,
4,
0,
0,
3,
3,
0,
0,
2,
2,
2,
2,
4,
4,
7,
7,
5,
5,
6,
6,
6,
6,
4,
4,
0,
0,
1,
1,
0,
0,
1,
1,
6,
6,
8,
8,
10,
10,
10,
10,
8,
8,
6,
6,
5,
17,
16,
16,
23,
23,
28,
28,
30,
30,
31,
31,
23,
12,
12,
1,
3,
24,
24,
24,
33,
33,
36,
36,
31,
31,
22,
10,
10,
10,
1,
1,
-1,
-1,
0,
0,
5,
5,
6,
6,
10,
21,
20,
20,
20,
4,
5,
23,
22,
46,
46,
46,
54,
54,
58,
58,
50,
17,
17,
2,
5,
5,
14,
14,
19,
19,
17,
17,
17,
17,
20,
20,
20,
20,
16,
16,
12,
12,
14,
14,
13,
13,
6,
6,
2,
2,
4,
4,
13,
13,
22,
22,
28,
28,
21,
2,
2,
2,
8,
8,
10,
10,
5,
5,
1,
1,
6,
6,
8,
8,
1,
1,
5,
5,
5,
5,
3,
3,
0,
0,
-1,
-1,
1,
1,
0,
0,
-1,
-1,
3,
3,
7,
7,
11,
11,
18,
18,
14,
1,
1,
16,
16,
35,
34,
53,
52,
52,
55,
30,
30,
2,
2,
15,
14,
14,
21,
21,
25,
25,
29,
29,
28,
28,
22,
22,
15,
15,
9,
9,
3,
3,
5,
5,
2,
2,
4,
4,
10,
10,
12,
12,
12,
12,
12,
12,
8,
8,
7,
7,
3,
3,
1,
1,
-1,
-1,
1,
1,
0,
0,
0,
0,
3,
3,
9,
9,
10,
10,
8,
8,
1,
1,
3,
3,
9,
9,
13,
13,
14,
14,
5,
5,
2,
2,
2,
2,
2,
2,
11,
11,
18,
18,
20,
20,
19,
19,
14,
1,
7,
26,
25,
25,
29,
29,
22,
4,
5,
5,
-1,
-1,
4,
4,
1,
1,
-1,
-1,
8,
8,
13,
2,
2,
2,
2,
2,
0,
0,
2,
2,
1,
1,
5,
16,
15,
15,
18,
18,
12,
1,
6,
27,
26,
51,
50,
61,
61,
61,
51,
20,
21,
4,
7,
7,
13,
13,
10,
10,
12,
12,
21,
21,
30,
30,
34,
34,
34,
34,
33,
22,
22,
22,
13,
13,
5,
5,
1,
1,
6,
6,
14,
14,
19,
19,
19,
19,
18,
18,
22,
22,
26,
26,
19,
2,
3,
3,
12,
12,
8,
8,
5,
5,
6,
6,
4,
4,
2,
2,
12,
29,
28,
45,
44,
44,
38,
9,
10,
10,
15,
28,
27,
27,
25,
25,
26,
26,
33,
33,
28,
11,
11,
0,
1,
1,
4,
4,
8,
8,
9,
9,
2,
2,
2,
2,
1,
1,
1,
1,
4,
4,
7,
7,
6,
6,
5,
5,
6,
6,
2,
2,
1,
1,
0,
0,
0,
0,
0,
0,
3,
3,
5,
5,
4,
4,
5,
5,
4,
4,
3,
3,
2,
2,
1,
1,
1,
1,
5,
5,
2,
2,
-1,
-1,
4,
4,
8,
8,
10,
10,
5,
5,
0,
0,
2,
2,
1,
1,
1,
1,
1,
1,
1,
1,
1,
1,
1,
1,
4,
4,
3,
3,
1,
1,
