EMG_S2/DS0076.CSV

Memory Length,4000,
Trigger Level,-4.80000e+02,
Source,CH1,
Probe,1.0X,
Vertical Units,V,
Vertical Scale,1.00000e+00,
Vertical Position,0.00000e+00,
Horizontal Units,S,
Horizontal Scale,1.00000e-01,
Horizontal Position,0.0000000e+00,
Horizontal Mode,Roll Mode,
Waveform Last Dot Address,4000,
Sampling Period,4.00000e-04,
Firmware,V1.14,
Time, ,
Mode,Fast,
Waveform Data,
9,
9,
6,
6,
0,
0,
3,
3,
6,
6,
5,
5,
6,
6,
6,
6,
5,
5,
12,
12,
20,
20,
21,
21,
23,
23,
16,
0,
1,
14,
14,
14,
23,
23,
29,
29,
33,
33,
29,
17,
18,
1,
2,
2,
4,
4,
2,
2,
5,
5,
6,
6,
2,
2,
10,
10,
8,
8,
1,
16,
16,
36,
36,
48,
47,
47,
43,
24,
25,
4,
5,
5,
7,
22,
21,
21,
23,
23,
14,
0,
1,
1,
1,
1,
0,
0,
6,
6,
14,
14,
18,
18,
18,
18,
14,
14,
8,
8,
1,
1,
4,
4,
5,
5,
8,
8,
10,
10,
11,
11,
9,
9,
8,
8,
5,
5,
2,
2,
1,
1,
4,
4,
6,
6,
9,
9,
4,
4,
0,
0,
0,
0,
2,
2,
6,
6,
6,
6,
9,
9,
12,
12,
14,
14,
14,
14,
9,
9,
2,
2,
11,
11,
17,
17,
18,
18,
16,
16,
13,
13,
7,
7,
2,
2,
4,
4,
8,
8,
9,
9,
8,
8,
7,
7,
5,
5,
2,
2,
0,
0,
0,
0,
2,
2,
3,
3,
2,
2,
0,
0,
0,
0,
0,
0,
1,
1,
1,
1,
1,
1,
1,
1,
0,
0,
-1,
-1,
0,
0,
0,
0,
-2,
-2,
4,
4,
2,
2,
3,
3,
2,
2,
0,
0,
4,
4,
4,
4,
2,
2,
2,
2,
-1,
-1,
-1,
-1,
-1,
-1,
0,
0,
-1,
-1,
1,
1,
-1,
-1,
-1,
-1,
0,
0,
1,
1,
1,
1,
-1,
-1,
0,
0,
0,
0,
5,
5,
7,
7,
6,
6,
4,
4,
3,
3,
3,
3,
0,
0,
4,
4,
7,
7,
5,
5,
2,
2,
0,
0,
2,
2,
9,
9,
12,
12,
10,
10,
5,
5,
2,
2,
2,
2,
4,
23,
22,
37,
36,
25,
25,
9,
9,
9,
5,
5,
7,
7,
4,
4,
0,
11,
10,
10,
19,
19,
19,
19,
18,
18,
18,
18,
15,
15,
9,
9,
1,
1,
4,
4,
7,
7,
10,
10,
12,
12,
10,
10,
6,
6,
5,
5,
10,
10,
7,
7,
0,
0,
1,
1,
1,
1,
0,
0,
0,
0,
2,
2,
5,
5,
5,
5,
4,
4,
2,
2,
2,
2,
1,
1,
0,
0,
4,
4,
4,
4,
1,
1,
-1,
-1,
3,
3,
1,
1,
2,
2,
9,
9,
12,
12,
10,
10,
8,
8,
3,
3,
1,
1,
0,
0,
6,
6,
13,
13,
10,
10,
6,
6,
4,
4,
3,
3,
4,
4,
2,
2,
1,
1,
0,
0,
0,
0,
2,
2,
2,
2,
3,
3,
3,
3,
3,
3,
5,
5,
7,
7,
7,
7,
3,
3,
0,
0,
2,
2,
4,
4,
6,
6,
8,
8,
6,
6,
1,
1,
6,
6,
5,
5,
8,
8,
16,
16,
18,
18,
10,
10,
5,
17,
16,
16,
21,
21,
17,
17,
12,
12,
8,
8,
4,
4,
0,
0,
1,
1,
4,
4,
5,
5,
4,
4,
4,
4,
6,
6,
8,
8,
9,
9,
10,
10,
9,
9,
6,
6,
4,
4,
0,
0,
3,
3,
6,
6,
7,
7,
7,
7,
12,
12,
13,
13,
9,
9,
3,
3,
6,
18,
18,
18,
25,
25,
19,
5,
6,
6,
2,
2,
3,
3,
-1,
-1,
6,
6,
14,
14,
18,
18,
17,
17,
8,
8,
2,
2,
10,
10,
10,
10,
5,
5,
0,
0,
2,
2,
1,
1,
0,
0,
0,
0,
1,
1,
4,
4,
4,
4,
2,
2,
1,
1,
2,
2,
1,
1,
8,
8,
9,
9,
6,
6,
0,
0,
2,
2,
7,
7,
6,
6,
2,
2,
-1,
-1,
-1,
-1,
1,
1,
2,
2,
0,
0,
3,
3,
6,
6,
3,
3,
3,
3,
4,
4,
7,
7,
10,
10,
2,
2,
6,
17,
17,
17,
18,
18,
9,
9,
1,
1,
3,
3,
5,
5,
3,
3,
4,
4,
5,
5,
4,
4,
2,
2,
6,
6,
11,
11,
17,
17,
17,
17,
7,
7,
8,
22,
22,
22,
29,
29,
29,
13,
13,
1,
5,
5,
12,
12,
12,
12,
7,
7,
8,
8,
9,
9,
12,
12,
22,
22,
26,
26,
21,
1,
3,
3,
4,
4,
9,
9,
14,
14,
20,
20,
24,
24,
19,
19,
13,
13,
13,
13,
8,
8,
1,
1,
5,
5,
10,
10,
9,
9,
8,
8,
10,
10,
10,
10,
9,
9,
7,
7,
1,
1,
6,
6,
10,
10,
7,
7,
5,
5,
1,
12,
11,
11,
17,
17,
26,
26,
21,
5,
6,
6,
4,
4,
10,
10,
11,
11,
9,
9,
9,
9,
8,
8,
8,
8,
7,
7,
7,
7,
3,
3,
-1,
-1,
2,
2,
5,
5,
6,
6,
7,
7,
6,
6,
5,
5,
3,
3,
0,
0,
1,
1,
6,
6,
6,
6,
6,
6,
6,
6,
4,
4,
2,
2,
11,
11,
21,
21,
27,
27,
18,
7,
8,
8,
2,
2,
10,
10,
13,
13,
9,
9,
7,
7,
7,
7,
12,
12,
11,
11,
5,
5,
2,
2,
0,
0,
3,
3,
0,
0,
4,
4,
9,
9,
14,
14,
16,
16,
18,
18,
12,
0,
1,
1,
6,
6,
5,
5,
5,
5,
6,
6,
2,
2,
3,
3,
2,
2,
2,
2,
1,
1,
9,
9,
11,
11,
10,
10,
6,
6,
1,
1,
2,
2,
6,
6,
7,
7,
5,
5,
6,
6,
7,
7,
8,
8,
2,
2,
9,
23,
22,
22,
21,
21,
16,
16,
7,
7,
7,
27,
27,
47,
46,
58,
57,
44,
44,
15,
16,
2,
6,
6,
14,
14,
24,
36,
33,
33,
36,
36,
33,
33,
26,
26,
16,
16,
10,
10,
1,
1,
4,
4,
12,
12,
16,
16,
14,
14,
13,
13,
14,
14,
15,
15,
12,
12,
9,
9,
1,
1,
2,
2,
2,
2,
3,
3,
1,
1,
4,
4,
7,
7,
3,
3,
1,
1,
6,
6,
11,
11,
10,
10,
6,
6,
1,
1,
-1,
-1,
-1,
-1,
-1,
-1,
-1,
-1,
-1,
-1,
-1,
-1,
2,
2,
1,
1,
0,
0,
1,
1,
2,
2,
0,
0,
3,
3,
11,
11,
19,
19,
20,
20,
14,
14,
7,
7,
0,
0,
8,
8,
12,
12,
13,
13,
9,
9,
7,
7,
5,
5,
4,
4,
2,
2,
-1,
-1,
2,
2,
1,
1,
-1,
-1,
-2,
-2,
-1,
-1,
2,
2,
2,
2,
4,
4,
7,
7,
8,
8,
8,
8,
1,
1,
6,
6,
14,
14,
5,
5,
3,
3,
5,
5,
5,
5,
1,
1,
0,
0,
4,
4,
10,
10,
4,
4,
4,
4,
6,
6,
7,
7,
6,
6,
3,
3,
3,
3,
2,
2,
-1,
-1,
1,
1,
6,
6,
7,
7,
3,
3,
1,
1,
4,
4,
5,
5,
4,
4,
1,
1,
3,
3,
2,
2,
2,
2,
5,
5,
13,
13,
12,
0,
2,
2,
6,
6,
1,
1,
8,
8,
2,
2,
3,
3,
1,
1,
4,
4,
11,
11,
13,
13,
10,
10,
2,
16,
16,
16,
21,
21,
19,
19,
14,
14,
10,
10,
5,
5,
1,
1,
2,
2,
4,
4,
4,
4,
13,
13,
14,
14,
11,
11,
7,
7,
1,
1,
-1,
-1,
1,
1,
2,
2,
2,
2,
3,
3,
9,
9,
13,
13,
12,
12,
5,
5,
4,
4,
11,
11,
13,
13,
14,
14,
12,
12,
9,
9,
4,
4,
0,
0,
-1,
-1,
-1,
-1,
-1,
-1,
0,
0,
5,
5,
9,
9,
10,
10,
11,
11,
9,
9,
7,
7,
7,
7,
2,
2,
3,
3,
6,
6,
8,
8,
7,
7,
5,
5,
3,
3,
1,
1,
1,
1,
2,
2,
-1,
-1,
1,
1,
1,
1,
0,
0,
5,
5,
8,
8,
4,
4,
1,
1,
2,
2,
2,
2,
1,
1,
0,
0,
3,
3,
6,
6,
4,
4,
1,
1,
1,
1,
2,
2,
0,
0,
2,
2,
6,
6,
12,
12,
14,
14,
13,
13,
7,
7,
0,
0,
1,
1,
0,
0,
2,
2,
6,
6,
7,
7,
7,
7,
6,
6,
6,
6,
6,
6,
5,
5,
1,
1,
-1,
-1,
0,
0,
-1,
-1,
1,
1,
2,
2,
3,
3,
5,
5,
5,
5,
6,
6,
5,
5,
2,
2,
0,
0,
0,
0,
1,
1,
0,
0,
2,
2,
2,
2,
2,
2,
2,
2,
3,
3,
1,
1,
1,
1,
4,
4,
6,
6,
10,
10,
10,
10,
9,
9,
1,
1,
10,
10,
11,
11,
6,
6,
0,
0,
-1,
-1,
1,
1,
5,
5,
7,
7,
2,
2,
1,
1,
5,
5,
6,
6,
5,
5,
4,
4,
4,
4,
4,
4,
-1,
-1,
5,
5,
6,
6,
6,
6,
6,
6,
4,
4,
2,
2,
2,
2,
1,
1,
-1,
-1,
-1,
-1,
1,
1,
5,
5,
5,
5,
4,
4,
1,
1,
6,
6,
6,
6,
0,
0,
5,
5,
6,
6,
5,
5,
4,
4,
9,
9,
9,
9,
13,
13,
13,
13,
12,
0,
1,
13,
12,
12,
21,
21,
18,
18,
9,
9,
0,
0,
2,
2,
4,
4,
3,
3,
1,
1,
2,
2,
4,
4,
2,
2,
2,
2,
6,
6,
8,
8,
10,
10,
12,
12,
8,
8,
2,
2,
-1,
-1,
1,
1,
5,
5,
8,
8,
11,
11,
10,
10,
4,
4,
1,
1,
7,
7,
15,
15,
17,
17,
10,
10,
2,
2,
3,
3,
8,
8,
12,
12,
12,
12,
12,
12,
10,
10,
6,
6,
1,
1,
6,
6,
10,
10,
10,
10,
5,
5,
4,
4,
1,
1,
-1,
-1,
1,
1,
1,
1,
-1,
-1,
1,
1,
4,
4,
5,
5,
2,
2,
1,
1,
7,
7,
8,
8,
0,
0,
2,
2,
2,
2,
3,
3,
6,
6,
6,
6,
1,
1,
0,
0,
0,
0,
-1,
-1,
0,
0,
3,
3,
5,
5,
5,
5,
3,
3,
1,
1,
0,
0,
0,
0,
-2,
-2,
-1,
-1,
1,
1,
0,
0,
0,
0,
1,
1,
0,
0,
1,
1,
0,
0,
4,
4,
5,
5,
3,
3,
4,
4,
4,
4,
5,
5,
8,
8,
7,
7,
6,
6,
2,
14,
14,
14,
14,
14,
12,
12,
14,
14,
12,
12,
4,
4,
3,
3,
1,
1,
-1,
-1,
0,
0,
5,
5,
8,
8,
7,
7,
6,
6,
4,
4,
7,
7,
11,
11,
9,
9,
1,
1,
0,
0,
2,
2,
5,
5,
5,
5,
9,
9,
12,
12,
6,
6,
2,
2,
8,
8,
6,
6,
2,
2,
-1,
-1,
1,
1,
6,
6,
5,
5,
2,
2,
4,
23,
23,
23,
30,
19,
19,
2,
5,
5,
13,
13,
10,
10,
10,
10,
8,
8,
5,
5,
2,
2,
2,
2,
5,
5,
6,
6,
4,
4,
1,
1,
6,
6,
6,
6,
0,
0,
0,
0,
6,
6,
14,
14,
19,
19,
12,
0,
0,
0,
5,
5,
6,
6,
5,
5,
2,
2,
2,
2,
-1,
-1,
1,
1,
4,
4,
4,
4,
4,
4,
0,
0,
-1,
-1,
3,
3,
5,
5,
7,
7,
5,
5,
3,
3,
4,
4,
1,
1,
-2,
-2,
1,
1,
2,
2,
1,
1,
2,
2,
6,
6,
6,
6,
3,
3,
1,
1,
5,
5,
5,
5,
2,
2,
0,
0,
2,
2,
9,
9,
13,
13,
8,
8,
1,
14,
14,
14,
23,
23,
24,
24,
14,
1,
2,
2,
8,
8,
6,
6,
-1,
-1,
-1,
-1,
0,
0,
1,
1,
3,
3,
2,
2,
0,
0,
4,
4,
8,
8,
10,
10,
10,
10,
8,
8,
6,
6,
5,
5,
3,
3,
2,
2,
7,
7,
8,
8,
7,
7,
6,
6,
5,
5,
2,
2,
0,
0,
1,
1,
3,
3,
8,
8,
3,
3,
1,
1,
5,
5,
8,
8,
6,
6,
6,
6,
0,
0,
2,
2,
9,
20,
19,
19,
26,
26,
28,
28,
18,
2,
2,
2,
11,
11,
21,
21,
24,
24,
23,
23,
20,
20,
15,
15,
11,
11,
6,
6,
2,
2,
7,
7,
10,
10,
9,
9,
9,
9,
8,
8,
6,
6,
6,
6,
5,
5,
1,
1,
0,
0,
2,
2,
1,
1,
1,
1,
1,
1,
-1,
-1,
1,
1,
0,
0,
3,
3,
7,
7,
5,
5,
2,
2,
0,
0,
4,
4,
7,
7,
8,
8,
0,
0,
0,
0,
0,
0,
0,
0,
1,
1,
4,
4,
0,
0,
3,
3,
0,
0,
0,
0,
-1,
-1,
0,
0,
2,
2,
10,
10,
14,
14,
11,
0,
1,
1,
8,
8,
10,
10,
9,
9,
8,
8,
6,
6,
6,
6,
3,
3,
1,
1,
6,
6,
7,
7,
2,
2,
4,
4,
6,
6,
2,
2,
6,
6,
7,
7,
6,
6,
2,
2,
2,
2,
3,
3,
4,
4,
1,
1,
1,
1,
2,
2,
6,
6,
8,
8,
4,
4,
3,
3,
4,
4,
-1,
-1,
-1,
-1,
1,
1,
3,
3,
7,
7,
6,
6,
5,
5,
-1,
-1,
5,
5,
8,
8,
7,
7,
0,
0,
2,
2,
1,
1,
6,
6,
12,
12,
14,
14,
10,
10,
1,
1,
0,
0,
2,
2,
0,
0,
7,
7,
9,
9,
6,
6,
6,
6,
7,
7,
12,
12,
12,
1,
1,
1,
2,
2,
0,
0,
2,
2,
1,
1,
0,
0,
6,
6,
10,
10,
13,
13,
13,
13,
11,
11,
9,
9,
4,
4,
0,
0,
5,
5,
7,
7,
6,
6,
7,
7,
1,
1,
2,
13,
12,
12,
13,
13,
6,
6,
2,
2,
8,
8,
8,
8,
3,
3,
3,
3,
2,
2,
3,
3,
2,
2,
4,
4,
4,
4,
2,
2,
0,
0,
0,
0,
0,
0,
3,
3,
7,
7,
9,
9,
6,
6,
2,
2,
0,
0,
-1,
-1,
-1,
-1,
1,
1,
5,
5,
7,
7,
5,
5,
0,
0,
2,
2,
5,
5,
3,
3,
4,
4,
5,
5,
8,
8,
8,
8,
9,
9,
3,
3,
4,
4,
8,
8,
4,
4,
0,
0,
-1,
-1,
5,
16,
16,
16,
17,
6,
7,
7,
1,
1,
6,
6,
9,
9,
3,
3,
2,
2,
-1,
-1,
0,
0,
1,
1,
1,
1,
3,
3,
5,
5,
5,
5,
2,
2,
0,
0,
1,
1,
1,
1,
2,
2,
3,
3,
5,
5,
5,
5,
2,
2,
1,
1,
7,
7,
14,
14,
16,
5,
5,
5,
5,
5,
11,
11,
16,
16,
22,
22,
21,
8,
9,
9,
6,
6,
14,
14,
18,
18,
13,
0,
2,
2,
12,
12,
20,
20,
23,
23,
18,
6,
7,
7,
7,
21,
20,
20,
24,
24,
23,
23,
23,
23,
14,
14,
7,
7,
0,
0,
2,
2,
4,
4,
6,
6,
6,
6,
6,
6,
12,
12,
16,
16,
18,
18,
8,
8,
5,
5,
9,
9,
2,
2,
6,
6,
12,
12,
14,
14,
10,
10,
2,
2,
6,
6,
10,
10,
13,
13,
11,
11,
10,
10,
10,
10,
5,
5,
4,
4,
8,
8,
2,
2,
1,
1,
3,
3,
3,
3,
4,
4,
10,
10,
9,
9,
5,
5,
3,
3,
4,
4,
0,
0,
4,
4,
3,
3,
1,
1,
-1,
-1,
-1,
-1,
0,
0,
0,
0,
0,
0,
1,
1,
-1,
-1,
-1,
-1,
2,
2,
2,
2,
1,
1,
2,
2,
4,
4,
5,
5,
4,
4,
1,
1,
1,
1,
2,
2,
-1,
-1,
-1,
-1,
3,
3,
1,
1,
-1,
-1,
0,
0,
2,
2,
3,
3,
0,
0,
6,
6,
10,
10,
10,
10,
3,
3,
7,
7,
11,
11,
12,
12,
6,
6,
0,
0,
2,
2,
4,
4,
2,
2,
1,
1,
2,
2,
6,
6,
11,
11,
9,
9,
1,
1,
3,
3,
9,
9,
5,
5,
6,
6,
10,
10,
8,
8,
0,
12,
11,
11,
18,
18,
14,
14,
6,
6,
2,
2,
1,
1,
9,
9,
15,
15,
10,
10,
1,
1,
0,
0,
1,
1,
-1,
-1,
5,
5,
10,
10,
8,
8,
2,
2,
3,
3,
-1,
-1,
5,
5,
11,
11,
10,
10,
6,
6,
0,
0,
1,
1,
1,
1,
6,
6,
9,
9,
11,
11,
13,
13,
10,
10,
2,
2,
10,
23,
23,
35,
34,
34,
41,
41,
33,
10,
10,
10,
12,
23,
22,
22,
26,
26,
29,
29,
33,
33,
31,
17,
18,
1,
2,
2,
1,
1,
1,
1,
10,
22,
22,
36,
35,
35,
34,
13,
13,
1,
2,
2,
8,
8,
11,
11,
10,
10,
4,
4,
1,
1,
9,
9,
17,
17,
15,
1,
2,
2,
6,
6,
10,
10,
7,
7,
4,
4,
5,
5,
6,
6,
7,
7,
5,
5,
2,
2,
-1,
-1,
2,
2,
5,
5,
6,
6,
3,
3,
4,
4,
12,
12,
22,
22,
22,
22,
17,
17,
16,
16,
8,
8,
1,
1,
9,
9,
10,
10,
9,
9,
6,
6,
5,
5,
8,
8,
10,
10,
6,
6,
2,
2,
0,
0,
4,
4,
6,
6,
6,
6,
2,
2,
1,
1,
6,
6,
0,
0,
6,
6,
12,
12,
6,
6,
1,
1,
-1,
-1,
0,
0,
2,
2,
2,
2,
-1,
-1,
2,
2,
2,
2,
2,
2,
1,
1,
4,
4,
2,
2,
4,
4,
1,
1,
3,
3,
5,
5,
1,
1,
-2,
-2,
0,
0,
2,
2,
1,
1,
-1,
-1,
-2,
-2,
-2,
-2,
-1,
-1,
-1,
-1,
-1,
-1,
0,
0,
2,
2,
6,
6,
5,
5,
3,
3,
2,
2,
3,
3,
3,
3,
0,
0,
1,
1,
5,
5,
6,
6,
8,
8,
5,
5,
0,
0,
5,
5,
10,
10,
12,
12,
10,
10,
12,
12,
6,
6,
1,
1,
5,
5,
5,
5,
9,
9,
17,
17,
21,
21,
14,
14,
6,
6,
2,
2,
1,
13,
13,
28,
28,
28,
31,
17,
17,
1,
2,
2,
11,
11,
10,
10,
0,
0,
3,
3,
11,
11,
19,
19,
14,
1,
2,
2,
8,
8,
15,
15,
22,
22,
30,
30,
26,
9,
10,
10,
3,
3,
6,
6,
13,
24,
23,
23,
26,
26,
18,
18,
10,
10,
4,
4,
1,
1,
-1,
-1,
1,
1,
5,
5,
11,
11,
12,
12,
12,
12,
11,
11,
8,
8,
5,
5,
1,
1,
5,
5,
0,
0,
1,
1,
0,
0,
0,
0,
5,
5,
6,
6,
3,
3,
3,
3,
0,
0,
4,
4,
5,
5,
2,
2,
1,
1,
-1,
-1,
2,
2,
0,
0,
0,
0,
1,
1,
0,
0,
2,
2,
4,
4,
1,
1,
0,
0,
0,
0,
-1,
-1,
-1,
-1,
2,
2,
4,
4,
4,
4,
5,
5,
1,
1,
-2,
-2,
1,
1,
6,
6,
9,
9,
8,
8,
2,
2,
2,
2,
3,
3,
2,
2,
6,
6,
3,
3,
0,
0,
1,
1,
0,
0,
1,
1,
-1,
-1,
-1,
-1,
1,
1,
0,
0,
-1,
-1,
2,
2,
0,
0,
5,
5,
8,
8,
6,
6,
5,
5,
4,
4,
2,
2,
4,
4,
0,
14,
14,
27,
26,
26,
18,
6,
6,
6,
8,
8,
5,
5,
3,
3,
12,
12,
14,
14,
20,
32,
31,
31,
40,
40,
31,
10,
10,
10,
8,
23,
22,
22,
25,
25,
20,
20,
18,
18,
21,
21,
18,
18,
13,
13,
6,
6,
0,
0,
2,
2,
4,
4,
7,
7,
8,
8,
8,
8,
7,
7,
8,
8,
7,
7,
8,
8,
10,
10,
7,
7,
1,
1,
6,
6,
10,
10,
8,
8,
6,
6,
6,
6,
0,
0,
2,
2,
9,
22,
21,
32,
31,
31,
35,
35,
25,
4,
8,
30,
30,
30,
34,
34,
30,
30,
24,
24,
18,
18,
10,
10,
1,
1,
2,
2,
5,
5,
6,
6,
7,
7,
7,
7,
8,
8,
8,
8,
7,
7,
5,
5,
6,
6,
5,
5,
0,
0,
-1,
-1,
2,
2,
3,
3,
1,
1,
-1,
-1,
2,
2,
1,
1,
4,
4,
3,
3,
2,
2,
2,
2,
2,
2,
0,
0,
0,
0,
3,
3,
3,
3,
0,
0,
-1,
-1,
0,
0,
2,
2,
4,
4,
2,
2,
-1,
-1,
5,
5,
7,
7,
8,
8,
9,
9,
5,
5,
6,
19,
18,
18,
22,
22,
15,
1,
1,
12,
11,
11,
13,
13,
14,
14,
16,
16,
18,
2,
4,
26,
26,
41,
40,
40,
42,
42,
40,
20,
21,
3,
9,
28,
28,
28,
33,
33,
31,
31,
26,
26,
23,
23,
22,
22,
13,
0,
1,
1,
2,
2,
4,
4,
6,
6,
13,
13,
17,
17,
16,
16,
14,
14,
15,
15,
14,
14,
5,
5,
1,
1,
3,
3,
2,
2,
2,
2,
2,
2,
1,
1,
4,
4,
5,
5,
5,
5,
1,
1,
-1,
-1,
3,
3,
8,
8,
9,
9,
4,
4,
3,
3,
6,
6,
6,
6,
6,
6,
4,
4,
4,
4,
1,
1,
0,
0,
0,
0,
3,
3,
2,
2,
2,
2,
2,
2,
5,
5,
6,
6,
6,
6,
4,
4,
0,
0,
1,
1,
2,
2,
2,
2,
2,
2,
2,
2,
2,
2,
2,
2,
0,
0,
-1,
-1,
0,
0,
0,
0,
0,
0,
0,
0,
1,
1,
0,
0,
-1,
-1,
1,
1,
0,
0,
2,
2,
4,
4,
3,
3,
4,
4,
2,
2,
0,
0,
1,
1,
2,
2,
1,
1,
2,
2,
1,
1,
0,
0,
-1,
-1,
1,
1,
2,
2,
2,
2,
2,
2,
2,
2,
-1,
-1,
0,
0,
1,
1,
2,
2,
3,
3,
0,
0,
-1,
-1,
-1,
-1,
1,
1,
2,
2,
1,
1,
0,
0,
0,
0,
1,
1,
1,
1,
-1,
-1,
1,
1,
0,
0,
1,
1,
4,
4,
5,
5,
6,
6,
5,
5,
-1,
-1,
2,
2,
4,
4,
5,
5,
5,
5,
4,
4,
4,
4,
0,
0,
0,
0,
-1,
-1,
-1,
-1,
1,
1,
1,
1,
5,
5,
8,
8,
6,
6,
1,
1,
4,
4,
9,
9,
10,
10,
8,
8,
9,
9,
9,
9,
1,
13,
13,
30,
29,
29,
38,
38,
36,
24,
25,
2,
3,
14,
13,
13,
20,
20,
23,
23,
22,
22,
20,
20,
16,
16,
12,
12,
5,
5,
0,
0,
0,
0,
3,
3,
6,
6,
7,
7,
8,
8,
8,
8,
6,
6,
6,
6,
5,
5,
5,
5,
6,
6,
6,
6,
4,
4,
2,
2,
0,
0,
2,
2,
6,
6,
12,
12,
20,
20,
26,
26,
19,
6,
6,
6,
7,
28,
28,
43,
43,
43,
48,
48,
42,
24,
24,
6,
6,
6,
11,
32,
32,
32,
40,
40,
36,
25,
26,
26,
20,
20,
15,
15,
9,
9,
2,
2,
4,
4,
8,
8,
9,
9,
10,
10,
11,
11,
12,
12,
20,
20,
22,
22,
13,
1,
5,
16,
14,
14,
21,
21,
18,
18,
10,
10,
10,
10,
2,
15,
14,
33,
33,
33,
41,
41,
36,
36,
26,
26,
22,
10,
10,
-1,
0,
0,
7,
25,
24,
40,
40,
40,
44,
44,
44,
44,
42,
31,
31,
17,
17,
6,
6,
6,
8,
23,
23,
23,
27,
27,
23,
23,
19,
19,
17,
17,
13,
13,
10,
10,
10,
10,
10,
10,
9,
9,
5,
5,
2,
2,
-1,
-1,
0,
0,
2,
2,
2,
2,
4,
4,
5,
5,
5,
5,
5,
5,
5,
5,
5,
5,
5,
5,
1,
1,
1,
1,
0,
0,
2,
2,
0,
0,
0,
0,
2,
2,
2,
2,
1,
1,
0,
0,
1,
1,
1,
1,
-1,
-1,
-1,
-1,
1,
1,
2,
2,
-1,
-1,
3,
3,
3,
3,
3,
3,
1,
1,
1,
1,
2,
2,
2,
2,
0,
0,
2,
2,
2,
2,
3,
3,
4,
4,
2,
2,
0,
0,
2,
2,
4,
4,
1,
1,
-1,
-1,
2,
2,
2,
2,
2,
2,
6,
6,
10,
10,
13,
13,
17,
17,
9,
9,
0,
0,
9,
9,
14,
14,
14,
14,
9,
9,
5,
5,
0,
0,
-1,
-1,
1,
1,
2,
2,
-1,
-1,
0,
0,
0,
0,
2,
2,
4,
4,
2,
2,
1,
1,
2,
2,
3,
3,
-1,
-1,
0,
0,
1,
1,
2,
2,
3,
3,
2,
2,
0,
0,
0,
0,
2,
2,
2,
2,
1,
1,
-1,
-1,
-1,
-1,
-1,
-1,
0,
0,
0,
0,
1,
1,
0,
0,
5,
5,
7,
7,
