EMG_S2/DS0060.CSV

Memory Length,4000,
Trigger Level,-4.80000e+02,
Source,CH1,
Probe,1.0X,
Vertical Units,V,
Vertical Scale,1.00000e+00,
Vertical Position,0.00000e+00,
Horizontal Units,S,
Horizontal Scale,1.00000e-01,
Horizontal Position,0.0000000e+00,
Horizontal Mode,Roll Mode,
Waveform Last Dot Address,4000,
Sampling Period,4.00000e-04,
Firmware,V1.14,
Time, ,
Mode,Fast,
Waveform Data,
9,
9,
4,
4,
2,
2,
2,
2,
3,
3,
3,
3,
1,
1,
1,
1,
0,
0,
-1,
-1,
5,
5,
2,
2,
-1,
-1,
3,
3,
0,
0,
2,
2,
0,
0,
-1,
-1,
4,
4,
14,
14,
13,
1,
1,
1,
1,
1,
8,
8,
7,
7,
13,
13,
18,
18,
10,
10,
5,
5,
2,
2,
2,
2,
5,
5,
9,
9,
12,
12,
9,
9,
1,
1,
0,
0,
-1,
-1,
2,
2,
3,
3,
0,
0,
3,
3,
3,
3,
3,
3,
2,
15,
14,
14,
17,
4,
5,
5,
8,
33,
33,
50,
47,
36,
37,
7,
8,
8,
18,
38,
38,
38,
41,
41,
35,
35,
30,
30,
25,
25,
17,
4,
4,
4,
5,
5,
3,
3,
13,
13,
12,
12,
15,
15,
14,
14,
17,
17,
13,
13,
10,
10,
9,
9,
6,
6,
3,
3,
5,
5,
3,
3,
10,
10,
1,
1,
3,
3,
10,
10,
17,
17,
14,
14,
8,
8,
4,
4,
0,
0,
3,
3,
10,
10,
3,
3,
-1,
-1,
5,
5,
1,
1,
5,
5,
2,
2,
1,
1,
2,
2,
1,
1,
8,
8,
11,
11,
12,
12,
13,
13,
8,
8,
3,
3,
2,
2,
0,
0,
3,
3,
11,
11,
6,
6,
2,
2,
3,
3,
4,
4,
3,
3,
0,
0,
0,
0,
0,
0,
1,
1,
-1,
-1,
-1,
-1,
2,
2,
0,
0,
3,
3,
3,
3,
6,
6,
5,
5,
3,
3,
2,
2,
2,
2,
4,
4,
3,
3,
9,
9,
7,
7,
3,
3,
0,
0,
5,
5,
7,
7,
9,
9,
10,
10,
1,
1,
2,
2,
4,
4,
1,
1,
-1,
-1,
0,
0,
1,
1,
3,
3,
11,
11,
12,
12,
3,
3,
2,
2,
10,
31,
31,
31,
28,
28,
26,
11,
11,
11,
3,
3,
10,
10,
15,
15,
20,
20,
14,
14,
12,
12,
11,
11,
8,
8,
2,
2,
2,
2,
6,
6,
6,
6,
3,
3,
1,
1,
2,
2,
3,
3,
2,
2,
2,
2,
5,
5,
5,
5,
1,
1,
0,
0,
0,
0,
3,
3,
2,
2,
1,
1,
1,
1,
3,
3,
0,
0,
1,
1,
0,
0,
2,
2,
0,
0,
1,
1,
-1,
-1,
1,
1,
0,
0,
2,
2,
0,
0,
2,
2,
3,
3,
2,
2,
0,
0,
2,
2,
0,
0,
0,
0,
2,
2,
4,
4,
5,
5,
2,
2,
7,
7,
5,
5,
4,
4,
4,
4,
2,
2,
1,
1,
-1,
-1,
1,
1,
9,
9,
17,
30,
30,
30,
34,
34,
34,
23,
23,
10,
11,
11,
8,
26,
25,
25,
34,
34,
37,
37,
37,
37,
30,
30,
23,
23,
14,
3,
4,
4,
1,
12,
12,
12,
10,
10,
16,
16,
20,
20,
21,
21,
22,
22,
17,
17,
9,
9,
6,
6,
4,
4,
0,
0,
5,
5,
5,
5,
7,
7,
6,
6,
2,
2,
6,
6,
4,
4,
1,
1,
1,
1,
5,
5,
11,
11,
13,
13,
14,
14,
8,
8,
1,
1,
7,
7,
14,
14,
15,
15,
17,
17,
13,
13,
12,
12,
9,
9,
6,
6,
2,
2,
7,
19,
18,
18,
22,
22,
13,
13,
12,
12,
14,
14,
8,
8,
3,
3,
0,
0,
7,
7,
8,
8,
2,
2,
0,
0,
2,
2,
2,
2,
2,
2,
4,
4,
10,
10,
10,
10,
9,
9,
2,
2,
4,
4,
9,
9,
15,
28,
26,
26,
32,
18,
18,
6,
6,
6,
6,
6,
5,
5,
9,
9,
9,
9,
8,
8,
7,
7,
10,
10,
14,
14,
15,
15,
12,
12,
5,
5,
1,
1,
0,
0,
-1,
-1,
2,
2,
6,
6,
10,
10,
3,
3,
4,
4,
11,
11,
13,
13,
8,
8,
1,
1,
9,
9,
17,
17,
19,
19,
18,
18,
12,
12,
6,
6,
4,
4,
10,
10,
10,
10,
12,
12,
15,
15,
14,
14,
13,
13,
8,
8,
2,
2,
3,
3,
5,
5,
6,
6,
5,
5,
2,
2,
2,
2,
0,
0,
5,
5,
7,
7,
4,
4,
-1,
-1,
5,
5,
5,
5,
6,
6,
6,
6,
7,
7,
-1,
-1,
1,
1,
-2,
-2,
2,
2,
1,
1,
8,
8,
15,
15,
20,
7,
8,
8,
2,
2,
11,
11,
18,
18,
21,
21,
16,
16,
9,
9,
2,
2,
-1,
-1,
2,
2,
2,
2,
2,
13,
12,
12,
16,
16,
22,
22,
21,
21,
12,
1,
2,
20,
19,
45,
45,
57,
55,
29,
30,
1,
2,
2,
12,
12,
20,
20,
23,
23,
26,
12,
13,
0,
2,
13,
12,
12,
19,
8,
9,
9,
4,
4,
4,
4,
7,
20,
18,
18,
25,
25,
25,
4,
5,
5,
6,
18,
17,
17,
21,
21,
22,
22,
18,
18,
10,
10,
2,
2,
8,
8,
3,
3,
0,
0,
0,
0,
4,
4,
5,
5,
4,
4,
2,
2,
3,
3,
-1,
-1,
4,
4,
2,
2,
0,
0,
7,
7,
8,
8,
6,
6,
0,
0,
-2,
-2,
1,
1,
3,
3,
1,
1,
-1,
-1,
-1,
-1,
4,
4,
10,
10,
10,
10,
8,
8,
4,
4,
4,
4,
12,
12,
13,
2,
3,
3,
1,
1,
9,
9,
10,
10,
0,
0,
5,
5,
6,
6,
2,
2,
1,
1,
3,
3,
2,
2,
1,
1,
-2,
-2,
2,
2,
5,
5,
1,
1,
4,
4,
6,
6,
2,
2,
1,
1,
1,
1,
4,
4,
3,
3,
0,
0,
2,
2,
8,
8,
4,
4,
0,
0,
0,
0,
0,
0,
4,
4,
5,
5,
1,
1,
4,
4,
4,
4,
10,
10,
12,
12,
7,
7,
15,
33,
32,
32,
32,
32,
23,
6,
6,
20,
18,
37,
35,
35,
25,
14,
14,
3,
4,
4,
1,
1,
6,
6,
14,
14,
13,
1,
3,
22,
22,
22,
26,
12,
13,
0,
2,
2,
7,
7,
7,
7,
1,
1,
6,
6,
9,
9,
8,
8,
2,
2,
4,
4,
3,
3,
-1,
-1,
2,
2,
7,
7,
5,
19,
18,
36,
35,
35,
34,
22,
22,
22,
16,
2,
9,
31,
31,
31,
33,
33,
30,
30,
22,
8,
8,
8,
0,
0,
1,
13,
13,
13,
8,
8,
0,
0,
2,
2,
5,
5,
8,
8,
14,
14,
6,
6,
3,
3,
6,
6,
3,
3,
0,
0,
7,
7,
4,
4,
1,
1,
0,
0,
1,
1,
1,
1,
1,
1,
2,
2,
3,
3,
-1,
-1,
3,
3,
6,
6,
8,
8,
6,
6,
8,
8,
0,
0,
0,
12,
11,
11,
10,
10,
13,
13,
9,
9,
7,
7,
8,
8,
6,
6,
14,
29,
29,
29,
34,
34,
40,
21,
22,
5,
6,
6,
10,
26,
26,
26,
36,
36,
35,
35,
25,
14,
16,
16,
8,
8,
1,
1,
0,
0,
3,
3,
9,
9,
10,
10,
13,
13,
11,
11,
9,
9,
7,
7,
4,
4,
3,
3,
6,
6,
13,
26,
26,
62,
50,
63,
63,
63,
64,
64,
64,
44,
44,
22,
22,
2,
6,
34,
34,
46,
46,
46,
52,
52,
46,
33,
33,
33,
25,
25,
16,
16,
16,
16,
13,
13,
17,
17,
16,
4,
5,
5,
6,
6,
16,
32,
30,
48,
48,
48,
48,
30,
30,
9,
10,
10,
0,
0,
6,
19,
19,
19,
22,
7,
8,
8,
5,
5,
14,
14,
16,
16,
10,
10,
2,
2,
8,
8,
12,
12,
10,
10,
6,
6,
2,
2,
8,
8,
14,
14,
16,
16,
10,
10,
3,
3,
6,
6,
4,
4,
-1,
-1,
0,
0,
1,
1,
1,
1,
6,
6,
13,
13,
21,
21,
26,
13,
13,
13,
6,
6,
1,
1,
0,
0,
0,
0,
0,
0,
5,
5,
6,
21,
20,
48,
45,
9,
9,
23,
23,
38,
37,
37,
34,
7,
11,
36,
35,
35,
41,
55,
54,
54,
64,
44,
44,
7,
8,
8,
0,
0,
8,
41,
41,
41,
46,
46,
42,
42,
41,
41,
39,
39,
32,
20,
20,
6,
6,
56,
56,
33,
60,
60,
64,
64,
58,
39,
39,
24,
25,
25,
16,
16,
10,
10,
11,
23,
22,
22,
25,
14,
15,
4,
5,
5,
7,
29,
29,
51,
50,
50,
56,
56,
50,
37,
37,
15,
15,
1,
5,
20,
18,
18,
22,
22,
12,
12,
4,
4,
0,
12,
12,
29,
28,
28,
30,
15,
16,
1,
2,
2,
6,
6,
9,
9,
9,
9,
8,
8,
6,
6,
4,
4,
4,
4,
1,
1,
1,
1,
2,
2,
0,
0,
0,
0,
1,
1,
1,
1,
-1,
-1,
5,
5,
10,
10,
9,
9,
6,
19,
18,
18,
14,
14,
6,
6,
2,
2,
11,
25,
25,
25,
25,
13,
13,
13,
8,
8,
3,
3,
5,
5,
10,
10,
16,
16,
8,
8,
12,
12,
11,
11,
14,
14,
7,
7,
7,
7,
2,
2,
0,
0,
4,
20,
20,
20,
25,
25,
25,
57,
37,
62,
57,
12,
13,
0,
1,
50,
30,
62,
61,
42,
42,
17,
17,
17,
14,
14,
6,
51,
51,
62,
48,
62,
62,
62,
59,
30,
31,
10,
11,
11,
2,
2,
10,
24,
24,
24,
29,
29,
24,
24,
17,
17,
8,
8,
9,
9,
6,
6,
0,
0,
1,
1,
2,
2,
6,
6,
12,
12,
8,
8,
0,
0,
6,
26,
25,
42,
42,
42,
42,
42,
35,
21,
22,
3,
4,
18,
17,
17,
27,
27,
26,
26,
25,
25,
22,
22,
21,
21,
18,
18,
18,
18,
10,
10,
2,
16,
16,
30,
30,
30,
37,
37,
17,
52,
27,
51,
45,
17,
18,
3,
4,
4,
7,
7,
3,
3,
5,
16,
16,
16,
13,
26,
25,
25,
22,
22,
20,
8,
9,
9,
9,
9,
1,
1,
8,
23,
22,
22,
29,
29,
22,
9,
9,
9,
10,
10,
13,
13,
20,
20,
22,
44,
28,
7,
14,
30,
30,
30,
30,
14,
14,
14,
6,
6,
2,
2,
6,
21,
21,
21,
28,
28,
24,
10,
10,
31,
31,
61,
43,
63,
63,
63,
64,
64,
41,
41,
42,
17,
18,
3,
11,
36,
35,
35,
43,
43,
53,
16,
17,
58,
58,
58,
58,
58,
61,
61,
62,
62,
63,
63,
63,
38,
38,
6,
14,
50,
50,
63,
62,
62,
63,
63,
64,
64,
64,
64,
64,
53,
53,
36,
37,
19,
20,
4,
4,
4,
10,
21,
21,
21,
29,
29,
32,
32,
36,
36,
36,
36,
37,
37,
32,
18,
18,
18,
18,
2,
3,
3,
2,
2,
2,
22,
22,
22,
30,
30,
28,
28,
18,
59,
59,
38,
55,
55,
64,
64,
64,
50,
60,
47,
61,
61,
63,
63,
57,
9,
11,
54,
53,
53,
62,
62,
63,
63,
63,
63,
64,
64,
64,
64,
62,
46,
46,
25,
26,
8,
8,
8,
9,
25,
24,
24,
33,
33,
42,
42,
45,
45,
42,
42,
45,
45,
49,
49,
49,
49,
44,
18,
18,
5,
6,
6,
4,
4,
2,
14,
12,
25,
24,
24,
27,
27,
22,
22,
18,
18,
20,
20,
27,
27,
32,
32,
28,
3,
4,
58,
38,
62,
62,
62,
63,
63,
64,
35,
36,
5,
7,
28,
27,
60,
60,
40,
55,
55,
59,
59,
63,
51,
51,
33,
60,
41,
58,
58,
62,
62,
64,
43,
44,
5,
6,
22,
22,
34,
33,
44,
44,
44,
49,
49,
52,
52,
49,
49,
41,
41,
33,
21,
22,
10,
11,
0,
1,
12,
12,
12,
18,
18,
20,
20,
22,
22,
21,
21,
19,
19,
17,
17,
14,
14,
9,
9,
7,
7,
4,
4,
2,
2,
2,
2,
4,
4,
2,
2,
2,
2,
4,
4,
5,
5,
6,
6,
5,
5,
4,
4,
3,
3,
1,
1,
-1,
-1,
1,
1,
0,
0,
0,
0,
1,
1,
1,
1,
0,
0,
1,
1,
1,
1,
2,
2,
1,
1,
1,
1,
-1,
-1,
1,
1,
0,
0,
1,
1,
0,
0,
0,
0,
0,
58,
34,
63,
62,
43,
44,
26,
29,
46,
41,
4,
5,
5,
11,
11,
18,
18,
14,
14,
6,
6,
6,
48,
48,
63,
41,
63,
62,
62,
63,
63,
60,
44,
44,
33,
34,
18,
18,
5,
5,
5,
6,
26,
25,
39,
38,
38,
46,
46,
46,
46,
62,
29,
29,
53,
52,
52,
48,
34,
34,
12,
13,
1,
6,
6,
10,
10,
4,
4,
-1,
-1,
-1,
-1,
1,
1,
1,
1,
2,
2,
5,
5,
1,
53,
53,
41,
56,
56,
64,
64,
64,
64,
62,
27,
27,
2,
5,
55,
46,
13,
13,
2,
13,
31,
6,
53,
53,
53,
61,
48,
61,
61,
62,
49,
60,
45,
60,
60,
62,
44,
44,
8,
13,
40,
40,
61,
61,
61,
63,
63,
63,
63,
63,
63,
63,
63,
56,
33,
34,
8,
9,
9,
12,
28,
28,
28,
37,
37,
30,
58,
37,
62,
61,
61,
64,
38,
22,
53,
31,
60,
60,
60,
53,
22,
23,
3,
6,
52,
52,
28,
41,
28,
28,
3,
4,
4,
7,
26,
26,
61,
61,
40,
61,
61,
63,
45,
58,
42,
57,
57,
62,
62,
63,
48,
49,
17,
18,
4,
16,
46,
45,
63,
62,
62,
63,
63,
55,
38,
38,
24,
25,
8,
8,
8,
8,
8,
16,
16,
15,
15,
10,
10,
2,
2,
4,
4,
6,
6,
12,
12,
10,
10,
3,
3,
6,
6,
10,
10,
13,
13,
13,
13,
12,
12,
11,
11,
12,
12,
11,
11,
8,
8,
3,
3,
2,
2,
6,
6,
10,
10,
16,
55,
24,
52,
52,
52,
58,
58,
64,
64,
64,
47,
47,
15,
15,
1,
16,
16,
15,
15,
21,
21,
21,
35,
25,
13,
14,
14,
18,
18,
23,
23,
30,
30,
36,
36,
31,
20,
20,
9,
9,
9,
3,
3,
12,
12,
13,
13,
10,
10,
15,
15,
23,
23,
25,
25,
19,
33,
32,
32,
23,
8,
9,
9,
3,
3,
9,
9,
10,
10,
10,
10,
10,
10,
8,
8,
8,
8,
8,
8,
6,
6,
2,
2,
3,
3,
5,
5,
4,
16,
15,
15,
7,
7,
5,
19,
18,
18,
26,
26,
21,
21,
24,
24,
25,
13,
13,
1,
5,
17,
17,
17,
18,
18,
21,
21,
22,
22,
20,
20,
14,
14,
9,
9,
5,
5,
0,
0,
1,
1,
2,
2,
0,
0,
1,
1,
3,
3,
1,
1,
3,
3,
10,
10,
13,
28,
28,
28,
33,
33,
30,
30,
24,
24,
16,
1,
2,
2,
6,
6,
9,
9,
15,
15,
21,
21,
24,
24,
24,
24,
20,
20,
13,
13,
5,
5,
2,
2,
5,
5,
7,
7,
3,
3,
5,
5,
13,
13,
18,
18,
18,
18,
17,
17,
19,
19,
13,
1,
7,
19,
18,
18,
22,
22,
19,
19,
15,
15,
5,
5,
5,
32,
31,
45,
44,
44,
44,
44,
44,
44,
50,
37,
38,
6,
7,
22,
22,
41,
40,
61,
61,
61,
64,
64,
64,
64,
56,
41,
41,
22,
22,
7,
7,
7,
5,
5,
14,
26,
26,
37,
36,
36,
38,
38,
34,
34,
30,
30,
31,
31,
24,
24,
18,
18,
16,
16,
10,
10,
1,
14,
14,
26,
25,
25,
24,
10,
10,
10,
1,
1,
5,
5,
7,
7,
4,
4,
1,
1,
6,
6,
10,
10,
12,
12,
11,
11,
10,
10,
7,
7,
4,
4,
1,
1,
6,
6,
6,
6,
1,
1,
6,
6,
4,
4,
2,
2,
6,
6,
6,
6,
12,
12,
17,
17,
18,
18,
10,
-1,
2,
2,
-1,
-1,
3,
3,
3,
3,
2,
2,
2,
2,
1,
1,
7,
7,
12,
12,
11,
11,
5,
5,
3,
3,
2,
2,
6,
6,
16,
16,
14,
14,
13,
13,
10,
10,
2,
2,
9,
25,
25,
25,
31,
31,
29,
29,
21,
6,
7,
7,
2,
2,
5,
5,
6,
6,
5,
5,
5,
5,
10,
10,
15,
15,
18,
18,
11,
11,
3,
3,
3,
3,
7,
7,
12,
12,
18,
18,
18,
18,
20,
20,
18,
18,
16,
5,
6,
6,
9,
20,
20,
20,
24,
24,
20,
20,
13,
13,
7,
7,
8,
8,
13,
13,
14,
14,
8,
8,
9,
9,
5,
5,
0,
0,
5,
5,
9,
24,
24,
41,
41,
62,
62,
62,
65,
34,
34,
8,
18,
30,
29,
29,
21,
21,
13,
13,
5,
5,
2,
15,
14,
49,
49,
63,
63,
63,
58,
39,
39,
15,
16,
1,
6,
20,
19,
19,
25,
25,
28,
28,
30,
30,
30,
30,
28,
28,
20,
20,
12,
12,
8,
8,
5,
5,
4,
4,
1,
1,
2,
2,
0,
0,
4,
4,
4,
4,
0,
0,
3,
3,
6,
6,
11,
11,
12,
12,
14,
14,
19,
19,
19,
19,
15,
15,
10,
10,
5,
5,
9,
29,
28,
28,
33,
33,
31,
31,
22,
8,
8,
8,
3,
3,
9,
21,
20,
20,
20,
20,
14,
14,
8,
8,
2,
2,
4,
4,
5,
5,
3,
3,
1,
1,
9,
9,
5,
5,
2,
2,
6,
6,
8,
8,
8,
8,
6,
6,
1,
1,
6,
6,
8,
8,
4,
4,
6,
6,
11,
11,
5,
5,
1,
1,
3,
3,
1,
1,
1,
1,
0,
0,
0,
0,
6,
6,
10,
10,
10,
10,
6,
6,
2,
2,
7,
7,
9,
9,
11,
11,
2,
2,
12,
12,
13,
1,
2,
2,
5,
5,
14,
26,
25,
25,
21,
3,
4,
25,
24,
24,
32,
32,
33,
33,
25,
12,
13,
1,
4,
27,
26,
43,
42,
29,
30,
11,
11,
0,
1,
1,
3,
3,
5,
5,
14,
14,
22,
22,
14,
2,
9,
22,
22,
22,
27,
27,
30,
30,
30,
30,
29,
29,
25,
14,
15,
15,
6,
6,
1,
1,
6,
25,
24,
40,
39,
50,
50,
63,
62,
62,
65,
65,
56,
14,
14,
14,
16,
34,
34,
47,
46,
46,
50,
50,
48,
48,
44,
44,
34,
34,
25,
12,
13,
1,
1,
1,
10,
10,
18,
18,
26,
26,
27,
27,
24,
24,
18,
18,
13,
13,
7,
7,
6,
6,
8,
8,
5,
5,
1,
1,
4,
4,
4,
4,
2,
2,
4,
4,
5,
5,
5,
5,
2,
2,
1,
1,
1,
1,
2,
2,
4,
4,
2,
2,
0,
0,
1,
1,
5,
5,
7,
7,
6,
6,
3,
3,
4,
4,
11,
11,
13,
13,
5,
5,
0,
0,
3,
3,
-1,
-1,
0,
11,
10,
24,
24,
24,
23,
23,
13,
0,
0,
0,
8,
8,
10,
10,
6,
6,
2,
2,
4,
4,
13,
13,
17,
17,
10,
10,
6,
6,
3,
3,
2,
2,
10,
10,
13,
13,
9,
9,
1,
1,
4,
4,
4,
4,
0,
0,
2,
2,
12,
12,
18,
18,
14,
14,
9,
9,
7,
7,
0,
0,
4,
4,
6,
6,
8,
8,
9,
9,
6,
6,
5,
5,
6,
6,
4,
4,
2,
2,
2,
2,
2,
2,
2,
2,
4,
4,
1,
1,
8,
8,
17,
28,
28,
28,
30,
30,
24,
4,
5,
26,
25,
46,
45,
45,
38,
14,
15,
2,
6,
6,
15,
15,
17,
17,
18,
18,
21,
21,
21,
8,
9,
9,
6,
18,
17,
17,
24,
24,
26,
26,
21,
10,
11,
11,
4,
4,
11,
11,
9,
9,
8,
8,
11,
11,
13,
13,
10,
10,
4,
4,
2,
2,
2,
2,
4,
4,
2,
2,
0,
0,
-1,
-1,
6,
6,
11,
11,
6,
6,
3,
3,
2,
2,
0,
0,
1,
1,
0,
0,
0,
0,
2,
2,
2,
2,
3,
3,
3,
3,
1,
1,
2,
2,
2,
2,
1,
1,
5,
5,
12,
12,
6,
6,
1,
1,
9,
9,
11,
11,
17,
17,
17,
4,
5,
5,
15,
15,
17,
4,
4,
4,
4,
4,
2,
2,
2,
2,
4,
4,
4,
4,
2,
2,
3,
3,
6,
6,
2,
14,
13,
13,
16,
16,
12,
12,
9,
9,
8,
8,
2,
2,
4,
4,
9,
9,
11,
11,
9,
9,
8,
8,
6,
6,
2,
2,
8,
8,
13,
13,
14,
14,
5,
5,
6,
22,
22,
22,
30,
30,
37,
22,
22,
2,
5,
5,
7,
7,
0,
0,
1,
1,
5,
5,
14,
14,
12,
12,
10,
10,
1,
1,
7,
7,
7,
7,
16,
16,
16,
16,
15,
15,
9,
9,
8,
8,
1,
15,
14,
14,
16,
16,
11,
11,
5,
5,
5,
5,
0,
0,
6,
6,
5,
5,
2,
2,
1,
1,
0,
52,
50,
31,
55,
40,
40,
40,
31,
31,
38,
38,
47,
60,
59,
59,
57,
35,
36,
10,
10,
10,
18,
58,
58,
58,
64,
64,
64,
64,
57,
39,
40,
21,
21,
10,
10,
10,
3,
3,
2,
2,
8,
8,
10,
23,
22,
22,
30,
30,
29,
29,
31,
45,
44,
33,
34,
15,
16,
3,
4,
4,
0,
0,
2,
2,
5,
5,
10,
10,
9,
9,
14,
14,
13,
13,
14,
14,
11,
11,
7,
7,
6,
6,
6,
6,
4,
4,
1,
1,
5,
5,
6,
6,
9,
9,
7,
7,
7,
7,
4,
4,
2,
2,
0,
0,
3,
3,
1,
1,
3,
3,
2,
2,
2,
2,
2,
2,
0,
0,
6,
6,
7,
7,
15,
15,
11,
11,
4,
4,
2,
2,
1,
1,
1,
1,
-1,
-1,
6,
6,
2,
2,
6,
20,
19,
19,
20,
20,
14,
14,
13,
13,
12,
12,
10,
10,
10,
10,
18,
18,
18,
2,
3,
22,
21,
36,
34,
34,
36,
36,
31,
31,
30,
30,
23,
9,
10,
10,
9,
9,
1,
1,
0,
0,
7,
7,
12,
12,
18,
18,
15,
15,
16,
16,
17,
17,
21,
21,
16,
16,
13,
13,
6,
6,
5,
5,
1,
1,
1,
1,
5,
5,
6,
6,
4,
4,
6,
6,
15,
15,
9,
9,
0,
0,
2,
2,
2,
2,
6,
6,
2,
2,
1,
1,
8,
8,
6,
6,
3,
3,
4,
4,
1,
1,
0,
0,
2,
13,
12,
12,
12,
12,
8,
8,
8,
8,
14,
14,
16,
16,
13,
13,
17,
17,
18,
18,
18,
18,
9,
9,
1,
14,
14,
14,
18,
18,
18,
18,
10,
10,
3,
3,
5,
5,
0,
0,
0,
0,
1,
1,
2,
2,
4,
4,
1,
1,
2,
2,
0,
0,
1,
1,
4,
4,
4,
4,
5,
5,
4,
4,
0,
0,
3,
3,
6,
6,
5,
5,
5,
5,
4,
4,
1,
1,
1,
1,
4,
4,
1,
1,
1,
1,
0,
0,
5,
5,
5,
5,
3,
3,
8,
8,
9,
9,
2,
2,
2,
2,
2,
2,
4,
4,
0,
0,
6,
6,
4,
4,
5,
5,
1,
1,
1,
1,
1,
1,
0,
0,
2,
2,
2,
2,
0,
0,
2,
2,
6,
6,
11,
11,
7,
7,
12,
1,
2,
14,
13,
25,
23,
23,
21,
7,
8,
8,
0,
0,
5,
5,
1,
1,
0,
0,
4,
4,
1,
1,
1,
1,
8,
21,
20,
20,
18,
18,
13,
13,
6,
6,
2,
20,
18,
18,
15,
15,
20,
20,
16,
16,
13,
13,
22,
22,
13,
13,
6,
6,
1,
12,
11,
11,
21,
21,
23,
23,
24,
5,
6,
6,
5,
17,
16,
16,
14,
14,
8,
8,
15,
15,
12,
12,
5,
5,
0,
0,
4,
4,
9,
9,
8,
8,
8,
8,
11,
11,
4,
4,
10,
10,
6,
6,
0,
0,
6,
6,
16,
16,
14,
14,
10,
10,
2,
2,
0,
14,
13,
13,
20,
20,
25,
25,
18,
18,
20,
2,
5,
5,
8,
8,
10,
10,
14,
14,
11,
11,
7,
7,
9,
9,
11,
11,
20,
20,
13,
13,
16,
16,
8,
8,
6,
6,
2,
2,
4,
4,
10,
10,
10,
10,
14,
14,
16,
16,
14,
14,
8,
8,
2,
2,
3,
3,
1,
1,
1,
1,
3,
15,
14,
2,
4,
4,
9,
9,
10,
10,
2,
52,
25,
44,
32,
9,
9,
9,
10,
-1,
0,
0,
1,
13,
12,
12,
2,
2,
0,
0,
6,
6,
7,
7,
6,
6,
3,
3,
1,
1,
1,
1,
4,
4,
1,
1,
8,
8,
13,
13,
15,
15,
18,
18,
11,
11,
6,
6,
0,
0,
5,
5,
6,
6,
8,
8,
7,
7,
7,
7,
