EMG_S2/DS0045.CSV

Memory Length,4000,
Trigger Level,-4.80000e+02,
Source,CH1,
Probe,1.0X,
Vertical Units,V,
Vertical Scale,1.00000e+00,
Vertical Position,0.00000e+00,
Horizontal Units,S,
Horizontal Scale,1.00000e-01,
Horizontal Position,0.0000000e+00,
Horizontal Mode,Roll Mode,
Waveform Last Dot Address,4000,
Sampling Period,4.00000e-04,
Firmware,V1.14,
Time, ,
Mode,Fast,
Waveform Data,
9,
9,
3,
3,
-1,
-1,
2,
2,
6,
6,
8,
8,
6,
6,
5,
5,
2,
2,
1,
1,
-1,
-1,
-1,
-1,
1,
1,
2,
2,
3,
3,
2,
2,
1,
1,
2,
2,
3,
3,
4,
4,
1,
1,
1,
1,
-1,
-1,
-1,
-1,
0,
0,
2,
2,
4,
4,
3,
3,
2,
2,
0,
0,
1,
1,
5,
5,
5,
5,
6,
6,
9,
9,
9,
9,
6,
6,
5,
5,
0,
0,
8,
8,
17,
17,
24,
24,
23,
23,
21,
21,
12,
1,
2,
14,
13,
13,
19,
19,
18,
18,
17,
17,
14,
14,
6,
6,
4,
4,
5,
5,
2,
2,
0,
0,
1,
1,
0,
0,
1,
1,
2,
2,
7,
7,
10,
10,
12,
12,
14,
14,
12,
12,
9,
9,
11,
11,
10,
10,
6,
6,
2,
2,
5,
5,
5,
5,
5,
5,
14,
14,
18,
18,
19,
19,
20,
20,
21,
21,
18,
18,
10,
10,
1,
1,
6,
6,
15,
15,
20,
20,
19,
19,
16,
16,
12,
1,
2,
2,
2,
2,
5,
5,
5,
5,
1,
1,
0,
0,
4,
4,
6,
6,
8,
8,
9,
9,
1,
1,
8,
8,
8,
8,
9,
9,
9,
9,
9,
9,
11,
11,
8,
8,
2,
2,
9,
9,
12,
12,
14,
14,
13,
13,
10,
10,
5,
5,
2,
2,
3,
3,
0,
0,
2,
2,
9,
9,
9,
9,
3,
3,
0,
0,
-1,
-1,
-1,
-1,
1,
1,
3,
3,
4,
4,
2,
2,
0,
0,
1,
1,
2,
2,
2,
2,
-1,
-1,
1,
1,
4,
4,
6,
6,
5,
5,
0,
0,
5,
5,
9,
9,
12,
12,
13,
13,
6,
6,
1,
1,
2,
2,
6,
6,
8,
8,
9,
9,
9,
9,
6,
6,
5,
5,
2,
2,
0,
0,
1,
1,
4,
4,
7,
7,
6,
6,
9,
9,
9,
9,
5,
5,
2,
2,
4,
4,
1,
1,
2,
2,
-1,
-1,
0,
0,
0,
0,
1,
1,
5,
5,
6,
6,
5,
5,
1,
1,
0,
0,
-1,
-1,
7,
7,
8,
8,
0,
0,
5,
5,
6,
6,
4,
4,
-1,
-1,
2,
2,
5,
5,
3,
3,
2,
2,
-1,
-1,
6,
6,
10,
10,
13,
13,
12,
12,
13,
13,
16,
1,
1,
1,
6,
6,
10,
10,
4,
4,
0,
0,
2,
2,
2,
2,
3,
3,
8,
8,
6,
6,
2,
2,
1,
1,
2,
2,
3,
3,
0,
0,
-1,
-1,
0,
0,
2,
2,
5,
5,
6,
6,
1,
1,
2,
2,
2,
2,
2,
2,
4,
4,
7,
7,
13,
13,
17,
17,
11,
11,
6,
6,
10,
10,
9,
9,
4,
4,
2,
2,
2,
2,
0,
0,
2,
2,
5,
5,
2,
2,
0,
0,
0,
0,
1,
1,
0,
0,
3,
3,
4,
4,
4,
4,
6,
6,
6,
6,
2,
2,
0,
0,
1,
1,
1,
1,
5,
5,
3,
3,
0,
0,
-1,
-1,
-1,
-1,
1,
1,
1,
1,
0,
0,
0,
0,
0,
0,
2,
2,
0,
0,
4,
4,
3,
3,
1,
1,
8,
8,
12,
12,
12,
12,
8,
8,
3,
3,
1,
1,
0,
0,
4,
4,
1,
1,
0,
0,
1,
1,
4,
4,
13,
13,
17,
17,
17,
17,
12,
12,
5,
5,
3,
3,
9,
9,
12,
12,
11,
11,
6,
6,
5,
5,
2,
2,
1,
1,
1,
1,
2,
2,
0,
0,
2,
2,
4,
4,
2,
2,
5,
5,
6,
6,
2,
2,
2,
2,
2,
2,
3,
3,
5,
5,
10,
10,
9,
9,
5,
5,
1,
1,
-1,
-1,
0,
0,
3,
3,
2,
2,
4,
4,
3,
3,
1,
1,
2,
2,
11,
11,
13,
13,
8,
8,
1,
1,
7,
7,
13,
13,
17,
17,
17,
17,
14,
3,
3,
3,
4,
4,
12,
12,
14,
14,
9,
9,
8,
8,
13,
13,
12,
12,
5,
5,
2,
2,
5,
5,
6,
6,
10,
10,
16,
16,
15,
15,
13,
13,
8,
8,
0,
0,
5,
5,
8,
8,
3,
3,
1,
1,
-1,
-1,
-1,
-1,
1,
1,
4,
4,
7,
7,
12,
12,
13,
13,
11,
11,
8,
8,
0,
0,
2,
2,
8,
8,
17,
17,
23,
23,
26,
26,
16,
5,
6,
6,
3,
3,
8,
8,
6,
6,
6,
6,
3,
3,
4,
4,
6,
6,
8,
8,
9,
9,
5,
5,
0,
0,
7,
7,
10,
10,
10,
10,
6,
6,
0,
0,
3,
3,
1,
1,
-2,
-2,
-2,
-2,
1,
1,
1,
1,
1,
1,
4,
4,
5,
5,
4,
4,
-1,
-1,
-1,
-1,
2,
2,
2,
2,
1,
1,
5,
5,
12,
12,
12,
12,
10,
10,
2,
2,
0,
0,
0,
0,
0,
0,
1,
1,
4,
4,
2,
2,
0,
0,
2,
2,
5,
5,
5,
5,
6,
6,
2,
2,
0,
0,
5,
5,
6,
6,
6,
6,
8,
8,
9,
9,
8,
8,
3,
3,
-1,
-1,
3,
3,
4,
4,
4,
4,
5,
5,
8,
8,
7,
7,
1,
1,
7,
7,
12,
12,
8,
8,
0,
0,
5,
5,
6,
6,
4,
4,
5,
5,
4,
4,
6,
6,
5,
5,
0,
0,
5,
5,
11,
11,
13,
13,
18,
18,
20,
20,
16,
16,
8,
8,
2,
2,
3,
3,
12,
12,
18,
18,
19,
19,
14,
14,
10,
10,
9,
9,
6,
6,
4,
4,
1,
1,
6,
6,
11,
11,
10,
10,
6,
6,
5,
5,
6,
6,
6,
6,
6,
6,
4,
4,
0,
0,
5,
5,
5,
5,
1,
1,
3,
3,
4,
4,
6,
6,
9,
9,
9,
9,
2,
2,
3,
3,
13,
13,
20,
20,
20,
20,
13,
13,
5,
5,
2,
2,
8,
8,
11,
11,
13,
13,
10,
10,
6,
6,
6,
6,
7,
7,
6,
6,
8,
8,
2,
2,
6,
6,
12,
12,
11,
11,
9,
9,
9,
9,
8,
8,
9,
9,
4,
4,
3,
3,
6,
6,
10,
10,
13,
13,
13,
13,
9,
9,
1,
1,
0,
0,
5,
5,
6,
6,
5,
5,
2,
2,
0,
0,
3,
3,
4,
4,
6,
6,
4,
4,
2,
2,
4,
4,
1,
1,
-1,
-1,
2,
2,
4,
4,
6,
6,
4,
4,
4,
4,
3,
3,
2,
2,
-1,
-1,
2,
2,
1,
1,
1,
1,
2,
2,
2,
2,
-1,
-1,
0,
0,
5,
5,
10,
10,
7,
7,
6,
6,
4,
4,
1,
1,
5,
5,
6,
6,
6,
6,
1,
1,
1,
1,
6,
6,
5,
5,
0,
0,
2,
2,
4,
4,
2,
2,
4,
4,
2,
2,
1,
1,
2,
2,
2,
2,
1,
1,
6,
6,
8,
8,
5,
5,
1,
1,
5,
5,
9,
9,
5,
5,
5,
5,
9,
9,
16,
16,
17,
17,
10,
10,
2,
2,
-1,
-1,
8,
21,
21,
21,
24,
13,
13,
13,
3,
3,
1,
1,
9,
9,
16,
16,
14,
14,
10,
10,
6,
6,
0,
0,
-1,
-1,
2,
2,
7,
7,
10,
10,
13,
13,
14,
14,
9,
9,
2,
2,
1,
1,
5,
5,
5,
5,
3,
3,
6,
6,
6,
6,
8,
8,
8,
8,
6,
6,
4,
4,
0,
0,
-1,
-1,
2,
2,
3,
3,
2,
2,
1,
1,
4,
4,
0,
0,
0,
0,
3,
3,
7,
7,
11,
11,
7,
7,
0,
0,
4,
4,
7,
7,
7,
7,
10,
10,
13,
13,
10,
10,
6,
6,
2,
2,
3,
3,
7,
7,
5,
5,
6,
6,
6,
6,
6,
6,
6,
6,
10,
10,
13,
13,
16,
16,
15,
15,
8,
8,
2,
14,
13,
13,
20,
20,
21,
21,
18,
18,
12,
12,
6,
6,
2,
2,
0,
0,
4,
4,
6,
6,
7,
7,
6,
6,
6,
6,
6,
6,
6,
6,
5,
5,
2,
2,
-1,
-1,
2,
2,
5,
5,
6,
6,
2,
2,
0,
0,
1,
1,
8,
8,
14,
14,
16,
16,
16,
16,
14,
14,
9,
9,
1,
12,
11,
11,
21,
21,
24,
24,
20,
20,
17,
17,
14,
14,
8,
8,
-1,
-1,
1,
1,
2,
2,
5,
5,
9,
9,
14,
14,
14,
14,
18,
18,
17,
17,
11,
11,
6,
6,
2,
2,
0,
0,
2,
2,
7,
7,
10,
10,
11,
11,
10,
10,
8,
8,
8,
8,
11,
11,
9,
9,
4,
4,
1,
1,
6,
6,
13,
13,
20,
20,
24,
24,
21,
21,
13,
1,
2,
2,
6,
6,
12,
12,
14,
14,
14,
14,
12,
12,
9,
9,
3,
3,
1,
1,
2,
2,
-1,
-1,
3,
3,
6,
6,
7,
7,
7,
7,
6,
6,
7,
7,
10,
10,
15,
15,
20,
20,
13,
1,
3,
14,
14,
14,
21,
21,
28,
28,
28,
28,
19,
19,
12,
1,
2,
15,
14,
14,
22,
22,
25,
25,
25,
25,
15,
15,
9,
9,
1,
1,
6,
6,
10,
10,
12,
12,
13,
13,
10,
10,
7,
7,
6,
6,
1,
1,
-1,
-1,
0,
0,
5,
5,
5,
5,
1,
1,
0,
0,
1,
1,
6,
6,
2,
2,
6,
19,
19,
19,
29,
29,
30,
19,
19,
19,
10,
10,
1,
1,
11,
11,
16,
16,
17,
17,
18,
18,
18,
18,
16,
16,
12,
12,
9,
9,
6,
6,
3,
3,
1,
1,
2,
2,
6,
6,
9,
9,
13,
13,
13,
13,
11,
11,
11,
11,
10,
10,
8,
8,
4,
4,
2,
2,
2,
2,
2,
2,
2,
2,
4,
4,
1,
1,
2,
2,
4,
4,
5,
5,
7,
7,
7,
7,
2,
2,
12,
12,
22,
22,
18,
18,
14,
14,
8,
8,
3,
3,
0,
0,
6,
6,
16,
16,
20,
20,
18,
18,
9,
9,
4,
4,
-1,
-1,
8,
8,
11,
11,
10,
10,
7,
7,
5,
5,
7,
7,
2,
2,
6,
20,
19,
19,
20,
20,
18,
18,
22,
22,
20,
6,
7,
7,
4,
4,
12,
12,
18,
18,
21,
21,
20,
20,
17,
17,
18,
18,
14,
14,
9,
9,
4,
4,
6,
6,
13,
13,
16,
16,
15,
15,
12,
12,
7,
7,
2,
2,
-1,
-1,
-1,
-1,
0,
0,
1,
1,
1,
1,
0,
0,
5,
5,
8,
8,
10,
10,
8,
8,
2,
2,
0,
0,
2,
2,
9,
9,
12,
1,
6,
6,
15,
15,
14,
14,
13,
13,
18,
18,
19,
19,
14,
14,
8,
8,
1,
1,
1,
1,
2,
2,
1,
1,
1,
1,
2,
2,
3,
3,
3,
3,
8,
8,
17,
17,
18,
18,
20,
20,
20,
20,
19,
19,
13,
13,
9,
9,
2,
2,
6,
20,
20,
20,
29,
29,
26,
26,
21,
21,
13,
13,
9,
9,
7,
7,
4,
4,
1,
1,
8,
8,
15,
15,
22,
22,
29,
29,
28,
12,
12,
12,
9,
9,
18,
18,
17,
17,
13,
13,
10,
10,
6,
6,
1,
1,
5,
5,
5,
5,
8,
8,
11,
11,
9,
9,
2,
2,
1,
1,
2,
2,
1,
1,
3,
3,
5,
5,
4,
4,
0,
0,
-1,
-1,
2,
2,
0,
0,
7,
7,
15,
15,
20,
20,
19,
4,
4,
4,
9,
9,
14,
14,
14,
14,
12,
12,
11,
11,
8,
8,
4,
4,
1,
1,
-1,
-1,
1,
1,
6,
6,
9,
9,
10,
10,
9,
9,
3,
3,
0,
0,
1,
1,
2,
2,
2,
2,
-1,
-1,
5,
5,
6,
6,
6,
6,
1,
1,
-1,
-1,
3,
3,
6,
6,
7,
7,
1,
1,
6,
6,
7,
7,
9,
9,
10,
10,
6,
6,
2,
2,
2,
2,
0,
0,
6,
6,
9,
9,
6,
6,
2,
2,
4,
4,
8,
8,
14,
14,
14,
14,
6,
6,
10,
26,
25,
25,
27,
27,
21,
21,
25,
25,
23,
10,
11,
-1,
0,
0,
2,
13,
13,
27,
27,
27,
30,
30,
25,
25,
17,
17,
7,
7,
1,
1,
8,
8,
9,
9,
2,
2,
4,
4,
10,
10,
14,
14,
17,
17,
14,
1,
1,
1,
7,
7,
5,
5,
5,
5,
13,
13,
16,
16,
17,
17,
13,
0,
1,
1,
2,
2,
2,
2,
2,
2,
6,
6,
8,
8,
3,
19,
18,
18,
22,
22,
16,
16,
12,
12,
9,
9,
5,
5,
1,
1,
5,
5,
8,
8,
5,
5,
1,
1,
4,
4,
3,
3,
2,
2,
5,
5,
8,
8,
3,
3,
9,
9,
11,
11,
9,
9,
2,
2,
7,
7,
12,
12,
16,
16,
15,
15,
16,
16,
21,
21,
17,
17,
15,
15,
6,
18,
18,
30,
29,
29,
26,
26,
20,
20,
18,
18,
18,
18,
17,
17,
15,
15,
10,
10,
5,
5,
2,
2,
11,
11,
17,
17,
18,
18,
20,
20,
18,
18,
14,
14,
13,
13,
6,
6,
0,
0,
2,
2,
2,
2,
4,
4,
8,
8,
12,
12,
3,
3,
11,
28,
28,
28,
37,
24,
26,
4,
7,
22,
22,
22,
25,
25,
22,
22,
20,
20,
12,
12,
8,
8,
8,
8,
7,
7,
7,
7,
5,
5,
1,
1,
6,
6,
7,
7,
5,
5,
5,
5,
8,
8,
11,
11,
12,
12,
9,
9,
4,
4,
3,
3,
6,
6,
8,
8,
10,
10,
12,
12,
9,
9,
4,
4,
13,
13,
15,
15,
12,
12,
4,
4,
1,
1,
2,
2,
3,
3,
6,
6,
6,
6,
4,
4,
4,
4,
8,
8,
5,
5,
3,
3,
7,
7,
10,
10,
4,
4,
-1,
-1,
-1,
-1,
1,
1,
1,
1,
2,
2,
10,
10,
16,
16,
14,
14,
14,
30,
29,
29,
31,
11,
11,
11,
5,
5,
14,
28,
28,
39,
38,
38,
39,
24,
24,
7,
8,
8,
6,
6,
6,
6,
2,
2,
2,
2,
3,
3,
2,
2,
8,
8,
17,
17,
21,
21,
13,
13,
7,
7,
6,
6,
16,
16,
22,
22,
23,
23,
28,
28,
23,
4,
8,
32,
32,
32,
38,
38,
36,
22,
22,
7,
7,
7,
1,
1,
6,
6,
13,
13,
5,
5,
4,
4,
2,
2,
1,
1,
1,
1,
5,
5,
2,
2,
0,
0,
2,
2,
2,
2,
5,
5,
10,
10,
9,
9,
6,
6,
3,
3,
5,
20,
20,
20,
22,
10,
11,
11,
6,
6,
13,
2,
2,
16,
16,
16,
24,
24,
29,
29,
23,
7,
8,
8,
9,
20,
20,
20,
23,
23,
20,
20,
21,
21,
24,
24,
17,
17,
9,
9,
3,
3,
-1,
-1,
1,
1,
3,
3,
5,
5,
7,
7,
13,
13,
20,
20,
20,
20,
15,
15,
10,
10,
6,
6,
3,
3,
4,
4,
5,
5,
5,
5,
4,
4,
-1,
-1,
5,
18,
18,
18,
22,
22,
19,
19,
12,
12,
9,
9,
4,
4,
0,
0,
4,
4,
6,
6,
6,
6,
4,
4,
4,
4,
1,
1,
-1,
-1,
5,
5,
6,
6,
4,
4,
0,
0,
1,
1,
0,
0,
2,
2,
6,
6,
6,
6,
5,
5,
2,
2,
1,
1,
2,
2,
9,
9,
9,
9,
3,
3,
0,
0,
3,
3,
7,
7,
9,
9,
1,
1,
3,
3,
6,
6,
6,
6,
5,
5,
2,
2,
2,
2,
-2,
-2,
0,
0,
2,
2,
6,
6,
3,
3,
1,
1,
1,
1,
4,
4,
0,
0,
4,
4,
12,
12,
18,
18,
19,
19,
9,
9,
3,
3,
8,
8,
13,
13,
14,
14,
13,
13,
10,
10,
7,
7,
4,
4,
6,
6,
6,
6,
3,
3,
7,
7,
6,
6,
2,
2,
5,
5,
4,
4,
4,
4,
10,
10,
13,
26,
25,
25,
30,
30,
24,
2,
2,
16,
15,
15,
24,
24,
29,
29,
34,
34,
26,
26,
18,
5,
6,
6,
11,
11,
20,
20,
18,
18,
12,
1,
2,
2,
0,
0,
4,
4,
8,
8,
5,
5,
0,
0,
1,
1,
4,
4,
6,
6,
9,
9,
13,
13,
13,
13,
8,
8,
5,
5,
0,
0,
2,
2,
6,
6,
6,
6,
3,
3,
1,
1,
1,
1,
1,
1,
0,
0,
4,
4,
5,
5,
3,
3,
10,
10,
10,
10,
6,
6,
2,
2,
0,
0,
2,
2,
3,
3,
5,
5,
6,
6,
3,
3,
0,
0,
1,
1,
-1,
-1,
2,
2,
1,
1,
2,
2,
0,
0,
1,
1,
6,
6,
12,
12,
14,
14,
10,
10,
5,
5,
4,
4,
7,
7,
9,
9,
13,
13,
14,
14,
9,
9,
6,
6,
1,
1,
8,
8,
13,
13,
20,
20,
20,
20,
18,
18,
14,
0,
1,
1,
6,
6,
14,
14,
20,
20,
22,
22,
18,
18,
13,
13,
7,
7,
2,
2,
1,
1,
4,
4,
6,
6,
8,
8,
10,
10,
10,
10,
7,
7,
5,
5,
6,
6,
8,
8,
7,
7,
1,
1,
-1,
-1,
5,
5,
4,
4,
5,
5,
1,
1,
5,
5,
8,
8,
5,
5,
6,
6,
6,
6,
2,
2,
-1,
-1,
5,
5,
8,
20,
19,
19,
27,
27,
27,
14,
14,
1,
3,
16,
15,
31,
30,
44,
44,
44,
35,
9,
9,
9,
9,
21,
21,
21,
20,
20,
17,
17,
14,
14,
13,
13,
12,
12,
7,
7,
2,
2,
1,
1,
8,
8,
17,
17,
25,
25,
26,
26,
19,
1,
3,
3,
2,
2,
5,
5,
8,
8,
9,
9,
2,
14,
13,
13,
14,
14,
10,
10,
8,
8,
5,
5,
0,
0,
1,
1,
5,
5,
6,
6,
5,
5,
0,
0,
2,
2,
5,
5,
1,
1,
-1,
-1,
5,
5,
12,
12,
12,
12,
2,
2,
1,
1,
2,
2,
5,
5,
8,
8,
6,
6,
3,
3,
0,
0,
-1,
-1,
-1,
-1,
1,
1,
3,
3,
5,
5,
8,
8,
8,
8,
8,
8,
2,
2,
2,
2,
6,
6,
3,
3,
0,
0,
4,
4,
13,
13,
14,
14,
9,
9,
8,
8,
6,
6,
1,
1,
5,
5,
12,
12,
20,
20,
22,
22,
17,
1,
2,
2,
3,
3,
4,
4,
9,
9,
12,
12,
14,
14,
13,
13,
10,
10,
5,
5,
0,
0,
4,
4,
7,
7,
7,
7,
6,
6,
6,
6,
4,
4,
3,
3,
1,
1,
2,
2,
6,
6,
5,
5,
1,
1,
5,
5,
10,
10,
14,
14,
9,
9,
1,
16,
14,
14,
18,
6,
6,
6,
7,
19,
18,
18,
26,
26,
17,
5,
5,
5,
6,
6,
9,
9,
9,
9,
14,
14,
20,
20,
21,
21,
22,
22,
13,
2,
3,
3,
10,
26,
26,
26,
26,
26,
23,
23,
17,
6,
6,
6,
0,
0,
0,
0,
1,
1,
7,
7,
12,
12,
10,
10,
6,
6,
4,
4,
0,
0,
4,
4,
9,
9,
10,
10,
5,
5,
10,
10,
14,
14,
12,
12,
7,
7,
4,
4,
1,
1,
5,
5,
12,
12,
12,
12,
8,
8,
2,
2,
1,
1,
5,
5,
13,
13,
10,
10,
4,
4,
2,
15,
14,
28,
27,
27,
29,
29,
25,
13,
13,
2,
2,
2,
1,
14,
14,
14,
17,
17,
13,
13,
12,
12,
20,
20,
26,
26,
23,
23,
16,
16,
8,
8,
1,
1,
2,
2,
9,
9,
11,
11,
14,
14,
17,
17,
17,
17,
14,
14,
12,
12,
9,
9,
9,
9,
7,
7,
3,
3,
0,
0,
0,
0,
3,
3,
8,
8,
10,
10,
13,
13,
12,
12,
4,
4,
0,
0,
2,
2,
0,
0,
-1,
-1,
1,
1,
2,
2,
7,
7,
13,
13,
12,
12,
6,
6,
5,
5,
2,
2,
5,
5,
13,
13,
14,
14,
12,
12,
7,
7,
4,
4,
0,
0,
6,
6,
8,
8,
7,
7,
7,
7,
1,
1,
5,
5,
2,
2,
1,
1,
5,
5,
9,
9,
6,
6,
4,
4,
4,
4,
0,
0,
2,
2,
1,
1,
0,
0,
0,
0,
2,
2,
6,
6,
8,
8,
7,
7,
2,
2,
0,
0,
3,
3,
8,
8,
9,
9,
8,
8,
2,
2,
2,
2,
4,
4,
1,
1,
-1,
-1,
1,
1,
2,
2,
0,
0,
1,
1,
0,
0,
1,
1,
2,
2,
5,
5,
4,
4,
-1,
-1,
3,
3,
6,
6,
9,
9,
12,
12,
12,
12,
6,
6,
0,
0,
0,
0,
2,
2,
8,
8,
14,
14,
14,
14,
9,
9,
6,
6,
5,
5,
2,
2,
-1,
-1,
1,
1,
0,
0,
0,
0,
3,
3,
6,
6,
4,
4,
6,
17,
15,
15,
21,
21,
18,
7,
7,
7,
0,
0,
6,
6,
13,
13,
19,
19,
23,
23,
23,
23,
16,
1,
4,
22,
22,
37,
37,
37,
43,
43,
42,
21,
22,
4,
5,
5,
12,
33,
32,
32,
38,
38,
34,
34,
28,
28,
22,
3,
4,
4,
13,
13,
13,
13,
5,
5,
2,
2,
1,
1,
2,
2,
2,
2,
-1,
-1,
0,
0,
4,
4,
8,
8,
9,
9,
8,
8,
8,
8,
8,
8,
7,
7,
4,
4,
0,
0,
3,
3,
5,
5,
2,
2,
2,
2,
1,
1,
1,
1,
3,
3,
6,
6,
6,
6,
6,
6,
5,
5,
3,
3,
1,
1,
8,
8,
12,
12,
14,
14,
8,
8,
1,
1,
1,
1,
2,
2,
0,
0,
5,
5,
6,
6,
2,
2,
6,
6,
6,
6,
1,
1,
0,
0,
2,
2,
9,
9,
10,
10,
8,
8,
2,
2,
0,
0,
2,
2,
4,
4,
4,
4,
6,
6,
5,
5,
2,
2,
2,
2,
5,
5,
5,
5,
5,
5,
6,
6,
7,
7,
4,
4,
0,
0,
3,
3,
4,
4,
4,
4,
2,
2,
2,
2,
3,
3,
1,
1,
1,
1,
1,
1,
0,
0,
1,
1,
-1,
-1,
1,
1,
2,
2,
1,
1,
1,
1,
4,
4,
5,
5,
1,
1,
10,
10,
17,
17,
16,
16,
9,
9,
8,
8,
5,
5,
2,
2,
2,
2,
4,
4,
8,
8,
16,
16,
17,
17,
9,
9,
2,
2,
0,
0,
1,
1,
1,
1,
0,
0,
3,
3,
0,
0,
-1,
-1,
1,
1,
0,
0,
0,
0,
1,
1,
5,
5,
14,
25,
24,
24,
25,
25,
18,
18,
9,
9,
1,
16,
15,
30,
29,
29,
26,
14,
15,
2,
2,
2,
3,
3,
1,
1,
2,
2,
0,
0,
3,
3,
4,
4,
2,
2,
2,
2,
1,
1,
1,
1,
3,
3,
0,
0,
5,
5,
14,
14,
21,
21,
27,
27,
24,
1,
3,
3,
10,
10,
15,
15,
15,
15,
15,
15,
13,
13,
7,
7,
4,
4,
4,
4,
4,
4,
7,
7,
6,
6,
3,
3,
1,
1,
4,
4,
5,
5,
6,
6,
7,
7,
9,
9,
11,
11,
13,
13,
13,
13,
10,
10,
4,
4,
3,
3,
7,
7,
9,
9,
9,
9,
6,
6,
2,
2,
-1,
-1,
-1,
-1,
2,
2,
2,
2,
0,
0,
3,
3,
8,
8,
7,
7,
5,
5,
2,
2,
0,
0,
2,
2,
3,
3,
4,
4,
3,
3,
1,
1,
-1,
-1,
0,
0,
0,
0,
1,
1,
2,
2,
0,
0,
0,
0,
2,
2,
3,
3,
2,
2,
4,
4,
5,
5,
5,
5,
5,
5,
6,
6,
3,
3,
0,
0,
2,
2,
5,
5,
3,
3,
4,
4,
3,
3,
2,
2,
3,
3,
2,
2,
1,
1,
0,
0,
-1,
-1,
1,
1,
2,
2,
0,
0,
-1,
-1,
3,
3,
3,
3,
6,
6,
6,
6,
6,
6,
5,
5,
4,
4,
0,
0,
2,
2,
4,
4,
12,
12,
13,
13,
9,
9,
3,
3,
2,
2,
11,
11,
8,
8,
0,
0,
6,
6,
6,
6,
0,
11,
10,
21,
20,
20,
20,
20,
16,
16,
12,
1,
2,
2,
10,
10,
15,
15,
17,
17,
18,
18,
18,
18,
17,
17,
10,
10,
2,
2,
1,
1,
8,
8,
12,
12,
13,
13,
9,
9,
5,
5,
1,
1,
3,
3,
4,
4,
4,
4,
5,
5,
4,
4,
0,
0,
2,
2,
3,
3,
2,
2,
-1,
-1,
5,
5,
7,
7,
7,
7,
1,
1,
8,
8,
12,
12,
10,
10,
6,
6,
0,
0,
1,
1,
1,
1,
4,
4,
7,
7,
6,
6,
3,
3,
-1,
-1,
3,
3,
3,
3,
5,
5,
6,
6,
1,
1,
2,
2,
10,
10,
12,
12,
