EMG_S2/DS0042.CSV

Memory Length,4000,
Trigger Level,-4.80000e+02,
Source,CH1,
Probe,1.0X,
Vertical Units,V,
Vertical Scale,1.00000e+00,
Vertical Position,0.00000e+00,
Horizontal Units,S,
Horizontal Scale,1.00000e-01,
Horizontal Position,0.0000000e+00,
Horizontal Mode,Roll Mode,
Waveform Last Dot Address,4000,
Sampling Period,4.00000e-04,
Firmware,V1.14,
Time, ,
Mode,Fast,
Waveform Data,
8,
8,
4,
4,
2,
2,
1,
1,
0,
0,
4,
4,
6,
6,
9,
9,
5,
5,
4,
4,
5,
5,
2,
2,
2,
2,
3,
3,
3,
3,
1,
1,
0,
0,
4,
4,
3,
3,
5,
5,
2,
2,
8,
8,
14,
14,
15,
15,
17,
17,
18,
18,
11,
11,
7,
7,
1,
1,
-1,
-1,
5,
5,
14,
14,
20,
20,
20,
20,
18,
18,
13,
13,
8,
8,
6,
6,
4,
4,
0,
0,
2,
2,
4,
4,
10,
10,
15,
15,
16,
16,
17,
17,
16,
16,
8,
8,
2,
2,
1,
1,
2,
2,
0,
0,
2,
2,
0,
0,
2,
2,
6,
6,
2,
2,
2,
2,
-1,
-1,
0,
0,
0,
0,
2,
2,
1,
1,
-1,
-1,
2,
2,
2,
2,
0,
0,
2,
2,
3,
3,
5,
5,
4,
4,
1,
1,
5,
5,
2,
2,
3,
3,
5,
5,
8,
8,
8,
8,
8,
8,
2,
2,
4,
4,
13,
13,
16,
16,
8,
8,
1,
1,
5,
5,
9,
9,
7,
7,
5,
5,
2,
2,
2,
2,
0,
0,
0,
0,
-2,
-2,
-1,
10,
10,
10,
15,
15,
6,
6,
6,
6,
14,
14,
18,
18,
19,
19,
15,
15,
6,
19,
18,
37,
37,
37,
42,
29,
29,
14,
14,
2,
4,
18,
17,
30,
29,
29,
30,
30,
28,
28,
21,
21,
13,
13,
7,
7,
2,
2,
1,
1,
7,
7,
12,
12,
13,
13,
10,
10,
7,
7,
7,
7,
12,
12,
14,
14,
10,
10,
5,
5,
2,
2,
1,
1,
2,
2,
2,
2,
9,
9,
9,
9,
9,
9,
10,
10,
7,
7,
0,
0,
1,
1,
1,
1,
-1,
-1,
-1,
-1,
-1,
-1,
2,
2,
7,
7,
6,
6,
2,
2,
-1,
-1,
0,
0,
0,
0,
0,
0,
7,
7,
13,
13,
10,
10,
0,
0,
6,
6,
7,
7,
6,
6,
6,
6,
10,
10,
8,
8,
7,
7,
1,
1,
1,
1,
4,
4,
5,
5,
1,
1,
1,
1,
5,
5,
9,
9,
10,
10,
13,
13,
9,
9,
1,
1,
5,
5,
6,
6,
1,
1,
-1,
-1,
0,
0,
0,
0,
1,
1,
2,
2,
8,
8,
11,
11,
9,
9,
5,
5,
1,
1,
2,
2,
9,
9,
1,
1,
8,
19,
18,
30,
30,
30,
29,
29,
22,
22,
14,
14,
8,
8,
2,
18,
17,
28,
28,
28,
28,
28,
26,
26,
22,
22,
23,
23,
17,
1,
2,
2,
9,
9,
15,
15,
17,
17,
17,
17,
19,
19,
22,
22,
26,
26,
22,
22,
13,
1,
2,
14,
14,
14,
16,
16,
14,
14,
13,
13,
17,
17,
16,
16,
14,
1,
2,
18,
18,
18,
26,
26,
18,
6,
6,
6,
2,
2,
2,
2,
8,
8,
14,
14,
22,
22,
4,
4,
12,
33,
33,
33,
42,
42,
41,
28,
28,
9,
9,
9,
4,
15,
14,
14,
22,
22,
19,
19,
9,
9,
8,
8,
11,
11,
15,
15,
16,
16,
10,
10,
9,
9,
8,
8,
3,
14,
14,
14,
18,
18,
16,
16,
13,
13,
11,
0,
1,
1,
2,
2,
6,
6,
9,
21,
20,
32,
32,
32,
35,
12,
12,
12,
13,
24,
23,
23,
21,
21,
14,
14,
9,
9,
12,
12,
20,
20,
18,
6,
7,
7,
1,
1,
4,
4,
12,
12,
11,
11,
9,
9,
10,
10,
9,
9,
4,
4,
5,
5,
5,
5,
3,
3,
-1,
-1,
4,
4,
6,
6,
1,
1,
2,
2,
4,
4,
6,
6,
5,
5,
2,
2,
9,
9,
10,
10,
5,
5,
2,
2,
5,
5,
2,
2,
3,
3,
7,
7,
4,
4,
7,
7,
9,
9,
8,
8,
6,
6,
6,
6,
6,
6,
3,
3,
2,
2,
6,
6,
8,
8,
9,
9,
5,
5,
5,
5,
6,
6,
6,
6,
4,
4,
1,
1,
2,
2,
1,
1,
3,
3,
2,
2,
11,
11,
8,
8,
3,
3,
12,
12,
14,
14,
13,
13,
14,
14,
12,
1,
3,
3,
12,
23,
23,
23,
32,
32,
33,
21,
21,
2,
3,
16,
15,
15,
18,
18,
18,
18,
15,
4,
4,
4,
2,
2,
1,
14,
14,
14,
15,
15,
13,
2,
4,
15,
14,
25,
24,
24,
22,
22,
21,
10,
11,
0,
1,
1,
8,
8,
14,
14,
18,
18,
15,
15,
14,
14,
7,
7,
3,
22,
22,
22,
31,
31,
33,
15,
15,
1,
2,
2,
9,
9,
16,
16,
15,
15,
10,
10,
10,
10,
8,
8,
1,
1,
5,
5,
10,
10,
14,
14,
9,
9,
5,
5,
3,
3,
3,
14,
14,
14,
12,
1,
2,
2,
0,
0,
2,
2,
3,
3,
2,
2,
3,
3,
5,
5,
9,
9,
5,
5,
3,
3,
4,
15,
14,
14,
10,
10,
5,
5,
2,
2,
5,
5,
8,
8,
6,
6,
5,
5,
4,
4,
4,
4,
9,
9,
12,
12,
13,
13,
9,
9,
8,
8,
1,
1,
9,
9,
18,
18,
21,
21,
14,
0,
2,
2,
3,
3,
2,
2,
2,
2,
6,
6,
6,
6,
10,
10,
13,
13,
14,
14,
13,
13,
12,
1,
3,
3,
6,
6,
10,
10,
12,
12,
9,
9,
5,
5,
7,
7,
6,
6,
6,
6,
11,
11,
13,
13,
16,
16,
12,
1,
1,
1,
6,
6,
13,
13,
14,
14,
14,
14,
5,
5,
3,
3,
6,
6,
5,
5,
1,
1,
-1,
-1,
1,
1,
3,
3,
5,
5,
3,
3,
2,
2,
1,
1,
4,
4,
10,
10,
10,
10,
2,
2,
2,
2,
1,
1,
6,
6,
5,
5,
5,
5,
6,
6,
2,
2,
1,
1,
0,
0,
1,
1,
2,
2,
4,
4,
7,
7,
4,
4,
2,
2,
-1,
-1,
1,
1,
10,
10,
15,
15,
12,
12,
8,
8,
0,
0,
6,
6,
6,
6,
0,
0,
10,
22,
21,
21,
26,
26,
25,
14,
14,
1,
2,
2,
5,
5,
6,
6,
0,
0,
5,
5,
2,
2,
7,
7,
15,
31,
30,
44,
44,
44,
45,
16,
16,
-1,
1,
1,
2,
2,
2,
2,
8,
8,
14,
14,
8,
8,
5,
5,
4,
15,
14,
25,
24,
24,
24,
24,
18,
18,
10,
10,
5,
5,
2,
2,
0,
0,
3,
3,
0,
0,
9,
9,
14,
14,
21,
21,
20,
20,
14,
14,
12,
12,
10,
10,
8,
8,
2,
2,
8,
8,
17,
17,
22,
22,
25,
10,
11,
11,
6,
27,
25,
42,
41,
41,
40,
40,
38,
13,
14,
3,
13,
13,
22,
22,
32,
32,
26,
26,
20,
20,
18,
18,
18,
18,
18,
18,
13,
2,
4,
4,
5,
5,
10,
10,
10,
10,
8,
8,
9,
9,
8,
8,
8,
8,
6,
6,
10,
10,
18,
18,
18,
18,
13,
13,
5,
5,
3,
3,
5,
5,
6,
6,
8,
8,
3,
3,
2,
2,
6,
6,
5,
5,
1,
1,
3,
3,
12,
23,
23,
23,
26,
14,
14,
1,
2,
19,
18,
36,
34,
34,
44,
44,
38,
9,
9,
9,
16,
28,
28,
28,
32,
32,
27,
27,
18,
18,
8,
8,
4,
4,
0,
0,
6,
6,
10,
10,
10,
10,
9,
9,
7,
7,
2,
2,
5,
5,
12,
12,
8,
8,
2,
20,
18,
29,
29,
29,
30,
30,
32,
14,
15,
1,
4,
16,
16,
16,
17,
17,
9,
9,
4,
4,
10,
10,
6,
6,
4,
18,
17,
30,
30,
41,
41,
41,
41,
41,
35,
14,
14,
1,
2,
16,
16,
41,
40,
40,
44,
27,
28,
28,
25,
37,
37,
37,
44,
31,
32,
6,
6,
6,
10,
26,
26,
37,
37,
37,
34,
34,
26,
26,
24,
24,
34,
34,
36,
23,
24,
3,
4,
31,
30,
30,
35,
21,
21,
21,
22,
22,
23,
23,
21,
34,
33,
46,
46,
46,
55,
55,
54,
19,
8,
37,
37,
63,
62,
62,
64,
64,
60,
47,
48,
48,
41,
41,
35,
22,
22,
6,
6,
6,
9,
21,
20,
20,
27,
27,
31,
31,
34,
34,
34,
34,
29,
29,
21,
21,
12,
1,
2,
2,
2,
2,
2,
2,
3,
3,
10,
10,
14,
14,
13,
13,
8,
8,
3,
3,
10,
10,
18,
29,
28,
28,
28,
28,
24,
24,
18,
18,
11,
11,
2,
2,
5,
5,
9,
23,
23,
37,
37,
37,
32,
13,
13,
2,
9,
22,
21,
21,
25,
25,
22,
22,
12,
12,
4,
4,
1,
1,
1,
1,
8,
8,
12,
12,
8,
8,
8,
8,
10,
10,
13,
13,
13,
13,
6,
6,
1,
1,
10,
10,
17,
4,
5,
5,
6,
6,
14,
14,
7,
7,
9,
26,
25,
7,
8,
27,
27,
41,
40,
40,
48,
48,
46,
7,
8,
29,
28,
41,
39,
39,
37,
37,
42,
42,
42,
42,
38,
25,
25,
11,
11,
11,
4,
19,
19,
30,
30,
30,
37,
37,
36,
20,
21,
9,
9,
9,
7,
7,
4,
4,
4,
4,
4,
4,
5,
5,
2,
2,
2,
2,
2,
2,
3,
3,
2,
2,
2,
2,
-2,
-2,
2,
2,
5,
5,
13,
13,
13,
13,
4,
4,
1,
1,
0,
0,
0,
0,
1,
1,
4,
4,
5,
5,
4,
4,
3,
3,
6,
6,
3,
3,
3,
3,
6,
6,
5,
5,
4,
4,
1,
1,
1,
12,
12,
12,
14,
14,
12,
12,
12,
12,
13,
13,
6,
6,
5,
21,
20,
43,
43,
43,
45,
23,
23,
2,
5,
20,
20,
31,
30,
51,
50,
64,
63,
42,
42,
11,
11,
11,
18,
33,
33,
45,
43,
43,
43,
26,
26,
2,
2,
19,
18,
18,
23,
5,
5,
5,
13,
13,
18,
18,
15,
15,
14,
1,
1,
1,
8,
8,
10,
10,
7,
7,
8,
8,
17,
17,
18,
18,
13,
13,
9,
9,
10,
10,
8,
8,
7,
7,
1,
1,
2,
2,
11,
11,
12,
12,
9,
9,
9,
9,
15,
15,
10,
10,
1,
1,
5,
5,
14,
31,
31,
47,
47,
30,
30,
2,
3,
3,
9,
20,
18,
30,
30,
30,
34,
34,
36,
36,
30,
19,
20,
3,
3,
3,
9,
9,
12,
12,
18,
18,
23,
23,
26,
26,
23,
23,
18,
18,
13,
2,
2,
2,
6,
6,
13,
13,
18,
18,
16,
16,
13,
13,
5,
5,
6,
23,
23,
23,
24,
2,
2,
2,
9,
9,
13,
13,
13,
13,
5,
5,
3,
14,
14,
14,
18,
18,
20,
20,
20,
20,
18,
2,
5,
18,
17,
17,
21,
21,
21,
21,
22,
22,
21,
21,
14,
1,
2,
2,
2,
2,
10,
10,
14,
14,
12,
12,
13,
13,
9,
9,
8,
8,
7,
7,
4,
4,
0,
0,
0,
0,
3,
3,
5,
5,
5,
5,
6,
6,
1,
1,
4,
4,
10,
10,
16,
5,
6,
6,
8,
8,
14,
14,
18,
18,
10,
10,
3,
19,
18,
18,
26,
26,
26,
26,
17,
4,
5,
5,
12,
28,
28,
28,
30,
18,
19,
2,
2,
2,
6,
6,
5,
5,
1,
1,
4,
4,
7,
7,
7,
7,
7,
7,
6,
6,
0,
0,
4,
4,
5,
5,
4,
4,
4,
4,
3,
3,
8,
8,
15,
15,
13,
13,
4,
4,
6,
19,
18,
34,
32,
43,
42,
42,
41,
17,
18,
2,
8,
8,
15,
15,
6,
6,
8,
21,
21,
21,
22,
22,
22,
22,
12,
1,
6,
6,
14,
14,
6,
6,
6,
17,
16,
16,
15,
4,
4,
4,
8,
8,
14,
14,
18,
18,
24,
24,
24,
11,
12,
1,
2,
2,
2,
2,
6,
6,
8,
8,
13,
13,
18,
18,
21,
21,
18,
18,
9,
9,
5,
5,
2,
2,
-1,
-1,
5,
5,
6,
6,
6,
6,
10,
10,
10,
10,
2,
2,
7,
22,
22,
22,
23,
23,
15,
1,
2,
2,
5,
5,
13,
26,
26,
26,
29,
29,
27,
15,
15,
1,
4,
20,
19,
33,
32,
32,
42,
42,
38,
16,
16,
1,
3,
3,
12,
12,
18,
18,
18,
18,
18,
18,
13,
13,
10,
10,
2,
2,
3,
3,
12,
12,
12,
12,
2,
2,
2,
2,
5,
5,
1,
1,
3,
3,
8,
8,
15,
15,
17,
17,
12,
1,
6,
24,
24,
24,
27,
27,
26,
26,
20,
6,
6,
19,
19,
48,
47,
63,
62,
48,
49,
25,
26,
2,
2,
2,
9,
9,
12,
12,
17,
28,
27,
27,
34,
34,
36,
36,
30,
18,
19,
6,
7,
7,
1,
1,
5,
5,
7,
7,
3,
3,
-1,
-1,
9,
20,
19,
37,
35,
35,
42,
42,
46,
46,
46,
20,
20,
1,
4,
17,
17,
17,
22,
22,
28,
28,
24,
24,
16,
16,
14,
14,
8,
8,
5,
5,
4,
4,
10,
10,
9,
9,
6,
6,
2,
2,
7,
7,
12,
1,
1,
1,
10,
10,
9,
9,
10,
10,
17,
17,
12,
0,
1,
1,
0,
0,
2,
17,
16,
29,
28,
28,
26,
14,
14,
14,
6,
6,
4,
16,
16,
27,
26,
39,
38,
38,
41,
21,
21,
4,
8,
21,
21,
21,
29,
29,
29,
18,
19,
5,
5,
5,
1,
1,
-1,
-1,
0,
0,
2,
2,
3,
3,
6,
6,
8,
8,
10,
10,
10,
10,
9,
9,
10,
10,
11,
11,
9,
9,
5,
5,
1,
1,
2,
2,
2,
2,
0,
0,
1,
1,
9,
20,
20,
20,
21,
21,
15,
4,
4,
4,
3,
3,
8,
8,
9,
9,
7,
7,
8,
8,
6,
6,
5,
5,
4,
4,
5,
5,
14,
14,
21,
21,
19,
2,
3,
25,
24,
24,
32,
32,
27,
14,
15,
1,
2,
2,
6,
6,
9,
9,
11,
11,
12,
12,
14,
14,
14,
14,
6,
6,
2,
2,
12,
12,
9,
9,
10,
10,
9,
9,
4,
4,
0,
0,
1,
1,
2,
2,
1,
1,
0,
0,
3,
3,
3,
3,
-1,
-1,
1,
1,
2,
2,
4,
4,
4,
4,
14,
14,
20,
20,
17,
17,
10,
10,
3,
22,
21,
46,
46,
60,
57,
35,
35,
7,
8,
8,
13,
13,
9,
9,
2,
14,
14,
14,
15,
2,
7,
26,
25,
44,
44,
56,
55,
55,
50,
50,
42,
26,
26,
5,
13,
42,
41,
41,
50,
50,
47,
36,
36,
24,
24,
24,
15,
15,
7,
7,
6,
17,
17,
17,
16,
2,
6,
26,
25,
36,
35,
35,
34,
34,
27,
27,
18,
18,
12,
12,
6,
6,
6,
6,
9,
9,
6,
6,
0,
0,
2,
2,
10,
21,
20,
31,
31,
31,
37,
37,
35,
35,
30,
18,
19,
19,
10,
10,
1,
1,
5,
16,
15,
1,
3,
27,
27,
47,
46,
46,
46,
33,
33,
19,
20,
20,
12,
12,
10,
10,
2,
2,
0,
0,
-1,
-1,
1,
1,
2,
2,
7,
18,
17,
17,
21,
21,
21,
10,
11,
11,
4,
4,
4,
4,
3,
3,
3,
3,
2,
2,
6,
6,
8,
8,
3,
3,
-1,
-1,
-1,
-1,
1,
1,
0,
0,
5,
5,
2,
2,
0,
0,
3,
3,
8,
8,
9,
9,
8,
8,
5,
5,
0,
0,
0,
0,
-1,
-1,
0,
0,
2,
2,
3,
3,
1,
1,
0,
0,
1,
1,
4,
4,
6,
6,
4,
4,
1,
1,
10,
10,
14,
14,
13,
13,
12,
12,
10,
10,
6,
6,
2,
2,
2,
2,
1,
1,
0,
0,
-1,
-1,
2,
2,
10,
10,
9,
9,
2,
2,
4,
4,
11,
11,
4,
4,
3,
15,
15,
15,
18,
18,
9,
9,
6,
6,
15,
15,
20,
20,
16,
16,
13,
13,
7,
7,
2,
2,
4,
4,
6,
6,
14,
26,
25,
25,
32,
32,
32,
32,
26,
7,
8,
8,
12,
27,
26,
26,
29,
18,
19,
2,
2,
2,
6,
6,
6,
6,
6,
6,
4,
20,
20,
20,
23,
10,
10,
10,
4,
4,
10,
10,
16,
16,
13,
13,
12,
12,
10,
10,
8,
8,
4,
4,
1,
1,
2,
2,
4,
4,
6,
6,
2,
2,
0,
0,
1,
1,
6,
6,
14,
14,
10,
10,
1,
1,
6,
20,
19,
38,
37,
37,
32,
5,
6,
6,
1,
1,
0,
0,
1,
1,
5,
5,
9,
9,
17,
30,
30,
30,
38,
38,
40,
27,
28,
2,
2,
15,
14,
31,
30,
47,
46,
46,
55,
55,
47,
24,
24,
24,
19,
19,
14,
14,
8,
8,
1,
17,
16,
37,
36,
36,
42,
42,
43,
43,
39,
28,
29,
15,
16,
2,
3,
3,
7,
7,
14,
14,
16,
16,
16,
16,
13,
13,
14,
14,
11,
11,
6,
6,
2,
2,
2,
2,
4,
4,
5,
5,
6,
6,
9,
9,
10,
10,
4,
4,
-1,
-1,
3,
3,
5,
5,
0,
0,
8,
8,
15,
15,
18,
18,
17,
17,
15,
4,
4,
4,
5,
5,
7,
7,
8,
8,
7,
7,
6,
6,
5,
5,
1,
1,
-1,
-1,
2,
2,
0,
0,
-1,
-1,
1,
1,
5,
5,
1,
1,
1,
1,
0,
0,
-1,
-1,
0,
0,
0,
0,
-1,
-1,
0,
0,
-1,
-1,
-1,
-1,
-1,
-1,
2,
2,
1,
1,
0,
0,
1,
1,
1,
1,
0,
0,
1,
1,
2,
2,
1,
1,
5,
5,
1,
1,
4,
17,
15,
15,
23,
23,
13,
0,
1,
1,
0,
0,
8,
8,
12,
1,
2,
2,
10,
24,
22,
22,
26,
26,
19,
19,
12,
0,
1,
1,
11,
11,
12,
12,
10,
10,
6,
6,
0,
0,
8,
8,
5,
5,
4,
4,
6,
6,
8,
8,
9,
9,
1,
1,
2,
15,
15,
15,
23,
10,
10,
10,
15,
29,
29,
29,
29,
29,
24,
9,
9,
9,
3,
3,
8,
8,
12,
12,
17,
17,
18,
18,
22,
22,
30,
30,
31,
18,
18,
1,
4,
20,
19,
30,
29,
29,
35,
35,
30,
30,
25,
25,
27,
27,
27,
27,
20,
1,
3,
22,
21,
40,
38,
52,
51,
51,
48,
30,
32,
12,
13,
1,
2,
2,
0,
0,
6,
6,
13,
13,
15,
15,
12,
12,
3,
3,
-1,
-1,
1,
1,
0,
0,
3,
3,
7,
7,
10,
10,
12,
12,
13,
13,
9,
9,
6,
6,
2,
2,
11,
11,
15,
15,
17,
17,
14,
14,
11,
11,
7,
7,
2,
2,
0,
0,
0,
0,
2,
2,
5,
5,
4,
4,
3,
3,
2,
2,
1,
1,
6,
6,
4,
4,
3,
3,
2,
2,
5,
5,
5,
5,
3,
3,
5,
5,
4,
4,
0,
0,
3,
3,
5,
5,
5,
5,
2,
2,
1,
1,
4,
4,
5,
5,
2,
2,
4,
4,
1,
1,
5,
5,
10,
10,
10,
10,
9,
9,
5,
5,
2,
2,
0,
0,
1,
1,
8,
20,
19,
19,
24,
24,
20,
20,
19,
19,
18,
2,
2,
17,
16,
16,
22,
22,
20,
20,
15,
15,
11,
11,
6,
6,
2,
2,
0,
0,
1,
1,
2,
2,
7,
7,
7,
7,
6,
6,
1,
13,
12,
26,
26,
26,
31,
31,
26,
13,
13,
1,
2,
2,
8,
8,
8,
8,
8,
8,
7,
7,
2,
2,
2,
2,
4,
4,
2,
2,
0,
0,
2,
2,
12,
23,
23,
23,
22,
22,
13,
1,
1,
18,
18,
34,
33,
33,
35,
35,
33,
17,
18,
1,
1,
22,
21,
46,
45,
45,
48,
28,
28,
3,
4,
20,
20,
47,
47,
62,
61,
47,
48,
12,
13,
13,
16,
27,
26,
26,
23,
23,
24,
24,
22,
22,
22,
22,
17,
17,
12,
1,
2,
2,
6,
6,
15,
15,
21,
10,
11,
11,
4,
4,
4,
4,
11,
11,
18,
18,
14,
14,
5,
5,
2,
2,
3,
3,
5,
5,
9,
9,
10,
10,
9,
9,
6,
6,
2,
2,
3,
3,
0,
0,
5,
5,
10,
10,
13,
13,
14,
14,
8,
8,
1,
1,
3,
3,
5,
5,
7,
7,
8,
8,
6,
6,
4,
4,
0,
0,
8,
8,
14,
14,
14,
14,
9,
9,
1,
1,
7,
7,
7,
7,
8,
8,
10,
10,
8,
8,
6,
6,
4,
4,
5,
5,
6,
6,
2,
2,
2,
2,
8,
8,
12,
12,
14,
14,
12,
12,
11,
11,
10,
10,
2,
2,
7,
7,
9,
9,
3,
3,
0,
0,
3,
3,
6,
6,
6,
6,
4,
4,
2,
2,
2,
2,
0,
0,
2,
2,
2,
2,
5,
5,
10,
10,
9,
9,
6,
6,
2,
2,
4,
4,
4,
4,
4,
4,
1,
1,
10,
10,
9,
9,
6,
6,
2,
2,
0,
0,
4,
4,
11,
11,
11,
11,
11,
11,
10,
10,
1,
23,
23,
45,
44,
44,
51,
51,
50,
31,
6,
6,
7,
7,
10,
27,
27,
38,
38,
38,
40,
40,
36,
36,
30,
30,
20,
20,
12,
12,
6,
6,
0,
0,
9,
9,
13,
13,
12,
12,
13,
13,
18,
18,
17,
17,
10,
10,
5,
5,
1,
1,
1,
1,
6,
6,
13,
13,
15,
1,
1,
1,
7,
7,
14,
14,
22,
22,
16,
5,
6,
6,
5,
5,
14,
14,
14,
14,
8,
8,
4,
4,
1,
1,
8,
8,
12,
12,
14,
14,
10,
-1,
1,
1,
9,
20,
20,
20,
21,
8,
8,
8,
3,
3,
6,
6,
4,
4,
6,
6,
6,
6,
5,
5,
5,
5,
2,
2,
2,
2,
7,
7,
2,
2,
2,
2,
8,
8,
11,
11,
10,
10,
10,
10,
10,
10,
9,
9,
4,
4,
0,
0,
1,
1,
1,
1,
2,
2,
6,
6,
8,
8,
6,
6,
7,
7,
5,
5,
2,
2,
-1,
-1,
2,
2,
5,
5,
8,
8,
5,
5,
0,
0,
-1,
-1,
1,
1,
3,
3,
2,
2,
2,
2,
2,
2,
1,
1,
3,
3,
1,
1,
1,
1,
0,
0,
6,
6,
8,
8,
5,
5,
6,
6,
0,
0,
7,
7,
12,
12,
18,
18,
16,
16,
7,
7,
2,
2,
9,
9,
9,
9,
10,
10,
6,
6,
7,
7,
2,
2,
2,
2,
0,
0,
5,
5,
12,
24,
22,
22,
30,
18,
19,
5,
5,
5,
7,
7,
17,
17,
18,
18,
12,
12,
12,
12,
12,
12,
12,
12,
5,
5,
2,
2,
2,
2,
1,
1,
1,
1,
6,
6,
10,
10,
13,
13,
11,
11,
9,
9,
2,
2,
0,
0,
5,
5,
6,
6,
8,
8,
6,
6,
5,
5,
1,
1,
4,
4,
5,
5,
1,
1,
-1,
-1,
2,
2,
6,
6,
2,
2,
2,
2,
6,
6,
10,
10,
7,
7,
2,
2,
10,
10,
17,
17,
14,
14,
6,
6,
8,
23,
22,
22,
32,
32,
26,
14,
14,
0,
1,
1,
9,
9,
17,
17,
14,
14,
14,
14,
12,
12,
7,
7,
2,
2,
1,
1,
8,
19,
18,
29,
28,
28,
26,
26,
18,
18,
10,
10,
7,
7,
14,
14,
16,
16,
13,
1,
2,
2,
2,
2,
2,
14,
13,
13,
17,
17,
12,
1,
2,
2,
4,
4,
8,
8,
2,
2,
2,
2,
6,
6,
7,
7,
10,
10,
13,
13,
7,
7,
2,
2,
5,
5,
3,
3,
0,
0,
6,
6,
9,
9,
10,
10,
1,
1,
5,
5,
1,
1,
2,
2,
-1,
-1,
2,
2,
8,
8,
10,
10,
9,
9,
8,
8,
5,
5,
0,
0,
4,
4,
4,
4,
4,
4,
2,
2,
0,
0,
2,
2,
5,
5,
7,
7,
9,
9,
11,
11,
4,
4,
0,
0,
3,
3,
6,
6,
3,
3,
2,
2,
7,
7,
9,
9,
2,
2,
5,
5,
11,
11,
12,
12,
8,
8,
4,
4,
0,
0,
2,
2,
5,
5,
1,
1,
6,
6,
2,
2,
0,
0,
7,
7,
15,
15,
18,
7,
7,
7,
2,
2,
6,
6,
7,
7,
6,
6,
12,
12,
12,
12,
5,
5,
4,
4,
10,
10,
18,
18,
16,
4,
4,
4,
0,
0,
2,
2,
9,
9,
14,
14,
14,
14,
5,
5,
6,
6,
16,
16,
22,
22,
22,
22,
17,
17,
9,
9,
5,
5,
5,
5,
2,
2,
5,
5,
10,
10,
14,
14,
12,
12,
14,
14,
12,
0,
1,
1,
0,
0,
3,
3,
2,
2,
2,
2,
2,
2,
6,
6,
2,
2,
4,
4,
