EMG_S2/DS0025.CSV

Memory Length,4000,
Trigger Level,-4.80000e+02,
Source,CH1,
Probe,1.0X,
Vertical Units,V,
Vertical Scale,1.00000e+00,
Vertical Position,0.00000e+00,
Horizontal Units,S,
Horizontal Scale,1.00000e-01,
Horizontal Position,0.0000000e+00,
Horizontal Mode,Roll Mode,
Waveform Last Dot Address,4000,
Sampling Period,4.00000e-04,
Firmware,V1.14,
Time, ,
Mode,Fast,
Waveform Data,
2,
2,
0,
0,
-1,
-1,
0,
0,
1,
1,
6,
6,
10,
10,
13,
13,
12,
12,
10,
10,
2,
2,
8,
8,
14,
14,
15,
15,
8,
8,
2,
2,
1,
1,
0,
0,
0,
0,
2,
2,
9,
9,
14,
14,
14,
14,
8,
8,
0,
0,
6,
6,
8,
8,
6,
6,
5,
5,
4,
4,
9,
9,
10,
10,
6,
6,
2,
2,
0,
0,
5,
5,
12,
12,
15,
15,
14,
14,
8,
8,
2,
2,
7,
7,
3,
3,
8,
8,
16,
16,
22,
22,
15,
15,
6,
6,
-1,
-1,
4,
4,
6,
6,
6,
6,
11,
11,
14,
14,
12,
12,
6,
6,
1,
1,
-1,
-1,
-1,
-1,
1,
1,
3,
3,
1,
1,
3,
3,
5,
5,
6,
6,
6,
6,
4,
4,
2,
2,
1,
1,
0,
0,
1,
1,
1,
1,
2,
2,
2,
2,
-1,
-1,
0,
0,
3,
3,
6,
6,
8,
8,
9,
9,
5,
5,
3,
3,
12,
12,
17,
17,
24,
24,
23,
23,
14,
1,
2,
2,
8,
20,
18,
18,
23,
23,
19,
19,
13,
13,
8,
8,
6,
6,
5,
5,
2,
2,
-1,
-1,
4,
4,
8,
8,
10,
10,
11,
11,
10,
10,
10,
10,
10,
10,
5,
5,
-1,
-1,
2,
2,
0,
0,
0,
0,
1,
1,
-1,
-1,
0,
0,
1,
1,
2,
2,
5,
5,
8,
8,
8,
8,
5,
5,
2,
2,
5,
5,
14,
14,
18,
18,
12,
12,
3,
3,
1,
14,
13,
13,
18,
18,
18,
18,
17,
1,
2,
14,
13,
27,
27,
27,
30,
30,
30,
12,
12,
1,
4,
4,
12,
12,
11,
11,
7,
7,
1,
1,
4,
18,
18,
18,
20,
20,
17,
4,
4,
4,
5,
5,
11,
11,
10,
10,
6,
6,
0,
0,
0,
0,
-1,
-1,
1,
1,
0,
0,
1,
1,
3,
3,
5,
5,
3,
3,
1,
1,
3,
3,
5,
5,
5,
5,
4,
4,
0,
0,
0,
0,
1,
1,
-1,
-1,
2,
2,
5,
5,
3,
3,
5,
5,
4,
4,
1,
1,
0,
0,
5,
5,
5,
5,
2,
2,
2,
2,
2,
2,
6,
6,
9,
9,
12,
12,
13,
13,
9,
9,
8,
8,
3,
3,
2,
2,
7,
7,
14,
14,
24,
24,
28,
16,
16,
16,
7,
7,
3,
3,
3,
3,
7,
7,
2,
2,
4,
4,
9,
9,
8,
8,
5,
5,
11,
11,
16,
16,
14,
14,
10,
10,
7,
7,
4,
4,
-1,
-1,
2,
2,
6,
6,
10,
10,
13,
13,
13,
13,
10,
10,
5,
5,
2,
2,
5,
5,
7,
7,
4,
4,
1,
1,
6,
6,
9,
9,
12,
12,
9,
9,
4,
4,
2,
2,
0,
0,
2,
2,
2,
2,
0,
0,
2,
2,
8,
8,
14,
14,
20,
20,
21,
21,
20,
20,
14,
14,
5,
5,
11,
30,
30,
30,
35,
35,
40,
40,
37,
25,
26,
6,
6,
23,
22,
48,
47,
47,
55,
44,
44,
25,
26,
2,
4,
4,
12,
12,
21,
21,
22,
22,
19,
19,
13,
13,
10,
10,
10,
10,
5,
5,
1,
1,
-1,
-1,
1,
1,
2,
2,
9,
20,
19,
19,
18,
18,
10,
10,
5,
5,
1,
1,
2,
2,
8,
8,
7,
7,
7,
7,
6,
6,
10,
10,
8,
8,
1,
1,
4,
15,
15,
15,
19,
19,
15,
1,
1,
1,
6,
6,
0,
0,
2,
2,
10,
10,
15,
15,
23,
23,
18,
2,
8,
21,
21,
21,
26,
26,
27,
27,
27,
27,
18,
18,
14,
14,
38,
57,
57,
57,
65,
65,
57,
19,
20,
5,
14,
30,
29,
29,
34,
34,
34,
34,
34,
34,
31,
31,
22,
11,
12,
12,
6,
6,
1,
1,
5,
5,
9,
9,
9,
9,
10,
10,
10,
10,
10,
10,
13,
13,
15,
15,
14,
14,
6,
6,
-1,
-1,
0,
0,
7,
7,
10,
10,
13,
13,
13,
13,
7,
7,
2,
2,
0,
0,
8,
20,
20,
20,
25,
25,
28,
28,
21,
6,
6,
6,
13,
13,
20,
20,
17,
17,
12,
12,
4,
4,
0,
0,
4,
4,
9,
9,
4,
4,
1,
1,
0,
0,
2,
2,
3,
3,
6,
6,
7,
7,
4,
4,
0,
0,
1,
1,
3,
3,
7,
7,
14,
14,
12,
12,
11,
11,
5,
5,
-1,
-1,
0,
0,
1,
1,
1,
13,
12,
12,
18,
18,
15,
2,
2,
2,
7,
7,
10,
10,
10,
10,
7,
7,
5,
5,
1,
1,
1,
1,
8,
8,
11,
11,
9,
9,
5,
5,
2,
2,
-1,
-1,
2,
2,
4,
4,
8,
8,
10,
10,
12,
12,
12,
12,
10,
10,
7,
7,
1,
1,
1,
1,
8,
8,
17,
17,
26,
26,
25,
14,
14,
0,
1,
1,
6,
6,
12,
12,
14,
14,
21,
21,
29,
29,
32,
32,
32,
32,
34,
34,
26,
6,
6,
6,
13,
36,
36,
56,
55,
55,
54,
39,
40,
27,
27,
27,
19,
19,
12,
1,
1,
1,
9,
9,
13,
13,
15,
15,
16,
16,
20,
20,
25,
25,
27,
27,
26,
26,
21,
9,
9,
9,
0,
0,
4,
4,
3,
3,
8,
19,
18,
18,
17,
5,
5,
5,
1,
1,
0,
0,
3,
3,
-1,
-1,
5,
5,
1,
1,
9,
20,
20,
20,
18,
2,
4,
4,
0,
0,
4,
4,
8,
8,
18,
18,
20,
20,
16,
16,
14,
14,
7,
7,
1,
1,
-1,
-1,
4,
4,
4,
4,
6,
6,
10,
10,
11,
11,
12,
12,
10,
10,
8,
8,
5,
5,
1,
1,
-1,
-1,
0,
0,
3,
3,
1,
1,
1,
1,
8,
8,
9,
9,
7,
7,
2,
2,
6,
6,
12,
12,
10,
10,
4,
4,
1,
1,
9,
9,
11,
11,
9,
9,
5,
5,
1,
1,
-1,
-1,
1,
1,
1,
1,
-1,
-1,
3,
3,
3,
3,
2,
2,
-1,
-1,
2,
2,
2,
2,
0,
0,
6,
6,
6,
6,
7,
7,
6,
6,
3,
3,
0,
0,
2,
2,
7,
7,
9,
9,
4,
4,
0,
0,
-1,
-1,
0,
0,
0,
0,
3,
3,
7,
7,
9,
9,
13,
13,
10,
10,
3,
16,
15,
15,
20,
8,
9,
9,
2,
2,
5,
5,
7,
7,
8,
8,
5,
5,
8,
8,
16,
16,
11,
11,
2,
2,
2,
18,
18,
31,
30,
30,
28,
15,
15,
1,
3,
3,
10,
10,
12,
12,
9,
9,
2,
2,
4,
4,
8,
8,
15,
15,
10,
10,
5,
5,
0,
0,
5,
5,
8,
8,
7,
7,
2,
2,
11,
11,
13,
13,
11,
11,
1,
1,
4,
4,
6,
6,
9,
9,
11,
11,
10,
10,
10,
10,
8,
8,
2,
2,
0,
0,
1,
1,
0,
0,
5,
5,
12,
12,
6,
6,
6,
6,
11,
11,
10,
10,
5,
5,
1,
1,
4,
4,
3,
3,
1,
1,
0,
0,
0,
0,
0,
0,
-1,
-1,
1,
1,
0,
0,
0,
0,
1,
1,
0,
0,
1,
1,
1,
1,
1,
1,
-1,
-1,
2,
2,
6,
6,
5,
5,
7,
7,
14,
14,
12,
12,
8,
8,
0,
0,
3,
3,
4,
4,
1,
1,
1,
1,
1,
1,
0,
0,
0,
0,
1,
1,
0,
0,
2,
2,
9,
9,
12,
12,
4,
4,
1,
1,
8,
8,
11,
11,
14,
14,
11,
11,
7,
7,
1,
1,
7,
7,
11,
11,
10,
10,
2,
2,
6,
6,
12,
12,
12,
12,
5,
5,
8,
25,
24,
24,
32,
32,
31,
31,
25,
9,
10,
10,
2,
2,
1,
18,
17,
30,
30,
30,
32,
32,
29,
29,
21,
6,
6,
6,
8,
23,
23,
23,
29,
10,
10,
10,
9,
9,
11,
11,
4,
4,
5,
5,
5,
5,
5,
5,
14,
14,
13,
13,
7,
7,
2,
2,
7,
21,
20,
20,
26,
26,
18,
18,
9,
9,
0,
0,
2,
2,
1,
1,
1,
1,
-1,
-1,
0,
0,
5,
5,
1,
1,
7,
7,
14,
14,
16,
16,
15,
15,
11,
11,
4,
4,
2,
2,
8,
8,
6,
6,
2,
2,
6,
6,
10,
10,
2,
2,
6,
6,
8,
8,
1,
1,
6,
6,
8,
8,
4,
4,
0,
0,
-1,
-1,
2,
2,
2,
2,
5,
5,
9,
9,
6,
6,
1,
1,
1,
1,
0,
0,
0,
0,
2,
2,
1,
1,
3,
3,
7,
7,
5,
5,
5,
5,
2,
2,
0,
0,
1,
1,
0,
0,
0,
0,
0,
0,
4,
4,
8,
8,
8,
8,
2,
2,
5,
5,
13,
13,
14,
14,
5,
5,
6,
6,
15,
15,
21,
21,
23,
23,
18,
18,
12,
0,
1,
1,
9,
9,
17,
17,
21,
21,
22,
22,
13,
0,
0,
0,
6,
6,
6,
6,
2,
2,
5,
5,
6,
6,
3,
3,
1,
1,
0,
0,
1,
1,
3,
3,
2,
2,
1,
1,
-1,
-1,
0,
0,
3,
3,
2,
2,
1,
1,
0,
0,
-1,
-1,
1,
1,
0,
0,
5,
5,
8,
8,
6,
6,
2,
2,
4,
4,
5,
5,
2,
2,
1,
1,
7,
7,
7,
7,
6,
6,
7,
7,
9,
9,
6,
6,
6,
6,
6,
6,
4,
4,
2,
2,
0,
0,
0,
0,
0,
0,
1,
1,
2,
2,
10,
10,
13,
13,
17,
17,
25,
25,
30,
30,
26,
15,
15,
1,
2,
2,
12,
12,
21,
21,
30,
30,
30,
30,
22,
22,
17,
6,
6,
6,
2,
2,
0,
0,
4,
4,
2,
2,
6,
6,
12,
12,
10,
10,
2,
2,
0,
0,
2,
2,
0,
0,
2,
2,
4,
4,
5,
5,
8,
8,
1,
1,
2,
2,
1,
1,
2,
2,
3,
3,
1,
1,
3,
3,
4,
4,
1,
1,
1,
1,
2,
2,
0,
0,
3,
3,
3,
3,
2,
2,
0,
0,
1,
1,
5,
5,
8,
8,
3,
3,
0,
0,
2,
2,
2,
2,
1,
1,
1,
1,
4,
4,
2,
2,
4,
4,
3,
3,
1,
1,
3,
3,
7,
7,
8,
8,
1,
1,
0,
0,
6,
6,
5,
5,
0,
0,
2,
2,
-1,
-1,
0,
0,
7,
7,
8,
8,
1,
1,
4,
4,
6,
6,
7,
7,
6,
6,
12,
12,
20,
20,
13,
-1,
0,
0,
3,
3,
6,
6,
8,
8,
6,
6,
3,
3,
1,
1,
1,
1,
2,
2,
5,
5,
4,
4,
4,
4,
4,
4,
2,
2,
0,
0,
0,
0,
-1,
-1,
2,
2,
4,
4,
6,
6,
5,
5,
4,
4,
0,
0,
1,
1,
6,
6,
8,
8,
6,
6,
6,
6,
6,
6,
6,
6,
3,
3,
5,
5,
7,
7,
8,
8,
4,
4,
4,
4,
4,
4,
0,
0,
8,
8,
10,
10,
6,
6,
6,
6,
10,
10,
7,
7,
1,
1,
4,
4,
7,
7,
8,
8,
17,
30,
29,
40,
40,
40,
42,
42,
32,
5,
5,
29,
28,
28,
36,
36,
38,
38,
41,
41,
31,
14,
14,
2,
2,
2,
7,
19,
18,
18,
23,
23,
23,
23,
24,
8,
8,
8,
9,
25,
24,
24,
27,
27,
20,
20,
14,
2,
2,
15,
14,
26,
25,
25,
25,
25,
26,
26,
23,
23,
16,
16,
16,
16,
13,
0,
1,
1,
2,
2,
6,
6,
14,
14,
20,
20,
24,
24,
22,
22,
15,
15,
10,
10,
8,
8,
6,
6,
4,
4,
1,
1,
4,
4,
9,
9,
14,
14,
15,
15,
13,
13,
12,
12,
11,
11,
9,
9,
6,
6,
0,
0,
1,
1,
4,
4,
6,
6,
3,
3,
0,
0,
-1,
-1,
1,
1,
0,
0,
0,
0,
0,
0,
0,
0,
2,
2,
0,
0,
-1,
-1,
0,
0,
2,
2,
3,
3,
4,
4,
4,
4,
5,
5,
2,
2,
2,
2,
4,
4,
9,
9,
14,
14,
13,
13,
6,
6,
4,
4,
2,
2,
3,
3,
1,
1,
4,
4,
4,
4,
2,
2,
0,
0,
1,
1,
3,
3,
9,
9,
8,
8,
1,
1,
0,
0,
6,
6,
13,
13,
15,
15,
8,
8,
1,
14,
14,
28,
26,
37,
37,
37,
41,
41,
36,
8,
8,
23,
23,
40,
40,
40,
36,
22,
23,
4,
5,
5,
3,
3,
8,
8,
9,
9,
7,
7,
4,
4,
5,
5,
1,
1,
1,
1,
2,
2,
5,
5,
5,
5,
5,
5,
2,
2,
-1,
-1,
0,
0,
1,
1,
4,
4,
9,
9,
13,
13,
8,
8,
0,
0,
9,
9,
17,
17,
26,
26,
21,
7,
8,
8,
7,
22,
22,
41,
41,
56,
56,
56,
50,
24,
24,
2,
3,
3,
12,
12,
10,
10,
5,
5,
8,
8,
10,
10,
17,
31,
30,
30,
32,
32,
34,
34,
31,
31,
21,
10,
10,
10,
2,
2,
5,
17,
16,
16,
23,
23,
25,
25,
25,
25,
24,
24,
19,
19,
14,
14,
10,
10,
5,
5,
-1,
-1,
1,
1,
1,
1,
1,
1,
4,
4,
3,
3,
1,
1,
5,
5,
0,
0,
8,
8,
14,
14,
17,
17,
15,
15,
12,
12,
7,
7,
1,
1,
9,
9,
16,
16,
13,
13,
6,
6,
3,
3,
2,
2,
8,
8,
9,
9,
10,
10,
11,
11,
14,
1,
1,
12,
11,
23,
23,
23,
26,
26,
22,
22,
16,
16,
7,
7,
2,
2,
2,
2,
5,
5,
7,
7,
7,
7,
7,
7,
6,
6,
13,
13,
18,
18,
17,
17,
12,
12,
6,
6,
3,
3,
0,
0,
7,
7,
15,
15,
18,
18,
16,
16,
10,
10,
4,
4,
4,
4,
3,
3,
13,
13,
18,
18,
20,
20,
15,
15,
8,
8,
8,
25,
25,
25,
30,
30,
26,
26,
18,
1,
2,
13,
13,
13,
22,
22,
31,
31,
30,
30,
24,
8,
9,
9,
6,
6,
13,
13,
14,
14,
13,
13,
9,
9,
9,
9,
8,
8,
13,
13,
17,
17,
14,
14,
6,
6,
6,
24,
23,
35,
34,
34,
34,
34,
27,
10,
10,
10,
3,
3,
8,
8,
8,
8,
4,
4,
3,
3,
8,
8,
12,
12,
10,
10,
8,
8,
7,
7,
6,
6,
2,
2,
2,
2,
5,
5,
7,
7,
8,
8,
6,
6,
5,
5,
4,
4,
2,
2,
-1,
-1,
2,
2,
4,
4,
3,
3,
6,
6,
5,
5,
0,
0,
2,
2,
2,
2,
5,
5,
8,
8,
6,
6,
0,
0,
6,
6,
8,
8,
6,
6,
1,
1,
8,
8,
14,
14,
13,
13,
4,
4,
-1,
-1,
6,
6,
7,
7,
2,
2,
2,
2,
6,
6,
5,
5,
4,
4,
-1,
-1,
6,
6,
9,
9,
6,
6,
5,
5,
5,
5,
6,
6,
6,
6,
2,
2,
1,
1,
2,
2,
2,
2,
7,
7,
10,
10,
11,
11,
8,
8,
2,
2,
1,
1,
2,
2,
4,
4,
2,
2,
1,
1,
1,
1,
3,
3,
2,
2,
3,
3,
0,
0,
2,
2,
2,
2,
4,
4,
4,
4,
-1,
-1,
-1,
-1,
0,
0,
2,
2,
4,
4,
7,
7,
6,
6,
4,
4,
0,
0,
4,
4,
7,
7,
8,
8,
5,
5,
0,
0,
4,
4,
3,
3,
2,
2,
2,
2,
0,
0,
4,
4,
6,
6,
1,
1,
4,
4,
9,
9,
12,
12,
11,
11,
7,
7,
2,
2,
3,
3,
10,
10,
16,
16,
20,
20,
17,
6,
6,
6,
14,
37,
36,
36,
37,
37,
28,
12,
12,
12,
3,
3,
6,
20,
20,
20,
20,
9,
10,
10,
5,
19,
18,
18,
18,
2,
7,
33,
33,
33,
42,
42,
32,
18,
19,
8,
9,
9,
1,
1,
5,
5,
2,
2,
3,
3,
12,
25,
25,
25,
30,
30,
25,
25,
23,
23,
25,
25,
19,
5,
5,
5,
4,
4,
9,
9,
12,
12,
13,
13,
17,
17,
17,
17,
11,
11,
6,
6,
3,
3,
0,
0,
3,
3,
6,
6,
5,
5,
6,
6,
3,
3,
1,
1,
0,
0,
-1,
-1,
-1,
-1,
2,
2,
1,
1,
0,
0,
2,
2,
1,
1,
0,
0,
0,
0,
2,
2,
4,
4,
0,
0,
0,
0,
2,
2,
1,
1,
0,
0,
2,
2,
2,
2,
0,
0,
2,
2,
7,
7,
13,
13,
18,
29,
28,
15,
15,
2,
6,
6,
15,
15,
21,
34,
34,
49,
48,
48,
48,
35,
36,
15,
16,
2,
7,
25,
25,
36,
34,
34,
40,
40,
39,
39,
33,
33,
25,
14,
15,
4,
4,
4,
1,
1,
4,
4,
8,
8,
10,
10,
14,
14,
18,
18,
17,
17,
15,
15,
10,
10,
10,
10,
12,
12,
10,
10,
6,
6,
1,
1,
5,
5,
13,
13,
13,
13,
11,
11,
11,
11,
3,
3,
0,
0,
2,
2,
6,
6,
8,
8,
7,
7,
1,
1,
1,
1,
1,
1,
2,
2,
1,
1,
2,
2,
3,
3,
4,
4,
2,
2,
2,
2,
4,
4,
8,
8,
5,
5,
7,
19,
18,
18,
21,
21,
16,
16,
9,
9,
4,
4,
1,
1,
5,
5,
8,
8,
9,
9,
9,
9,
6,
6,
2,
2,
-1,
-1,
0,
0,
2,
2,
2,
2,
-1,
-1,
4,
4,
5,
5,
3,
3,
0,
0,
3,
3,
10,
10,
10,
10,
5,
5,
2,
15,
15,
15,
22,
22,
24,
24,
26,
26,
18,
18,
9,
9,
3,
16,
16,
16,
17,
17,
16,
16,
16,
16,
17,
17,
18,
18,
12,
12,
4,
4,
0,
0,
6,
6,
8,
8,
6,
6,
3,
3,
2,
2,
6,
6,
9,
9,
8,
8,
4,
4,
1,
1,
2,
2,
0,
0,
4,
4,
2,
2,
2,
2,
6,
6,
6,
6,
1,
1,
8,
8,
16,
16,
19,
19,
12,
0,
1,
1,
7,
7,
10,
10,
10,
10,
14,
14,
16,
16,
16,
16,
14,
14,
14,
14,
10,
10,
2,
2,
0,
0,
4,
4,
12,
12,
8,
8,
4,
4,
8,
8,
13,
13,
15,
15,
14,
14,
13,
13,
7,
7,
1,
1,
-1,
-1,
-1,
-1,
0,
0,
5,
5,
8,
8,
8,
8,
5,
5,
1,
1,
-1,
-1,
0,
0,
2,
2,
3,
3,
-2,
-2,
-1,
-1,
3,
3,
10,
10,
14,
14,
9,
9,
2,
2,
6,
6,
15,
15,
21,
21,
18,
18,
14,
14,
10,
10,
3,
3,
2,
2,
4,
4,
8,
8,
8,
8,
5,
5,
7,
7,
11,
11,
10,
10,
3,
3,
4,
4,
13,
13,
15,
15,
14,
14,
5,
5,
1,
1,
6,
6,
10,
10,
8,
8,
7,
7,
2,
2,
1,
1,
3,
3,
5,
5,
5,
5,
6,
6,
5,
5,
2,
2,
1,
1,
-1,
-1,
0,
0,
2,
2,
0,
0,
5,
5,
6,
6,
6,
6,
2,
2,
-1,
-1,
3,
3,
7,
7,
8,
8,
5,
5,
1,
1,
0,
0,
5,
5,
7,
7,
10,
10,
6,
6,
-1,
-1,
0,
0,
-1,
-1,
1,
1,
2,
2,
10,
10,
19,
19,
25,
25,
26,
26,
28,
28,
26,
7,
8,
8,
10,
25,
24,
24,
29,
29,
31,
31,
29,
29,
21,
21,
14,
14,
8,
8,
8,
8,
4,
4,
2,
2,
0,
0,
1,
1,
2,
2,
5,
5,
10,
10,
16,
16,
21,
21,
20,
20,
21,
21,
19,
19,
12,
1,
2,
2,
3,
3,
4,
4,
2,
2,
1,
1,
5,
5,
8,
8,
6,
6,
2,
2,
0,
0,
0,
0,
-1,
-1,
7,
7,
12,
12,
7,
7,
3,
3,
0,
0,
0,
0,
1,
1,
4,
4,
3,
3,
1,
1,
4,
4,
1,
1,
0,
0,
1,
1,
4,
4,
9,
9,
6,
6,
3,
3,
2,
2,
0,
0,
0,
0,
-1,
-1,
0,
0,
1,
1,
1,
1,
0,
0,
0,
0,
1,
1,
0,
0,
0,
0,
-1,
-1,
0,
0,
0,
0,
5,
5,
5,
5,
5,
5,
0,
0,
-1,
-1,
-1,
-1,
4,
4,
10,
10,
18,
18,
14,
1,
2,
2,
8,
8,
14,
14,
6,
6,
2,
2,
10,
10,
12,
12,
12,
12,
14,
14,
8,
8,
1,
1,
6,
6,
13,
13,
16,
16,
16,
16,
13,
13,
7,
7,
2,
2,
2,
2,
6,
6,
6,
6,
6,
6,
7,
7,
7,
7,
8,
8,
4,
4,
-1,
-1,
1,
1,
5,
5,
7,
7,
5,
5,
1,
1,
1,
1,
8,
8,
14,
14,
14,
14,
9,
9,
1,
1,
6,
6,
10,
10,
11,
11,
8,
8,
8,
8,
2,
2,
-1,
-1,
-1,
-1,
2,
2,
4,
4,
3,
3,
2,
2,
2,
16,
16,
16,
21,
21,
14,
14,
12,
12,
13,
13,
5,
5,
1,
1,
3,
3,
1,
1,
2,
2,
8,
8,
4,
18,
18,
18,
18,
18,
17,
17,
18,
18,
14,
14,
8,
8,
0,
0,
2,
2,
3,
3,
5,
5,
7,
7,
10,
10,
11,
11,
10,
10,
7,
7,
5,
5,
6,
6,
13,
13,
9,
9,
0,
0,
6,
6,
7,
7,
6,
6,
1,
1,
8,
8,
9,
9,
8,
8,
5,
5,
0,
0,
7,
7,
11,
11,
10,
10,
7,
7,
5,
5,
6,
6,
9,
9,
13,
13,
7,
7,
0,
0,
5,
5,
6,
6,
8,
8,
7,
7,
5,
5,
3,
3,
3,
3,
4,
4,
2,
2,
2,
2,
2,
2,
3,
3,
2,
2,
1,
1,
-1,
-1,
0,
0,
2,
2,
4,
4,
2,
2,
0,
0,
2,
2,
2,
2,
1,
1,
-1,
-1,
1,
1,
1,
1,
0,
0,
0,
0,
2,
2,
6,
6,
5,
5,
1,
1,
1,
1,
8,
8,
14,
14,
16,
16,
16,
4,
5,
5,
2,
2,
5,
5,
3,
3,
12,
26,
26,
26,
33,
33,
26,
8,
8,
8,
8,
8,
16,
16,
20,
20,
18,
18,
13,
13,
10,
10,
7,
7,
5,
5,
4,
4,
1,
1,
2,
2,
3,
3,
6,
6,
10,
10,
14,
14,
13,
13,
9,
9,
6,
6,
2,
2,
2,
2,
1,
1,
2,
2,
5,
5,
5,
5,
4,
4,
1,
1,
0,
0,
3,
3,
9,
9,
11,
11,
11,
11,
6,
6,
4,
4,
12,
12,
18,
18,
16,
16,
7,
7,
2,
2,
0,
0,
4,
4,
8,
8,
2,
2,
10,
10,
18,
18,
16,
16,
10,
10,
4,
4,
3,
14,
14,
14,
24,
24,
20,
5,
5,
5,
10,
10,
16,
16,
14,
14,
10,
10,
5,
5,
0,
0,
1,
1,
1,
1,
2,
2,
5,
5,
0,
0,
5,
5,
5,
5,
8,
8,
10,
10,
7,
7,
8,
8,
13,
13,
16,
16,
14,
14,
13,
2,
3,
3,
8,
8,
10,
10,
10,
10,
14,
14,
20,
20,
20,
20,
16,
16,
12,
12,
6,
6,
3,
3,
0,
0,
4,
4,
5,
5,
6,
6,
5,
5,
8,
8,
12,
12,
12,
12,
13,
13,
11,
11,
9,
9,
9,
9,
5,
5,
5,
16,
15,
15,
18,
18,
9,
9,
2,
2,
6,
20,
18,
18,
27,
27,
22,
10,
11,
11,
2,
2,
8,
8,
16,
16,
24,
24,
29,
29,
32,
32,
26,
26,
17,
6,
7,
7,
4,
4,
9,
9,
13,
13,
14,
14,
14,
14,
15,
15,
14,
14,
10,
10,
9,
9,
8,
8,
7,
7,
0,
0,
0,
0,
2,
2,
3,
3,
3,
3,
1,
1,
5,
5,
8,
8,
14,
14,
12,
12,
5,
5,
-1,
-1,
-1,
-1,
2,
2,
0,
0,
3,
3,
6,
6,
9,
9,
10,
10,
6,
6,
1,
1,
5,
5,
10,
10,
9,
9,
9,
9,
6,
6,
1,
1,
0,
0,
0,
0,
0,
0,
0,
0,
0,
0,
5,
5,
10,
10,
12,
12,
8,
8,
7,
7,
4,
4,
1,
1,
4,
4,
9,
9,
9,
9,
2,
2,
2,
2,
1,
1,
0,
0,
4,
4,
7,
7,
1,
12,
12,
12,
21,
21,
30,
30,
39,
39,
37,
16,
16,
4,
15,
34,
33,
33,
39,
39,
37,
37,
30,
30,
22,
22,
15,
15,
8,
8,
2,
2,
3,
3,
11,
11,
16,
16,
16,
16,
14,
14,
15,
15,
18,
18,
14,
1,
2,
2,
1,
1,
3,
3,
3,
3,
