EMG_S2/DS0027.CSV

Memory Length,4000,
Trigger Level,-4.80000e+02,
Source,CH1,
Probe,1.0X,
Vertical Units,V,
Vertical Scale,1.00000e+00,
Vertical Position,0.00000e+00,
Horizontal Units,S,
Horizontal Scale,1.00000e-01,
Horizontal Position,0.0000000e+00,
Horizontal Mode,Roll Mode,
Waveform Last Dot Address,4000,
Sampling Period,4.00000e-04,
Firmware,V1.14,
Time, ,
Mode,Fast,
Waveform Data,
7,
7,
6,
6,
2,
17,
17,
17,
22,
22,
22,
6,
7,
7,
7,
7,
10,
10,
11,
11,
14,
3,
3,
3,
9,
9,
6,
6,
4,
4,
8,
8,
1,
1,
10,
48,
48,
64,
64,
64,
60,
44,
45,
28,
28,
6,
13,
55,
54,
54,
61,
61,
58,
58,
50,
31,
31,
18,
18,
18,
10,
10,
2,
2,
2,
18,
17,
17,
25,
8,
9,
9,
10,
26,
26,
26,
34,
56,
56,
56,
64,
46,
46,
17,
18,
6,
6,
6,
1,
16,
16,
33,
33,
33,
37,
26,
26,
13,
14,
1,
3,
17,
17,
17,
21,
5,
5,
5,
8,
8,
10,
10,
9,
9,
8,
8,
2,
2,
8,
8,
8,
8,
0,
0,
10,
10,
17,
17,
20,
20,
13,
0,
0,
0,
6,
6,
15,
15,
18,
18,
18,
18,
22,
39,
38,
38,
45,
8,
8,
21,
20,
20,
23,
23,
18,
18,
16,
16,
22,
22,
21,
21,
17,
17,
23,
9,
9,
9,
2,
16,
16,
37,
37,
37,
44,
44,
38,
26,
26,
4,
5,
24,
24,
37,
36,
36,
41,
41,
33,
13,
14,
0,
2,
2,
10,
10,
18,
18,
22,
22,
18,
18,
8,
8,
0,
0,
5,
5,
1,
1,
1,
1,
6,
6,
1,
1,
0,
0,
4,
18,
17,
17,
13,
0,
1,
1,
1,
1,
6,
21,
20,
20,
21,
8,
9,
9,
-1,
-1,
2,
2,
4,
4,
13,
13,
17,
17,
12,
12,
6,
6,
4,
4,
0,
12,
12,
12,
16,
16,
23,
23,
22,
22,
14,
14,
6,
6,
0,
0,
3,
3,
0,
0,
2,
2,
7,
21,
20,
20,
28,
28,
29,
14,
14,
2,
12,
29,
29,
29,
32,
32,
29,
29,
25,
25,
21,
21,
16,
16,
7,
7,
2,
2,
9,
29,
28,
44,
43,
43,
34,
3,
3,
20,
18,
47,
46,
64,
62,
62,
64,
64,
65,
65,
57,
24,
25,
2,
2,
28,
28,
54,
53,
53,
62,
62,
55,
38,
39,
21,
21,
21,
20,
20,
20,
20,
11,
0,
1,
1,
3,
3,
6,
6,
9,
9,
9,
9,
11,
11,
14,
14,
13,
13,
6,
6,
-2,
-2,
1,
1,
10,
10,
17,
17,
12,
1,
1,
1,
5,
5,
6,
6,
6,
6,
3,
3,
7,
7,
12,
1,
2,
24,
24,
46,
45,
45,
44,
44,
41,
41,
38,
6,
6,
37,
35,
62,
62,
62,
64,
53,
53,
40,
41,
24,
24,
8,
9,
9,
2,
2,
2,
2,
0,
0,
1,
1,
0,
11,
10,
10,
14,
14,
17,
30,
29,
29,
39,
39,
34,
14,
15,
15,
12,
23,
23,
23,
25,
25,
20,
8,
8,
8,
2,
13,
13,
13,
21,
21,
28,
28,
34,
34,
34,
34,
27,
9,
9,
9,
9,
9,
10,
10,
1,
1,
6,
6,
8,
8,
7,
7,
8,
8,
10,
10,
7,
7,
0,
0,
1,
1,
2,
2,
1,
1,
6,
6,
12,
12,
13,
13,
13,
13,
10,
10,
2,
2,
6,
6,
5,
5,
2,
2,
10,
24,
23,
23,
20,
2,
3,
3,
12,
12,
14,
14,
12,
12,
13,
13,
6,
6,
8,
8,
13,
24,
24,
24,
26,
8,
8,
8,
15,
45,
44,
44,
53,
37,
37,
14,
14,
2,
3,
3,
5,
5,
8,
8,
17,
17,
10,
10,
5,
5,
0,
0,
2,
2,
4,
4,
4,
4,
1,
1,
0,
0,
9,
25,
25,
37,
37,
37,
35,
18,
18,
1,
3,
20,
20,
35,
4,
4,
0,
0,
1,
1,
5,
5,
6,
6,
14,
14,
20,
20,
21,
21,
17,
17,
8,
8,
1,
1,
10,
10,
16,
16,
17,
17,
18,
18,
16,
16,
12,
12,
10,
10,
7,
7,
2,
15,
14,
14,
22,
22,
14,
14,
8,
8,
3,
3,
5,
5,
4,
4,
8,
25,
23,
23,
22,
2,
2,
2,
7,
7,
1,
1,
5,
5,
8,
8,
13,
13,
8,
8,
0,
0,
10,
10,
16,
16,
17,
17,
14,
14,
6,
6,
2,
2,
6,
6,
6,
6,
0,
12,
12,
12,
13,
13,
9,
9,
2,
2,
9,
9,
11,
11,
13,
27,
27,
27,
31,
13,
13,
1,
2,
2,
6,
6,
6,
6,
9,
9,
7,
7,
6,
6,
5,
5,
3,
3,
4,
4,
10,
10,
14,
14,
16,
16,
19,
19,
18,
7,
8,
8,
7,
24,
22,
36,
35,
35,
40,
40,
34,
22,
23,
23,
14,
14,
9,
9,
1,
14,
14,
14,
20,
20,
13,
13,
11,
11,
15,
15,
18,
18,
16,
16,
11,
0,
1,
1,
6,
6,
8,
8,
6,
6,
1,
1,
2,
2,
0,
0,
5,
5,
7,
7,
3,
3,
1,
1,
0,
0,
7,
7,
8,
8,
5,
23,
22,
38,
37,
37,
35,
35,
27,
14,
14,
1,
4,
26,
26,
37,
36,
36,
30,
30,
25,
25,
28,
28,
22,
6,
6,
6,
1,
1,
6,
6,
12,
12,
14,
14,
13,
13,
5,
5,
3,
3,
6,
6,
6,
6,
8,
8,
10,
10,
10,
10,
4,
4,
-1,
-1,
1,
1,
1,
1,
8,
8,
17,
17,
20,
20,
11,
11,
5,
5,
13,
26,
24,
24,
20,
20,
12,
0,
1,
1,
1,
1,
1,
1,
4,
4,
8,
8,
2,
2,
11,
11,
12,
1,
6,
18,
18,
18,
21,
21,
20,
20,
15,
15,
19,
19,
24,
24,
14,
14,
5,
5,
2,
2,
2,
2,
2,
2,
6,
6,
10,
10,
19,
33,
32,
43,
43,
43,
43,
27,
28,
13,
14,
1,
2,
2,
7,
7,
12,
25,
24,
24,
28,
28,
22,
22,
14,
14,
13,
13,
12,
12,
14,
14,
5,
5,
5,
5,
14,
14,
23,
23,
32,
32,
24,
5,
5,
5,
14,
14,
18,
18,
18,
18,
12,
12,
4,
4,
2,
2,
3,
3,
7,
7,
8,
8,
2,
2,
5,
5,
7,
7,
5,
5,
10,
10,
13,
13,
13,
13,
12,
12,
7,
7,
6,
6,
14,
14,
12,
12,
13,
13,
13,
13,
20,
8,
8,
8,
3,
3,
7,
7,
15,
15,
21,
21,
15,
15,
16,
16,
21,
21,
15,
15,
6,
6,
8,
22,
21,
21,
20,
20,
12,
12,
14,
14,
9,
9,
1,
1,
6,
6,
6,
18,
17,
17,
17,
17,
14,
14,
15,
15,
5,
5,
6,
6,
22,
22,
22,
46,
46,
63,
62,
49,
50,
31,
31,
31,
28,
28,
30,
5,
6,
35,
35,
54,
54,
54,
53,
53,
49,
49,
45,
45,
36,
36,
28,
28,
21,
8,
8,
8,
9,
28,
27,
38,
38,
38,
35,
35,
36,
36,
35,
35,
30,
30,
22,
22,
13,
13,
5,
5,
3,
15,
14,
14,
18,
18,
16,
16,
16,
16,
20,
20,
23,
23,
14,
14,
5,
5,
1,
1,
6,
6,
12,
12,
9,
9,
4,
4,
5,
5,
5,
5,
1,
1,
1,
1,
5,
5,
8,
8,
12,
12,
6,
6,
0,
0,
0,
0,
6,
6,
10,
10,
10,
10,
7,
7,
2,
2,
0,
0,
3,
3,
0,
0,
0,
14,
14,
14,
15,
15,
13,
13,
12,
12,
6,
6,
0,
0,
-1,
10,
10,
25,
23,
23,
29,
29,
26,
26,
20,
20,
14,
14,
10,
10,
1,
15,
14,
27,
26,
26,
33,
33,
34,
34,
28,
14,
14,
3,
4,
4,
0,
0,
1,
1,
1,
13,
12,
12,
17,
17,
17,
5,
6,
6,
2,
2,
0,
0,
4,
4,
13,
13,
14,
14,
5,
5,
6,
24,
23,
23,
30,
30,
32,
32,
25,
10,
11,
11,
5,
19,
18,
30,
30,
30,
36,
36,
27,
14,
14,
2,
2,
2,
8,
8,
13,
13,
13,
13,
9,
9,
2,
16,
14,
35,
34,
47,
45,
21,
22,
4,
12,
30,
30,
30,
30,
30,
32,
32,
37,
37,
28,
13,
14,
14,
6,
6,
2,
14,
13,
30,
30,
30,
39,
39,
38,
38,
30,
19,
19,
19,
15,
1,
4,
16,
15,
15,
18,
18,
18,
18,
26,
26,
22,
22,
13,
13,
5,
5,
3,
3,
1,
1,
0,
0,
3,
3,
11,
11,
7,
7,
0,
0,
4,
4,
2,
2,
5,
5,
11,
11,
14,
14,
14,
14,
12,
12,
9,
9,
4,
4,
3,
3,
12,
12,
13,
13,
15,
15,
15,
15,
12,
12,
7,
7,
1,
1,
5,
5,
8,
19,
18,
29,
29,
29,
33,
33,
25,
9,
9,
9,
8,
8,
4,
17,
16,
27,
27,
27,
29,
29,
32,
32,
29,
29,
20,
8,
9,
9,
0,
0,
2,
2,
5,
5,
3,
3,
12,
12,
14,
14,
15,
15,
15,
15,
14,
14,
12,
12,
10,
10,
6,
6,
5,
5,
1,
1,
2,
2,
0,
0,
2,
2,
4,
4,
5,
5,
2,
2,
2,
2,
0,
0,
1,
1,
4,
4,
7,
7,
10,
10,
12,
12,
14,
14,
17,
17,
13,
1,
2,
2,
12,
12,
6,
6,
6,
17,
15,
15,
14,
14,
6,
6,
6,
22,
21,
21,
30,
30,
31,
15,
15,
15,
7,
7,
8,
8,
7,
7,
2,
2,
2,
2,
6,
6,
13,
13,
18,
18,
21,
21,
23,
23,
18,
6,
6,
6,
8,
27,
26,
26,
28,
28,
26,
26,
19,
1,
2,
2,
8,
8,
14,
14,
6,
6,
0,
0,
3,
14,
14,
14,
10,
10,
9,
9,
10,
10,
6,
6,
12,
12,
14,
14,
15,
15,
19,
19,
20,
20,
17,
17,
15,
15,
9,
9,
4,
4,
0,
0,
5,
17,
16,
16,
20,
20,
18,
18,
14,
14,
13,
13,
14,
14,
10,
10,
1,
1,
5,
5,
6,
6,
1,
1,
4,
4,
4,
4,
8,
8,
0,
0,
0,
0,
2,
2,
10,
10,
8,
8,
5,
5,
2,
2,
0,
0,
7,
7,
14,
14,
21,
21,
19,
19,
25,
36,
36,
36,
42,
30,
31,
4,
4,
18,
40,
40,
39,
50,
48,
37,
37,
22,
22,
22,
14,
14,
10,
10,
12,
12,
6,
6,
6,
17,
17,
17,
13,
1,
4,
16,
15,
26,
25,
25,
26,
26,
24,
24,
23,
23,
20,
20,
10,
10,
2,
2,
8,
21,
21,
21,
26,
26,
28,
28,
20,
1,
4,
4,
13,
13,
14,
14,
8,
8,
2,
2,
1,
1,
5,
5,
2,
2,
0,
0,
2,
2,
2,
2,
6,
6,
4,
4,
2,
2,
3,
3,
3,
3,
1,
1,
-1,
-1,
4,
4,
5,
5,
3,
3,
2,
2,
5,
5,
6,
6,
0,
0,
8,
8,
9,
9,
7,
7,
1,
1,
5,
5,
3,
3,
2,
2,
0,
0,
8,
8,
10,
10,
4,
4,
0,
0,
4,
4,
14,
14,
22,
22,
19,
8,
8,
8,
2,
2,
2,
2,
0,
0,
7,
7,
14,
14,
16,
16,
12,
12,
11,
11,
6,
6,
1,
1,
1,
1,
0,
0,
3,
3,
4,
4,
6,
6,
5,
5,
0,
0,
4,
4,
0,
0,
2,
2,
5,
5,
12,
12,
20,
20,
18,
18,
17,
17,
19,
19,
16,
16,
8,
8,
3,
17,
16,
32,
31,
31,
33,
33,
29,
29,
26,
26,
18,
18,
9,
9,
2,
2,
10,
10,
14,
14,
12,
12,
7,
7,
6,
6,
5,
5,
6,
6,
13,
13,
21,
21,
20,
4,
4,
4,
12,
25,
25,
25,
20,
2,
3,
14,
14,
28,
27,
27,
32,
21,
21,
7,
7,
7,
3,
3,
2,
2,
1,
1,
2,
25,
24,
44,
44,
44,
46,
30,
30,
14,
14,
1,
2,
14,
13,
13,
22,
22,
28,
28,
30,
30,
22,
5,
6,
6,
5,
5,
5,
5,
3,
3,
10,
10,
14,
14,
14,
14,
15,
15,
9,
9,
2,
2,
1,
1,
4,
4,
6,
21,
20,
20,
28,
28,
26,
14,
14,
1,
5,
18,
17,
17,
17,
17,
9,
9,
1,
1,
2,
2,
8,
8,
8,
8,
2,
2,
1,
1,
5,
5,
1,
1,
4,
4,
12,
12,
18,
18,
19,
19,
14,
14,
12,
12,
5,
5,
2,
2,
-1,
-1,
2,
2,
4,
4,
10,
10,
14,
14,
14,
14,
17,
17,
16,
16,
15,
15,
17,
17,
20,
20,
19,
5,
6,
6,
10,
10,
17,
17,
18,
18,
19,
19,
18,
18,
14,
14,
9,
9,
9,
9,
6,
6,
0,
0,
0,
0,
4,
4,
12,
12,
20,
20,
19,
5,
5,
5,
6,
6,
5,
5,
0,
0,
4,
4,
7,
7,
6,
6,
0,
0,
1,
1,
1,
1,
10,
10,
18,
18,
14,
14,
7,
7,
4,
4,
2,
2,
3,
3,
1,
1,
6,
6,
11,
11,
15,
15,
19,
19,
14,
14,
8,
8,
6,
6,
5,
5,
2,
2,
7,
7,
12,
12,
13,
13,
10,
10,
8,
8,
5,
5,
-1,
-1,
6,
6,
7,
7,
2,
2,
0,
0,
6,
6,
9,
9,
5,
5,
0,
0,
4,
4,
1,
1,
2,
2,
2,
2,
7,
7,
7,
7,
5,
5,
0,
0,
2,
2,
5,
5,
6,
6,
10,
10,
6,
6,
6,
6,
13,
13,
17,
17,
19,
19,
18,
18,
12,
0,
1,
1,
6,
6,
8,
8,
4,
4,
4,
4,
3,
3,
5,
5,
-1,
-1,
3,
3,
2,
2,
1,
1,
6,
6,
9,
9,
10,
10,
14,
14,
12,
12,
5,
5,
0,
0,
5,
5,
9,
9,
8,
8,
4,
4,
1,
12,
11,
11,
13,
13,
8,
8,
1,
1,
4,
4,
2,
2,
8,
8,
14,
14,
17,
17,
10,
10,
2,
17,
16,
16,
23,
23,
17,
2,
5,
26,
25,
25,
27,
27,
18,
18,
11,
11,
2,
19,
18,
18,
23,
23,
21,
21,
20,
20,
18,
18,
14,
14,
6,
6,
0,
0,
2,
2,
4,
4,
9,
9,
13,
13,
17,
17,
15,
15,
11,
11,
8,
8,
2,
2,
1,
1,
1,
1,
4,
4,
1,
1,
3,
3,
1,
1,
5,
5,
9,
9,
7,
7,
3,
3,
5,
22,
22,
22,
25,
25,
25,
25,
20,
3,
4,
4,
3,
3,
8,
8,
17,
17,
27,
27,
34,
23,
24,
10,
10,
10,
13,
13,
18,
3,
4,
4,
6,
6,
14,
31,
30,
30,
39,
27,
28,
5,
6,
6,
0,
0,
10,
28,
27,
27,
32,
17,
17,
2,
5,
5,
3,
3,
0,
12,
10,
10,
13,
13,
13,
13,
8,
8,
6,
6,
5,
5,
4,
4,
5,
5,
11,
11,
8,
8,
1,
1,
4,
4,
6,
6,
10,
10,
13,
13,
10,
10,
8,
8,
10,
10,
8,
8,
6,
6,
6,
6,
3,
3,
0,
0,
2,
2,
8,
8,
12,
12,
8,
8,
5,
5,
8,
8,
6,
6,
1,
1,
5,
5,
12,
12,
14,
14,
10,
10,
3,
3,
3,
3,
9,
9,
14,
14,
18,
18,
16,
16,
12,
12,
5,
5,
1,
1,
5,
5,
6,
6,
3,
3,
5,
5,
6,
6,
14,
14,
16,
16,
12,
12,
2,
2,
2,
2,
6,
6,
12,
12,
15,
15,
20,
20,
21,
21,
15,
1,
2,
14,
13,
13,
17,
17,
21,
21,
21,
6,
6,
6,
0,
0,
7,
7,
12,
12,
5,
5,
2,
2,
3,
3,
0,
0,
8,
8,
14,
14,
5,
5,
5,
5,
13,
13,
6,
6,
6,
18,
17,
17,
22,
22,
22,
22,
19,
6,
7,
7,
1,
1,
1,
1,
-1,
-1,
2,
2,
4,
4,
3,
14,
13,
26,
26,
26,
33,
33,
31,
11,
12,
1,
2,
2,
9,
24,
24,
24,
26,
10,
11,
11,
6,
20,
19,
35,
34,
34,
39,
39,
34,
34,
28,
28,
23,
23,
15,
15,
9,
9,
2,
2,
6,
6,
8,
8,
14,
30,
30,
30,
38,
38,
41,
41,
35,
12,
13,
0,
2,
16,
15,
15,
21,
21,
26,
26,
29,
29,
19,
7,
8,
8,
0,
0,
0,
0,
10,
24,
24,
38,
38,
38,
42,
42,
36,
5,
6,
20,
20,
31,
29,
29,
31,
31,
34,
34,
27,
27,
18,
7,
7,
7,
2,
2,
1,
1,
10,
10,
19,
19,
15,
15,
16,
16,
6,
6,
1,
1,
8,
8,
13,
13,
11,
11,
4,
4,
4,
4,
8,
8,
7,
7,
5,
5,
5,
5,
2,
2,
2,
2,
4,
4,
0,
0,
3,
3,
0,
0,
3,
3,
5,
5,
1,
1,
6,
6,
14,
14,
13,
13,
9,
9,
4,
4,
0,
0,
0,
0,
-1,
-1,
7,
7,
9,
9,
3,
3,
-2,
-2,
0,
0,
0,
0,
-2,
-2,
4,
4,
10,
10,
14,
14,
12,
0,
1,
1,
5,
5,
4,
4,
8,
8,
2,
2,
3,
3,
4,
24,
24,
42,
42,
42,
33,
18,
19,
4,
4,
4,
4,
4,
0,
0,
2,
13,
12,
12,
10,
10,
2,
23,
21,
44,
43,
43,
52,
52,
44,
29,
29,
18,
18,
5,
5,
18,
17,
40,
40,
40,
41,
20,
21,
21,
14,
14,
21,
21,
14,
2,
21,
21,
20,
20,
22,
22,
15,
4,
4,
4,
6,
21,
20,
32,
31,
31,
30,
10,
10,
10,
6,
6,
10,
10,
10,
10,
14,
14,
12,
12,
12,
12,
12,
12,
9,
9,
10,
10,
4,
4,
8,
19,
19,
19,
27,
27,
19,
1,
3,
16,
15,
15,
20,
20,
17,
6,
6,
6,
5,
20,
19,
32,
31,
31,
30,
30,
20,
20,
15,
15,
18,
1,
2,
18,
17,
17,
22,
22,
20,
20,
22,
22,
31,
31,
37,
37,
30,
17,
17,
2,
5,
20,
20,
20,
23,
23,
21,
21,
14,
14,
11,
11,
12,
12,
11,
11,
13,
13,
6,
6,
6,
6,
6,
6,
4,
4,
6,
6,
15,
15,
18,
18,
14,
1,
2,
17,
15,
15,
19,
19,
14,
14,
5,
5,
0,
0,
6,
6,
3,
18,
18,
31,
30,
11,
12,
12,
21,
38,
37,
37,
44,
44,
38,
26,
26,
13,
13,
2,
3,
3,
8,
8,
14,
14,
15,
15,
8,
8,
5,
5,
7,
7,
10,
10,
16,
16,
21,
21,
24,
24,
27,
15,
16,
0,
2,
2,
4,
4,
9,
9,
17,
17,
15,
2,
2,
2,
11,
11,
18,
4,
4,
4,
-2,
-2,
-1,
-1,
5,
26,
26,
26,
33,
33,
26,
26,
20,
9,
10,
10,
0,
0,
10,
10,
15,
15,
11,
11,
10,
10,
8,
8,
5,
5,
1,
1,
6,
6,
2,
2,
4,
4,
12,
12,
13,
2,
3,
3,
10,
10,
19,
19,
25,
25,
23,
1,
2,
2,
10,
10,
10,
10,
4,
4,
2,
2,
1,
1,
3,
3,
1,
1,
3,
18,
18,
35,
35,
35,
38,
38,
31,
31,
26,
26,
22,
22,
18,
18,
15,
3,
5,
17,
17,
50,
49,
62,
62,
62,
64,
53,
54,
34,
35,
12,
13,
1,
4,
4,
5,
5,
7,
7,
13,
13,
18,
18,
20,
20,
25,
25,
29,
29,
29,
29,
24,
24,
15,
3,
4,
4,
6,
21,
20,
20,
28,
41,
40,
28,
28,
2,
3,
3,
11,
11,
15,
15,
12,
12,
12,
12,
17,
17,
9,
9,
1,
1,
1,
1,
1,
1,
-2,
-2,
4,
18,
17,
28,
28,
28,
23,
23,
20,
20,
11,
11,
2,
2,
0,
0,
6,
6,
5,
5,
4,
4,
7,
7,
7,
7,
9,
9,
11,
11,
6,
6,
15,
15,
18,
18,
15,
15,
16,
16,
20,
20,
13,
1,
7,
26,
26,
37,
37,
37,
37,
37,
31,
16,
17,
3,
5,
5,
3,
3,
2,
2,
12,
12,
17,
17,
17,
2,
2,
14,
14,
14,
14,
2,
4,
4,
12,
12,
14,
3,
4,
4,
3,
3,
6,
6,
12,
12,
20,
20,
25,
25,
22,
10,
10,
10,
6,
6,
9,
9,
7,
7,
1,
1,
6,
6,
8,
8,
11,
11,
5,
5,
9,
9,
12,
12,
6,
6,
0,
0,
5,
5,
12,
25,
24,
24,
32,
32,
33,
19,
19,
5,
5,
5,
2,
2,
8,
8,
12,
12,
19,
33,
32,
32,
38,
38,
38,
38,
32,
32,
23,
10,
12,
12,
4,
4,
11,
11,
21,
21,
20,
20,
14,
14,
8,
8,
6,
6,
11,
11,
8,
8,
9,
21,
21,
21,
28,
28,
27,
27,
18,
5,
6,
6,
3,
20,
19,
19,
29,
29,
31,
31,
26,
26,
20,
20,
16,
16,
12,
12,
7,
7,
1,
1,
0,
20,
20,
42,
42,
42,
35,
35,
25,
9,
9,
9,
17,
17,
22,
22,
20,
6,
7,
7,
9,
9,
16,
16,
10,
10,
6,
6,
6,
6,
2,
2,
9,
9,
17,
17,
20,
20,
17,
17,
12,
1,
4,
4,
11,
11,
3,
3,
1,
1,
1,
1,
0,
0,
0,
0,
1,
1,
5,
5,
6,
6,
14,
14,
18,
18,
20,
20,
15,
15,
8,
8,
6,
6,
6,
6,
1,
1,
7,
7,
14,
14,
17,
17,
17,
17,
17,
17,
11,
11,
13,
13,
10,
10,
8,
22,
22,
22,
29,
29,
30,
30,
37,
37,
29,
3,
5,
5,
14,
14,
13,
2,
3,
3,
2,
2,
8,
19,
18,
18,
22,
22,
22,
22,
17,
17,
9,
9,
6,
6,
8,
8,
2,
14,
13,
29,
29,
18,
18,
6,
6,
6,
4,
4,
7,
7,
6,
6,
6,
6,
6,
6,
11,
26,
26,
26,
26,
26,
21,
6,
6,
6,
8,
8,
15,
15,
22,
36,
36,
36,
36,
36,
30,
30,
28,
28,
29,
29,
28,
28,
19,
2,
4,
28,
26,
58,
57,
57,
64,
64,
65,
48,
49,
6,
6,
34,
33,
46,
44,
30,
30,
30,
22,
22,
15,
15,
6,
17,
17,
35,
34,
20,
20,
3,
10,
25,
25,
25,
32,
32,
29,
29,
25,
25,
18,
18,
12,
12,
6,
6,
6,
6,
10,
10,
10,
10,
9,
9,
6,
6,
12,
12,
14,
14,
17,
17,
23,
23,
27,
27,
29,
29,
26,
26,
20,
20,
13,
13,
11,
11,
6,
6,
8,
33,
32,
46,
45,
45,
45,
45,
38,
38,
29,
16,
17,
4,
4,
4,
5,
5,
6,
6,
12,
12,
14,
14,
15,
15,
14,
1,
1,
1,
7,
7,
3,
3,
5,
5,
2,
2,
2,
15,
14,
26,
26,
26,
34,
34,
30,
13,
13,
13,
13,
13,
12,
1,
5,
5,
13,
13,
18,
18,
21,
21,
28,
28,
28,
28,
20,
20,
10,
10,
12,
12,
18,
18,
16,
16,
8,
8,
-1,
-1,
3,
3,
12,
25,
25,
25,
26,
26,
27,
58,
58,
58,
65,
65,
62,
28,
28,
4,
5,
29,
28,
39,
39,
53,
52,
64,
63,
63,
62,
45,
46,
29,
29,
12,
13,
2,
3,
3,
4,
4,
6,
6,
9,
20,
20,
20,
24,
24,
28,
28,
24,
11,
12,
12,
4,
4,
1,
26,
25,
51,
50,
50,
49,
27,
27,
6,
6,
6,
14,
14,
15,
15,
10,
10,
7,
7,
15,
40,
39,
39,
44,
31,
31,
14,
15,
4,
4,
4,
4,
4,
8,
8,
15,
15,
17,
17,
14,
2,
3,
3,
2,
17,
17,
42,
42,
57,
57,
57,
65,
42,
42,
6,
9,
28,
27,
27,
21,
3,
4,
37,
37,
55,
54,
26,
26,
5,
11,
44,
44,
55,
54,
54,
49,
32,
33,
20,
21,
21,
26,
26,
24,
9,
10,
10,
1,
1,
8,
20,
20,
20,
26,
26,
29,
29,
30,
30,
30,
15,
16,
1,
2,
2,
4,
4,
12,
12,
17,
17,
16,
16,
8,
8,
4,
4,
13,
13,
22,
22,
25,
25,
23,
23,
26,
26,
27,
27,
22,
9,
11,
11,
5,
5,
13,
30,
29,
29,
27,
14,
14,
14,
6,
6,
10,
10,
1,
1,
1,
1,
1,
1,
3,
3,
5,
5,
12,
12,
15,
15,
7,
7,
5,
5,
4,
4,
3,
14,
13,
13,
21,
21,
21,
21,
14,
14,
9,
9,
9,
9,
6,
6,
0,
0,
0,
0,
3,
3,
7,
18,
18,
18,
20,
20,
25,
25,
34,
34,
30,
17,
18,
6,
6,
6,
4,
4,
3,
15,
14,
28,
27,
27,
29,
29,
26,
26,
24,
12,
13,
1,
1,
1,
