EMG_S2/DS0053.CSV

Memory Length,4000,
Trigger Level,-4.80000e+02,
Source,CH1,
Probe,1.0X,
Vertical Units,V,
Vertical Scale,1.00000e+00,
Vertical Position,0.00000e+00,
Horizontal Units,S,
Horizontal Scale,1.00000e-01,
Horizontal Position,0.0000000e+00,
Horizontal Mode,Roll Mode,
Waveform Last Dot Address,4000,
Sampling Period,4.00000e-04,
Firmware,V1.14,
Time, ,
Mode,Fast,
Waveform Data,
9,
9,
5,
5,
1,
1,
6,
6,
4,
4,
6,
6,
13,
13,
6,
6,
0,
0,
0,
0,
6,
6,
4,
4,
10,
22,
22,
22,
30,
30,
30,
19,
20,
20,
13,
13,
3,
16,
15,
34,
33,
33,
37,
37,
34,
34,
28,
14,
15,
15,
6,
6,
9,
9,
11,
11,
7,
7,
1,
1,
9,
9,
14,
14,
24,
24,
27,
27,
25,
25,
23,
23,
14,
14,
4,
4,
4,
4,
5,
5,
4,
4,
4,
4,
6,
20,
19,
19,
23,
23,
18,
18,
14,
1,
5,
25,
25,
37,
37,
37,
41,
41,
38,
38,
33,
33,
27,
11,
12,
1,
7,
27,
26,
42,
41,
41,
37,
15,
15,
0,
0,
0,
1,
1,
8,
8,
11,
11,
15,
15,
11,
11,
8,
8,
6,
20,
19,
19,
20,
20,
23,
23,
17,
5,
5,
5,
12,
28,
27,
38,
37,
25,
25,
3,
6,
6,
13,
13,
9,
9,
5,
5,
9,
20,
20,
20,
21,
21,
18,
18,
14,
14,
10,
10,
5,
5,
2,
2,
8,
8,
13,
13,
12,
12,
12,
12,
13,
13,
18,
18,
24,
24,
22,
22,
13,
13,
5,
5,
2,
17,
16,
16,
25,
25,
30,
16,
16,
3,
15,
36,
35,
35,
26,
1,
2,
2,
2,
2,
8,
8,
8,
8,
2,
2,
10,
23,
22,
22,
29,
29,
22,
11,
11,
11,
5,
5,
5,
5,
7,
7,
0,
0,
1,
1,
0,
0,
4,
4,
2,
16,
15,
28,
28,
28,
30,
30,
22,
11,
12,
12,
2,
2,
2,
2,
2,
2,
1,
1,
6,
22,
22,
22,
23,
23,
16,
1,
2,
18,
18,
38,
38,
52,
50,
24,
24,
4,
10,
26,
25,
25,
30,
30,
26,
26,
24,
24,
22,
22,
25,
12,
12,
1,
5,
17,
16,
16,
18,
18,
16,
16,
15,
15,
14,
14,
7,
7,
4,
4,
12,
1,
2,
2,
3,
3,
2,
2,
8,
8,
12,
12,
3,
3,
5,
20,
20,
20,
26,
14,
14,
2,
7,
7,
15,
15,
20,
9,
10,
10,
3,
14,
13,
13,
12,
12,
7,
7,
10,
10,
13,
13,
20,
20,
17,
17,
9,
9,
8,
8,
16,
16,
20,
20,
21,
21,
22,
22,
18,
18,
14,
14,
13,
13,
6,
6,
0,
0,
4,
4,
8,
8,
10,
10,
5,
5,
2,
2,
9,
9,
18,
18,
24,
24,
26,
10,
11,
11,
9,
9,
15,
15,
14,
14,
14,
1,
2,
2,
6,
6,
6,
6,
7,
7,
13,
38,
38,
61,
60,
48,
49,
6,
6,
6,
15,
28,
26,
38,
38,
38,
38,
38,
30,
30,
31,
31,
38,
38,
40,
40,
31,
11,
12,
1,
6,
18,
17,
28,
27,
38,
38,
38,
42,
42,
37,
37,
28,
16,
17,
6,
6,
6,
-1,
-1,
3,
3,
7,
7,
10,
10,
3,
3,
2,
2,
7,
7,
9,
9,
10,
10,
12,
12,
14,
14,
14,
14,
12,
12,
7,
7,
2,
2,
2,
2,
2,
2,
3,
3,
4,
4,
4,
4,
1,
1,
0,
0,
0,
0,
1,
1,
5,
5,
12,
12,
14,
14,
10,
10,
2,
2,
7,
21,
21,
21,
30,
30,
34,
23,
23,
9,
10,
10,
12,
29,
29,
42,
42,
42,
44,
44,
37,
12,
13,
1,
3,
28,
28,
56,
56,
56,
48,
8,
8,
37,
37,
62,
61,
61,
63,
63,
64,
49,
49,
34,
34,
17,
18,
5,
6,
6,
0,
0,
7,
7,
16,
16,
24,
24,
29,
29,
29,
29,
27,
27,
24,
24,
24,
24,
26,
26,
22,
22,
14,
14,
9,
9,
4,
4,
5,
5,
8,
8,
7,
7,
1,
1,
5,
5,
2,
13,
12,
12,
15,
15,
16,
16,
14,
14,
8,
8,
2,
2,
0,
0,
1,
1,
3,
3,
6,
6,
7,
7,
8,
8,
10,
10,
11,
11,
5,
16,
15,
15,
22,
22,
13,
1,
3,
3,
5,
5,
5,
5,
2,
26,
26,
60,
59,
59,
59,
37,
38,
38,
29,
3,
4,
4,
11,
11,
11,
11,
18,
46,
46,
61,
60,
60,
58,
58,
57,
57,
48,
30,
30,
12,
12,
1,
6,
19,
18,
29,
29,
29,
35,
35,
37,
37,
38,
38,
33,
33,
28,
28,
21,
21,
15,
15,
9,
9,
5,
5,
2,
2,
2,
2,
7,
7,
12,
12,
13,
13,
10,
10,
7,
7,
7,
7,
6,
6,
5,
5,
2,
2,
5,
5,
6,
6,
8,
8,
8,
8,
5,
5,
1,
1,
6,
6,
8,
8,
9,
9,
6,
6,
1,
1,
0,
0,
2,
2,
6,
6,
4,
4,
3,
3,
7,
7,
14,
14,
14,
1,
3,
21,
21,
21,
26,
26,
18,
18,
9,
9,
1,
1,
1,
1,
1,
15,
15,
15,
24,
24,
20,
2,
2,
2,
6,
6,
11,
11,
9,
9,
5,
5,
5,
5,
2,
2,
3,
3,
2,
2,
4,
4,
6,
6,
6,
6,
5,
5,
2,
2,
-1,
-1,
6,
6,
7,
7,
12,
12,
11,
11,
2,
13,
12,
12,
21,
33,
32,
32,
37,
20,
21,
2,
2,
2,
5,
5,
11,
11,
20,
20,
26,
26,
29,
29,
26,
26,
20,
20,
13,
13,
6,
6,
0,
0,
3,
3,
6,
6,
9,
9,
10,
10,
15,
28,
26,
26,
34,
34,
29,
10,
11,
11,
8,
21,
21,
21,
29,
29,
30,
30,
20,
2,
3,
3,
9,
20,
19,
30,
29,
29,
35,
24,
25,
25,
20,
20,
16,
1,
2,
2,
10,
28,
27,
27,
37,
37,
36,
36,
33,
33,
27,
16,
17,
6,
8,
8,
1,
1,
6,
6,
10,
10,
14,
14,
17,
17,
19,
19,
18,
18,
17,
17,
13,
13,
10,
10,
8,
8,
6,
6,
3,
3,
2,
2,
6,
6,
9,
9,
6,
6,
4,
4,
5,
5,
3,
3,
3,
3,
1,
1,
8,
8,
9,
9,
4,
4,
2,
2,
5,
5,
6,
6,
10,
10,
9,
9,
9,
9,
3,
3,
2,
2,
2,
2,
12,
28,
28,
44,
44,
44,
42,
24,
25,
10,
10,
10,
19,
48,
46,
57,
56,
56,
50,
35,
35,
20,
21,
6,
7,
7,
6,
6,
9,
9,
12,
12,
18,
18,
18,
18,
18,
18,
14,
14,
14,
14,
13,
13,
10,
10,
5,
5,
1,
1,
2,
2,
2,
2,
1,
1,
0,
0,
-1,
-1,
1,
1,
1,
1,
2,
2,
4,
4,
6,
6,
7,
7,
6,
6,
6,
6,
7,
7,
5,
5,
1,
1,
2,
2,
2,
2,
1,
1,
0,
0,
0,
0,
3,
3,
4,
4,
3,
3,
4,
4,
5,
5,
2,
2,
2,
2,
1,
1,
4,
4,
9,
9,
16,
16,
15,
15,
17,
17,
10,
10,
6,
6,
10,
38,
38,
50,
49,
63,
62,
62,
65,
48,
48,
6,
8,
37,
37,
37,
47,
47,
45,
45,
46,
46,
47,
47,
42,
42,
34,
21,
21,
8,
8,
8,
2,
2,
10,
10,
17,
17,
24,
24,
26,
26,
27,
27,
26,
26,
23,
23,
18,
18,
13,
13,
6,
6,
0,
0,
1,
1,
2,
2,
5,
5,
9,
9,
9,
9,
10,
10,
10,
10,
10,
10,
3,
3,
-1,
-1,
0,
0,
2,
2,
2,
2,
3,
3,
8,
8,
10,
10,
3,
15,
14,
14,
20,
20,
22,
10,
11,
11,
5,
17,
16,
27,
26,
37,
36,
36,
37,
24,
25,
3,
5,
20,
19,
19,
20,
20,
11,
11,
8,
8,
14,
14,
17,
17,
14,
14,
10,
10,
6,
6,
1,
1,
0,
0,
4,
4,
8,
8,
8,
8,
7,
7,
8,
8,
12,
12,
11,
11,
12,
12,
13,
13,
9,
9,
3,
3,
0,
0,
4,
4,
4,
4,
9,
9,
14,
14,
18,
18,
21,
21,
22,
22,
12,
1,
6,
29,
28,
44,
44,
44,
48,
48,
40,
20,
20,
2,
7,
24,
24,
37,
36,
36,
32,
32,
24,
24,
17,
17,
13,
13,
7,
7,
2,
2,
0,
0,
1,
1,
3,
3,
8,
8,
10,
10,
11,
11,
12,
12,
11,
11,
8,
8,
6,
6,
5,
5,
4,
4,
2,
2,
0,
0,
2,
2,
2,
2,
1,
1,
1,
1,
0,
0,
-1,
-1,
-1,
-1,
1,
1,
3,
3,
2,
2,
0,
0,
2,
2,
4,
4,
2,
2,
6,
6,
9,
9,
8,
8,
1,
1,
2,
2,
3,
3,
0,
0,
3,
3,
6,
6,
2,
2,
1,
1,
4,
4,
4,
4,
5,
5,
7,
7,
8,
8,
1,
1,
6,
6,
8,
8,
9,
9,
12,
12,
11,
11,
7,
7,
4,
4,
12,
12,
14,
14,
5,
5,
10,
33,
32,
32,
28,
2,
4,
16,
15,
15,
24,
24,
22,
22,
16,
16,
11,
11,
4,
4,
5,
5,
3,
3,
1,
1,
-1,
-1,
4,
4,
3,
3,
5,
5,
6,
6,
5,
5,
2,
2,
0,
0,
3,
3,
9,
9,
12,
12,
8,
8,
2,
2,
0,
0,
2,
2,
5,
5,
5,
5,
5,
5,
5,
5,
3,
3,
1,
1,
0,
0,
1,
1,
0,
0,
2,
2,
0,
0,
0,
0,
4,
4,
7,
7,
13,
13,
14,
14,
10,
10,
5,
18,
17,
17,
26,
26,
29,
29,
28,
28,
18,
1,
2,
14,
13,
13,
19,
19,
17,
17,
10,
10,
8,
8,
10,
10,
8,
8,
5,
5,
2,
2,
1,
1,
0,
0,
2,
2,
2,
2,
2,
2,
4,
4,
9,
9,
9,
9,
7,
7,
3,
3,
2,
2,
3,
3,
4,
4,
3,
3,
0,
0,
1,
1,
4,
4,
6,
6,
6,
6,
6,
6,
5,
5,
2,
2,
2,
2,
0,
0,
1,
1,
2,
2,
5,
5,
5,
5,
5,
5,
2,
2,
2,
2,
2,
2,
1,
1,
-1,
-1,
1,
1,
0,
0,
0,
0,
0,
0,
3,
3,
6,
6,
6,
6,
2,
2,
0,
0,
2,
2,
8,
19,
19,
19,
25,
25,
25,
25,
22,
22,
18,
2,
2,
18,
18,
37,
37,
54,
54,
65,
64,
64,
66,
36,
36,
8,
9,
9,
6,
19,
18,
34,
33,
51,
50,
50,
54,
54,
49,
49,
44,
44,
41,
41,
34,
17,
17,
1,
5,
22,
21,
37,
36,
36,
36,
36,
30,
30,
30,
30,
29,
29,
23,
23,
15,
15,
9,
9,
5,
5,
0,
0,
1,
1,
2,
2,
4,
4,
4,
4,
6,
6,
6,
6,
5,
5,
6,
6,
6,
6,
6,
6,
6,
6,
5,
5,
4,
4,
2,
2,
-1,
-1,
-1,
-1,
0,
0,
0,
0,
0,
0,
1,
1,
4,
4,
5,
5,
5,
5,
3,
3,
4,
4,
6,
6,
4,
4,
1,
1,
0,
0,
1,
1,
0,
0,
4,
4,
5,
5,
5,
5,
4,
4,
1,
1,
0,
0,
1,
1,
0,
0,
-1,
-1,
4,
4,
8,
8,
9,
9,
3,
3,
9,
22,
22,
36,
34,
34,
36,
18,
18,
1,
4,
19,
19,
19,
26,
26,
25,
25,
23,
23,
19,
19,
13,
13,
6,
6,
1,
1,
9,
9,
13,
13,
13,
13,
9,
9,
6,
6,
5,
5,
3,
3,
3,
3,
4,
4,
2,
2,
-1,
-1,
0,
0,
-2,
-2,
-1,
-1,
2,
2,
2,
2,
1,
1,
0,
0,
-1,
-1,
0,
0,
-1,
-1,
0,
0,
-1,
-1,
1,
1,
1,
1,
-1,
-1,
0,
0,
1,
1,
0,
0,
1,
1,
4,
4,
2,
2,
5,
5,
7,
7,
8,
8,
2,
2,
-1,
-1,
8,
19,
19,
19,
24,
35,
34,
34,
26,
9,
10,
10,
1,
1,
1,
1,
-1,
-1,
3,
15,
14,
14,
22,
22,
28,
28,
28,
28,
24,
24,
18,
18,
11,
11,
6,
6,
1,
1,
6,
6,
12,
12,
15,
15,
16,
16,
17,
17,
17,
17,
16,
16,
15,
15,
12,
12,
9,
9,
5,
5,
3,
3,
-1,
-1,
4,
4,
6,
6,
9,
9,
9,
9,
9,
9,
6,
6,
6,
6,
5,
5,
3,
3,
2,
2,
2,
2,
2,
2,
2,
2,
-1,
-1,
2,
2,
5,
5,
5,
5,
3,
3,
3,
3,
7,
7,
13,
13,
14,
14,
9,
9,
3,
3,
4,
4,
1,
1,
6,
6,
8,
8,
8,
8,
10,
10,
13,
13,
13,
13,
7,
7,
1,
1,
1,
1,
0,
0,
0,
0,
4,
4,
8,
8,
12,
12,
14,
14,
15,
15,
8,
8,
-1,
-1,
2,
2,
7,
7,
13,
13,
15,
15,
13,
13,
3,
3,
5,
5,
8,
8,
14,
14,
21,
21,
21,
21,
14,
14,
13,
13,
10,
10,
5,
5,
9,
21,
21,
21,
26,
26,
24,
24,
17,
17,
12,
12,
9,
9,
5,
5,
2,
2,
0,
0,
0,
0,
1,
1,
4,
4,
9,
9,
14,
14,
18,
18,
20,
20,
20,
20,
13,
13,
6,
6,
1,
1,
1,
1,
5,
5,
9,
9,
10,
10,
8,
8,
8,
8,
8,
8,
7,
7,
2,
2,
3,
3,
0,
0,
2,
2,
6,
6,
5,
5,
4,
4,
2,
2,
2,
2,
2,
2,
4,
4,
10,
10,
10,
10,
5,
5,
0,
0,
6,
17,
15,
15,
22,
22,
26,
26,
22,
9,
10,
10,
13,
37,
37,
49,
48,
48,
48,
48,
46,
33,
33,
4,
5,
30,
30,
47,
47,
47,
46,
46,
40,
40,
34,
34,
25,
13,
14,
3,
4,
4,
5,
5,
11,
11,
16,
16,
18,
18,
19,
19,
18,
18,
17,
17,
15,
15,
12,
12,
9,
9,
6,
6,
2,
2,
0,
0,
3,
3,
6,
6,
7,
7,
8,
8,
6,
6,
5,
5,
4,
4,
4,
4,
3,
3,
1,
1,
-1,
-1,
2,
2,
3,
3,
2,
2,
3,
3,
4,
4,
5,
5,
5,
5,
1,
1,
8,
8,
17,
17,
25,
25,
33,
33,
29,
10,
11,
11,
18,
49,
49,
65,
63,
63,
65,
48,
49,
21,
21,
2,
6,
21,
20,
20,
25,
25,
26,
26,
24,
24,
24,
24,
24,
24,
24,
24,
26,
26,
28,
28,
20,
9,
10,
10,
1,
1,
6,
6,
12,
12,
15,
15,
18,
18,
20,
20,
20,
20,
21,
21,
20,
20,
18,
18,
13,
13,
10,
10,
4,
4,
0,
0,
4,
4,
6,
6,
8,
8,
8,
8,
7,
7,
7,
7,
6,
6,
6,
6,
4,
4,
3,
3,
2,
2,
0,
0,
0,
0,
0,
0,
1,
1,
0,
0,
0,
0,
1,
1,
0,
0,
0,
0,
-2,
-2,
4,
4,
4,
4,
0,
0,
4,
4,
12,
12,
21,
21,
21,
21,
12,
1,
4,
18,
18,
18,
20,
20,
16,
16,
8,
8,
2,
2,
10,
10,
14,
14,
12,
12,
7,
7,
1,
1,
3,
3,
7,
7,
6,
6,
7,
7,
8,
8,
5,
5,
2,
2,
-1,
-1,
-1,
-1,
0,
0,
3,
3,
3,
3,
2,
2,
4,
4,
6,
6,
7,
7,
5,
5,
2,
2,
2,
2,
2,
2,
2,
2,
1,
1,
0,
0,
1,
1,
3,
3,
5,
5,
4,
4,
5,
5,
4,
4,
5,
5,
2,
2,
2,
2,
0,
0,
1,
1,
6,
6,
11,
11,
10,
10,
5,
5,
2,
2,
2,
2,
1,
1,
1,
1,
0,
0,
1,
1,
8,
8,
10,
10,
13,
13,
18,
18,
18,
18,
8,
8,
2,
2,
9,
27,
27,
40,
40,
40,
40,
24,
25,
9,
9,
9,
1,
1,
10,
10,
18,
18,
25,
25,
25,
25,
24,
24,
20,
20,
14,
14,
7,
7,
2,
2,
2,
2,
5,
5,
8,
8,
11,
11,
13,
13,
13,
13,
12,
12,
11,
11,
9,
9,
6,
6,
2,
2,
2,
2,
0,
0,
0,
0,
2,
2,
2,
2,
2,
2,
3,
3,
3,
3,
3,
3,
2,
2,
2,
2,
1,
1,
-1,
-1,
0,
0,
2,
2,
2,
2,
1,
1,
1,
1,
2,
2,
3,
3,
-1,
-1,
6,
6,
6,
6,
8,
8,
12,
12,
14,
14,
5,
5,
7,
7,
15,
27,
26,
39,
38,
38,
38,
18,
19,
1,
2,
13,
13,
13,
18,
18,
22,
22,
25,
25,
22,
22,
17,
17,
8,
8,
2,
2,
2,
2,
2,
2,
5,
5,
6,
6,
4,
4,
-1,
-1,
-1,
-1,
1,
1,
3,
3,
0,
0,
6,
17,
16,
16,
25,
25,
21,
21,
19,
19,
20,
20,
19,
19,
20,
20,
11,
11,
8,
30,
30,
42,
41,
41,
38,
38,
32,
32,
24,
24,
17,
17,
10,
10,
2,
2,
3,
3,
9,
9,
14,
14,
19,
19,
17,
17,
15,
15,
13,
13,
11,
11,
8,
8,
6,
6,
4,
4,
1,
1,
0,
0,
0,
0,
2,
2,
4,
4,
3,
3,
2,
2,
2,
2,
2,
2,
0,
0,
0,
0,
0,
0,
1,
1,
2,
2,
2,
2,
0,
0,
-1,
-1,
0,
0,
0,
0,
-1,
-1,
0,
0,
2,
2,
2,
2,
5,
5,
0,
0,
4,
4,
6,
6,
8,
8,
6,
6,
5,
5,
1,
1,
2,
2,
1,
1,
0,
0,
2,
2,
6,
6,
11,
11,
13,
2,
2,
2,
7,
7,
12,
12,
11,
11,
10,
10,
6,
6,
3,
3,
2,
2,
1,
1,
1,
1,
0,
0,
-1,
-1,
-1,
-1,
4,
4,
6,
6,
6,
6,
6,
6,
7,
7,
5,
5,
2,
2,
0,
0,
1,
1,
0,
0,
2,
2,
2,
2,
2,
2,
0,
0,
-1,
-1,
2,
2,
4,
4,
6,
6,
10,
10,
12,
12,
13,
13,
8,
8,
2,
2,
3,
3,
7,
7,
17,
17,
20,
20,
18,
18,
14,
14,
10,
10,
10,
10,
14,
14,
18,
18,
14,
1,
2,
19,
19,
35,
33,
33,
40,
40,
36,
36,
30,
30,
21,
21,
12,
1,
2,
2,
4,
4,
11,
11,
14,
14,
17,
17,
18,
18,
18,
18,
17,
17,
14,
14,
12,
12,
9,
9,
6,
6,
2,
2,
0,
0,
1,
1,
3,
3,
3,
3,
3,
3,
5,
5,
5,
5,
4,
4,
5,
5,
4,
4,
3,
3,
3,
3,
1,
1,
2,
2,
1,
1,
0,
0,
0,
0,
2,
2,
3,
3,
4,
4,
4,
4,
4,
4,
1,
1,
0,
0,
-1,
-1,
2,
2,
4,
4,
2,
2,
-2,
-2,
2,
2,
5,
5,
3,
3,
3,
3,
2,
2,
0,
0,
1,
1,
1,
1,
-1,
-1,
1,
1,
4,
4,
5,
5,
6,
6,
4,
4,
1,
1,
2,
2,
2,
2,
0,
0,
4,
4,
6,
6,
6,
6,
8,
8,
7,
7,
8,
8,
6,
6,
3,
3,
2,
2,
6,
6,
8,
8,
9,
9,
6,
6,
5,
5,
1,
1,
1,
1,
0,
0,
0,
0,
2,
2,
2,
2,
3,
3,
4,
4,
3,
3,
2,
2,
1,
1,
-1,
-1,
0,
0,
2,
2,
3,
3,
1,
1,
1,
1,
4,
4,
3,
3,
4,
4,
7,
7,
11,
11,
10,
10,
7,
7,
4,
4,
2,
2,
8,
8,
12,
12,
13,
13,
13,
13,
10,
10,
7,
7,
4,
4,
1,
1,
1,
1,
3,
3,
5,
5,
7,
7,
6,
6,
7,
7,
7,
7,
8,
8,
3,
3,
4,
15,
14,
14,
18,
18,
15,
4,
5,
5,
6,
20,
19,
36,
34,
34,
42,
30,
31,
14,
14,
1,
2,
2,
1,
16,
16,
29,
28,
28,
32,
32,
29,
29,
23,
23,
17,
17,
8,
8,
4,
4,
3,
3,
-1,
-1,
4,
4,
7,
7,
13,
13,
15,
15,
15,
15,
13,
13,
12,
12,
9,
9,
6,
6,
2,
2,
0,
0,
1,
1,
2,
2,
2,
2,
4,
4,
2,
2,
0,
0,
0,
0,
0,
0,
1,
1,
-1,
-1,
-1,
-1,
0,
0,
-1,
-1,
1,
1,
3,
3,
2,
2,
1,
1,
-1,
-1,
3,
3,
6,
6,
6,
6,
5,
5,
2,
2,
1,
1,
0,
0,
1,
1,
1,
1,
-1,
-1,
1,
1,
3,
3,
2,
2,
0,
0,
-1,
-1,
-1,
-1,
2,
2,
1,
1,
2,
2,
1,
1,
1,
1,
0,
0,
-1,
-1,
1,
1,
2,
2,
0,
0,
2,
2,
2,
2,
2,
2,
2,
2,
4,
4,
2,
2,
1,
1,
0,
0,
-1,
-1,
0,
0,
-1,
-1,
-1,
-1,
0,
0,
-1,
-1,
0,
0,
0,
0,
0,
0,
-1,
-1,
0,
0,
1,
1,
2,
2,
1,
1,
1,
1,
0,
0,
-1,
-1,
2,
2,
2,
2,
4,
4,
1,
1,
2,
2,
2,
2,
0,
0,
6,
6,
11,
11,
14,
14,
10,
10,
3,
3,
1,
1,
7,
7,
10,
10,
5,
5,
6,
6,
11,
11,
19,
19,
10,
10,
5,
20,
18,
36,
35,
46,
45,
45,
39,
17,
17,
1,
4,
4,
13,
13,
20,
20,
29,
29,
34,
34,
31,
31,
24,
24,
15,
15,
7,
7,
0,
0,
6,
6,
10,
10,
13,
13,
14,
14,
15,
15,
16,
16,
14,
14,
12,
12,
10,
10,
7,
7,
4,
4,
2,
2,
-1,
-1,
2,
2,
2,
2,
4,
4,
4,
4,
5,
5,
5,
5,
5,
5,
4,
4,
3,
3,
4,
4,
1,
1,
-1,
-1,
-1,
-1,
1,
1,
1,
1,
1,
1,
1,
1,
1,
1,
1,
1,
1,
1,
2,
2,
2,
2,
0,
0,
0,
0,
0,
0,
-1,
-1,
0,
0,
0,
0,
-1,
-1,
0,
0,
-1,
-1,
-1,
-1,
0,
0,
0,
0,
2,
2,
3,
3,
7,
7,
7,
7,
2,
2,
5,
5,
6,
6,
9,
9,
16,
16,
18,
18,
16,
16,
16,
16,
12,
12,
4,
4,
5,
5,
14,
14,
22,
22,
24,
24,
20,
20,
17,
17,
14,
14,
9,
9,
4,
4,
1,
1,
4,
4,
8,
8,
10,
10,
12,
12,
11,
11,
12,
12,
10,
10,
9,
9,
6,
6,
4,
4,
1,
1,
0,
0,
-2,
-2,
1,
1,
1,
1,
3,
3,
2,
2,
2,
2,
2,
2,
3,
3,
2,
2,
2,
2,
0,
0,
0,
0,
0,
0,
-1,
-1,
-1,
-1,
0,
0,
1,
1,
2,
2,
2,
2,
2,
2,
2,
2,
1,
1,
0,
0,
-2,
-2,
-1,
-1,
-1,
-1,
-1,
-1,
-1,
-1,
-1,
-1,
-1,
-1,
-1,
-1,
0,
0,
-1,
-1,
-1,
-1,
-1,
-1,
0,
0,
-2,
-2,
-1,
-1,
0,
0,
2,
2,
0,
0,
-1,
-1,
0,
0,
-1,
-1,
2,
2,
1,
1,
-1,
-1,
1,
1,
2,
2,
6,
6,
9,
9,
10,
10,
7,
7,
2,
22,
21,
37,
36,
36,
37,
37,
30,
16,
17,
6,
6,
6,
10,
26,
25,
25,
32,
32,
31,
31,
28,
28,
20,
20,
13,
13,
8,
8,
3,
3,
0,
0,
4,
4,
8,
8,
12,
12,
13,
13,
12,
12,
13,
13,
12,
12,
10,
10,
9,
9,
8,
8,
5,
5,
2,
2,
0,
0,
1,
1,
2,
2,
4,
4,
5,
5,
3,
3,
4,
4,
3,
3,
3,
3,
2,
2,
1,
1,
2,
2,
2,
2,
0,
0,
0,
0,
0,
0,
1,
1,
1,
1,
1,
1,
3,
3,
3,
3,
4,
4,
2,
2,
0,
0,
1,
1,
1,
1,
0,
0,
0,
0,
-1,
-1,
0,
0,
2,
2,
0,
0,
0,
0,
0,
0,
0,
0,
-1,
-1,
-1,
-1,
-2,
-2,
-1,
-1,
-1,
-1,
0,
0,
2,
2,
2,
2,
1,
1,
1,
1,
1,
1,
0,
0,
-1,
-1,
-1,
-1,
-1,
-1,
-1,
-1,
2,
2,
1,
1,
0,
0,
4,
4,
9,
9,
12,
12,
18,
18,
17,
2,
4,
4,
13,
30,
29,
41,
40,
40,
46,
46,
49,
33,
34,
4,
4,
20,
20,
36,
35,
35,
43,
43,
42,
42,
36,
36,
29,
18,
18,
18,
9,
9,
0,
0,
5,
5,
9,
9,
14,
14,
16,
16,
18,
18,
18,
18,
18,
18,
14,
14,
12,
12,
8,
8,
1,
1,
5,
5,
14,
25,
24,
24,
17,
1,
3,
18,
18,
36,
34,
34,
39,
22,
23,
1,
2,
2,
11,
11,
17,
17,
19,
19,
16,
16,
13,
13,
13,
13,
14,
14,
14,
14,
13,
13,
