EMG_S2/DS0046.CSV

Memory Length,4000,
Trigger Level,-4.80000e+02,
Source,CH1,
Probe,1.0X,
Vertical Units,V,
Vertical Scale,1.00000e+00,
Vertical Position,0.00000e+00,
Horizontal Units,S,
Horizontal Scale,1.00000e-01,
Horizontal Position,0.0000000e+00,
Horizontal Mode,Roll Mode,
Waveform Last Dot Address,4000,
Sampling Period,4.00000e-04,
Firmware,V1.14,
Time, ,
Mode,Fast,
Waveform Data,
2,
2,
1,
1,
0,
0,
-1,
-1,
-1,
-1,
1,
1,
4,
4,
4,
4,
2,
2,
-1,
-1,
6,
6,
12,
12,
13,
13,
11,
11,
1,
1,
6,
6,
14,
14,
19,
19,
13,
13,
6,
6,
9,
9,
6,
6,
5,
17,
17,
17,
23,
23,
24,
24,
20,
20,
14,
1,
2,
16,
15,
15,
25,
25,
20,
9,
10,
10,
2,
2,
3,
3,
2,
2,
3,
3,
4,
18,
18,
18,
22,
22,
21,
21,
13,
13,
9,
9,
2,
14,
13,
13,
22,
22,
16,
1,
2,
2,
6,
6,
3,
3,
3,
3,
6,
6,
5,
5,
5,
5,
6,
6,
12,
12,
15,
15,
9,
9,
4,
18,
17,
17,
24,
24,
29,
29,
38,
38,
30,
6,
6,
6,
9,
9,
13,
13,
8,
8,
4,
4,
13,
25,
24,
24,
32,
32,
32,
17,
17,
1,
2,
18,
18,
38,
38,
51,
50,
50,
42,
22,
22,
2,
6,
19,
18,
18,
20,
20,
18,
18,
18,
18,
16,
16,
16,
16,
14,
14,
5,
5,
4,
4,
10,
10,
12,
12,
10,
10,
9,
9,
3,
3,
7,
7,
14,
14,
14,
14,
6,
6,
9,
25,
25,
40,
40,
40,
43,
43,
36,
19,
19,
1,
2,
14,
14,
29,
28,
28,
33,
33,
32,
32,
25,
25,
20,
20,
17,
17,
11,
11,
2,
2,
1,
1,
5,
5,
6,
6,
8,
8,
10,
10,
15,
15,
22,
22,
24,
24,
15,
4,
5,
5,
6,
6,
4,
4,
2,
2,
7,
7,
6,
6,
1,
1,
2,
2,
6,
6,
7,
7,
6,
6,
6,
6,
9,
9,
6,
6,
5,
5,
2,
2,
2,
2,
2,
2,
2,
2,
0,
0,
1,
1,
1,
1,
2,
2,
4,
4,
10,
10,
14,
14,
21,
21,
19,
6,
7,
7,
0,
0,
5,
5,
12,
12,
13,
13,
8,
8,
5,
5,
1,
1,
0,
0,
1,
1,
4,
4,
0,
0,
1,
1,
0,
0,
0,
0,
6,
6,
6,
6,
3,
3,
-1,
-1,
-1,
-1,
4,
4,
9,
9,
9,
9,
5,
5,
0,
0,
7,
7,
9,
9,
3,
3,
3,
3,
8,
8,
9,
9,
8,
8,
4,
4,
1,
1,
0,
0,
1,
1,
5,
5,
10,
10,
10,
10,
6,
6,
1,
1,
-1,
-1,
5,
5,
8,
8,
9,
9,
7,
7,
3,
3,
4,
4,
6,
6,
0,
0,
5,
5,
9,
9,
11,
11,
9,
9,
2,
2,
12,
12,
16,
16,
12,
12,
4,
4,
1,
1,
1,
1,
8,
8,
8,
8,
0,
0,
5,
5,
14,
14,
17,
17,
10,
10,
1,
1,
10,
10,
7,
7,
2,
2,
-1,
-1,
0,
0,
1,
1,
3,
3,
7,
7,
9,
9,
9,
9,
2,
2,
8,
8,
6,
6,
3,
3,
5,
5,
6,
6,
0,
0,
5,
5,
6,
6,
8,
8,
2,
2,
1,
1,
0,
0,
5,
5,
6,
6,
2,
2,
9,
9,
13,
13,
7,
7,
1,
1,
6,
6,
5,
5,
6,
6,
3,
3,
4,
4,
7,
7,
4,
4,
2,
2,
8,
8,
13,
13,
4,
4,
6,
6,
13,
13,
13,
13,
7,
7,
2,
2,
-1,
-1,
1,
1,
5,
5,
8,
8,
5,
5,
2,
2,
0,
0,
5,
5,
10,
10,
18,
18,
16,
16,
6,
6,
2,
2,
7,
7,
10,
10,
13,
13,
14,
14,
12,
12,
11,
11,
5,
5,
5,
5,
9,
9,
10,
10,
7,
7,
3,
3,
-1,
-1,
2,
2,
5,
5,
5,
5,
1,
1,
2,
2,
3,
3,
4,
4,
1,
1,
-1,
-1,
3,
3,
3,
3,
2,
2,
1,
1,
-2,
-2,
-2,
-2,
2,
2,
1,
1,
0,
0,
2,
2,
5,
5,
6,
6,
4,
4,
0,
0,
5,
5,
8,
8,
4,
4,
5,
5,
11,
11,
12,
12,
6,
6,
6,
6,
5,
5,
12,
12,
13,
13,
15,
15,
14,
14,
12,
12,
7,
7,
1,
1,
8,
8,
10,
10,
11,
11,
10,
10,
2,
2,
5,
5,
9,
9,
3,
3,
1,
1,
2,
2,
0,
0,
5,
5,
5,
5,
4,
4,
1,
1,
0,
0,
4,
4,
6,
6,
6,
6,
8,
8,
7,
7,
1,
1,
8,
8,
13,
13,
7,
7,
0,
0,
0,
0,
2,
2,
7,
7,
12,
12,
13,
13,
13,
1,
2,
2,
10,
22,
21,
21,
24,
24,
18,
7,
8,
8,
2,
2,
4,
4,
7,
7,
5,
5,
2,
2,
0,
0,
2,
2,
6,
6,
7,
7,
11,
11,
12,
12,
2,
2,
1,
1,
0,
0,
4,
4,
2,
2,
0,
0,
4,
4,
10,
10,
7,
7,
3,
3,
12,
12,
17,
17,
17,
17,
14,
14,
11,
11,
9,
9,
2,
2,
8,
8,
16,
16,
21,
21,
20,
20,
21,
21,
20,
5,
5,
5,
4,
4,
1,
1,
-1,
-1,
4,
4,
10,
10,
10,
21,
21,
21,
19,
3,
4,
4,
2,
2,
3,
3,
1,
1,
1,
1,
0,
0,
5,
5,
10,
10,
13,
13,
14,
14,
12,
12,
5,
5,
3,
3,
8,
8,
10,
10,
8,
8,
2,
2,
-1,
-1,
-1,
-1,
-1,
-1,
-1,
-1,
2,
2,
2,
2,
3,
3,
1,
1,
2,
2,
2,
2,
1,
1,
-1,
-1,
-1,
-1,
1,
1,
1,
1,
1,
1,
-2,
-2,
-1,
-1,
0,
0,
2,
2,
1,
1,
1,
1,
0,
0,
1,
1,
2,
2,
2,
2,
3,
3,
3,
3,
5,
5,
0,
11,
10,
10,
17,
17,
15,
15,
12,
12,
8,
8,
1,
1,
9,
9,
14,
14,
12,
12,
10,
10,
9,
9,
1,
1,
-1,
-1,
0,
0,
1,
1,
4,
4,
5,
5,
5,
5,
6,
6,
7,
7,
10,
10,
11,
11,
11,
0,
2,
2,
8,
8,
18,
18,
18,
18,
10,
10,
0,
0,
5,
5,
13,
13,
12,
12,
5,
5,
1,
1,
8,
8,
14,
14,
17,
1,
3,
3,
10,
10,
10,
10,
6,
6,
3,
3,
2,
2,
2,
2,
6,
6,
12,
12,
15,
15,
8,
8,
4,
4,
7,
7,
8,
8,
7,
7,
6,
6,
6,
6,
12,
12,
12,
12,
10,
10,
6,
6,
4,
4,
2,
2,
11,
11,
17,
17,
16,
16,
14,
14,
12,
12,
6,
6,
4,
4,
2,
2,
6,
6,
12,
12,
15,
15,
16,
16,
16,
16,
9,
9,
1,
1,
10,
10,
18,
18,
24,
24,
24,
24,
20,
20,
14,
1,
2,
2,
8,
8,
14,
14,
20,
20,
19,
19,
12,
1,
1,
1,
3,
3,
0,
0,
6,
6,
6,
6,
2,
2,
0,
0,
1,
1,
2,
2,
2,
2,
1,
1,
1,
1,
0,
0,
2,
2,
5,
5,
6,
6,
7,
7,
7,
7,
5,
5,
3,
3,
1,
1,
0,
0,
1,
1,
1,
1,
0,
0,
1,
1,
1,
1,
2,
2,
3,
3,
2,
2,
2,
2,
0,
0,
0,
0,
0,
0,
1,
1,
1,
1,
3,
3,
1,
1,
0,
0,
3,
3,
1,
1,
1,
1,
5,
5,
5,
5,
6,
6,
6,
6,
2,
2,
2,
2,
6,
6,
7,
7,
5,
5,
1,
1,
-1,
-1,
-1,
-1,
0,
0,
0,
0,
0,
0,
2,
2,
2,
2,
3,
3,
3,
3,
1,
1,
1,
1,
0,
0,
-1,
-1,
0,
0,
-1,
-1,
-1,
-1,
2,
2,
3,
3,
4,
4,
8,
8,
9,
9,
7,
7,
0,
0,
6,
6,
14,
14,
15,
15,
14,
3,
3,
3,
1,
1,
5,
5,
5,
5,
3,
3,
6,
6,
6,
6,
2,
2,
6,
6,
13,
13,
19,
19,
20,
20,
14,
14,
10,
10,
7,
7,
3,
3,
0,
0,
-1,
-1,
2,
2,
7,
7,
12,
12,
14,
14,
15,
15,
17,
17,
14,
14,
6,
6,
0,
0,
1,
1,
3,
3,
8,
8,
6,
6,
2,
2,
0,
0,
1,
1,
6,
6,
8,
8,
5,
5,
-1,
-1,
2,
2,
5,
5,
9,
9,
11,
11,
9,
9,
6,
6,
6,
6,
1,
1,
-1,
-1,
2,
2,
4,
4,
4,
4,
2,
2,
2,
2,
5,
5,
6,
6,
6,
6,
6,
6,
6,
6,
4,
4,
-1,
-1,
1,
1,
2,
2,
1,
1,
0,
0,
1,
1,
1,
1,
1,
1,
2,
2,
2,
2,
2,
2,
0,
0,
0,
0,
1,
1,
0,
0,
2,
2,
2,
2,
1,
1,
0,
0,
1,
1,
-1,
-1,
1,
1,
1,
1,
0,
0,
0,
0,
0,
0,
0,
0,
2,
2,
5,
5,
4,
4,
0,
0,
2,
2,
2,
2,
2,
2,
10,
10,
13,
13,
14,
14,
13,
13,
13,
13,
5,
5,
5,
5,
8,
8,
8,
8,
6,
6,
8,
8,
12,
12,
12,
12,
11,
11,
7,
7,
3,
3,
0,
0,
-1,
-1,
1,
1,
2,
2,
7,
7,
9,
9,
8,
8,
8,
8,
10,
10,
15,
15,
12,
12,
7,
7,
6,
6,
3,
3,
2,
2,
10,
10,
14,
14,
16,
16,
13,
13,
6,
6,
2,
2,
6,
6,
14,
14,
14,
14,
9,
9,
2,
2,
2,
2,
7,
7,
9,
9,
8,
8,
6,
6,
1,
1,
1,
1,
2,
2,
5,
5,
3,
3,
3,
3,
6,
6,
6,
6,
2,
2,
0,
0,
-1,
-1,
-1,
-1,
0,
0,
1,
1,
-1,
-1,
2,
2,
0,
0,
-1,
-1,
2,
2,
8,
8,
8,
8,
4,
4,
2,
2,
10,
10,
13,
13,
5,
5,
-1,
-1,
0,
0,
-1,
-1,
0,
0,
0,
0,
2,
2,
1,
1,
4,
4,
5,
5,
3,
3,
0,
0,
3,
3,
6,
6,
9,
9,
9,
9,
5,
5,
1,
1,
10,
10,
14,
14,
10,
10,
4,
4,
1,
1,
-1,
-1,
0,
0,
2,
2,
3,
3,
6,
6,
10,
10,
11,
11,
10,
10,
1,
1,
3,
3,
4,
4,
5,
5,
4,
4,
3,
3,
4,
4,
2,
2,
1,
1,
0,
0,
-1,
-1,
1,
1,
4,
4,
3,
3,
2,
2,
2,
2,
0,
0,
1,
1,
0,
0,
2,
2,
2,
2,
4,
4,
5,
5,
5,
5,
1,
1,
-1,
-1,
2,
2,
9,
9,
12,
12,
9,
9,
3,
3,
1,
1,
4,
4,
9,
9,
12,
12,
14,
14,
10,
10,
2,
2,
3,
3,
9,
9,
10,
10,
9,
9,
8,
8,
6,
6,
2,
2,
0,
0,
2,
2,
3,
3,
1,
1,
0,
0,
-1,
-1,
1,
1,
3,
3,
6,
6,
9,
9,
9,
9,
8,
8,
6,
6,
-1,
-1,
1,
1,
5,
5,
5,
5,
3,
3,
4,
4,
7,
7,
6,
6,
2,
2,
4,
4,
6,
6,
8,
8,
9,
9,
8,
8,
5,
5,
1,
1,
6,
6,
11,
11,
10,
10,
10,
10,
6,
6,
1,
1,
7,
7,
13,
13,
14,
14,
12,
12,
7,
7,
2,
2,
0,
0,
4,
4,
7,
7,
10,
10,
11,
11,
8,
8,
4,
4,
1,
1,
2,
2,
5,
5,
9,
9,
10,
10,
7,
7,
4,
4,
1,
1,
0,
0,
9,
9,
10,
10,
4,
4,
1,
1,
8,
8,
10,
10,
10,
10,
16,
16,
16,
16,
7,
7,
0,
0,
-1,
-1,
-1,
-1,
4,
16,
16,
16,
18,
18,
14,
14,
13,
13,
10,
10,
5,
5,
0,
0,
1,
1,
1,
1,
0,
0,
3,
3,
7,
7,
10,
10,
12,
12,
14,
14,
12,
12,
5,
5,
0,
0,
2,
2,
4,
4,
2,
2,
2,
2,
0,
0,
-1,
-1,
2,
2,
2,
2,
0,
0,
1,
1,
4,
4,
3,
3,
1,
1,
-1,
-1,
1,
1,
2,
2,
0,
0,
1,
1,
0,
0,
2,
2,
5,
5,
11,
11,
15,
15,
13,
13,
6,
6,
0,
0,
6,
6,
10,
10,
12,
12,
12,
12,
13,
13,
12,
12,
9,
9,
5,
5,
2,
2,
1,
1,
4,
4,
7,
7,
10,
10,
9,
9,
8,
8,
10,
10,
13,
13,
12,
12,
10,
10,
6,
6,
0,
0,
4,
4,
9,
9,
13,
13,
12,
12,
9,
9,
2,
2,
0,
0,
-1,
-1,
-1,
-1,
1,
1,
3,
3,
2,
2,
2,
2,
1,
1,
1,
1,
1,
1,
2,
2,
6,
6,
5,
5,
0,
0,
3,
3,
4,
4,
4,
4,
2,
2,
2,
2,
0,
0,
0,
0,
2,
2,
2,
2,
2,
2,
2,
2,
4,
4,
5,
5,
3,
3,
0,
0,
1,
1,
4,
4,
4,
4,
3,
3,
4,
4,
1,
1,
0,
0,
1,
1,
1,
1,
2,
2,
-1,
-1,
1,
1,
0,
0,
-1,
-1,
0,
0,
2,
2,
8,
8,
8,
8,
4,
4,
1,
1,
5,
5,
2,
2,
3,
3,
6,
6,
6,
6,
1,
1,
2,
2,
0,
0,
2,
2,
5,
5,
6,
6,
0,
0,
3,
3,
2,
2,
2,
2,
7,
7,
9,
9,
2,
2,
3,
3,
0,
0,
6,
6,
4,
4,
3,
3,
0,
0,
0,
0,
3,
3,
7,
7,
10,
10,
7,
7,
5,
5,
0,
0,
4,
4,
5,
5,
3,
3,
0,
0,
2,
2,
6,
23,
22,
8,
10,
29,
29,
29,
25,
25,
16,
1,
1,
1,
10,
10,
18,
18,
20,
20,
19,
19,
18,
18,
12,
12,
5,
5,
0,
0,
3,
3,
2,
2,
2,
2,
0,
0,
1,
1,
1,
1,
1,
1,
0,
0,
0,
0,
2,
2,
1,
1,
4,
4,
7,
7,
8,
8,
9,
9,
8,
8,
6,
6,
3,
3,
1,
1,
0,
0,
0,
0,
0,
0,
1,
1,
2,
2,
2,
2,
5,
5,
8,
8,
12,
12,
12,
12,
5,
5,
2,
2,
10,
10,
14,
14,
11,
11,
6,
6,
1,
1,
2,
2,
2,
2,
4,
4,
2,
2,
2,
2,
2,
2,
7,
7,
6,
6,
4,
4,
4,
4,
-1,
-1,
0,
0,
1,
1,
-1,
-1,
4,
4,
5,
5,
8,
8,
10,
10,
9,
9,
6,
6,
4,
4,
1,
1,
0,
0,
4,
4,
8,
8,
10,
10,
10,
10,
10,
10,
10,
10,
9,
9,
5,
5,
1,
1,
1,
1,
6,
6,
6,
6,
5,
5,
-1,
-1,
0,
0,
0,
0,
1,
1,
1,
1,
-1,
-1,
2,
2,
3,
3,
1,
1,
-1,
-1,
0,
0,
5,
5,
6,
6,
1,
1,
5,
5,
8,
8,
5,
5,
2,
2,
0,
0,
1,
1,
0,
0,
0,
0,
2,
2,
-1,
-1,
0,
0,
4,
4,
6,
6,
10,
10,
12,
12,
9,
9,
0,
0,
6,
6,
10,
10,
6,
6,
0,
0,
6,
6,
6,
6,
5,
5,
0,
0,
2,
2,
2,
2,
5,
5,
8,
8,
6,
6,
2,
2,
1,
1,
1,
1,
0,
0,
1,
1,
-1,
-1,
3,
3,
5,
5,
6,
6,
9,
9,
8,
8,
8,
8,
6,
6,
5,
5,
6,
6,
3,
3,
3,
3,
10,
10,
14,
14,
13,
13,
12,
12,
11,
11,
6,
6,
1,
1,
4,
4,
9,
9,
10,
10,
6,
6,
6,
6,
6,
6,
6,
6,
3,
3,
0,
0,
3,
3,
1,
1,
2,
2,
4,
4,
1,
1,
1,
1,
1,
1,
0,
0,
-1,
-1,
0,
0,
0,
0,
1,
1,
0,
0,
-1,
-1,
1,
1,
1,
1,
-1,
-1,
2,
2,
2,
2,
1,
1,
0,
0,
-2,
-2,
0,
0,
0,
0,
0,
0,
0,
0,
0,
0,
-1,
-1,
0,
0,
-1,
-1,
0,
0,
2,
2,
-1,
-1,
2,
2,
4,
4,
3,
3,
0,
0,
-1,
-1,
2,
2,
2,
2,
2,
2,
0,
0,
4,
4,
7,
7,
6,
6,
0,
0,
0,
0,
2,
2,
5,
5,
4,
4,
1,
1,
2,
2,
4,
4,
4,
4,
0,
0,
-2,
-2,
1,
1,
3,
3,
5,
5,
5,
5,
0,
0,
-1,
-1,
1,
1,
-1,
-1,
1,
1,
5,
5,
5,
5,
0,
0,
4,
4,
4,
4,
2,
2,
6,
6,
11,
11,
13,
13,
14,
14,
10,
10,
1,
1,
5,
5,
9,
9,
12,
12,
12,
12,
10,
10,
5,
5,
-1,
-1,
0,
0,
0,
0,
1,
1,
2,
2,
3,
3,
2,
2,
9,
9,
14,
25,
25,
25,
28,
13,
13,
0,
1,
1,
10,
10,
18,
18,
21,
21,
16,
16,
6,
6,
6,
6,
6,
6,
2,
2,
10,
10,
18,
18,
17,
17,
9,
9,
0,
0,
6,
6,
10,
10,
10,
10,
9,
9,
4,
4,
1,
1,
3,
3,
9,
9,
12,
12,
10,
10,
7,
7,
4,
4,
0,
0,
0,
0,
1,
1,
2,
2,
2,
2,
3,
3,
5,
5,
7,
7,
5,
5,
5,
5,
3,
3,
0,
0,
2,
2,
6,
6,
9,
9,
4,
4,
2,
2,
2,
2,
1,
1,
-1,
-1,
-1,
-1,
2,
2,
5,
5,
2,
2,
0,
0,
1,
1,
2,
2,
2,
2,
-1,
-1,
0,
0,
-1,
-1,
-1,
-1,
0,
0,
2,
2,
1,
1,
-2,
-2,
-1,
-1,
-1,
-1,
0,
0,
2,
2,
3,
3,
0,
0,
0,
0,
0,
0,
3,
3,
3,
3,
4,
4,
0,
0,
1,
1,
6,
6,
9,
9,
6,
6,
2,
2,
0,
0,
3,
3,
1,
1,
2,
2,
5,
5,
8,
8,
10,
10,
2,
2,
3,
3,
5,
5,
5,
5,
9,
9,
12,
12,
12,
12,
10,
10,
6,
6,
0,
0,
4,
4,
6,
6,
4,
4,
1,
1,
2,
2,
3,
3,
6,
6,
10,
10,
13,
13,
15,
15,
9,
9,
0,
0,
5,
5,
8,
8,
7,
7,
6,
6,
3,
3,
4,
4,
6,
6,
5,
5,
2,
2,
1,
1,
2,
2,
1,
1,
0,
0,
1,
1,
5,
5,
9,
9,
13,
13,
14,
14,
13,
13,
6,
6,
1,
1,
8,
8,
15,
15,
18,
18,
16,
16,
13,
13,
8,
8,
1,
1,
3,
3,
8,
8,
8,
8,
4,
4,
2,
2,
2,
2,
5,
5,
9,
9,
9,
9,
9,
9,
10,
10,
5,
5,
1,
1,
5,
5,
6,
6,
6,
6,
4,
4,
3,
3,
4,
4,
4,
4,
4,
4,
3,
3,
1,
1,
1,
1,
0,
0,
2,
2,
7,
7,
6,
6,
6,
6,
6,
6,
2,
2,
2,
2,
1,
1,
1,
1,
0,
0,
2,
2,
0,
0,
1,
1,
4,
4,
6,
6,
5,
5,
4,
4,
1,
1,
0,
0,
1,
1,
0,
0,
0,
0,
1,
1,
3,
3,
6,
6,
6,
6,
6,
6,
5,
5,
1,
1,
0,
0,
4,
4,
2,
2,
2,
2,
-1,
-1,
3,
3,
2,
2,
0,
0,
4,
4,
4,
4,
0,
0,
2,
2,
3,
3,
4,
4,
6,
6,
6,
6,
1,
1,
5,
5,
9,
9,
7,
7,
6,
6,
5,
5,
1,
1,
2,
2,
2,
2,
4,
4,
9,
9,
14,
14,
7,
7,
3,
3,
-1,
-1,
1,
1,
0,
0,
1,
1,
0,
0,
0,
0,
6,
6,
9,
9,
6,
6,
2,
2,
4,
4,
4,
4,
4,
4,
3,
3,
-1,
-1,
2,
2,
2,
2,
6,
6,
9,
9,
9,
9,
10,
10,
7,
7,
6,
6,
2,
2,
0,
0,
2,
2,
2,
2,
2,
2,
4,
4,
3,
3,
2,
2,
2,
2,
2,
2,
3,
3,
3,
3,
1,
1,
-1,
-1,
1,
1,
5,
5,
5,
5,
2,
2,
3,
3,
6,
6,
10,
10,
12,
12,
7,
7,
2,
2,
7,
7,
8,
8,
9,
9,
9,
9,
5,
5,
0,
0,
2,
2,
3,
3,
0,
0,
5,
5,
5,
5,
2,
2,
0,
0,
0,
0,
4,
4,
6,
6,
6,
6,
6,
6,
7,
7,
8,
8,
4,
4,
-1,
-1,
0,
0,
1,
1,
1,
1,
0,
0,
3,
3,
1,
1,
0,
0,
0,
0,
0,
0,
0,
0,
0,
0,
2,
2,
4,
4,
4,
4,
0,
0,
4,
4,
7,
7,
5,
5,
1,
1,
0,
0,
4,
4,
1,
1,
8,
8,
13,
13,
9,
9,
2,
2,
1,
1,
2,
2,
6,
6,
10,
10,
7,
7,
0,
0,
5,
5,
12,
12,
9,
9,
2,
2,
6,
6,
14,
14,
17,
17,
14,
14,
7,
7,
3,
3,
0,
0,
2,
2,
5,
5,
6,
6,
6,
6,
7,
7,
8,
8,
7,
7,
7,
7,
8,
8,
8,
8,
5,
5,
2,
2,
1,
1,
5,
5,
5,
5,
3,
3,
4,
4,
2,
2,
-1,
-1,
-1,
-1,
0,
0,
2,
2,
1,
1,
1,
1,
1,
1,
0,
0,
3,
3,
3,
3,
2,
2,
-1,
-1,
2,
2,
4,
4,
1,
1,
6,
6,
12,
12,
13,
13,
8,
8,
1,
1,
-1,
-1,
2,
2,
9,
9,
10,
10,
5,
5,
3,
3,
3,
3,
2,
2,
5,
5,
8,
8,
9,
9,
4,
4,
0,
0,
2,
2,
6,
6,
8,
8,
8,
8,
6,
6,
2,
2,
0,
0,
2,
2,
4,
4,
6,
6,
6,
6,
6,
6,
5,
5,
4,
4,
2,
2,
0,
0,
-1,
-1,
0,
0,
0,
0,
-1,
-1,
-1,
-1,
-1,
-1,
1,
1,
2,
2,
3,
3,
2,
2,
0,
0,
1,
1,
2,
2,
1,
1,
0,
0,
4,
4,
6,
6,
10,
10,
9,
9,
0,
12,
12,
12,
20,
20,
14,
14,
6,
6,
1,
1,
9,
9,
19,
19,
27,
27,
30,
18,
20,
2,
3,
3,
4,
4,
12,
12,
19,
19,
18,
18,
19,
19,
20,
20,
19,
19,
18,
18,
12,
0,
1,
1,
9,
9,
14,
14,
17,
17,
18,
18,
20,
20,
12,
12,
5,
5,
2,
2,
2,
2,
3,
3,
1,
1,
-1,
-1,
0,
0,
1,
1,
2,
2,
2,
2,
2,
2,
2,
2,
2,
2,
1,
1,
2,
2,
1,
1,
1,
1,
1,
1,
0,
0,
-1,
-1,
2,
2,
1,
1,
0,
0,
0,
0,
3,
3,
1,
1,
-1,
-1,
1,
1,
6,
6,
8,
8,
9,
9,
13,
13,
18,
18,
15,
15,
6,
6,
2,
2,
6,
6,
12,
12,
20,
20,
21,
21,
18,
18,
14,
14,
11,
11,
5,
5,
0,
0,
3,
3,
6,
6,
10,
10,
12,
12,
10,
10,
6,
6,
5,
5,
2,
2,
2,
2,
5,
5,
8,
8,
12,
12,
9,
9,
2,
2,
-1,
-1,
2,
2,
7,
7,
7,
7,
2,
2,
-1,
-1,
2,
2,
4,
4,
6,
6,
7,
7,
6,
6,
4,
4,
1,
1,
1,
1,
5,
5,
5,
5,
6,
6,
6,
6,
6,
6,
3,
3,
0,
0,
2,
2,
1,
1,
1,
1,
2,
2,
-1,
-1,
6,
6,
9,
9,
9,
9,
1,
1,
6,
6,
2,
2,
0,
0,
2,
2,
1,
1,
2,
2,
8,
8,
13,
13,
12,
12,
6,
6,
2,
13,
13,
13,
18,
18,
18,
18,
16,
16,
9,
9,
2,
2,
8,
8,
10,
10,
9,
9,
8,
8,
6,
6,
5,
5,
5,
5,
1,
1,
2,
2,
5,
5,
2,
2,
0,
0,
0,
0,
3,
3,
6,
6,
6,
6,
6,
6,
6,
6,
5,
5,
0,
0,
6,
6,
10,
10,
7,
7,
2,
2,
0,
0,
4,
4,
5,
5,
10,
10,
11,
11,
9,
9,
2,
2,
2,
2,
4,
4,
6,
6,
12,
12,
9,
9,
6,
6,
2,
2,
0,
0,
0,
0,
3,
3,
5,
5,
3,
3,
-1,
-1,
3,
3,
7,
7,
10,
10,
12,
12,
10,
10,
5,
5,
0,
0,
0,
0,
-1,
-1,
0,
0,
0,
0,
-1,
-1,
1,
1,
2,
2,
2,
2,
4,
4,
5,
5,
5,
5,
0,
0,
1,
1,
5,
5,
8,
8,
8,
8,
4,
4,
-2,
-2,
1,
1,
2,
2,
0,
0,
2,
2,
5,
5,
3,
3,
8,
8,
10,
10,
8,
8,
4,
4,
2,
2,
8,
8,
14,
14,
18,
18,
18,
18,
10,
10,
1,
1,
8,
8,
12,
12,
12,
12,
8,
8,
3,
3,
1,
1,
0,
0,
2,
2,
1,
1,
2,
2,
