EMG_S2/DS0069.CSV

Memory Length,4000,
Trigger Level,-4.80000e+02,
Source,CH1,
Probe,1.0X,
Vertical Units,V,
Vertical Scale,1.00000e+00,
Vertical Position,0.00000e+00,
Horizontal Units,S,
Horizontal Scale,1.00000e-01,
Horizontal Position,0.0000000e+00,
Horizontal Mode,Roll Mode,
Waveform Last Dot Address,4000,
Sampling Period,4.00000e-04,
Firmware,V1.14,
Time, ,
Mode,Fast,
Waveform Data,
11,
11,
9,
9,
3,
3,
8,
8,
3,
3,
10,
10,
18,
18,
13,
1,
3,
3,
6,
6,
9,
9,
6,
6,
5,
5,
5,
5,
7,
7,
12,
12,
13,
13,
11,
11,
7,
7,
5,
5,
1,
1,
1,
1,
5,
5,
11,
11,
19,
19,
22,
22,
12,
12,
9,
9,
10,
10,
0,
0,
2,
2,
2,
2,
5,
5,
8,
8,
6,
6,
7,
7,
12,
12,
18,
18,
12,
1,
6,
6,
15,
15,
19,
19,
18,
18,
16,
16,
13,
13,
9,
9,
6,
6,
7,
7,
7,
7,
11,
11,
15,
15,
8,
8,
4,
31,
30,
52,
52,
52,
51,
51,
48,
36,
36,
12,
12,
26,
26,
43,
42,
27,
28,
2,
4,
4,
4,
4,
13,
13,
21,
21,
23,
23,
16,
4,
5,
5,
-1,
-1,
-1,
-1,
2,
2,
4,
4,
2,
2,
2,
2,
7,
7,
9,
9,
10,
10,
9,
9,
8,
8,
9,
9,
15,
15,
15,
15,
6,
6,
0,
0,
4,
4,
3,
3,
0,
0,
1,
1,
4,
4,
6,
6,
7,
7,
3,
3,
10,
10,
12,
12,
9,
9,
6,
6,
4,
4,
0,
0,
1,
1,
-1,
-1,
3,
3,
5,
5,
6,
6,
10,
10,
7,
7,
12,
12,
13,
13,
9,
9,
6,
29,
29,
42,
41,
41,
46,
46,
43,
43,
51,
38,
38,
12,
12,
12,
16,
46,
45,
45,
53,
53,
50,
38,
38,
26,
27,
27,
23,
23,
18,
18,
11,
11,
4,
4,
3,
3,
11,
11,
17,
17,
20,
20,
21,
21,
20,
20,
18,
18,
13,
13,
8,
8,
6,
6,
6,
6,
8,
8,
10,
10,
4,
4,
2,
2,
12,
12,
10,
10,
2,
2,
6,
6,
12,
12,
6,
6,
4,
4,
4,
18,
18,
18,
22,
22,
14,
3,
4,
4,
2,
2,
4,
4,
2,
2,
1,
1,
-1,
-1,
-1,
-1,
2,
2,
5,
5,
6,
6,
4,
4,
1,
1,
5,
5,
2,
2,
4,
4,
8,
8,
12,
12,
13,
2,
7,
25,
25,
25,
31,
20,
21,
3,
9,
45,
44,
64,
63,
63,
64,
64,
57,
10,
10,
21,
21,
21,
28,
28,
20,
32,
32,
56,
55,
55,
60,
60,
55,
55,
46,
30,
30,
13,
14,
0,
2,
13,
13,
25,
24,
24,
23,
23,
24,
38,
37,
37,
36,
36,
40,
53,
53,
53,
57,
37,
38,
15,
15,
1,
6,
26,
26,
45,
44,
44,
51,
51,
50,
50,
55,
55,
58,
58,
50,
18,
6,
37,
36,
63,
62,
62,
64,
52,
52,
11,
11,
11,
13,
13,
12,
1,
7,
18,
17,
17,
13,
2,
2,
23,
23,
45,
45,
45,
49,
49,
45,
30,
30,
13,
13,
0,
2,
2,
10,
10,
3,
3,
5,
5,
10,
31,
30,
43,
41,
41,
32,
32,
33,
33,
25,
4,
5,
5,
0,
0,
2,
2,
0,
0,
5,
5,
6,
6,
0,
0,
6,
17,
16,
16,
22,
22,
23,
23,
17,
17,
12,
12,
3,
3,
3,
3,
6,
6,
10,
10,
14,
14,
14,
14,
4,
4,
7,
21,
21,
21,
25,
10,
11,
22,
22,
54,
53,
53,
62,
62,
52,
16,
16,
3,
11,
29,
29,
29,
33,
33,
28,
28,
24,
24,
25,
25,
22,
22,
16,
16,
13,
13,
16,
16,
14,
14,
9,
9,
4,
25,
24,
37,
36,
36,
38,
38,
34,
34,
34,
34,
38,
38,
32,
6,
6,
22,
22,
22,
28,
28,
18,
6,
7,
7,
13,
13,
12,
12,
18,
18,
17,
17,
10,
10,
4,
4,
5,
5,
2,
2,
0,
0,
8,
8,
11,
11,
10,
10,
9,
9,
6,
6,
7,
7,
7,
7,
6,
6,
4,
4,
2,
2,
0,
0,
2,
2,
6,
6,
9,
9,
8,
8,
10,
10,
14,
2,
2,
2,
6,
6,
10,
10,
15,
15,
14,
14,
7,
7,
6,
19,
18,
18,
14,
1,
1,
1,
4,
4,
3,
3,
2,
30,
30,
61,
60,
44,
44,
5,
5,
19,
19,
31,
30,
42,
42,
42,
40,
40,
35,
35,
36,
36,
32,
18,
18,
7,
8,
8,
1,
1,
8,
19,
18,
18,
22,
22,
25,
25,
28,
28,
28,
28,
20,
20,
10,
10,
4,
4,
2,
2,
3,
3,
0,
0,
4,
4,
2,
2,
0,
0,
1,
1,
4,
4,
4,
4,
-1,
-1,
3,
3,
8,
8,
6,
6,
4,
4,
6,
6,
10,
10,
2,
2,
1,
1,
0,
0,
2,
2,
3,
3,
2,
2,
4,
4,
4,
4,
1,
1,
4,
4,
8,
8,
3,
14,
14,
14,
15,
15,
15,
15,
9,
9,
0,
0,
5,
5,
6,
6,
1,
1,
4,
4,
10,
10,
13,
13,
4,
4,
4,
4,
6,
6,
1,
1,
-1,
-1,
1,
1,
-1,
-1,
5,
5,
3,
3,
2,
2,
2,
2,
1,
1,
0,
0,
9,
22,
21,
21,
28,
28,
21,
4,
4,
4,
7,
7,
11,
11,
14,
14,
17,
17,
17,
17,
9,
9,
2,
2,
1,
1,
-1,
-1,
8,
8,
11,
11,
10,
10,
2,
2,
2,
2,
5,
5,
5,
5,
0,
0,
1,
1,
5,
5,
5,
5,
5,
5,
6,
6,
4,
4,
2,
2,
4,
4,
6,
6,
7,
7,
2,
2,
2,
2,
1,
1,
5,
5,
5,
5,
0,
0,
4,
4,
5,
26,
25,
36,
34,
18,
18,
3,
3,
3,
10,
10,
16,
29,
29,
40,
38,
22,
22,
1,
2,
2,
6,
6,
10,
10,
9,
9,
9,
9,
6,
6,
2,
2,
-1,
-1,
3,
3,
2,
2,
6,
6,
5,
5,
3,
3,
5,
5,
11,
11,
11,
11,
10,
10,
2,
2,
8,
8,
16,
16,
26,
37,
36,
36,
37,
21,
21,
4,
5,
5,
5,
5,
14,
14,
20,
20,
21,
21,
15,
15,
10,
10,
5,
5,
5,
5,
4,
4,
3,
3,
2,
2,
4,
4,
6,
6,
7,
7,
0,
0,
6,
6,
14,
14,
15,
15,
9,
9,
14,
14,
22,
10,
10,
10,
9,
9,
18,
18,
14,
14,
6,
6,
3,
3,
12,
12,
14,
14,
17,
28,
27,
27,
28,
4,
5,
23,
22,
22,
29,
29,
25,
25,
20,
20,
17,
6,
8,
8,
2,
2,
6,
6,
4,
4,
3,
3,
1,
1,
2,
2,
5,
5,
9,
9,
9,
9,
9,
9,
10,
10,
10,
10,
6,
6,
0,
0,
5,
5,
5,
5,
4,
4,
3,
19,
18,
18,
22,
22,
22,
6,
7,
7,
10,
23,
22,
22,
21,
9,
10,
10,
13,
32,
32,
20,
20,
3,
9,
24,
23,
23,
27,
27,
21,
10,
10,
10,
5,
5,
1,
1,
0,
0,
-1,
-1,
1,
1,
5,
5,
7,
7,
8,
8,
6,
6,
7,
7,
6,
6,
7,
7,
9,
9,
7,
7,
5,
5,
5,
5,
3,
3,
5,
5,
12,
12,
16,
16,
20,
20,
23,
23,
18,
18,
8,
8,
1,
1,
3,
3,
11,
24,
23,
39,
38,
58,
58,
58,
62,
50,
50,
26,
26,
2,
4,
33,
33,
52,
50,
50,
51,
51,
45,
45,
42,
42,
40,
29,
30,
14,
14,
2,
3,
3,
4,
4,
9,
9,
13,
13,
18,
18,
24,
24,
23,
23,
25,
25,
24,
24,
22,
22,
15,
15,
6,
6,
2,
2,
1,
1,
3,
3,
6,
6,
7,
7,
9,
9,
9,
9,
8,
8,
8,
8,
6,
6,
9,
9,
14,
14,
12,
12,
10,
10,
10,
10,
3,
3,
10,
28,
28,
48,
48,
48,
53,
35,
35,
9,
10,
10,
13,
26,
25,
25,
28,
28,
28,
28,
21,
21,
13,
13,
9,
9,
2,
2,
2,
2,
0,
0,
10,
10,
11,
11,
4,
4,
3,
3,
2,
2,
0,
0,
5,
17,
16,
16,
25,
38,
38,
38,
43,
43,
49,
35,
36,
6,
7,
21,
20,
37,
35,
35,
39,
39,
36,
36,
29,
29,
20,
20,
14,
14,
8,
8,
2,
2,
0,
0,
1,
1,
7,
7,
16,
16,
14,
14,
10,
10,
9,
9,
13,
13,
17,
17,
15,
2,
2,
2,
5,
5,
9,
9,
6,
6,
2,
2,
1,
1,
5,
5,
0,
0,
6,
6,
7,
7,
5,
5,
0,
0,
4,
4,
6,
6,
2,
2,
-1,
-1,
0,
0,
4,
4,
10,
10,
14,
14,
11,
0,
3,
18,
17,
17,
27,
27,
26,
14,
14,
1,
6,
23,
22,
22,
28,
13,
13,
1,
6,
28,
28,
47,
46,
34,
34,
4,
5,
17,
17,
32,
31,
31,
35,
35,
25,
25,
19,
19,
17,
17,
12,
1,
2,
2,
9,
9,
14,
14,
10,
10,
6,
6,
12,
12,
20,
20,
12,
12,
2,
2,
4,
17,
16,
16,
14,
14,
5,
5,
0,
0,
4,
4,
9,
9,
9,
9,
6,
6,
1,
1,
1,
1,
1,
1,
7,
7,
11,
11,
10,
10,
1,
1,
1,
1,
1,
1,
5,
5,
5,
5,
3,
14,
14,
14,
20,
20,
16,
16,
10,
10,
5,
21,
20,
20,
19,
7,
8,
8,
8,
22,
22,
22,
24,
24,
19,
7,
8,
8,
0,
0,
0,
0,
8,
20,
18,
18,
23,
23,
23,
23,
20,
20,
19,
8,
9,
9,
3,
3,
9,
9,
18,
18,
23,
23,
24,
24,
33,
33,
42,
42,
39,
9,
10,
10,
20,
32,
31,
31,
30,
30,
26,
26,
22,
22,
20,
20,
18,
18,
10,
10,
2,
2,
4,
4,
8,
8,
8,
8,
10,
10,
15,
15,
18,
18,
14,
14,
15,
15,
14,
14,
6,
6,
3,
3,
6,
6,
9,
9,
10,
10,
9,
9,
9,
9,
7,
7,
5,
5,
3,
3,
6,
6,
10,
10,
2,
2,
10,
34,
34,
49,
48,
14,
14,
3,
9,
9,
18,
18,
14,
14,
8,
8,
1,
1,
8,
8,
7,
7,
4,
4,
7,
7,
7,
7,
6,
6,
3,
3,
0,
0,
3,
3,
-1,
-1,
8,
19,
18,
18,
18,
18,
10,
10,
1,
1,
3,
3,
9,
28,
27,
39,
38,
38,
34,
34,
40,
40,
38,
17,
18,
0,
1,
1,
10,
24,
23,
38,
38,
38,
44,
44,
42,
42,
38,
25,
25,
5,
6,
6,
14,
26,
25,
25,
20,
20,
14,
14,
7,
7,
8,
8,
10,
10,
9,
9,
9,
9,
5,
5,
0,
13,
13,
13,
20,
20,
12,
0,
2,
2,
6,
6,
6,
6,
8,
20,
19,
19,
24,
9,
10,
10,
1,
1,
0,
0,
2,
2,
8,
8,
9,
9,
6,
24,
23,
23,
30,
30,
22,
22,
15,
15,
6,
6,
2,
2,
0,
11,
11,
24,
23,
23,
22,
8,
9,
9,
1,
1,
1,
1,
8,
8,
2,
2,
6,
6,
7,
7,
5,
5,
5,
5,
2,
2,
2,
2,
0,
0,
3,
3,
3,
3,
-1,
-1,
4,
4,
10,
10,
19,
19,
14,
1,
4,
26,
26,
26,
31,
31,
25,
11,
12,
12,
18,
51,
50,
64,
63,
51,
52,
27,
27,
6,
6,
26,
25,
52,
51,
51,
52,
52,
42,
42,
34,
21,
21,
3,
4,
4,
10,
10,
14,
14,
9,
9,
8,
8,
8,
8,
9,
9,
8,
8,
7,
7,
4,
4,
3,
3,
6,
6,
2,
2,
-1,
-1,
0,
0,
4,
4,
1,
1,
10,
10,
10,
10,
4,
4,
12,
12,
14,
14,
9,
9,
6,
6,
0,
0,
1,
1,
2,
2,
1,
1,
1,
1,
5,
5,
8,
8,
12,
12,
10,
10,
5,
5,
2,
2,
7,
7,
6,
6,
3,
15,
14,
28,
27,
27,
28,
28,
20,
6,
6,
6,
6,
6,
15,
15,
21,
21,
20,
20,
14,
1,
2,
2,
1,
12,
12,
12,
13,
13,
10,
10,
2,
15,
15,
26,
26,
40,
39,
62,
62,
62,
63,
42,
42,
17,
17,
4,
17,
39,
39,
57,
56,
56,
57,
44,
45,
45,
39,
39,
32,
32,
25,
12,
12,
1,
2,
2,
11,
11,
17,
17,
19,
19,
14,
14,
8,
8,
5,
5,
9,
9,
18,
36,
35,
52,
50,
50,
54,
54,
44,
18,
18,
1,
6,
22,
21,
35,
34,
34,
37,
37,
33,
33,
30,
30,
25,
25,
20,
20,
14,
14,
8,
8,
0,
0,
2,
2,
5,
5,
10,
10,
12,
12,
9,
9,
10,
10,
5,
5,
6,
6,
9,
9,
9,
9,
4,
4,
2,
2,
2,
2,
-1,
-1,
0,
0,
0,
0,
-1,
-1,
-1,
-1,
-1,
-1,
0,
0,
1,
1,
4,
4,
5,
5,
4,
4,
4,
4,
5,
5,
0,
0,
-1,
-1,
0,
0,
-1,
-1,
-1,
-1,
0,
0,
1,
1,
3,
3,
2,
2,
2,
2,
3,
3,
6,
6,
6,
6,
8,
8,
13,
13,
9,
9,
3,
3,
4,
21,
21,
21,
20,
2,
3,
3,
12,
12,
18,
18,
18,
18,
17,
17,
13,
13,
13,
13,
14,
14,
12,
12,
6,
6,
1,
1,
2,
2,
7,
7,
9,
20,
19,
30,
29,
29,
32,
32,
25,
25,
24,
24,
22,
3,
6,
29,
29,
45,
44,
44,
47,
47,
43,
25,
25,
3,
5,
43,
43,
63,
63,
63,
58,
18,
19,
1,
2,
16,
15,
31,
30,
30,
33,
33,
28,
28,
24,
3,
3,
3,
4,
4,
9,
9,
1,
12,
12,
12,
16,
16,
13,
13,
3,
3,
12,
30,
30,
30,
37,
37,
32,
21,
21,
5,
5,
5,
2,
2,
5,
5,
11,
11,
10,
10,
12,
12,
14,
14,
9,
9,
4,
4,
0,
0,
4,
4,
5,
5,
6,
6,
9,
9,
10,
10,
10,
10,
1,
1,
6,
6,
10,
10,
9,
9,
3,
3,
1,
1,
0,
0,
0,
0,
7,
7,
6,
6,
2,
2,
-1,
-1,
6,
6,
13,
13,
12,
12,
9,
9,
5,
5,
0,
0,
1,
1,
3,
3,
3,
3,
4,
4,
2,
2,
-1,
-1,
2,
2,
5,
5,
2,
2,
1,
1,
5,
5,
3,
19,
18,
30,
28,
11,
12,
12,
6,
6,
6,
6,
8,
8,
10,
10,
11,
11,
10,
10,
10,
10,
9,
30,
29,
29,
25,
1,
2,
2,
9,
9,
16,
16,
22,
22,
18,
7,
7,
7,
2,
2,
5,
5,
4,
4,
2,
2,
2,
2,
7,
7,
11,
11,
8,
8,
4,
4,
4,
4,
-1,
-1,
3,
3,
5,
5,
1,
1,
7,
7,
10,
10,
12,
12,
12,
0,
1,
1,
5,
5,
12,
23,
22,
22,
21,
21,
14,
1,
2,
15,
14,
30,
30,
30,
34,
21,
21,
8,
9,
9,
5,
5,
5,
22,
22,
22,
32,
32,
37,
37,
35,
35,
28,
28,
24,
9,
10,
10,
11,
33,
32,
51,
51,
51,
54,
41,
42,
29,
30,
6,
7,
7,
10,
10,
17,
17,
20,
20,
14,
14,
11,
11,
17,
17,
17,
17,
14,
14,
11,
11,
6,
6,
2,
2,
2,
2,
8,
8,
14,
14,
15,
15,
12,
12,
3,
3,
-1,
-1,
6,
6,
11,
11,
2,
2,
12,
12,
20,
4,
5,
16,
14,
28,
27,
27,
28,
28,
29,
7,
7,
7,
16,
28,
27,
27,
30,
30,
26,
26,
19,
6,
6,
6,
2,
2,
1,
1,
2,
2,
3,
3,
-1,
-1,
4,
4,
9,
9,
10,
10,
10,
10,
4,
4,
6,
6,
6,
6,
0,
0,
8,
8,
7,
7,
4,
4,
4,
4,
9,
9,
7,
7,
6,
6,
8,
8,
13,
13,
4,
4,
0,
0,
0,
0,
4,
4,
9,
9,
10,
10,
11,
11,
9,
9,
8,
8,
5,
5,
2,
2,
0,
0,
1,
1,
1,
1,
0,
0,
0,
0,
4,
4,
12,
12,
18,
18,
13,
13,
6,
6,
1,
1,
1,
1,
3,
3,
2,
2,
2,
2,
1,
1,
0,
0,
4,
4,
5,
5,
8,
8,
13,
13,
18,
29,
28,
28,
37,
23,
23,
4,
12,
56,
56,
56,
64,
64,
66,
66,
65,
17,
17,
17,
25,
43,
43,
56,
56,
56,
49,
49,
40,
40,
39,
39,
34,
34,
25,
25,
15,
15,
6,
6,
2,
2,
9,
9,
14,
14,
22,
22,
22,
22,
20,
20,
16,
16,
14,
14,
15,
15,
19,
19,
17,
17,
16,
16,
7,
7,
3,
3,
12,
12,
15,
15,
10,
10,
1,
1,
0,
0,
-1,
-1,
9,
9,
13,
13,
17,
17,
19,
1,
2,
2,
4,
4,
8,
8,
9,
9,
11,
22,
21,
7,
8,
8,
8,
8,
5,
5,
1,
1,
9,
9,
5,
5,
2,
2,
7,
7,
5,
5,
1,
1,
3,
3,
6,
6,
6,
6,
3,
3,
1,
1,
3,
3,
1,
1,
3,
3,
5,
5,
5,
5,
4,
4,
4,
4,
6,
6,
5,
5,
3,
3,
6,
6,
5,
5,
2,
2,
6,
6,
10,
10,
6,
6,
0,
0,
8,
8,
16,
16,
17,
17,
21,
21,
28,
28,
32,
32,
25,
6,
6,
6,
12,
37,
37,
61,
61,
61,
64,
64,
58,
30,
31,
4,
4,
4,
13,
27,
26,
39,
38,
38,
45,
45,
44,
44,
37,
24,
24,
12,
13,
2,
3,
3,
1,
1,
3,
3,
8,
8,
16,
16,
21,
21,
23,
23,
21,
21,
17,
17,
14,
14,
10,
10,
4,
4,
1,
1,
-1,
-1,
0,
0,
2,
2,
10,
10,
6,
6,
0,
0,
1,
1,
-1,
-1,
0,
0,
2,
2,
9,
9,
13,
13,
18,
18,
13,
13,
3,
3,
5,
5,
9,
9,
7,
7,
5,
5,
5,
5,
7,
7,
10,
10,
8,
8,
2,
2,
11,
11,
7,
7,
2,
2,
7,
7,
11,
11,
7,
7,
10,
10,
6,
6,
5,
5,
2,
2,
11,
11,
21,
21,
13,
2,
2,
2,
0,
0,
4,
4,
5,
5,
2,
2,
5,
5,
6,
6,
11,
11,
12,
1,
1,
1,
9,
29,
28,
28,
33,
13,
13,
25,
24,
58,
58,
58,
50,
30,
30,
14,
15,
15,
13,
2,
4,
29,
29,
46,
46,
46,
48,
37,
37,
22,
22,
2,
2,
2,
10,
10,
15,
15,
22,
22,
23,
23,
13,
0,
1,
1,
6,
6,
6,
6,
1,
1,
4,
4,
5,
5,
10,
10,
12,
12,
7,
7,
1,
1,
1,
1,
0,
0,
1,
1,
7,
7,
6,
6,
2,
2,
1,
1,
-1,
-1,
8,
8,
9,
9,
11,
11,
15,
15,
8,
8,
4,
17,
17,
30,
29,
29,
33,
20,
20,
6,
7,
7,
4,
4,
3,
3,
6,
6,
10,
10,
2,
23,
22,
22,
26,
15,
15,
2,
3,
3,
2,
2,
0,
0,
2,
2,
4,
4,
6,
6,
7,
7,
6,
6,
6,
6,
0,
0,
5,
5,
10,
10,
18,
18,
21,
21,
17,
2,
2,
2,
9,
9,
5,
5,
0,
0,
3,
3,
1,
1,
6,
6,
1,
12,
10,
10,
10,
10,
14,
28,
28,
28,
23,
4,
5,
17,
17,
17,
21,
21,
16,
16,
13,
13,
22,
22,
18,
18,
16,
16,
18,
18,
17,
3,
3,
3,
12,
12,
20,
20,
20,
9,
9,
9,
1,
1,
1,
1,
0,
0,
5,
18,
17,
29,
27,
27,
25,
2,
4,
17,
16,
16,
20,
20,
18,
7,
8,
8,
2,
2,
4,
4,
1,
1,
2,
2,
10,
26,
25,
25,
30,
30,
33,
13,
14,
0,
0,
0,
10,
23,
23,
23,
32,
32,
35,
35,
28,
14,
14,
2,
3,
3,
0,
0,
-1,
-1,
2,
2,
2,
14,
13,
27,
26,
26,
34,
34,
30,
8,
8,
8,
1,
1,
5,
18,
17,
17,
13,
1,
2,
19,
18,
18,
14,
0,
2,
2,
5,
5,
10,
10,
9,
9,
15,
15,
18,
18,
11,
0,
0,
0,
8,
8,
9,
9,
6,
6,
5,
5,
13,
13,
9,
9,
5,
34,
33,
46,
46,
46,
37,
37,
29,
4,
5,
23,
22,
36,
34,
34,
34,
34,
27,
27,
22,
22,
12,
12,
4,
4,
2,
2,
2,
2,
5,
5,
8,
8,
13,
13,
16,
16,
17,
17,
12,
12,
6,
6,
4,
4,
0,
0,
6,
6,
13,
13,
18,
18,
16,
16,
8,
8,
0,
12,
10,
26,
25,
36,
35,
21,
21,
2,
3,
3,
7,
7,
6,
6,
6,
6,
12,
12,
9,
9,
6,
6,
5,
16,
15,
15,
22,
22,
22,
22,
15,
15,
8,
8,
2,
2,
5,
5,
0,
0,
4,
4,
2,
2,
4,
4,
0,
14,
14,
14,
22,
22,
26,
40,
40,
53,
52,
40,
40,
8,
8,
8,
2,
24,
24,
35,
33,
21,
21,
21,
19,
19,
19,
19,
20,
8,
9,
9,
1,
1,
7,
7,
1,
1,
7,
7,
6,
6,
1,
1,
1,
1,
8,
8,
8,
8,
8,
8,
3,
3,
1,
1,
9,
30,
30,
49,
48,
48,
41,
19,
19,
6,
6,
6,
1,
1,
10,
21,
20,
20,
24,
24,
19,
19,
12,
12,
9,
9,
6,
6,
3,
3,
2,
2,
2,
2,
6,
6,
14,
14,
20,
20,
10,
10,
2,
2,
4,
4,
2,
2,
8,
8,
8,
8,
2,
2,
10,
10,
14,
14,
15,
15,
20,
20,
14,
14,
6,
6,
9,
9,
14,
25,
25,
25,
24,
12,
12,
12,
10,
10,
6,
6,
3,
3,
9,
9,
7,
7,
4,
4,
5,
16,
15,
15,
10,
10,
2,
2,
9,
9,
10,
10,
3,
3,
2,
2,
0,
0,
4,
4,
13,
13,
16,
16,
18,
18,
14,
3,
4,
4,
2,
2,
4,
4,
1,
1,
0,
0,
0,
0,
0,
0,
2,
2,
9,
9,
13,
13,
15,
15,
18,
18,
14,
3,
3,
17,
16,
44,
44,
44,
45,
20,
20,
7,
8,
8,
2,
2,
7,
7,
17,
17,
18,
18,
13,
13,
6,
6,
3,
3,
2,
22,
21,
21,
31,
42,
42,
42,
38,
11,
11,
31,
31,
62,
62,
62,
64,
64,
57,
32,
32,
4,
5,
5,
4,
4,
11,
29,
29,
42,
42,
42,
44,
44,
35,
21,
21,
10,
10,
10,
5,
5,
5,
5,
10,
10,
10,
10,
10,
10,
0,
0,
5,
5,
1,
1,
10,
10,
12,
1,
2,
15,
14,
44,
43,
59,
59,
59,
49,
14,
15,
2,
10,
33,
33,
33,
42,
42,
42,
42,
34,
34,
26,
26,
21,
21,
14,
14,
5,
5,
1,
1,
5,
5,
12,
12,
17,
17,
10,
10,
4,
4,
1,
1,
3,
3,
8,
8,
17,
17,
25,
25,
33,
33,
25,
4,
5,
5,
11,
11,
18,
18,
19,
19,
17,
17,
12,
12,
6,
6,
4,
4,
4,
4,
4,
4,
2,
2,
1,
1,
2,
2,
0,
0,
1,
1,
1,
1,
-1,
-1,
4,
4,
6,
6,
9,
9,
12,
12,
12,
12,
6,
6,
3,
3,
0,
0,
6,
6,
5,
5,
8,
8,
9,
9,
7,
7,
2,
2,
-1,
-1,
-1,
-1,
3,
3,
12,
12,
16,
16,
9,
9,
5,
5,
12,
12,
15,
15,
13,
0,
3,
3,
9,
9,
6,
6,
5,
5,
8,
8,
15,
15,
11,
0,
2,
2,
5,
5,
3,
3,
5,
5,
6,
6,
8,
8,
6,
6,
6,
6,
10,
10,
8,
8,
0,
0,
0,
0,
2,
2,
5,
5,
6,
18,
17,
29,
28,
28,
26,
9,
10,
10,
0,
0,
2,
2,
0,
0,
2,
2,
10,
26,
26,
26,
34,
34,
34,
34,
27,
3,
4,
27,
27,
45,
45,
45,
51,
51,
44,
21,
22,
4,
10,
28,
27,
27,
22,
22,
21,
21,
21,
21,
12,
1,
3,
3,
10,
10,
2,
22,
21,
33,
33,
33,
25,
7,
7,
19,
18,
50,
50,
63,
62,
46,
46,
12,
12,
12,
10,
10,
13,
13,
4,
4,
2,
2,
6,
6,
11,
11,
18,
18,
23,
23,
20,
20,
17,
17,
17,
17,
18,
18,
12,
12,
3,
3,
12,
27,
26,
37,
36,
36,
45,
45,
40,
20,
20,
1,
1,
1,
8,
8,
13,
13,
13,
13,
13,
13,
16,
16,
14,
14,
10,
10,
7,
7,
3,
3,
1,
1,
0,
0,
-1,
-1,
-1,
-1,
1,
1,
2,
2,
3,
3,
8,
8,
10,
10,
