EMG_S2/DS0062.CSV

Memory Length,4000,
Trigger Level,-4.80000e+02,
Source,CH1,
Probe,1.0X,
Vertical Units,V,
Vertical Scale,1.00000e+00,
Vertical Position,0.00000e+00,
Horizontal Units,S,
Horizontal Scale,1.00000e-01,
Horizontal Position,0.0000000e+00,
Horizontal Mode,Roll Mode,
Waveform Last Dot Address,4000,
Sampling Period,4.00000e-04,
Firmware,V1.14,
Time, ,
Mode,Fast,
Waveform Data,
1,
1,
7,
7,
12,
12,
10,
10,
6,
6,
8,
8,
12,
12,
17,
17,
25,
25,
25,
12,
12,
1,
6,
20,
19,
19,
25,
25,
26,
26,
24,
24,
20,
20,
14,
3,
4,
4,
3,
3,
7,
7,
12,
12,
12,
12,
9,
9,
9,
9,
7,
7,
7,
7,
6,
6,
3,
3,
1,
1,
1,
1,
4,
4,
5,
5,
2,
2,
-1,
-1,
3,
3,
4,
4,
1,
1,
9,
9,
10,
10,
5,
5,
0,
0,
3,
3,
0,
13,
12,
12,
20,
20,
18,
7,
7,
7,
2,
2,
5,
5,
6,
6,
8,
8,
12,
12,
14,
14,
13,
13,
10,
10,
5,
5,
0,
0,
5,
5,
7,
7,
8,
8,
12,
12,
13,
13,
9,
9,
4,
4,
1,
1,
1,
1,
3,
3,
1,
1,
2,
2,
9,
9,
14,
14,
13,
13,
9,
9,
6,
6,
1,
1,
9,
9,
12,
12,
7,
7,
1,
1,
3,
3,
4,
4,
10,
10,
14,
14,
22,
22,
22,
5,
6,
6,
11,
11,
13,
13,
10,
10,
10,
10,
14,
14,
15,
15,
9,
9,
5,
5,
0,
0,
4,
4,
1,
1,
1,
1,
5,
5,
3,
3,
1,
1,
3,
3,
0,
0,
0,
0,
0,
0,
3,
3,
5,
5,
6,
6,
4,
4,
1,
1,
-1,
-1,
-1,
-1,
-1,
-1,
0,
0,
0,
0,
0,
0,
1,
1,
-1,
-1,
0,
0,
-1,
-1,
-1,
-1,
0,
0,
1,
1,
-1,
-1,
-1,
-1,
0,
0,
2,
2,
2,
2,
1,
1,
2,
2,
7,
7,
9,
9,
5,
5,
2,
2,
5,
5,
10,
10,
12,
12,
12,
12,
8,
8,
2,
2,
-1,
-1,
3,
3,
7,
7,
6,
6,
6,
6,
6,
6,
5,
5,
3,
3,
0,
0,
1,
1,
1,
1,
2,
2,
1,
1,
5,
5,
13,
13,
14,
14,
5,
5,
2,
2,
2,
2,
5,
5,
6,
6,
9,
9,
5,
5,
1,
1,
3,
19,
18,
18,
25,
25,
20,
5,
6,
6,
11,
11,
17,
17,
13,
13,
5,
5,
4,
4,
1,
12,
12,
30,
29,
29,
36,
36,
35,
14,
14,
3,
14,
36,
34,
34,
44,
44,
42,
42,
37,
26,
27,
13,
13,
1,
2,
2,
4,
4,
10,
10,
14,
14,
16,
16,
16,
16,
15,
15,
15,
15,
14,
14,
10,
10,
9,
9,
7,
7,
3,
3,
2,
2,
1,
1,
1,
1,
4,
4,
6,
6,
5,
5,
4,
4,
6,
6,
5,
5,
1,
1,
0,
0,
2,
2,
-1,
-1,
-1,
-1,
1,
1,
5,
5,
4,
4,
1,
1,
0,
0,
0,
0,
1,
1,
-1,
-1,
3,
3,
5,
5,
4,
4,
1,
1,
1,
1,
2,
2,
2,
2,
0,
0,
0,
0,
-1,
-1,
3,
3,
3,
3,
2,
2,
-1,
-1,
0,
0,
1,
1,
4,
4,
5,
5,
2,
2,
0,
0,
5,
5,
6,
6,
2,
2,
2,
2,
1,
1,
-2,
-2,
4,
4,
3,
19,
18,
18,
14,
0,
1,
1,
5,
5,
5,
5,
1,
1,
5,
5,
1,
1,
8,
8,
16,
16,
19,
19,
13,
1,
5,
18,
18,
18,
22,
22,
23,
23,
22,
22,
17,
17,
12,
12,
7,
7,
2,
2,
0,
0,
4,
4,
9,
9,
16,
16,
21,
21,
17,
17,
11,
11,
6,
6,
0,
0,
5,
5,
10,
10,
12,
12,
5,
5,
1,
1,
5,
5,
2,
19,
19,
36,
35,
35,
38,
38,
36,
22,
23,
3,
6,
27,
27,
27,
30,
30,
30,
30,
25,
25,
23,
23,
21,
21,
16,
16,
38,
25,
26,
10,
10,
10,
17,
45,
45,
64,
64,
64,
63,
52,
53,
53,
45,
10,
10,
31,
31,
59,
58,
58,
64,
64,
64,
64,
65,
65,
58,
38,
38,
13,
14,
2,
5,
20,
18,
18,
20,
20,
18,
18,
19,
19,
21,
32,
32,
45,
44,
44,
49,
49,
42,
30,
30,
13,
13,
0,
2,
2,
10,
10,
12,
12,
16,
16,
15,
15,
19,
19,
22,
22,
24,
24,
19,
5,
5,
5,
6,
6,
14,
14,
6,
6,
6,
6,
9,
9,
2,
2,
6,
6,
12,
26,
26,
42,
41,
54,
53,
53,
47,
47,
46,
46,
37,
7,
7,
37,
37,
61,
60,
60,
62,
62,
57,
57,
47,
47,
40,
40,
33,
19,
20,
2,
4,
18,
18,
30,
29,
29,
34,
34,
33,
33,
34,
34,
28,
13,
13,
13,
13,
13,
5,
5,
1,
1,
1,
1,
0,
0,
1,
1,
3,
3,
6,
6,
10,
10,
9,
9,
6,
6,
2,
2,
5,
5,
8,
8,
6,
6,
2,
2,
1,
1,
0,
0,
3,
3,
6,
6,
6,
6,
6,
6,
4,
4,
2,
2,
-1,
-1,
1,
1,
1,
1,
2,
2,
5,
5,
2,
2,
2,
2,
5,
5,
6,
6,
8,
8,
8,
8,
2,
2,
0,
0,
-1,
-1,
4,
4,
4,
4,
1,
1,
4,
4,
5,
5,
9,
9,
13,
13,
22,
22,
19,
7,
8,
8,
2,
2,
10,
10,
5,
43,
43,
64,
64,
64,
65,
51,
52,
32,
32,
5,
6,
28,
27,
43,
43,
43,
50,
50,
50,
50,
43,
31,
31,
19,
19,
7,
8,
8,
4,
4,
6,
6,
8,
8,
11,
11,
13,
13,
14,
14,
15,
15,
15,
15,
14,
14,
14,
14,
12,
1,
1,
1,
6,
6,
13,
27,
27,
38,
38,
38,
33,
13,
13,
26,
26,
61,
61,
61,
65,
65,
65,
65,
66,
29,
12,
46,
46,
63,
62,
62,
63,
63,
64,
64,
65,
65,
65,
49,
57,
46,
52,
36,
61,
61,
64,
64,
64,
64,
64,
64,
62,
33,
34,
6,
6,
6,
15,
34,
33,
58,
58,
58,
62,
27,
43,
62,
62,
46,
58,
37,
46,
62,
62,
62,
62,
62,
63,
63,
57,
24,
24,
8,
19,
36,
35,
53,
53,
53,
62,
62,
64,
17,
18,
5,
5,
5,
1,
1,
6,
32,
31,
31,
28,
28,
18,
50,
49,
62,
34,
61,
60,
60,
62,
48,
55,
55,
45,
62,
61,
61,
63,
63,
63,
63,
64,
34,
34,
6,
12,
48,
48,
62,
62,
62,
63,
63,
63,
63,
64,
64,
63,
63,
64,
64,
64,
30,
32,
61,
61,
48,
48,
48,
41,
41,
41,
41,
37,
37,
29,
11,
12,
12,
19,
19,
26,
26,
10,
51,
50,
63,
62,
35,
60,
60,
62,
62,
63,
63,
63,
63,
63,
63,
64,
24,
24,
6,
21,
47,
46,
62,
62,
62,
64,
64,
63,
63,
64,
64,
64,
49,
50,
36,
36,
22,
23,
5,
6,
6,
14,
14,
22,
22,
15,
15,
11,
11,
13,
13,
17,
17,
20,
20,
21,
21,
20,
20,
16,
16,
14,
14,
10,
10,
8,
8,
7,
7,
5,
5,
5,
5,
2,
2,
2,
2,
0,
0,
4,
4,
12,
12,
19,
19,
19,
19,
10,
10,
4,
16,
16,
16,
26,
26,
34,
23,
24,
10,
10,
10,
4,
28,
27,
50,
50,
50,
52,
38,
39,
19,
20,
1,
2,
17,
16,
34,
33,
44,
43,
43,
34,
18,
18,
2,
6,
6,
15,
15,
14,
14,
10,
10,
6,
6,
4,
4,
2,
2,
-1,
-1,
6,
6,
9,
9,
7,
7,
4,
4,
6,
6,
7,
7,
7,
7,
1,
12,
12,
12,
17,
17,
23,
23,
15,
15,
10,
10,
2,
2,
6,
6,
10,
10,
17,
2,
5,
29,
29,
55,
55,
55,
64,
64,
65,
65,
65,
29,
29,
10,
38,
62,
62,
62,
64,
64,
64,
64,
65,
65,
65,
65,
58,
32,
32,
7,
8,
8,
10,
25,
25,
25,
34,
34,
39,
39,
45,
45,
45,
45,
40,
40,
32,
14,
15,
1,
3,
3,
5,
5,
6,
6,
1,
1,
9,
9,
19,
33,
31,
31,
31,
14,
14,
1,
3,
15,
14,
14,
23,
23,
28,
28,
32,
32,
31,
31,
24,
12,
13,
13,
5,
5,
6,
6,
10,
10,
9,
9,
2,
2,
3,
3,
9,
9,
10,
10,
13,
13,
14,
14,
15,
15,
16,
16,
12,
12,
8,
8,
6,
6,
4,
4,
1,
1,
0,
0,
2,
2,
2,
2,
2,
2,
2,
2,
1,
1,
-2,
-2,
1,
1,
0,
0,
5,
19,
19,
19,
28,
28,
22,
2,
3,
3,
10,
10,
10,
10,
9,
21,
21,
21,
23,
23,
21,
21,
20,
20,
17,
5,
5,
5,
11,
11,
20,
20,
22,
22,
20,
20,
14,
14,
12,
12,
4,
4,
0,
0,
2,
2,
1,
1,
1,
1,
2,
2,
4,
4,
2,
2,
5,
5,
8,
8,
7,
7,
10,
10,
9,
9,
1,
16,
16,
31,
30,
30,
27,
8,
8,
8,
17,
44,
44,
44,
52,
52,
45,
26,
26,
3,
5,
30,
30,
53,
53,
64,
63,
51,
52,
10,
10,
10,
13,
25,
25,
36,
34,
34,
42,
42,
46,
46,
54,
54,
54,
24,
24,
7,
26,
50,
49,
62,
62,
62,
64,
64,
61,
44,
44,
27,
28,
13,
13,
1,
2,
14,
13,
27,
26,
37,
36,
36,
39,
39,
29,
17,
17,
17,
21,
21,
28,
28,
26,
14,
14,
14,
8,
8,
1,
1,
0,
0,
1,
1,
9,
9,
16,
16,
17,
17,
16,
16,
13,
13,
8,
8,
2,
2,
5,
5,
3,
3,
4,
4,
2,
2,
5,
5,
6,
6,
5,
5,
4,
4,
2,
2,
4,
4,
0,
0,
-1,
-1,
4,
4,
-1,
-1,
5,
5,
5,
5,
0,
0,
0,
0,
0,
0,
5,
5,
10,
10,
12,
12,
14,
14,
13,
13,
4,
4,
3,
3,
2,
2,
4,
4,
3,
3,
6,
6,
5,
5,
2,
2,
5,
5,
11,
11,
20,
20,
18,
18,
15,
15,
6,
6,
6,
30,
30,
49,
48,
48,
44,
26,
14,
54,
53,
25,
26,
4,
7,
51,
62,
37,
39,
62,
62,
45,
46,
16,
17,
1,
6,
18,
17,
17,
25,
25,
28,
28,
22,
22,
13,
13,
7,
7,
0,
0,
8,
8,
7,
7,
5,
5,
5,
5,
1,
1,
4,
4,
9,
9,
15,
15,
13,
13,
8,
8,
4,
4,
2,
2,
6,
6,
6,
6,
2,
13,
12,
12,
16,
16,
21,
21,
21,
21,
13,
1,
2,
17,
17,
36,
36,
36,
39,
25,
25,
25,
21,
21,
20,
20,
13,
1,
2,
2,
11,
11,
19,
19,
25,
25,
29,
29,
38,
49,
48,
48,
40,
19,
20,
1,
2,
20,
18,
37,
36,
36,
40,
20,
20,
2,
4,
4,
0,
0,
1,
1,
1,
1,
3,
3,
1,
1,
4,
4,
3,
3,
4,
4,
6,
6,
9,
9,
14,
14,
14,
14,
11,
11,
7,
7,
2,
2,
6,
21,
21,
21,
20,
20,
17,
17,
14,
14,
12,
12,
10,
10,
9,
9,
5,
5,
2,
2,
-1,
-1,
5,
5,
6,
6,
8,
8,
13,
13,
17,
17,
20,
8,
9,
9,
8,
8,
9,
9,
6,
6,
3,
3,
8,
8,
10,
10,
4,
4,
-1,
-1,
3,
3,
2,
2,
2,
2,
2,
2,
4,
4,
6,
6,
10,
10,
10,
10,
6,
6,
3,
3,
-1,
-1,
1,
1,
1,
1,
0,
0,
0,
0,
6,
6,
10,
10,
13,
13,
10,
10,
5,
5,
2,
2,
1,
1,
1,
1,
0,
0,
3,
3,
9,
9,
10,
10,
5,
5,
4,
4,
6,
6,
1,
1,
4,
4,
6,
6,
3,
3,
0,
0,
3,
3,
6,
6,
1,
1,
10,
10,
18,
18,
21,
21,
20,
20,
11,
11,
2,
2,
0,
0,
4,
4,
10,
10,
11,
11,
17,
17,
25,
25,
30,
30,
23,
2,
2,
18,
17,
32,
32,
32,
34,
12,
12,
1,
4,
4,
2,
2,
5,
5,
1,
1,
8,
8,
1,
12,
11,
11,
3,
3,
10,
10,
18,
18,
14,
14,
6,
6,
1,
13,
13,
26,
26,
26,
34,
45,
45,
45,
43,
29,
29,
4,
5,
36,
36,
63,
62,
62,
64,
64,
65,
47,
47,
6,
7,
37,
36,
61,
61,
61,
63,
63,
64,
64,
57,
42,
42,
26,
27,
16,
17,
17,
10,
10,
2,
13,
12,
28,
28,
28,
33,
33,
32,
32,
25,
25,
16,
16,
9,
9,
6,
6,
5,
5,
2,
2,
8,
8,
2,
2,
5,
5,
9,
9,
16,
16,
20,
20,
21,
21,
14,
0,
1,
1,
10,
10,
18,
18,
25,
25,
22,
22,
23,
23,
22,
22,
19,
19,
19,
19,
17,
17,
11,
11,
4,
4,
2,
2,
7,
7,
10,
10,
10,
10,
11,
11,
14,
14,
17,
17,
17,
17,
14,
14,
14,
14,
12,
12,
9,
9,
5,
5,
-1,
-1,
1,
1,
4,
4,
5,
5,
8,
8,
7,
7,
4,
4,
1,
1,
2,
2,
3,
3,
0,
11,
10,
23,
22,
22,
30,
41,
41,
41,
38,
22,
22,
3,
6,
44,
44,
64,
63,
63,
65,
65,
64,
39,
39,
19,
20,
1,
4,
4,
11,
22,
21,
40,
40,
53,
52,
52,
53,
53,
48,
34,
36,
21,
21,
10,
10,
10,
2,
2,
5,
5,
13,
13,
20,
20,
22,
22,
22,
22,
23,
23,
22,
22,
18,
18,
18,
18,
15,
15,
12,
12,
9,
9,
4,
4,
0,
0,
3,
3,
12,
12,
21,
21,
29,
29,
33,
33,
32,
32,
33,
33,
32,
8,
8,
28,
28,
60,
59,
59,
63,
63,
65,
65,
64,
14,
14,
14,
24,
44,
43,
54,
54,
54,
54,
54,
47,
34,
35,
23,
23,
23,
18,
18,
14,
2,
2,
2,
6,
6,
14,
14,
19,
19,
21,
21,
21,
21,
20,
20,
21,
9,
9,
9,
4,
4,
1,
1,
5,
5,
1,
1,
4,
4,
6,
6,
14,
26,
25,
25,
18,
3,
10,
45,
44,
64,
62,
62,
66,
34,
34,
5,
10,
21,
20,
20,
20,
20,
20,
20,
29,
29,
36,
36,
42,
42,
44,
44,
40,
40,
30,
19,
20,
9,
10,
10,
5,
26,
26,
47,
47,
47,
47,
35,
36,
24,
25,
10,
11,
11,
2,
2,
2,
2,
2,
2,
3,
3,
2,
2,
0,
0,
0,
0,
0,
0,
1,
1,
0,
0,
6,
6,
7,
7,
4,
4,
0,
0,
1,
1,
6,
6,
12,
12,
14,
14,
16,
16,
9,
9,
9,
36,
34,
55,
55,
55,
56,
39,
40,
12,
12,
1,
6,
26,
26,
41,
41,
41,
46,
46,
42,
42,
34,
34,
29,
29,
20,
6,
6,
6,
6,
6,
11,
11,
15,
15,
19,
19,
22,
22,
23,
23,
21,
21,
15,
15,
10,
10,
6,
6,
3,
3,
-1,
-1,
0,
0,
-1,
-1,
2,
2,
5,
5,
4,
4,
2,
2,
2,
2,
0,
0,
0,
0,
0,
0,
2,
2,
1,
1,
2,
2,
3,
3,
1,
1,
2,
2,
7,
7,
5,
5,
1,
1,
-1,
-1,
-1,
-1,
2,
2,
9,
9,
13,
13,
14,
14,
15,
15,
8,
8,
1,
1,
8,
8,
8,
8,
5,
5,
5,
5,
8,
8,
8,
8,
3,
3,
1,
1,
2,
2,
9,
9,
9,
9,
6,
6,
4,
4,
0,
0,
3,
3,
5,
5,
9,
9,
8,
8,
2,
2,
1,
1,
2,
2,
1,
1,
-1,
-1,
-1,
-1,
1,
1,
9,
9,
14,
14,
14,
14,
16,
16,
12,
12,
7,
7,
4,
17,
15,
15,
13,
2,
3,
3,
1,
1,
6,
6,
12,
12,
13,
13,
4,
4,
4,
4,
2,
2,
2,
2,
5,
5,
5,
5,
2,
2,
3,
3,
9,
9,
13,
13,
14,
14,
14,
1,
2,
21,
20,
32,
31,
31,
34,
5,
6,
36,
36,
62,
61,
61,
64,
29,
29,
1,
3,
3,
8,
8,
11,
11,
1,
1,
1,
20,
20,
44,
43,
54,
53,
42,
42,
31,
33,
18,
19,
3,
5,
5,
3,
3,
9,
9,
13,
13,
18,
18,
23,
23,
26,
26,
30,
30,
22,
22,
16,
16,
11,
11,
9,
9,
8,
8,
2,
2,
3,
3,
4,
4,
2,
2,
3,
3,
8,
8,
14,
14,
17,
17,
16,
16,
12,
12,
6,
6,
0,
0,
0,
0,
2,
13,
13,
13,
12,
12,
14,
14,
15,
2,
3,
33,
33,
60,
59,
59,
64,
64,
66,
66,
58,
19,
19,
6,
24,
45,
44,
44,
47,
47,
45,
45,
44,
44,
37,
37,
30,
30,
21,
21,
12,
12,
5,
5,
6,
6,
15,
15,
20,
20,
21,
21,
22,
22,
22,
22,
18,
18,
13,
13,
10,
10,
10,
10,
6,
6,
0,
0,
2,
2,
3,
3,
4,
4,
4,
4,
3,
3,
2,
2,
2,
2,
2,
2,
4,
4,
2,
2,
-1,
-1,
0,
0,
0,
0,
2,
2,
4,
4,
6,
6,
6,
6,
5,
5,
1,
1,
4,
4,
7,
7,
9,
9,
7,
7,
5,
5,
2,
2,
3,
3,
2,
2,
1,
1,
0,
0,
-1,
-1,
1,
1,
2,
2,
2,
2,
1,
1,
0,
0,
-1,
-1,
0,
0,
-2,
-2,
1,
1,
1,
1,
1,
1,
4,
4,
2,
2,
2,
2,
0,
0,
-1,
-1,
0,
0,
-1,
-1,
5,
5,
7,
7,
4,
4,
2,
2,
0,
0,
0,
0,
1,
1,
-1,
-1,
1,
1,
0,
0,
4,
4,
7,
19,
18,
18,
27,
27,
28,
28,
27,
27,
26,
9,
9,
9,
10,
25,
24,
24,
28,
28,
19,
7,
8,
8,
18,
37,
37,
37,
41,
41,
32,
16,
17,
4,
5,
5,
5,
5,
14,
14,
22,
22,
26,
26,
26,
26,
22,
22,
19,
19,
17,
17,
12,
12,
9,
9,
7,
7,
2,
2,
0,
0,
2,
2,
7,
7,
7,
7,
9,
9,
10,
10,
9,
9,
10,
10,
2,
2,
3,
3,
11,
11,
11,
0,
2,
16,
16,
16,
24,
24,
25,
25,
16,
16,
10,
10,
14,
45,
45,
57,
56,
39,
40,
22,
22,
2,
3,
17,
17,
17,
26,
26,
26,
26,
19,
19,
13,
13,
13,
13,
10,
10,
5,
5,
0,
0,
-1,
-1,
1,
1,
2,
2,
5,
5,
6,
6,
6,
6,
7,
7,
6,
6,
5,
5,
4,
4,
9,
9,
9,
9,
6,
6,
2,
2,
0,
0,
0,
0,
3,
3,
6,
6,
7,
7,
6,
6,
5,
5,
2,
2,
0,
0,
0,
0,
1,
1,
1,
1,
-1,
-1,
-1,
-1,
-1,
-1,
0,
0,
0,
0,
-1,
-1,
2,
2,
1,
1,
0,
0,
3,
3,
6,
6,
9,
9,
8,
8,
5,
5,
2,
2,
7,
7,
14,
14,
22,
22,
28,
28,
19,
1,
3,
3,
13,
13,
22,
37,
37,
37,
42,
42,
41,
30,
30,
30,
24,
8,
8,
8,
17,
38,
38,
38,
45,
45,
45,
45,
39,
28,
29,
14,
14,
1,
2,
2,
1,
1,
1,
13,
13,
13,
21,
21,
26,
26,
22,
22,
18,
18,
9,
9,
6,
6,
7,
7,
4,
4,
1,
1,
4,
4,
4,
4,
7,
7,
8,
8,
5,
5,
1,
1,
4,
4,
0,
0,
2,
2,
9,
9,
12,
12,
13,
13,
5,
5,
11,
11,
18,
18,
14,
14,
6,
6,
4,
4,
10,
10,
11,
11,
10,
10,
9,
9,
6,
6,
2,
2,
1,
1,
-1,
-1,
1,
1,
0,
0,
6,
6,
7,
7,
11,
11,
11,
11,
7,
7,
4,
4,
2,
2,
-1,
-1,
0,
0,
4,
4,
0,
0,
2,
2,
1,
1,
-1,
-1,
1,
1,
2,
2,
0,
0,
2,
2,
4,
4,
6,
6,
2,
2,
2,
2,
8,
8,
12,
12,
14,
14,
12,
12,
12,
12,
10,
10,
6,
24,
24,
24,
23,
12,
12,
12,
6,
6,
6,
6,
6,
6,
6,
6,
2,
2,
-1,
-1,
3,
3,
10,
10,
15,
15,
17,
17,
14,
14,
10,
10,
6,
6,
2,
2,
0,
0,
1,
1,
3,
3,
6,
6,
7,
7,
8,
8,
6,
6,
5,
5,
3,
3,
-1,
-1,
0,
0,
3,
3,
3,
3,
3,
3,
12,
12,
17,
17,
8,
8,
2,
2,
2,
22,
22,
41,
40,
52,
52,
52,
51,
31,
32,
16,
17,
2,
6,
25,
25,
38,
38,
49,
49,
49,
55,
55,
52,
40,
40,
22,
22,
7,
8,
8,
4,
4,
2,
2,
10,
10,
17,
17,
19,
19,
20,
20,
22,
22,
24,
24,
26,
26,
25,
25,
19,
19,
13,
13,
8,
8,
4,
4,
2,
2,
5,
5,
10,
10,
10,
10,
10,
10,
10,
10,
9,
9,
8,
8,
8,
8,
13,
13,
8,
8,
0,
0,
4,
4,
6,
6,
10,
10,
15,
15,
6,
6,
0,
0,
-1,
-1,
-1,
-1,
1,
1,
2,
2,
3,
3,
1,
1,
-2,
-2,
-1,
-1,
0,
0,
-1,
-1,
-1,
-1,
0,
0,
1,
1,
0,
0,
-1,
-1,
-1,
-1,
0,
0,
1,
1,
0,
0,
1,
1,
0,
0,
0,
0,
4,
4,
7,
7,
5,
5,
6,
6,
6,
6,
4,
4,
2,
2,
0,
0,
5,
5,
6,
6,
5,
5,
2,
2,
3,
3,
4,
4,
8,
8,
5,
5,
0,
12,
12,
12,
17,
17,
14,
14,
10,
10,
5,
5,
-2,
-2,
1,
1,
2,
2,
7,
7,
13,
13,
13,
13,
3,
3,
2,
2,
6,
6,
6,
6,
2,
2,
4,
4,
4,
4,
6,
6,
5,
5,
2,
2,
-1,
-1,
2,
2,
5,
5,
6,
6,
7,
7,
8,
8,
5,
5,
3,
3,
-1,
-1,
0,
0,
0,
0,
1,
1,
2,
2,
2,
2,
1,
1,
1,
1,
1,
1,
7,
7,
4,
4,
0,
0,
5,
5,
6,
6,
12,
12,
17,
17,
10,
10,
6,
20,
19,
19,
25,
25,
20,
6,
6,
6,
2,
2,
10,
10,
12,
12,
19,
19,
20,
20,
18,
18,
9,
9,
8,
8,
15,
15,
10,
10,
7,
7,
10,
10,
10,
10,
9,
9,
6,
6,
1,
1,
2,
2,
2,
2,
2,
2,
5,
5,
6,
6,
5,
5,
5,
5,
5,
5,
5,
5,
1,
1,
4,
4,
0,
0,
6,
6,
5,
5,
5,
5,
5,
5,
5,
5,
1,
1,
7,
7,
8,
8,
10,
10,
5,
5,
3,
3,
1,
1,
9,
9,
13,
13,
8,
8,
2,
2,
0,
0,
2,
2,
5,
5,
5,
5,
6,
6,
6,
6,
2,
2,
2,
2,
5,
5,
4,
4,
3,
3,
1,
1,
0,
0,
-1,
-1,
-1,
-1,
-1,
-1,
2,
2,
7,
7,
5,
5,
3,
3,
0,
0,
7,
7,
13,
13,
21,
21,
17,
17,
9,
9,
5,
5,
8,
8,
6,
6,
2,
2,
4,
4,
13,
13,
22,
22,
28,
28,
27,
27,
18,
6,
7,
7,
1,
1,
2,
2,
3,
3,
7,
7,
10,
10,
9,
9,
9,
9,
8,
8,
9,
9,
8,
8,
6,
6,
6,
6,
4,
4,
2,
2,
1,
1,
3,
3,
0,
0,
3,
3,
4,
4,
0,
0,
2,
2,
8,
8,
11,
11,
14,
14,
13,
13,
7,
7,
1,
1,
0,
0,
7,
7,
12,
12,
11,
11,
2,
2,
0,
0,
7,
7,
15,
15,
8,
8,
1,
1,
6,
6,
9,
9,
11,
11,
11,
11,
2,
2,
2,
2,
0,
0,
0,
0,
2,
2,
0,
0,
3,
3,
3,
3,
4,
4,
6,
6,
7,
7,
7,
7,
0,
0,
4,
4,
9,
9,
17,
17,
22,
22,
20,
2,
3,
14,
14,
25,
25,
37,
37,
37,
43,
43,
40,
17,
18,
2,
6,
17,
17,
17,
21,
21,
25,
25,
25,
25,
23,
23,
20,
20,
16,
16,
12,
12,
6,
6,
1,
1,
5,
5,
9,
9,
12,
12,
11,
11,
8,
8,
9,
9,
10,
10,
9,
9,
6,
6,
6,
6,
5,
5,
4,
4,
1,
1,
1,
1,
1,
1,
2,
2,
6,
6,
8,
8,
4,
4,
0,
0,
3,
3,
2,
2,
1,
1,
6,
6,
5,
5,
1,
1,
1,
1,
2,
2,
1,
1,
0,
0,
2,
2,
2,
2,
2,
2,
1,
1,
0,
0,
1,
1,
0,
0,
4,
4,
10,
10,
16,
16,
9,
9,
