EMG_S2/DS0021.CSV

Memory Length,4000,
Trigger Level,-4.80000e+02,
Source,CH1,
Probe,1.0X,
Vertical Units,V,
Vertical Scale,1.00000e+00,
Vertical Position,0.00000e+00,
Horizontal Units,S,
Horizontal Scale,1.00000e-01,
Horizontal Position,0.0000000e+00,
Horizontal Mode,Roll Mode,
Waveform Last Dot Address,4000,
Sampling Period,4.00000e-04,
Firmware,V1.14,
Time, ,
Mode,Fast,
Waveform Data,
4,
4,
5,
5,
6,
6,
6,
6,
7,
7,
7,
7,
7,
7,
3,
3,
-1,
-1,
-1,
-1,
0,
0,
-1,
-1,
-1,
-1,
1,
1,
-1,
-1,
2,
2,
6,
6,
9,
9,
9,
9,
4,
4,
2,
2,
0,
0,
2,
2,
4,
4,
12,
12,
22,
22,
29,
29,
29,
18,
18,
3,
4,
4,
7,
7,
15,
15,
19,
19,
24,
24,
28,
28,
25,
25,
20,
20,
12,
12,
4,
4,
1,
1,
7,
7,
13,
13,
17,
17,
17,
17,
15,
15,
12,
12,
9,
9,
7,
7,
5,
5,
1,
1,
-1,
-1,
-1,
-1,
1,
1,
4,
4,
3,
3,
5,
5,
8,
8,
8,
8,
6,
6,
1,
1,
4,
4,
10,
10,
13,
13,
5,
5,
1,
1,
0,
0,
1,
1,
2,
2,
3,
3,
0,
0,
2,
2,
1,
1,
1,
1,
0,
0,
0,
0,
2,
2,
6,
6,
9,
9,
6,
6,
1,
1,
1,
1,
3,
3,
4,
4,
5,
5,
5,
5,
5,
5,
4,
4,
3,
3,
1,
1,
1,
1,
2,
2,
2,
2,
2,
2,
1,
1,
2,
2,
3,
3,
4,
4,
8,
8,
17,
17,
17,
5,
6,
6,
2,
2,
11,
11,
15,
15,
21,
21,
27,
27,
31,
31,
28,
16,
16,
1,
5,
22,
22,
22,
30,
30,
32,
32,
33,
33,
28,
15,
15,
2,
3,
3,
2,
2,
5,
5,
8,
8,
10,
10,
11,
11,
10,
10,
9,
9,
7,
7,
8,
8,
6,
6,
2,
2,
3,
3,
5,
5,
3,
3,
2,
2,
2,
2,
3,
3,
-1,
-1,
2,
2,
3,
3,
4,
4,
6,
6,
4,
4,
1,
1,
2,
2,
3,
3,
3,
3,
1,
1,
-2,
-2,
4,
4,
8,
8,
10,
10,
1,
1,
9,
9,
13,
13,
15,
15,
7,
7,
4,
4,
12,
12,
16,
16,
16,
16,
23,
23,
21,
10,
11,
0,
4,
4,
10,
10,
16,
16,
19,
19,
18,
18,
10,
10,
6,
6,
5,
5,
1,
1,
0,
0,
2,
2,
1,
1,
1,
1,
1,
1,
5,
5,
7,
7,
8,
8,
6,
6,
4,
4,
3,
3,
1,
1,
-1,
-1,
-1,
-1,
0,
0,
0,
0,
0,
0,
0,
0,
1,
1,
0,
0,
0,
0,
-1,
-1,
1,
1,
1,
1,
0,
0,
4,
4,
10,
10,
9,
9,
2,
2,
6,
6,
16,
16,
22,
22,
21,
10,
10,
10,
1,
12,
12,
12,
18,
18,
24,
24,
29,
29,
33,
33,
29,
11,
12,
12,
10,
28,
28,
28,
30,
30,
33,
33,
29,
29,
21,
7,
7,
7,
2,
2,
9,
9,
14,
14,
14,
14,
12,
12,
10,
10,
7,
7,
4,
4,
0,
0,
1,
1,
0,
0,
5,
5,
8,
8,
6,
6,
2,
2,
1,
1,
0,
0,
0,
0,
-1,
-1,
0,
0,
6,
6,
13,
13,
15,
15,
12,
12,
6,
6,
-1,
-1,
6,
6,
12,
12,
13,
1,
2,
2,
2,
2,
1,
1,
10,
10,
12,
12,
10,
10,
6,
6,
0,
0,
5,
5,
6,
6,
5,
5,
6,
6,
6,
6,
6,
6,
6,
6,
5,
5,
3,
3,
-1,
-1,
2,
2,
4,
4,
5,
5,
5,
5,
2,
2,
0,
0,
1,
1,
2,
2,
4,
4,
4,
4,
1,
1,
3,
3,
4,
4,
5,
5,
4,
4,
2,
2,
6,
6,
6,
6,
5,
5,
2,
2,
6,
6,
5,
5,
1,
1,
8,
8,
1,
1,
2,
2,
9,
9,
1,
1,
6,
6,
15,
15,
17,
17,
18,
18,
14,
14,
6,
6,
5,
5,
14,
14,
22,
22,
24,
24,
20,
9,
10,
10,
0,
0,
5,
5,
11,
11,
12,
12,
7,
7,
1,
1,
1,
1,
4,
4,
9,
9,
4,
4,
0,
0,
3,
3,
0,
0,
8,
8,
16,
16,
14,
1,
2,
2,
2,
2,
7,
7,
12,
12,
11,
11,
10,
10,
9,
9,
8,
8,
0,
0,
0,
0,
2,
2,
3,
3,
6,
6,
3,
3,
2,
2,
10,
21,
21,
33,
32,
32,
30,
6,
6,
6,
4,
4,
8,
8,
11,
11,
11,
11,
8,
8,
10,
10,
13,
13,
14,
14,
11,
11,
3,
3,
4,
4,
13,
13,
18,
18,
18,
18,
16,
16,
10,
10,
1,
1,
8,
8,
12,
12,
12,
12,
13,
13,
7,
7,
2,
2,
7,
7,
14,
14,
18,
18,
20,
6,
6,
6,
8,
8,
14,
14,
14,
14,
8,
8,
2,
2,
6,
6,
11,
11,
8,
8,
1,
1,
2,
2,
6,
6,
5,
5,
8,
8,
8,
8,
6,
6,
6,
6,
10,
10,
9,
9,
14,
14,
8,
8,
9,
22,
22,
22,
15,
1,
2,
2,
6,
6,
6,
6,
2,
2,
2,
2,
4,
4,
6,
6,
10,
10,
7,
7,
0,
0,
3,
3,
11,
11,
16,
16,
15,
15,
6,
6,
7,
7,
15,
15,
17,
17,
8,
8,
0,
0,
6,
6,
9,
9,
10,
10,
14,
14,
9,
9,
2,
2,
2,
2,
5,
5,
4,
4,
1,
1,
0,
0,
4,
4,
2,
2,
1,
1,
2,
2,
9,
9,
15,
15,
16,
16,
11,
11,
2,
16,
15,
15,
25,
25,
25,
25,
23,
23,
18,
18,
10,
10,
4,
4,
1,
1,
7,
7,
14,
14,
18,
18,
15,
15,
13,
13,
8,
8,
6,
6,
7,
7,
0,
0,
5,
5,
6,
6,
13,
13,
14,
14,
15,
15,
12,
1,
3,
3,
10,
22,
21,
21,
23,
23,
18,
6,
6,
6,
4,
20,
20,
20,
30,
30,
32,
32,
25,
12,
12,
1,
2,
14,
13,
26,
25,
38,
37,
37,
34,
17,
17,
2,
5,
5,
14,
14,
15,
15,
13,
13,
13,
13,
13,
13,
14,
14,
8,
8,
2,
13,
12,
12,
9,
9,
2,
2,
8,
8,
8,
8,
4,
4,
14,
14,
15,
15,
6,
6,
1,
1,
6,
6,
4,
4,
1,
1,
2,
2,
2,
2,
2,
2,
5,
5,
12,
12,
15,
15,
14,
14,
10,
10,
3,
3,
1,
1,
5,
5,
12,
12,
18,
18,
19,
19,
14,
14,
8,
8,
0,
0,
8,
23,
22,
22,
28,
17,
18,
7,
8,
8,
4,
4,
1,
1,
6,
6,
10,
10,
6,
6,
3,
3,
0,
0,
2,
2,
7,
7,
9,
9,
10,
10,
6,
6,
2,
2,
-1,
-1,
2,
2,
5,
5,
5,
5,
2,
2,
3,
3,
4,
4,
7,
7,
11,
11,
12,
12,
12,
1,
3,
3,
5,
5,
5,
5,
2,
2,
4,
4,
2,
2,
-1,
-1,
-1,
-1,
5,
5,
9,
9,
10,
10,
6,
6,
2,
2,
0,
0,
5,
5,
13,
13,
10,
10,
1,
1,
3,
3,
2,
2,
2,
2,
6,
6,
10,
10,
8,
8,
4,
4,
0,
0,
3,
3,
9,
9,
16,
16,
18,
18,
15,
15,
10,
10,
3,
3,
5,
5,
11,
11,
9,
9,
2,
2,
1,
1,
4,
4,
10,
10,
14,
14,
13,
13,
6,
6,
6,
17,
17,
17,
21,
21,
17,
17,
9,
9,
1,
1,
3,
3,
6,
6,
8,
8,
2,
2,
6,
6,
11,
11,
5,
5,
6,
6,
11,
11,
12,
12,
10,
10,
4,
4,
2,
2,
2,
2,
0,
0,
2,
2,
6,
6,
9,
9,
6,
6,
5,
5,
6,
6,
9,
9,
10,
10,
10,
10,
4,
4,
-1,
-1,
4,
4,
12,
12,
14,
14,
14,
14,
10,
10,
10,
10,
5,
16,
15,
15,
16,
16,
8,
8,
3,
3,
0,
0,
1,
1,
1,
1,
-1,
-1,
1,
1,
1,
1,
0,
0,
0,
0,
0,
0,
2,
2,
6,
6,
4,
4,
1,
1,
0,
0,
-1,
-1,
1,
1,
1,
1,
4,
4,
4,
4,
3,
3,
2,
2,
5,
5,
8,
8,
9,
9,
7,
7,
2,
2,
0,
0,
6,
6,
11,
11,
11,
11,
10,
10,
6,
6,
2,
2,
2,
2,
5,
5,
4,
4,
2,
2,
10,
10,
13,
13,
12,
12,
9,
9,
8,
8,
1,
1,
4,
4,
2,
2,
0,
0,
4,
4,
6,
6,
2,
2,
6,
6,
16,
16,
13,
13,
4,
4,
0,
0,
2,
2,
6,
6,
10,
10,
12,
12,
6,
6,
0,
0,
1,
1,
4,
4,
6,
6,
6,
6,
6,
6,
6,
6,
5,
5,
2,
2,
0,
0,
1,
1,
4,
4,
6,
6,
6,
6,
5,
5,
2,
2,
0,
0,
0,
0,
3,
3,
6,
6,
7,
7,
6,
6,
7,
7,
4,
4,
6,
18,
18,
18,
20,
20,
10,
10,
3,
3,
6,
6,
10,
10,
16,
16,
19,
19,
21,
10,
12,
-1,
0,
0,
6,
6,
15,
15,
18,
18,
17,
17,
18,
18,
16,
16,
8,
8,
2,
2,
1,
1,
4,
4,
6,
6,
9,
9,
11,
11,
10,
10,
8,
8,
7,
7,
7,
7,
7,
7,
4,
4,
1,
1,
0,
0,
5,
5,
8,
8,
6,
6,
3,
3,
0,
0,
3,
3,
6,
6,
4,
4,
1,
1,
1,
1,
7,
7,
8,
8,
6,
6,
5,
5,
7,
7,
5,
5,
0,
0,
8,
8,
16,
16,
12,
12,
6,
6,
14,
14,
11,
11,
1,
1,
7,
7,
15,
15,
10,
10,
6,
6,
6,
6,
6,
6,
3,
3,
-1,
-1,
0,
0,
6,
6,
9,
9,
10,
10,
8,
8,
1,
1,
6,
6,
6,
6,
1,
1,
1,
1,
3,
3,
2,
2,
10,
10,
8,
8,
4,
4,
3,
14,
13,
13,
14,
14,
13,
13,
9,
9,
3,
3,
0,
0,
1,
1,
3,
3,
3,
3,
3,
3,
3,
3,
2,
2,
1,
1,
-1,
-1,
0,
0,
1,
1,
2,
2,
0,
0,
2,
2,
6,
6,
7,
7,
6,
6,
6,
6,
3,
3,
1,
1,
0,
0,
5,
5,
7,
7,
15,
15,
19,
19,
14,
14,
12,
12,
9,
9,
6,
6,
2,
2,
2,
13,
12,
12,
18,
18,
17,
17,
14,
14,
12,
12,
9,
9,
5,
5,
-1,
-1,
2,
2,
6,
6,
7,
7,
6,
6,
4,
4,
5,
5,
7,
7,
6,
6,
6,
6,
5,
5,
3,
3,
2,
2,
2,
2,
0,
0,
2,
2,
4,
4,
1,
1,
6,
6,
7,
7,
5,
5,
1,
1,
1,
1,
2,
2,
1,
1,
1,
1,
0,
0,
0,
0,
5,
5,
11,
11,
9,
9,
5,
5,
6,
6,
6,
6,
0,
0,
6,
6,
10,
10,
16,
16,
16,
16,
13,
0,
1,
1,
8,
8,
14,
14,
14,
14,
11,
11,
6,
6,
0,
0,
3,
3,
8,
8,
6,
6,
4,
4,
3,
3,
1,
1,
0,
0,
1,
1,
0,
0,
3,
3,
6,
6,
6,
6,
6,
6,
3,
3,
0,
0,
0,
0,
1,
1,
2,
2,
1,
1,
0,
0,
-1,
-1,
-1,
-1,
0,
0,
-1,
-1,
1,
1,
1,
1,
-1,
-1,
0,
0,
1,
1,
0,
0,
-1,
-1,
1,
1,
0,
0,
-1,
-1,
1,
1,
4,
4,
6,
6,
6,
6,
1,
1,
0,
0,
2,
2,
5,
5,
9,
9,
11,
11,
3,
3,
2,
2,
10,
10,
19,
19,
27,
27,
25,
13,
13,
1,
2,
2,
3,
3,
6,
17,
16,
16,
24,
24,
15,
15,
6,
6,
3,
3,
6,
6,
8,
8,
5,
5,
1,
1,
2,
2,
4,
4,
3,
3,
4,
4,
4,
4,
4,
4,
5,
5,
8,
8,
8,
8,
9,
9,
9,
9,
2,
2,
8,
8,
10,
10,
14,
14,
17,
17,
15,
15,
10,
10,
2,
2,
5,
5,
9,
9,
10,
10,
7,
7,
4,
4,
1,
1,
1,
1,
4,
4,
1,
1,
2,
2,
9,
9,
7,
7,
5,
5,
0,
0,
8,
8,
9,
9,
9,
9,
4,
4,
1,
1,
7,
7,
12,
12,
5,
5,
3,
3,
10,
10,
18,
18,
26,
26,
25,
12,
13,
1,
2,
2,
5,
5,
9,
9,
12,
12,
18,
18,
17,
17,
15,
15,
13,
13,
10,
10,
3,
3,
3,
3,
6,
6,
1,
1,
-1,
-1,
4,
4,
13,
13,
20,
20,
27,
27,
28,
14,
14,
2,
3,
3,
5,
5,
10,
10,
8,
8,
3,
3,
3,
3,
6,
6,
9,
9,
5,
5,
0,
0,
4,
4,
4,
4,
0,
0,
0,
0,
-1,
10,
7,
7,
9,
9,
6,
6,
2,
2,
2,
2,
2,
2,
2,
2,
-1,
-1,
3,
3,
4,
4,
4,
4,
4,
4,
2,
2,
2,
2,
0,
0,
1,
1,
2,
2,
2,
2,
2,
2,
2,
2,
2,
2,
1,
1,
1,
1,
2,
2,
3,
3,
4,
4,
2,
2,
4,
4,
10,
10,
9,
9,
3,
3,
8,
8,
10,
10,
8,
8,
5,
5,
2,
2,
6,
6,
14,
14,
24,
24,
19,
19,
12,
1,
2,
2,
8,
8,
18,
18,
21,
21,
19,
19,
14,
14,
9,
9,
4,
4,
0,
0,
0,
0,
3,
3,
8,
8,
8,
8,
7,
7,
9,
9,
9,
9,
7,
7,
5,
5,
2,
2,
1,
1,
2,
2,
-1,
-1,
3,
3,
3,
3,
6,
6,
2,
2,
2,
2,
8,
8,
10,
10,
2,
2,
2,
2,
5,
5,
4,
4,
0,
0,
3,
3,
5,
5,
1,
1,
2,
2,
1,
1,
0,
0,
1,
1,
0,
0,
5,
5,
9,
9,
2,
2,
10,
10,
15,
15,
16,
16,
10,
10,
3,
3,
3,
3,
0,
0,
6,
6,
8,
8,
1,
1,
6,
6,
10,
10,
10,
10,
6,
6,
6,
6,
8,
8,
6,
6,
3,
3,
-1,
-1,
1,
1,
3,
3,
3,
3,
6,
6,
11,
11,
13,
13,
8,
8,
1,
1,
2,
2,
2,
2,
2,
2,
2,
2,
2,
2,
1,
1,
1,
1,
0,
0,
2,
2,
6,
6,
6,
6,
5,
5,
5,
5,
3,
3,
0,
0,
0,
0,
3,
3,
6,
6,
6,
6,
1,
1,
4,
4,
3,
3,
2,
2,
7,
7,
10,
10,
5,
5,
6,
6,
3,
3,
0,
0,
4,
4,
7,
7,
5,
5,
2,
2,
0,
0,
-1,
-1,
1,
1,
2,
2,
4,
4,
3,
3,
13,
13,
14,
14,
12,
12,
6,
6,
1,
1,
3,
3,
6,
6,
6,
6,
5,
5,
2,
2,
2,
2,
3,
3,
0,
0,
1,
1,
3,
3,
3,
3,
3,
3,
12,
12,
20,
20,
21,
21,
15,
15,
5,
5,
3,
3,
4,
4,
1,
14,
14,
14,
21,
21,
21,
21,
13,
13,
5,
5,
0,
0,
1,
1,
1,
1,
6,
6,
10,
10,
3,
15,
15,
15,
23,
23,
20,
6,
6,
6,
1,
1,
0,
0,
2,
2,
1,
1,
0,
0,
1,
1,
-1,
-1,
-1,
-1,
-1,
-1,
1,
1,
1,
1,
1,
1,
3,
3,
0,
0,
6,
6,
10,
10,
8,
8,
4,
4,
6,
6,
1,
1,
5,
5,
10,
10,
10,
10,
8,
8,
2,
2,
1,
1,
0,
0,
8,
8,
9,
9,
6,
6,
4,
4,
2,
13,
13,
13,
18,
18,
17,
17,
10,
-1,
1,
1,
6,
6,
14,
14,
18,
18,
14,
1,
1,
1,
6,
6,
10,
10,
11,
11,
7,
7,
2,
2,
2,
2,
2,
2,
10,
10,
15,
15,
16,
16,
10,
10,
4,
4,
0,
12,
12,
12,
16,
16,
13,
13,
13,
13,
12,
12,
5,
5,
3,
3,
13,
13,
19,
19,
17,
17,
9,
9,
3,
3,
-2,
-2,
1,
1,
0,
0,
3,
3,
1,
1,
0,
0,
-2,
-2,
1,
1,
2,
2,
5,
5,
10,
10,
13,
13,
10,
10,
2,
2,
7,
7,
11,
11,
9,
9,
1,
1,
1,
1,
-1,
-1,
0,
0,
2,
2,
1,
1,
1,
1,
1,
1,
0,
0,
-1,
-1,
-1,
-1,
-1,
-1,
1,
1,
1,
1,
2,
2,
1,
1,
1,
1,
6,
6,
4,
4,
0,
0,
4,
4,
6,
6,
9,
9,
10,
10,
6,
6,
0,
0,
7,
7,
13,
13,
16,
16,
14,
14,
7,
7,
3,
3,
4,
4,
5,
5,
4,
4,
5,
5,
6,
6,
3,
3,
4,
4,
2,
2,
1,
1,
2,
2,
2,
2,
2,
2,
-1,
-1,
2,
2,
6,
6,
6,
6,
2,
2,
3,
3,
6,
6,
9,
9,
5,
5,
1,
1,
5,
5,
7,
7,
4,
4,
2,
2,
-1,
-1,
2,
2,
6,
6,
6,
6,
6,
6,
2,
2,
5,
5,
6,
6,
5,
5,
5,
5,
7,
7,
8,
8,
6,
6,
4,
19,
18,
31,
30,
30,
28,
17,
18,
18,
8,
8,
1,
1,
6,
6,
14,
14,
17,
17,
17,
17,
14,
14,
12,
12,
12,
12,
7,
7,
1,
1,
2,
2,
1,
1,
3,
3,
3,
3,
6,
6,
6,
6,
4,
4,
3,
3,
3,
3,
6,
6,
8,
8,
5,
5,
2,
2,
1,
1,
6,
6,
7,
7,
1,
1,
8,
8,
10,
10,
11,
11,
7,
7,
1,
1,
1,
1,
5,
5,
10,
10,
13,
13,
9,
9,
6,
6,
3,
3,
0,
0,
-1,
-1,
0,
0,
0,
0,
2,
2,
1,
1,
0,
0,
9,
9,
6,
6,
0,
0,
8,
8,
12,
12,
12,
12,
17,
17,
14,
14,
10,
10,
2,
2,
0,
0,
3,
3,
7,
7,
5,
5,
4,
4,
6,
6,
6,
6,
8,
8,
10,
10,
10,
10,
5,
5,
0,
0,
2,
2,
6,
6,
11,
11,
12,
12,
9,
9,
6,
6,
0,
0,
6,
6,
7,
7,
5,
5,
4,
4,
3,
3,
4,
4,
6,
6,
6,
6,
1,
13,
13,
13,
20,
20,
23,
23,
14,
14,
6,
6,
2,
2,
10,
10,
13,
13,
12,
12,
12,
12,
10,
10,
7,
7,
4,
4,
0,
0,
8,
8,
12,
12,
6,
6,
2,
2,
3,
3,
6,
6,
8,
8,
5,
5,
2,
2,
3,
3,
1,
1,
1,
1,
6,
6,
12,
12,
13,
13,
9,
9,
4,
4,
1,
1,
0,
0,
4,
4,
6,
6,
6,
6,
6,
6,
6,
6,
3,
3,
1,
1,
1,
1,
1,
1,
-1,
-1,
0,
0,
7,
7,
12,
12,
9,
9,
6,
18,
17,
17,
19,
19,
24,
24,
29,
16,
17,
1,
4,
19,
18,
18,
19,
19,
14,
14,
12,
12,
14,
14,
13,
13,
13,
13,
10,
10,
8,
8,
2,
2,
4,
4,
10,
10,
13,
13,
14,
14,
14,
14,
10,
10,
5,
5,
3,
3,
2,
2,
2,
2,
5,
5,
8,
8,
6,
6,
3,
3,
9,
9,
8,
8,
8,
8,
11,
11,
9,
9,
6,
6,
1,
1,
5,
5,
7,
7,
9,
9,
8,
8,
5,
5,
1,
1,
4,
4,
2,
2,
2,
2,
9,
9,
13,
13,
11,
11,
9,
9,
4,
4,
0,
0,
6,
6,
10,
10,
10,
10,
7,
7,
4,
4,
5,
5,
2,
2,
4,
4,
2,
2,
-1,
-1,
3,
3,
5,
5,
6,
6,
7,
7,
6,
6,
3,
3,
-1,
-1,
2,
2,
1,
1,
1,
1,
5,
5,
9,
9,
8,
8,
5,
5,
0,
0,
0,
0,
0,
0,
-1,
-1,
1,
1,
0,
0,
0,
0,
2,
2,
6,
6,
10,
10,
9,
9,
6,
6,
0,
0,
6,
6,
14,
14,
9,
9,
7,
7,
4,
4,
0,
0,
4,
4,
8,
8,
7,
7,
4,
4,
-1,
-1,
1,
1,
4,
4,
8,
8,
10,
10,
8,
8,
4,
4,
2,
2,
4,
4,
3,
3,
3,
3,
2,
2,
2,
2,
2,
2,
1,
1,
5,
5,
2,
2,
1,
1,
-1,
-1,
3,
3,
5,
5,
3,
3,
-1,
-1,
3,
3,
2,
2,
1,
1,
5,
5,
3,
3,
-1,
-1,
-1,
-1,
0,
0,
2,
2,
2,
2,
1,
1,
5,
5,
3,
3,
-1,
-1,
1,
1,
-1,
-1,
2,
2,
2,
2,
0,
0,
1,
1,
1,
1,
1,
1,
5,
5,
5,
5,
0,
0,
9,
9,
15,
15,
12,
0,
1,
1,
5,
5,
5,
5,
4,
4,
2,
2,
0,
0,
1,
1,
2,
2,
1,
1,
6,
6,
8,
8,
5,
5,
1,
1,
-1,
-1,
1,
1,
3,
3,
9,
9,
13,
13,
15,
15,
14,
14,
8,
8,
6,
6,
12,
12,
13,
13,
9,
9,
7,
7,
6,
6,
3,
3,
3,
3,
5,
5,
1,
14,
13,
13,
23,
23,
23,
23,
14,
1,
2,
2,
10,
10,
7,
7,
5,
5,
3,
3,
4,
4,
6,
6,
9,
9,
8,
8,
5,
5,
0,
0,
0,
0,
2,
2,
0,
0,
6,
6,
8,
8,
10,
10,
9,
9,
9,
9,
8,
8,
3,
3,
0,
0,
2,
2,
6,
6,
8,
8,
6,
6,
3,
3,
0,
0,
2,
2,
2,
2,
3,
3,
2,
2,
4,
4,
0,
0,
2,
2,
5,
5,
5,
5,
4,
4,
0,
0,
0,
0,
2,
2,
3,
3,
1,
1,
3,
3,
5,
5,
3,
3,
1,
1,
1,
1,
3,
3,
3,
3,
4,
4,
6,
6,
8,
8,
2,
2,
1,
1,
2,
2,
7,
7,
10,
10,
12,
12,
10,
10,
8,
8,
1,
1,
4,
4,
2,
2,
4,
4,
3,
3,
2,
2,
1,
1,
1,
1,
0,
0,
2,
2,
4,
4,
5,
5,
2,
2,
1,
1,
6,
6,
9,
9,
1,
1,
5,
5,
6,
6,
-1,
-1,
2,
2,
7,
7,
12,
12,
13,
13,
6,
6,
3,
3,
13,
13,
14,
14,
10,
10,
5,
5,
0,
0,
1,
1,
4,
4,
4,
4,
2,
2,
5,
5,
4,
4,
3,
3,
0,
0,
2,
2,
4,
4,
5,
5,
2,
2,
1,
1,
1,
1,
1,
1,
1,
1,
1,
1,
4,
4,
7,
7,
9,
9,
3,
3,
2,
2,
0,
0,
5,
5,
8,
8,
5,
5,
1,
1,
9,
9,
3,
3,
2,
2,
3,
3,
0,
0,
1,
1,
6,
6,
10,
10,
9,
9,
6,
6,
3,
3,
0,
0,
1,
1,
7,
7,
9,
9,
4,
4,
2,
2,
4,
4,
3,
3,
1,
1,
1,
1,
1,
1,
5,
5,
4,
4,
1,
1,
5,
5,
0,
0,
2,
2,
2,
2,
1,
1,
1,
1,
7,
7,
14,
14,
13,
13,
11,
0,
2,
2,
12,
12,
12,
12,
6,
6,
4,
4,
-1,
-1,
3,
3,
6,
6,
4,
4,
1,
1,
3,
3,
7,
7,
8,
8,
6,
6,
3,
3,
-1,
-1,
2,
2,
5,
5,
4,
4,
2,
2,
2,
2,
2,
2,
3,
3,
3,
3,
0,
0,
0,
0,
3,
3,
4,
4,
1,
1,
2,
2,
1,
1,
7,
7,
11,
11,
13,
13,
10,
10,
4,
4,
2,
2,
8,
8,
11,
11,
9,
9,
8,
8,
7,
7,
7,
7,
6,
6,
2,
2,
1,
1,
1,
1,
5,
5,
6,
6,
8,
8,
6,
6,
2,
2,
1,
1,
2,
2,
1,
1,
3,
3,
6,
6,
7,
7,
8,
8,
6,
6,
1,
1,
2,
2,
6,
6,
6,
6,
5,
5,
3,
3,
1,
1,
-1,
-1,
-1,
-1,
1,
1,
2,
2,
2,
2,
3,
3,
6,
6,
5,
5,
1,
1,
6,
6,
10,
10,
13,
13,
14,
14,
14,
14,
12,
12,
6,
6,
2,
2,
1,
1,
8,
8,
12,
12,
10,
10,
8,
8,
6,
6,
4,
4,
2,
2,
1,
1,
2,
2,
1,
1,
0,
0,
3,
3,
2,
2,
3,
3,
7,
7,
5,
5,
1,
1,
1,
1,
2,
2,
2,
2,
1,
1,
4,
4,
3,
3,
-1,
-1,
1,
1,
3,
3,
4,
4,
3,
3,
-1,
-1,
3,
3,
5,
5,
4,
4,
2,
2,
3,
3,
2,
2,
1,
1,
6,
6,
3,
3,
2,
2,
2,
2,
2,
2,
1,
1,
4,
4,
7,
7,
9,
9,
1,
1,
2,
2,
6,
6,
12,
12,
21,
21,
18,
18,
14,
14,
11,
11,
2,
2,
5,
5,
9,
9,
9,
9,
12,
12,
12,
12,
10,
10,
8,
8,
7,
7,
2,
2,
1,
1,
