EMG_S2/DS0064.CSV

Memory Length,4000,
Trigger Level,-4.80000e+02,
Source,CH1,
Probe,1.0X,
Vertical Units,V,
Vertical Scale,1.00000e+00,
Vertical Position,0.00000e+00,
Horizontal Units,S,
Horizontal Scale,1.00000e-01,
Horizontal Position,0.0000000e+00,
Horizontal Mode,Roll Mode,
Waveform Last Dot Address,4000,
Sampling Period,4.00000e-04,
Firmware,V1.14,
Time, ,
Mode,Fast,
Waveform Data,
2,
2,
5,
5,
10,
10,
11,
11,
6,
6,
1,
1,
2,
2,
5,
5,
1,
1,
1,
15,
14,
14,
20,
6,
6,
6,
9,
20,
20,
32,
32,
32,
39,
25,
26,
2,
3,
14,
14,
14,
15,
15,
13,
13,
13,
13,
15,
15,
14,
14,
11,
11,
8,
8,
2,
2,
0,
0,
5,
5,
6,
6,
2,
2,
1,
1,
2,
2,
0,
0,
2,
2,
6,
6,
12,
12,
15,
15,
17,
17,
22,
22,
22,
22,
14,
14,
9,
9,
0,
12,
12,
12,
20,
20,
22,
22,
19,
19,
12,
12,
8,
8,
8,
8,
7,
7,
2,
2,
1,
1,
0,
0,
-1,
-1,
1,
1,
1,
1,
2,
2,
4,
4,
6,
6,
10,
10,
9,
9,
12,
12,
14,
14,
13,
13,
4,
4,
5,
5,
9,
9,
6,
6,
1,
1,
10,
10,
14,
1,
2,
2,
10,
10,
13,
13,
9,
9,
12,
12,
12,
12,
10,
10,
7,
7,
4,
4,
0,
0,
6,
6,
13,
13,
12,
12,
2,
2,
2,
2,
7,
19,
17,
17,
17,
17,
10,
10,
4,
4,
2,
2,
5,
5,
4,
4,
5,
5,
10,
10,
12,
12,
5,
5,
2,
2,
5,
5,
6,
6,
7,
7,
1,
1,
10,
10,
13,
13,
12,
12,
20,
20,
16,
4,
5,
5,
1,
1,
5,
5,
11,
11,
8,
8,
11,
30,
30,
30,
33,
33,
26,
11,
12,
0,
0,
0,
3,
3,
2,
2,
2,
2,
1,
1,
1,
1,
2,
2,
3,
3,
4,
4,
5,
5,
6,
6,
7,
7,
8,
8,
13,
13,
20,
20,
22,
22,
19,
19,
14,
14,
6,
22,
22,
55,
54,
54,
56,
40,
40,
9,
10,
21,
21,
43,
42,
59,
59,
48,
48,
13,
14,
0,
1,
1,
8,
20,
18,
18,
24,
24,
33,
33,
33,
33,
26,
26,
18,
7,
8,
8,
3,
3,
10,
10,
14,
14,
18,
18,
17,
17,
13,
13,
7,
7,
4,
4,
6,
6,
6,
6,
8,
8,
12,
12,
10,
10,
6,
6,
1,
1,
8,
8,
14,
14,
18,
18,
13,
13,
8,
8,
2,
2,
2,
2,
1,
14,
13,
31,
30,
30,
29,
10,
11,
11,
2,
2,
8,
24,
24,
24,
28,
28,
23,
12,
12,
12,
6,
6,
1,
1,
2,
2,
0,
0,
3,
3,
2,
2,
6,
6,
8,
8,
9,
9,
10,
10,
10,
10,
6,
6,
1,
1,
1,
1,
6,
6,
6,
6,
4,
4,
0,
0,
-1,
-1,
1,
1,
5,
21,
21,
21,
29,
29,
21,
1,
2,
2,
12,
12,
19,
19,
21,
21,
17,
17,
13,
13,
9,
9,
4,
4,
-1,
-1,
0,
0,
4,
4,
7,
7,
7,
7,
3,
3,
2,
2,
7,
7,
6,
6,
3,
3,
2,
2,
2,
2,
6,
6,
12,
12,
12,
12,
17,
17,
23,
23,
18,
1,
2,
2,
10,
10,
17,
17,
15,
15,
11,
11,
3,
3,
9,
9,
14,
14,
6,
6,
10,
22,
21,
21,
25,
25,
20,
6,
6,
6,
9,
9,
18,
18,
14,
14,
6,
6,
2,
2,
2,
2,
4,
4,
8,
8,
9,
9,
6,
6,
3,
3,
3,
3,
6,
6,
6,
6,
7,
7,
13,
13,
8,
8,
5,
18,
17,
35,
34,
34,
42,
29,
30,
8,
8,
8,
2,
2,
2,
2,
9,
28,
28,
28,
37,
37,
34,
34,
25,
10,
10,
10,
3,
3,
3,
3,
3,
3,
4,
4,
0,
0,
10,
10,
7,
7,
5,
5,
15,
15,
19,
8,
8,
8,
1,
1,
-1,
-1,
6,
6,
13,
27,
26,
43,
43,
43,
41,
23,
24,
10,
10,
10,
2,
2,
11,
28,
27,
46,
46,
46,
49,
49,
42,
42,
36,
25,
25,
13,
14,
14,
5,
5,
2,
2,
8,
8,
11,
11,
13,
13,
16,
16,
19,
19,
22,
22,
18,
18,
17,
17,
14,
14,
7,
7,
6,
6,
8,
8,
6,
6,
3,
3,
2,
2,
5,
5,
0,
0,
1,
1,
1,
1,
1,
1,
0,
0,
1,
1,
3,
3,
6,
6,
9,
9,
8,
8,
4,
4,
1,
1,
1,
1,
2,
2,
0,
0,
-1,
-1,
0,
0,
2,
2,
0,
0,
6,
6,
7,
7,
9,
9,
7,
7,
1,
12,
12,
27,
25,
25,
28,
28,
27,
27,
19,
5,
5,
5,
9,
33,
32,
56,
56,
56,
64,
64,
63,
40,
40,
10,
10,
10,
14,
41,
40,
57,
56,
56,
53,
53,
47,
47,
43,
43,
34,
22,
22,
6,
6,
6,
4,
4,
10,
10,
14,
14,
17,
17,
23,
23,
31,
31,
29,
29,
23,
23,
20,
20,
15,
15,
10,
10,
1,
1,
9,
9,
15,
15,
10,
10,
13,
13,
6,
6,
8,
8,
15,
15,
14,
14,
8,
8,
2,
2,
2,
2,
9,
9,
10,
10,
9,
9,
13,
13,
7,
7,
4,
4,
9,
9,
6,
6,
9,
9,
17,
17,
20,
20,
19,
6,
7,
7,
4,
16,
16,
16,
12,
1,
2,
2,
8,
8,
9,
9,
9,
9,
8,
8,
2,
2,
0,
0,
0,
0,
4,
4,
12,
12,
20,
20,
13,
0,
1,
1,
10,
10,
17,
17,
12,
12,
10,
10,
11,
11,
9,
9,
6,
6,
3,
3,
0,
0,
2,
2,
4,
4,
7,
7,
6,
6,
2,
2,
1,
1,
0,
0,
-1,
-1,
1,
1,
2,
2,
2,
2,
3,
3,
2,
2,
1,
1,
2,
2,
5,
5,
2,
2,
1,
1,
8,
8,
17,
17,
20,
9,
10,
10,
9,
28,
28,
40,
39,
39,
41,
29,
30,
13,
13,
13,
16,
16,
23,
23,
25,
25,
23,
23,
14,
14,
19,
19,
25,
25,
22,
22,
15,
2,
2,
2,
2,
2,
5,
5,
7,
7,
8,
8,
11,
11,
15,
15,
11,
11,
8,
8,
10,
10,
10,
10,
13,
13,
14,
1,
3,
3,
2,
2,
1,
1,
4,
4,
10,
22,
21,
21,
23,
6,
6,
6,
14,
28,
27,
27,
34,
34,
32,
32,
22,
9,
10,
10,
0,
0,
8,
8,
4,
22,
21,
38,
38,
38,
37,
6,
6,
34,
33,
62,
60,
60,
65,
65,
64,
53,
53,
6,
7,
31,
31,
53,
53,
53,
56,
56,
49,
38,
40,
23,
23,
23,
14,
14,
15,
15,
12,
12,
3,
3,
4,
4,
11,
11,
17,
17,
17,
17,
19,
19,
20,
20,
16,
16,
13,
13,
11,
11,
7,
7,
3,
3,
0,
0,
0,
0,
0,
0,
0,
0,
3,
3,
10,
10,
12,
12,
14,
14,
12,
12,
5,
5,
2,
2,
1,
1,
4,
4,
13,
13,
9,
9,
6,
6,
7,
7,
10,
10,
13,
13,
9,
9,
1,
1,
5,
5,
11,
11,
14,
14,
20,
20,
27,
27,
33,
21,
22,
9,
9,
9,
6,
22,
22,
22,
27,
27,
17,
17,
9,
9,
5,
5,
12,
12,
2,
17,
17,
41,
40,
51,
51,
51,
55,
42,
42,
23,
24,
3,
8,
36,
36,
49,
48,
37,
38,
38,
36,
36,
36,
36,
34,
34,
34,
34,
29,
16,
17,
1,
2,
2,
9,
20,
19,
19,
28,
28,
34,
34,
38,
38,
32,
19,
20,
20,
12,
12,
6,
6,
0,
0,
4,
4,
6,
6,
7,
7,
7,
7,
7,
7,
5,
5,
4,
4,
2,
2,
1,
1,
1,
1,
2,
2,
2,
2,
1,
1,
-1,
-1,
-2,
-2,
-1,
-1,
1,
1,
2,
2,
3,
3,
2,
2,
0,
0,
-2,
-2,
2,
2,
3,
3,
-1,
-1,
4,
4,
5,
5,
2,
2,
4,
4,
8,
8,
6,
6,
1,
1,
0,
0,
2,
2,
5,
5,
10,
10,
10,
10,
6,
6,
3,
3,
2,
2,
4,
17,
16,
16,
20,
20,
23,
23,
25,
25,
16,
2,
2,
2,
12,
12,
21,
21,
19,
19,
12,
12,
15,
15,
17,
17,
9,
9,
10,
24,
24,
35,
33,
33,
26,
10,
10,
10,
10,
54,
53,
65,
64,
64,
65,
65,
65,
48,
49,
8,
12,
54,
54,
54,
62,
62,
58,
42,
42,
42,
33,
18,
18,
18,
10,
10,
15,
15,
18,
18,
14,
14,
10,
10,
4,
4,
1,
1,
5,
5,
12,
12,
19,
19,
25,
25,
28,
28,
21,
21,
19,
19,
20,
20,
12,
1,
3,
3,
4,
4,
4,
4,
3,
3,
3,
3,
10,
10,
7,
7,
2,
2,
10,
10,
18,
18,
23,
23,
22,
22,
19,
19,
14,
14,
8,
8,
2,
15,
14,
14,
15,
15,
9,
9,
7,
7,
3,
3,
1,
1,
0,
0,
0,
0,
0,
0,
1,
1,
0,
0,
1,
1,
2,
2,
3,
3,
1,
1,
3,
3,
5,
5,
6,
6,
6,
6,
6,
6,
5,
5,
0,
0,
2,
2,
3,
3,
2,
2,
0,
0,
3,
3,
5,
5,
1,
1,
0,
0,
3,
3,
5,
5,
2,
2,
1,
1,
5,
5,
6,
6,
5,
5,
2,
2,
1,
1,
-2,
-2,
1,
1,
2,
2,
4,
4,
5,
5,
2,
2,
2,
2,
1,
1,
2,
2,
9,
9,
9,
9,
6,
6,
3,
3,
0,
0,
2,
2,
1,
1,
2,
2,
3,
3,
1,
1,
-1,
-1,
0,
0,
1,
1,
2,
2,
8,
8,
8,
8,
1,
1,
8,
8,
18,
18,
25,
25,
26,
26,
22,
9,
9,
9,
12,
41,
41,
52,
50,
34,
35,
22,
23,
23,
15,
2,
4,
4,
14,
25,
24,
24,
24,
24,
20,
20,
16,
16,
11,
11,
10,
10,
6,
6,
0,
0,
4,
4,
12,
12,
14,
14,
13,
13,
10,
10,
7,
7,
1,
1,
0,
0,
-1,
-1,
0,
0,
0,
0,
1,
1,
2,
2,
2,
2,
1,
1,
1,
1,
-1,
-1,
1,
1,
-1,
-1,
1,
1,
3,
3,
8,
8,
14,
14,
13,
0,
2,
18,
18,
18,
24,
24,
28,
28,
18,
1,
2,
17,
15,
34,
33,
33,
43,
43,
44,
24,
25,
4,
5,
5,
7,
21,
20,
20,
29,
29,
31,
31,
29,
29,
26,
26,
24,
24,
21,
21,
21,
21,
16,
1,
2,
20,
20,
40,
40,
61,
60,
60,
65,
65,
60,
27,
27,
2,
4,
18,
18,
18,
25,
25,
22,
22,
22,
22,
29,
29,
37,
37,
32,
20,
21,
21,
17,
17,
9,
9,
1,
1,
8,
8,
16,
16,
21,
21,
26,
26,
26,
26,
28,
28,
26,
5,
5,
5,
10,
10,
20,
20,
22,
22,
14,
1,
6,
26,
26,
26,
29,
12,
13,
1,
4,
15,
15,
15,
21,
21,
17,
17,
9,
9,
3,
3,
1,
1,
4,
4,
4,
4,
11,
11,
11,
11,
8,
8,
2,
2,
4,
4,
6,
6,
10,
10,
9,
9,
9,
9,
8,
8,
7,
7,
5,
5,
0,
0,
2,
2,
3,
3,
11,
11,
10,
10,
1,
1,
1,
1,
0,
0,
5,
5,
9,
9,
9,
9,
8,
8,
6,
6,
16,
16,
15,
15,
11,
11,
11,
11,
18,
18,
20,
20,
21,
21,
17,
17,
10,
10,
1,
12,
12,
29,
28,
28,
36,
25,
26,
26,
21,
21,
18,
18,
9,
9,
1,
1,
2,
2,
0,
0,
7,
24,
24,
24,
22,
2,
4,
19,
18,
30,
30,
30,
26,
13,
13,
13,
9,
9,
18,
18,
25,
25,
20,
20,
10,
10,
2,
2,
2,
2,
8,
8,
10,
10,
12,
12,
13,
13,
14,
14,
14,
14,
13,
13,
9,
9,
6,
6,
5,
5,
2,
2,
2,
2,
2,
2,
2,
2,
1,
1,
0,
0,
2,
2,
4,
4,
10,
10,
15,
15,
15,
15,
13,
13,
9,
9,
3,
3,
5,
5,
14,
14,
18,
18,
22,
22,
16,
16,
7,
7,
2,
2,
12,
12,
19,
19,
18,
18,
12,
12,
8,
8,
7,
7,
12,
12,
7,
7,
5,
19,
18,
32,
31,
31,
39,
39,
30,
2,
2,
2,
10,
10,
3,
3,
6,
6,
2,
2,
11,
11,
19,
19,
20,
20,
16,
16,
9,
9,
9,
9,
10,
10,
1,
1,
6,
6,
10,
10,
9,
9,
8,
8,
11,
11,
8,
8,
1,
1,
7,
7,
14,
14,
22,
22,
21,
10,
10,
10,
14,
38,
38,
49,
49,
49,
43,
43,
38,
38,
38,
27,
28,
11,
11,
11,
8,
38,
38,
55,
55,
55,
58,
45,
46,
30,
30,
30,
27,
27,
21,
21,
12,
1,
1,
1,
8,
20,
20,
20,
26,
26,
20,
20,
19,
19,
18,
18,
18,
18,
15,
15,
13,
13,
12,
12,
6,
6,
1,
1,
0,
0,
4,
4,
6,
6,
7,
7,
6,
6,
5,
5,
2,
2,
-1,
-1,
-1,
-1,
0,
0,
-1,
-1,
1,
1,
1,
1,
0,
0,
0,
0,
1,
1,
5,
5,
6,
6,
3,
3,
2,
2,
6,
6,
6,
6,
1,
1,
6,
6,
12,
12,
16,
16,
15,
15,
11,
11,
5,
5,
2,
2,
0,
0,
-1,
-1,
3,
3,
5,
5,
2,
2,
8,
8,
14,
14,
18,
18,
18,
18,
10,
10,
1,
1,
5,
5,
6,
6,
6,
6,
2,
2,
0,
0,
2,
2,
2,
2,
2,
2,
5,
5,
1,
1,
8,
8,
12,
12,
9,
9,
11,
11,
10,
10,
6,
6,
2,
2,
2,
2,
8,
8,
16,
4,
4,
21,
21,
32,
30,
30,
29,
29,
24,
9,
10,
10,
8,
8,
18,
18,
12,
12,
5,
5,
1,
1,
-1,
-1,
0,
0,
2,
2,
4,
4,
4,
4,
2,
2,
3,
3,
-1,
-1,
0,
0,
0,
0,
0,
0,
0,
0,
0,
0,
2,
2,
6,
6,
7,
7,
6,
6,
1,
1,
-1,
-1,
2,
2,
2,
2,
0,
0,
1,
1,
2,
2,
4,
4,
1,
1,
1,
1,
6,
6,
6,
6,
6,
6,
9,
9,
5,
5,
0,
0,
0,
0,
6,
6,
6,
6,
12,
29,
28,
49,
48,
48,
41,
16,
17,
4,
21,
60,
60,
60,
64,
64,
64,
17,
17,
6,
19,
19,
27,
9,
10,
10,
18,
38,
37,
37,
36,
23,
24,
4,
10,
43,
43,
62,
62,
62,
63,
63,
58,
58,
51,
51,
43,
26,
26,
7,
8,
8,
10,
24,
23,
23,
32,
32,
36,
36,
38,
38,
37,
37,
34,
34,
29,
29,
24,
24,
19,
19,
13,
13,
6,
6,
1,
1,
1,
1,
6,
6,
8,
8,
7,
7,
9,
9,
12,
12,
12,
12,
12,
12,
12,
12,
8,
8,
3,
3,
2,
2,
1,
1,
0,
0,
-1,
-1,
0,
0,
-1,
-1,
0,
0,
1,
1,
2,
2,
2,
2,
1,
1,
0,
0,
0,
0,
-1,
-1,
2,
2,
5,
5,
5,
5,
4,
4,
2,
2,
1,
1,
0,
0,
0,
0,
-1,
-1,
0,
0,
0,
0,
0,
0,
3,
3,
6,
6,
1,
1,
5,
5,
12,
12,
14,
14,
17,
17,
17,
1,
2,
17,
16,
16,
20,
20,
19,
19,
12,
1,
2,
2,
1,
1,
0,
0,
5,
5,
1,
1,
7,
7,
3,
22,
22,
37,
36,
36,
40,
22,
22,
4,
12,
26,
26,
26,
31,
31,
34,
34,
41,
41,
41,
41,
38,
38,
28,
14,
14,
1,
5,
24,
24,
41,
40,
40,
43,
23,
23,
2,
3,
3,
10,
10,
5,
5,
6,
24,
23,
47,
47,
47,
51,
28,
28,
3,
5,
25,
25,
25,
30,
30,
23,
23,
17,
17,
17,
17,
16,
16,
10,
10,
4,
4,
2,
2,
4,
4,
4,
4,
6,
6,
6,
6,
6,
6,
4,
4,
4,
15,
14,
33,
33,
33,
41,
41,
35,
35,
32,
32,
24,
9,
9,
9,
7,
20,
20,
31,
30,
30,
37,
37,
36,
36,
30,
30,
24,
13,
13,
13,
5,
5,
2,
2,
10,
10,
16,
16,
14,
14,
13,
13,
13,
13,
13,
13,
15,
15,
12,
12,
8,
8,
4,
4,
2,
2,
1,
1,
2,
2,
2,
2,
1,
1,
0,
0,
1,
1,
1,
1,
9,
9,
10,
10,
0,
0,
1,
1,
2,
2,
4,
4,
2,
2,
0,
0,
1,
1,
-1,
-1,
2,
2,
1,
1,
7,
7,
7,
7,
7,
7,
5,
5,
1,
1,
2,
2,
0,
0,
-1,
-1,
2,
2,
10,
10,
13,
13,
5,
5,
3,
3,
6,
6,
3,
3,
9,
26,
25,
25,
33,
33,
36,
36,
38,
22,
22,
2,
6,
25,
25,
25,
24,
24,
15,
15,
24,
24,
21,
21,
15,
15,
16,
16,
17,
17,
18,
18,
16,
16,
8,
8,
0,
0,
6,
19,
18,
18,
26,
26,
25,
25,
23,
23,
17,
17,
10,
10,
9,
9,
14,
14,
14,
1,
2,
14,
14,
14,
21,
21,
25,
14,
14,
1,
2,
21,
20,
34,
33,
33,
35,
15,
16,
2,
12,
30,
29,
29,
32,
32,
28,
28,
22,
22,
15,
15,
8,
8,
1,
1,
0,
0,
2,
2,
1,
1,
1,
1,
6,
6,
12,
12,
19,
19,
19,
19,
18,
18,
13,
13,
6,
6,
0,
0,
5,
5,
12,
24,
23,
23,
28,
28,
2,
2,
5,
28,
27,
41,
40,
40,
47,
47,
46,
21,
22,
4,
11,
33,
32,
32,
32,
32,
28,
28,
26,
26,
28,
28,
29,
18,
19,
19,
10,
10,
3,
3,
3,
3,
8,
8,
12,
12,
14,
14,
14,
14,
17,
17,
20,
20,
18,
18,
13,
13,
6,
6,
1,
1,
2,
2,
2,
2,
0,
0,
4,
4,
5,
5,
5,
5,
1,
1,
4,
4,
10,
10,
10,
10,
9,
9,
6,
6,
6,
6,
4,
4,
2,
2,
1,
1,
1,
1,
-1,
-1,
2,
2,
3,
3,
6,
6,
7,
7,
8,
8,
6,
6,
3,
3,
-1,
-1,
8,
8,
9,
9,
9,
9,
12,
12,
14,
14,
14,
1,
2,
20,
19,
47,
47,
62,
62,
62,
55,
28,
28,
2,
4,
4,
11,
24,
24,
38,
38,
38,
46,
46,
49,
49,
43,
43,
34,
16,
16,
3,
12,
29,
29,
29,
29,
29,
25,
10,
10,
10,
1,
1,
0,
0,
6,
21,
21,
21,
28,
28,
27,
9,
9,
9,
14,
34,
33,
33,
35,
16,
17,
1,
5,
17,
16,
16,
25,
25,
26,
26,
17,
17,
9,
9,
4,
4,
1,
1,
5,
5,
12,
12,
20,
20,
25,
25,
24,
24,
19,
19,
9,
9,
2,
2,
2,
2,
6,
6,
4,
4,
4,
15,
14,
14,
18,
18,
13,
13,
6,
6,
2,
2,
-1,
-1,
2,
2,
6,
6,
6,
6,
4,
4,
-1,
-1,
0,
0,
4,
4,
7,
7,
7,
7,
1,
1,
1,
1,
6,
6,
14,
14,
12,
12,
4,
4,
2,
2,
7,
7,
11,
11,
14,
14,
12,
12,
8,
8,
5,
5,
4,
4,
5,
5,
1,
1,
1,
1,
1,
1,
2,
2,
2,
2,
3,
3,
0,
0,
5,
5,
7,
19,
15,
26,
12,
47,
46,
30,
31,
15,
15,
1,
2,
2,
8,
8,
15,
15,
16,
16,
8,
8,
1,
1,
2,
2,
9,
9,
10,
10,
6,
6,
9,
9,
15,
15,
16,
16,
12,
12,
7,
7,
7,
7,
11,
11,
14,
14,
6,
6,
2,
13,
12,
12,
18,
29,
29,
29,
38,
38,
40,
24,
24,
1,
3,
3,
12,
12,
17,
17,
20,
20,
19,
19,
9,
9,
1,
1,
1,
1,
6,
6,
8,
8,
9,
9,
8,
8,
6,
6,
2,
2,
2,
2,
6,
6,
9,
9,
11,
11,
10,
10,
7,
7,
4,
4,
2,
2,
4,
4,
6,
6,
4,
4,
1,
1,
2,
2,
2,
2,
1,
12,
12,
12,
20,
20,
19,
19,
16,
16,
14,
14,
15,
4,
4,
4,
7,
18,
18,
36,
35,
35,
45,
45,
49,
49,
50,
50,
42,
18,
18,
5,
20,
45,
45,
45,
52,
52,
49,
49,
45,
45,
44,
44,
36,
25,
26,
10,
10,
10,
11,
29,
29,
49,
49,
49,
46,
32,
33,
14,
15,
1,
2,
2,
10,
10,
11,
11,
8,
8,
2,
2,
1,
1,
2,
2,
2,
2,
2,
2,
3,
3,
6,
6,
8,
8,
7,
7,
2,
2,
0,
0,
1,
1,
0,
0,
0,
0,
3,
3,
5,
5,
8,
8,
6,
6,
2,
2,
2,
2,
2,
2,
2,
2,
0,
0,
2,
2,
5,
5,
6,
6,
6,
6,
8,
8,
5,
5,
-1,
-1,
4,
4,
4,
4,
5,
5,
5,
5,
5,
5,
1,
1,
0,
0,
3,
3,
4,
4,
5,
5,
1,
1,
-1,
-1,
2,
2,
4,
4,
8,
8,
10,
10,
6,
6,
2,
2,
12,
12,
14,
14,
6,
6,
0,
0,
-1,
-1,
-1,
-1,
2,
2,
9,
37,
37,
56,
55,
55,
55,
55,
46,
8,
9,
56,
56,
56,
64,
64,
64,
64,
64,
50,
50,
25,
26,
2,
2,
17,
16,
27,
26,
26,
25,
25,
24,
24,
20,
20,
21,
21,
24,
24,
18,
18,
12,
12,
11,
11,
13,
13,
14,
14,
14,
14,
6,
6,
7,
7,
14,
14,
15,
15,
17,
17,
14,
14,
4,
4,
1,
1,
1,
1,
9,
9,
10,
10,
6,
6,
1,
1,
5,
5,
3,
3,
6,
20,
18,
31,
30,
30,
38,
24,
25,
2,
5,
5,
13,
13,
14,
14,
17,
17,
18,
18,
14,
14,
11,
11,
10,
10,
9,
9,
6,
6,
1,
1,
1,
1,
7,
7,
12,
12,
14,
14,
18,
18,
14,
14,
9,
9,
5,
5,
1,
1,
5,
5,
5,
5,
3,
3,
5,
5,
3,
3,
5,
5,
10,
10,
9,
9,
1,
1,
6,
6,
13,
13,
18,
18,
16,
16,
9,
9,
2,
2,
-1,
-1,
2,
2,
4,
4,
6,
6,
9,
9,
14,
14,
17,
17,
12,
12,
9,
9,
11,
11,
5,
5,
0,
0,
4,
4,
5,
17,
16,
34,
33,
33,
38,
27,
27,
16,
16,
16,
9,
9,
2,
2,
6,
6,
4,
4,
8,
8,
4,
27,
26,
41,
40,
40,
30,
30,
22,
22,
16,
16,
11,
11,
4,
4,
3,
3,
0,
0,
0,
0,
0,
0,
4,
4,
6,
6,
8,
8,
9,
9,
14,
14,
22,
22,
25,
25,
16,
16,
10,
10,
6,
6,
2,
2,
1,
1,
5,
5,
5,
5,
5,
5,
6,
6,
5,
5,
5,
5,
4,
4,
4,
4,
4,
4,
2,
2,
1,
1,
1,
1,
0,
0,
0,
0,
0,
0,
-1,
-1,
1,
1,
1,
1,
1,
1,
1,
1,
-1,
-1,
-1,
-1,
-1,
-1,
0,
0,
0,
0,
0,
0,
0,
0,
2,
2,
-2,
-2,
2,
2,
5,
5,
9,
9,
10,
10,
9,
9,
5,
5,
4,
4,
6,
18,
18,
18,
19,
19,
10,
10,
2,
2,
-1,
-1,
-2,
-2,
0,
0,
8,
19,
18,
18,
10,
10,
5,
21,
20,
32,
32,
32,
27,
13,
14,
2,
10,
30,
29,
29,
20,
4,
13,
45,
45,
59,
59,
59,
52,
26,
27,
4,
8,
40,
40,
60,
59,
59,
61,
47,
48,
32,
32,
20,
20,
20,
12,
12,
2,
2,
8,
8,
14,
14,
15,
15,
18,
18,
22,
22,
22,
22,
25,
25,
23,
23,
21,
21,
15,
15,
6,
6,
1,
1,
6,
6,
10,
10,
10,
10,
12,
12,
14,
14,
15,
15,
12,
12,
6,
6,
4,
18,
18,
18,
25,
25,
25,
9,
10,
10,
1,
1,
5,
5,
13,
13,
17,
17,
17,
17,
12,
12,
8,
8,
6,
6,
4,
4,
2,
2,
5,
5,
12,
12,
14,
14,
5,
5,
13,
38,
38,
53,
53,
53,
47,
29,
30,
8,
9,
9,
5,
16,
16,
16,
20,
20,
17,
17,
12,
12,
11,
11,
16,
16,
18,
18,
23,
23,
24,
24,
17,
6,
7,
7,
1,
13,
12,
31,
30,
46,
45,
45,
53,
53,
44,
13,
13,
2,
8,
8,
12,
12,
16,
16,
22,
22,
23,
23,
21,
21,
18,
18,
13,
13,
8,
8,
4,
4,
-1,
-1,
5,
5,
7,
7,
9,
9,
9,
9,
6,
6,
-1,
-1,
1,
1,
1,
1,
11,
11,
17,
17,
15,
15,
14,
14,
4,
4,
