EMG_S2/DS0029.CSV

Memory Length,4000,
Trigger Level,-4.80000e+02,
Source,CH1,
Probe,1.0X,
Vertical Units,V,
Vertical Scale,1.00000e+00,
Vertical Position,0.00000e+00,
Horizontal Units,S,
Horizontal Scale,1.00000e-01,
Horizontal Position,0.0000000e+00,
Horizontal Mode,Roll Mode,
Waveform Last Dot Address,4000,
Sampling Period,4.00000e-04,
Firmware,V1.14,
Time, ,
Mode,Fast,
Waveform Data,
1,
1,
2,
2,
2,
2,
1,
1,
0,
0,
0,
0,
-1,
-1,
1,
1,
1,
1,
1,
1,
1,
1,
1,
1,
2,
2,
0,
0,
1,
1,
-1,
-1,
-1,
-1,
-1,
-1,
0,
0,
1,
1,
0,
0,
0,
0,
3,
3,
2,
2,
1,
1,
0,
0,
3,
3,
5,
5,
5,
5,
2,
2,
0,
0,
1,
1,
1,
1,
0,
0,
2,
2,
1,
1,
0,
0,
1,
1,
1,
1,
1,
1,
1,
1,
1,
1,
1,
1,
2,
2,
1,
1,
0,
0,
-1,
-1,
-2,
-2,
0,
0,
0,
0,
0,
0,
-1,
-1,
0,
0,
1,
1,
1,
1,
0,
0,
1,
1,
0,
0,
-1,
-1,
-1,
-1,
0,
0,
2,
2,
2,
2,
3,
3,
2,
2,
1,
1,
3,
3,
0,
0,
-1,
-1,
2,
2,
2,
2,
3,
3,
2,
2,
-1,
-1,
1,
1,
1,
1,
0,
0,
-1,
-1,
0,
0,
0,
0,
0,
0,
-1,
-1,
-1,
-1,
-1,
-1,
1,
1,
2,
2,
1,
1,
2,
2,
1,
1,
1,
1,
-2,
-2,
1,
1,
1,
1,
2,
2,
4,
4,
5,
5,
1,
1,
3,
3,
6,
6,
6,
6,
5,
5,
5,
5,
6,
6,
9,
9,
6,
6,
1,
1,
1,
1,
4,
4,
6,
6,
7,
7,
8,
8,
7,
7,
6,
6,
3,
3,
0,
0,
0,
0,
1,
1,
2,
2,
2,
2,
4,
4,
4,
4,
4,
4,
5,
5,
2,
2,
1,
1,
-1,
-1,
0,
0,
2,
2,
2,
2,
0,
0,
1,
1,
2,
2,
4,
4,
5,
5,
4,
4,
-1,
-1,
0,
0,
-1,
-1,
1,
1,
2,
2,
1,
1,
2,
2,
5,
5,
6,
6,
4,
4,
3,
3,
1,
1,
-1,
-1,
-1,
-1,
2,
2,
2,
2,
3,
3,
4,
4,
2,
2,
1,
1,
0,
0,
-1,
-1,
-1,
-1,
0,
0,
0,
0,
0,
0,
0,
0,
2,
2,
5,
5,
4,
4,
2,
2,
1,
1,
2,
2,
0,
0,
2,
2,
5,
5,
5,
5,
2,
2,
0,
0,
-1,
-1,
1,
1,
1,
1,
0,
0,
0,
0,
0,
0,
-2,
-2,
-1,
-1,
0,
0,
2,
2,
-1,
-1,
-1,
-1,
1,
1,
0,
0,
1,
1,
1,
1,
2,
2,
2,
2,
2,
2,
1,
1,
0,
0,
0,
0,
1,
1,
1,
1,
0,
0,
0,
0,
0,
0,
2,
2,
1,
1,
0,
0,
0,
0,
0,
0,
0,
0,
0,
0,
0,
0,
0,
0,
0,
0,
0,
0,
2,
2,
2,
2,
2,
2,
0,
0,
5,
5,
6,
6,
1,
1,
2,
2,
7,
7,
10,
10,
10,
10,
8,
8,
5,
5,
2,
2,
1,
1,
5,
5,
6,
6,
6,
6,
6,
6,
5,
5,
4,
4,
2,
2,
0,
0,
0,
0,
-1,
-1,
1,
1,
3,
3,
3,
3,
9,
9,
12,
12,
12,
12,
8,
8,
4,
4,
2,
2,
0,
0,
1,
1,
3,
3,
4,
4,
5,
5,
7,
7,
10,
10,
9,
9,
6,
6,
1,
1,
2,
2,
10,
10,
18,
18,
18,
18,
15,
15,
7,
7,
1,
1,
6,
6,
11,
11,
12,
12,
11,
11,
6,
6,
2,
2,
0,
0,
0,
0,
1,
1,
0,
0,
2,
2,
5,
5,
9,
9,
9,
9,
6,
6,
4,
4,
4,
4,
2,
2,
-1,
-1,
1,
1,
0,
0,
2,
2,
4,
4,
4,
4,
3,
3,
2,
2,
6,
6,
4,
4,
-1,
-1,
0,
0,
4,
4,
10,
10,
10,
10,
12,
12,
12,
12,
13,
13,
10,
10,
10,
10,
8,
8,
6,
6,
6,
6,
1,
1,
3,
3,
7,
7,
16,
16,
20,
20,
18,
18,
14,
14,
9,
9,
5,
5,
0,
0,
6,
6,
10,
10,
13,
13,
10,
10,
1,
1,
9,
23,
22,
22,
26,
14,
14,
1,
7,
25,
25,
38,
38,
38,
46,
60,
60,
60,
62,
39,
39,
5,
7,
38,
38,
59,
58,
58,
58,
41,
42,
30,
30,
30,
32,
32,
28,
16,
16,
1,
2,
2,
11,
11,
16,
16,
20,
20,
21,
21,
21,
21,
21,
21,
18,
18,
17,
17,
14,
14,
17,
17,
19,
19,
10,
10,
12,
36,
36,
49,
48,
48,
41,
16,
17,
1,
4,
4,
11,
11,
11,
11,
10,
10,
13,
13,
18,
34,
33,
56,
55,
55,
53,
30,
30,
5,
10,
37,
37,
37,
40,
40,
40,
40,
43,
43,
41,
29,
29,
15,
15,
1,
2,
2,
5,
5,
10,
10,
10,
10,
6,
6,
6,
6,
9,
9,
12,
12,
16,
16,
17,
17,
13,
13,
10,
10,
9,
9,
8,
8,
14,
14,
14,
14,
13,
1,
2,
16,
15,
15,
23,
23,
24,
24,
20,
20,
13,
2,
2,
2,
6,
6,
8,
8,
7,
7,
5,
5,
0,
0,
3,
3,
5,
5,
2,
2,
4,
4,
8,
8,
9,
9,
3,
3,
2,
2,
2,
2,
2,
2,
0,
0,
2,
2,
3,
3,
1,
1,
2,
2,
3,
3,
2,
2,
3,
3,
8,
8,
10,
10,
16,
16,
10,
10,
0,
0,
8,
8,
13,
13,
9,
9,
2,
2,
-1,
10,
9,
27,
26,
39,
38,
38,
33,
17,
17,
2,
6,
28,
28,
28,
36,
36,
41,
41,
38,
38,
28,
10,
10,
10,
10,
10,
18,
18,
25,
25,
24,
24,
20,
20,
14,
3,
4,
4,
3,
3,
9,
9,
5,
5,
4,
4,
6,
6,
5,
5,
3,
3,
2,
2,
2,
2,
2,
2,
0,
0,
5,
5,
12,
12,
12,
12,
11,
11,
3,
3,
11,
11,
13,
28,
28,
43,
42,
42,
47,
47,
46,
46,
37,
6,
6,
23,
23,
38,
38,
38,
40,
40,
34,
34,
28,
28,
20,
20,
18,
18,
14,
14,
10,
10,
4,
4,
3,
3,
7,
7,
8,
8,
11,
11,
14,
14,
15,
15,
12,
12,
6,
6,
5,
5,
10,
10,
8,
8,
8,
8,
3,
3,
-1,
-1,
0,
0,
1,
1,
3,
3,
4,
4,
4,
4,
8,
8,
12,
12,
8,
8,
8,
8,
1,
12,
11,
11,
21,
21,
20,
20,
11,
11,
4,
4,
0,
0,
3,
3,
6,
6,
11,
11,
10,
10,
8,
8,
5,
5,
4,
4,
4,
4,
2,
2,
2,
2,
2,
2,
-1,
-1,
1,
1,
-1,
-1,
6,
6,
14,
14,
16,
16,
16,
16,
14,
14,
5,
5,
4,
4,
13,
13,
18,
18,
17,
4,
5,
5,
7,
7,
6,
18,
17,
28,
28,
28,
27,
16,
16,
1,
2,
14,
14,
25,
24,
24,
25,
25,
21,
21,
12,
12,
5,
5,
1,
1,
2,
2,
3,
3,
2,
2,
6,
6,
7,
7,
2,
2,
4,
4,
9,
9,
12,
12,
18,
18,
21,
21,
16,
5,
5,
5,
8,
22,
22,
22,
27,
14,
15,
1,
5,
26,
26,
46,
45,
45,
44,
25,
26,
9,
10,
10,
6,
21,
20,
32,
32,
32,
34,
34,
26,
26,
22,
22,
24,
24,
18,
4,
5,
5,
1,
1,
4,
4,
7,
7,
12,
12,
15,
15,
18,
18,
19,
19,
14,
14,
11,
11,
7,
7,
1,
1,
4,
4,
6,
6,
1,
13,
12,
12,
17,
4,
5,
5,
4,
4,
8,
8,
12,
12,
17,
17,
10,
10,
5,
5,
0,
0,
3,
3,
1,
1,
2,
2,
1,
1,
0,
0,
3,
3,
7,
7,
6,
6,
1,
1,
6,
6,
12,
12,
13,
13,
10,
10,
4,
4,
0,
0,
5,
5,
10,
10,
10,
10,
1,
1,
10,
10,
15,
15,
8,
8,
9,
25,
25,
25,
25,
25,
30,
41,
40,
40,
36,
5,
6,
24,
24,
36,
34,
34,
29,
29,
22,
22,
18,
18,
14,
14,
11,
11,
7,
7,
8,
8,
8,
8,
1,
1,
5,
5,
13,
13,
15,
15,
10,
10,
11,
11,
12,
12,
10,
10,
6,
6,
1,
1,
0,
0,
0,
0,
3,
3,
1,
1,
1,
1,
0,
0,
-1,
-1,
1,
1,
0,
0,
1,
1,
2,
13,
12,
26,
26,
26,
32,
16,
16,
0,
1,
1,
3,
3,
10,
24,
24,
24,
32,
32,
42,
42,
49,
36,
37,
5,
6,
6,
2,
2,
8,
20,
19,
34,
33,
33,
37,
37,
37,
37,
33,
33,
26,
26,
18,
18,
11,
0,
1,
1,
9,
9,
14,
14,
19,
19,
21,
21,
24,
24,
24,
24,
21,
8,
9,
9,
3,
3,
5,
5,
7,
7,
1,
1,
5,
5,
13,
13,
13,
13,
5,
5,
0,
0,
-1,
-1,
0,
0,
2,
2,
0,
0,
7,
7,
16,
16,
17,
17,
18,
18,
12,
12,
7,
7,
4,
4,
0,
0,
1,
1,
2,
2,
3,
3,
5,
5,
6,
6,
5,
5,
10,
10,
15,
15,
6,
6,
-1,
-1,
0,
0,
8,
8,
15,
15,
7,
7,
5,
5,
13,
13,
15,
15,
25,
25,
32,
32,
26,
8,
8,
8,
14,
33,
33,
45,
44,
44,
46,
46,
38,
11,
12,
12,
18,
30,
29,
29,
25,
25,
18,
18,
10,
10,
2,
2,
8,
8,
4,
4,
1,
1,
5,
5,
2,
2,
0,
0,
1,
1,
5,
5,
6,
6,
4,
4,
4,
4,
4,
4,
1,
1,
8,
8,
14,
14,
14,
14,
6,
6,
0,
0,
5,
5,
10,
10,
12,
12,
10,
10,
4,
4,
6,
17,
16,
16,
15,
15,
10,
10,
12,
12,
10,
10,
2,
2,
6,
6,
13,
13,
20,
20,
17,
17,
9,
9,
2,
2,
0,
0,
4,
4,
2,
2,
3,
3,
7,
7,
8,
8,
5,
5,
6,
6,
2,
2,
6,
6,
6,
6,
1,
1,
4,
4,
9,
9,
13,
13,
6,
6,
4,
26,
26,
43,
43,
43,
38,
14,
14,
0,
0,
0,
5,
5,
8,
21,
20,
31,
30,
30,
30,
30,
22,
22,
15,
15,
9,
9,
2,
2,
5,
5,
9,
9,
10,
10,
14,
14,
12,
12,
10,
10,
7,
7,
6,
6,
8,
8,
9,
9,
13,
13,
17,
1,
3,
22,
21,
32,
31,
18,
19,
2,
3,
18,
17,
17,
18,
18,
10,
10,
1,
1,
3,
3,
10,
10,
4,
4,
8,
8,
16,
16,
15,
15,
9,
9,
5,
5,
6,
6,
5,
5,
1,
1,
4,
4,
4,
4,
8,
8,
10,
10,
6,
6,
3,
3,
-1,
-1,
-1,
-1,
0,
0,
1,
1,
2,
2,
0,
0,
0,
0,
4,
4,
9,
9,
9,
9,
7,
7,
6,
6,
1,
1,
5,
5,
9,
9,
12,
12,
10,
10,
11,
11,
10,
10,
2,
2,
10,
23,
23,
34,
34,
19,
20,
5,
6,
6,
1,
1,
3,
3,
7,
19,
18,
18,
22,
22,
20,
20,
17,
17,
10,
10,
9,
9,
7,
7,
0,
0,
8,
8,
15,
15,
20,
20,
20,
20,
13,
0,
1,
1,
9,
9,
9,
9,
3,
3,
-1,
-1,
3,
3,
7,
7,
9,
9,
5,
5,
4,
4,
6,
6,
5,
5,
0,
0,
9,
9,
14,
14,
14,
14,
10,
10,
1,
1,
8,
8,
9,
9,
3,
3,
1,
1,
1,
1,
2,
2,
2,
2,
2,
2,
11,
11,
20,
20,
23,
23,
17,
1,
5,
21,
21,
21,
24,
13,
13,
13,
5,
5,
5,
5,
0,
0,
4,
4,
5,
17,
16,
16,
22,
22,
12,
1,
6,
6,
8,
8,
-1,
-1,
2,
2,
0,
0,
5,
5,
12,
12,
18,
18,
17,
17,
10,
10,
2,
2,
2,
2,
5,
5,
7,
7,
8,
8,
6,
6,
0,
0,
0,
0,
5,
5,
8,
8,
10,
10,
10,
10,
5,
5,
0,
0,
0,
0,
3,
3,
3,
3,
1,
1,
9,
9,
17,
17,
14,
14,
10,
10,
5,
5,
0,
0,
5,
5,
12,
12,
17,
17,
18,
18,
18,
18,
13,
2,
3,
3,
6,
6,
16,
16,
17,
17,
13,
13,
13,
13,
7,
7,
0,
0,
0,
0,
0,
0,
1,
1,
2,
2,
5,
5,
7,
7,
3,
3,
2,
2,
7,
7,
4,
4,
-1,
-1,
-1,
-1,
1,
1,
0,
15,
14,
31,
30,
30,
37,
37,
31,
12,
13,
1,
2,
13,
13,
13,
17,
17,
13,
13,
19,
19,
21,
21,
24,
24,
25,
25,
22,
22,
14,
1,
2,
2,
7,
7,
14,
14,
14,
14,
16,
16,
16,
16,
15,
15,
12,
12,
9,
9,
4,
4,
0,
0,
1,
1,
1,
1,
3,
3,
6,
6,
4,
4,
2,
2,
0,
0,
7,
18,
17,
17,
14,
14,
6,
6,
2,
15,
14,
14,
18,
18,
13,
13,
5,
5,
1,
1,
0,
0,
2,
2,
2,
2,
4,
4,
4,
4,
1,
1,
2,
2,
10,
10,
9,
9,
4,
4,
2,
2,
4,
4,
5,
5,
6,
6,
5,
5,
1,
1,
2,
2,
4,
4,
-1,
-1,
0,
0,
0,
0,
1,
1,
0,
0,
0,
0,
6,
6,
9,
9,
17,
17,
25,
25,
20,
4,
5,
22,
21,
47,
46,
46,
56,
41,
41,
21,
21,
1,
4,
22,
22,
22,
30,
30,
26,
26,
30,
30,
37,
23,
24,
2,
3,
20,
20,
31,
30,
30,
25,
25,
18,
18,
8,
8,
4,
4,
10,
10,
7,
7,
4,
4,
2,
2,
9,
9,
1,
1,
8,
8,
4,
4,
2,
2,
4,
4,
0,
0,
0,
0,
-2,
-2,
0,
0,
2,
2,
6,
6,
2,
2,
0,
0,
3,
3,
8,
8,
8,
8,
5,
5,
5,
5,
11,
11,
13,
13,
12,
12,
6,
6,
4,
4,
9,
9,
10,
10,
14,
14,
16,
16,
14,
14,
9,
9,
6,
6,
5,
5,
1,
1,
2,
2,
5,
5,
6,
6,
11,
11,
16,
16,
10,
10,
2,
2,
-1,
-1,
-1,
-1,
3,
3,
1,
1,
1,
1,
4,
4,
5,
5,
2,
2,
6,
6,
6,
6,
8,
8,
10,
10,
7,
7,
4,
4,
2,
2,
1,
1,
6,
6,
4,
4,
2,
2,
5,
5,
8,
8,
10,
10,
14,
14,
14,
14,
11,
11,
2,
2,
8,
8,
16,
29,
28,
28,
24,
12,
13,
1,
4,
4,
13,
24,
24,
24,
22,
22,
14,
14,
5,
5,
2,
2,
1,
1,
5,
5,
14,
26,
26,
40,
38,
38,
42,
21,
21,
3,
11,
24,
23,
23,
23,
23,
17,
17,
15,
15,
19,
19,
17,
17,
14,
14,
11,
11,
5,
5,
1,
1,
6,
6,
11,
11,
12,
12,
11,
11,
12,
12,
10,
10,
5,
5,
-1,
-1,
0,
0,
1,
1,
4,
4,
4,
4,
4,
4,
0,
0,
5,
5,
10,
10,
12,
12,
8,
8,
2,
2,
12,
12,
20,
20,
14,
0,
0,
0,
4,
4,
4,
4,
5,
5,
2,
2,
6,
6,
3,
3,
8,
8,
13,
13,
10,
10,
6,
6,
4,
4,
5,
17,
16,
16,
14,
2,
3,
3,
7,
7,
14,
14,
13,
13,
6,
6,
2,
2,
2,
2,
6,
6,
10,
10,
9,
9,
6,
6,
3,
3,
0,
0,
5,
5,
2,
2,
0,
0,
0,
0,
4,
4,
6,
6,
0,
12,
10,
29,
29,
46,
46,
46,
42,
13,
14,
2,
12,
36,
36,
36,
44,
44,
40,
28,
28,
16,
16,
16,
7,
7,
1,
1,
5,
5,
6,
6,
6,
6,
1,
1,
6,
6,
6,
6,
5,
5,
13,
13,
18,
18,
21,
21,
21,
21,
21,
21,
18,
6,
7,
7,
0,
0,
4,
4,
6,
6,
6,
6,
8,
8,
8,
8,
6,
6,
6,
6,
8,
8,
9,
9,
6,
6,
2,
2,
-1,
-1,
2,
2,
6,
6,
10,
10,
9,
9,
7,
7,
0,
0,
5,
5,
7,
7,
6,
6,
0,
0,
2,
2,
4,
4,
4,
4,
0,
0,
-1,
-1,
2,
2,
3,
3,
6,
6,
11,
11,
8,
8,
0,
0,
5,
5,
8,
8,
9,
9,
9,
9,
9,
9,
11,
11,
13,
13,
17,
17,
8,
8,
3,
3,
2,
2,
2,
2,
0,
17,
17,
34,
34,
49,
49,
49,
50,
35,
36,
21,
21,
21,
14,
14,
4,
4,
12,
30,
30,
43,
42,
42,
40,
40,
37,
37,
36,
22,
23,
23,
18,
18,
18,
7,
8,
8,
0,
0,
6,
6,
12,
12,
17,
17,
17,
17,
20,
20,
25,
25,
29,
29,
25,
25,
17,
17,
12,
12,
12,
12,
8,
8,
1,
1,
7,
7,
13,
13,
15,
15,
15,
15,
14,
14,
13,
13,
9,
9,
5,
5,
0,
0,
8,
8,
8,
8,
4,
4,
1,
1,
5,
5,
6,
6,
4,
4,
2,
2,
0,
0,
7,
7,
16,
16,
20,
20,
16,
16,
10,
10,
1,
1,
6,
6,
7,
7,
8,
8,
12,
12,
12,
12,
10,
10,
10,
10,
2,
2,
2,
2,
9,
9,
15,
15,
16,
16,
8,
8,
0,
0,
9,
20,
20,
20,
28,
28,
26,
26,
22,
22,
19,
2,
3,
29,
28,
48,
47,
47,
49,
49,
54,
54,
60,
60,
58,
42,
42,
5,
6,
27,
26,
48,
48,
48,
57,
57,
64,
64,
61,
43,
43,
32,
32,
32,
27,
12,
12,
0,
2,
2,
7,
7,
14,
14,
23,
23,
28,
28,
28,
28,
27,
27,
26,
26,
22,
22,
19,
19,
14,
14,
10,
10,
6,
6,
2,
2,
0,
0,
2,
2,
3,
3,
7,
7,
8,
8,
8,
8,
6,
6,
9,
9,
12,
12,
14,
14,
13,
13,
9,
9,
2,
2,
1,
1,
5,
5,
8,
8,
8,
8,
5,
5,
1,
1,
0,
0,
2,
2,
6,
6,
6,
6,
10,
10,
10,
10,
8,
8,
1,
1,
2,
2,
5,
5,
2,
2,
2,
2,
5,
5,
7,
7,
6,
6,
8,
8,
8,
8,
0,
0,
4,
4,
4,
4,
1,
1,
3,
3,
2,
2,
1,
1,
0,
0,
5,
5,
8,
8,
5,
5,
2,
2,
1,
1,
8,
8,
13,
13,
15,
15,
14,
14,
9,
9,
3,
3,
1,
1,
2,
2,
0,
0,
1,
1,
5,
5,
5,
5,
2,
2,
4,
4,
9,
9,
10,
10,
12,
12,
21,
21,
29,
29,
27,
12,
12,
1,
10,
36,
35,
47,
46,
46,
52,
52,
56,
56,
47,
30,
31,
8,
8,
8,
9,
25,
25,
45,
45,
60,
60,
60,
61,
44,
44,
25,
26,
8,
8,
8,
4,
4,
12,
12,
13,
13,
12,
12,
14,
14,
16,
16,
16,
16,
18,
18,
16,
16,
14,
14,
14,
14,
11,
11,
5,
5,
3,
3,
10,
10,
12,
12,
4,
4,
-1,
-1,
1,
1,
0,
0,
2,
2,
4,
4,
4,
4,
0,
0,
2,
2,
1,
1,
0,
0,
-1,
-1,
-1,
-1,
1,
1,
5,
5,
7,
7,
5,
5,
1,
1,
2,
2,
0,
0,
5,
5,
5,
5,
2,
2,
0,
0,
6,
6,
8,
8,
6,
6,
7,
7,
8,
8,
2,
2,
0,
0,
4,
15,
15,
15,
22,
22,
24,
24,
17,
5,
6,
6,
11,
11,
20,
20,
25,
25,
24,
24,
21,
21,
21,
21,
18,
18,
13,
13,
5,
5,
1,
1,
6,
6,
8,
8,
8,
8,
10,
10,
14,
14,
17,
17,
17,
17,
15,
15,
11,
11,
6,
6,
4,
4,
3,
3,
2,
2,
2,
2,
10,
10,
17,
17,
25,
25,
30,
18,
20,
2,
2,
2,
9,
9,
16,
16,
16,
16,
9,
9,
12,
12,
20,
20,
26,
26,
28,
28,
31,
31,
25,
3,
6,
29,
29,
41,
40,
40,
39,
39,
34,
34,
26,
26,
18,
18,
13,
13,
8,
8,
0,
0,
6,
6,
11,
11,
16,
16,
19,
19,
18,
18,
14,
14,
10,
10,
5,
5,
5,
5,
10,
10,
13,
13,
8,
8,
2,
2,
1,
1,
5,
5,
6,
6,
6,
6,
4,
4,
3,
3,
5,
5,
7,
7,
9,
9,
8,
8,
9,
9,
5,
5,
2,
2,
-1,
-1,
7,
7,
14,
14,
19,
19,
14,
14,
7,
7,
1,
1,
2,
2,
5,
5,
2,
2,
-1,
-1,
-1,
-1,
0,
0,
2,
2,
2,
2,
3,
3,
1,
1,
0,
0,
1,
1,
2,
2,
2,
2,
2,
2,
1,
1,
1,
1,
5,
5,
5,
5,
2,
2,
0,
0,
-1,
-1,
-1,
-1,
0,
0,
0,
0,
1,
1,
4,
4,
7,
7,
5,
5,
2,
2,
0,
0,
7,
23,
22,
22,
27,
27,
21,
8,
9,
9,
2,
16,
16,
40,
40,
40,
44,
28,
28,
17,
18,
18,
21,
21,
21,
21,
14,
14,
9,
9,
7,
31,
30,
46,
46,
46,
53,
53,
50,
50,
41,
29,
30,
14,
14,
1,
2,
2,
12,
12,
18,
18,
20,
20,
24,
24,
27,
27,
27,
27,
23,
23,
17,
17,
11,
11,
8,
8,
4,
4,
2,
2,
0,
0,
2,
2,
3,
3,
4,
4,
4,
4,
6,
6,
6,
6,
6,
6,
4,
4,
1,
1,
1,
1,
1,
1,
-1,
-1,
1,
1,
1,
1,
1,
1,
3,
3,
-1,
-1,
5,
5,
9,
9,
6,
6,
1,
1,
1,
1,
4,
4,
7,
7,
4,
4,
1,
1,
2,
2,
1,
1,
-1,
-1,
2,
2,
9,
9,
9,
9,
6,
6,
3,
3,
0,
0,
0,
0,
-1,
-1,
0,
0,
-1,
-1,
0,
0,
1,
1,
0,
0,
-1,
-1,
0,
0,
2,
2,
2,
2,
2,
2,
4,
4,
0,
0,
0,
0,
1,
1,
3,
3,
4,
4,
1,
1,
4,
4,
4,
4,
1,
1,
2,
2,
3,
3,
0,
0,
1,
1,
4,
4,
3,
3,
3,
14,
13,
13,
18,
18,
15,
1,
2,
20,
20,
20,
25,
25,
26,
26,
22,
22,
15,
15,
8,
8,
3,
3,
12,
12,
15,
15,
16,
16,
17,
17,
14,
14,
11,
11,
8,
8,
5,
5,
1,
1,
1,
1,
4,
4,
6,
6,
9,
9,
10,
10,
10,
10,
9,
9,
6,
6,
6,
6,
4,
4,
2,
2,
0,
0,
1,
1,
3,
3,
4,
4,
2,
2,
2,
2,
2,
2,
0,
0,
0,
0,
2,
2,
-1,
-1,
1,
1,
0,
0,
0,
0,
-1,
-1,
2,
2,
2,
2,
0,
0,
1,
1,
0,
0,
0,
0,
0,
0,
2,
2,
6,
6,
8,
8,
10,
10,
9,
9,
4,
4,
0,
0,
1,
1,
5,
5,
9,
9,
9,
9,
8,
8,
5,
5,
3,
3,
1,
1,
0,
0,
0,
0,
1,
1,
1,
1,
2,
2,
5,
5,
5,
5,
6,
6,
5,
5,
3,
3,
1,
1,
0,
0,
0,
0,
0,
0,
-1,
-1,
0,
0,
0,
0,
1,
1,
2,
2,
1,
1,
1,
1,
1,
1,
1,
1,
-1,
-1,
0,
0,
2,
2,
2,
2,
0,
0,
0,
0,
0,
0,
0,
0,
1,
1,
2,
2,
3,
3,
5,
5,
2,
2,
0,
0,
2,
2,
4,
4,
5,
5,
4,
4,
4,
4,
3,
3,
-1,
-1,
0,
0,
0,
0,
1,
1,
2,
2,
5,
5,
4,
4,
1,
1,
3,
3,
1,
1,
2,
2,
2,
2,
2,
2,
0,
0,
2,
2,
4,
4,
3,
3,
2,
2,
-1,
-1,
0,
0,
1,
1,
2,
2,
3,
3,
2,
2,
4,
4,
5,
5,
1,
1,
1,
1,
1,
1,
1,
1,
2,
2,
4,
4,
4,
4,
1,
1,
1,
1,
-1,
-1,
-1,
-1,
1,
1,
1,
1,
1,
1,
2,
2,
2,
2,
2,
2,
1,
1,
1,
1,
1,
1,
0,
0,
-1,
-1,
0,
0,
0,
0,
-1,
-1,
0,
0,
-1,
-1,
0,
0,
0,
0,
0,
0,
0,
0,
-1,
-1,
-1,
-1,
0,
0,
-1,
-1,
-2,
-2,
0,
0,
0,
0,
-1,
-1,
-1,
-1,
0,
0,
1,
1,
1,
1,
0,
0,
0,
0,
0,
0,
-1,
-1,
0,
0,
-1,
-1,
0,
0,
-1,
-1,
0,
0,
-1,
-1,
-1,
-1,
0,
0,
1,
1,
2,
2,
2,
2,
2,
2,
1,
1,
1,
1,
4,
4,
5,
5,
5,
5,
4,
4,
5,
5,
3,
3,
0,
0,
0,
0,
0,
0,
0,
0,
1,
1,
