EMG_S2/DS0057.CSV

Memory Length,4000,
Trigger Level,-4.80000e+02,
Source,CH1,
Probe,1.0X,
Vertical Units,V,
Vertical Scale,1.00000e+00,
Vertical Position,0.00000e+00,
Horizontal Units,S,
Horizontal Scale,1.00000e-01,
Horizontal Position,0.0000000e+00,
Horizontal Mode,Roll Mode,
Waveform Last Dot Address,4000,
Sampling Period,4.00000e-04,
Firmware,V1.14,
Time, ,
Mode,Fast,
Waveform Data,
11,
11,
9,
9,
5,
5,
8,
8,
13,
13,
14,
14,
12,
12,
7,
7,
4,
4,
1,
1,
6,
6,
12,
12,
14,
14,
13,
13,
8,
8,
0,
0,
6,
6,
10,
10,
7,
7,
4,
4,
0,
0,
0,
0,
2,
2,
0,
0,
0,
0,
1,
1,
2,
2,
5,
5,
6,
6,
6,
6,
6,
6,
10,
10,
9,
9,
0,
0,
7,
7,
10,
10,
10,
10,
4,
4,
7,
18,
18,
18,
16,
16,
14,
14,
5,
5,
6,
20,
19,
19,
20,
20,
12,
12,
3,
3,
1,
1,
1,
1,
0,
0,
6,
6,
6,
6,
4,
4,
-1,
-1,
3,
3,
3,
3,
4,
4,
3,
3,
6,
6,
7,
7,
10,
10,
5,
5,
4,
4,
3,
3,
0,
0,
0,
0,
6,
6,
6,
6,
1,
1,
4,
4,
12,
12,
9,
9,
7,
7,
9,
9,
10,
10,
13,
1,
2,
2,
10,
21,
21,
33,
32,
44,
43,
43,
42,
19,
20,
3,
12,
27,
26,
26,
28,
28,
28,
28,
30,
30,
26,
26,
17,
17,
10,
10,
10,
10,
6,
6,
1,
1,
2,
2,
7,
7,
12,
12,
13,
13,
13,
13,
15,
15,
18,
18,
18,
18,
14,
14,
10,
10,
6,
6,
4,
4,
0,
0,
5,
5,
7,
7,
16,
16,
22,
36,
34,
34,
43,
32,
33,
3,
4,
32,
32,
45,
44,
44,
50,
50,
57,
44,
44,
25,
26,
11,
12,
1,
1,
1,
9,
26,
25,
42,
41,
41,
50,
50,
46,
35,
36,
36,
29,
29,
24,
13,
14,
1,
2,
2,
4,
4,
9,
9,
14,
14,
21,
21,
24,
24,
22,
22,
21,
21,
26,
26,
26,
26,
26,
26,
17,
1,
2,
2,
2,
15,
15,
15,
21,
21,
20,
20,
16,
16,
10,
10,
6,
6,
5,
5,
1,
14,
14,
14,
17,
17,
19,
19,
18,
18,
10,
-1,
1,
1,
5,
5,
6,
6,
5,
18,
17,
17,
18,
18,
14,
14,
12,
12,
8,
8,
9,
9,
10,
10,
8,
8,
1,
1,
2,
2,
6,
6,
7,
7,
10,
10,
16,
16,
24,
24,
26,
26,
21,
21,
17,
6,
6,
6,
3,
3,
7,
7,
4,
4,
1,
1,
4,
16,
15,
26,
26,
26,
26,
13,
14,
1,
2,
13,
12,
12,
6,
6,
1,
1,
7,
7,
16,
16,
15,
15,
9,
9,
0,
0,
3,
3,
7,
7,
8,
8,
9,
9,
4,
4,
13,
30,
29,
29,
26,
14,
14,
14,
4,
4,
1,
13,
12,
12,
22,
33,
32,
32,
37,
37,
31,
31,
28,
28,
19,
1,
2,
25,
24,
43,
43,
43,
46,
46,
50,
50,
42,
18,
19,
4,
12,
25,
23,
23,
21,
21,
15,
15,
8,
8,
2,
2,
9,
9,
12,
12,
12,
12,
12,
12,
3,
3,
2,
2,
2,
2,
5,
5,
2,
2,
6,
6,
10,
10,
10,
10,
8,
8,
0,
0,
4,
4,
11,
11,
4,
4,
-2,
-2,
5,
5,
12,
12,
6,
6,
2,
2,
11,
11,
15,
15,
13,
13,
12,
12,
15,
15,
13,
13,
8,
8,
3,
3,
0,
0,
3,
3,
13,
13,
14,
14,
15,
4,
4,
4,
6,
6,
9,
9,
4,
4,
11,
26,
26,
26,
29,
29,
22,
8,
9,
9,
3,
3,
5,
5,
1,
1,
1,
1,
10,
10,
17,
17,
16,
16,
10,
10,
5,
5,
3,
3,
10,
10,
13,
13,
9,
9,
7,
7,
9,
9,
9,
9,
2,
14,
13,
24,
24,
35,
35,
47,
2,
2,
5,
5,
3,
3,
6,
6,
7,
7,
2,
15,
13,
13,
18,
18,
18,
18,
13,
13,
8,
8,
2,
2,
1,
1,
0,
0,
5,
5,
12,
12,
19,
19,
15,
15,
10,
10,
5,
5,
1,
1,
2,
2,
0,
0,
2,
2,
2,
2,
2,
2,
5,
5,
6,
6,
10,
10,
13,
13,
10,
10,
6,
6,
2,
2,
0,
0,
2,
2,
4,
4,
6,
6,
6,
6,
4,
4,
2,
2,
1,
1,
6,
6,
2,
2,
6,
18,
17,
17,
15,
15,
12,
12,
10,
10,
6,
6,
6,
18,
17,
17,
18,
18,
12,
12,
4,
4,
4,
4,
9,
9,
7,
7,
2,
2,
0,
0,
2,
2,
2,
2,
3,
3,
4,
4,
5,
5,
4,
4,
2,
2,
-1,
-1,
1,
1,
3,
3,
6,
6,
7,
7,
5,
5,
6,
6,
6,
6,
5,
5,
1,
1,
-1,
-1,
-1,
-1,
1,
1,
1,
1,
0,
0,
2,
2,
2,
2,
0,
0,
4,
4,
5,
5,
4,
4,
3,
3,
1,
1,
1,
1,
6,
6,
9,
9,
12,
12,
10,
10,
4,
4,
0,
0,
4,
15,
14,
14,
18,
18,
16,
16,
19,
19,
15,
1,
3,
3,
10,
24,
24,
24,
27,
27,
18,
4,
4,
4,
4,
4,
8,
8,
6,
6,
4,
4,
6,
6,
15,
15,
11,
0,
2,
2,
12,
12,
20,
20,
14,
14,
6,
6,
0,
0,
6,
6,
10,
10,
7,
7,
2,
2,
0,
0,
0,
0,
0,
0,
0,
0,
0,
0,
2,
2,
0,
0,
3,
3,
2,
2,
3,
3,
0,
0,
0,
0,
1,
1,
2,
2,
5,
5,
6,
6,
9,
9,
10,
10,
6,
6,
2,
2,
1,
1,
5,
5,
8,
8,
5,
5,
0,
0,
2,
2,
0,
0,
0,
0,
0,
0,
0,
0,
-1,
-1,
0,
0,
2,
2,
5,
5,
1,
1,
0,
0,
0,
0,
0,
0,
1,
1,
-1,
-1,
0,
0,
0,
0,
2,
2,
3,
3,
2,
2,
3,
3,
2,
2,
0,
0,
5,
5,
7,
7,
10,
10,
12,
12,
6,
6,
2,
2,
7,
7,
10,
10,
13,
13,
10,
10,
8,
8,
3,
3,
2,
2,
3,
3,
1,
1,
0,
0,
0,
0,
1,
1,
1,
1,
3,
3,
1,
1,
-1,
-1,
1,
1,
1,
1,
2,
2,
0,
0,
3,
3,
4,
4,
4,
4,
6,
6,
6,
6,
4,
4,
3,
3,
1,
1,
-2,
-2,
-1,
-1,
0,
0,
1,
1,
6,
6,
6,
6,
5,
5,
1,
1,
2,
2,
6,
6,
9,
9,
7,
7,
2,
2,
1,
1,
5,
5,
1,
1,
0,
0,
2,
2,
7,
7,
9,
9,
6,
6,
4,
4,
14,
14,
17,
6,
6,
20,
20,
45,
45,
56,
42,
42,
42,
25,
25,
6,
7,
7,
10,
24,
23,
23,
27,
27,
24,
24,
22,
22,
21,
21,
21,
21,
18,
18,
10,
10,
4,
4,
1,
1,
2,
2,
5,
5,
7,
7,
12,
12,
13,
13,
13,
13,
12,
12,
9,
9,
8,
8,
7,
7,
6,
6,
4,
4,
1,
1,
0,
0,
1,
1,
0,
0,
0,
0,
0,
0,
0,
0,
1,
1,
2,
2,
4,
4,
6,
6,
4,
4,
2,
2,
6,
6,
10,
10,
6,
6,
1,
1,
6,
6,
8,
8,
4,
4,
2,
2,
-1,
-1,
2,
2,
6,
6,
16,
16,
18,
18,
10,
10,
6,
6,
15,
15,
13,
13,
6,
6,
4,
4,
2,
2,
2,
2,
0,
0,
3,
3,
4,
4,
4,
4,
0,
0,
1,
1,
2,
2,
0,
0,
-1,
-1,
1,
1,
1,
1,
2,
2,
3,
3,
3,
3,
2,
2,
3,
3,
3,
3,
4,
4,
1,
1,
2,
2,
1,
1,
0,
0,
0,
0,
-1,
-1,
0,
0,
2,
2,
1,
1,
0,
0,
0,
0,
0,
0,
1,
1,
1,
1,
2,
2,
4,
4,
2,
2,
4,
4,
0,
0,
4,
4,
14,
14,
18,
18,
20,
20,
22,
22,
17,
1,
2,
15,
14,
14,
17,
17,
20,
31,
29,
29,
39,
51,
50,
50,
46,
46,
45,
28,
29,
5,
10,
50,
50,
64,
63,
63,
64,
50,
52,
38,
38,
38,
31,
20,
21,
9,
9,
9,
4,
4,
13,
27,
27,
27,
33,
33,
30,
30,
26,
26,
23,
23,
20,
20,
14,
14,
10,
10,
5,
5,
0,
0,
1,
1,
4,
4,
5,
5,
6,
6,
7,
7,
5,
5,
3,
3,
2,
2,
1,
1,
1,
1,
1,
1,
1,
1,
2,
2,
2,
2,
0,
0,
0,
0,
3,
3,
5,
5,
6,
6,
2,
2,
1,
1,
1,
1,
3,
3,
2,
2,
4,
4,
1,
1,
0,
0,
2,
2,
2,
2,
5,
5,
2,
2,
0,
0,
2,
2,
2,
2,
-1,
-1,
0,
0,
0,
0,
0,
0,
1,
1,
6,
6,
9,
9,
6,
6,
-1,
-1,
2,
2,
1,
1,
1,
1,
3,
3,
4,
4,
3,
3,
2,
2,
1,
1,
3,
3,
4,
4,
10,
10,
14,
14,
8,
8,
0,
0,
5,
5,
9,
9,
7,
7,
2,
2,
10,
10,
13,
13,
8,
8,
1,
1,
8,
19,
19,
19,
26,
26,
33,
33,
28,
28,
21,
10,
10,
10,
2,
2,
11,
23,
22,
22,
25,
25,
29,
29,
26,
26,
22,
22,
16,
16,
11,
11,
6,
6,
5,
5,
10,
10,
12,
12,
12,
12,
7,
7,
9,
9,
12,
12,
12,
12,
11,
11,
10,
10,
9,
9,
10,
10,
5,
5,
1,
1,
6,
6,
6,
6,
9,
9,
10,
10,
10,
10,
7,
7,
2,
2,
2,
2,
9,
9,
10,
10,
8,
8,
3,
3,
2,
2,
5,
5,
7,
7,
6,
6,
5,
5,
1,
1,
0,
0,
1,
1,
6,
6,
5,
5,
0,
0,
0,
0,
-1,
-1,
-1,
-1,
-1,
-1,
0,
0,
1,
1,
1,
1,
1,
1,
0,
0,
-1,
-1,
1,
1,
3,
3,
2,
2,
1,
1,
4,
4,
1,
1,
-1,
-1,
0,
0,
0,
0,
1,
1,
1,
1,
2,
2,
2,
2,
4,
4,
2,
2,
1,
1,
0,
0,
1,
1,
3,
3,
3,
3,
1,
1,
1,
1,
1,
1,
4,
4,
2,
2,
4,
4,
3,
3,
0,
0,
0,
0,
4,
4,
8,
8,
7,
7,
3,
3,
1,
1,
0,
0,
0,
0,
0,
0,
0,
0,
1,
1,
0,
0,
2,
2,
4,
4,
3,
3,
0,
0,
4,
4,
6,
6,
6,
6,
7,
7,
8,
8,
9,
9,
12,
12,
11,
11,
8,
8,
4,
4,
6,
6,
14,
14,
18,
18,
14,
14,
12,
12,
6,
6,
2,
2,
0,
0,
0,
0,
1,
1,
1,
1,
1,
1,
4,
4,
2,
2,
2,
2,
10,
10,
13,
13,
11,
11,
6,
6,
8,
8,
5,
5,
5,
5,
2,
2,
0,
0,
1,
1,
5,
5,
8,
8,
5,
5,
1,
1,
4,
4,
9,
9,
1,
1,
5,
5,
7,
7,
8,
8,
9,
9,
9,
9,
5,
5,
1,
12,
12,
12,
16,
4,
4,
4,
4,
4,
2,
2,
0,
0,
1,
1,
0,
0,
1,
1,
1,
1,
-1,
-1,
2,
2,
4,
4,
4,
4,
2,
2,
4,
4,
3,
3,
1,
1,
0,
0,
-1,
-1,
0,
0,
0,
0,
1,
1,
2,
2,
8,
8,
9,
9,
8,
8,
4,
4,
0,
0,
8,
8,
12,
12,
16,
16,
10,
10,
6,
6,
5,
5,
4,
4,
4,
4,
7,
7,
6,
6,
1,
1,
8,
8,
16,
16,
21,
21,
22,
22,
21,
21,
16,
16,
10,
10,
1,
1,
3,
3,
9,
9,
13,
13,
17,
17,
18,
18,
17,
17,
13,
13,
8,
8,
5,
5,
1,
1,
0,
0,
3,
3,
5,
5,
1,
1,
2,
2,
3,
3,
4,
4,
3,
3,
1,
1,
1,
1,
-1,
-1,
-1,
-1,
0,
0,
5,
5,
2,
2,
2,
2,
6,
6,
10,
10,
8,
8,
4,
4,
1,
1,
4,
4,
5,
5,
1,
1,
0,
0,
0,
0,
1,
1,
1,
1,
1,
1,
2,
2,
1,
1,
2,
2,
0,
0,
0,
0,
4,
4,
7,
7,
2,
2,
0,
0,
1,
1,
4,
4,
8,
8,
9,
9,
5,
5,
1,
1,
0,
0,
0,
0,
2,
2,
2,
2,
2,
2,
5,
5,
6,
6,
8,
8,
2,
2,
2,
2,
2,
2,
2,
2,
5,
5,
5,
5,
7,
7,
9,
9,
10,
10,
9,
9,
6,
6,
1,
1,
1,
1,
6,
6,
9,
9,
10,
10,
11,
11,
13,
13,
10,
10,
5,
5,
2,
2,
8,
8,
12,
12,
13,
13,
13,
13,
9,
9,
0,
0,
6,
6,
9,
9,
7,
7,
1,
1,
2,
2,
0,
0,
0,
0,
0,
0,
-1,
-1,
1,
1,
0,
0,
1,
1,
-1,
-1,
1,
1,
0,
0,
4,
4,
6,
6,
3,
3,
0,
0,
2,
2,
9,
9,
8,
8,
2,
2,
2,
2,
0,
0,
1,
1,
1,
1,
2,
2,
7,
7,
10,
10,
12,
12,
12,
12,
9,
9,
5,
5,
0,
0,
0,
0,
3,
3,
8,
8,
9,
9,
9,
9,
8,
8,
5,
5,
0,
0,
0,
0,
-1,
-1,
0,
0,
0,
0,
-1,
-1,
2,
2,
0,
0,
0,
0,
1,
1,
5,
5,
8,
8,
6,
6,
1,
1,
5,
5,
8,
8,
9,
9,
8,
8,
5,
5,
2,
2,
1,
1,
2,
2,
0,
0,
2,
2,
3,
3,
2,
2,
2,
2,
3,
3,
3,
3,
3,
3,
1,
1,
0,
0,
0,
0,
-1,
-1,
1,
1,
0,
0,
5,
5,
4,
4,
2,
2,
0,
0,
0,
0,
1,
1,
2,
2,
0,
0,
0,
0,
1,
1,
1,
1,
2,
2,
7,
7,
12,
12,
18,
18,
18,
7,
7,
7,
5,
5,
14,
14,
18,
18,
24,
36,
35,
35,
44,
44,
45,
45,
41,
30,
31,
4,
5,
29,
29,
50,
50,
50,
58,
58,
58,
58,
52,
37,
37,
22,
23,
9,
10,
10,
3,
3,
8,
8,
15,
15,
20,
20,
22,
22,
22,
22,
22,
22,
23,
23,
21,
21,
15,
15,
12,
12,
10,
10,
5,
5,
1,
1,
1,
1,
2,
2,
5,
5,
5,
5,
6,
6,
6,
6,
7,
7,
7,
7,
5,
5,
3,
3,
3,
3,
0,
0,
0,
0,
-1,
-1,
0,
0,
-1,
-1,
0,
0,
4,
4,
3,
3,
1,
1,
4,
4,
5,
5,
2,
2,
2,
2,
5,
5,
4,
4,
4,
4,
7,
7,
13,
13,
16,
16,
21,
21,
30,
30,
36,
36,
38,
23,
23,
3,
9,
32,
31,
42,
42,
42,
42,
42,
36,
25,
26,
15,
17,
6,
7,
7,
1,
1,
2,
2,
2,
2,
5,
5,
6,
6,
8,
8,
8,
8,
9,
9,
8,
8,
11,
11,
12,
12,
15,
15,
14,
14,
8,
8,
4,
4,
3,
3,
2,
2,
1,
1,
4,
4,
9,
9,
10,
10,
12,
12,
12,
12,
5,
5,
0,
0,
0,
0,
0,
0,
1,
1,
1,
1,
1,
1,
-1,
-1,
-1,
-1,
-1,
-1,
1,
1,
0,
0,
4,
4,
1,
1,
2,
2,
0,
0,
0,
0,
1,
1,
1,
1,
1,
1,
0,
0,
-1,
-1,
-1,
-1,
-1,
-1,
0,
0,
0,
0,
-1,
-1,
0,
0,
2,
2,
2,
2,
0,
0,
1,
1,
0,
0,
2,
2,
0,
0,
1,
1,
0,
0,
0,
0,
1,
1,
1,
1,
-1,
-1,
-1,
-1,
-1,
-1,
0,
0,
0,
0,
-1,
-1,
-1,
-1,
0,
0,
0,
0,
1,
1,
2,
2,
2,
2,
-1,
-1,
1,
1,
2,
2,
3,
3,
4,
4,
5,
5,
6,
6,
8,
8,
2,
2,
6,
17,
17,
17,
26,
26,
31,
31,
35,
18,
20,
1,
5,
19,
19,
19,
28,
28,
28,
28,
20,
20,
14,
14,
10,
10,
8,
8,
2,
2,
-1,
-1,
1,
1,
2,
2,
5,
5,
10,
10,
12,
12,
11,
11,
9,
9,
7,
7,
5,
5,
3,
3,
1,
1,
1,
1,
0,
0,
4,
4,
5,
5,
6,
6,
6,
6,
2,
2,
2,
2,
4,
4,
2,
2,
0,
0,
1,
1,
-1,
-1,
5,
5,
8,
8,
6,
6,
0,
0,
4,
4,
12,
12,
14,
14,
10,
10,
6,
6,
1,
1,
10,
10,
18,
18,
17,
17,
8,
8,
4,
4,
1,
1,
0,
0,
1,
1,
3,
3,
9,
9,
11,
11,
11,
11,
5,
5,
2,
2,
2,
2,
3,
3,
0,
0,
8,
8,
5,
5,
0,
0,
1,
1,
2,
2,
8,
8,
16,
28,
27,
27,
29,
18,
18,
4,
5,
5,
2,
2,
8,
8,
17,
17,
24,
24,
25,
25,
24,
24,
20,
20,
12,
12,
4,
4,
0,
0,
0,
0,
1,
1,
5,
5,
8,
8,
8,
8,
7,
7,
10,
10,
12,
12,
10,
10,
9,
9,
7,
7,
6,
6,
5,
5,
2,
2,
0,
0,
5,
5,
7,
7,
5,
5,
4,
4,
4,
4,
4,
4,
1,
1,
1,
1,
-1,
-1,
0,
0,
1,
1,
1,
1,
0,
0,
0,
0,
0,
0,
0,
0,
2,
2,
2,
2,
-1,
-1,
0,
0,
3,
3,
0,
0,
0,
0,
1,
1,
0,
0,
0,
0,
1,
1,
0,
0,
-1,
-1,
-1,
-1,
1,
1,
1,
1,
0,
0,
1,
1,
2,
2,
1,
1,
1,
1,
-1,
-1,
-2,
-2,
1,
1,
5,
5,
2,
2,
1,
1,
5,
5,
7,
7,
9,
9,
4,
4,
0,
0,
2,
2,
4,
4,
2,
2,
-1,
-1,
0,
0,
1,
1,
0,
0,
0,
0,
1,
1,
2,
2,
2,
2,
1,
1,
2,
2,
6,
6,
6,
6,
2,
2,
1,
1,
-1,
-1,
1,
1,
2,
2,
0,
0,
-1,
-1,
0,
0,
1,
1,
2,
2,
5,
5,
4,
4,
2,
2,
0,
0,
-2,
-2,
3,
3,
7,
7,
6,
6,
2,
2,
-1,
-1,
-1,
-1,
0,
0,
0,
0,
5,
5,
6,
6,
5,
5,
1,
1,
2,
2,
2,
2,
2,
2,
1,
1,
2,
2,
5,
5,
6,
6,
8,
8,
6,
6,
0,
0,
-1,
-1,
2,
2,
2,
2,
1,
1,
1,
1,
-1,
-1,
0,
0,
3,
3,
6,
6,
8,
8,
10,
10,
10,
10,
8,
8,
4,
4,
4,
4,
2,
2,
2,
2,
6,
6,
4,
4,
4,
4,
8,
8,
6,
6,
4,
4,
2,
2,
6,
6,
11,
11,
9,
9,
9,
9,
1,
13,
12,
27,
26,
26,
28,
17,
18,
18,
9,
9,
0,
0,
7,
7,
14,
14,
18,
18,
14,
14,
13,
13,
10,
10,
5,
5,
2,
2,
2,
2,
0,
0,
2,
2,
7,
7,
8,
8,
10,
10,
10,
10,
11,
11,
10,
10,
5,
5,
1,
1,
4,
4,
5,
5,
2,
2,
1,
1,
0,
0,
2,
2,
8,
8,
6,
6,
3,
3,
12,
12,
14,
14,
12,
12,
4,
4,
1,
1,
2,
2,
5,
5,
2,
2,
0,
0,
1,
1,
1,
1,
-1,
-1,
2,
2,
0,
0,
0,
0,
0,
0,
7,
7,
12,
12,
12,
12,
6,
6,
-1,
-1,
1,
1,
1,
1,
0,
0,
4,
4,
4,
4,
4,
4,
3,
3,
0,
0,
1,
1,
0,
0,
1,
1,
5,
5,
3,
3,
-1,
-1,
2,
2,
6,
6,
6,
6,
9,
9,
9,
9,
10,
10,
2,
2,
1,
1,
1,
1,
3,
3,
4,
4,
6,
6,
6,
6,
5,
5,
4,
4,
2,
2,
-1,
-1,
-1,
-1,
5,
5,
5,
5,
1,
1,
3,
3,
2,
2,
0,
0,
-2,
-2,
1,
1,
5,
5,
7,
7,
6,
6,
1,
1,
-1,
-1,
-1,
-1,
2,
2,
5,
5,
6,
6,
5,
5,
6,
6,
2,
2,
1,
1,
9,
9,
12,
12,
10,
10,
8,
8,
3,
3,
5,
5,
13,
13,
12,
12,
9,
9,
10,
10,
8,
8,
0,
0,
0,
0,
1,
1,
6,
6,
5,
5,
8,
8,
14,
14,
18,
18,
18,
18,
10,
10,
2,
2,
7,
7,
8,
8,
10,
10,
11,
11,
12,
12,
13,
13,
12,
12,
6,
6,
2,
2,
3,
3,
9,
9,
14,
14,
16,
16,
14,
14,
11,
11,
8,
8,
1,
1,
10,
10,
13,
13,
8,
8,
2,
2,
0,
0,
0,
0,
0,
0,
1,
1,
3,
3,
2,
2,
5,
5,
9,
9,
2,
2,
5,
5,
5,
5,
1,
1,
0,
0,
0,
0,
1,
1,
4,
4,
6,
6,
1,
1,
3,
3,
2,
2,
-1,
-1,
0,
0,
1,
1,
0,
0,
3,
3,
4,
4,
0,
0,
6,
6,
12,
12,
14,
14,
9,
9,
4,
4,
2,
2,
0,
0,
5,
5,
10,
10,
7,
7,
2,
2,
0,
0,
0,
0,
4,
4,
9,
9,
10,
10,
3,
3,
0,
0,
4,
4,
6,
6,
6,
6,
5,
5,
6,
6,
6,
6,
6,
6,
2,
2,
1,
1,
3,
3,
1,
1,
1,
1,
2,
2,
6,
6,
7,
7,
6,
6,
2,
2,
10,
10,
12,
12,
14,
14,
18,
7,
10,
10,
1,
1,
4,
4,
8,
8,
12,
12,
15,
15,
16,
16,
14,
14,
8,
8,
6,
6,
5,
5,
4,
4,
6,
6,
8,
8,
16,
16,
26,
26,
32,
32,
24,
9,
10,
10,
6,
17,
17,
17,
25,
25,
24,
2,
4,
4,
9,
9,
1,
1,
7,
7,
11,
11,
8,
8,
1,
1,
4,
4,
1,
1,
-1,
-1,
2,
2,
2,
2,
3,
3,
11,
11,
15,
15,
16,
16,
6,
6,
4,
4,
9,
9,
5,
5,
7,
7,
10,
10,
1,
1,
6,
6,
8,
8,
12,
12,
14,
14,
10,
10,
1,
1,
6,
18,
17,
36,
36,
36,
37,
26,
27,
11,
12,
0,
1,
12,
11,
39,
39,
63,
63,
63,
64,
64,
64,
38,
38,
4,
4,
28,
28,
44,
43,
43,
44,
44,
43,
43,
46,
46,
47,
47,
38,
24,
25,
14,
16,
16,
8,
8,
2,
13,
12,
12,
20,
20,
26,
26,
32,
32,
32,
32,
26,
15,
15,
15,
10,
10,
12,
12,
16,
16,
17,
17,
14,
14,
7,
7,
1,
1,
5,
5,
7,
7,
11,
11,
18,
18,
25,
25,
26,
26,
23,
23,
19,
8,
8,
8,
3,
14,
13,
13,
10,
10,
10,
10,
14,
14,
18,
18,
8,
8,
2,
2,
8,
8,
9,
9,
4,
4,
2,
2,
8,
8,
5,
5,
2,
13,
13,
13,
14,
14,
5,
5,
5,
16,
15,
15,
18,
18,
9,
9,
5,
5,
7,
7,
8,
8,
6,
6,
6,
6,
1,
12,
11,
24,
23,
23,
26,
26,
21,
9,
10,
10,
2,
2,
7,
7,
16,
16,
15,
15,
10,
10,
5,
5,
2,
2,
1,
1,
6,
6,
10,
10,
6,
6,
5,
5,
5,
5,
5,
5,
12,
12,
11,
11,
8,
8,
4,
4,
2,
2,
6,
6,
5,
5,
2,
2,
4,
4,
8,
8,
2,
15,
14,
14,
20,
20,
16,
5,
6,
6,
14,
33,
32,
46,
45,
58,
58,
58,
57,
37,
38,
6,
6,
6,
14,
42,
42,
56,
55,
55,
50,
50,
46,
46,
50,
50,
42,
29,
29,
15,
17,
4,
4,
4,
7,
7,
15,
26,
25,
25,
27,
27,
25,
25,
32,
44,
43,
54,
54,
54,
52,
33,
34,
18,
18,
3,
4,
15,
14,
33,
32,
44,
44,
44,
46,
46,
44,
44,
40,
26,
26,
7,
8,
8,
6,
6,
12,
12,
13,
13,
20,
20,
17,
17,
15,
15,
17,
17,
9,
9,
9,
9,
10,
10,
6,
6,
2,
2,
0,
0,
3,
3,
9,
9,
10,
10,
9,
9,
7,
7,
8,
8,
10,
10,
8,
8,
1,
1,
8,
8,
12,
12,
11,
11,
6,
6,
2,
2,
2,
2,
2,
2,
-1,
-1,
1,
1,
0,
0,
0,
0,
2,
13,
13,
13,
18,
18,
17,
17,
17,
5,
6,
6,
8,
26,
25,
37,
36,
36,
44,
44,
44,
23,
23,
1,
2,
2,
12,
12,
20,
20,
28,
28,
33,
33,
31,
31,
22,
22,
16,
16,
11,
11,
5,
5,
0,
0,
4,
4,
6,
6,
8,
8,
10,
10,
14,
14,
14,
14,
11,
11,
6,
6,
2,
2,
5,
5,
2,
14,
14,
14,
21,
21,
14,
14,
10,
10,
8,
8,
1,
1,
8,
8,
