EMG_S2/DS0065.CSV

Memory Length,4000,
Trigger Level,-4.80000e+02,
Source,CH1,
Probe,1.0X,
Vertical Units,V,
Vertical Scale,1.00000e+00,
Vertical Position,0.00000e+00,
Horizontal Units,S,
Horizontal Scale,1.00000e-01,
Horizontal Position,0.0000000e+00,
Horizontal Mode,Roll Mode,
Waveform Last Dot Address,4000,
Sampling Period,4.00000e-04,
Firmware,V1.14,
Time, ,
Mode,Fast,
Waveform Data,
60,
60,
63,
63,
55,
9,
5,
5,
1,
1,
2,
2,
3,
3,
0,
0,
4,
4,
4,
4,
-1,
-1,
1,
1,
6,
6,
7,
7,
12,
12,
11,
11,
4,
4,
5,
5,
7,
7,
1,
1,
9,
9,
4,
4,
1,
1,
1,
1,
-1,
-1,
2,
2,
7,
7,
10,
10,
9,
9,
1,
1,
10,
10,
12,
12,
2,
2,
6,
6,
12,
12,
13,
13,
6,
6,
1,
1,
3,
3,
4,
4,
6,
6,
6,
6,
3,
3,
0,
0,
9,
9,
16,
16,
13,
13,
9,
9,
5,
5,
2,
2,
3,
3,
4,
4,
4,
4,
2,
2,
4,
4,
10,
10,
14,
14,
13,
13,
9,
9,
8,
8,
6,
6,
0,
0,
7,
7,
8,
8,
11,
11,
16,
16,
17,
17,
14,
14,
9,
9,
5,
5,
1,
1,
2,
2,
5,
5,
7,
7,
6,
6,
6,
6,
8,
8,
6,
6,
2,
2,
6,
6,
13,
13,
14,
14,
11,
11,
3,
3,
0,
0,
0,
11,
11,
11,
8,
8,
8,
22,
21,
21,
15,
15,
24,
24,
25,
4,
5,
31,
31,
56,
55,
44,
44,
8,
8,
25,
25,
36,
34,
34,
29,
29,
20,
20,
13,
1,
3,
3,
4,
4,
2,
2,
0,
0,
-1,
-1,
1,
1,
6,
6,
8,
8,
11,
11,
12,
12,
8,
8,
4,
4,
0,
0,
6,
6,
9,
9,
14,
14,
20,
6,
6,
19,
18,
18,
25,
39,
39,
62,
59,
39,
40,
10,
11,
11,
5,
25,
25,
14,
14,
14,
14,
14,
20,
20,
29,
29,
32,
32,
34,
34,
30,
17,
18,
4,
5,
5,
2,
2,
2,
2,
9,
9,
17,
17,
19,
19,
18,
18,
18,
18,
15,
15,
9,
9,
6,
6,
8,
8,
7,
7,
5,
5,
4,
4,
-1,
-1,
0,
0,
1,
1,
2,
2,
5,
5,
6,
6,
5,
5,
2,
2,
-1,
-1,
0,
0,
2,
2,
4,
4,
2,
2,
2,
2,
-1,
-1,
-1,
-1,
1,
1,
2,
2,
1,
1,
2,
2,
2,
2,
0,
0,
-1,
-1,
0,
0,
0,
0,
-1,
-1,
6,
6,
8,
8,
0,
0,
2,
2,
4,
4,
4,
4,
5,
5,
9,
9,
10,
10,
2,
2,
10,
10,
7,
7,
7,
7,
14,
14,
21,
21,
19,
5,
5,
5,
5,
5,
14,
14,
21,
21,
22,
22,
17,
17,
8,
8,
0,
0,
6,
6,
8,
8,
6,
6,
2,
2,
3,
3,
6,
6,
2,
2,
2,
2,
0,
0,
9,
9,
13,
13,
12,
1,
1,
17,
17,
34,
33,
45,
45,
45,
49,
49,
48,
34,
34,
8,
8,
8,
2,
2,
9,
21,
21,
39,
38,
56,
55,
55,
62,
62,
55,
40,
40,
25,
26,
26,
17,
17,
8,
8,
7,
27,
27,
43,
43,
43,
48,
48,
32,
32,
33,
22,
23,
23,
18,
7,
7,
7,
1,
1,
4,
4,
6,
6,
5,
5,
8,
8,
12,
12,
17,
17,
14,
14,
6,
6,
3,
3,
10,
10,
8,
8,
5,
5,
5,
5,
8,
8,
6,
6,
4,
4,
0,
11,
10,
10,
18,
18,
14,
1,
3,
3,
11,
11,
13,
13,
12,
12,
9,
9,
5,
5,
1,
1,
1,
1,
4,
4,
7,
7,
6,
6,
4,
4,
1,
1,
2,
2,
0,
0,
5,
5,
4,
4,
1,
1,
6,
6,
9,
9,
9,
9,
6,
6,
1,
1,
5,
5,
4,
4,
5,
5,
10,
10,
14,
14,
8,
8,
1,
1,
6,
6,
9,
9,
2,
14,
14,
33,
32,
32,
41,
41,
35,
13,
14,
2,
8,
23,
22,
22,
29,
29,
32,
32,
31,
31,
28,
14,
14,
1,
3,
15,
15,
30,
29,
29,
35,
35,
33,
17,
18,
1,
2,
2,
8,
8,
10,
10,
10,
10,
8,
8,
5,
5,
4,
4,
4,
4,
2,
2,
-1,
-1,
-1,
-1,
0,
0,
3,
3,
2,
2,
1,
1,
2,
2,
2,
2,
-1,
-1,
0,
0,
0,
0,
0,
0,
-1,
-1,
-1,
-1,
6,
6,
9,
9,
8,
8,
7,
7,
2,
2,
-1,
-1,
-1,
-1,
2,
2,
5,
5,
1,
1,
0,
0,
6,
6,
15,
15,
20,
20,
18,
5,
5,
5,
13,
25,
25,
25,
30,
30,
27,
13,
13,
1,
2,
2,
10,
10,
13,
13,
13,
13,
8,
8,
3,
3,
2,
2,
5,
5,
3,
14,
13,
13,
19,
19,
24,
24,
22,
10,
10,
10,
14,
46,
45,
64,
63,
63,
65,
43,
43,
5,
6,
26,
26,
26,
34,
34,
37,
37,
34,
34,
32,
32,
30,
30,
26,
11,
11,
11,
2,
17,
16,
30,
29,
44,
44,
44,
49,
31,
32,
9,
9,
9,
10,
23,
23,
23,
26,
26,
22,
22,
18,
18,
13,
13,
8,
8,
4,
4,
-1,
-1,
3,
3,
8,
8,
11,
11,
12,
12,
12,
12,
11,
11,
10,
10,
7,
7,
4,
4,
1,
1,
0,
0,
1,
1,
2,
2,
3,
3,
4,
4,
4,
4,
3,
3,
2,
2,
2,
2,
1,
1,
1,
1,
0,
0,
1,
1,
-1,
-1,
-1,
-1,
0,
0,
1,
1,
2,
2,
2,
2,
2,
2,
2,
2,
-1,
-1,
3,
3,
7,
7,
2,
2,
0,
0,
-1,
-1,
1,
1,
3,
3,
1,
1,
7,
7,
14,
14,
21,
21,
21,
7,
9,
9,
3,
3,
13,
13,
20,
20,
16,
16,
6,
6,
3,
3,
9,
9,
8,
8,
2,
2,
2,
2,
10,
10,
10,
10,
2,
16,
15,
15,
20,
20,
14,
14,
9,
9,
0,
0,
4,
4,
6,
6,
14,
14,
9,
9,
0,
0,
3,
3,
4,
4,
2,
2,
2,
2,
1,
1,
1,
1,
1,
1,
4,
4,
8,
8,
10,
10,
6,
6,
2,
2,
6,
6,
2,
2,
0,
0,
5,
5,
7,
7,
3,
3,
2,
2,
1,
1,
0,
0,
4,
4,
11,
11,
17,
17,
16,
5,
5,
5,
12,
24,
23,
23,
25,
25,
21,
21,
17,
17,
12,
12,
7,
7,
4,
4,
-1,
-1,
3,
3,
6,
6,
10,
10,
14,
14,
17,
17,
19,
19,
19,
19,
17,
17,
8,
8,
3,
3,
10,
10,
10,
10,
9,
9,
7,
7,
3,
3,
1,
1,
1,
1,
0,
0,
0,
0,
0,
0,
3,
3,
2,
2,
0,
0,
-1,
-1,
0,
0,
-1,
-1,
0,
0,
1,
1,
-1,
-1,
-1,
-1,
2,
2,
4,
4,
6,
6,
3,
3,
5,
5,
8,
8,
13,
13,
16,
16,
10,
10,
4,
4,
4,
18,
17,
17,
22,
22,
13,
13,
4,
4,
0,
0,
5,
5,
14,
14,
9,
9,
6,
6,
13,
13,
18,
18,
14,
14,
8,
8,
9,
9,
5,
20,
20,
20,
24,
24,
21,
21,
13,
13,
8,
8,
9,
9,
13,
13,
13,
13,
7,
7,
2,
2,
6,
17,
15,
15,
22,
22,
26,
26,
18,
18,
16,
16,
22,
22,
20,
2,
2,
2,
11,
11,
17,
17,
17,
17,
15,
15,
13,
13,
10,
10,
4,
4,
0,
0,
0,
0,
-1,
-1,
4,
4,
4,
4,
2,
2,
1,
1,
6,
6,
14,
14,
22,
22,
25,
25,
18,
18,
9,
9,
1,
1,
6,
6,
6,
6,
0,
0,
3,
3,
8,
8,
12,
12,
13,
13,
10,
10,
9,
9,
6,
6,
3,
3,
0,
0,
5,
5,
9,
9,
5,
5,
2,
2,
6,
6,
8,
8,
2,
2,
6,
20,
20,
20,
27,
27,
29,
29,
26,
12,
12,
12,
2,
2,
1,
1,
3,
3,
12,
12,
16,
16,
20,
20,
22,
22,
22,
22,
17,
17,
10,
10,
4,
4,
4,
4,
5,
5,
3,
3,
-1,
-1,
4,
22,
21,
21,
29,
29,
30,
30,
30,
30,
24,
12,
12,
1,
5,
21,
20,
20,
25,
25,
18,
18,
12,
12,
7,
7,
1,
1,
2,
2,
8,
8,
6,
6,
6,
6,
2,
2,
-1,
-1,
2,
2,
4,
4,
9,
9,
16,
16,
14,
14,
5,
5,
0,
11,
10,
22,
22,
22,
29,
29,
34,
34,
37,
37,
33,
14,
15,
4,
22,
44,
42,
42,
45,
45,
39,
28,
29,
29,
20,
6,
6,
6,
3,
3,
6,
6,
9,
9,
14,
14,
17,
17,
16,
16,
14,
14,
13,
13,
11,
11,
8,
8,
9,
9,
5,
5,
2,
13,
12,
12,
14,
14,
13,
13,
14,
14,
13,
13,
6,
6,
1,
1,
1,
13,
13,
30,
29,
40,
40,
40,
42,
42,
40,
21,
21,
4,
12,
37,
37,
37,
46,
46,
41,
30,
30,
30,
24,
24,
20,
20,
13,
2,
4,
4,
3,
3,
6,
6,
10,
10,
14,
14,
18,
18,
19,
19,
18,
18,
15,
15,
12,
12,
8,
8,
6,
6,
3,
3,
-1,
-1,
1,
1,
1,
1,
2,
2,
6,
6,
11,
11,
10,
-1,
0,
0,
4,
4,
4,
4,
-1,
-1,
2,
2,
6,
6,
7,
7,
4,
4,
2,
2,
1,
1,
2,
2,
5,
5,
4,
4,
1,
13,
13,
13,
21,
21,
20,
20,
10,
10,
2,
2,
9,
9,
10,
10,
9,
9,
9,
9,
12,
12,
16,
16,
15,
15,
10,
10,
5,
5,
-1,
15,
15,
46,
45,
64,
64,
64,
62,
62,
53,
31,
32,
4,
5,
30,
30,
56,
56,
56,
64,
64,
65,
65,
58,
39,
40,
19,
20,
4,
5,
5,
2,
2,
12,
12,
18,
18,
25,
25,
30,
30,
31,
31,
31,
31,
29,
29,
21,
21,
12,
12,
3,
3,
0,
0,
2,
2,
10,
10,
18,
18,
12,
12,
5,
5,
10,
10,
18,
18,
12,
1,
8,
29,
28,
28,
33,
33,
26,
2,
4,
16,
15,
15,
20,
20,
10,
10,
9,
23,
22,
22,
28,
28,
18,
1,
2,
18,
17,
29,
28,
28,
31,
31,
22,
2,
5,
18,
17,
5,
5,
5,
11,
11,
17,
17,
10,
10,
4,
4,
13,
13,
19,
19,
18,
18,
14,
14,
9,
9,
4,
4,
-1,
-1,
5,
5,
8,
8,
10,
10,
11,
11,
11,
11,
9,
9,
4,
4,
0,
0,
1,
1,
3,
3,
6,
6,
6,
6,
2,
2,
-1,
-1,
4,
4,
3,
3,
4,
4,
6,
6,
5,
5,
1,
1,
2,
2,
2,
2,
0,
0,
-1,
-1,
-1,
-1,
-1,
-1,
0,
0,
-2,
-2,
-1,
-1,
0,
0,
3,
3,
4,
4,
2,
2,
1,
1,
1,
1,
0,
0,
-2,
-2,
-1,
-1,
-2,
-2,
0,
0,
1,
1,
0,
0,
-1,
-1,
-2,
-2,
0,
0,
1,
1,
-1,
-1,
1,
1,
1,
1,
3,
3,
2,
2,
0,
0,
-1,
-1,
0,
0,
1,
1,
1,
1,
2,
2,
6,
6,
8,
8,
8,
8,
3,
3,
-1,
-1,
-1,
-1,
3,
3,
4,
4,
2,
2,
1,
1,
7,
7,
1,
1,
2,
2,
8,
8,
16,
16,
13,
2,
3,
3,
2,
2,
6,
6,
15,
15,
22,
22,
26,
26,
21,
10,
11,
11,
5,
18,
18,
18,
24,
24,
28,
28,
25,
25,
18,
18,
9,
9,
2,
2,
7,
25,
25,
25,
27,
13,
13,
2,
11,
36,
35,
47,
47,
36,
36,
6,
8,
56,
55,
55,
63,
63,
64,
64,
64,
35,
35,
10,
30,
61,
60,
60,
63,
63,
64,
64,
64,
64,
58,
38,
39,
24,
25,
10,
10,
10,
2,
13,
12,
26,
25,
25,
34,
34,
36,
36,
36,
36,
33,
33,
32,
32,
30,
30,
22,
22,
12,
12,
2,
2,
2,
2,
6,
6,
8,
8,
9,
9,
10,
10,
10,
10,
8,
8,
10,
10,
8,
8,
5,
5,
2,
2,
1,
1,
2,
2,
4,
4,
0,
0,
2,
2,
0,
0,
0,
0,
1,
1,
0,
0,
1,
1,
3,
3,
3,
3,
2,
2,
4,
4,
4,
4,
2,
2,
-1,
-1,
-1,
-1,
-2,
-2,
0,
0,
0,
0,
2,
2,
-1,
-1,
1,
1,
4,
4,
8,
8,
14,
14,
13,
13,
6,
6,
0,
0,
9,
9,
18,
18,
26,
26,
29,
13,
13,
1,
3,
3,
8,
8,
4,
4,
5,
5,
10,
10,
3,
3,
1,
1,
0,
0,
9,
9,
13,
13,
9,
9,
1,
1,
3,
3,
2,
2,
1,
1,
0,
0,
-1,
-1,
2,
2,
3,
3,
5,
5,
5,
5,
2,
2,
2,
2,
3,
3,
2,
2,
0,
0,
2,
2,
1,
1,
2,
2,
2,
2,
2,
2,
-1,
-1,
2,
2,
2,
2,
0,
0,
-1,
-1,
2,
2,
3,
3,
1,
1,
0,
0,
3,
3,
2,
2,
0,
0,
4,
4,
6,
6,
2,
2,
0,
0,
0,
0,
2,
2,
6,
6,
11,
11,
13,
13,
8,
8,
0,
0,
3,
3,
6,
6,
12,
12,
18,
18,
20,
20,
24,
24,
28,
28,
26,
5,
9,
42,
42,
63,
62,
62,
64,
64,
65,
65,
62,
10,
10,
47,
46,
58,
57,
57,
52,
52,
52,
52,
53,
53,
52,
52,
45,
29,
29,
9,
9,
9,
6,
6,
14,
14,
20,
20,
29,
29,
31,
31,
26,
13,
14,
14,
13,
13,
14,
14,
18,
18,
16,
16,
8,
8,
4,
4,
4,
4,
2,
2,
1,
1,
2,
2,
6,
6,
9,
9,
6,
6,
6,
6,
9,
9,
4,
4,
4,
4,
5,
5,
5,
5,
3,
3,
9,
9,
12,
12,
16,
16,
12,
1,
4,
24,
24,
37,
36,
36,
29,
12,
13,
0,
1,
1,
9,
9,
14,
14,
14,
14,
15,
15,
18,
18,
15,
3,
3,
15,
14,
28,
28,
28,
38,
38,
35,
24,
24,
11,
12,
1,
2,
19,
18,
30,
29,
29,
30,
30,
24,
24,
15,
15,
9,
9,
6,
6,
2,
2,
1,
1,
6,
6,
10,
10,
13,
13,
12,
12,
10,
10,
8,
8,
5,
5,
3,
3,
2,
2,
1,
1,
0,
0,
-1,
-1,
0,
0,
-1,
-1,
1,
1,
1,
1,
5,
5,
10,
10,
14,
14,
16,
16,
13,
1,
2,
2,
10,
25,
24,
24,
33,
33,
26,
26,
19,
19,
14,
14,
8,
8,
5,
21,
21,
21,
30,
30,
32,
32,
25,
25,
16,
16,
8,
8,
1,
1,
2,
2,
5,
5,
7,
7,
10,
10,
12,
12,
14,
14,
10,
10,
7,
7,
1,
1,
3,
3,
2,
2,
0,
0,
-1,
-1,
2,
2,
2,
2,
2,
2,
4,
4,
5,
5,
4,
4,
3,
3,
0,
0,
2,
2,
3,
3,
1,
1,
7,
7,
0,
0,
1,
1,
0,
0,
-1,
-1,
2,
2,
12,
12,
20,
20,
26,
26,
27,
11,
11,
11,
9,
22,
21,
21,
27,
27,
24,
24,
20,
20,
18,
18,
18,
18,
9,
9,
1,
1,
6,
6,
7,
7,
8,
8,
9,
9,
10,
10,
11,
11,
10,
10,
10,
10,
10,
10,
9,
9,
6,
6,
1,
1,
2,
2,
5,
5,
10,
10,
14,
14,
19,
19,
14,
14,
8,
8,
3,
3,
9,
22,
22,
36,
34,
34,
38,
38,
30,
16,
17,
17,
9,
9,
2,
16,
16,
36,
35,
35,
42,
42,
42,
42,
35,
35,
26,
13,
14,
0,
1,
1,
10,
10,
17,
17,
23,
23,
20,
20,
17,
17,
17,
17,
21,
21,
16,
16,
6,
6,
0,
0,
1,
1,
2,
2,
2,
2,
3,
3,
5,
5,
8,
8,
8,
8,
5,
5,
4,
4,
3,
3,
2,
2,
6,
6,
10,
10,
5,
5,
1,
1,
2,
2,
-1,
-1,
4,
4,
4,
4,
1,
1,
1,
1,
0,
0,
1,
1,
4,
4,
6,
6,
3,
3,
7,
7,
11,
11,
12,
12,
6,
6,
6,
6,
14,
14,
18,
18,
17,
17,
13,
13,
8,
8,
3,
3,
0,
0,
2,
2,
5,
5,
6,
6,
7,
7,
5,
5,
5,
5,
6,
6,
8,
8,
9,
9,
6,
6,
4,
4,
0,
0,
0,
0,
0,
0,
1,
1,
2,
2,
2,
2,
0,
0,
2,
2,
3,
3,
2,
2,
2,
2,
2,
2,
2,
2,
0,
0,
0,
0,
3,
3,
2,
2,
0,
0,
4,
4,
6,
6,
2,
2,
-1,
-1,
0,
0,
2,
2,
0,
0,
-1,
-1,
1,
1,
7,
7,
10,
10,
8,
8,
5,
5,
3,
3,
10,
25,
25,
25,
27,
27,
20,
20,
10,
10,
4,
4,
9,
9,
8,
8,
3,
3,
3,
3,
7,
7,
10,
10,
9,
9,
7,
7,
5,
5,
4,
4,
1,
1,
-1,
-1,
1,
1,
2,
2,
5,
5,
6,
6,
5,
5,
4,
4,
3,
3,
1,
1,
1,
1,
5,
5,
7,
7,
1,
1,
9,
9,
13,
13,
11,
11,
8,
8,
1,
1,
5,
5,
10,
10,
14,
14,
13,
2,
2,
13,
13,
25,
24,
24,
25,
25,
19,
19,
18,
18,
13,
1,
6,
26,
25,
25,
30,
30,
29,
29,
26,
26,
25,
25,
20,
20,
10,
10,
2,
2,
6,
6,
11,
11,
14,
14,
14,
14,
14,
14,
14,
14,
12,
12,
10,
10,
8,
8,
6,
6,
5,
5,
3,
3,
2,
2,
-1,
-1,
1,
1,
2,
2,
6,
6,
5,
5,
6,
6,
9,
9,
6,
6,
3,
3,
0,
0,
2,
2,
8,
8,
10,
10,
6,
6,
2,
2,
0,
0,
2,
2,
4,
4,
6,
6,
10,
10,
8,
8,
4,
4,
0,
0,
7,
7,
14,
14,
17,
17,
12,
12,
3,
3,
1,
1,
4,
4,
5,
5,
6,
6,
8,
8,
8,
8,
8,
8,
8,
8,
10,
10,
9,
9,
4,
4,
4,
4,
13,
24,
24,
37,
36,
36,
34,
23,
24,
10,
10,
10,
2,
13,
13,
13,
18,
18,
20,
20,
22,
22,
20,
20,
14,
14,
7,
7,
0,
0,
-1,
-1,
2,
2,
2,
2,
2,
2,
1,
1,
-1,
-1,
1,
1,
1,
1,
1,
1,
5,
5,
7,
7,
14,
14,
15,
15,
15,
15,
10,
10,
5,
5,
1,
1,
0,
0,
0,
0,
0,
0,
0,
0,
8,
8,
13,
13,
15,
15,
15,
15,
15,
15,
12,
12,
5,
5,
-1,
-1,
2,
2,
2,
2,
2,
2,
9,
9,
14,
14,
18,
7,
8,
8,
4,
15,
14,
14,
21,
21,
21,
9,
10,
10,
8,
23,
22,
22,
31,
31,
41,
41,
47,
47,
44,
24,
25,
2,
5,
17,
16,
16,
24,
24,
29,
29,
35,
35,
43,
43,
41,
41,
33,
22,
22,
11,
12,
0,
1,
1,
5,
5,
12,
12,
18,
18,
21,
21,
20,
20,
13,
13,
12,
12,
14,
14,
14,
14,
10,
10,
9,
9,
16,
16,
16,
16,
7,
7,
2,
2,
9,
9,
13,
13,
14,
14,
12,
12,
8,
8,
6,
6,
4,
4,
5,
5,
3,
3,
2,
2,
-1,
-1,
-1,
-1,
0,
0,
2,
2,
3,
3,
0,
0,
-2,
-2,
3,
3,
6,
6,
6,
6,
1,
1,
9,
9,
14,
14,
18,
18,
15,
15,
12,
12,
10,
10,
5,
5,
2,
2,
9,
9,
16,
16,
16,
16,
12,
12,
9,
9,
2,
2,
1,
1,
1,
1,
0,
0,
0,
0,
2,
2,
5,
5,
0,
12,
12,
12,
16,
16,
16,
16,
12,
12,
4,
4,
8,
20,
20,
20,
14,
14,
4,
4,
6,
6,
9,
9,
9,
9,
7,
7,
1,
1,
7,
7,
8,
8,
4,
4,
10,
10,
10,
10,
8,
8,
1,
1,
10,
10,
16,
16,
16,
16,
12,
1,
3,
16,
15,
15,
22,
22,
21,
6,
7,
7,
1,
1,
5,
5,
10,
10,
12,
12,
12,
12,
10,
10,
7,
7,
5,
5,
1,
1,
2,
2,
7,
7,
1,
1,
4,
4,
0,
0,
10,
10,
18,
18,
17,
17,
10,
10,
5,
18,
18,
18,
14,
1,
5,
5,
14,
25,
25,
25,
29,
16,
16,
0,
2,
18,
18,
18,
21,
21,
13,
1,
5,
21,
21,
21,
15,
4,
14,
37,
37,
37,
41,
41,
38,
38,
28,
2,
3,
3,
11,
11,
18,
18,
22,
22,
19,
19,
13,
13,
10,
10,
10,
10,
8,
8,
7,
7,
2,
2,
0,
0,
0,
0,
6,
6,
1,
12,
12,
12,
11,
11,
8,
8,
2,
2,
0,
0,
1,
1,
0,
0,
4,
4,
10,
10,
12,
12,
12,
12,
13,
13,
8,
8,
2,
2,
0,
0,
0,
0,
5,
5,
4,
4,
0,
0,
4,
4,
8,
8,
2,
2,
-1,
-1,
4,
4,
8,
8,
2,
2,
6,
6,
14,
14,
16,
16,
14,
14,
5,
5,
3,
3,
6,
6,
6,
6,
4,
4,
-1,
-1,
0,
0,
-1,
-1,
1,
1,
7,
7,
15,
15,
17,
17,
16,
16,
12,
12,
9,
9,
6,
30,
30,
46,
45,
45,
54,
54,
50,
21,
22,
5,
15,
30,
30,
30,
28,
28,
21,
21,
16,
16,
16,
16,
22,
22,
28,
28,
37,
37,
30,
5,
10,
48,
47,
64,
64,
64,
65,
46,
46,
9,
16,
39,
38,
38,
31,
15,
17,
17,
15,
15,
22,
22,
23,
23,
18,
18,
12,
12,
10,
10,
7,
7,
7,
7,
16,
16,
13,
13,
15,
15,
23,
23,
26,
26,
22,
22,
16,
16,
12,
12,
6,
6,
2,
2,
9,
9,
15,
15,
21,
21,
23,
23,
19,
19,
16,
16,
18,
18,
10,
10,
5,
5,
8,
24,
24,
46,
46,
63,
62,
62,
52,
40,
41,
29,
29,
6,
15,
52,
52,
64,
63,
63,
64,
51,
51,
31,
32,
19,
20,
20,
10,
10,
1,
1,
5,
5,
9,
9,
14,
26,
25,
25,
25,
25,
25,
25,
30,
30,
30,
30,
20,
1,
2,
2,
7,
22,
21,
37,
37,
37,
30,
5,
8,
40,
40,
60,
58,
58,
53,
27,
28,
9,
10,
10,
3,
3,
2,
2,
0,
0,
8,
35,
34,
45,
44,
44,
38,
38,
43,
43,
34,
21,
21,
21,
22,
22,
31,
31,
28,
9,
10,
10,
3,
14,
13,
33,
33,
60,
59,
59,
64,
64,
57,
41,
42,
42,
35,
35,
30,
30,
20,
5,
6,
6,
16,
32,
32,
32,
42,
42,
42,
42,
37,
37,
30,
17,
17,
5,
6,
6,
4,
4,
6,
6,
13,
13,
14,
14,
8,
8,
1,
1,
1,
1,
1,
1,
1,
1,
4,
4,
8,
8,
16,
16,
20,
3,
5,
28,
27,
41,
41,
41,
48,
61,
61,
44,
44,
5,
6,
22,
22,
37,
37,
49,
49,
49,
46,
35,
37,
37,
28,
28,
22,
22,
20,
20,
10,
10,
12,
30,
30,
30,
39,
39,
42,
26,
26,
6,
7,
7,
0,
0,
6,
6,
14,
14,
9,
9,
3,
3,
6,
6,
2,
2,
8,
8,
17,
17,
18,
18,
12,
12,
10,
10,
15,
29,
28,
28,
28,
28,
23,
4,
6,
45,
44,
64,
63,
63,
64,
32,
32,
9,
10,
10,
8,
8,
18,
18,
28,
28,
24,
4,
4,
4,
10,
10,
5,
5,
4,
4,
13,
13,
14,
14,
18,
18,
19,
19,
25,
25,
30,
30,
28,
11,
12,
12,
13,
44,
44,
63,
63,
63,
54,
38,
38,
18,
18,
2,
5,
16,
14,
14,
16,
16,
17,
17,
20,
20,
19,
19,
13,
13,
6,
6,
1,
14,
14,
14,
16,
3,
4,
4,
7,
20,
20,
20,
19,
19,
16,
16,
14,
1,
2,
2,
11,
11,
14,
14,
24,
24,
32,
32,
24,
48,
47,
64,
63,
43,
44,
5,
6,
6,
10,
29,
29,
52,
52,
52,
57,
57,
49,
49,
49,
49,
50,
36,
36,
17,
18,
1,
2,
2,
11,
11,
20,
20,
28,
28,
34,
34,
37,
37,
35,
35,
30,
18,
18,
1,
4,
18,
17,
17,
20,
20,
21,
21,
19,
19,
12,
0,
2,
24,
23,
50,
50,
50,
58,
58,
62,
50,
50,
50,
47,
34,
35,
5,
5,
30,
30,
61,
60,
60,
65,
65,
65,
65,
64,
64,
64,
41,
41,
15,
16,
2,
6,
22,
22,
36,
36,
36,
45,
45,
51,
51,
53,
53,
47,
36,
36,
22,
23,
6,
6,
6,
6,
6,
5,
5,
1,
1,
7,
26,
26,
26,
18,
4,
20,
60,
