EMG_S2/DS0077.CSV

Memory Length,4000,
Trigger Level,-4.80000e+02,
Source,CH1,
Probe,1.0X,
Vertical Units,V,
Vertical Scale,1.00000e+00,
Vertical Position,0.00000e+00,
Horizontal Units,S,
Horizontal Scale,1.00000e-01,
Horizontal Position,0.0000000e+00,
Horizontal Mode,Roll Mode,
Waveform Last Dot Address,4000,
Sampling Period,4.00000e-04,
Firmware,V1.14,
Time, ,
Mode,Fast,
Waveform Data,
3,
3,
4,
4,
2,
2,
0,
0,
0,
0,
1,
1,
2,
2,
3,
3,
4,
4,
3,
3,
3,
3,
-1,
-1,
1,
1,
5,
5,
6,
6,
5,
5,
0,
0,
1,
1,
0,
0,
0,
0,
1,
1,
0,
0,
1,
1,
2,
2,
5,
5,
5,
5,
2,
2,
5,
5,
13,
13,
22,
22,
25,
25,
18,
5,
6,
6,
2,
2,
6,
6,
13,
13,
18,
18,
20,
20,
17,
17,
12,
12,
7,
7,
3,
3,
1,
1,
2,
2,
6,
6,
8,
8,
8,
8,
8,
8,
6,
6,
5,
5,
6,
6,
6,
6,
4,
4,
4,
4,
6,
6,
6,
6,
1,
1,
1,
1,
7,
7,
9,
9,
6,
6,
2,
2,
5,
5,
8,
8,
6,
6,
1,
1,
-1,
-1,
-1,
-1,
2,
2,
5,
5,
7,
7,
5,
5,
4,
4,
2,
2,
0,
0,
-1,
-1,
2,
2,
3,
3,
3,
3,
2,
2,
1,
1,
4,
4,
6,
6,
6,
6,
6,
6,
4,
4,
2,
2,
1,
1,
0,
0,
1,
1,
0,
0,
0,
0,
1,
1,
3,
3,
4,
4,
5,
5,
6,
6,
2,
2,
5,
5,
5,
5,
0,
0,
3,
3,
9,
9,
6,
6,
2,
2,
2,
2,
6,
6,
10,
10,
12,
12,
10,
10,
6,
6,
0,
0,
6,
6,
12,
12,
17,
17,
14,
14,
6,
6,
3,
3,
8,
8,
7,
7,
1,
1,
4,
4,
3,
3,
2,
2,
-1,
-1,
0,
0,
-1,
-1,
1,
1,
3,
3,
3,
3,
3,
3,
3,
3,
2,
2,
3,
3,
4,
4,
3,
3,
2,
2,
1,
1,
-1,
-1,
0,
0,
0,
0,
1,
1,
5,
5,
6,
6,
4,
4,
1,
1,
3,
3,
3,
3,
6,
6,
6,
6,
1,
1,
4,
4,
6,
6,
4,
4,
2,
2,
1,
1,
2,
2,
0,
0,
0,
0,
1,
1,
2,
2,
2,
2,
1,
1,
-1,
-1,
-1,
-1,
-1,
-1,
-1,
-1,
1,
1,
1,
1,
0,
0,
0,
0,
3,
3,
4,
4,
3,
3,
3,
3,
1,
1,
-1,
-1,
0,
0,
-1,
-1,
2,
2,
2,
2,
2,
2,
4,
4,
2,
2,
-1,
-1,
0,
0,
2,
2,
1,
1,
2,
2,
-1,
-1,
0,
0,
2,
2,
-1,
-1,
1,
1,
5,
5,
6,
6,
1,
1,
8,
8,
12,
12,
12,
12,
12,
12,
10,
10,
7,
7,
6,
6,
1,
1,
3,
3,
8,
8,
14,
14,
14,
14,
12,
12,
10,
10,
5,
5,
1,
1,
-1,
-1,
-1,
-1,
0,
0,
2,
2,
5,
5,
7,
7,
7,
7,
7,
7,
6,
6,
5,
5,
2,
2,
0,
0,
-1,
-1,
-1,
-1,
0,
0,
-1,
-1,
0,
0,
-1,
-1,
0,
0,
2,
2,
2,
2,
3,
3,
3,
3,
1,
1,
-1,
-1,
5,
5,
6,
6,
1,
1,
-1,
-1,
0,
0,
0,
0,
0,
0,
1,
1,
0,
0,
0,
0,
-1,
-1,
1,
1,
0,
0,
2,
2,
2,
2,
-1,
-1,
5,
5,
10,
10,
10,
10,
9,
9,
8,
8,
1,
1,
7,
7,
12,
12,
10,
10,
7,
7,
2,
2,
2,
2,
8,
8,
4,
4,
0,
0,
0,
0,
1,
1,
0,
0,
0,
0,
1,
1,
2,
2,
2,
2,
2,
2,
-2,
-2,
1,
1,
0,
0,
-1,
-1,
0,
0,
1,
1,
0,
0,
-1,
-1,
0,
0,
-1,
-1,
0,
0,
2,
2,
-1,
-1,
1,
1,
1,
1,
-2,
-2,
0,
0,
0,
0,
0,
0,
2,
2,
2,
2,
2,
2,
6,
6,
3,
3,
1,
1,
-1,
-1,
-1,
-1,
-1,
-1,
-2,
-2,
-1,
-1,
0,
0,
1,
1,
-1,
-1,
0,
0,
0,
0,
1,
1,
1,
1,
0,
0,
-1,
-1,
2,
2,
4,
4,
4,
4,
2,
2,
0,
0,
3,
3,
5,
5,
2,
2,
1,
1,
0,
0,
0,
0,
0,
0,
0,
0,
1,
1,
1,
1,
0,
0,
-1,
-1,
-1,
-1,
0,
0,
-1,
-1,
-1,
-1,
1,
1,
1,
1,
2,
2,
5,
5,
5,
5,
4,
4,
0,
0,
3,
3,
3,
3,
2,
2,
6,
6,
9,
9,
9,
9,
2,
2,
6,
6,
13,
13,
16,
16,
11,
11,
6,
6,
1,
1,
7,
7,
5,
5,
4,
4,
-1,
-1,
2,
2,
0,
0,
8,
8,
13,
13,
3,
3,
4,
4,
8,
8,
8,
8,
9,
9,
9,
9,
6,
6,
5,
5,
8,
8,
6,
6,
1,
1,
6,
6,
10,
21,
20,
31,
30,
30,
26,
12,
12,
1,
2,
13,
12,
12,
14,
14,
15,
15,
15,
15,
6,
6,
8,
20,
20,
20,
11,
0,
2,
2,
1,
1,
6,
6,
10,
10,
8,
8,
4,
18,
16,
16,
23,
23,
22,
22,
16,
16,
6,
6,
0,
0,
0,
0,
1,
1,
2,
2,
6,
6,
12,
12,
12,
12,
9,
9,
6,
6,
0,
0,
6,
6,
7,
7,
2,
2,
4,
4,
6,
17,
17,
28,
28,
28,
26,
10,
10,
-1,
1,
1,
6,
6,
13,
13,
16,
16,
15,
15,
14,
14,
15,
15,
12,
12,
6,
6,
2,
2,
0,
0,
1,
1,
3,
3,
5,
5,
6,
6,
8,
8,
8,
8,
6,
6,
6,
6,
3,
3,
1,
1,
2,
2,
2,
2,
-1,
-1,
1,
1,
3,
3,
2,
2,
5,
5,
6,
6,
1,
1,
5,
5,
8,
8,
6,
6,
0,
0,
3,
3,
2,
2,
3,
3,
8,
8,
10,
10,
5,
5,
6,
6,
11,
11,
9,
9,
8,
8,
5,
5,
-1,
-1,
2,
2,
3,
3,
5,
5,
5,
5,
3,
3,
2,
2,
1,
1,
-1,
-1,
1,
1,
-1,
-1,
0,
0,
1,
1,
1,
1,
6,
6,
12,
12,
14,
14,
12,
12,
6,
6,
2,
2,
5,
5,
5,
5,
6,
6,
8,
8,
8,
8,
7,
7,
10,
10,
10,
10,
10,
10,
1,
1,
2,
2,
1,
1,
0,
0,
8,
24,
24,
42,
41,
41,
45,
45,
41,
24,
24,
3,
6,
25,
24,
24,
22,
22,
18,
32,
31,
31,
37,
37,
32,
32,
23,
11,
12,
1,
2,
2,
5,
5,
9,
9,
8,
8,
6,
6,
5,
5,
8,
8,
9,
9,
14,
14,
21,
21,
20,
20,
18,
18,
12,
12,
4,
4,
-1,
-1,
2,
2,
10,
10,
14,
14,
12,
12,
8,
8,
3,
3,
0,
0,
1,
1,
2,
2,
8,
8,
5,
5,
0,
0,
4,
4,
1,
1,
0,
0,
1,
1,
8,
8,
14,
14,
12,
1,
2,
2,
7,
7,
14,
14,
13,
13,
8,
8,
6,
6,
0,
0,
6,
6,
11,
11,
11,
11,
12,
12,
11,
11,
5,
5,
4,
4,
14,
14,
17,
17,
13,
13,
11,
11,
3,
3,
11,
11,
20,
20,
25,
25,
23,
9,
10,
10,
2,
2,
8,
8,
6,
6,
0,
0,
0,
14,
14,
14,
21,
21,
16,
1,
2,
15,
14,
26,
25,
25,
28,
15,
16,
4,
20,
42,
42,
28,
28,
1,
2,
2,
3,
3,
2,
2,
2,
2,
4,
4,
6,
6,
9,
9,
6,
6,
4,
4,
0,
0,
-2,
-2,
0,
0,
0,
0,
0,
0,
1,
1,
2,
2,
2,
2,
0,
0,
1,
1,
1,
1,
1,
1,
3,
3,
3,
3,
2,
2,
1,
1,
5,
5,
4,
4,
2,
2,
3,
3,
2,
2,
0,
0,
-2,
-2,
0,
0,
1,
1,
1,
1,
1,
1,
0,
0,
0,
0,
0,
0,
0,
0,
4,
4,
5,
5,
2,
2,
0,
0,
-2,
-2,
1,
1,
2,
2,
5,
5,
5,
5,
5,
5,
1,
1,
4,
4,
8,
8,
7,
7,
1,
13,
13,
13,
14,
14,
7,
7,
0,
0,
1,
1,
3,
3,
2,
2,
1,
1,
-1,
-1,
-1,
-1,
1,
1,
2,
2,
6,
6,
1,
1,
5,
5,
2,
2,
0,
0,
2,
2,
-1,
-1,
2,
2,
1,
1,
-1,
-1,
0,
0,
1,
1,
2,
2,
0,
0,
1,
1,
5,
5,
5,
5,
5,
5,
4,
4,
0,
0,
6,
6,
7,
7,
3,
3,
0,
0,
-1,
-1,
2,
2,
8,
8,
14,
14,
13,
1,
8,
32,
31,
48,
47,
47,
49,
49,
42,
28,
28,
4,
4,
29,
29,
45,
45,
45,
44,
44,
40,
40,
33,
22,
22,
22,
14,
14,
11,
11,
16,
16,
16,
5,
6,
6,
12,
33,
32,
49,
48,
48,
52,
52,
45,
25,
26,
6,
6,
6,
1,
1,
1,
1,
-1,
11,
10,
23,
22,
22,
22,
22,
13,
13,
3,
3,
0,
0,
6,
6,
12,
12,
13,
13,
7,
7,
10,
25,
25,
25,
28,
28,
18,
1,
2,
2,
11,
11,
17,
17,
19,
19,
15,
15,
10,
10,
4,
4,
7,
7,
11,
11,
12,
12,
8,
8,
2,
2,
6,
6,
10,
10,
11,
11,
8,
8,
4,
4,
2,
2,
9,
9,
13,
13,
14,
14,
13,
13,
10,
10,
2,
2,
3,
3,
10,
10,
15,
15,
23,
23,
14,
1,
1,
13,
13,
13,
18,
18,
13,
13,
6,
6,
1,
12,
12,
28,
27,
27,
36,
25,
26,
5,
6,
6,
9,
21,
21,
21,
20,
20,
15,
15,
15,
15,
17,
17,
13,
13,
9,
9,
2,
2,
1,
1,
6,
6,
8,
8,
11,
11,
11,
11,
9,
9,
8,
8,
9,
9,
7,
7,
4,
4,
2,
2,
1,
1,
0,
0,
0,
0,
1,
1,
2,
2,
2,
2,
0,
0,
-1,
-1,
0,
0,
1,
1,
2,
2,
1,
1,
-1,
-1,
0,
0,
0,
0,
0,
0,
0,
0,
0,
0,
2,
2,
5,
5,
0,
0,
3,
3,
5,
5,
2,
2,
-1,
-1,
0,
0,
-1,
-1,
4,
4,
7,
7,
5,
5,
2,
2,
9,
9,
17,
17,
20,
20,
14,
14,
5,
5,
10,
25,
25,
25,
33,
33,
33,
20,
21,
9,
10,
10,
5,
5,
14,
14,
9,
9,
1,
15,
14,
29,
28,
28,
35,
35,
34,
34,
29,
29,
21,
21,
13,
13,
5,
5,
1,
1,
6,
6,
10,
10,
14,
14,
16,
16,
18,
18,
19,
19,
16,
16,
11,
11,
8,
8,
4,
4,
0,
0,
-1,
-1,
0,
0,
0,
0,
-1,
-1,
0,
0,
2,
2,
5,
5,
7,
7,
8,
8,
6,
6,
0,
0,
6,
6,
3,
3,
1,
1,
10,
10,
17,
17,
23,
11,
11,
11,
5,
17,
17,
38,
37,
56,
55,
55,
49,
18,
18,
2,
7,
7,
13,
13,
18,
18,
26,
26,
30,
30,
26,
26,
23,
23,
15,
3,
3,
3,
3,
3,
2,
2,
0,
0,
7,
7,
14,
14,
20,
20,
14,
14,
8,
8,
5,
5,
5,
5,
6,
6,
6,
6,
3,
3,
0,
0,
-1,
-1,
3,
3,
5,
5,
4,
4,
1,
1,
7,
7,
13,
13,
13,
13,
5,
5,
7,
7,
16,
16,
18,
18,
20,
20,
18,
4,
5,
5,
8,
19,
18,
18,
17,
17,
9,
9,
3,
3,
4,
4,
4,
4,
1,
1,
-1,
-1,
2,
2,
2,
2,
3,
3,
2,
2,
1,
1,
3,
3,
2,
2,
0,
0,
0,
0,
0,
0,
0,
0,
1,
1,
-1,
-1,
3,
3,
6,
6,
6,
6,
2,
2,
0,
0,
0,
0,
1,
1,
2,
2,
1,
1,
2,
2,
2,
2,
2,
2,
4,
4,
3,
3,
2,
2,
2,
2,
0,
0,
-1,
-1,
1,
1,
5,
5,
9,
9,
18,
18,
22,
22,
15,
1,
2,
2,
9,
9,
14,
14,
13,
13,
11,
11,
16,
16,
22,
22,
24,
6,
6,
6,
6,
6,
14,
30,
30,
30,
25,
25,
18,
6,
6,
6,
2,
2,
8,
8,
5,
5,
3,
3,
3,
3,
11,
11,
18,
18,
10,
10,
2,
2,
5,
26,
26,
43,
42,
28,
28,
2,
3,
20,
19,
19,
28,
28,
24,
24,
18,
18,
13,
13,
6,
6,
4,
4,
1,
1,
1,
1,
5,
5,
9,
9,
14,
14,
14,
14,
7,
7,
2,
2,
0,
0,
2,
2,
2,
2,
0,
0,
1,
1,
0,
0,
0,
0,
0,
0,
0,
0,
4,
4,
2,
2,
0,
0,
4,
4,
7,
7,
6,
6,
2,
2,
1,
1,
5,
5,
6,
6,
7,
7,
10,
10,
7,
7,
0,
0,
6,
6,
10,
10,
9,
9,
4,
4,
2,
2,
2,
2,
6,
6,
15,
15,
10,
10,
1,
12,
12,
12,
14,
14,
19,
19,
25,
25,
20,
5,
5,
5,
1,
12,
12,
42,
42,
62,
62,
62,
58,
23,
24,
4,
10,
26,
25,
25,
31,
31,
31,
31,
29,
29,
23,
23,
15,
15,
8,
8,
2,
2,
1,
1,
2,
2,
8,
8,
11,
11,
10,
10,
9,
9,
6,
6,
6,
6,
7,
7,
4,
4,
1,
1,
3,
3,
4,
4,
7,
7,
7,
7,
4,
4,
2,
2,
9,
9,
9,
9,
4,
4,
2,
2,
2,
2,
0,
0,
2,
2,
3,
3,
1,
1,
-1,
-1,
3,
3,
6,
6,
3,
3,
0,
0,
-1,
-1,
0,
0,
1,
1,
0,
0,
4,
4,
10,
10,
9,
9,
0,
0,
8,
19,
18,
30,
29,
41,
40,
40,
35,
10,
11,
11,
6,
19,
19,
19,
24,
24,
26,
26,
26,
26,
18,
18,
14,
14,
13,
13,
7,
7,
1,
1,
9,
9,
14,
14,
16,
16,
12,
12,
6,
6,
5,
5,
2,
2,
1,
1,
2,
2,
4,
4,
3,
3,
1,
1,
0,
0,
-1,
-1,
1,
1,
1,
1,
3,
3,
2,
2,
1,
1,
1,
1,
-1,
-1,
0,
0,
2,
2,
2,
2,
1,
1,
0,
0,
7,
7,
8,
8,
2,
2,
-1,
-1,
2,
2,
7,
7,
9,
9,
10,
10,
7,
7,
2,
2,
2,
2,
5,
5,
2,
2,
5,
5,
4,
4,
1,
1,
1,
1,
2,
2,
3,
3,
0,
0,
4,
4,
2,
2,
6,
6,
8,
8,
2,
2,
4,
4,
6,
6,
9,
9,
14,
14,
13,
13,
13,
13,
13,
13,
15,
15,
12,
1,
1,
12,
12,
30,
29,
29,
35,
35,
26,
9,
9,
9,
2,
2,
10,
10,
14,
14,
9,
9,
6,
6,
7,
7,
2,
2,
2,
2,
8,
8,
8,
8,
5,
5,
1,
1,
-1,
-1,
1,
1,
4,
4,
6,
6,
5,
5,
3,
3,
2,
2,
3,
3,
2,
2,
1,
1,
2,
2,
2,
2,
5,
5,
7,
7,
4,
4,
0,
0,
-1,
-1,
1,
1,
6,
6,
8,
8,
8,
8,
6,
6,
4,
4,
2,
2,
1,
1,
1,
1,
1,
1,
-1,
-1,
6,
6,
9,
9,
1,
1,
9,
9,
13,
13,
12,
12,
12,
12,
13,
13,
9,
9,
2,
2,
9,
9,
10,
10,
10,
10,
10,
10,
6,
6,
2,
2,
-1,
-1,
-2,
-2,
0,
0,
2,
2,
3,
3,
2,
2,
4,
4,
4,
4,
1,
1,
1,
1,
0,
0,
0,
0,
2,
2,
2,
2,
0,
0,
-1,
-1,
0,
0,
0,
0,
-1,
-1,
-1,
-1,
0,
0,
1,
1,
1,
1,
0,
0,
0,
0,
0,
0,
-1,
-1,
0,
0,
0,
0,
0,
0,
0,
0,
2,
2,
4,
4,
5,
5,
6,
6,
1,
1,
2,
2,
1,
1,
-1,
-1,
0,
0,
0,
0,
2,
2,
2,
2,
0,
0,
0,
0,
1,
1,
0,
0,
1,
1,
6,
6,
10,
10,
7,
7,
1,
1,
10,
10,
14,
14,
8,
8,
1,
1,
5,
5,
9,
9,
7,
7,
1,
1,
6,
6,
3,
3,
6,
6,
7,
7,
0,
0,
6,
19,
18,
18,
20,
4,
5,
5,
10,
10,
13,
2,
2,
2,
2,
2,
4,
4,
6,
6,
6,
6,
3,
3,
0,
0,
4,
4,
2,
2,
0,
0,
0,
0,
0,
0,
1,
1,
5,
5,
9,
9,
14,
14,
10,
10,
4,
4,
0,
0,
-1,
-1,
3,
3,
6,
6,
12,
12,
14,
14,
9,
9,
1,
1,
4,
4,
12,
12,
17,
17,
18,
18,
11,
0,
0,
0,
8,
8,
15,
15,
12,
12,
6,
6,
5,
5,
5,
5,
3,
3,
1,
1,
1,
1,
1,
1,
2,
2,
2,
2,
4,
4,
6,
6,
5,
5,
5,
5,
3,
3,
2,
2,
0,
0,
-1,
-1,
1,
1,
1,
1,
1,
1,
-1,
-1,
1,
1,
1,
1,
0,
0,
6,
6,
7,
7,
8,
8,
2,
2,
6,
17,
16,
16,
22,
22,
13,
13,
5,
5,
2,
2,
8,
8,
12,
12,
10,
10,
7,
7,
6,
6,
3,
3,
4,
4,
9,
9,
5,
5,
0,
0,
4,
4,
6,
6,
2,
2,
0,
0,
-1,
-1,
1,
1,
0,
0,
4,
4,
9,
9,
8,
8,
4,
4,
2,
2,
1,
1,
0,
0,
-1,
-1,
-1,
-1,
1,
1,
3,
3,
5,
5,
4,
4,
0,
0,
3,
3,
9,
9,
12,
12,
7,
7,
1,
1,
4,
4,
5,
5,
5,
5,
5,
5,
2,
2,
0,
0,
1,
1,
5,
5,
6,
6,
1,
1,
6,
6,
8,
8,
4,
4,
1,
1,
4,
4,
4,
4,
3,
3,
1,
1,
0,
0,
3,
3,
2,
2,
2,
2,
1,
1,
-1,
-1,
2,
2,
4,
4,
6,
6,
4,
4,
0,
0,
0,
0,
2,
2,
4,
4,
5,
5,
4,
4,
3,
3,
0,
0,
1,
1,
1,
1,
2,
2,
0,
0,
1,
1,
1,
1,
1,
1,
0,
0,
5,
5,
10,
10,
14,
14,
14,
14,
6,
6,
4,
4,
10,
10,
8,
8,
5,
5,
5,
5,
4,
4,
6,
6,
8,
8,
10,
10,
9,
9,
6,
6,
5,
5,
1,
1,
10,
23,
23,
23,
28,
28,
24,
24,
21,
21,
14,
2,
3,
3,
6,
6,
13,
13,
15,
15,
16,
16,
14,
14,
13,
13,
10,
10,
6,
6,
-1,
-1,
1,
1,
2,
2,
5,
5,
10,
10,
10,
10,
8,
8,
1,
1,
3,
3,
1,
1,
2,
2,
6,
6,
4,
4,
3,
3,
4,
4,
2,
2,
-1,
-1,
1,
1,
6,
6,
12,
12,
12,
12,
3,
3,
3,
3,
11,
11,
18,
18,
18,
18,
9,
9,
2,
2,
6,
6,
11,
11,
12,
12,
12,
12,
8,
8,
1,
1,
6,
6,
11,
11,
8,
8,
1,
1,
5,
5,
8,
8,
10,
10,
11,
11,
10,
10,
8,
8,
5,
5,
1,
1,
-1,
-1,
2,
2,
3,
3,
5,
5,
5,
5,
5,
5,
5,
5,
5,
5,
5,
5,
5,
5,
2,
2,
0,
0,
1,
1,
-1,
-1,
2,
2,
0,
0,
5,
5,
8,
8,
9,
9,
10,
10,
11,
11,
4,
4,
8,
20,
19,
19,
27,
27,
27,
27,
22,
8,
8,
8,
9,
9,
18,
18,
23,
23,
22,
22,
20,
20,
16,
16,
8,
8,
-1,
-1,
2,
2,
5,
5,
9,
9,
14,
14,
16,
16,
14,
14,
6,
6,
1,
1,
-1,
-1,
2,
2,
4,
4,
2,
2,
1,
1,
0,
0,
-2,
-2,
0,
0,
-1,
-1,
1,
1,
1,
1,
0,
0,
1,
1,
0,
0,
0,
0,
-1,
-1,
1,
1,
0,
0,
4,
4,
4,
4,
4,
4,
6,
6,
7,
7,
6,
6,
2,
2,
-1,
-1,
3,
3,
3,
3,
3,
3,
5,
5,
5,
5,
4,
4,
2,
2,
1,
1,
1,
1,
0,
0,
2,
2,
1,
1,
0,
0,
-1,
-1,
-1,
-1,
2,
2,
5,
5,
5,
5,
2,
2,
0,
0,
-1,
-1,
-1,
-1,
-1,
-1,
-1,
-1,
-1,
-1,
-1,
-1,
-1,
-1,
3,
3,
3,
3,
1,
1,
1,
1,
3,
3,
7,
7,
1,
1,
9,
9,
16,
16,
9,
9,
6,
6,
4,
4,
2,
2,
3,
3,
6,
6,
9,
9,
8,
8,
5,
5,
5,
5,
5,
5,
4,
4,
2,
2,
0,
0,
2,
2,
3,
3,
6,
6,
9,
9,
9,
9,
8,
8,
5,
5,
2,
2,
4,
4,
2,
2,
1,
1,
3,
3,
5,
5,
1,
1,
-1,
-1,
1,
1,
6,
6,
7,
7,
4,
4,
1,
1,
2,
2,
4,
4,
6,
6,
9,
9,
4,
4,
1,
1,
4,
4,
5,
5,
4,
4,
0,
0,
1,
1,
-1,
-1,
-1,
-1,
0,
0,
1,
1,
1,
1,
1,
1,
0,
0,
1,
1,
2,
2,
2,
2,
1,
1,
2,
2,
1,
1,
1,
1,
1,
1,
2,
2,
3,
3,
2,
2,
2,
2,
4,
4,
5,
5,
3,
3,
-1,
-1,
4,
4,
7,
7,
2,
2,
4,
4,
9,
9,
10,
10,
8,
8,
5,
5,
2,
2,
2,
2,
6,
6,
9,
9,
10,
10,
9,
9,
7,
7,
5,
5,
5,
5,
6,
6,
2,
2,
2,
2,
6,
6,
9,
9,
9,
9,
10,
10,
12,
12,
13,
13,
9,
9,
4,
4,
0,
0,
4,
4,
7,
7,
9,
9,
9,
9,
7,
7,
6,
6,
2,
2,
1,
1,
0,
0,
2,
2,
2,
2,
2,
2,
1,
1,
1,
1,
1,
1,
1,
1,
1,
1,
2,
2,
1,
1,
1,
1,
1,
1,
1,
1,
1,
1,
-1,
-1,
-1,
-1,
-1,
-1,
0,
0,
0,
0,
2,
2,
2,
2,
0,
0,
1,
1,
2,
2,
6,
6,
9,
9,
11,
11,
6,
6,
-1,
-1,
-1,
-1,
3,
3,
5,
5,
9,
9,
15,
15,
12,
12,
9,
9,
7,
7,
8,
8,
7,
7,
5,
5,
6,
6,
5,
5,
8,
25,
25,
25,
31,
31,
28,
28,
18,
3,
3,
3,
4,
4,
9,
9,
6,
6,
6,
6,
9,
9,
13,
13,
9,
9,
3,
3,
1,
1,
2,
2,
3,
3,
2,
2,
-1,
-1,
1,
1,
1,
1,
2,
2,
1,
1,
2,
2,
4,
4,
4,
4,
4,
4,
4,
4,
3,
3,
0,
0,
3,
3,
6,
6,
7,
7,
8,
8,
6,
6,
1,
1,
1,
1,
5,
5,
6,
6,
6,
6,
11,
11,
10,
10,
2,
2,
2,
2,
2,
2,
2,
2,
4,
4,
4,
4,
2,
2,
2,
2,
3,
3,
2,
2,
1,
1,
1,
1,
-1,
-1,
2,
2,
2,
2,
5,
5,
5,
5,
4,
4,
1,
1,
-1,
-1,
2,
2,
2,
2,
0,
0,
0,
0,
1,
1,
1,
1,
1,
1,
1,
1,
-1,
-1,
-1,
-1,
0,
0,
-1,
-1,
-1,
-1,
-1,
-1,
0,
0,
-1,
-1,
0,
0,
-1,
-1,
-1,
-1,
-1,
-1,
0,
0,
2,
2,
1,
1,
-1,
-1,
-1,
-1,
1,
1,
0,
0,
0,
0,
2,
2,
0,
0,
1,
1,
0,
0,
1,
1,
1,
1,
1,
1,
1,
1,
2,
2,
3,
3,
1,
1,
0,
0,
-1,
-1,
-1,
-1,
2,
2,
3,
3,
6,
6,
3,
3,
1,
1,
1,
1,
1,
1,
-1,
-1,
1,
1,
3,
3,
5,
5,
6,
6,
6,
6,
4,
4,
1,
1,
0,
0,
1,
1,
2,
2,
4,
4,
8,
8,
5,
5,
-1,
-1,
3,
3,
7,
7,
7,
7,
5,
5,
5,
5,
3,
3,
3,
3,
5,
5,
7,
7,
14,
14,
13,
1,
2,
26,
25,
45,
45,
45,
46,
35,
36,
15,
16,
2,
6,
30,
29,
48,
48,
62,
61,
61,
62,
41,
42,
9,
9,
9,
19,
38,
37,
37,
42,
42,
36,
22,
23,
23,
14,
14,
9,
9,
9,
9,
6,
6,
1,
1,
2,
2,
9,
9,
18,
18,
21,
21,
16,
16,
10,
10,
6,
6,
1,
1,
1,
1,
0,
0,
0,
0,
0,
0,
0,
0,
-2,
-2,
1,
1,
2,
2,
2,
2,
3,
3,
1,
1,
1,
1,
1,
1,
2,
2,
1,
1,
-1,
-1,
-1,
-1,
0,
0,
0,
0,
-1,
-1,
-1,
-1,
0,
0,
0,
0,
0,
0,
-1,
-1,
-1,
-1,
0,
0,
0,
0,
1,
1,
1,
1,
-1,
-1,
0,
0,
0,
0,
-1,
-1,
0,
0,
0,
0,
0,
0,
1,
1,
-2,
-2,
1,
1,
0,
0,
-2,
-2,
0,
0,
1,
1,
