EMG_S2/DS0032.CSV

Memory Length,4000,
Trigger Level,-4.80000e+02,
Source,CH1,
Probe,1.0X,
Vertical Units,V,
Vertical Scale,1.00000e+00,
Vertical Position,0.00000e+00,
Horizontal Units,S,
Horizontal Scale,1.00000e-01,
Horizontal Position,0.0000000e+00,
Horizontal Mode,Roll Mode,
Waveform Last Dot Address,4000,
Sampling Period,4.00000e-04,
Firmware,V1.14,
Time, ,
Mode,Fast,
Waveform Data,
6,
6,
0,
0,
2,
2,
5,
5,
9,
9,
9,
9,
1,
1,
0,
0,
6,
6,
10,
10,
6,
6,
3,
3,
10,
10,
8,
8,
2,
2,
-1,
-1,
4,
4,
5,
5,
3,
3,
2,
2,
8,
8,
9,
9,
6,
6,
1,
1,
0,
0,
-1,
-1,
2,
2,
0,
0,
3,
3,
-1,
-1,
0,
0,
1,
1,
2,
2,
8,
8,
12,
12,
8,
8,
2,
2,
2,
2,
0,
0,
1,
1,
3,
3,
2,
2,
0,
0,
1,
1,
2,
2,
0,
0,
1,
1,
5,
5,
4,
4,
2,
2,
1,
1,
0,
0,
2,
13,
13,
13,
14,
14,
12,
12,
7,
7,
0,
0,
4,
4,
9,
9,
12,
12,
5,
5,
0,
0,
0,
0,
6,
6,
10,
10,
9,
9,
7,
7,
2,
2,
2,
2,
0,
0,
3,
3,
10,
10,
18,
18,
13,
2,
4,
4,
3,
3,
-1,
-1,
1,
1,
0,
0,
5,
5,
5,
5,
5,
5,
3,
3,
3,
3,
3,
3,
2,
2,
2,
2,
1,
1,
-1,
-1,
0,
0,
0,
0,
7,
7,
7,
7,
6,
6,
9,
9,
1,
1,
4,
4,
10,
10,
9,
9,
11,
11,
14,
14,
12,
12,
14,
14,
8,
8,
1,
13,
12,
12,
17,
17,
15,
15,
13,
13,
5,
5,
3,
3,
5,
5,
5,
5,
2,
2,
1,
1,
0,
0,
-1,
-1,
2,
2,
6,
6,
10,
10,
9,
9,
6,
6,
2,
2,
3,
3,
7,
7,
12,
0,
1,
1,
0,
0,
5,
5,
1,
1,
-1,
-1,
4,
4,
4,
4,
2,
2,
0,
0,
0,
0,
1,
1,
4,
4,
6,
6,
4,
4,
1,
1,
0,
0,
0,
0,
0,
0,
3,
3,
2,
2,
2,
2,
2,
2,
4,
4,
1,
1,
6,
6,
6,
6,
0,
0,
2,
2,
5,
5,
5,
5,
1,
1,
2,
2,
2,
2,
6,
6,
5,
5,
6,
6,
3,
3,
1,
1,
-1,
-1,
2,
2,
0,
0,
-1,
-1,
1,
1,
-1,
-1,
1,
1,
4,
4,
3,
3,
3,
3,
9,
9,
8,
8,
2,
2,
4,
4,
5,
5,
4,
4,
4,
4,
6,
6,
5,
5,
3,
3,
6,
6,
9,
9,
8,
8,
4,
4,
0,
0,
2,
2,
6,
6,
9,
9,
5,
5,
2,
2,
2,
2,
2,
2,
1,
1,
0,
0,
6,
6,
11,
11,
8,
8,
4,
4,
0,
0,
3,
3,
9,
9,
12,
12,
10,
10,
6,
6,
1,
1,
4,
4,
8,
8,
5,
5,
2,
2,
0,
0,
0,
0,
0,
0,
0,
0,
1,
1,
4,
4,
4,
4,
1,
1,
6,
6,
0,
0,
0,
0,
0,
0,
-1,
-1,
1,
1,
1,
1,
1,
1,
7,
7,
6,
6,
5,
5,
0,
0,
1,
1,
2,
2,
2,
2,
1,
1,
1,
1,
3,
3,
2,
2,
4,
4,
5,
5,
5,
5,
2,
2,
0,
0,
2,
2,
5,
5,
10,
10,
11,
11,
5,
5,
10,
10,
3,
3,
2,
2,
3,
3,
6,
6,
9,
9,
7,
7,
2,
2,
0,
0,
3,
3,
0,
0,
4,
4,
3,
3,
10,
10,
14,
14,
15,
15,
12,
12,
6,
6,
5,
19,
18,
18,
14,
29,
29,
63,
52,
14,
28,
44,
42,
14,
15,
15,
11,
11,
14,
14,
17,
17,
8,
8,
3,
3,
10,
10,
7,
7,
3,
16,
15,
15,
13,
1,
2,
2,
5,
5,
1,
1,
1,
1,
2,
2,
4,
4,
3,
3,
5,
5,
5,
5,
5,
5,
6,
6,
8,
8,
8,
8,
2,
2,
4,
4,
8,
8,
5,
5,
5,
5,
4,
4,
13,
13,
13,
13,
8,
8,
4,
4,
6,
6,
5,
5,
14,
14,
16,
16,
20,
8,
9,
9,
4,
4,
3,
3,
2,
2,
2,
2,
4,
4,
3,
3,
6,
6,
1,
1,
5,
5,
1,
1,
7,
7,
9,
9,
6,
6,
5,
5,
1,
1,
3,
3,
5,
5,
1,
1,
0,
0,
0,
0,
2,
2,
1,
1,
6,
6,
10,
10,
5,
5,
0,
0,
-1,
-1,
2,
2,
0,
0,
1,
1,
-1,
-1,
3,
3,
1,
1,
1,
1,
10,
10,
6,
6,
10,
10,
6,
6,
5,
5,
5,
5,
2,
2,
5,
5,
5,
5,
3,
3,
5,
5,
4,
4,
8,
8,
3,
3,
2,
2,
1,
1,
5,
5,
3,
3,
0,
0,
4,
4,
4,
4,
2,
2,
3,
3,
6,
6,
6,
6,
3,
3,
2,
2,
0,
0,
2,
2,
1,
1,
-1,
-1,
1,
1,
2,
2,
2,
2,
1,
1,
4,
4,
2,
2,
1,
1,
2,
2,
3,
3,
1,
1,
2,
2,
-1,
-1,
0,
0,
3,
3,
4,
4,
5,
5,
1,
1,
2,
2,
4,
4,
0,
0,
3,
3,
1,
1,
6,
6,
1,
1,
0,
0,
7,
7,
8,
8,
5,
5,
1,
1,
0,
0,
-1,
-1,
2,
2,
5,
5,
10,
10,
8,
8,
2,
2,
2,
2,
9,
9,
15,
15,
11,
11,
5,
5,
3,
3,
0,
0,
1,
1,
3,
3,
4,
4,
1,
1,
1,
1,
-1,
-1,
2,
2,
6,
6,
6,
6,
3,
3,
0,
0,
1,
1,
6,
6,
8,
8,
12,
12,
6,
6,
7,
7,
5,
5,
6,
6,
2,
2,
4,
4,
6,
6,
8,
8,
11,
11,
10,
10,
10,
10,
8,
8,
6,
6,
2,
2,
4,
4,
3,
3,
1,
1,
1,
1,
2,
2,
6,
6,
2,
2,
-1,
-1,
2,
2,
2,
2,
1,
1,
1,
1,
3,
3,
4,
4,
3,
3,
0,
0,
1,
1,
5,
5,
4,
4,
2,
2,
1,
1,
2,
2,
0,
0,
2,
2,
5,
5,
-1,
-1,
-1,
-1,
-1,
-1,
0,
0,
-1,
-1,
1,
1,
0,
0,
9,
9,
9,
9,
4,
4,
6,
6,
2,
2,
4,
4,
5,
5,
3,
3,
0,
0,
0,
0,
2,
2,
4,
4,
13,
13,
16,
4,
4,
4,
2,
2,
2,
2,
6,
6,
4,
4,
5,
5,
0,
0,
0,
0,
1,
1,
3,
3,
6,
6,
1,
1,
6,
6,
6,
6,
12,
12,
13,
13,
10,
10,
11,
11,
5,
5,
2,
2,
2,
2,
4,
4,
5,
5,
13,
31,
29,
4,
4,
4,
13,
13,
6,
6,
6,
6,
1,
1,
2,
2,
5,
5,
0,
0,
0,
0,
-1,
-1,
3,
3,
4,
4,
4,
4,
5,
5,
3,
3,
6,
6,
2,
14,
14,
3,
3,
3,
4,
4,
2,
2,
-1,
-1,
2,
2,
5,
5,
6,
6,
0,
0,
3,
3,
3,
3,
3,
3,
0,
0,
1,
1,
2,
2,
2,
2,
0,
0,
0,
0,
2,
2,
0,
0,
1,
1,
-1,
-1,
2,
13,
12,
12,
18,
18,
16,
16,
8,
8,
0,
0,
8,
8,
14,
14,
21,
21,
28,
28,
23,
23,
15,
15,
11,
11,
6,
6,
0,
13,
13,
13,
17,
17,
16,
16,
12,
12,
8,
8,
8,
8,
9,
9,
9,
9,
6,
6,
3,
3,
0,
0,
7,
7,
8,
8,
10,
10,
8,
8,
5,
5,
12,
12,
9,
9,
5,
5,
1,
1,
1,
1,
2,
2,
0,
0,
1,
1,
3,
3,
5,
5,
5,
5,
9,
9,
6,
6,
5,
5,
2,
2,
1,
1,
2,
2,
5,
5,
4,
4,
4,
4,
5,
5,
3,
3,
2,
2,
0,
0,
1,
1,
2,
2,
0,
0,
3,
3,
8,
8,
3,
3,
1,
1,
0,
0,
3,
3,
9,
9,
10,
10,
9,
9,
6,
6,
0,
0,
1,
1,
5,
5,
6,
6,
8,
8,
8,
8,
3,
3,
0,
0,
2,
2,
5,
5,
3,
3,
0,
0,
0,
0,
2,
2,
-1,
-1,
-1,
-1,
1,
1,
-1,
-1,
-1,
-1,
-1,
-1,
5,
5,
5,
5,
0,
0,
5,
5,
6,
6,
4,
4,
1,
1,
2,
2,
6,
6,
12,
12,
13,
13,
6,
6,
-1,
-1,
2,
2,
3,
3,
1,
1,
3,
3,
6,
6,
4,
4,
2,
2,
-1,
-1,
2,
2,
1,
1,
-1,
-1,
1,
1,
2,
2,
1,
1,
0,
0,
1,
1,
0,
0,
2,
2,
5,
5,
4,
4,
2,
2,
2,
2,
2,
2,
2,
2,
-1,
-1,
1,
1,
0,
0,
0,
0,
0,
0,
0,
0,
3,
3,
0,
0,
0,
0,
1,
1,
1,
1,
2,
2,
7,
7,
3,
3,
3,
3,
6,
6,
3,
3,
0,
0,
0,
0,
2,
2,
4,
4,
3,
3,
1,
1,
0,
0,
1,
1,
-1,
-1,
2,
2,
2,
2,
1,
1,
2,
2,
0,
0,
4,
4,
6,
6,
5,
5,
3,
3,
4,
4,
2,
2,
1,
1,
6,
6,
3,
3,
-1,
-1,
-1,
-1,
2,
2,
4,
4,
2,
2,
0,
0,
1,
1,
6,
6,
8,
8,
8,
8,
3,
3,
2,
2,
5,
5,
4,
4,
0,
0,
1,
1,
1,
1,
2,
2,
2,
2,
2,
2,
2,
2,
1,
1,
0,
0,
0,
0,
2,
2,
1,
1,
-1,
-1,
-1,
-1,
1,
1,
-1,
-1,
-1,
-1,
-1,
-1,
-1,
-1,
0,
0,
-1,
-1,
0,
0,
0,
0,
2,
2,
2,
2,
-1,
-1,
4,
4,
3,
3,
1,
1,
4,
4,
1,
1,
1,
1,
0,
0,
-1,
-1,
-1,
-1,
-1,
-1,
0,
0,
1,
1,
-1,
-1,
0,
0,
-1,
-1,
0,
0,
0,
0,
-1,
-1,
1,
1,
3,
3,
6,
6,
5,
5,
0,
0,
2,
2,
3,
3,
-2,
-2,
0,
0,
1,
1,
0,
0,
-1,
-1,
0,
0,
2,
2,
3,
3,
0,
0,
1,
1,
5,
5,
5,
5,
2,
2,
-1,
-1,
0,
0,
2,
2,
1,
1,
1,
1,
4,
4,
5,
5,
5,
5,
5,
5,
4,
4,
0,
0,
3,
3,
7,
7,
13,
13,
10,
10,
5,
5,
1,
1,
-1,
-1,
1,
1,
2,
2,
6,
6,
10,
10,
8,
8,
3,
3,
4,
4,
12,
12,
9,
9,
2,
2,
1,
1,
0,
0,
1,
1,
2,
2,
2,
2,
-1,
-1,
2,
2,
2,
2,
1,
1,
4,
4,
4,
4,
2,
2,
-1,
-1,
1,
1,
5,
5,
8,
8,
9,
9,
6,
6,
2,
2,
1,
1,
6,
6,
8,
8,
9,
9,
6,
6,
4,
4,
0,
0,
0,
0,
0,
0,
2,
2,
0,
0,
0,
0,
2,
2,
0,
0,
1,
1,
3,
3,
1,
1,
0,
0,
1,
1,
1,
1,
4,
4,
2,
2,
1,
1,
1,
1,
-1,
-1,
-1,
-1,
0,
0,
0,
0,
0,
0,
1,
1,
7,
7,
7,
7,
2,
2,
1,
1,
-1,
-1,
4,
4,
1,
1,
2,
2,
-1,
-1,
1,
1,
4,
4,
7,
7,
5,
5,
3,
3,
1,
1,
0,
0,
5,
5,
1,
1,
5,
5,
4,
4,
2,
2,
6,
6,
1,
1,
5,
5,
0,
0,
7,
7,
5,
5,
-1,
-1,
2,
2,
-1,
-1,
3,
3,
3,
3,
4,
4,
1,
1,
5,
5,
6,
6,
6,
6,
3,
3,
0,
0,
1,
1,
3,
3,
6,
6,
6,
6,
5,
5,
1,
1,
2,
2,
1,
1,
-1,
-1,
-2,
-2,
0,
0,
1,
1,
3,
3,
1,
1,
3,
3,
4,
4,
8,
8,
9,
9,
7,
7,
0,
0,
-1,
-1,
-2,
-2,
0,
0,
0,
0,
2,
2,
6,
6,
2,
2,
6,
6,
5,
5,
2,
2,
2,
2,
-1,
-1,
3,
3,
2,
2,
1,
1,
0,
0,
3,
3,
1,
1,
1,
1,
1,
1,
3,
3,
6,
6,
6,
6,
9,
9,
9,
9,
6,
6,
6,
6,
0,
0,
7,
7,
17,
17,
18,
18,
12,
1,
2,
2,
6,
6,
1,
1,
5,
5,
5,
5,
4,
4,
3,
3,
4,
4,
3,
3,
3,
3,
3,
3,
1,
1,
3,
3,
1,
1,
3,
3,
5,
5,
2,
2,
1,
1,
2,
2,
2,
2,
3,
3,
-1,
-1,
6,
6,
4,
4,
4,
4,
2,
2,
2,
2,
4,
4,
5,
5,
1,
1,
1,
1,
0,
0,
0,
0,
2,
2,
2,
2,
3,
3,
1,
1,
0,
0,
4,
4,
1,
1,
-2,
-2,
0,
0,
0,
0,
1,
1,
3,
3,
2,
2,
0,
0,
1,
1,
0,
0,
0,
0,
1,
1,
1,
1,
3,
3,
4,
4,
2,
2,
2,
2,
2,
2,
0,
0,
0,
0,
5,
5,
5,
5,
5,
5,
2,
2,
-1,
-1,
1,
1,
2,
2,
3,
3,
0,
0,
-1,
-1,
1,
1,
2,
2,
1,
1,
0,
0,
-1,
-1,
-1,
-1,
-1,
-1,
0,
0,
0,
0,
2,
2,
4,
4,
5,
5,
3,
3,
-1,
-1,
3,
3,
1,
1,
-1,
-1,
0,
0,
2,
2,
12,
12,
13,
13,
10,
10,
5,
5,
3,
3,
4,
4,
6,
6,
7,
7,
3,
3,
0,
0,
0,
0,
0,
0,
-1,
-1,
0,
0,
0,
0,
1,
1,
1,
1,
0,
0,
0,
0,
0,
0,
2,
2,
1,
1,
9,
9,
9,
9,
5,
5,
1,
1,
6,
26,
25,
5,
6,
6,
9,
9,
16,
16,
22,
22,
20,
20,
12,
0,
1,
1,
6,
6,
8,
8,
10,
10,
7,
7,
6,
6,
8,
8,
7,
7,
9,
9,
2,
2,
-1,
-1,
4,
4,
6,
6,
2,
2,
0,
0,
5,
5,
6,
6,
2,
2,
7,
7,
9,
9,
7,
7,
6,
6,
6,
6,
3,
3,
1,
1,
1,
1,
2,
2,
2,
2,
2,
2,
2,
2,
1,
1,
3,
3,
4,
4,
5,
5,
2,
2,
3,
3,
0,
0,
0,
0,
9,
9,
13,
13,
12,
12,
7,
7,
0,
0,
1,
1,
1,
1,
4,
4,
8,
8,
6,
6,
1,
1,
0,
0,
1,
1,
1,
1,
1,
1,
0,
0,
1,
1,
6,
6,
6,
6,
5,
5,
6,
6,
4,
4,
0,
0,
0,
0,
-1,
-1,
2,
2,
6,
6,
7,
7,
6,
6,
4,
4,
0,
0,
1,
1,
1,
1,
5,
5,
6,
6,
6,
6,
4,
4,
0,
0,
0,
0,
-1,
-1,
0,
0,
1,
1,
1,
1,
3,
3,
2,
2,
2,
2,
2,
2,
2,
2,
3,
3,
0,
0,
3,
3,
3,
3,
0,
0,
1,
1,
5,
5,
6,
6,
4,
4,
4,
4,
3,
3,
11,
11,
12,
12,
9,
9,
9,
9,
7,
7,
6,
6,
0,
0,
9,
9,
8,
8,
5,
5,
4,
4,
10,
10,
10,
10,
5,
5,
3,
3,
1,
1,
8,
8,
6,
6,
7,
7,
5,
5,
8,
8,
5,
5,
5,
5,
0,
0,
1,
1,
3,
3,
2,
2,
0,
0,
-1,
-1,
-1,
-1,
3,
3,
1,
1,
0,
0,
0,
0,
1,
1,
4,
4,
3,
3,
3,
3,
2,
2,
-1,
-1,
-1,
-1,
1,
1,
4,
4,
2,
2,
5,
5,
5,
5,
0,
0,
1,
1,
2,
2,
3,
3,
9,
9,
11,
11,
8,
8,
2,
2,
4,
4,
7,
7,
4,
4,
1,
1,
2,
2,
1,
1,
5,
5,
1,
1,
-1,
-1,
2,
2,
2,
2,
2,
2,
11,
11,
9,
9,
5,
5,
5,
5,
0,
0,
0,
0,
2,
2,
4,
4,
3,
3,
0,
0,
-1,
-1,
2,
2,
2,
2,
1,
1,
9,
9,
1,
1,
5,
5,
1,
1,
8,
8,
2,
2,
2,
2,
3,
3,
2,
2,
4,
4,
0,
0,
7,
7,
9,
9,
6,
6,
11,
11,
14,
14,
9,
9,
6,
6,
6,
6,
9,
50,
50,
8,
9,
9,
6,
6,
9,
9,
2,
2,
10,
10,
12,
1,
3,
14,
13,
13,
6,
6,
2,
2,
6,
6,
0,
0,
2,
2,
6,
6,
6,
6,
6,
6,
9,
9,
2,
2,
4,
4,
1,
1,
0,
0,
2,
2,
-1,
-1,
-1,
-1,
4,
4,
4,
4,
0,
0,
10,
10,
5,
5,
1,
61,
60,
16,
30,
58,
57,
57,
61,
50,
51,
33,
34,
15,
16,
1,
5,
25,
25,
39,
38,
38,
46,
46,
47,
47,
42,
42,
32,
32,
25,
14,
14,
1,
1,
1,
4,
4,
12,
12,
14,
14,
19,
19,
26,
26,
27,
27,
24,
24,
23,
23,
22,
9,
9,
9,
10,
10,
2,
2,
1,
1,
3,
3,
2,
2,
-1,
-1,
1,
1,
4,
4,
6,
6,
7,
7,
6,
6,
5,
5,
2,
2,
5,
5,
-1,
-1,
0,
0,
1,
1,
0,
0,
2,
2,
2,
2,
3,
3,
0,
0,
1,
1,
0,
0,
2,
2,
3,
3,
4,
4,
2,
2,
0,
0,
-1,
-1,
0,
0,
-1,
-1,
1,
1,
2,
2,
1,
1,
0,
0,
0,
0,
1,
1,
-1,
-1,
1,
1,
2,
2,
2,
2,
0,
0,
2,
2,
2,
2,
5,
5,
1,
1,
10,
10,
7,
7,
8,
8,
3,
3,
1,
1,
5,
16,
15,
15,
16,
16,
12,
1,
2,
2,
4,
4,
7,
7,
9,
9,
10,
10,
10,
10,
8,
8,
6,
6,
2,
2,
4,
4,
10,
10,
9,
9,
8,
8,
5,
5,
0,
0,
1,
1,
-1,
-1,
2,
2,
2,
2,
2,
2,
10,
10,
1,
1,
3,
3,
3,
3,
1,
1,
0,
0,
0,
0,
0,
0,
2,
2,
-1,
-1,
4,
4,
4,
4,
2,
2,
2,
2,
1,
1,
0,
0,
2,
2,
2,
2,
1,
1,
0,
0,
4,
4,
5,
5,
4,
4,
4,
4,
2,
2,
1,
1,
-1,
-1,
1,
1,
2,
2,
5,
5,
7,
7,
5,
5,
0,
0,
-1,
-1,
1,
1,
0,
0,
0,
0,
1,
1,
0,
0,
4,
4,
2,
2,
7,
7,
4,
4,
4,
15,
14,
60,
39,
18,
34,
34,
38,
14,
55,
17,
21,
37,
36,
4,
4,
4,
4,
18,
17,
6,
6,
6,
5,
5,
5,
5,
2,
16,
16,
16,
16,
16,
18,
18,
17,
17,
13,
13,
5,
5,
2,
2,
6,
6,
8,
8,
11,
11,
15,
15,
12,
12,
5,
5,
2,
2,
2,
2,
2,
2,
0,
0,
0,
0,
-1,
-1,
2,
2,
2,
2,
0,
0,
1,
1,
-1,
-1,
4,
4,
3,
3,
5,
5,
0,
0,
0,
0,
2,
2,
4,
4,
6,
6,
2,
2,
0,
0,
0,
0,
0,
0,
8,
8,
4,
4,
0,
0,
0,
0,
2,
2,
0,
60,
60,
11,
12,
36,
36,
51,
50,
50,
42,
25,
26,
14,
14,
14,
5,
33,
10,
10,
2,
2,
7,
7,
12,
12,
14,
14,
16,
16,
13,
13,
12,
12,
10,
10,
7,
7,
2,
2,
-1,
-1,
3,
3,
9,
9,
10,
10,
9,
9,
8,
8,
6,
6,
3,
3,
3,
3,
5,
5,
4,
4,
5,
5,
6,
6,
2,
2,
-1,
-1,
2,
2,
4,
4,
5,
5,
4,
4,
4,
4,
1,
1,
-1,
-1,
1,
1,
-1,
-1,
-1,
-1,
0,
0,
0,
0,
0,
0,
1,
1,
0,
0,
-1,
-1,
0,
0,
-2,
-2,
2,
2,
1,
1,
-1,
-1,
0,
0,
-1,
-1,
-1,
-1,
1,
1,
2,
2,
4,
4,
4,
4,
5,
5,
7,
7,
6,
6,
2,
2,
1,
1,
9,
9,
10,
10,
8,
8,
4,
4,
2,
2,
1,
1,
4,
4,
4,
4,
2,
2,
0,
0,
3,
3,
2,
2,
2,
2,
-1,
-1,
0,
0,
-1,
-1,
1,
1,
4,
4,
6,
6,
4,
4,
2,
2,
0,
0,
6,
6,
10,
10,
15,
15,
14,
14,
8,
8,
2,
2,
0,
0,
-1,
-1,
2,
2,
6,
6,
8,
8,
8,
8,
8,
8,
8,
8,
6,
6,
3,
3,
0,
0,
1,
1,
5,
5,
8,
8,
9,
9,
9,
9,
8,
8,
4,
4,
0,
0,
2,
2,
3,
3,
5,
5,
6,
6,
6,
6,
2,
2,
1,
1,
3,
3,
6,
6,
5,
5,
4,
4,
4,
4,
5,
5,
2,
2,
-1,
-1,
2,
2,
5,
5,
6,
6,
4,
4,
4,
4,
1,
1,
2,
2,
6,
6,
8,
8,
5,
5,
1,
1,
1,
1,
1,
1,
1,
1,
1,
1,
3,
3,
2,
2,
3,
3,
0,
0,
-1,
-1,
-1,
-1,
0,
0,
2,
2,
3,
3,
4,
4,
4,
4,
2,
2,
1,
1,
2,
2,
2,
2,
1,
1,
0,
0,
3,
3,
2,
2,
2,
2,
2,
2,
1,
1,
-2,
-2,
0,
0,
1,
1,
1,
1,
2,
2,
3,
3,
1,
1,
2,
2,
1,
1,
1,
1,
1,
1,
-1,
-1,
0,
0,
0,
0,
0,
0,
2,
2,
1,
1,
0,
0,
1,
1,
4,
4,
2,
2,
0,
0,
1,
1,
0,
0,
-1,
-1,
0,
0,
1,
1,
-2,
-2,
0,
0,
1,
1,
-1,
-1,
1,
1,
0,
0,
-1,
-1,
1,
1,
0,
0,
0,
0,
0,
0,
1,
1,
2,
2,
0,
0,
0,
0,
0,
0,
0,
0,
-1,
-1,
0,
0,
-1,
-1,
-1,
-1,
-1,
-1,
2,
2,
5,
5,
7,
7,
5,
5,
1,
1,
0,
0,
2,
2,
4,
4,
6,
6,
6,
6,
1,
1,
3,
3,
8,
8,
8,
8,
4,
4,
0,
0,
1,
1,
4,
4,
2,
2,
-1,
-1,
3,
3,
2,
2,
3,
3,
0,
0,
0,
0,
3,
3,
3,
3,
2,
2,
0,
0,
0,
0,
0,
0,
1,
1,
1,
1,
3,
3,
2,
2,
1,
1,
1,
1,
1,
1,
1,
1,
1,
1,
1,
1,
1,
1,
-1,
-1,
0,
0,
0,
0,
2,
2,
3,
3,
1,
1,
-1,
-1,
1,
1,
0,
0,
-2,
-2,
0,
0,
2,
2,
2,
2,
1,
1,
0,
0,
-1,
-1,
0,
0,
0,
0,
1,
1,
2,
2,
2,
2,
2,
2,
1,
1,
1,
1,
4,
4,
5,
5,
1,
1,
1,
1,
1,
1,
2,
2,
1,
1,
2,
2,
2,
2,
-1,
-1,
1,
1,
1,
1,
2,
2,
1,
1,
2,
2,
2,
2,
1,
1,
1,
1,
0,
0,
3,
3,
3,
3,
2,
2,
0,
0,
2,
2,
4,
4,
3,
3,
4,
4,
3,
3,
-1,
-1,
1,
1,
2,
2,
3,
3,
4,
4,
4,
4,
0,
0,
1,
1,
2,
2,
3,
3,
6,
6,
9,
9,
9,
9,
6,
6,
1,
1,
2,
2,
2,
2,
2,
2,
5,
5,
3,
3,
2,
2,
2,
2,
5,
5,
6,
6,
5,
5,
1,
1,
0,
0,
3,
3,
2,
2,
3,
3,
4,
4,
4,
4,
6,
6,
10,
10,
6,
6,
1,
1,
-1,
-1,
1,
1,
2,
2,
1,
1,
1,
1,
1,
1,
4,
4,
4,
4,
0,
0,
0,
0,
-1,
-1,
0,
0,
2,
2,
2,
2,
2,
2,
3,
3,
5,
5,
4,
4,
2,
2,
8,
8,
10,
10,
10,
10,
7,
7,
4,
4,
1,
1,
1,
1,
2,
2,
2,
2,
5,
5,
5,
5,
5,
5,
6,
6,
2,
2,
0,
0,
4,
4,
2,
2,
0,
0,
-1,
-1,
0,
0,
0,
0,
1,
1,
1,
1,
1,
1,
-1,
-1,
0,
0,
1,
1,
3,
3,
2,
2,
1,
1,
-1,
-1,
0,
0,
0,
0,
1,
1,
2,
2,
1,
1,
-1,
-1,
0,
0,
-1,
-1,
1,
1,
0,
0,
0,
0,
1,
1,
2,
2,
5,
5,
4,
4,
3,
3,
0,
0,
0,
0,
4,
4,
5,
5,
4,
4,
0,
0,
1,
1,
1,
1,
0,
0,
0,
0,
0,
0,
0,
0,
1,
1,
0,
0,
-1,
-1,
0,
0,
3,
3,
5,
5,
6,
6,
5,
5,
8,
8,
9,
9,
3,
3,
5,
5,
14,
14,
18,
18,
13,
13,
7,
7,
6,
6,
0,
0,
3,
3,
6,
6,
9,
9,
9,
9,
5,
5,
-1,
-1,
2,
2,
0,
0,
0,
0,
6,
6,
13,
13,
16,
16,
17,
17,
8,
8,
0,
0,
5,
5,
6,
6,
12,
12,
15,
15,
13,
13,
14,
14,
10,
10,
7,
7,
2,
2,
3,
3,
6,
6,
9,
9,
10,
10,
11,
11,
6,
6,
1,
1,
7,
7,
