EMG_S2/DS0063.CSV

Memory Length,4000,
Trigger Level,-4.80000e+02,
Source,CH1,
Probe,1.0X,
Vertical Units,V,
Vertical Scale,1.00000e+00,
Vertical Position,0.00000e+00,
Horizontal Units,S,
Horizontal Scale,1.00000e-01,
Horizontal Position,0.0000000e+00,
Horizontal Mode,Roll Mode,
Waveform Last Dot Address,4000,
Sampling Period,4.00000e-04,
Firmware,V1.14,
Time, ,
Mode,Fast,
Waveform Data,
1,
1,
0,
0,
6,
6,
6,
6,
18,
18,
17,
17,
20,
8,
8,
8,
5,
5,
9,
9,
13,
13,
16,
16,
10,
10,
1,
12,
11,
11,
15,
15,
7,
7,
1,
1,
8,
8,
6,
6,
-1,
-1,
1,
1,
4,
4,
0,
0,
0,
0,
0,
0,
2,
2,
7,
7,
15,
15,
19,
19,
17,
17,
15,
15,
9,
9,
1,
1,
2,
2,
9,
9,
10,
10,
8,
8,
5,
5,
6,
6,
15,
15,
22,
22,
17,
6,
7,
7,
5,
5,
1,
1,
5,
5,
9,
9,
10,
10,
10,
10,
8,
8,
9,
9,
12,
12,
15,
15,
14,
14,
9,
9,
1,
1,
4,
4,
14,
25,
25,
25,
25,
25,
29,
29,
34,
20,
20,
1,
6,
42,
42,
63,
62,
62,
64,
64,
65,
46,
46,
8,
13,
43,
42,
62,
61,
61,
64,
64,
64,
64,
62,
46,
47,
30,
31,
15,
16,
1,
2,
2,
9,
21,
21,
21,
28,
28,
32,
32,
33,
33,
33,
33,
28,
28,
23,
23,
17,
17,
10,
10,
3,
3,
-1,
-1,
4,
4,
8,
8,
9,
9,
10,
10,
12,
12,
6,
6,
3,
3,
0,
0,
0,
0,
-1,
-1,
4,
4,
7,
7,
5,
5,
3,
3,
5,
5,
12,
12,
15,
15,
21,
21,
21,
21,
20,
20,
13,
1,
3,
18,
18,
34,
33,
33,
37,
37,
32,
17,
18,
1,
2,
2,
12,
12,
17,
17,
13,
2,
10,
33,
33,
49,
48,
48,
45,
14,
14,
27,
26,
54,
53,
53,
61,
61,
52,
38,
38,
24,
25,
8,
9,
9,
13,
26,
25,
25,
20,
7,
8,
8,
3,
3,
0,
0,
0,
0,
6,
19,
18,
32,
32,
32,
36,
36,
34,
18,
18,
5,
5,
5,
3,
3,
9,
9,
10,
10,
10,
10,
16,
16,
15,
15,
15,
15,
16,
16,
10,
10,
4,
4,
0,
0,
1,
1,
3,
3,
0,
0,
8,
8,
17,
17,
19,
19,
25,
25,
16,
1,
3,
3,
13,
26,
26,
58,
58,
58,
64,
64,
65,
65,
64,
47,
49,
12,
12,
31,
30,
61,
61,
61,
65,
65,
64,
64,
65,
65,
62,
62,
54,
38,
38,
17,
18,
1,
2,
20,
18,
32,
32,
32,
42,
42,
47,
47,
45,
45,
37,
26,
26,
26,
20,
20,
21,
21,
14,
14,
6,
6,
4,
4,
9,
9,
6,
6,
8,
8,
11,
11,
8,
8,
6,
6,
0,
0,
9,
9,
11,
11,
3,
14,
14,
14,
15,
15,
13,
13,
6,
6,
2,
2,
1,
1,
1,
1,
4,
4,
4,
4,
1,
1,
0,
0,
-1,
-1,
-2,
-2,
2,
2,
4,
4,
8,
8,
14,
14,
12,
12,
6,
6,
2,
2,
1,
1,
1,
1,
0,
0,
2,
2,
2,
2,
3,
3,
2,
2,
1,
1,
1,
1,
1,
1,
2,
2,
1,
1,
1,
1,
2,
2,
0,
0,
0,
0,
1,
1,
2,
2,
6,
6,
5,
5,
4,
4,
5,
5,
-1,
-1,
6,
6,
7,
7,
12,
12,
14,
14,
6,
6,
1,
1,
9,
9,
14,
14,
17,
17,
20,
20,
12,
12,
6,
6,
5,
20,
19,
19,
26,
26,
28,
28,
26,
12,
12,
1,
3,
25,
25,
48,
48,
48,
48,
25,
25,
3,
3,
3,
-1,
-1,
3,
18,
17,
29,
28,
28,
30,
30,
25,
25,
17,
17,
8,
8,
2,
2,
6,
6,
8,
8,
7,
7,
9,
9,
7,
7,
3,
3,
0,
0,
3,
3,
2,
2,
5,
5,
12,
12,
13,
13,
5,
5,
3,
3,
6,
6,
6,
6,
7,
7,
7,
7,
4,
4,
1,
1,
0,
0,
1,
1,
2,
2,
2,
2,
2,
2,
0,
0,
-1,
-1,
1,
1,
5,
5,
5,
5,
1,
1,
5,
5,
6,
6,
8,
8,
7,
7,
1,
1,
9,
9,
12,
12,
8,
8,
0,
0,
9,
9,
15,
15,
14,
14,
10,
10,
3,
3,
5,
5,
13,
13,
18,
18,
13,
13,
5,
5,
8,
24,
24,
24,
20,
8,
8,
8,
5,
5,
14,
14,
14,
14,
12,
12,
9,
9,
7,
7,
4,
4,
2,
2,
1,
1,
-1,
-1,
3,
3,
9,
9,
14,
14,
13,
13,
8,
8,
1,
1,
0,
0,
2,
2,
7,
7,
11,
11,
8,
8,
1,
1,
6,
6,
10,
10,
8,
8,
5,
5,
-1,
-1,
-2,
-2,
-1,
-1,
2,
2,
3,
3,
2,
2,
0,
0,
0,
0,
2,
2,
2,
2,
1,
1,
3,
3,
5,
5,
2,
2,
3,
3,
4,
4,
2,
2,
1,
1,
2,
2,
4,
4,
6,
6,
6,
6,
2,
2,
1,
1,
0,
0,
4,
4,
10,
10,
14,
14,
10,
10,
3,
3,
0,
0,
1,
1,
1,
1,
3,
3,
3,
3,
3,
3,
2,
2,
2,
2,
3,
3,
4,
4,
5,
5,
5,
5,
3,
3,
1,
1,
10,
10,
16,
16,
18,
18,
17,
17,
9,
9,
6,
25,
24,
39,
38,
38,
39,
39,
32,
32,
23,
9,
10,
10,
7,
21,
20,
20,
30,
30,
34,
34,
31,
31,
27,
27,
19,
19,
10,
10,
2,
2,
6,
6,
13,
13,
14,
14,
14,
14,
12,
12,
10,
10,
10,
10,
8,
8,
7,
7,
7,
7,
1,
1,
2,
2,
6,
6,
6,
6,
0,
0,
3,
3,
5,
5,
2,
2,
6,
6,
10,
10,
6,
6,
2,
2,
1,
1,
1,
1,
5,
17,
16,
16,
20,
20,
16,
16,
12,
12,
8,
8,
9,
9,
2,
2,
5,
5,
13,
13,
20,
20,
18,
18,
14,
14,
8,
8,
3,
3,
0,
0,
4,
4,
4,
4,
1,
1,
0,
0,
1,
1,
0,
0,
0,
0,
-1,
-1,
1,
1,
4,
4,
3,
3,
3,
3,
3,
3,
-1,
-1,
2,
2,
7,
7,
8,
8,
3,
3,
-1,
-1,
0,
0,
1,
1,
2,
2,
3,
3,
1,
1,
-1,
-1,
0,
0,
-1,
-1,
0,
0,
-1,
-1,
-1,
-1,
2,
2,
3,
3,
2,
2,
0,
0,
2,
2,
1,
1,
3,
3,
-1,
-1,
0,
0,
0,
0,
-1,
-1,
-1,
-1,
1,
1,
3,
3,
2,
2,
1,
1,
4,
4,
1,
1,
-1,
-1,
2,
2,
5,
5,
4,
4,
3,
3,
0,
0,
2,
2,
2,
2,
2,
2,
2,
13,
13,
13,
17,
31,
30,
30,
35,
22,
22,
2,
3,
3,
10,
10,
18,
18,
25,
25,
31,
31,
33,
33,
30,
30,
25,
25,
17,
17,
9,
9,
8,
8,
2,
16,
15,
28,
28,
42,
41,
55,
54,
54,
52,
25,
26,
2,
4,
4,
10,
21,
21,
21,
29,
29,
28,
28,
24,
24,
21,
21,
12,
0,
0,
0,
9,
21,
20,
20,
29,
29,
19,
6,
6,
6,
1,
1,
6,
6,
6,
6,
2,
2,
5,
5,
7,
7,
4,
4,
1,
1,
0,
0,
5,
5,
9,
9,
10,
10,
8,
8,
0,
11,
10,
24,
23,
23,
29,
14,
16,
2,
10,
10,
15,
4,
4,
4,
6,
20,
20,
20,
20,
2,
4,
15,
14,
14,
21,
21,
16,
16,
9,
9,
5,
5,
2,
2,
0,
0,
2,
2,
5,
5,
8,
8,
7,
7,
4,
4,
6,
6,
3,
3,
10,
10,
1,
12,
12,
12,
20,
8,
9,
9,
6,
6,
9,
9,
5,
5,
1,
1,
3,
3,
6,
6,
7,
7,
7,
7,
4,
4,
4,
4,
7,
7,
12,
12,
8,
8,
2,
14,
14,
25,
24,
24,
31,
31,
35,
35,
28,
28,
18,
6,
6,
6,
6,
21,
20,
31,
30,
30,
38,
38,
38,
38,
29,
29,
19,
4,
5,
5,
14,
14,
22,
22,
20,
20,
17,
28,
27,
42,
41,
41,
38,
11,
12,
1,
2,
2,
1,
1,
2,
18,
18,
18,
28,
28,
29,
29,
27,
27,
25,
25,
17,
17,
8,
8,
4,
4,
0,
0,
2,
2,
10,
10,
14,
14,
12,
12,
12,
12,
14,
14,
18,
18,
14,
3,
4,
4,
10,
21,
20,
6,
6,
6,
16,
33,
32,
43,
42,
30,
30,
12,
13,
1,
4,
18,
18,
18,
26,
26,
32,
32,
34,
34,
26,
14,
14,
14,
10,
10,
9,
9,
2,
2,
0,
0,
4,
4,
10,
10,
10,
10,
13,
13,
13,
13,
10,
10,
7,
7,
0,
0,
7,
7,
6,
6,
6,
6,
2,
2,
10,
24,
24,
36,
35,
35,
30,
18,
18,
5,
6,
6,
12,
25,
25,
25,
25,
25,
20,
20,
15,
15,
8,
8,
0,
0,
3,
15,
15,
15,
15,
15,
14,
14,
10,
10,
2,
19,
19,
39,
38,
38,
42,
42,
33,
20,
21,
1,
2,
17,
17,
17,
24,
24,
20,
20,
12,
12,
3,
3,
2,
2,
9,
9,
7,
7,
2,
2,
2,
2,
6,
6,
9,
9,
12,
12,
11,
11,
4,
4,
-1,
-1,
-1,
-1,
1,
1,
6,
6,
10,
10,
9,
9,
8,
8,
9,
9,
17,
17,
22,
22,
14,
0,
1,
1,
5,
5,
6,
6,
6,
6,
8,
8,
12,
12,
11,
11,
8,
8,
9,
9,
10,
10,
9,
9,
2,
2,
5,
5,
12,
12,
9,
9,
5,
5,
0,
0,
0,
0,
6,
6,
12,
12,
6,
6,
2,
17,
16,
35,
34,
34,
42,
42,
33,
3,
4,
4,
14,
14,
23,
23,
24,
24,
18,
18,
13,
13,
14,
14,
21,
21,
28,
28,
26,
4,
4,
24,
23,
42,
42,
42,
45,
45,
40,
23,
24,
6,
7,
7,
5,
5,
14,
14,
18,
18,
18,
18,
18,
18,
14,
14,
14,
14,
12,
12,
6,
6,
2,
2,
10,
10,
18,
18,
22,
22,
15,
1,
1,
1,
5,
5,
2,
2,
7,
19,
18,
18,
18,
18,
12,
12,
9,
28,
27,
39,
38,
38,
42,
42,
35,
11,
12,
12,
18,
42,
42,
55,
54,
54,
61,
61,
53,
30,
30,
4,
6,
29,
29,
29,
38,
38,
40,
40,
38,
38,
34,
34,
28,
15,
15,
1,
2,
2,
6,
6,
12,
12,
13,
13,
10,
10,
10,
10,
10,
10,
11,
11,
12,
12,
10,
10,
8,
8,
9,
9,
4,
4,
0,
0,
2,
2,
2,
2,
2,
2,
8,
8,
8,
8,
5,
5,
7,
7,
10,
10,
8,
8,
10,
10,
10,
10,
2,
18,
18,
34,
34,
34,
40,
29,
29,
17,
17,
2,
5,
22,
22,
22,
30,
30,
30,
30,
26,
26,
22,
22,
14,
14,
6,
6,
1,
1,
3,
3,
7,
7,
10,
10,
13,
13,
13,
13,
12,
12,
10,
10,
10,
10,
10,
10,
8,
8,
6,
6,
2,
2,
0,
0,
0,
0,
3,
3,
4,
4,
3,
3,
2,
2,
3,
3,
3,
3,
2,
2,
2,
2,
1,
1,
7,
7,
10,
10,
7,
7,
0,
0,
5,
5,
3,
3,
4,
4,
13,
13,
20,
20,
20,
20,
10,
10,
5,
5,
1,
15,
14,
14,
14,
14,
6,
6,
10,
10,
17,
17,
16,
2,
3,
3,
4,
4,
0,
0,
3,
3,
3,
3,
6,
25,
24,
43,
43,
43,
43,
25,
25,
4,
10,
32,
32,
32,
34,
34,
35,
35,
31,
31,
26,
26,
20,
9,
9,
9,
0,
0,
0,
0,
7,
7,
13,
13,
19,
32,
32,
32,
29,
29,
20,
9,
10,
10,
6,
6,
3,
3,
2,
2,
6,
6,
6,
6,
5,
5,
5,
5,
2,
17,
16,
16,
26,
26,
26,
26,
21,
21,
16,
16,
10,
10,
6,
6,
2,
2,
1,
1,
5,
5,
9,
9,
12,
12,
12,
12,
10,
10,
10,
10,
7,
7,
6,
6,
4,
4,
2,
2,
1,
1,
0,
0,
0,
0,
0,
0,
4,
4,
7,
7,
5,
5,
3,
3,
7,
7,
10,
10,
10,
10,
11,
11,
9,
9,
5,
28,
27,
48,
48,
48,
53,
30,
31,
3,
5,
5,
13,
13,
13,
13,
11,
11,
16,
16,
25,
25,
26,
26,
24,
24,
20,
20,
13,
13,
6,
6,
0,
0,
6,
6,
8,
8,
12,
12,
18,
18,
19,
19,
17,
17,
9,
9,
4,
4,
1,
1,
-1,
10,
10,
10,
18,
18,
12,
12,
2,
19,
19,
40,
40,
54,
53,
53,
43,
5,
6,
21,
21,
21,
28,
28,
32,
32,
33,
33,
31,
31,
22,
22,
15,
15,
11,
11,
8,
8,
5,
5,
0,
0,
9,
24,
23,
23,
30,
30,
29,
29,
24,
24,
18,
18,
12,
12,
5,
5,
0,
0,
-1,
-1,
1,
1,
7,
7,
12,
12,
13,
13,
13,
13,
9,
9,
9,
9,
8,
8,
2,
2,
1,
1,
5,
5,
4,
4,
0,
0,
2,
2,
5,
5,
14,
14,
23,
23,
15,
1,
6,
29,
28,
40,
40,
40,
49,
49,
54,
35,
35,
12,
13,
-1,
1,
14,
14,
33,
33,
33,
38,
38,
38,
26,
26,
26,
17,
17,
18,
18,
15,
15,
10,
10,
4,
4,
0,
0,
5,
5,
6,
6,
5,
5,
3,
3,
6,
17,
16,
16,
22,
22,
26,
14,
15,
15,
8,
8,
1,
1,
0,
0,
6,
6,
9,
9,
6,
6,
2,
18,
18,
18,
12,
1,
8,
25,
24,
24,
17,
1,
2,
16,
14,
14,
21,
21,
23,
23,
25,
25,
23,
23,
21,
10,
12,
12,
2,
2,
4,
4,
10,
10,
14,
14,
15,
15,
14,
14,
14,
14,
11,
11,
8,
8,
6,
6,
7,
7,
4,
4,
4,
4,
9,
9,
10,
10,
8,
8,
2,
2,
5,
17,
15,
37,
35,
35,
43,
31,
32,
3,
4,
20,
20,
37,
37,
37,
38,
38,
32,
32,
26,
26,
18,
6,
6,
6,
0,
0,
0,
0,
-1,
-1,
2,
2,
6,
6,
9,
9,
11,
11,
10,
10,
10,
10,
11,
11,
8,
8,
8,
8,
9,
9,
8,
8,
3,
3,
0,
0,
3,
3,
0,
0,
0,
0,
2,
2,
5,
5,
6,
6,
8,
8,
6,
6,
0,
0,
5,
5,
7,
7,
1,
1,
2,
2,
6,
6,
10,
10,
8,
8,
6,
22,
21,
21,
28,
28,
29,
9,
10,
10,
13,
24,
24,
24,
33,
33,
29,
29,
20,
5,
6,
6,
12,
28,
26,
42,
41,
20,
21,
6,
6,
6,
1,
12,
10,
10,
12,
12,
8,
8,
3,
3,
2,
2,
6,
6,
12,
12,
16,
16,
13,
13,
4,
4,
5,
5,
12,
12,
15,
15,
20,
20,
29,
29,
33,
33,
33,
33,
23,
2,
3,
19,
18,
18,
28,
28,
30,
30,
26,
26,
19,
19,
18,
18,
21,
21,
18,
18,
13,
1,
3,
14,
14,
14,
17,
17,
18,
18,
28,
28,
33,
33,
32,
32,
26,
9,
9,
9,
5,
5,
13,
13,
17,
17,
17,
17,
17,
17,
15,
15,
13,
13,
10,
10,
6,
6,
1,
1,
3,
3,
6,
6,
4,
4,
2,
2,
1,
1,
2,
2,
4,
4,
7,
7,
10,
10,
15,
15,
13,
0,
1,
13,
13,
13,
14,
14,
7,
7,
2,
2,
6,
6,
13,
13,
15,
15,
6,
6,
2,
2,
2,
2,
3,
3,
10,
10,
12,
12,
9,
9,
7,
7,
7,
7,
8,
8,
6,
6,
2,
2,
4,
4,
8,
8,
7,
7,
3,
3,
6,
21,
20,
31,
30,
30,
22,
5,
6,
30,
30,
62,
62,
62,
65,
65,
65,
35,
35,
6,
10,
26,
26,
26,
29,
29,
33,
45,
44,
44,
49,
49,
46,
46,
42,
42,
33,
33,
23,
10,
11,
11,
7,
7,
2,
21,
21,
38,
38,
51,
51,
51,
56,
56,
47,
36,
36,
36,
29,
15,
15,
1,
4,
22,
21,
32,
31,
31,
32,
32,
30,
30,
24,
24,
14,
14,
9,
9,
4,
4,
0,
0,
1,
1,
1,
1,
3,
3,
7,
7,
9,
9,
9,
9,
8,
8,
8,
8,
6,
6,
5,
5,
1,
1,
0,
0,
3,
3,
2,
2,
1,
1,
0,
0,
3,
3,
6,
6,
6,
6,
10,
10,
10,
10,
6,
6,
2,
2,
3,
15,
14,
14,
15,
4,
4,
4,
4,
4,
1,
1,
0,
0,
0,
0,
0,
0,
2,
2,
4,
4,
5,
5,
0,
0,
5,
5,
7,
7,
6,
6,
2,
2,
1,
1,
6,
6,
6,
6,
2,
2,
2,
2,
6,
6,
3,
3,
0,
0,
2,
2,
7,
7,
10,
10,
7,
7,
0,
0,
5,
5,
10,
10,
13,
13,
9,
9,
1,
1,
2,
19,
18,
33,
33,
33,
29,
8,
9,
9,
16,
41,
41,
63,
62,
62,
65,
65,
65,
34,
34,
4,
5,
17,
17,
41,
40,
59,
59,
59,
63,
63,
59,
59,
49,
37,
38,
20,
20,
1,
3,
15,
15,
15,
24,
24,
28,
28,
27,
27,
23,
23,
20,
20,
18,
18,
15,
15,
12,
12,
9,
9,
8,
8,
5,
5,
4,
4,
13,
13,
11,
11,
6,
6,
0,
0,
10,
10,
20,
20,
16,
1,
2,
2,
4,
4,
12,
12,
18,
18,
18,
18,
15,
15,
12,
12,
8,
8,
5,
5,
3,
3,
0,
0,
4,
4,
9,
9,
11,
11,
9,
9,
6,
6,
6,
6,
5,
5,
5,
5,
2,
2,
1,
1,
8,
8,
13,
13,
9,
9,
1,
1,
9,
9,
13,
13,
13,
13,
7,
7,
1,
1,
0,
0,
6,
6,
8,
8,
2,
2,
2,
2,
4,
4,
1,
1,
7,
7,
8,
8,
5,
5,
6,
6,
9,
9,
6,
6,
1,
1,
9,
21,
20,
20,
30,
30,
26,
9,
9,
9,
0,
0,
6,
6,
14,
14,
5,
5,
9,
9,
13,
13,
9,
9,
18,
29,
28,
28,
31,
31,
29,
29,
21,
21,
12,
12,
5,
5,
3,
3,
0,
0,
4,
22,
22,
41,
41,
60,
59,
59,
64,
64,
65,
40,
40,
5,
7,
30,
29,
42,
42,
42,
46,
46,
48,
48,
45,
34,
35,
22,
24,
24,
14,
14,
6,
6,
3,
3,
8,
8,
11,
11,
14,
14,
17,
17,
18,
18,
18,
18,
17,
17,
9,
9,
7,
7,
6,
6,
4,
4,
0,
0,
0,
0,
2,
2,
0,
0,
0,
0,
-1,
-1,
-1,
-1,
2,
2,
9,
9,
15,
15,
18,
18,
14,
14,
5,
5,
5,
5,
13,
13,
13,
13,
5,
5,
3,
3,
6,
6,
9,
9,
10,
10,
3,
3,
2,
2,
6,
6,
8,
8,
9,
9,
6,
6,
1,
1,
0,
0,
1,
1,
0,
0,
1,
1,
0,
0,
3,
3,
7,
7,
7,
7,
5,
5,
1,
1,
0,
0,
1,
1,
-1,
-1,
2,
2,
4,
4,
3,
3,
6,
6,
8,
8,
12,
12,
9,
9,
4,
4,
1,
1,
4,
4,
2,
2,
7,
19,
18,
33,
33,
33,
41,
41,
38,
38,
31,
7,
8,
19,
19,
36,
36,
36,
44,
44,
42,
42,
33,
33,
25,
25,
19,
19,
17,
17,
14,
14,
7,
7,
3,
14,
14,
30,
29,
29,
38,
38,
46,
46,
48,
48,
39,
19,
19,
1,
4,
19,
18,
18,
28,
28,
36,
36,
37,
26,
27,
8,
8,
8,
9,
22,
21,
10,
11,
11,
5,
24,
24,
24,
21,
3,
4,
35,
34,
49,
48,
34,
34,
34,
28,
28,
29,
14,
14,
2,
7,
28,
28,
43,
42,
42,
45,
45,
41,
28,
29,
15,
16,
16,
12,
12,
9,
9,
0,
0,
9,
9,
14,
14,
17,
17,
21,
21,
21,
21,
18,
18,
16,
16,
14,
14,
12,
12,
9,
9,
6,
6,
2,
2,
-1,
-1,
2,
2,
10,
10,
18,
18,
18,
18,
11,
0,
1,
1,
8,
19,
18,
18,
21,
6,
6,
6,
5,
5,
11,
11,
12,
12,
12,
12,
10,
10,
7,
7,
4,
4,
1,
1,
1,
1,
4,
4,
2,
2,
1,
1,
3,
3,
3,
3,
5,
5,
6,
6,
9,
9,
5,
5,
0,
0,
0,
0,
-1,
-1,
2,
2,
0,
0,
5,
5,
10,
10,
7,
7,
2,
2,
2,
2,
6,
6,
12,
12,
17,
17,
12,
0,
1,
1,
9,
9,
14,
14,
14,
14,
13,
13,
9,
9,
1,
1,
5,
5,
12,
12,
15,
15,
9,
9,
2,
2,
0,
0,
3,
3,
5,
5,
2,
2,
2,
2,
5,
5,
5,
5,
5,
5,
2,
2,
0,
0,
5,
5,
11,
11,
11,
11,
12,
12,
10,
10,
5,
5,
4,
4,
3,
3,
1,
1,
0,
0,
6,
6,
12,
12,
18,
18,
19,
19,
14,
14,
8,
8,
8,
8,
6,
6,
5,
5,
9,
9,
12,
12,
15,
15,
19,
19,
22,
22,
19,
19,
18,
18,
10,
10,
11,
-1,
0,
0,
6,
6,
15,
15,
24,
24,
29,
29,
30,
30,
31,
31,
25,
11,
12,
1,
1,
1,
2,
2,
7,
7,
14,
14,
15,
15,
17,
17,
15,
15,
11,
11,
10,
10,
5,
5,
2,
2,
2,
2,
4,
4,
3,
3,
11,
23,
22,
22,
25,
14,
14,
2,
7,
22,
21,
21,
26,
26,
26,
26,
28,
28,
26,
26,
18,
4,
4,
4,
4,
4,
7,
7,
9,
9,
10,
10,
14,
14,
18,
18,
14,
14,
8,
8,
5,
5,
2,
2,
0,
0,
-1,
-1,
0,
0,
3,
3,
2,
14,
13,
13,
20,
20,
19,
19,
11,
0,
1,
12,
12,
12,
22,
22,
25,
14,
16,
16,
9,
9,
6,
6,
4,
4,
0,
11,
10,
10,
18,
18,
17,
17,
14,
14,
12,
12,
9,
9,
3,
3,
2,
2,
-1,
-1,
1,
1,
6,
6,
11,
11,
14,
14,
13,
13,
9,
9,
6,
6,
5,
5,
3,
3,
0,
0,
7,
20,
20,
20,
23,
10,
11,
11,
6,
28,
28,
45,
44,
44,
49,
36,
36,
7,
7,
7,
14,
31,
31,
31,
38,
38,
33,
20,
20,
20,
13,
13,
15,
15,
16,
16,
11,
11,
4,
4,
6,
6,
10,
10,
12,
12,
13,
13,
15,
15,
17,
17,
11,
11,
6,
6,
5,
5,
5,
5,
5,
5,
0,
0,
2,
2,
5,
5,
3,
3,
1,
1,
3,
3,
6,
6,
2,
2,
1,
1,
1,
1,
0,
0,
2,
2,
2,
2,
5,
19,
17,
29,
29,
29,
27,
14,
14,
0,
1,
1,
8,
27,
26,
45,
44,
44,
48,
37,
38,
12,
12,
12,
8,
8,
15,
15,
20,
20,
22,
22,
20,
20,
16,
16,
14,
14,
14,
14,
9,
9,
0,
0,
6,
6,
12,
12,
18,
18,
20,
20,
19,
19,
12,
12,
2,
2,
8,
8,
15,
15,
16,
16,
11,
11,
7,
7,
5,
5,
13,
13,
21,
3,
5,
40,
40,
64,
62,
62,
64,
64,
66,
38,
38,
7,
14,
53,
53,
64,
63,
63,
64,
64,
64,
51,
51,
36,
37,
18,
19,
5,
6,
6,
6,
18,
17,
17,
26,
26,
27,
27,
28,
28,
25,
25,
18,
18,
13,
13,
12,
12,
13,
13,
10,
10,
6,
6,
1,
1,
1,
1,
4,
4,
6,
6,
8,
8,
5,
5,
3,
3,
3,
3,
1,
1,
4,
4,
7,
7,
5,
5,
0,
0,
3,
3,
2,
2,
2,
2,
5,
5,
7,
7,
3,
3,
1,
1,
4,
4,
2,
2,
2,
2,
1,
1,
1,
1,
4,
4,
3,
3,
3,
3,
4,
4,
3,
3,
3,
3,
1,
1,
0,
0,
2,
2,
2,
2,
1,
1,
3,
3,
7,
7,
2,
2,
1,
1,
4,
4,
0,
0,
1,
1,
4,
4,
2,
2,
-1,
-1,
5,
5,
14,
14,
6,
6,
8,
8,
17,
17,
17,
17,
13,
1,
2,
15,
14,
14,
15,
1,
3,
3,
5,
5,
2,
2,
1,
13,
12,
12,
6,
6,
9,
9,
16,
16,
26,
26,
27,
27,
23,
2,
4,
20,
20,
20,
26,
26,
28,
28,
21,
21,
12,
12,
5,
5,
0,
0,
0,
0,
1,
1,
1,
1,
3,
3,
6,
6,
7,
7,
12,
12,
11,
11,
4,
4,
1,
1,
2,
2,
0,
0,
2,
2,
7,
7,
8,
8,
9,
9,
5,
5,
2,
2,
8,
8,
10,
10,
9,
9,
8,
8,
1,
1,
