EMG_S2/DS0070.CSV

Memory Length,4000,
Trigger Level,-4.80000e+02,
Source,CH1,
Probe,1.0X,
Vertical Units,V,
Vertical Scale,1.00000e+00,
Vertical Position,0.00000e+00,
Horizontal Units,S,
Horizontal Scale,1.00000e-01,
Horizontal Position,0.0000000e+00,
Horizontal Mode,Roll Mode,
Waveform Last Dot Address,4000,
Sampling Period,4.00000e-04,
Firmware,V1.14,
Time, ,
Mode,Fast,
Waveform Data,
1,
1,
7,
7,
14,
14,
18,
18,
17,
17,
11,
11,
1,
1,
5,
5,
10,
10,
13,
13,
10,
10,
6,
6,
4,
4,
3,
3,
3,
3,
1,
1,
0,
0,
6,
6,
9,
9,
8,
8,
4,
4,
0,
0,
3,
3,
4,
4,
6,
6,
6,
6,
1,
1,
0,
0,
4,
4,
5,
5,
2,
2,
-1,
-1,
0,
0,
0,
0,
3,
3,
4,
4,
0,
0,
2,
2,
5,
5,
8,
8,
12,
12,
6,
6,
1,
1,
11,
25,
25,
41,
41,
41,
37,
13,
14,
1,
2,
2,
10,
10,
18,
18,
24,
24,
21,
21,
22,
22,
22,
22,
19,
19,
9,
9,
2,
18,
18,
32,
31,
31,
26,
8,
8,
8,
3,
3,
2,
2,
0,
0,
4,
4,
2,
2,
0,
0,
1,
1,
2,
2,
3,
3,
8,
8,
9,
9,
9,
9,
8,
8,
9,
9,
1,
17,
15,
30,
30,
30,
35,
35,
28,
12,
12,
0,
2,
14,
13,
13,
21,
21,
25,
25,
20,
20,
12,
0,
1,
1,
6,
6,
5,
5,
0,
0,
4,
4,
7,
7,
7,
7,
4,
4,
2,
2,
9,
9,
14,
14,
11,
11,
6,
6,
-1,
-1,
1,
1,
5,
5,
13,
13,
17,
6,
6,
6,
4,
4,
9,
9,
10,
10,
10,
10,
9,
9,
7,
7,
5,
5,
0,
0,
5,
5,
3,
3,
-1,
-1,
1,
1,
6,
6,
16,
16,
18,
5,
6,
6,
9,
24,
24,
40,
39,
39,
34,
14,
14,
1,
2,
2,
9,
20,
19,
19,
20,
20,
11,
11,
6,
20,
20,
20,
25,
25,
18,
2,
5,
24,
24,
24,
28,
28,
21,
21,
17,
17,
12,
12,
6,
6,
1,
1,
1,
1,
6,
6,
8,
8,
10,
10,
9,
9,
2,
2,
1,
1,
1,
1,
7,
7,
11,
11,
14,
14,
9,
9,
5,
5,
3,
3,
0,
0,
0,
0,
0,
0,
2,
2,
3,
3,
4,
4,
3,
3,
7,
7,
12,
12,
14,
14,
14,
1,
2,
2,
2,
2,
10,
21,
20,
20,
19,
19,
18,
18,
11,
11,
12,
0,
1,
1,
6,
6,
4,
4,
9,
9,
10,
10,
14,
14,
16,
16,
11,
11,
10,
10,
8,
8,
2,
2,
2,
13,
13,
27,
26,
40,
39,
39,
32,
13,
13,
0,
2,
13,
12,
12,
16,
16,
17,
17,
17,
17,
16,
16,
13,
13,
5,
5,
1,
17,
16,
16,
26,
26,
19,
19,
10,
10,
2,
2,
6,
6,
6,
6,
4,
4,
5,
5,
6,
6,
9,
9,
6,
6,
6,
6,
7,
7,
0,
0,
9,
9,
16,
16,
16,
16,
12,
12,
8,
8,
6,
6,
1,
1,
2,
2,
2,
2,
2,
2,
3,
3,
5,
5,
4,
4,
2,
2,
1,
1,
-1,
-1,
0,
0,
1,
1,
2,
2,
-1,
-1,
1,
1,
2,
2,
1,
1,
0,
0,
1,
1,
2,
2,
8,
8,
14,
14,
18,
18,
13,
0,
1,
1,
6,
6,
5,
5,
0,
0,
0,
0,
2,
2,
2,
14,
14,
14,
21,
21,
16,
16,
7,
7,
-1,
-1,
-1,
-1,
-1,
-1,
0,
0,
-1,
-1,
2,
2,
8,
8,
14,
14,
22,
22,
21,
21,
12,
-1,
1,
1,
0,
0,
3,
3,
9,
9,
9,
9,
12,
12,
3,
3,
0,
0,
0,
0,
-1,
-1,
0,
0,
0,
0,
0,
0,
0,
0,
-1,
-1,
0,
0,
2,
2,
2,
2,
0,
0,
-1,
-1,
1,
1,
0,
0,
1,
1,
1,
1,
25,
25,
17,
17,
13,
13,
11,
11,
2,
19,
19,
34,
33,
33,
38,
38,
36,
36,
29,
13,
14,
2,
8,
28,
27,
27,
32,
32,
30,
30,
25,
25,
18,
7,
7,
7,
0,
0,
2,
2,
6,
6,
6,
6,
6,
6,
1,
1,
2,
2,
2,
2,
4,
16,
15,
15,
24,
24,
31,
31,
33,
20,
20,
5,
5,
5,
7,
19,
18,
18,
24,
24,
22,
22,
19,
19,
16,
16,
10,
10,
2,
2,
9,
9,
6,
6,
2,
2,
0,
0,
0,
0,
-1,
-1,
-2,
-2,
0,
0,
0,
0,
2,
2,
0,
0,
-1,
-1,
4,
4,
3,
3,
7,
7,
11,
11,
16,
16,
16,
16,
8,
8,
1,
1,
7,
7,
8,
8,
8,
8,
10,
10,
10,
10,
9,
9,
7,
7,
3,
3,
1,
1,
2,
2,
6,
6,
6,
6,
5,
5,
3,
3,
1,
1,
0,
0,
0,
0,
0,
0,
2,
2,
9,
9,
14,
14,
5,
5,
14,
31,
31,
45,
45,
45,
46,
15,
16,
2,
7,
7,
16,
16,
18,
18,
22,
22,
26,
26,
25,
25,
21,
21,
17,
17,
11,
11,
4,
4,
0,
0,
4,
4,
8,
8,
12,
12,
13,
13,
12,
12,
13,
13,
14,
14,
13,
13,
8,
8,
5,
5,
1,
1,
0,
0,
0,
0,
-1,
-1,
1,
1,
2,
2,
4,
4,
9,
9,
12,
12,
13,
13,
7,
7,
3,
3,
1,
1,
-1,
-1,
2,
2,
10,
10,
18,
18,
18,
18,
12,
1,
1,
1,
4,
4,
6,
6,
9,
9,
8,
8,
5,
5,
4,
4,
3,
3,
1,
1,
1,
1,
7,
7,
10,
10,
9,
9,
7,
7,
3,
3,
1,
1,
5,
5,
6,
6,
7,
7,
5,
5,
2,
2,
0,
0,
2,
2,
7,
7,
10,
10,
5,
5,
1,
1,
2,
2,
2,
2,
7,
7,
11,
11,
13,
13,
9,
9,
4,
4,
4,
22,
21,
35,
34,
34,
32,
32,
26,
26,
18,
5,
5,
5,
12,
12,
22,
22,
24,
24,
21,
21,
16,
16,
14,
14,
12,
12,
8,
8,
3,
3,
0,
0,
2,
2,
3,
3,
5,
5,
7,
7,
9,
9,
11,
11,
11,
11,
10,
10,
4,
4,
2,
2,
5,
5,
1,
1,
3,
3,
3,
3,
4,
4,
6,
6,
1,
1,
2,
2,
4,
4,
4,
4,
2,
2,
4,
4,
4,
4,
1,
1,
1,
1,
2,
2,
1,
1,
2,
2,
1,
1,
1,
1,
1,
1,
0,
0,
5,
5,
10,
10,
13,
13,
15,
15,
11,
11,
5,
5,
5,
5,
14,
14,
22,
22,
23,
23,
16,
16,
7,
7,
9,
30,
30,
30,
30,
16,
17,
17,
14,
14,
17,
17,
11,
11,
6,
6,
5,
17,
17,
17,
25,
25,
26,
26,
19,
19,
12,
12,
9,
9,
7,
7,
3,
3,
0,
0,
5,
5,
9,
9,
10,
10,
11,
11,
11,
11,
9,
9,
6,
6,
6,
6,
4,
4,
2,
2,
3,
3,
1,
1,
0,
0,
0,
0,
1,
1,
1,
1,
3,
3,
2,
2,
2,
2,
2,
2,
1,
1,
-1,
-1,
-1,
-1,
1,
1,
1,
1,
0,
0,
3,
3,
3,
3,
-1,
-1,
6,
6,
12,
12,
14,
14,
6,
6,
4,
4,
6,
6,
-1,
-1,
-1,
-1,
4,
4,
12,
12,
21,
21,
27,
27,
20,
9,
9,
9,
2,
2,
1,
12,
11,
11,
18,
18,
23,
23,
23,
23,
20,
20,
13,
13,
7,
7,
1,
1,
7,
7,
11,
11,
12,
12,
10,
10,
10,
10,
8,
8,
6,
6,
3,
3,
2,
2,
1,
1,
-1,
-1,
-1,
-1,
1,
1,
1,
1,
1,
1,
0,
0,
0,
0,
1,
1,
0,
0,
-2,
-2,
0,
0,
3,
3,
12,
12,
14,
14,
9,
9,
1,
12,
12,
23,
22,
22,
31,
31,
23,
7,
7,
7,
-1,
-1,
2,
2,
6,
18,
18,
18,
21,
21,
20,
20,
20,
20,
14,
14,
9,
9,
3,
3,
0,
0,
6,
6,
14,
14,
18,
18,
18,
18,
15,
15,
10,
10,
6,
6,
2,
2,
0,
0,
2,
2,
6,
6,
10,
10,
10,
10,
11,
11,
8,
8,
3,
3,
8,
20,
19,
19,
20,
20,
16,
1,
2,
2,
9,
9,
10,
10,
8,
8,
9,
9,
12,
12,
14,
14,
13,
13,
9,
9,
4,
4,
1,
13,
12,
34,
33,
33,
37,
25,
26,
26,
17,
17,
13,
1,
4,
4,
10,
10,
10,
10,
16,
16,
17,
17,
14,
14,
10,
10,
8,
8,
3,
3,
1,
1,
0,
0,
6,
6,
10,
10,
14,
14,
9,
9,
8,
32,
32,
48,
46,
34,
34,
5,
6,
18,
18,
18,
12,
1,
3,
19,
19,
19,
20,
2,
5,
5,
14,
14,
11,
11,
6,
6,
12,
12,
19,
19,
18,
18,
13,
13,
8,
8,
0,
0,
1,
1,
3,
3,
1,
1,
5,
5,
5,
5,
6,
6,
9,
9,
9,
9,
9,
9,
5,
5,
4,
4,
14,
14,
20,
20,
16,
16,
7,
7,
5,
5,
0,
0,
1,
1,
6,
6,
7,
7,
9,
9,
12,
12,
18,
18,
26,
26,
26,
26,
24,
24,
20,
20,
15,
3,
3,
15,
15,
41,
41,
62,
61,
61,
64,
30,
30,
3,
5,
17,
16,
16,
18,
18,
21,
21,
22,
22,
17,
17,
10,
10,
3,
3,
1,
1,
7,
7,
14,
14,
11,
0,
0,
0,
5,
5,
4,
4,
2,
2,
0,
0,
-1,
-1,
1,
1,
1,
1,
2,
2,
3,
3,
0,
0,
5,
5,
8,
8,
8,
8,
4,
4,
1,
13,
13,
13,
6,
6,
0,
11,
10,
29,
29,
29,
31,
17,
18,
18,
11,
11,
2,
2,
-1,
12,
11,
30,
30,
30,
33,
33,
32,
32,
28,
28,
24,
24,
24,
24,
17,
17,
8,
8,
18,
40,
40,
40,
44,
44,
45,
45,
37,
8,
9,
9,
6,
6,
3,
3,
4,
4,
2,
14,
13,
13,
20,
20,
21,
21,
17,
17,
11,
11,
10,
10,
10,
10,
6,
6,
1,
1,
-1,
-1,
4,
16,
16,
31,
30,
30,
30,
30,
32,
32,
29,
16,
16,
1,
3,
22,
22,
22,
27,
27,
18,
18,
14,
14,
4,
4,
3,
3,
2,
2,
0,
0,
4,
4,
9,
9,
2,
2,
10,
10,
9,
9,
10,
10,
12,
12,
6,
6,
1,
1,
0,
0,
0,
0,
6,
6,
13,
13,
13,
13,
10,
10,
9,
9,
8,
8,
6,
6,
2,
2,
2,
2,
6,
6,
4,
4,
0,
0,
4,
4,
7,
7,
10,
10,
2,
2,
12,
12,
15,
15,
21,
21,
22,
9,
10,
10,
6,
22,
22,
36,
35,
35,
32,
7,
8,
8,
9,
9,
10,
10,
10,
10,
10,
10,
10,
10,
10,
10,
8,
8,
5,
5,
1,
1,
0,
0,
0,
0,
-1,
-1,
1,
1,
3,
3,
3,
3,
2,
13,
13,
26,
24,
38,
37,
37,
38,
23,
23,
1,
2,
13,
12,
12,
19,
19,
22,
22,
20,
20,
20,
20,
18,
18,
16,
16,
10,
10,
6,
6,
2,
2,
7,
20,
20,
20,
22,
22,
22,
11,
12,
1,
1,
1,
2,
2,
1,
1,
2,
2,
1,
1,
0,
0,
1,
1,
1,
1,
2,
2,
1,
1,
2,
2,
1,
1,
5,
5,
4,
4,
2,
2,
3,
3,
2,
2,
-1,
-1,
0,
0,
2,
2,
2,
2,
-1,
-1,
5,
5,
8,
8,
3,
3,
10,
10,
19,
19,
19,
19,
11,
0,
2,
14,
14,
14,
21,
21,
16,
2,
8,
27,
26,
26,
30,
30,
28,
28,
22,
6,
6,
17,
16,
31,
29,
29,
30,
30,
28,
28,
22,
22,
18,
2,
4,
4,
12,
25,
24,
24,
23,
7,
7,
7,
1,
1,
1,
1,
3,
3,
7,
7,
8,
8,
2,
2,
2,
2,
4,
4,
11,
11,
7,
7,
3,
3,
1,
1,
2,
2,
6,
6,
12,
12,
13,
13,
14,
14,
15,
15,
14,
1,
3,
18,
18,
18,
22,
22,
24,
24,
20,
20,
15,
15,
10,
10,
6,
6,
2,
2,
0,
0,
3,
3,
7,
7,
9,
9,
8,
8,
6,
6,
5,
5,
6,
6,
5,
5,
5,
5,
4,
4,
1,
1,
-1,
-1,
0,
0,
0,
0,
0,
0,
0,
0,
5,
5,
6,
6,
0,
0,
2,
2,
-1,
-1,
0,
0,
0,
0,
-1,
-1,
-2,
-2,
2,
2,
5,
5,
9,
9,
11,
11,
6,
6,
0,
0,
1,
1,
5,
5,
12,
12,
12,
12,
4,
4,
0,
0,
1,
1,
-1,
-1,
1,
1,
1,
1,
0,
0,
-1,
-1,
-1,
-1,
0,
0,
1,
1,
0,
0,
3,
3,
6,
6,
2,
2,
5,
5,
6,
6,
2,
2,
3,
3,
5,
5,
6,
6,
13,
13,
8,
8,
2,
2,
8,
8,
12,
12,
8,
8,
2,
2,
1,
1,
6,
6,
3,
3,
0,
0,
-1,
-1,
2,
2,
2,
2,
3,
3,
5,
5,
6,
6,
12,
12,
16,
16,
14,
1,
2,
2,
11,
30,
29,
47,
46,
46,
48,
32,
33,
8,
8,
19,
19,
31,
30,
30,
30,
30,
23,
23,
19,
19,
10,
10,
3,
3,
0,
0,
-1,
-1,
2,
2,
3,
3,
3,
3,
2,
2,
2,
2,
8,
8,
12,
12,
17,
17,
23,
23,
18,
18,
9,
9,
2,
2,
9,
9,
13,
13,
15,
15,
16,
16,
13,
1,
3,
17,
16,
16,
21,
9,
9,
9,
6,
6,
15,
15,
24,
24,
14,
0,
1,
1,
6,
6,
13,
13,
23,
23,
23,
23,
21,
21,
18,
18,
14,
14,
8,
8,
3,
3,
1,
1,
7,
7,
10,
10,
10,
10,
8,
8,
1,
1,
2,
2,
4,
4,
10,
10,
18,
18,
25,
25,
20,
6,
7,
7,
1,
1,
0,
19,
18,
18,
25,
6,
6,
6,
12,
26,
26,
26,
31,
31,
29,
29,
25,
25,
18,
18,
12,
12,
5,
5,
0,
0,
5,
5,
8,
8,
12,
12,
13,
13,
11,
11,
9,
9,
7,
7,
6,
6,
6,
6,
4,
4,
3,
3,
0,
0,
-1,
-1,
-1,
-1,
-1,
-1,
0,
0,
0,
0,
2,
2,
2,
2,
1,
1,
0,
0,
0,
0,
1,
1,
1,
1,
2,
2,
2,
2,
3,
3,
2,
2,
0,
0,
5,
5,
12,
12,
10,
10,
6,
6,
4,
4,
4,
4,
1,
1,
5,
5,
7,
7,
10,
10,
13,
13,
8,
8,
1,
1,
5,
5,
3,
3,
0,
0,
-1,
-1,
-1,
-1,
0,
0,
0,
0,
8,
8,
4,
4,
11,
26,
25,
47,
47,
63,
63,
45,
45,
6,
6,
28,
28,
41,
40,
40,
44,
44,
48,
48,
47,
47,
41,
21,
22,
2,
2,
2,
6,
6,
14,
14,
17,
17,
20,
20,
20,
20,
24,
24,
30,
30,
25,
25,
21,
9,
9,
9,
0,
0,
5,
5,
5,
5,
2,
2,
10,
10,
20,
20,
18,
18,
10,
10,
1,
1,
6,
6,
13,
13,
5,
5,
5,
5,
4,
4,
1,
1,
3,
3,
1,
1,
-1,
-1,
1,
1,
3,
3,
4,
4,
3,
3,
1,
1,
8,
21,
20,
20,
21,
4,
4,
4,
9,
9,
13,
13,
9,
9,
7,
7,
6,
6,
0,
0,
5,
5,
2,
2,
11,
11,
10,
10,
2,
2,
6,
6,
12,
12,
14,
14,
15,
15,
13,
13,
9,
9,
6,
6,
5,
5,
2,
13,
13,
13,
18,
18,
20,
20,
10,
10,
0,
0,
2,
2,
3,
3,
12,
12,
16,
16,
14,
2,
3,
3,
1,
1,
4,
4,
6,
6,
5,
5,
1,
1,
-1,
-1,
2,
2,
10,
10,
16,
16,
12,
12,
9,
9,
6,
6,
4,
4,
12,
25,
25,
25,
28,
28,
30,
30,
26,
26,
30,
30,
30,
18,
18,
2,
8,
30,
30,
30,
38,
38,
30,
30,
28,
28,
35,
35,
33,
22,
22,
1,
3,
3,
5,
5,
5,
5,
13,
13,
18,
18,
17,
17,
17,
17,
18,
18,
18,
18,
14,
14,
4,
4,
0,
0,
2,
2,
2,
2,
1,
1,
0,
0,
0,
0,
1,
1,
6,
6,
6,
6,
0,
0,
5,
5,
6,
6,
9,
9,
6,
6,
5,
5,
15,
15,
17,
17,
8,
8,
5,
5,
14,
14,
10,
10,
1,
1,
8,
8,
9,
9,
3,
3,
6,
6,
8,
8,
4,
4,
1,
1,
2,
2,
1,
1,
0,
0,
-1,
-1,
0,
0,
-1,
-1,
1,
1,
4,
4,
2,
2,
2,
2,
3,
3,
2,
2,
-1,
-1,
3,
3,
2,
2,
2,
2,
5,
5,
8,
8,
6,
6,
1,
1,
10,
10,
12,
12,
9,
9,
14,
14,
15,
15,
7,
7,
10,
25,
24,
24,
19,
4,
14,
34,
33,
33,
34,
34,
29,
29,
24,
24,
19,
6,
7,
7,
2,
2,
4,
4,
2,
2,
3,
3,
9,
9,
10,
10,
12,
12,
12,
12,
12,
12,
9,
9,
7,
7,
6,
6,
4,
4,
6,
6,
6,
6,
0,
0,
7,
19,
18,
33,
33,
33,
26,
13,
14,
1,
2,
30,
29,
58,
58,
58,
61,
29,
29,
1,
2,
2,
10,
10,
15,
15,
24,
35,
34,
34,
33,
33,
30,
30,
21,
21,
14,
14,
10,
10,
1,
14,
13,
27,
26,
26,
22,
22,
14,
14,
12,
12,
10,
10,
5,
5,
0,
0,
4,
4,
1,
1,
0,
0,
2,
2,
1,
1,
5,
5,
10,
10,
6,
6,
5,
5,
4,
4,
4,
4,
11,
11,
11,
11,
12,
12,
14,
14,
13,
13,
13,
13,
7,
7,
14,
35,
34,
48,
47,
34,
34,
3,
4,
4,
12,
12,
16,
16,
12,
12,
8,
8,
8,
8,
10,
10,
12,
12,
10,
10,
6,
6,
5,
5,
2,
2,
0,
0,
2,
2,
5,
5,
8,
8,
11,
11,
8,
8,
5,
5,
4,
4,
3,
3,
1,
1,
1,
1,
-1,
-1,
0,
0,
-1,
-1,
-1,
-1,
0,
0,
1,
1,
0,
0,
-1,
-1,
2,
2,
2,
2,
3,
3,
2,
2,
1,
1,
2,
2,
2,
2,
2,
2,
3,
3,
1,
1,
2,
2,
6,
6,
5,
5,
2,
2,
-1,
-1,
0,
0,
-1,
-1,
1,
1,
7,
7,
14,
14,
12,
1,
2,
2,
0,
0,
3,
3,
7,
7,
8,
8,
11,
11,
11,
11,
9,
9,
2,
2,
10,
10,
4,
4,
3,
3,
6,
6,
6,
6,
4,
4,
4,
4,
-2,
-2,
1,
1,
8,
8,
10,
21,
21,
41,
41,
60,
60,
60,
60,
23,
23,
6,
22,
47,
47,
47,
54,
54,
53,
53,
47,
47,
39,
26,
26,
14,
14,
14,
5,
5,
4,
4,
13,
13,
20,
20,
21,
21,
22,
33,
33,
33,
40,
29,
29,
29,
20,
20,
11,
11,
2,
2,
6,
6,
10,
10,
6,
18,
17,
17,
24,
24,
25,
25,
24,
24,
22,
2,
2,
16,
16,
30,
30,
30,
30,
18,
18,
2,
3,
3,
5,
5,
4,
4,
4,
4,
13,
13,
15,
15,
18,
18,
16,
16,
8,
8,
5,
5,
6,
6,
4,
4,
14,
29,
18,
1,
5,
5,
5,
5,
14,
14,
13,
1,
3,
3,
10,
10,
15,
15,
17,
2,
2,
2,
5,
23,
22,
3,
4,
4,
8,
8,
2,
2,
0,
0,
0,
0,
5,
18,
18,
18,
18,
18,
13,
13,
8,
8,
4,
4,
12,
12,
11,
11,
18,
29,
28,
28,
20,
20,
21,
21,
13,
1,
2,
2,
2,
2,
2,
2,
5,
5,
8,
8,
12,
12,
13,
13,
14,
14,
13,
13,
10,
10,
7,
7,
5,
5,
5,
5,
2,
2,
-1,
-1,
2,
2,
8,
8,
13,
13,
10,
10,
3,
3,
3,
14,
13,
13,
10,
10,
12,
12,
7,
7,
5,
5,
3,
3,
7,
7,
12,
12,
14,
14,
12,
12,
11,
11,
6,
6,
7,
7,
4,
4,
1,
1,
1,
1,
5,
5,
5,
5,
3,
3,
1,
1,
5,
5,
2,
2,
-1,
-1,
1,
1,
6,
19,
18,
18,
26,
26,
32,
32,
26,
3,
6,
22,
21,
21,
27,
27,
25,
25,
18,
18,
9,
9,
1,
1,
1,
1,
2,
2,
5,
5,
6,
6,
6,
6,
6,
6,
2,
2,
4,
4,
0,
0,
8,
25,
25,
25,
33,
33,
39,
26,
26,
12,
13,
2,
9,
9,
18,
32,
31,
31,
30,
13,
14,
1,
2,
16,
15,
15,
12,
12,
10,
10,
8,
8,
2,
2,
4,
4,
10,
10,
10,
10,
9,
9,
5,
5,
2,
2,
1,
1,
2,
2,
-1,
-1,
-1,
-1,
1,
1,
5,
5,
8,
8,
8,
8,
3,
3,
0,
0,
2,
2,
1,
1,
2,
2,
6,
6,
12,
12,
14,
14,
12,
12,
2,
2,
2,
2,
4,
4,
4,
4,
7,
7,
12,
12,
10,
10,
9,
9,
9,
9,
4,
4,
1,
1,
-1,
-1,
1,
1,
5,
5,
4,
4,
1,
1,
1,
1,
4,
4,
10,
10,
12,
12,
5,
5,
3,
3,
6,
6,
9,
9,
2,
2,
8,
8,
14,
14,
11,
11,
6,
6,
2,
2,
-1,
-1,
1,
1,
4,
4,
5,
5,
5,
5,
5,
5,
3,
3,
5,
5,
4,
4,
3,
3,
3,
3,
0,
0,
6,
6,
8,
8,
7,
7,
7,
7,
2,
2,
-2,
-2,
2,
2,
0,
0,
0,
0,
1,
1,
7,
7,
9,
9,
6,
6,
0,
0,
6,
18,
18,
18,
18,
18,
13,
13,
8,
8,
2,
2,
10,
10,
12,
12,
17,
17,
13,
1,
3,
3,
3,
3,
10,
10,
13,
13,
6,
6,
2,
2,
3,
3,
2,
2,
0,
0,
8,
8,
12,
12,
6,
6,
1,
1,
-1,
-1,
1,
1,
3,
3,
0,
0,
-1,
-1,
1,
1,
3,
3,
7,
7,
6,
6,
1,
1,
0,
0,
0,
0,
7,
7,
15,
15,
10,
10,
3,
3,
2,
2,
10,
10,
18,
18,
20,
20,
14,
14,
5,
5,
1,
1,
1,
1,
3,
3,
9,
9,
10,
10,
14,
14,
15,
15,
7,
7,
4,
4,
13,
13,
17,
17,
10,
10,
2,
2,
7,
18,
18,
18,
25,
25,
26,
26,
21,
10,
10,
10,
3,
3,
8,
19,
18,
18,
28,
28,
25,
25,
18,
18,
13,
13,
9,
9,
5,
5,
0,
0,
2,
2,
6,
6,
11,
11,
10,
10,
9,
9,
12,
12,
8,
8,
5,
5,
10,
10,
9,
9,
9,
9,
6,
6,
0,
0,
5,
5,
7,
7,
3,
3,
3,
3,
2,
2,
5,
5,
6,
6,
6,
6,
5,
5,
2,
2,
0,
0,
1,
1,
-1,
-1,
1,
1,
4,
4,
8,
20,
20,
20,
24,
10,
11,
0,
1,
1,
10,
10,
13,
13,
16,
16,
12,
12,
10,
10,
6,
6,
1,
1,
1,
1,
-1,
-1,
4,
4,
6,
6,
7,
7,
10,
10,
6,
6,
1,
1,
1,
1,
7,
7,
14,
14,
6,
6,
8,
8,
14,
26,
26,
26,
30,
14,
15,
1,
4,
4,
10,
10,
13,
13,
15,
15,
18,
18,
21,
9,
9,
9,
2,
2,
7,
7,
9,
9,
6,
6,
2,
2,
0,
0,
1,
1,
4,
4,
1,
1,
1,
1,
2,
2,
0,
0,
2,
2,
1,
1,
6,
6,
8,
8,
6,
6,
5,
5,
1,
1,
1,
1,
0,
0,
-1,
-1,
-1,
-1,
0,
0,
1,
1,
0,
0,
5,
5,
10,
10,
14,
14,
14,
14,
6,
6,
4,
19,
18,
31,
30,
30,
33,
33,
26,
10,
10,
10,
2,
15,
15,
26,
26,
26,
25,
14,
15,
15,
10,
10,
14,
14,
8,
8,
2,
2,
6,
17,
16,
16,
17,
17,
10,
10,
2,
2,
1,
1,
3,
3,
1,
1,
0,
0,
3,
3,
1,
1,
-1,
-1,
8,
8,
18,
18,
21,
8,
8,
8,
0,
0,
9,
36,
35,
62,
61,
61,
64,
32,
33,
6,
14,
29,
28,
28,
23,
23,
28,
28,
29,
29,
30,
30,
23,
23,
18,
18,
20,
20,
19,
19,
11,
11,
5,
19,
18,
18,
22,
22,
24,
12,
13,
13,
6,
6,
6,
6,
5,
5,
7,
7,
8,
8,
1,
1,
0,
0,
0,
0,
3,
3,
8,
8,
8,
8,
0,
0,
6,
6,
14,
14,
13,
2,
2,
2,
-1,
-1,
1,
1,
1,
1,
8,
8,
14,
14,
17,
17,
20,
20,
12,
0,
0,
0,
5,
5,
10,
10,
15,
15,
23,
23,
20,
7,
8,
8,
