EMG_S2/DS0051.CSV

Memory Length,4000,
Trigger Level,-4.80000e+02,
Source,CH1,
Probe,1.0X,
Vertical Units,V,
Vertical Scale,1.00000e+00,
Vertical Position,0.00000e+00,
Horizontal Units,S,
Horizontal Scale,1.00000e-01,
Horizontal Position,0.0000000e+00,
Horizontal Mode,Roll Mode,
Waveform Last Dot Address,4000,
Sampling Period,4.00000e-04,
Firmware,V1.14,
Time, ,
Mode,Fast,
Waveform Data,
4,
4,
3,
16,
16,
16,
25,
25,
33,
33,
43,
58,
58,
58,
64,
64,
59,
47,
48,
32,
32,
14,
14,
1,
5,
19,
19,
19,
27,
27,
34,
34,
42,
42,
42,
42,
43,
43,
45,
45,
36,
36,
28,
28,
23,
8,
9,
9,
2,
2,
1,
1,
6,
21,
21,
21,
27,
27,
26,
26,
21,
21,
19,
19,
18,
18,
14,
14,
9,
9,
6,
6,
0,
0,
7,
7,
10,
10,
9,
9,
11,
11,
12,
12,
12,
12,
2,
2,
1,
1,
3,
3,
4,
4,
6,
6,
5,
5,
5,
5,
9,
9,
9,
9,
5,
5,
4,
4,
2,
2,
2,
2,
0,
0,
4,
4,
5,
5,
0,
0,
1,
1,
0,
0,
2,
2,
4,
4,
9,
9,
12,
12,
19,
8,
8,
8,
9,
9,
14,
14,
10,
10,
1,
1,
5,
5,
8,
8,
10,
10,
4,
4,
13,
37,
36,
52,
51,
31,
31,
10,
11,
0,
8,
26,
25,
25,
29,
17,
18,
2,
6,
24,
23,
7,
8,
8,
0,
0,
2,
2,
10,
23,
23,
23,
32,
32,
37,
37,
31,
14,
15,
2,
7,
18,
17,
17,
22,
22,
18,
18,
8,
8,
2,
2,
6,
6,
9,
9,
10,
10,
5,
5,
2,
2,
2,
2,
5,
25,
24,
24,
34,
34,
41,
41,
33,
13,
14,
2,
12,
36,
34,
55,
54,
54,
47,
29,
30,
18,
18,
4,
5,
5,
7,
7,
14,
14,
7,
7,
5,
5,
2,
2,
0,
0,
2,
2,
1,
1,
1,
1,
-1,
-1,
1,
1,
0,
0,
4,
4,
6,
6,
8,
8,
13,
13,
17,
17,
16,
16,
11,
11,
6,
6,
4,
4,
11,
11,
14,
14,
14,
14,
14,
14,
10,
10,
5,
5,
2,
2,
-1,
-1,
0,
0,
0,
0,
-1,
-1,
2,
2,
6,
6,
8,
8,
8,
8,
6,
6,
6,
6,
8,
8,
8,
8,
4,
4,
7,
7,
13,
13,
10,
10,
7,
7,
8,
8,
2,
2,
9,
9,
16,
16,
17,
3,
4,
4,
7,
7,
5,
5,
0,
0,
5,
5,
0,
0,
4,
4,
2,
2,
8,
21,
21,
36,
35,
7,
8,
22,
21,
21,
15,
1,
1,
1,
3,
19,
18,
34,
33,
33,
33,
17,
18,
3,
11,
41,
41,
41,
40,
18,
19,
1,
2,
2,
6,
6,
8,
8,
8,
8,
4,
4,
1,
13,
13,
13,
18,
18,
11,
11,
2,
2,
0,
0,
3,
3,
5,
5,
2,
2,
8,
8,
16,
16,
7,
7,
1,
1,
1,
1,
1,
1,
3,
3,
1,
1,
5,
5,
2,
2,
5,
5,
9,
9,
10,
10,
2,
2,
2,
2,
5,
5,
11,
11,
2,
2,
6,
6,
8,
8,
11,
11,
21,
21,
19,
2,
3,
18,
17,
17,
24,
13,
13,
0,
2,
2,
6,
6,
2,
2,
2,
2,
6,
6,
6,
6,
1,
1,
2,
2,
0,
0,
5,
5,
9,
9,
9,
9,
8,
8,
4,
4,
1,
1,
5,
17,
17,
17,
18,
18,
19,
19,
18,
18,
13,
13,
14,
14,
6,
6,
3,
3,
0,
0,
-1,
14,
14,
27,
26,
26,
23,
12,
12,
1,
5,
5,
8,
8,
6,
6,
14,
14,
12,
0,
0,
0,
2,
2,
8,
8,
14,
14,
12,
1,
1,
16,
16,
29,
29,
29,
22,
7,
8,
8,
9,
24,
23,
23,
23,
23,
14,
14,
10,
10,
8,
8,
9,
9,
6,
6,
10,
29,
29,
29,
34,
34,
35,
35,
30,
30,
24,
6,
6,
19,
18,
40,
40,
40,
37,
15,
16,
1,
0,
0,
5,
5,
3,
3,
4,
4,
6,
6,
5,
5,
0,
0,
4,
4,
5,
5,
8,
8,
8,
8,
2,
2,
4,
4,
10,
10,
9,
9,
3,
3,
0,
0,
0,
0,
-1,
-1,
1,
1,
7,
7,
15,
15,
20,
20,
25,
25,
20,
20,
13,
13,
5,
5,
6,
19,
18,
33,
32,
32,
34,
34,
41,
41,
38,
18,
18,
2,
6,
18,
18,
18,
26,
26,
31,
31,
27,
27,
19,
19,
12,
1,
2,
2,
5,
5,
11,
11,
12,
12,
6,
6,
0,
0,
1,
1,
2,
2,
4,
4,
2,
2,
4,
4,
3,
3,
9,
9,
14,
14,
10,
10,
1,
1,
5,
5,
11,
22,
21,
21,
22,
22,
18,
18,
12,
1,
6,
6,
8,
8,
9,
9,
12,
12,
13,
13,
4,
4,
1,
1,
5,
5,
12,
23,
22,
22,
16,
1,
5,
24,
23,
37,
36,
36,
32,
9,
9,
9,
9,
9,
14,
14,
10,
10,
2,
2,
0,
0,
2,
2,
6,
6,
4,
4,
-1,
-1,
0,
0,
6,
6,
2,
2,
6,
6,
15,
15,
14,
14,
10,
10,
1,
12,
12,
12,
18,
18,
19,
7,
8,
8,
2,
2,
7,
7,
7,
7,
5,
5,
0,
0,
2,
2,
-1,
-1,
-2,
-2,
-1,
-1,
1,
1,
0,
0,
0,
0,
2,
2,
1,
1,
0,
0,
2,
2,
4,
4,
3,
3,
1,
1,
1,
1,
5,
5,
7,
7,
9,
9,
10,
10,
8,
8,
0,
0,
6,
6,
6,
6,
2,
2,
6,
6,
10,
10,
10,
10,
5,
5,
0,
0,
0,
0,
0,
0,
-1,
-1,
2,
2,
4,
4,
5,
5,
5,
5,
2,
2,
2,
2,
2,
2,
6,
6,
7,
7,
5,
5,
6,
17,
16,
16,
13,
13,
6,
6,
5,
16,
15,
15,
21,
21,
15,
15,
9,
9,
4,
4,
6,
18,
17,
17,
19,
19,
13,
13,
12,
12,
4,
4,
2,
13,
13,
29,
28,
28,
35,
35,
26,
2,
4,
15,
14,
14,
18,
18,
16,
16,
11,
11,
5,
5,
4,
4,
2,
2,
5,
5,
6,
6,
2,
2,
1,
1,
4,
4,
5,
5,
5,
5,
3,
3,
6,
6,
1,
1,
6,
6,
4,
4,
1,
1,
7,
7,
8,
8,
17,
29,
28,
28,
34,
23,
23,
3,
7,
34,
33,
33,
38,
27,
28,
28,
23,
23,
18,
18,
10,
10,
1,
12,
10,
10,
18,
18,
26,
26,
30,
30,
28,
9,
9,
9,
8,
8,
13,
13,
10,
10,
9,
9,
6,
6,
7,
7,
14,
14,
20,
20,
16,
2,
4,
25,
25,
37,
37,
26,
26,
12,
12,
1,
2,
2,
1,
1,
1,
1,
1,
1,
8,
8,
10,
10,
8,
8,
10,
10,
11,
11,
8,
8,
7,
7,
5,
5,
0,
0,
5,
5,
5,
5,
2,
2,
1,
1,
1,
1,
4,
4,
8,
8,
13,
13,
14,
14,
8,
8,
1,
1,
2,
2,
4,
4,
0,
0,
4,
4,
5,
5,
2,
2,
1,
1,
8,
8,
10,
10,
16,
16,
16,
4,
4,
4,
5,
5,
13,
13,
20,
20,
20,
7,
9,
9,
10,
10,
1,
1,
3,
3,
7,
7,
14,
14,
19,
19,
18,
18,
14,
14,
9,
9,
5,
5,
-1,
-1,
0,
14,
14,
29,
28,
28,
34,
23,
23,
9,
9,
9,
2,
2,
4,
4,
7,
7,
4,
4,
2,
14,
14,
14,
17,
17,
16,
16,
17,
17,
15,
15,
14,
14,
6,
6,
0,
0,
2,
2,
4,
4,
7,
7,
9,
9,
14,
14,
15,
15,
8,
8,
0,
0,
2,
2,
6,
6,
6,
6,
0,
0,
6,
6,
13,
13,
17,
17,
13,
13,
13,
13,
7,
7,
1,
1,
9,
9,
8,
8,
2,
2,
10,
10,
18,
18,
20,
20,
16,
16,
11,
11,
5,
5,
1,
1,
2,
2,
6,
6,
6,
6,
5,
5,
4,
4,
1,
1,
4,
17,
17,
29,
29,
29,
30,
30,
35,
50,
49,
49,
46,
20,
20,
1,
3,
3,
4,
4,
1,
13,
13,
32,
31,
31,
41,
41,
38,
38,
30,
30,
22,
22,
18,
7,
7,
7,
1,
1,
1,
1,
1,
1,
1,
1,
2,
2,
7,
7,
9,
9,
9,
9,
9,
9,
12,
12,
11,
11,
14,
14,
14,
14,
12,
12,
8,
8,
8,
8,
7,
7,
0,
0,
6,
6,
7,
7,
5,
5,
4,
4,
2,
2,
1,
1,
3,
3,
2,
2,
3,
3,
0,
0,
2,
2,
1,
1,
3,
3,
1,
1,
0,
0,
1,
1,
4,
4,
10,
10,
12,
12,
5,
5,
2,
2,
8,
8,
10,
10,
14,
14,
15,
15,
6,
6,
2,
2,
10,
10,
10,
10,
7,
7,
0,
0,
0,
0,
-1,
-1,
0,
0,
0,
0,
4,
4,
10,
10,
14,
14,
10,
10,
1,
17,
16,
31,
30,
42,
41,
41,
34,
8,
9,
20,
18,
34,
33,
55,
54,
65,
64,
64,
66,
24,
24,
6,
19,
33,
32,
32,
33,
33,
32,
32,
26,
26,
18,
18,
19,
19,
20,
20,
16,
16,
19,
19,
21,
21,
14,
1,
4,
20,
20,
32,
32,
32,
33,
33,
30,
9,
10,
10,
11,
25,
25,
25,
24,
3,
4,
31,
30,
61,
61,
61,
65,
44,
44,
5,
6,
23,
22,
22,
28,
28,
36,
36,
30,
30,
23,
23,
24,
24,
22,
22,
16,
16,
10,
10,
10,
10,
7,
7,
1,
1,
4,
4,
5,
5,
8,
8,
12,
23,
22,
34,
33,
33,
35,
35,
31,
31,
24,
10,
10,
-1,
0,
0,
4,
18,
18,
18,
25,
25,
24,
24,
18,
18,
16,
16,
17,
17,
15,
15,
8,
8,
1,
1,
4,
4,
10,
10,
14,
14,
17,
17,
17,
17,
18,
18,
10,
10,
4,
4,
12,
12,
16,
16,
17,
17,
18,
18,
14,
1,
2,
24,
23,
44,
44,
44,
49,
37,
38,
14,
14,
1,
5,
16,
16,
16,
24,
24,
28,
28,
22,
22,
17,
17,
11,
11,
9,
9,
9,
9,
6,
6,
2,
2,
1,
1,
7,
7,
8,
8,
4,
4,
7,
25,
25,
38,
38,
38,
35,
35,
31,
31,
22,
6,
6,
6,
2,
2,
5,
5,
2,
2,
2,
2,
12,
12,
19,
19,
21,
21,
21,
21,
18,
18,
13,
13,
16,
16,
25,
25,
25,
14,
15,
2,
9,
36,
35,
54,
54,
54,
63,
43,
43,
15,
15,
0,
0,
0,
3,
3,
3,
3,
10,
10,
16,
16,
10,
10,
17,
30,
30,
30,
28,
16,
18,
18,
9,
9,
2,
2,
5,
5,
6,
6,
4,
4,
8,
19,
19,
19,
27,
27,
30,
16,
16,
1,
2,
2,
0,
0,
1,
1,
5,
17,
16,
16,
22,
22,
15,
15,
8,
8,
7,
24,
22,
38,
37,
37,
41,
26,
27,
13,
13,
13,
8,
8,
13,
28,
28,
28,
29,
29,
22,
22,
22,
22,
31,
31,
29,
18,
18,
5,
5,
5,
3,
3,
3,
3,
1,
1,
4,
4,
5,
5,
14,
25,
24,
24,
29,
29,
28,
16,
17,
17,
10,
10,
2,
2,
6,
6,
10,
10,
12,
12,
4,
18,
18,
35,
34,
34,
42,
42,
37,
12,
13,
13,
18,
44,
44,
56,
55,
55,
48,
30,
30,
17,
18,
18,
16,
16,
11,
0,
3,
3,
10,
10,
14,
14,
18,
18,
21,
21,
18,
18,
13,
13,
10,
10,
6,
6,
3,
3,
5,
5,
6,
6,
1,
1,
7,
7,
13,
13,
21,
21,
20,
9,
9,
9,
0,
0,
1,
1,
5,
24,
23,
23,
28,
28,
21,
21,
17,
6,
6,
6,
1,
1,
4,
4,
9,
9,
5,
5,
3,
3,
7,
21,
20,
47,
46,
57,
57,
41,
42,
5,
5,
20,
20,
20,
28,
28,
26,
26,
24,
24,
18,
18,
23,
23,
23,
12,
12,
0,
1,
1,
6,
6,
9,
9,
0,
0,
8,
8,
14,
14,
8,
8,
15,
35,
34,
34,
43,
43,
38,
14,
15,
15,
12,
12,
15,
15,
20,
20,
22,
8,
8,
8,
12,
27,
26,
41,
40,
54,
53,
53,
49,
49,
40,
24,
24,
8,
8,
8,
2,
2,
11,
22,
21,
21,
29,
17,
18,
18,
11,
11,
6,
6,
4,
4,
8,
8,
2,
26,
25,
38,
38,
38,
48,
48,
56,
44,
45,
13,
13,
2,
12,
39,
39,
52,
52,
52,
52,
52,
48,
48,
41,
27,
28,
11,
12,
1,
2,
21,
20,
39,
39,
39,
33,
10,
10,
-1,
1,
1,
4,
4,
6,
6,
6,
6,
5,
5,
0,
0,
6,
6,
10,
10,
10,
10,
13,
13,
12,
12,
10,
10,
18,
18,
13,
13,
5,
5,
4,
17,
16,
16,
23,
23,
22,
22,
18,
18,
13,
0,
1,
1,
9,
9,
14,
14,
19,
19,
18,
4,
5,
5,
3,
3,
0,
0,
2,
2,
10,
10,
11,
11,
8,
8,
4,
4,
11,
23,
22,
22,
14,
62,
62,
23,
38,
61,
60,
60,
56,
43,
43,
30,
31,
31,
25,
11,
11,
11,
10,
29,
29,
29,
33,
33,
34,
34,
37,
37,
31,
19,
20,
7,
7,
7,
2,
2,
-1,
-1,
3,
3,
4,
4,
0,
0,
2,
2,
-1,
-1,
3,
3,
9,
26,
25,
40,
39,
39,
46,
46,
41,
41,
33,
33,
25,
5,
7,
30,
30,
30,
34,
34,
24,
7,
7,
7,
6,
6,
13,
13,
5,
5,
2,
2,
5,
5,
13,
13,
13,
13,
18,
18,
20,
20,
24,
24,
21,
10,
10,
-1,
0,
0,
2,
2,
0,
0,
4,
4,
2,
19,
18,
39,
38,
57,
57,
57,
62,
47,
47,
22,
22,
1,
2,
2,
9,
9,
17,
34,
33,
33,
40,
40,
37,
37,
32,
32,
26,
26,
17,
1,
2,
2,
2,
2,
6,
6,
5,
17,
16,
16,
21,
21,
25,
25,
22,
11,
12,
1,
2,
2,
6,
6,
6,
6,
7,
7,
16,
16,
10,
10,
7,
7,
6,
6,
4,
4,
5,
5,
4,
4,
8,
8,
12,
12,
17,
30,
29,
29,
38,
38,
34,
9,
9,
23,
23,
40,
39,
39,
33,
33,
35,
35,
37,
37,
37,
37,
41,
41,
37,
14,
15,
15,
22,
44,
42,
42,
47,
47,
39,
39,
33,
33,
30,
30,
24,
24,
17,
17,
10,
10,
2,
2,
2,
2,
5,
5,
11,
11,
19,
19,
28,
28,
30,
30,
25,
25,
22,
22,
18,
18,
8,
8,
2,
2,
2,
2,
4,
4,
4,
4,
4,
4,
6,
6,
10,
10,
11,
11,
13,
13,
10,
10,
10,
10,
6,
6,
6,
25,
24,
24,
28,
13,
14,
14,
6,
6,
2,
2,
6,
6,
12,
12,
17,
17,
25,
25,
26,
26,
18,
18,
9,
9,
6,
28,
28,
47,
46,
32,
33,
9,
10,
10,
3,
24,
23,
41,
41,
41,
34,
14,
14,
0,
3,
27,
27,
52,
51,
51,
51,
36,
37,
12,
12,
0,
0,
0,
2,
2,
6,
6,
9,
20,
20,
20,
30,
30,
33,
33,
24,
9,
10,
10,
5,
5,
4,
4,
8,
8,
14,
14,
8,
8,
3,
3,
13,
13,
22,
22,
25,
25,
18,
18,
9,
9,
0,
0,
4,
4,
2,
2,
12,
12,
18,
18,
12,
12,
4,
4,
4,
15,
14,
14,
21,
21,
14,
1,
4,
20,
20,
32,
31,
31,
28,
17,
17,
5,
5,
5,
-1,
-1,
8,
8,
10,
10,
7,
7,
1,
1,
9,
9,
15,
15,
13,
2,
3,
3,
2,
2,
4,
4,
3,
3,
2,
2,
2,
2,
0,
0,
0,
0,
3,
3,
8,
20,
20,
20,
24,
13,
13,
2,
3,
3,
1,
1,
2,
2,
6,
6,
9,
9,
8,
8,
10,
10,
14,
14,
17,
17,
17,
17,
12,
1,
1,
18,
18,
37,
36,
36,
39,
39,
31,
18,
18,
6,
6,
6,
6,
20,
20,
20,
24,
24,
25,
25,
26,
26,
26,
26,
27,
27,
21,
8,
9,
9,
7,
21,
21,
21,
26,
38,
38,
38,
46,
46,
53,
53,
52,
19,
20,
7,
24,
24,
26,
26,
20,
20,
25,
25,
27,
27,
22,
22,
24,
24,
23,
23,
20,
6,
8,
8,
6,
6,
12,
12,
10,
22,
21,
62,
62,
28,
52,
63,
63,
63,
63,
63,
56,
43,
43,
43,
40,
40,
38,
18,
19,
2,
4,
24,
23,
38,
38,
38,
43,
43,
50,
50,
44,
44,
36,
36,
26,
26,
18,
18,
13,
13,
7,
7,
1,
1,
10,
10,
17,
17,
1,
30,
30,
62,
58,
24,
54,
54,
62,
62,
63,
63,
64,
64,
60,
23,
24,
2,
6,
30,
30,
49,
49,
49,
57,
57,
62,
62,
57,
38,
39,
39,
30,
12,
13,
2,
8,
8,
10,
10,
4,
4,
3,
3,
0,
0,
0,
0,
9,
24,
23,
23,
22,
22,
22,
22,
28,
28,
20,
20,
17,
2,
2,
2,
7,
27,
26,
26,
32,
32,
34,
34,
30,
18,
19,
1,
2,
32,
31,
62,
61,
61,
64,
64,
61,
20,
21,
5,
17,
17,
26,
26,
31,
31,
35,
35,
33,
21,
22,
22,
18,
32,
31,
31,
22,
22,
14,
14,
9,
9,
6,
6,
5,
5,
1,
1,
1,
1,
8,
36,
36,
57,
56,
56,
52,
9,
9,
9,
13,
13,
16,
16,
6,
6,
0,
18,
17,
17,
26,
26,
22,
8,
9,
9,
7,
7,
12,
12,
6,
6,
12,
27,
26,
26,
18,
18,
13,
1,
6,
6,
1,
1,
5,
5,
6,
6,
8,
8,
6,
6,
-1,
-1,
0,
0,
6,
6,
9,
9,
4,
17,
16,
16,
16,
28,
28,
28,
29,
13,
14,
14,
8,
8,
3,
3,
3,
3,
7,
7,
10,
10,
12,
12,
20,
20,
14,
14,
6,
6,
1,
1,
8,
8,
15,
2,
2,
2,
6,
6,
0,
0,
0,
0,
2,
2,
2,
2,
5,
5,
6,
6,
15,
15,
12,
12,
13,
13,
5,
5,
5,
5,
4,
4,
2,
2,
7,
7,
8,
8,
4,
4,
6,
6,
15,
15,
18,
18,
9,
9,
8,
8,
5,
5,
9,
9,
1,
1,
6,
20,
19,
19,
19,
19,
9,
9,
0,
0,
4,
26,
26,
41,
40,
40,
35,
35,
38,
22,
23,
1,
2,
2,
7,
21,
21,
21,
30,
30,
21,
6,
6,
6,
5,
5,
12,
12,
17,
6,
7,
7,
14,
14,
10,
10,
9,
9,
9,
9,
8,
8,
5,
5,
1,
1,
7,
7,
9,
9,
5,
5,
3,
3,
7,
7,
0,
0,
1,
1,
5,
5,
2,
2,
6,
6,
0,
0,
-1,
-1,
1,
1,
1,
1,
0,
0,
9,
9,
1,
15,
14,
14,
23,
23,
22,
22,
18,
18,
9,
9,
7,
7,
16,
16,
10,
10,
3,
3,
5,
5,
4,
4,
0,
0,
2,
2,
8,
8,
7,
7,
14,
14,
11,
11,
7,
7,
6,
6,
2,
2,
3,
3,
9,
9,
18,
18,
12,
12,
6,
6,
2,
2,
4,
4,
12,
12,
12,
12,
18,
6,
7,
7,
1,
20,
19,
53,
52,
52,
60,
60,
51,
25,
26,
1,
1,
1,
8,
8,
13,
13,
18,
36,
35,
35,
42,
42,
43,
43,
36,
25,
25,
14,
15,
15,
6,
50,
63,
37,
25,
58,
58,
58,
63,
63,
64,
64,
64,
64,
64,
64,
58,
26,
27,
3,
6,
26,
25,
41,
40,
59,
59,
59,
63,
63,
64,
45,
46,
24,
25,
8,
9,
9,
5,
5,
3,
3,
2,
2,
9,
9,
13,
28,
27,
27,
36,
36,
31,
31,
25,
25,
25,
25,
26,
26,
18,
18,
10,
10,
8,
8,
1,
14,
13,
13,
14,
14,
12,
12,
6,
6,
4,
4,
11,
28,
28,
28,
33,
33,
24,
6,
6,
6,
10,
10,
18,
18,
18,
18,
10,
10,
5,
5,
13,
13,
22,
22,
19,
3,
3,
3,
1,
1,
2,
2,
5,
16,
15,
28,
26,
26,
31,
31,
27,
14,
15,
1,
5,
30,
29,
46,
45,
45,
36,
22,
22,
3,
4,
4,
5,
5,
8,
8,
3,
3,
3,
3,
10,
10,
13,
13,
4,
4,
5,
5,
14,
28,
27,
38,
38,
38,
30,
14,
14,
1,
2,
2,
10,
21,
20,
20,
15,
15,
13,
13,
16,
16,
12,
12,
5,
5,
0,
0,
1,
1,
1,
1,
0,
0,
1,
1,
0,
0,
7,
7,
12,
12,
13,
1,
2,
18,
18,
18,
24,
24,
26,
12,
12,
0,
2,
2,
9,
9,
14,
14,
18,
18,
13,
13,
8,
8,
3,
3,
5,
5,
2,
2,
10,
10,
13,
13,
12,
1,
5,
18,
17,
17,
18,
18,
14,
1,
4,
33,
32,
62,
61,
48,
48,
18,
19,
5,
5,
5,
5,
23,
23,
39,
39,
39,
42,
42,
42,
31,
31,
17,
18,
3,
4,
4,
8,
20,
20,
20,
26,
26,
21,
21,
16,
16,
11,
11,
4,
4,
3,
3,
5,
5,
7,
7,
5,
5,
1,
1,
5,
5,
14,
14,
19,
19,
26,
26,
26,
1,
2,
2,
2,
2,
2,
2,
8,
23,
22,
35,
35,
35,
27,
4,
4,
17,
16,
16,
19,
19,
14,
14,
16,
2,
3,
16,
16,
27,
26,
26,
29,
18,
19,
8,
9,
9,
3,
14,
14,
14,
19,
19,
22,
22,
19,
19,
10,
10,
1,
1,
0,
0,
7,
7,
12,
12,
9,
9,
4,
4,
6,
6,
0,
0,
1,
1,
2,
2,
11,
11,
19,
19,
18,
18,
13,
13,
4,
4,
8,
8,
11,
11,
8,
26,
26,
14,
14,
1,
10,
50,
50,
64,
64,
64,
65,
30,
31,
6,
18,
39,
39,
39,
36,
21,
22,
22,
25,
25,
30,
30,
26,
26,
18,
18,
13,
13,
7,
7,
4,
4,
1,
1,
8,
8,
15,
26,
25,
25,
19,
5,
6,
6,
3,
3,
0,
0,
-1,
-1,
2,
2,
5,
5,
7,
7,
4,
4,
3,
3,
3,
3,
2,
17,
17,
34,
33,
47,
46,
46,
43,
28,
29,
2,
3,
3,
12,
25,
24,
37,
36,
36,
39,
26,
26,
26,
18,
18,
21,
21,
25,
13,
14,
1,
2,
2,
8,
8,
6,
6,
5,
5,
9,
9,
12,
12,
7,
7,
1,
1,
0,
0,
1,
1,
3,
29,
29,
58,
57,
57,
62,
62,
54,
21,
22,
4,
14,
45,
45,
58,
57,
57,
60,
48,
49,
28,
28,
12,
13,
0,
1,
1,
7,
7,
11,
11,
14,
14,
15,
15,
14,
14,
10,
10,
8,
8,
8,
8,
9,
9,
5,
5,
5,
5,
15,
15,
20,
20,
10,
44,
61,
29,
30,
60,
59,
59,
63,
63,
64,
36,
54,
25,
25,
45,
45,
61,
61,
61,
63,
47,
48,
8,
8,
44,
44,
62,
62,
62,
62,
62,
64,
64,
64,
64,
59,
41,
41,
20,
20,
1,
2,
15,
15,
15,
23,
23,
24,
36,
34,
34,
28,
28,
33,
33,
30,
30,
23,
23,
29,
29,
23,
23,
14,
1,
4,
4,
1,
12,
12,
12,
8,
8,
7,
7,
6,
6,
14,
30,
30,
30,
22,
6,
6,
6,
1,
15,
15,
34,
34,
34,
36,
23,
24,
24,
18,
18,
15,
26,
26,
26,
25,
25,
21,
9,
10,
10,
1,
1,
6,
17,
17,
17,
16,
16,
10,
10,
12,
12,
10,
10,
15,
27,
27,
27,
30,
30,
23,
23,
19,
19,
12,
1,
9,
9,
15,
2,
3,
3,
10,
10,
15,
15,
10,
10,
6,
25,
25,
25,
34,
34,
41,
26,
26,
26,
21,
21,
13,
13,
9,
9,
1,
1,
10,
21,
21,
21,
31,
31,
23,
23,
14,
14,
11,
11,
2,
2,
7,
7,
1,
1,
3,
3,
2,
2,
4,
4,
2,
2,
3,
3,
4,
4,
5,
5,
6,
19,
17,
2,
3,
3,
2,
2,
4,
4,
1,
1,
-1,
11,
10,
10,
10,
10,
1,
1,
6,
6,
10,
10,
8,
8,
8,
19,
18,
3,
3,
3,
5,
5,
4,
4,
2,
2,
4,
4,
7,
7,
13,
13,
16,
16,
14,
1,
2,
18,
18,
18,
19,
19,
26,
11,
12,
1,
6,
6,
5,
5,
6,
6,
8,
8,
8,
8,
8,
8,
2,
2,
9,
20,
20,
20,
28,
28,
29,
18,
18,
1,
2,
2,
2,
2,
5,
5,
13,
13,
6,
6,
2,
2,
10,
28,
28,
40,
39,
26,
13,
57,
57,
25,
30,
62,
61,
61,
63,
63,
58,
33,
33,
12,
13,
2,
