EMG_S2/DS0079.CSV

Memory Length,4000,
Trigger Level,-4.80000e+02,
Source,CH1,
Probe,1.0X,
Vertical Units,V,
Vertical Scale,1.00000e+00,
Vertical Position,0.00000e+00,
Horizontal Units,S,
Horizontal Scale,1.00000e-01,
Horizontal Position,0.0000000e+00,
Horizontal Mode,Roll Mode,
Waveform Last Dot Address,4000,
Sampling Period,4.00000e-04,
Firmware,V1.14,
Time, ,
Mode,Fast,
Waveform Data,
1,
1,
6,
6,
4,
4,
2,
2,
-1,
-1,
-1,
-1,
1,
1,
2,
2,
1,
1,
-1,
-1,
0,
0,
1,
1,
2,
2,
1,
1,
1,
1,
-1,
-1,
2,
2,
0,
0,
3,
3,
7,
7,
9,
9,
10,
10,
7,
7,
4,
4,
2,
2,
3,
3,
9,
9,
7,
7,
5,
5,
5,
5,
8,
8,
5,
5,
2,
2,
8,
8,
5,
5,
1,
1,
6,
6,
9,
9,
8,
8,
2,
2,
6,
6,
14,
14,
12,
12,
9,
9,
6,
6,
2,
2,
4,
4,
2,
2,
0,
0,
2,
2,
6,
6,
6,
6,
3,
3,
4,
4,
12,
12,
15,
15,
15,
15,
10,
10,
2,
2,
11,
22,
22,
22,
26,
26,
26,
26,
17,
1,
2,
2,
0,
0,
3,
3,
1,
1,
5,
5,
14,
14,
18,
18,
18,
18,
13,
13,
7,
7,
2,
2,
1,
1,
5,
5,
6,
6,
6,
6,
5,
5,
2,
2,
0,
0,
-1,
-1,
0,
0,
1,
1,
5,
5,
5,
5,
3,
3,
1,
1,
-1,
-1,
0,
0,
0,
0,
-1,
-1,
0,
0,
0,
0,
0,
0,
1,
1,
1,
1,
2,
2,
3,
3,
3,
3,
1,
1,
-1,
-1,
0,
0,
1,
1,
1,
1,
0,
0,
1,
1,
2,
2,
3,
3,
2,
2,
2,
2,
2,
2,
0,
0,
0,
0,
1,
1,
1,
1,
2,
2,
-1,
-1,
3,
3,
6,
6,
5,
5,
3,
3,
2,
2,
-1,
-1,
0,
0,
-1,
-1,
0,
0,
0,
0,
5,
5,
6,
6,
7,
7,
5,
5,
3,
3,
6,
6,
7,
7,
5,
5,
0,
0,
1,
1,
6,
6,
11,
11,
10,
10,
6,
6,
2,
2,
0,
0,
0,
0,
0,
0,
1,
1,
0,
0,
2,
2,
4,
4,
5,
5,
5,
5,
2,
2,
1,
1,
-1,
-1,
3,
3,
6,
6,
6,
6,
0,
0,
5,
5,
6,
6,
5,
5,
0,
0,
1,
1,
4,
4,
9,
9,
6,
6,
0,
0,
0,
0,
-1,
-1,
1,
1,
4,
4,
5,
5,
0,
0,
2,
2,
1,
1,
3,
3,
3,
3,
2,
2,
2,
2,
0,
0,
0,
0,
4,
4,
7,
7,
4,
4,
0,
0,
0,
0,
2,
2,
1,
1,
2,
2,
0,
0,
9,
9,
18,
18,
16,
16,
8,
8,
2,
2,
4,
4,
8,
8,
13,
13,
14,
14,
13,
13,
8,
8,
4,
4,
0,
0,
3,
3,
7,
7,
6,
6,
2,
2,
0,
0,
0,
0,
2,
2,
1,
1,
0,
0,
3,
3,
2,
2,
2,
2,
5,
5,
6,
6,
5,
5,
0,
0,
-1,
-1,
2,
2,
2,
2,
2,
2,
2,
2,
2,
2,
2,
2,
0,
0,
-1,
-1,
0,
0,
0,
0,
0,
0,
0,
0,
0,
0,
0,
0,
0,
0,
-1,
-1,
-1,
-1,
1,
1,
2,
2,
1,
1,
0,
0,
0,
0,
1,
1,
2,
2,
1,
1,
-1,
-1,
2,
2,
3,
3,
1,
1,
1,
1,
2,
2,
4,
4,
8,
8,
8,
8,
3,
3,
2,
2,
8,
8,
7,
7,
4,
4,
2,
2,
6,
6,
2,
2,
1,
1,
3,
3,
6,
6,
7,
7,
3,
3,
1,
1,
8,
8,
12,
12,
13,
13,
10,
10,
6,
6,
4,
4,
3,
3,
-1,
-1,
2,
2,
6,
6,
7,
7,
9,
9,
7,
7,
5,
5,
5,
5,
5,
5,
4,
4,
0,
0,
-1,
-1,
-1,
-1,
2,
2,
4,
4,
4,
4,
1,
1,
0,
0,
3,
3,
6,
6,
12,
12,
19,
19,
18,
18,
10,
10,
14,
14,
13,
13,
8,
8,
4,
17,
15,
15,
19,
19,
19,
19,
14,
14,
10,
10,
8,
8,
6,
6,
6,
6,
5,
5,
1,
1,
5,
5,
9,
9,
10,
10,
17,
17,
22,
22,
21,
9,
10,
10,
6,
6,
7,
7,
7,
7,
1,
1,
6,
17,
17,
17,
19,
19,
19,
19,
17,
17,
11,
11,
7,
7,
2,
2,
12,
12,
14,
14,
14,
14,
15,
15,
14,
3,
4,
4,
5,
5,
9,
9,
10,
10,
9,
9,
7,
7,
5,
5,
-1,
-1,
3,
3,
9,
9,
8,
8,
3,
3,
1,
1,
1,
1,
2,
2,
0,
0,
4,
4,
0,
0,
5,
5,
1,
1,
7,
7,
6,
6,
2,
2,
1,
1,
2,
2,
5,
5,
6,
6,
1,
1,
5,
5,
9,
9,
10,
10,
9,
9,
6,
6,
5,
5,
4,
4,
1,
1,
2,
2,
8,
8,
10,
10,
10,
10,
8,
8,
11,
11,
8,
8,
1,
1,
-1,
-1,
1,
1,
0,
0,
2,
2,
6,
6,
6,
6,
6,
6,
6,
6,
6,
6,
4,
4,
0,
0,
4,
4,
2,
2,
5,
5,
3,
3,
3,
3,
2,
2,
5,
5,
6,
6,
6,
6,
2,
2,
2,
2,
8,
8,
10,
10,
10,
10,
14,
14,
18,
18,
14,
2,
10,
25,
24,
24,
28,
28,
37,
37,
35,
35,
26,
8,
9,
9,
8,
22,
21,
21,
26,
26,
22,
22,
17,
17,
15,
15,
16,
16,
15,
15,
9,
9,
4,
4,
0,
0,
5,
5,
7,
7,
6,
6,
9,
9,
13,
13,
13,
13,
13,
13,
12,
12,
9,
9,
6,
6,
5,
5,
2,
2,
1,
1,
2,
2,
6,
6,
6,
6,
7,
7,
8,
8,
7,
7,
5,
5,
2,
2,
0,
0,
2,
2,
1,
1,
1,
1,
0,
0,
2,
2,
5,
5,
2,
2,
-1,
-1,
2,
2,
6,
6,
7,
7,
8,
8,
8,
8,
6,
6,
5,
5,
1,
1,
1,
1,
3,
3,
2,
2,
1,
1,
1,
1,
1,
1,
1,
1,
2,
2,
4,
4,
7,
7,
8,
8,
4,
4,
2,
2,
1,
1,
6,
6,
9,
9,
10,
10,
8,
8,
5,
5,
2,
2,
1,
1,
1,
1,
6,
6,
10,
10,
6,
6,
5,
5,
3,
3,
-1,
-1,
3,
3,
5,
5,
0,
17,
17,
31,
30,
30,
36,
36,
34,
22,
22,
2,
2,
20,
20,
32,
32,
32,
27,
27,
21,
21,
19,
19,
21,
21,
17,
17,
9,
9,
3,
3,
5,
5,
13,
13,
15,
15,
10,
10,
10,
10,
12,
12,
10,
10,
8,
8,
5,
5,
3,
3,
2,
2,
1,
1,
0,
0,
3,
3,
9,
9,
14,
14,
18,
18,
5,
5,
5,
5,
11,
25,
25,
25,
31,
31,
22,
10,
10,
10,
4,
4,
1,
1,
8,
8,
13,
13,
13,
13,
13,
13,
11,
11,
8,
8,
6,
6,
4,
4,
1,
1,
1,
1,
4,
4,
5,
5,
5,
5,
4,
4,
2,
2,
5,
5,
6,
6,
7,
7,
6,
6,
6,
6,
2,
2,
0,
0,
0,
0,
5,
5,
9,
9,
10,
10,
6,
6,
0,
0,
1,
1,
1,
1,
1,
1,
0,
0,
0,
0,
4,
4,
5,
5,
-1,
-1,
4,
4,
4,
4,
8,
8,
7,
7,
5,
5,
2,
2,
9,
9,
15,
15,
18,
18,
17,
17,
10,
10,
4,
4,
9,
9,
10,
10,
9,
9,
8,
8,
9,
9,
9,
9,
5,
5,
2,
2,
-1,
-1,
-1,
-1,
1,
1,
1,
1,
3,
3,
7,
7,
12,
12,
12,
12,
11,
11,
4,
4,
-1,
-1,
5,
5,
6,
6,
6,
6,
3,
3,
0,
0,
5,
5,
5,
5,
1,
1,
6,
6,
6,
6,
5,
5,
5,
5,
4,
4,
0,
0,
3,
3,
5,
5,
5,
5,
4,
4,
1,
1,
2,
2,
2,
2,
5,
5,
6,
6,
7,
7,
4,
4,
0,
0,
6,
6,
8,
8,
6,
6,
4,
4,
2,
2,
1,
1,
0,
0,
0,
0,
2,
2,
5,
5,
3,
3,
1,
1,
1,
1,
1,
1,
-1,
-1,
-1,
-1,
0,
0,
-1,
-1,
3,
3,
1,
1,
-1,
-1,
0,
0,
3,
3,
2,
2,
2,
2,
2,
2,
2,
2,
1,
1,
1,
1,
6,
6,
10,
10,
12,
12,
13,
13,
9,
9,
1,
1,
5,
5,
10,
10,
6,
6,
0,
0,
4,
4,
2,
2,
0,
0,
4,
4,
8,
8,
8,
8,
8,
8,
3,
3,
2,
2,
3,
3,
7,
7,
10,
10,
10,
10,
1,
1,
1,
1,
0,
0,
0,
0,
1,
1,
2,
2,
1,
1,
0,
0,
-1,
-1,
0,
0,
1,
1,
0,
0,
1,
1,
3,
3,
3,
3,
0,
0,
7,
7,
13,
13,
14,
14,
8,
8,
6,
6,
3,
3,
5,
5,
14,
14,
16,
16,
9,
9,
3,
3,
3,
3,
7,
7,
6,
6,
6,
6,
6,
6,
2,
2,
0,
0,
0,
0,
0,
0,
-1,
-1,
1,
1,
6,
6,
8,
8,
5,
5,
2,
2,
0,
0,
1,
1,
2,
2,
4,
4,
2,
2,
4,
4,
3,
3,
2,
2,
3,
3,
2,
2,
2,
2,
0,
0,
-1,
-1,
-1,
-1,
-1,
-1,
0,
0,
-1,
-1,
-1,
-1,
-1,
-1,
0,
0,
2,
2,
1,
1,
-1,
-1,
3,
3,
3,
3,
2,
2,
2,
2,
1,
1,
-1,
-1,
4,
4,
3,
3,
2,
2,
5,
5,
6,
6,
2,
2,
-1,
-1,
-1,
-1,
-2,
-2,
2,
2,
2,
2,
5,
5,
4,
4,
1,
1,
-1,
-1,
0,
0,
3,
3,
4,
4,
1,
1,
-2,
-2,
1,
1,
0,
0,
0,
0,
-1,
-1,
0,
0,
2,
2,
0,
0,
1,
1,
4,
4,
0,
0,
5,
5,
9,
9,
11,
11,
15,
15,
14,
14,
4,
4,
5,
5,
10,
10,
8,
8,
4,
4,
1,
1,
1,
1,
1,
1,
0,
0,
0,
0,
4,
4,
6,
6,
5,
5,
4,
4,
5,
5,
2,
2,
1,
1,
5,
5,
7,
7,
3,
3,
1,
1,
7,
7,
10,
10,
2,
2,
-1,
-1,
1,
1,
2,
2,
0,
0,
3,
3,
2,
2,
0,
0,
1,
1,
-1,
-1,
1,
1,
0,
0,
2,
2,
3,
3,
3,
3,
3,
3,
6,
6,
0,
0,
2,
2,
1,
1,
0,
0,
0,
0,
1,
1,
4,
4,
3,
3,
2,
2,
0,
0,
1,
1,
0,
0,
2,
2,
5,
5,
7,
7,
5,
5,
3,
3,
2,
2,
9,
9,
18,
29,
29,
29,
38,
38,
42,
23,
23,
3,
8,
27,
26,
26,
34,
34,
33,
33,
28,
28,
22,
22,
15,
15,
6,
6,
1,
1,
2,
2,
4,
4,
7,
7,
8,
8,
9,
9,
10,
10,
10,
10,
9,
9,
6,
6,
5,
5,
4,
4,
3,
3,
1,
1,
-2,
-2,
1,
1,
2,
2,
2,
2,
2,
2,
2,
2,
1,
1,
1,
1,
-1,
-1,
3,
3,
4,
4,
2,
2,
0,
0,
1,
1,
3,
3,
2,
2,
0,
0,
2,
2,
4,
4,
2,
2,
0,
0,
-1,
-1,
1,
1,
2,
2,
5,
5,
4,
4,
2,
2,
2,
2,
0,
0,
0,
0,
1,
1,
1,
1,
-1,
-1,
1,
1,
0,
0,
1,
1,
1,
1,
2,
2,
2,
2,
1,
1,
4,
4,
5,
5,
5,
5,
3,
3,
3,
3,
1,
1,
0,
0,
2,
2,
0,
0,
-1,
-1,
4,
4,
5,
5,
3,
3,
4,
4,
9,
9,
17,
17,
22,
22,
16,
16,
11,
11,
5,
18,
17,
29,
28,
28,
31,
31,
26,
15,
15,
1,
2,
2,
2,
2,
5,
5,
8,
8,
8,
8,
10,
10,
10,
10,
10,
10,
10,
10,
8,
8,
5,
5,
1,
1,
0,
0,
3,
3,
6,
6,
6,
6,
5,
5,
4,
4,
3,
3,
3,
3,
0,
0,
0,
0,
2,
2,
4,
4,
1,
1,
3,
3,
7,
7,
7,
7,
7,
7,
8,
8,
4,
4,
2,
2,
2,
2,
1,
1,
1,
1,
2,
2,
5,
5,
1,
14,
14,
14,
22,
22,
20,
20,
13,
13,
6,
6,
2,
2,
3,
3,
6,
6,
5,
5,
5,
5,
2,
2,
4,
4,
4,
4,
4,
4,
4,
4,
3,
3,
3,
3,
2,
2,
1,
1,
2,
2,
1,
1,
1,
1,
-1,
-1,
-1,
-1,
0,
0,
0,
0,
0,
0,
1,
1,
1,
1,
0,
0,
-2,
-2,
1,
1,
2,
2,
2,
2,
2,
2,
0,
0,
0,
0,
1,
1,
4,
4,
5,
5,
3,
3,
1,
1,
0,
0,
1,
1,
0,
0,
2,
2,
3,
3,
2,
2,
2,
2,
4,
4,
4,
4,
2,
2,
1,
1,
0,
0,
1,
1,
2,
2,
0,
0,
1,
1,
0,
0,
1,
1,
1,
1,
0,
0,
0,
0,
-2,
-2,
0,
0,
1,
1,
0,
0,
-1,
-1,
0,
0,
5,
5,
5,
5,
2,
2,
2,
2,
7,
7,
12,
12,
9,
9,
1,
1,
5,
5,
6,
6,
3,
3,
7,
7,
7,
7,
0,
0,
10,
10,
16,
16,
17,
17,
17,
17,
11,
11,
7,
7,
2,
2,
5,
5,
12,
12,
17,
17,
16,
16,
14,
14,
11,
11,
6,
6,
2,
2,
1,
1,
2,
2,
10,
10,
12,
12,
9,
9,
1,
12,
12,
26,
25,
38,
37,
37,
44,
44,
45,
45,
38,
18,
18,
3,
10,
24,
24,
24,
29,
29,
33,
33,
34,
34,
28,
28,
21,
21,
14,
14,
8,
8,
3,
3,
2,
2,
8,
8,
10,
10,
12,
12,
14,
14,
16,
16,
13,
13,
9,
9,
6,
6,
4,
4,
1,
1,
1,
1,
4,
4,
5,
5,
2,
2,
0,
0,
7,
7,
10,
10,
6,
6,
4,
4,
0,
0,
4,
4,
6,
6,
9,
9,
11,
11,
10,
10,
8,
8,
6,
6,
2,
2,
1,
1,
6,
6,
9,
9,
9,
9,
8,
8,
6,
6,
2,
2,
0,
0,
-1,
-1,
-1,
-1,
2,
2,
3,
3,
2,
2,
1,
1,
2,
2,
4,
4,
1,
1,
3,
3,
8,
8,
5,
5,
0,
0,
-1,
-1,
-1,
-1,
0,
0,
0,
0,
-1,
-1,
3,
3,
4,
4,
2,
2,
1,
1,
4,
4,
8,
8,
10,
10,
12,
12,
9,
9,
3,
3,
0,
0,
3,
3,
9,
9,
12,
12,
14,
14,
14,
14,
14,
14,
8,
8,
2,
14,
14,
14,
19,
19,
17,
17,
14,
14,
9,
9,
1,
12,
11,
11,
18,
18,
9,
9,
6,
6,
13,
13,
14,
14,
11,
11,
6,
6,
0,
0,
6,
6,
10,
10,
10,
10,
11,
11,
13,
13,
10,
10,
6,
6,
1,
1,
5,
5,
6,
6,
4,
4,
5,
5,
3,
3,
2,
2,
4,
4,
3,
3,
-1,
-1,
0,
0,
0,
0,
2,
2,
4,
4,
9,
9,
18,
18,
23,
8,
9,
9,
11,
11,
17,
17,
16,
16,
17,
17,
18,
18,
14,
14,
10,
10,
6,
6,
-1,
-1,
5,
5,
12,
12,
13,
13,
10,
10,
7,
7,
6,
6,
5,
5,
4,
4,
0,
0,
0,
0,
0,
0,
-1,
-1,
-1,
-1,
-1,
-1,
-1,
-1,
0,
0,
-1,
-1,
0,
0,
0,
0,
0,
0,
-1,
-1,
0,
0,
2,
2,
4,
4,
2,
2,
-1,
-1,
1,
1,
1,
1,
0,
0,
-1,
-1,
-1,
-1,
1,
1,
2,
2,
2,
2,
0,
0,
0,
0,
1,
1,
0,
0,
1,
1,
4,
4,
5,
5,
1,
1,
8,
8,
14,
14,
13,
13,
6,
6,
2,
13,
13,
26,
25,
25,
30,
30,
23,
9,
10,
10,
1,
1,
9,
9,
14,
14,
18,
18,
18,
18,
18,
18,
14,
14,
9,
9,
3,
3,
2,
2,
6,
6,
7,
7,
6,
6,
6,
6,
6,
6,
7,
7,
6,
6,
2,
2,
2,
2,
3,
3,
1,
1,
1,
1,
0,
0,
0,
0,
0,
0,
-2,
-2,
-1,
-1,
-1,
-1,
1,
1,
-1,
-1,
0,
0,
2,
2,
5,
5,
7,
7,
10,
10,
10,
10,
6,
6,
0,
0,
9,
9,
17,
17,
26,
26,
29,
18,
19,
1,
2,
14,
14,
28,
28,
28,
30,
30,
20,
6,
7,
7,
2,
2,
7,
24,
23,
23,
26,
12,
13,
-1,
0,
0,
1,
1,
3,
3,
3,
3,
2,
2,
5,
5,
8,
8,
9,
9,
9,
9,
4,
4,
-1,
-1,
4,
4,
6,
6,
7,
7,
7,
7,
8,
8,
9,
9,
6,
6,
1,
1,
1,
1,
2,
2,
4,
4,
2,
2,
2,
2,
1,
1,
0,
0,
0,
0,
0,
0,
-1,
-1,
-1,
-1,
1,
1,
2,
2,
2,
2,
0,
0,
-1,
-1,
1,
1,
1,
1,
-1,
-1,
0,
0,
3,
3,
2,
2,
0,
0,
-1,
-1,
-1,
-1,
-1,
-1,
-1,
-1,
0,
0,
0,
0,
-1,
-1,
1,
1,
2,
2,
0,
0,
-1,
-1,
1,
1,
1,
1,
1,
1,
0,
0,
1,
1,
2,
2,
0,
0,
-1,
-1,
-1,
-1,
-1,
-1,
1,
1,
1,
1,
0,
0,
0,
0,
1,
1,
2,
2,
0,
0,
1,
1,
2,
2,
0,
0,
2,
2,
3,
3,
7,
7,
10,
10,
13,
13,
7,
7,
1,
1,
6,
6,
8,
8,
9,
9,
8,
8,
6,
6,
4,
4,
0,
0,
1,
1,
2,
2,
0,
0,
1,
1,
1,
1,
2,
2,
2,
2,
2,
2,
6,
6,
8,
8,
7,
7,
1,
1,
0,
0,
2,
2,
4,
4,
3,
3,
2,
2,
2,
2,
-1,
-1,
0,
0,
4,
4,
8,
8,
9,
9,
8,
8,
0,
0,
6,
6,
12,
12,
15,
15,
14,
14,
7,
7,
6,
6,
9,
9,
1,
1,
1,
1,
2,
17,
16,
16,
18,
1,
2,
16,
15,
15,
20,
20,
23,
23,
23,
23,
20,
20,
10,
10,
4,
4,
0,
0,
0,
0,
2,
2,
5,
5,
8,
8,
11,
11,
14,
14,
15,
15,
14,
14,
8,
8,
4,
4,
1,
1,
0,
0,
0,
0,
0,
0,
2,
2,
2,
2,
3,
3,
1,
1,
1,
1,
2,
2,
3,
3,
1,
1,
2,
2,
1,
1,
1,
1,
0,
0,
-1,
-1,
-1,
-1,
1,
1,
2,
2,
1,
1,
-1,
-1,
-1,
-1,
1,
1,
2,
2,
0,
0,
1,
1,
1,
1,
0,
0,
0,
0,
0,
0,
-1,
-1,
0,
0,
0,
0,
-1,
-1,
-1,
-1,
0,
0,
-1,
-1,
-1,
-1,
-1,
-1,
0,
0,
1,
1,
3,
3,
2,
2,
2,
2,
0,
0,
1,
1,
4,
4,
2,
2,
2,
2,
1,
1,
0,
0,
-2,
-2,
0,
0,
2,
2,
3,
3,
3,
3,
2,
2,
0,
0,
0,
0,
1,
1,
0,
0,
0,
0,
1,
1,
3,
3,
2,
2,
2,
2,
-1,
-1,
3,
3,
7,
7,
10,
10,
10,
10,
7,
7,
2,
2,
1,
1,
5,
5,
6,
6,
8,
8,
6,
6,
4,
4,
1,
1,
0,
0,
0,
0,
0,
0,
0,
0,
0,
0,
2,
2,
2,
2,
2,
2,
0,
0,
-1,
-1,
0,
0,
0,
0,
2,
2,
4,
4,
1,
1,
0,
0,
1,
1,
-1,
-1,
1,
1,
1,
1,
-1,
-1,
3,
3,
0,
0,
6,
6,
9,
9,
5,
5,
0,
0,
9,
9,
10,
10,
11,
11,
11,
11,
10,
10,
7,
7,
0,
0,
4,
4,
6,
6,
6,
6,
11,
11,
13,
13,
15,
15,
18,
18,
13,
13,
4,
4,
6,
6,
9,
9,
8,
8,
11,
11,
14,
14,
13,
13,
10,
10,
7,
7,
1,
1,
0,
0,
2,
2,
3,
3,
1,
1,
2,
2,
1,
1,
0,
0,
-1,
-1,
0,
0,
2,
2,
9,
9,
14,
14,
13,
1,
2,
2,
6,
18,
17,
31,
30,
30,
38,
38,
32,
10,
10,
10,
13,
26,
25,
25,
28,
28,
25,
25,
19,
19,
13,
13,
9,
9,
4,
4,
0,
0,
5,
5,
8,
8,
10,
10,
13,
13,
10,
10,
8,
8,
5,
5,
2,
2,
1,
1,
2,
2,
2,
2,
-1,
-1,
1,
1,
5,
5,
5,
5,
5,
5,
2,
2,
2,
2,
0,
0,
2,
2,
5,
5,
4,
4,
0,
0,
4,
4,
2,
2,
1,
1,
5,
5,
7,
7,
9,
9,
8,
8,
1,
1,
2,
2,
6,
6,
8,
8,
8,
8,
6,
6,
6,
6,
3,
3,
0,
0,
0,
0,
0,
0,
2,
2,
5,
5,
5,
5,
6,
6,
2,
2,
2,
2,
3,
3,
4,
4,
2,
2,
-1,
-1,
0,
0,
1,
1,
1,
1,
-1,
-1,
-1,
-1,
-1,
-1,
-1,
-1,
1,
1,
2,
2,
0,
0,
0,
0,
0,
0,
-1,
-1,
0,
0,
-1,
-1,
-1,
-1,
-1,
-1,
-1,
-1,
2,
2,
5,
5,
5,
5,
2,
2,
0,
0,
-1,
-1,
0,
0,
-1,
-1,
0,
0,
1,
1,
-1,
-1,
-1,
-1,
0,
0,
-1,
-1,
0,
0,
0,
0,
1,
1,
0,
0,
-1,
-1,
1,
1,
1,
1,
-1,
-1,
2,
2,
6,
6,
6,
6,
6,
6,
6,
6,
4,
4,
1,
1,
7,
7,
14,
14,
22,
22,
26,
26,
24,
24,
16,
1,
2,
13,
12,
12,
20,
20,
21,
21,
20,
20,
17,
17,
13,
13,
10,
10,
5,
5,
0,
0,
2,
2,
6,
6,
6,
6,
9,
9,
11,
11,
10,
10,
8,
8,
5,
5,
1,
1,
2,
2,
4,
4,
5,
5,
6,
6,
0,
0,
6,
6,
10,
10,
13,
13,
15,
15,
14,
14,
7,
7,
4,
4,
10,
10,
5,
5,
9,
25,
25,
25,
29,
18,
18,
1,
2,
2,
10,
10,
10,
10,
10,
10,
12,
12,
8,
8,
2,
2,
-1,
-1,
0,
0,
0,
0,
1,
1,
4,
4,
2,
2,
0,
0,
0,
0,
3,
3,
7,
7,
11,
11,
12,
12,
7,
7,
1,
1,
6,
6,
6,
6,
5,
5,
5,
5,
2,
2,
2,
2,
1,
1,
-1,
-1,
0,
0,
1,
1,
1,
1,
1,
1,
3,
3,
3,
3,
3,
3,
-1,
-1,
0,
0,
0,
0,
-1,
-1,
-1,
-1,
0,
0,
-1,
-1,
-1,
-1,
-1,
-1,
0,
0,
-1,
-1,
0,
0,
1,
1,
0,
0,
1,
1,
1,
1,
4,
4,
3,
3,
4,
4,
2,
2,
0,
0,
0,
0,
1,
1,
1,
1,
1,
1,
2,
2,
1,
1,
0,
0,
1,
1,
1,
1,
1,
1,
3,
3,
1,
1,
0,
0,
0,
0,
0,
0,
-1,
-1,
0,
0,
0,
0,
0,
0,
-1,
-1,
-2,
-2,
2,
2,
3,
3,
5,
5,
3,
3,
2,
2,
1,
1,
2,
2,
6,
6,
7,
7,
9,
9,
5,
5,
0,
0,
0,
0,
2,
2,
7,
7,
8,
8,
8,
8,
6,
6,
1,
1,
0,
0,
1,
1,
2,
2,
0,
0,
4,
4,
6,
6,
6,
6,
7,
7,
3,
3,
1,
1,
0,
0,
0,
0,
2,
2,
4,
4,
1,
1,
1,
1,
0,
0,
-2,
-2,
1,
1,
2,
2,
2,
2,
1,
1,
1,
1,
2,
2,
7,
7,
11,
11,
8,
8,
7,
7,
2,
2,
6,
17,
17,
17,
26,
26,
34,
34,
37,
37,
30,
10,
11,
11,
17,
35,
35,
35,
37,
37,
32,
32,
28,
28,
23,
23,
22,
22,
24,
24,
17,
2,
5,
24,
23,
37,
36,
36,
39,
39,
34,
34,
37,
37,
38,
16,
17,
2,
8,
22,
22,
22,
25,
25,
22,
22,
18,
18,
18,
18,
15,
15,
10,
10,
5,
5,
0,
0,
3,
3,
6,
6,
10,
10,
12,
12,
13,
13,
10,
10,
6,
6,
3,
3,
1,
1,
0,
0,
0,
0,
1,
1,
2,
2,
2,
2,
2,
2,
1,
1,
2,
2,
2,
2,
0,
0,
-1,
-1,
2,
2,
4,
4,
2,
2,
-1,
-1,
2,
2,
5,
5,
3,
3,
-1,
-1,
2,
2,
1,
1,
0,
0,
4,
4,
6,
6,
3,
3,
0,
0,
2,
2,
2,
2,
0,
0,
0,
0,
1,
1,
1,
1,
1,
1,
2,
2,
2,
2,
3,
3,
2,
2,
1,
1,
0,
0,
5,
5,
9,
9,
8,
8,
10,
10,
7,
7,
0,
0,
6,
6,
8,
8,
4,
4,
0,
0,
1,
1,
4,
4,
5,
5,
2,
2,
1,
1,
0,
0,
-1,
-1,
