EMG_S2/DS0071.CSV

Memory Length,4000,
Trigger Level,-4.80000e+02,
Source,CH1,
Probe,1.0X,
Vertical Units,V,
Vertical Scale,1.00000e+00,
Vertical Position,0.00000e+00,
Horizontal Units,S,
Horizontal Scale,1.00000e-01,
Horizontal Position,0.0000000e+00,
Horizontal Mode,Roll Mode,
Waveform Last Dot Address,4000,
Sampling Period,4.00000e-04,
Firmware,V1.14,
Time, ,
Mode,Fast,
Waveform Data,
1,
1,
8,
22,
21,
21,
29,
29,
20,
9,
10,
10,
12,
12,
6,
6,
0,
0,
0,
0,
7,
7,
7,
7,
16,
16,
25,
25,
23,
23,
18,
18,
14,
14,
8,
8,
10,
10,
5,
5,
3,
3,
4,
4,
13,
13,
6,
6,
10,
10,
8,
8,
9,
9,
8,
8,
7,
7,
4,
4,
6,
6,
2,
2,
3,
3,
1,
1,
1,
1,
0,
0,
1,
1,
0,
0,
1,
1,
3,
3,
2,
2,
2,
2,
2,
2,
1,
1,
0,
0,
0,
0,
0,
0,
1,
1,
0,
0,
0,
0,
0,
0,
1,
1,
0,
0,
1,
1,
1,
1,
0,
0,
0,
0,
-1,
-1,
0,
0,
1,
1,
0,
0,
1,
1,
2,
2,
1,
1,
-1,
-1,
-1,
-1,
0,
0,
0,
0,
2,
2,
0,
0,
2,
2,
1,
1,
-1,
-1,
0,
0,
0,
0,
-1,
-1,
0,
0,
-2,
-2,
-1,
-1,
0,
0,
1,
1,
2,
2,
4,
4,
2,
2,
0,
0,
2,
2,
0,
0,
-1,
-1,
-1,
-1,
1,
1,
0,
0,
1,
1,
0,
0,
2,
2,
1,
1,
1,
1,
3,
3,
1,
1,
0,
0,
1,
1,
0,
0,
0,
0,
0,
0,
0,
0,
3,
3,
4,
4,
3,
3,
-1,
-1,
2,
2,
5,
5,
0,
0,
9,
9,
18,
18,
15,
15,
14,
14,
9,
9,
2,
16,
15,
26,
25,
25,
31,
31,
30,
5,
10,
10,
18,
34,
34,
34,
40,
40,
40,
20,
20,
1,
4,
17,
17,
30,
30,
30,
28,
28,
26,
26,
19,
19,
15,
4,
6,
6,
4,
4,
13,
13,
11,
11,
6,
6,
11,
11,
14,
14,
15,
15,
11,
11,
2,
2,
1,
1,
9,
9,
3,
3,
0,
0,
5,
5,
11,
11,
14,
14,
11,
11,
5,
5,
1,
1,
2,
2,
2,
2,
10,
10,
7,
7,
12,
12,
9,
9,
-1,
-1,
0,
0,
1,
1,
0,
0,
-1,
-1,
1,
1,
1,
1,
-1,
-1,
0,
0,
2,
2,
5,
5,
1,
1,
2,
2,
4,
4,
5,
5,
5,
5,
5,
5,
4,
4,
0,
0,
1,
1,
3,
3,
10,
10,
15,
15,
15,
15,
8,
8,
1,
1,
-1,
-1,
3,
3,
1,
1,
7,
7,
8,
8,
12,
48,
48,
65,
64,
64,
65,
65,
62,
18,
18,
35,
34,
61,
60,
60,
64,
64,
64,
52,
52,
33,
34,
12,
13,
13,
7,
7,
4,
4,
2,
2,
9,
9,
14,
14,
19,
19,
20,
20,
22,
22,
21,
21,
18,
18,
17,
17,
14,
14,
10,
10,
5,
5,
1,
1,
0,
0,
0,
0,
2,
2,
5,
5,
6,
6,
6,
6,
7,
7,
6,
6,
4,
4,
1,
1,
0,
0,
1,
1,
1,
1,
3,
3,
0,
0,
1,
1,
0,
0,
2,
2,
0,
0,
3,
3,
3,
3,
1,
1,
-1,
-1,
1,
1,
3,
3,
4,
4,
2,
2,
1,
1,
-1,
-1,
0,
0,
0,
0,
-1,
-1,
0,
0,
0,
0,
0,
0,
1,
1,
2,
2,
0,
0,
1,
1,
1,
1,
-1,
-1,
1,
1,
2,
2,
2,
2,
2,
2,
3,
3,
1,
1,
0,
0,
2,
2,
3,
3,
5,
5,
4,
4,
0,
0,
1,
1,
2,
2,
3,
3,
1,
1,
1,
1,
1,
1,
0,
0,
3,
14,
14,
25,
24,
24,
26,
11,
11,
0,
0,
0,
6,
6,
10,
10,
12,
12,
11,
11,
9,
9,
6,
6,
3,
3,
1,
1,
1,
1,
1,
1,
2,
2,
1,
1,
1,
1,
4,
4,
6,
6,
5,
16,
15,
15,
23,
23,
21,
6,
6,
6,
4,
4,
12,
12,
16,
16,
15,
15,
15,
15,
12,
12,
8,
8,
3,
3,
2,
2,
6,
6,
7,
7,
7,
7,
5,
5,
1,
1,
-1,
-1,
0,
0,
4,
4,
6,
6,
6,
6,
5,
5,
0,
0,
3,
3,
0,
0,
6,
20,
19,
35,
34,
34,
31,
8,
9,
9,
12,
24,
23,
8,
8,
8,
14,
33,
33,
33,
24,
5,
10,
31,
30,
30,
33,
33,
31,
31,
23,
23,
28,
16,
18,
18,
9,
9,
2,
2,
7,
7,
6,
6,
15,
15,
17,
17,
20,
20,
20,
20,
13,
13,
5,
5,
6,
6,
13,
13,
13,
2,
3,
3,
1,
1,
3,
3,
-1,
-1,
0,
0,
5,
5,
4,
4,
5,
5,
8,
8,
12,
12,
10,
10,
1,
1,
6,
6,
1,
1,
2,
2,
0,
0,
1,
1,
1,
1,
-1,
-1,
0,
0,
2,
2,
5,
5,
5,
5,
4,
4,
9,
9,
13,
13,
5,
5,
8,
8,
13,
13,
10,
10,
6,
24,
24,
24,
33,
17,
17,
6,
7,
7,
10,
29,
28,
28,
23,
6,
7,
7,
15,
26,
25,
14,
15,
1,
3,
3,
6,
6,
1,
1,
6,
6,
14,
14,
21,
21,
15,
15,
8,
8,
6,
6,
5,
5,
1,
1,
9,
9,
14,
14,
14,
14,
18,
18,
16,
16,
7,
7,
0,
0,
5,
5,
2,
2,
0,
0,
6,
6,
6,
6,
12,
12,
13,
13,
8,
8,
3,
3,
10,
10,
16,
16,
13,
13,
19,
19,
14,
14,
6,
6,
5,
16,
15,
15,
18,
18,
11,
0,
0,
0,
6,
6,
10,
10,
16,
16,
17,
6,
6,
6,
8,
8,
9,
9,
6,
6,
9,
9,
10,
10,
5,
5,
6,
6,
5,
5,
6,
6,
2,
2,
1,
1,
5,
5,
2,
2,
0,
0,
5,
5,
6,
6,
9,
9,
2,
2,
0,
0,
-1,
-1,
2,
2,
2,
2,
1,
1,
0,
0,
4,
4,
13,
13,
16,
1,
2,
2,
8,
8,
9,
9,
14,
14,
9,
9,
5,
5,
13,
13,
21,
21,
12,
0,
1,
1,
1,
1,
8,
8,
10,
10,
12,
12,
7,
19,
17,
17,
14,
2,
3,
3,
12,
12,
17,
17,
18,
18,
10,
10,
2,
2,
2,
2,
4,
15,
14,
14,
9,
9,
14,
14,
17,
17,
9,
9,
1,
1,
8,
29,
28,
40,
39,
39,
29,
2,
2,
2,
12,
12,
12,
12,
9,
9,
3,
3,
2,
23,
22,
22,
32,
14,
14,
2,
6,
29,
29,
29,
37,
37,
31,
14,
15,
1,
1,
1,
8,
8,
5,
5,
8,
8,
8,
8,
3,
3,
6,
6,
13,
13,
11,
11,
6,
6,
2,
2,
2,
2,
6,
6,
1,
1,
0,
0,
8,
8,
6,
6,
12,
12,
15,
15,
10,
10,
1,
1,
8,
8,
10,
10,
10,
10,
5,
5,
3,
3,
8,
8,
1,
1,
9,
9,
10,
10,
10,
10,
11,
11,
7,
7,
5,
5,
4,
4,
4,
4,
2,
2,
5,
5,
4,
4,
5,
5,
3,
3,
8,
8,
6,
6,
9,
9,
9,
9,
11,
11,
10,
10,
7,
7,
2,
2,
5,
5,
14,
26,
25,
25,
21,
21,
13,
13,
9,
9,
2,
2,
6,
6,
1,
1,
4,
4,
14,
28,
28,
28,
38,
38,
32,
7,
7,
7,
3,
17,
16,
2,
3,
15,
14,
14,
19,
19,
20,
20,
19,
19,
10,
10,
4,
4,
12,
1,
2,
17,
16,
16,
21,
21,
19,
19,
12,
12,
6,
6,
0,
0,
7,
7,
10,
10,
8,
8,
6,
6,
7,
7,
8,
8,
5,
5,
4,
4,
9,
9,
11,
11,
12,
12,
7,
7,
-1,
-1,
2,
2,
0,
0,
2,
2,
1,
1,
1,
1,
1,
1,
2,
2,
10,
10,
11,
11,
10,
10,
2,
2,
3,
3,
0,
0,
0,
0,
0,
0,
1,
1,
7,
7,
13,
13,
7,
7,
2,
2,
8,
8,
3,
3,
7,
7,
0,
0,
0,
0,
3,
3,
5,
5,
2,
2,
4,
4,
6,
6,
10,
10,
10,
10,
5,
5,
6,
17,
16,
16,
17,
17,
13,
1,
4,
4,
11,
11,
2,
2,
2,
22,
22,
22,
22,
8,
9,
9,
11,
11,
18,
18,
17,
2,
3,
22,
21,
34,
32,
32,
37,
37,
33,
33,
25,
25,
20,
20,
13,
13,
10,
10,
2,
2,
11,
28,
27,
42,
41,
41,
40,
24,
24,
13,
14,
1,
2,
2,
1,
1,
5,
5,
8,
8,
9,
9,
7,
7,
8,
8,
6,
6,
5,
5,
2,
2,
0,
0,
2,
2,
1,
1,
0,
0,
3,
3,
8,
8,
12,
1,
2,
17,
17,
17,
24,
24,
19,
19,
23,
23,
24,
3,
4,
19,
19,
19,
20,
20,
13,
13,
6,
6,
1,
1,
10,
10,
16,
16,
13,
13,
9,
9,
4,
4,
2,
14,
14,
14,
13,
13,
10,
10,
8,
8,
6,
6,
9,
9,
8,
8,
1,
1,
6,
6,
9,
9,
9,
9,
7,
7,
6,
6,
0,
0,
2,
2,
3,
3,
6,
6,
2,
2,
5,
5,
4,
4,
7,
7,
5,
5,
6,
6,
3,
3,
0,
0,
-1,
-1,
1,
1,
6,
6,
5,
5,
2,
2,
10,
21,
20,
20,
25,
25,
16,
3,
10,
25,
24,
24,
34,
34,
29,
29,
33,
19,
20,
3,
4,
4,
5,
5,
12,
12,
19,
19,
22,
22,
20,
20,
15,
15,
8,
8,
7,
7,
2,
2,
2,
2,
2,
2,
6,
6,
3,
3,
2,
2,
6,
6,
16,
16,
14,
1,
3,
28,
28,
58,
57,
57,
64,
64,
65,
65,
57,
15,
15,
31,
31,
52,
50,
50,
59,
59,
55,
55,
47,
32,
34,
21,
21,
9,
9,
9,
0,
0,
5,
5,
9,
9,
15,
15,
20,
20,
21,
21,
21,
21,
18,
18,
14,
14,
8,
8,
2,
2,
11,
11,
10,
10,
10,
10,
17,
6,
6,
26,
26,
60,
59,
59,
61,
18,
18,
4,
14,
31,
30,
30,
30,
30,
28,
28,
24,
24,
20,
8,
9,
9,
5,
5,
6,
6,
5,
5,
1,
1,
0,
0,
0,
0,
1,
1,
1,
1,
7,
7,
14,
14,
17,
17,
16,
16,
12,
12,
10,
10,
2,
2,
6,
6,
10,
10,
15,
15,
13,
1,
2,
2,
0,
11,
10,
10,
15,
15,
24,
24,
29,
14,
16,
16,
6,
6,
1,
1,
2,
2,
8,
19,
17,
17,
20,
20,
17,
17,
20,
20,
23,
23,
18,
18,
13,
13,
7,
7,
2,
2,
0,
0,
7,
7,
12,
12,
17,
17,
18,
18,
18,
18,
14,
14,
11,
11,
9,
9,
5,
5,
2,
2,
1,
1,
5,
5,
4,
4,
2,
2,
2,
2,
6,
6,
2,
2,
7,
7,
6,
6,
6,
6,
6,
20,
19,
19,
11,
11,
4,
25,
24,
36,
34,
34,
26,
3,
3,
3,
12,
12,
11,
11,
13,
13,
14,
14,
20,
20,
21,
9,
10,
-1,
1,
14,
13,
24,
24,
24,
18,
18,
14,
14,
10,
10,
1,
1,
5,
5,
6,
6,
1,
1,
3,
23,
22,
33,
32,
32,
34,
34,
24,
5,
17,
57,
57,
57,
64,
64,
64,
46,
47,
24,
24,
6,
19,
46,
46,
46,
49,
49,
41,
41,
34,
22,
22,
10,
10,
10,
7,
7,
2,
15,
14,
14,
20,
9,
10,
10,
1,
1,
8,
8,
13,
13,
4,
4,
8,
20,
19,
19,
14,
14,
8,
8,
7,
7,
0,
0,
2,
2,
3,
3,
2,
2,
5,
5,
5,
5,
0,
0,
0,
0,
0,
0,
1,
1,
8,
8,
6,
6,
4,
4,
1,
1,
4,
4,
3,
3,
2,
2,
6,
6,
6,
6,
4,
4,
14,
28,
27,
27,
21,
10,
10,
10,
2,
17,
17,
17,
14,
1,
2,
2,
2,
18,
18,
33,
32,
32,
25,
9,
10,
-1,
0,
0,
1,
1,
1,
17,
16,
30,
29,
29,
30,
30,
29,
18,
18,
18,
10,
10,
10,
10,
13,
1,
5,
27,
26,
37,
36,
36,
36,
36,
28,
16,
16,
16,
9,
9,
0,
0,
1,
1,
6,
6,
7,
7,
14,
14,
24,
24,
25,
25,
21,
21,
13,
13,
10,
10,
9,
9,
1,
1,
5,
5,
9,
9,
13,
13,
13,
13,
8,
8,
9,
9,
8,
8,
13,
13,
11,
11,
8,
8,
0,
0,
6,
21,
21,
21,
28,
28,
21,
21,
13,
13,
9,
9,
2,
2,
9,
9,
8,
8,
7,
7,
8,
8,
7,
7,
4,
4,
6,
6,
2,
2,
-1,
-1,
-2,
-2,
3,
3,
6,
6,
1,
1,
3,
3,
1,
1,
4,
4,
5,
5,
6,
17,
16,
27,
26,
26,
21,
4,
5,
5,
1,
1,
3,
3,
8,
8,
11,
11,
11,
11,
18,
18,
21,
21,
20,
20,
10,
10,
6,
6,
9,
28,
28,
28,
22,
10,
10,
10,
7,
7,
8,
8,
9,
27,
26,
26,
24,
24,
18,
18,
10,
10,
8,
19,
18,
18,
19,
19,
22,
22,
18,
18,
10,
10,
10,
10,
14,
14,
17,
17,
12,
1,
2,
26,
25,
38,
37,
37,
35,
35,
28,
13,
13,
1,
5,
5,
7,
7,
0,
0,
5,
5,
5,
5,
7,
7,
7,
7,
7,
18,
16,
16,
16,
16,
14,
14,
11,
11,
12,
12,
8,
8,
2,
2,
6,
6,
7,
7,
15,
15,
9,
9,
2,
2,
1,
1,
8,
8,
14,
14,
8,
8,
2,
2,
1,
1,
6,
6,
10,
10,
4,
4,
5,
5,
12,
12,
13,
13,
11,
11,
6,
6,
3,
3,
1,
1,
-1,
-1,
0,
0,
-1,
-1,
-1,
-1,
0,
0,
8,
8,
11,
11,
8,
8,
6,
6,
6,
6,
7,
7,
6,
6,
12,
12,
11,
11,
5,
5,
2,
2,
10,
10,
9,
9,
9,
9,
9,
9,
11,
0,
1,
1,
7,
7,
14,
14,
14,
14,
10,
10,
6,
6,
3,
3,
1,
1,
3,
3,
-1,
-1,
0,
0,
3,
3,
6,
6,
8,
8,
10,
10,
9,
9,
7,
7,
4,
4,
2,
2,
2,
2,
2,
2,
2,
2,
4,
4,
6,
6,
6,
6,
9,
9,
2,
2,
0,
0,
2,
2,
0,
0,
3,
3,
11,
11,
6,
6,
8,
8,
6,
6,
10,
31,
30,
54,
53,
53,
50,
28,
28,
5,
5,
24,
23,
44,
43,
43,
49,
49,
45,
29,
30,
19,
19,
8,
8,
8,
5,
5,
2,
2,
8,
8,
12,
12,
14,
14,
12,
12,
13,
13,
10,
10,
15,
15,
23,
23,
25,
12,
13,
1,
2,
2,
7,
7,
12,
12,
11,
0,
1,
1,
6,
6,
13,
13,
9,
9,
2,
13,
12,
12,
10,
10,
10,
10,
13,
13,
13,
13,
12,
12,
3,
3,
10,
10,
16,
16,
6,
6,
0,
0,
0,
0,
6,
6,
7,
7,
5,
5,
2,
2,
6,
6,
15,
15,
14,
14,
10,
10,
5,
5,
2,
2,
0,
0,
3,
3,
8,
8,
7,
7,
3,
3,
2,
2,
-1,
-1,
0,
0,
6,
6,
5,
5,
0,
0,
4,
4,
7,
7,
1,
1,
6,
6,
9,
9,
8,
8,
1,
1,
0,
0,
1,
1,
2,
2,
1,
12,
11,
11,
13,
13,
9,
9,
1,
1,
2,
2,
8,
8,
5,
5,
0,
0,
0,
0,
1,
1,
2,
2,
7,
7,
10,
10,
4,
4,
2,
2,
6,
6,
14,
14,
14,
14,
11,
11,
9,
9,
8,
8,
1,
1,
6,
6,
10,
10,
9,
9,
4,
4,
0,
0,
1,
1,
1,
1,
1,
1,
9,
9,
8,
8,
1,
1,
2,
2,
2,
2,
2,
2,
5,
5,
6,
6,
3,
3,
12,
12,
18,
5,
6,
6,
10,
10,
12,
0,
1,
14,
14,
14,
14,
14,
23,
7,
8,
8,
5,
5,
9,
9,
8,
8,
12,
12,
17,
17,
15,
15,
14,
14,
10,
10,
9,
9,
5,
5,
1,
1,
2,
2,
4,
4,
13,
13,
20,
20,
10,
10,
10,
21,
20,
9,
9,
9,
0,
0,
0,
0,
0,
0,
5,
5,
0,
0,
1,
1,
2,
2,
10,
10,
6,
6,
6,
6,
8,
8,
10,
10,
14,
14,
10,
10,
5,
5,
0,
0,
3,
3,
3,
3,
3,
3,
5,
5,
12,
12,
13,
13,
9,
9,
8,
8,
5,
5,
2,
2,
4,
4,
4,
4,
9,
9,
8,
8,
2,
2,
8,
8,
-1,
-1,
4,
4,
-1,
-1,
1,
1,
0,
0,
1,
1,
0,
0,
-1,
-1,
-1,
-1,
-1,
-1,
2,
2,
0,
0,
0,
0,
2,
2,
5,
5,
7,
7,
8,
8,
2,
2,
5,
5,
9,
9,
7,
7,
0,
0,
7,
7,
16,
16,
7,
7,
1,
1,
5,
5,
5,
5,
2,
2,
2,
2,
6,
6,
8,
8,
14,
14,
6,
6,
2,
2,
12,
29,
29,
29,
34,
34,
24,
10,
10,
10,
2,
2,
7,
20,
20,
20,
15,
15,
15,
26,
25,
9,
10,
-1,
0,
0,
7,
7,
6,
6,
4,
4,
5,
5,
1,
1,
-1,
-1,
-1,
-1,
7,
7,
14,
14,
8,
8,
15,
1,
1,
1,
1,
25,
24,
42,
41,
41,
44,
44,
34,
22,
22,
2,
2,
2,
10,
10,
7,
7,
5,
5,
5,
5,
10,
26,
26,
26,
30,
30,
31,
31,
28,
28,
21,
21,
14,
1,
2,
2,
8,
8,
7,
7,
2,
2,
2,
2,
0,
0,
9,
27,
27,
38,
37,
37,
38,
38,
30,
19,
19,
19,
21,
21,
20,
1,
2,
20,
18,
18,
25,
25,
19,
19,
27,
27,
24,
24,
23,
23,
21,
21,
12,
1,
2,
2,
2,
2,
2,
2,
4,
4,
4,
4,
11,
11,
3,
3,
10,
10,
2,
2,
1,
1,
7,
7,
3,
3,
9,
9,
18,
18,
21,
21,
22,
22,
21,
21,
15,
15,
8,
8,
2,
2,
1,
13,
13,
24,
24,
24,
24,
24,
23,
23,
19,
19,
12,
12,
6,
6,
6,
6,
11,
11,
5,
5,
4,
4,
10,
10,
12,
12,
2,
2,
2,
2,
3,
3,
2,
2,
2,
2,
-1,
-1,
1,
1,
2,
2,
1,
1,
3,
3,
4,
4,
2,
2,
2,
2,
2,
2,
1,
1,
0,
0,
1,
1,
2,
2,
0,
0,
-1,
-1,
2,
2,
2,
2,
3,
3,
4,
4,
5,
5,
4,
4,
-1,
-1,
2,
2,
5,
5,
4,
4,
5,
5,
2,
2,
1,
1,
-1,
-1,
4,
4,
5,
5,
2,
2,
-2,
-2,
4,
4,
3,
3,
7,
7,
13,
13,
9,
9,
2,
13,
13,
13,
17,
6,
6,
6,
4,
4,
10,
10,
10,
10,
2,
2,
-1,
14,
14,
28,
26,
26,
29,
18,
18,
6,
6,
6,
2,
2,
11,
11,
6,
6,
8,
8,
4,
4,
6,
6,
6,
6,
2,
2,
0,
0,
0,
0,
2,
2,
8,
8,
2,
2,
1,
1,
7,
7,
13,
13,
6,
6,
1,
1,
9,
9,
13,
0,
1,
1,
1,
1,
9,
28,
28,
28,
37,
18,
19,
1,
4,
20,
20,
20,
24,
9,
9,
9,
7,
7,
14,
2,
4,
4,
5,
5,
8,
8,
13,
13,
17,
17,
15,
15,
9,
9,
2,
2,
1,
1,
1,
1,
0,
0,
7,
7,
10,
10,
5,
5,
3,
3,
4,
4,
6,
6,
4,
4,
2,
2,
1,
1,
7,
7,
2,
2,
8,
20,
19,
30,
30,
30,
22,
1,
3,
15,
15,
15,
12,
12,
7,
7,
4,
4,
-1,
-1,
2,
2,
9,
9,
13,
13,
10,
10,
7,
7,
5,
5,
1,
1,
0,
0,
-1,
-1,
6,
6,
14,
27,
26,
15,
16,
1,
8,
38,
37,
61,
61,
61,
64,
64,
65,
40,
40,
6,
8,
30,
29,
40,
40,
40,
39,
39,
38,
38,
41,
41,
41,
41,
34,
20,
21,
21,
13,
13,
5,
5,
4,
4,
12,
12,
21,
21,
25,
25,
26,
26,
24,
24,
20,
20,
14,
14,
12,
12,
9,
9,
4,
4,
0,
0,
2,
2,
5,
5,
7,
7,
5,
5,
4,
4,
6,
6,
6,
6,
5,
5,
3,
3,
2,
2,
2,
2,
1,
1,
0,
0,
1,
1,
4,
4,
2,
2,
0,
0,
2,
2,
-2,
-2,
1,
1,
2,
2,
5,
5,
8,
8,
8,
8,
4,
4,
0,
0,
5,
5,
6,
6,
6,
6,
2,
2,
-1,
-1,
4,
4,
10,
10,
15,
15,
13,
13,
8,
8,
6,
6,
0,
18,
17,
39,
39,
57,
56,
56,
59,
30,
30,
4,
6,
25,
25,
25,
32,
32,
34,
34,
33,
33,
24,
24,
16,
16,
10,
10,
5,
5,
0,
0,
5,
5,
8,
8,
7,
7,
9,
9,
10,
10,
8,
8,
4,
4,
2,
2,
6,
6,
8,
8,
6,
6,
5,
5,
2,
2,
0,
0,
3,
3,
3,
3,
1,
1,
7,
7,
4,
4,
0,
0,
-1,
-1,
2,
2,
1,
1,
-1,
-1,
-1,
-1,
0,
0,
1,
1,
2,
2,
0,
0,
-1,
-1,
0,
0,
0,
0,
-1,
-1,
0,
0,
1,
1,
0,
0,
2,
2,
5,
5,
8,
8,
12,
12,
9,
9,
2,
2,
1,
1,
5,
5,
9,
9,
5,
5,
5,
5,
2,
2,
5,
5,
4,
4,
1,
1,
0,
0,
0,
0,
1,
1,
6,
6,
13,
13,
9,
9,
7,
7,
4,
4,
0,
0,
4,
4,
5,
5,
5,
5,
2,
2,
2,
2,
1,
1,
2,
2,
3,
3,
-1,
-1,
0,
0,
1,
1,
-1,
-1,
-1,
-1,
1,
1,
1,
1,
0,
0,
0,
0,
-1,
-1,
1,
1,
1,
1,
-1,
-1,
0,
0,
1,
1,
0,
0,
0,
0,
2,
2,
-1,
-1,
1,
1,
1,
1,
1,
1,
-1,
-1,
1,
1,
1,
1,
0,
0,
0,
0,
0,
0,
0,
0,
-1,
-1,
-1,
-1,
-1,
-1,
2,
2,
1,
1,
1,
1,
6,
6,
14,
14,
19,
19,
14,
14,
12,
12,
7,
7,
10,
33,
32,
52,
51,
51,
50,
35,
36,
14,
14,
2,
7,
19,
18,
18,
23,
23,
32,
32,
28,
28,
23,
23,
18,
18,
13,
13,
8,
8,
1,
1,
4,
4,
6,
6,
6,
6,
8,
8,
9,
9,
10,
10,
9,
9,
8,
8,
10,
10,
5,
5,
2,
2,
0,
0,
0,
0,
-1,
-1,
1,
1,
-1,
-1,
0,
0,
-1,
-1,
2,
2,
0,
0,
2,
2,
1,
1,
0,
0,
-2,
-2,
-1,
-1,
0,
0,
3,
3,
7,
7,
4,
4,
2,
2,
6,
6,
2,
2,
-1,
-1,
6,
6,
10,
10,
13,
13,
18,
18,
26,
26,
24,
8,
9,
9,
10,
10,
17,
17,
20,
20,
15,
15,
12,
12,
8,
8,
13,
2,
5,
5,
1,
1,
4,
4,
4,
19,
18,
18,
13,
13,
9,
9,
3,
14,
14,
30,
29,
46,
45,
58,
58,
58,
58,
32,
32,
3,
4,
23,
22,
38,
38,
38,
42,
42,
40,
40,
34,
34,
30,
30,
22,
9,
9,
9,
0,
0,
9,
9,
13,
13,
16,
16,
13,
13,
17,
17,
15,
15,
13,
13,
10,
10,
7,
7,
4,
4,
1,
1,
0,
0,
0,
0,
1,
1,
2,
2,
4,
4,
6,
6,
5,
5,
4,
4,
2,
2,
1,
1,
-1,
-1,
2,
2,
5,
5,
2,
2,
8,
8,
9,
9,
1,
1,
10,
10,
14,
14,
12,
12,
6,
6,
3,
3,
6,
6,
10,
10,
10,
10,
2,
2,
1,
1,
2,
2,
1,
1,
1,
1,
1,
1,
0,
0,
0,
0,
1,
1,
6,
6,
9,
9,
6,
6,
1,
1,
1,
1,
4,
4,
3,
3,
4,
4,
1,
1,
8,
8,
8,
8,
1,
1,
0,
0,
7,
7,
10,
10,
7,
7,
4,
4,
2,
2,
0,
0,
0,
0,
0,
0,
0,
0,
1,
1,
-1,
-1,
3,
3,
2,
2,
3,
3,
3,
3,
3,
3,
4,
4,
2,
2,
0,
0,
-1,
-1,
1,
1,
4,
4,
0,
11,
11,
11,
14,
14,
20,
20,
16,
16,
14,
14,
9,
9,
4,
23,
21,
45,
45,
56,
55,
40,
41,
22,
23,
23,
18,
2,
7,
32,
31,
31,
26,
41,
41,
41,
41,
18,
19,
19,
21,
9,
9,
9,
5,
5,
1,
1,
6,
6,
11,
11,
12,
12,
15,
15,
13,
13,
11,
11,
1,
1,
8,
8,
6,
6,
5,
5,
