EMG_S2/DS0074.CSV

Memory Length,4000,
Trigger Level,-4.80000e+02,
Source,CH1,
Probe,1.0X,
Vertical Units,V,
Vertical Scale,1.00000e+00,
Vertical Position,0.00000e+00,
Horizontal Units,S,
Horizontal Scale,1.00000e-01,
Horizontal Position,0.0000000e+00,
Horizontal Mode,Roll Mode,
Waveform Last Dot Address,4000,
Sampling Period,4.00000e-04,
Firmware,V1.14,
Time, ,
Mode,Fast,
Waveform Data,
9,
9,
3,
3,
6,
6,
2,
2,
0,
0,
1,
1,
2,
2,
2,
2,
1,
1,
4,
4,
1,
1,
1,
1,
4,
4,
3,
3,
1,
1,
1,
1,
3,
3,
2,
2,
3,
3,
10,
10,
8,
8,
5,
5,
5,
5,
6,
6,
2,
2,
0,
0,
3,
3,
5,
5,
2,
2,
0,
0,
0,
0,
2,
2,
6,
6,
10,
10,
9,
9,
2,
2,
3,
3,
3,
3,
1,
1,
8,
8,
15,
15,
14,
14,
16,
16,
20,
20,
18,
5,
6,
6,
6,
6,
6,
6,
6,
6,
10,
10,
16,
16,
17,
17,
13,
13,
10,
10,
6,
6,
3,
3,
1,
1,
3,
3,
4,
4,
2,
2,
5,
5,
6,
6,
7,
7,
7,
7,
7,
7,
7,
7,
6,
6,
2,
2,
-1,
-1,
0,
0,
-1,
-1,
1,
1,
1,
1,
3,
3,
6,
6,
1,
1,
2,
2,
1,
1,
1,
1,
0,
0,
1,
1,
5,
5,
3,
3,
3,
3,
4,
4,
5,
5,
4,
4,
0,
0,
-1,
-1,
0,
0,
1,
1,
7,
7,
13,
13,
6,
6,
6,
24,
22,
42,
42,
61,
60,
60,
65,
42,
43,
6,
8,
36,
36,
54,
54,
54,
57,
57,
52,
52,
42,
29,
30,
15,
16,
2,
4,
4,
6,
6,
10,
10,
17,
17,
21,
21,
23,
23,
21,
21,
13,
0,
0,
0,
3,
3,
4,
4,
3,
3,
10,
10,
4,
4,
10,
10,
18,
18,
11,
11,
6,
33,
33,
51,
50,
64,
63,
63,
63,
17,
17,
6,
20,
42,
42,
56,
56,
56,
59,
59,
53,
41,
42,
29,
30,
13,
13,
0,
2,
2,
5,
5,
4,
4,
10,
10,
16,
16,
22,
22,
24,
24,
19,
19,
17,
17,
15,
15,
10,
10,
7,
7,
6,
6,
2,
2,
1,
1,
2,
2,
4,
4,
7,
7,
10,
10,
9,
9,
4,
4,
0,
0,
5,
5,
10,
10,
13,
13,
7,
7,
1,
1,
6,
6,
8,
8,
9,
9,
10,
10,
15,
15,
18,
18,
14,
3,
4,
4,
7,
22,
21,
36,
36,
36,
38,
38,
29,
12,
13,
1,
4,
16,
14,
14,
22,
22,
21,
21,
19,
19,
14,
14,
5,
5,
1,
1,
-1,
-1,
-1,
-1,
2,
2,
2,
2,
2,
2,
7,
7,
9,
9,
12,
12,
8,
8,
4,
4,
4,
4,
1,
1,
0,
0,
4,
4,
7,
7,
5,
5,
1,
1,
-1,
-1,
1,
1,
1,
1,
1,
1,
0,
0,
1,
1,
1,
1,
3,
3,
5,
5,
2,
2,
-1,
-1,
2,
2,
1,
1,
4,
4,
6,
6,
5,
5,
6,
6,
5,
5,
2,
2,
1,
1,
5,
5,
10,
10,
11,
11,
6,
6,
2,
2,
2,
2,
2,
2,
1,
1,
0,
0,
2,
2,
2,
2,
0,
0,
0,
0,
5,
5,
4,
4,
0,
0,
2,
2,
0,
0,
2,
2,
6,
6,
6,
6,
5,
5,
4,
4,
7,
7,
7,
7,
1,
1,
2,
2,
6,
6,
9,
9,
12,
12,
13,
13,
17,
17,
14,
1,
4,
18,
18,
32,
32,
32,
31,
31,
21,
21,
13,
2,
2,
2,
3,
3,
11,
22,
22,
22,
26,
26,
23,
23,
16,
16,
9,
9,
3,
3,
1,
1,
8,
8,
16,
16,
14,
14,
9,
9,
8,
8,
9,
9,
10,
10,
7,
7,
2,
2,
9,
9,
6,
6,
2,
2,
-1,
-1,
-1,
-1,
0,
0,
2,
2,
6,
6,
5,
5,
2,
2,
2,
2,
6,
6,
7,
7,
9,
9,
4,
4,
0,
0,
0,
0,
0,
0,
-1,
-1,
0,
0,
6,
6,
9,
9,
5,
5,
1,
1,
4,
4,
9,
9,
10,
10,
4,
4,
0,
0,
5,
5,
6,
6,
5,
5,
2,
2,
0,
0,
1,
1,
2,
2,
1,
1,
1,
1,
0,
0,
0,
0,
-1,
-1,
0,
0,
2,
2,
2,
2,
1,
1,
0,
0,
1,
1,
1,
1,
-2,
-2,
0,
0,
-1,
-1,
0,
0,
0,
0,
-1,
-1,
-1,
-1,
-1,
-1,
0,
0,
1,
1,
3,
3,
4,
4,
6,
6,
4,
4,
-1,
-1,
6,
6,
12,
12,
15,
15,
10,
-1,
1,
1,
6,
6,
12,
12,
15,
15,
13,
13,
10,
10,
6,
6,
5,
5,
1,
1,
2,
2,
6,
6,
8,
8,
8,
8,
6,
6,
4,
4,
3,
3,
2,
2,
0,
0,
-2,
-2,
-1,
-1,
0,
0,
0,
0,
1,
1,
3,
3,
5,
5,
8,
8,
8,
8,
6,
6,
3,
3,
0,
0,
2,
2,
2,
2,
1,
1,
0,
0,
0,
0,
0,
0,
0,
0,
-1,
-1,
0,
0,
1,
1,
-2,
-2,
-1,
-1,
1,
1,
3,
3,
2,
2,
-1,
-1,
-1,
-1,
2,
2,
2,
2,
-1,
-1,
1,
1,
2,
2,
1,
1,
0,
0,
0,
0,
0,
0,
0,
0,
0,
0,
2,
2,
2,
2,
4,
4,
1,
1,
1,
1,
2,
2,
1,
1,
0,
0,
4,
4,
6,
6,
1,
1,
4,
4,
10,
10,
14,
14,
17,
17,
9,
9,
3,
3,
8,
8,
14,
14,
17,
17,
20,
20,
17,
17,
7,
7,
1,
1,
2,
2,
7,
7,
10,
10,
10,
10,
12,
12,
13,
13,
10,
10,
6,
6,
0,
0,
6,
6,
9,
9,
9,
9,
9,
9,
7,
7,
2,
2,
0,
0,
-1,
-1,
0,
0,
2,
2,
1,
1,
2,
2,
2,
2,
0,
0,
1,
1,
2,
2,
3,
3,
3,
3,
2,
2,
1,
1,
2,
2,
6,
6,
10,
10,
12,
12,
14,
14,
10,
10,
6,
6,
3,
24,
24,
46,
46,
46,
53,
53,
47,
32,
32,
5,
5,
25,
25,
42,
41,
41,
44,
44,
43,
43,
39,
39,
32,
32,
22,
5,
6,
21,
21,
21,
20,
20,
20,
20,
18,
18,
16,
16,
13,
13,
12,
12,
10,
10,
4,
4,
9,
9,
3,
3,
-1,
-1,
1,
1,
3,
3,
2,
2,
7,
7,
12,
12,
13,
13,
15,
15,
16,
16,
7,
7,
10,
10,
6,
36,
35,
35,
36,
20,
20,
20,
12,
12,
6,
6,
0,
0,
5,
5,
8,
8,
9,
9,
12,
12,
16,
16,
16,
16,
13,
13,
8,
8,
3,
3,
1,
1,
0,
0,
2,
2,
3,
3,
4,
4,
5,
5,
6,
6,
6,
6,
5,
5,
5,
5,
5,
5,
6,
6,
5,
5,
3,
3,
1,
1,
1,
1,
0,
0,
1,
1,
6,
6,
10,
10,
11,
11,
12,
12,
9,
9,
1,
12,
10,
10,
18,
18,
18,
18,
17,
17,
14,
14,
6,
6,
2,
2,
11,
11,
15,
15,
14,
14,
10,
10,
9,
9,
6,
6,
5,
5,
3,
3,
1,
1,
0,
0,
2,
2,
4,
4,
6,
6,
8,
8,
8,
8,
8,
8,
8,
8,
6,
6,
2,
2,
0,
0,
-1,
-1,
1,
1,
6,
6,
6,
6,
0,
0,
3,
3,
1,
1,
9,
9,
10,
10,
6,
6,
6,
6,
1,
12,
12,
12,
17,
17,
17,
17,
13,
13,
13,
13,
10,
10,
2,
16,
15,
15,
25,
25,
24,
24,
17,
1,
2,
13,
13,
25,
25,
25,
30,
30,
26,
8,
8,
8,
6,
6,
11,
11,
14,
14,
15,
15,
15,
15,
15,
15,
13,
13,
8,
8,
6,
6,
3,
3,
0,
0,
2,
2,
6,
6,
14,
14,
22,
22,
25,
25,
21,
21,
17,
17,
12,
12,
5,
5,
5,
5,
11,
11,
11,
11,
9,
9,
9,
9,
9,
9,
6,
6,
0,
0,
0,
0,
3,
3,
5,
5,
5,
5,
3,
3,
0,
0,
1,
1,
6,
6,
10,
10,
10,
10,
6,
6,
2,
2,
0,
0,
2,
2,
3,
3,
2,
2,
0,
0,
0,
0,
1,
1,
1,
1,
2,
2,
3,
3,
2,
2,
0,
0,
-1,
-1,
0,
0,
1,
1,
-1,
-1,
4,
4,
8,
8,
10,
10,
9,
9,
4,
4,
6,
6,
9,
9,
1,
17,
17,
36,
34,
34,
39,
39,
38,
38,
33,
20,
20,
4,
11,
26,
25,
25,
28,
28,
32,
32,
33,
33,
30,
30,
24,
24,
16,
5,
6,
6,
2,
2,
9,
9,
11,
11,
12,
12,
13,
13,
14,
14,
13,
13,
11,
11,
9,
9,
5,
5,
2,
2,
0,
0,
0,
0,
0,
0,
-1,
-1,
0,
0,
-1,
-1,
0,
0,
1,
1,
3,
3,
3,
3,
3,
3,
1,
1,
1,
1,
2,
2,
0,
0,
-1,
-1,
1,
1,
5,
5,
2,
2,
0,
0,
4,
4,
6,
6,
6,
6,
8,
8,
6,
6,
4,
4,
2,
2,
3,
3,
3,
3,
4,
4,
3,
3,
2,
2,
1,
1,
0,
0,
5,
5,
7,
7,
5,
5,
4,
4,
2,
2,
4,
4,
1,
1,
2,
2,
6,
6,
8,
8,
9,
9,
13,
13,
13,
13,
12,
12,
8,
8,
3,
18,
17,
17,
26,
26,
26,
26,
26,
26,
32,
32,
31,
12,
12,
1,
6,
18,
18,
18,
27,
27,
31,
31,
29,
29,
25,
25,
20,
20,
14,
14,
6,
6,
0,
0,
6,
6,
10,
10,
12,
12,
14,
14,
15,
15,
14,
14,
11,
11,
9,
9,
5,
5,
2,
2,
2,
2,
1,
1,
3,
3,
5,
5,
2,
2,
1,
1,
0,
0,
5,
5,
6,
6,
7,
7,
4,
4,
0,
0,
6,
6,
12,
12,
14,
14,
14,
14,
11,
11,
8,
8,
12,
12,
21,
21,
25,
6,
7,
18,
18,
33,
32,
52,
52,
63,
62,
62,
56,
33,
34,
7,
8,
8,
6,
18,
17,
17,
22,
22,
24,
24,
33,
33,
37,
37,
31,
31,
23,
23,
18,
18,
14,
14,
11,
11,
2,
2,
4,
4,
11,
11,
18,
18,
20,
20,
18,
18,
15,
15,
15,
15,
12,
12,
6,
6,
5,
5,
10,
10,
11,
11,
10,
10,
1,
1,
6,
6,
11,
11,
13,
13,
14,
14,
11,
11,
6,
6,
2,
2,
1,
1,
1,
1,
0,
0,
1,
1,
0,
0,
1,
1,
6,
6,
10,
10,
14,
14,
14,
2,
3,
3,
3,
3,
6,
6,
10,
10,
9,
9,
6,
6,
5,
5,
3,
3,
2,
2,
0,
0,
0,
0,
4,
4,
3,
3,
6,
6,
8,
8,
9,
9,
8,
8,
2,
2,
0,
0,
5,
5,
6,
6,
5,
5,
5,
5,
1,
1,
1,
1,
3,
3,
1,
1,
-1,
-1,
2,
2,
0,
0,
4,
4,
5,
5,
6,
6,
12,
12,
11,
11,
6,
6,
1,
1,
0,
0,
1,
1,
2,
2,
3,
3,
4,
4,
5,
5,
2,
2,
0,
0,
-1,
-1,
0,
0,
2,
2,
1,
1,
-2,
-2,
0,
0,
1,
1,
1,
1,
1,
1,
2,
2,
-1,
-1,
2,
2,
3,
3,
6,
6,
9,
9,
10,
10,
1,
1,
10,
10,
13,
13,
13,
13,
12,
12,
12,
12,
7,
7,
1,
1,
9,
9,
13,
13,
20,
20,
26,
26,
28,
28,
26,
14,
15,
1,
2,
13,
12,
12,
17,
17,
24,
24,
25,
25,
20,
20,
17,
17,
14,
14,
10,
10,
3,
3,
1,
1,
5,
5,
2,
2,
9,
9,
18,
18,
21,
21,
20,
20,
17,
17,
13,
13,
6,
6,
1,
1,
9,
9,
19,
19,
23,
23,
20,
20,
12,
1,
1,
14,
14,
14,
23,
23,
30,
30,
30,
10,
10,
10,
2,
2,
2,
2,
7,
7,
10,
10,
12,
12,
14,
14,
22,
22,
23,
23,
19,
19,
10,
10,
2,
2,
6,
6,
3,
3,
2,
2,
6,
6,
9,
9,
10,
10,
10,
10,
8,
8,
7,
7,
2,
2,
5,
5,
6,
6,
3,
3,
6,
6,
5,
5,
-1,
-1,
4,
4,
9,
9,
8,
8,
3,
3,
1,
1,
6,
6,
6,
6,
1,
1,
5,
5,
10,
10,
6,
6,
2,
2,
1,
1,
4,
4,
4,
4,
1,
1,
6,
6,
8,
8,
9,
9,
3,
3,
-1,
-1,
2,
2,
1,
1,
2,
2,
5,
5,
3,
3,
1,
1,
0,
0,
2,
2,
5,
5,
4,
4,
-1,
-1,
-1,
-1,
1,
1,
2,
2,
1,
1,
-1,
-1,
0,
0,
1,
1,
-1,
-1,
2,
2,
2,
2,
8,
8,
8,
8,
1,
1,
4,
4,
7,
18,
17,
17,
22,
22,
26,
26,
29,
29,
29,
16,
16,
2,
6,
27,
26,
26,
34,
34,
32,
32,
29,
29,
24,
24,
17,
17,
9,
9,
2,
2,
1,
1,
5,
5,
10,
10,
14,
14,
15,
15,
13,
13,
11,
11,
10,
10,
9,
9,
8,
8,
7,
7,
4,
4,
0,
0,
2,
2,
4,
4,
5,
5,
6,
6,
4,
4,
2,
2,
0,
0,
-1,
-1,
0,
0,
0,
0,
-1,
-1,
1,
1,
3,
3,
4,
4,
5,
5,
4,
4,
2,
2,
1,
1,
4,
4,
8,
8,
13,
13,
13,
1,
2,
2,
-1,
-1,
3,
3,
8,
8,
6,
6,
1,
1,
6,
6,
6,
6,
6,
6,
7,
7,
6,
6,
5,
5,
4,
4,
6,
6,
4,
4,
1,
1,
3,
3,
6,
6,
5,
5,
5,
5,
7,
7,
7,
7,
5,
5,
2,
2,
1,
1,
3,
3,
4,
4,
8,
8,
5,
5,
3,
3,
8,
8,
11,
11,
10,
10,
5,
5,
0,
0,
7,
7,
16,
16,
19,
7,
8,
8,
10,
28,
28,
28,
33,
21,
22,
2,
2,
22,
21,
49,
49,
60,
59,
59,
20,
20,
20,
4,
12,
28,
26,
39,
38,
38,
40,
40,
32,
32,
22,
22,
14,
14,
6,
6,
1,
1,
5,
5,
6,
6,
5,
5,
6,
6,
9,
9,
13,
13,
18,
18,
16,
16,
13,
13,
7,
7,
4,
4,
1,
1,
0,
0,
-1,
-1,
1,
1,
4,
4,
0,
0,
6,
6,
10,
10,
9,
9,
5,
5,
0,
0,
2,
2,
6,
6,
0,
0,
5,
5,
8,
8,
7,
7,
5,
5,
3,
3,
2,
2,
6,
6,
3,
3,
1,
1,
0,
0,
1,
1,
0,
0,
-1,
-1,
2,
2,
3,
3,
0,
0,
0,
0,
2,
2,
2,
2,
2,
2,
1,
1,
3,
3,
4,
4,
4,
4,
1,
1,
0,
0,
1,
1,
1,
1,
0,
0,
-1,
-1,
0,
0,
3,
3,
6,
6,
8,
8,
8,
8,
9,
9,
9,
9,
2,
2,
12,
23,
23,
23,
29,
29,
28,
28,
22,
11,
11,
0,
2,
2,
8,
8,
14,
14,
21,
21,
23,
23,
20,
20,
16,
16,
10,
10,
4,
4,
0,
0,
2,
2,
4,
4,
7,
7,
6,
6,
7,
7,
5,
5,
4,
4,
6,
6,
7,
7,
6,
6,
5,
5,
2,
2,
6,
6,
13,
13,
13,
0,
2,
2,
8,
8,
12,
12,
11,
11,
8,
8,
6,
6,
3,
3,
2,
2,
5,
5,
4,
4,
2,
2,
-1,
-1,
0,
0,
3,
3,
5,
5,
7,
7,
7,
7,
2,
2,
1,
1,
-1,
-1,
-1,
-1,
-1,
-1,
1,
1,
2,
2,
2,
2,
1,
1,
1,
1,
-1,
-1,
2,
2,
2,
2,
0,
0,
1,
1,
3,
3,
1,
1,
4,
4,
11,
11,
20,
20,
20,
20,
14,
1,
2,
16,
16,
31,
31,
31,
39,
39,
41,
41,
33,
8,
9,
9,
18,
18,
26,
26,
30,
30,
30,
30,
26,
26,
20,
20,
13,
13,
6,
6,
0,
0,
6,
6,
11,
11,
14,
14,
14,
14,
14,
14,
13,
13,
6,
6,
2,
2,
2,
2,
4,
4,
3,
3,
0,
0,
0,
0,
1,
1,
2,
2,
2,
2,
6,
6,
7,
7,
5,
5,
6,
6,
1,
1,
6,
6,
13,
13,
12,
12,
8,
8,
5,
5,
1,
1,
1,
1,
6,
6,
7,
7,
4,
4,
6,
6,
7,
7,
6,
6,
4,
4,
0,
0,
1,
1,
3,
3,
2,
2,
5,
5,
6,
6,
3,
3,
1,
1,
2,
2,
1,
1,
0,
0,
0,
0,
0,
0,
-1,
-1,
4,
4,
7,
7,
4,
4,
0,
0,
0,
0,
1,
1,
5,
5,
4,
4,
1,
1,
0,
0,
2,
2,
5,
5,
5,
5,
1,
1,
0,
0,
2,
2,
3,
3,
2,
2,
2,
2,
-1,
-1,
2,
2,
3,
3,
2,
2,
0,
0,
2,
2,
2,
2,
5,
5,
0,
0,
2,
2,
2,
2,
4,
4,
4,
4,
3,
3,
0,
0,
1,
1,
8,
8,
14,
14,
13,
13,
5,
5,
0,
0,
0,
0,
0,
0,
1,
1,
4,
4,
5,
5,
5,
5,
13,
13,
10,
10,
2,
2,
1,
1,
1,
1,
3,
3,
3,
3,
0,
0,
0,
0,
1,
1,
1,
1,
-1,
-1,
5,
5,
6,
6,
6,
6,
5,
5,
5,
5,
2,
2,
3,
3,
2,
2,
1,
1,
-2,
-2,
-1,
-1,
0,
0,
-2,
-2,
0,
0,
2,
2,
3,
3,
3,
3,
4,
4,
6,
6,
5,
5,
5,
5,
5,
5,
2,
2,
0,
11,
10,
25,
24,
24,
27,
27,
26,
26,
21,
9,
10,
10,
5,
21,
20,
36,
34,
34,
36,
36,
31,
31,
24,
11,
12,
1,
9,
28,
28,
42,
42,
42,
38,
25,
26,
15,
16,
16,
6,
6,
9,
9,
17,
17,
20,
20,
20,
20,
17,
17,
15,
15,
12,
12,
6,
6,
0,
0,
3,
3,
5,
5,
7,
7,
9,
9,
9,
9,
8,
8,
9,
9,
8,
8,
6,
6,
5,
5,
3,
3,
2,
2,
1,
1,
0,
0,
2,
2,
4,
4,
3,
3,
3,
3,
2,
2,
1,
1,
2,
2,
5,
5,
10,
10,
6,
6,
1,
1,
8,
8,
8,
8,
2,
2,
1,
1,
2,
2,
6,
6,
9,
9,
6,
6,
2,
2,
6,
6,
7,
7,
4,
4,
0,
0,
2,
2,
6,
6,
2,
2,
2,
2,
5,
5,
5,
5,
4,
4,
2,
2,
0,
0,
-1,
-1,
1,
1,
1,
1,
2,
2,
2,
2,
2,
2,
2,
2,
2,
2,
1,
1,
1,
1,
1,
1,
0,
0,
0,
0,
0,
0,
-1,
-1,
0,
0,
-1,
-1,
1,
1,
1,
1,
1,
1,
0,
0,
0,
0,
0,
0,
1,
1,
0,
0,
0,
0,
2,
2,
3,
3,
4,
4,
2,
2,
1,
1,
-1,
-1,
-1,
-1,
1,
1,
4,
4,
4,
4,
6,
6,
12,
12,
12,
12,
11,
11,
5,
5,
6,
18,
18,
18,
19,
19,
22,
22,
28,
28,
24,
24,
24,
24,
17,
5,
5,
5,
0,
0,
8,
25,
24,
35,
34,
34,
36,
36,
32,
32,
23,
12,
13,
1,
4,
4,
1,
1,
3,
3,
4,
4,
6,
6,
10,
10,
13,
13,
17,
17,
18,
18,
19,
19,
18,
18,
10,
-1,
0,
0,
2,
2,
3,
3,
3,
3,
3,
3,
3,
3,
4,
4,
3,
3,
2,
2,
1,
1,
0,
0,
1,
1,
0,
0,
-1,
-1,
-1,
-1,
0,
0,
-1,
-1,
0,
0,
-1,
-1,
-1,
-1,
1,
1,
2,
2,
1,
1,
1,
1,
1,
1,
-1,
-1,
0,
0,
-1,
-1,
-1,
-1,
-1,
-1,
-1,
-1,
-1,
-1,
-1,
-1,
0,
0,
2,
2,
0,
0,
-1,
-1,
0,
0,
1,
1,
1,
1,
-1,
-1,
2,
2,
-1,
-1,
0,
0,
2,
2,
3,
3,
1,
1,
0,
0,
1,
1,
2,
2,
-1,
-1,
1,
1,
-1,
-1,
2,
2,
5,
5,
5,
5,
3,
3,
4,
4,
2,
2,
0,
0,
6,
6,
8,
8,
3,
3,
0,
0,
1,
1,
0,
0,
1,
1,
0,
0,
-1,
-1,
-1,
-1,
-1,
-1,
-1,
-1,
0,
0,
0,
0,
1,
1,
0,
0,
2,
2,
6,
6,
7,
7,
6,
6,
4,
4,
3,
3,
11,
11,
18,
18,
19,
19,
12,
1,
2,
2,
2,
2,
7,
7,
12,
12,
12,
12,
2,
2,
8,
8,
13,
13,
7,
7,
0,
0,
5,
5,
2,
2,
0,
0,
0,
0,
3,
3,
1,
1,
6,
6,
14,
14,
13,
13,
8,
8,
2,
2,
3,
3,
1,
1,
8,
8,
13,
13,
7,
7,
1,
1,
2,
2,
1,
1,
10,
10,
16,
16,
20,
20,
21,
21,
21,
9,
9,
9,
6,
17,
16,
16,
21,
21,
22,
22,
20,
20,
16,
16,
10,
10,
5,
5,
0,
0,
0,
0,
2,
2,
5,
5,
7,
7,
9,
9,
7,
7,
7,
7,
7,
7,
6,
6,
6,
6,
3,
3,
2,
2,
2,
2,
0,
0,
0,
0,
1,
1,
1,
1,
2,
2,
2,
2,
1,
1,
-1,
-1,
0,
0,
1,
1,
2,
2,
2,
2,
3,
3,
0,
0,
0,
0,
0,
0,
3,
3,
1,
1,
1,
1,
2,
2,
2,
2,
4,
4,
4,
4,
5,
5,
2,
2,
-1,
-1,
0,
0,
-2,
-2,
-1,
-1,
0,
0,
0,
0,
1,
1,
-1,
-1,
0,
0,
-1,
-1,
-1,
-1,
-1,
-1,
1,
1,
1,
1,
0,
0,
1,
1,
5,
5,
8,
8,
2,
2,
2,
2,
5,
5,
1,
1,
1,
1,
0,
0,
-1,
-1,
5,
5,
14,
26,
25,
40,
40,
40,
43,
43,
34,
17,
18,
2,
8,
35,
34,
48,
47,
47,
46,
46,
41,
41,
32,
32,
24,
12,
13,
1,
2,
2,
5,
5,
10,
10,
14,
14,
18,
18,
21,
21,
21,
21,
19,
19,
16,
16,
13,
13,
8,
8,
-1,
-1,
1,
1,
2,
2,
0,
0,
0,
0,
-1,
-1,
2,
2,
6,
6,
6,
6,
8,
8,
7,
7,
5,
5,
2,
2,
-1,
-1,
0,
0,
0,
0,
0,
0,
-1,
-1,
2,
2,
4,
4,
3,
3,
5,
5,
6,
6,
3,
3,
3,
3,
8,
8,
10,
10,
13,
13,
9,
9,
2,
15,
14,
26,
26,
26,
22,
4,
4,
4,
13,
13,
9,
9,
0,
0,
9,
9,
17,
17,
12,
12,
2,
2,
7,
7,
14,
14,
16,
16,
16,
16,
16,
16,
9,
9,
4,
4,
0,
0,
1,
1,
4,
4,
8,
8,
13,
13,
11,
11,
9,
9,
4,
4,
2,
2,
0,
0,
-2,
-2,
1,
1,
2,
2,
2,
2,
4,
4,
2,
2,
-1,
-1,
1,
1,
3,
3,
3,
3,
2,
2,
3,
3,
3,
3,
4,
4,
2,
2,
-1,
-1,
1,
1,
6,
6,
11,
11,
5,
5,
-1,
-1,
2,
2,
5,
5,
10,
10,
12,
12,
14,
14,
4,
4,
8,
22,
21,
32,
32,
32,
30,
30,
22,
4,
4,
4,
10,
10,
18,
18,
18,
18,
14,
14,
8,
8,
3,
3,
3,
3,
9,
9,
8,
8,
2,
2,
1,
1,
0,
0,
7,
7,
9,
9,
10,
10,
10,
10,
4,
4,
-1,
-1,
1,
1,
2,
2,
9,
9,
8,
8,
3,
3,
-1,
-1,
1,
1,
-1,
-1,
3,
3,
2,
2,
-1,
-1,
5,
5,
8,
8,
8,
8,
7,
7,
6,
6,
4,
4,
1,
1,
0,
0,
0,
0,
2,
2,
2,
2,
5,
5,
5,
5,
4,
4,
3,
3,
4,
4,
2,
2,
2,
2,
2,
2,
1,
1,
-1,
-1,
0,
0,
1,
1,
0,
0,
-1,
-1,
-1,
-1,
-1,
-1,
0,
0,
-1,
-1,
0,
0,
3,
3,
2,
2,
1,
1,
-1,
-1,
0,
0,
1,
1,
2,
2,
1,
1,
2,
2,
1,
1,
1,
1,
5,
5,
5,
5,
1,
1,
5,
5,
4,
4,
2,
2,
-1,
-1,
-1,
-1,
0,
0,
2,
2,
2,
2,
2,
2,
0,
0,
0,
0,
4,
4,
6,
6,
6,
6,
4,
4,
3,
3,
1,
1,
2,
2,
8,
8,
10,
10,
9,
9,
8,
8,
10,
10,
9,
9,
1,
1,
9,
9,
8,
8,
8,
8,
5,
5,
0,
0,
4,
4,
9,
9,
4,
4,
6,
6,
14,
14,
14,
14,
7,
7,
8,
8,
1,
1,
6,
6,
9,
9,
3,
3,
9,
9,
1,
1,
10,
10,
20,
20,
29,
42,
42,
58,
57,
32,
32,
5,
10,
33,
32,
32,
42,
42,
40,
40,
33,
33,
25,
25,
20,
20,
14,
14,
8,
8,
2,
2,
5,
5,
