EMG_S2/DS0037.CSV

Memory Length,4000,
Trigger Level,-4.80000e+02,
Source,CH1,
Probe,1.0X,
Vertical Units,V,
Vertical Scale,1.00000e+00,
Vertical Position,0.00000e+00,
Horizontal Units,S,
Horizontal Scale,1.00000e-01,
Horizontal Position,0.0000000e+00,
Horizontal Mode,Roll Mode,
Waveform Last Dot Address,4000,
Sampling Period,4.00000e-04,
Firmware,V1.14,
Time, ,
Mode,Fast,
Waveform Data,
7,
7,
6,
6,
1,
1,
0,
0,
1,
1,
7,
7,
8,
8,
5,
5,
1,
1,
4,
4,
4,
4,
6,
6,
7,
7,
6,
6,
6,
6,
4,
4,
1,
1,
1,
1,
1,
1,
0,
0,
0,
0,
-1,
-1,
1,
1,
3,
3,
8,
8,
12,
12,
14,
14,
10,
10,
3,
3,
1,
1,
2,
2,
3,
3,
2,
2,
2,
2,
0,
0,
5,
5,
14,
14,
12,
12,
3,
3,
7,
7,
13,
13,
5,
5,
0,
0,
1,
1,
0,
0,
2,
2,
2,
2,
2,
2,
0,
0,
4,
4,
2,
2,
0,
0,
1,
1,
2,
2,
1,
1,
4,
4,
2,
2,
0,
0,
2,
2,
1,
1,
3,
3,
3,
3,
2,
2,
11,
11,
14,
14,
7,
7,
5,
5,
14,
14,
22,
22,
16,
16,
7,
7,
1,
1,
1,
1,
2,
2,
4,
4,
6,
6,
6,
6,
4,
4,
1,
1,
3,
3,
2,
2,
-1,
-1,
1,
1,
0,
0,
2,
2,
3,
3,
3,
3,
0,
0,
1,
1,
2,
2,
4,
4,
6,
6,
7,
7,
4,
4,
3,
3,
4,
4,
2,
2,
1,
1,
2,
2,
1,
1,
2,
2,
1,
1,
9,
9,
5,
5,
2,
2,
3,
3,
4,
4,
7,
7,
2,
2,
3,
3,
4,
4,
1,
1,
6,
6,
5,
5,
2,
2,
2,
2,
6,
6,
5,
5,
3,
3,
8,
8,
10,
10,
6,
6,
1,
1,
-1,
-1,
1,
1,
4,
4,
3,
3,
2,
2,
2,
2,
0,
0,
0,
0,
1,
1,
2,
2,
8,
8,
6,
6,
1,
1,
0,
0,
0,
0,
2,
2,
5,
5,
2,
2,
2,
2,
3,
3,
1,
1,
1,
1,
6,
6,
6,
6,
5,
5,
2,
2,
4,
4,
5,
5,
0,
0,
4,
4,
10,
10,
10,
10,
6,
6,
2,
18,
18,
18,
25,
25,
22,
11,
12,
12,
5,
5,
2,
2,
4,
4,
3,
3,
0,
0,
3,
3,
7,
7,
8,
8,
11,
11,
15,
26,
25,
9,
9,
9,
4,
4,
2,
2,
8,
8,
8,
8,
12,
12,
14,
14,
8,
8,
2,
2,
4,
4,
6,
6,
5,
5,
2,
2,
0,
0,
4,
4,
6,
6,
8,
8,
6,
6,
2,
2,
1,
1,
1,
1,
1,
1,
0,
0,
6,
6,
9,
9,
9,
9,
2,
2,
1,
1,
1,
1,
1,
1,
0,
0,
0,
0,
0,
0,
3,
3,
6,
6,
6,
6,
5,
5,
0,
0,
1,
1,
1,
1,
0,
0,
-2,
-2,
2,
2,
6,
6,
7,
7,
9,
9,
6,
6,
0,
0,
4,
4,
6,
6,
6,
6,
11,
11,
14,
14,
14,
14,
8,
8,
3,
3,
5,
5,
6,
6,
9,
9,
15,
15,
13,
13,
9,
9,
1,
1,
4,
4,
1,
1,
1,
1,
2,
2,
7,
7,
2,
2,
2,
2,
3,
3,
4,
4,
2,
2,
1,
1,
0,
0,
-1,
-1,
-1,
-1,
2,
2,
6,
6,
2,
2,
-1,
-1,
1,
1,
4,
4,
6,
6,
3,
3,
2,
2,
2,
2,
1,
1,
2,
2,
2,
2,
0,
0,
0,
0,
6,
6,
8,
8,
9,
9,
2,
2,
1,
1,
1,
1,
-1,
-1,
4,
4,
9,
9,
12,
12,
4,
4,
4,
4,
4,
4,
1,
1,
2,
2,
5,
5,
5,
5,
4,
4,
3,
3,
0,
0,
6,
6,
11,
11,
6,
6,
1,
1,
-1,
-1,
-1,
-1,
3,
3,
6,
6,
13,
13,
8,
8,
1,
1,
2,
2,
4,
4,
0,
0,
3,
3,
6,
6,
5,
5,
7,
7,
12,
12,
10,
10,
7,
7,
5,
5,
1,
1,
0,
0,
2,
2,
5,
5,
6,
6,
6,
6,
3,
3,
3,
3,
6,
6,
5,
5,
2,
2,
-1,
-1,
3,
3,
2,
2,
0,
0,
2,
2,
8,
8,
8,
8,
6,
6,
3,
3,
0,
0,
-1,
-1,
6,
6,
10,
10,
3,
3,
2,
2,
7,
7,
8,
8,
1,
14,
14,
14,
19,
19,
10,
10,
1,
1,
2,
2,
6,
6,
12,
12,
22,
22,
20,
1,
2,
2,
10,
10,
15,
15,
15,
15,
11,
11,
6,
6,
1,
1,
1,
1,
2,
2,
4,
4,
7,
7,
7,
7,
9,
9,
9,
9,
7,
7,
6,
6,
4,
4,
1,
1,
-1,
-1,
1,
1,
1,
1,
3,
3,
2,
2,
3,
3,
1,
1,
0,
0,
-1,
-1,
0,
0,
3,
3,
4,
4,
4,
4,
3,
3,
0,
0,
1,
1,
2,
2,
6,
6,
12,
12,
12,
12,
8,
8,
3,
3,
3,
3,
6,
6,
5,
5,
5,
5,
3,
3,
2,
2,
2,
2,
-1,
-1,
1,
1,
2,
2,
0,
0,
2,
2,
2,
2,
1,
1,
-1,
-1,
0,
0,
-1,
-1,
1,
1,
0,
0,
-1,
-1,
0,
0,
1,
1,
1,
1,
0,
0,
0,
0,
2,
2,
0,
0,
1,
1,
1,
1,
0,
0,
1,
1,
4,
4,
6,
6,
4,
4,
2,
2,
2,
2,
2,
2,
-1,
-1,
0,
0,
2,
2,
3,
3,
5,
5,
6,
6,
2,
2,
2,
2,
6,
6,
4,
4,
0,
0,
-1,
-1,
0,
0,
-1,
-1,
2,
2,
2,
2,
4,
4,
7,
7,
3,
3,
1,
1,
4,
4,
6,
6,
5,
5,
3,
3,
2,
2,
0,
0,
-2,
-2,
-1,
-1,
-1,
-1,
0,
0,
0,
0,
1,
1,
0,
0,
0,
0,
2,
2,
6,
6,
9,
9,
10,
10,
7,
7,
4,
4,
0,
0,
6,
6,
10,
10,
10,
10,
8,
8,
3,
3,
5,
5,
11,
11,
8,
8,
2,
2,
-1,
-1,
2,
2,
5,
5,
3,
3,
1,
1,
-1,
-1,
1,
1,
2,
2,
0,
0,
1,
1,
5,
5,
5,
5,
5,
5,
6,
6,
1,
1,
3,
3,
6,
6,
7,
7,
9,
9,
9,
9,
9,
9,
11,
11,
11,
11,
11,
11,
4,
4,
4,
4,
10,
10,
13,
13,
10,
10,
9,
9,
8,
8,
6,
6,
6,
6,
5,
5,
2,
2,
1,
1,
4,
4,
3,
3,
6,
6,
6,
6,
5,
5,
3,
3,
2,
2,
5,
5,
5,
5,
5,
5,
3,
3,
0,
0,
2,
2,
3,
3,
4,
4,
3,
3,
4,
4,
0,
0,
2,
2,
5,
5,
5,
5,
2,
2,
0,
0,
0,
0,
0,
0,
-1,
-1,
1,
1,
5,
5,
5,
5,
1,
1,
0,
0,
1,
1,
-1,
-1,
1,
1,
1,
1,
1,
1,
0,
0,
-1,
-1,
1,
1,
-1,
-1,
0,
0,
1,
1,
2,
2,
5,
5,
5,
5,
2,
2,
-1,
-1,
0,
0,
0,
0,
2,
2,
3,
3,
1,
1,
0,
0,
-1,
-1,
0,
0,
1,
1,
2,
2,
4,
4,
5,
5,
5,
5,
0,
0,
3,
3,
7,
7,
10,
10,
8,
8,
4,
4,
9,
9,
2,
2,
9,
9,
11,
11,
8,
8,
5,
5,
3,
3,
5,
5,
6,
6,
2,
2,
1,
1,
0,
0,
2,
2,
2,
2,
3,
3,
3,
3,
5,
5,
9,
9,
9,
9,
2,
2,
5,
5,
8,
8,
12,
12,
13,
13,
10,
10,
1,
1,
2,
2,
3,
3,
1,
1,
0,
0,
3,
3,
4,
4,
7,
7,
7,
7,
3,
3,
-1,
-1,
-1,
-1,
-1,
-1,
3,
3,
9,
9,
10,
10,
6,
6,
0,
0,
1,
1,
2,
2,
1,
1,
1,
1,
2,
2,
2,
2,
2,
2,
1,
1,
0,
0,
2,
2,
2,
2,
6,
6,
6,
6,
1,
1,
10,
21,
21,
21,
26,
26,
23,
23,
20,
20,
15,
2,
2,
13,
13,
24,
22,
22,
27,
27,
26,
26,
20,
20,
10,
10,
4,
4,
1,
1,
2,
2,
1,
1,
1,
1,
6,
6,
10,
10,
12,
12,
12,
12,
12,
12,
10,
10,
5,
5,
-1,
-1,
-1,
-1,
2,
2,
3,
3,
0,
0,
2,
2,
4,
4,
3,
3,
3,
3,
4,
4,
3,
3,
1,
1,
1,
1,
1,
1,
5,
5,
2,
2,
-1,
-1,
1,
1,
2,
2,
3,
3,
2,
2,
0,
0,
1,
1,
2,
2,
1,
1,
2,
2,
1,
1,
1,
1,
2,
2,
2,
2,
3,
3,
5,
5,
3,
3,
0,
0,
1,
1,
2,
2,
2,
2,
1,
1,
2,
2,
2,
2,
3,
3,
4,
4,
2,
2,
1,
1,
0,
0,
1,
1,
5,
5,
9,
9,
5,
5,
0,
0,
3,
3,
4,
4,
0,
0,
2,
2,
5,
5,
5,
5,
4,
4,
1,
1,
2,
2,
6,
6,
5,
5,
0,
0,
6,
6,
12,
12,
11,
11,
8,
8,
2,
2,
0,
0,
2,
2,
2,
2,
5,
5,
5,
5,
6,
6,
3,
3,
0,
0,
1,
1,
2,
2,
4,
4,
5,
5,
0,
0,
2,
2,
4,
4,
7,
7,
10,
10,
9,
9,
6,
6,
1,
1,
1,
1,
5,
5,
8,
8,
10,
10,
9,
9,
4,
4,
3,
3,
2,
2,
1,
1,
0,
0,
0,
0,
2,
2,
4,
4,
8,
8,
15,
15,
11,
0,
0,
0,
4,
4,
7,
7,
2,
2,
0,
0,
2,
2,
2,
2,
4,
4,
6,
6,
7,
7,
1,
1,
3,
3,
2,
2,
1,
1,
5,
5,
5,
5,
2,
2,
3,
3,
5,
5,
5,
5,
1,
1,
0,
0,
2,
2,
6,
6,
9,
9,
8,
8,
6,
6,
3,
3,
-1,
-1,
1,
1,
4,
4,
6,
6,
7,
7,
4,
4,
3,
3,
6,
6,
2,
2,
5,
5,
13,
13,
14,
14,
14,
14,
12,
12,
11,
11,
2,
2,
6,
6,
2,
2,
1,
1,
2,
2,
10,
10,
14,
14,
10,
10,
4,
4,
1,
1,
0,
0,
4,
4,
5,
5,
1,
1,
6,
6,
7,
7,
6,
6,
5,
5,
14,
14,
22,
22,
22,
22,
2,
2,
3,
3,
5,
5,
10,
10,
13,
13,
14,
14,
14,
14,
7,
7,
2,
2,
6,
6,
4,
4,
-1,
-1,
0,
0,
0,
0,
1,
1,
-1,
-1,
0,
0,
0,
0,
2,
2,
5,
5,
6,
6,
7,
7,
7,
7,
1,
1,
0,
0,
2,
2,
7,
7,
10,
10,
12,
12,
8,
8,
0,
0,
3,
3,
12,
12,
20,
20,
23,
10,
11,
-1,
0,
0,
6,
6,
15,
15,
12,
12,
6,
6,
1,
1,
2,
2,
1,
1,
0,
0,
4,
4,
4,
4,
3,
3,
3,
3,
2,
2,
3,
3,
5,
5,
6,
6,
4,
4,
6,
17,
16,
16,
19,
19,
17,
17,
10,
10,
3,
3,
4,
4,
3,
3,
-1,
-1,
3,
15,
15,
28,
27,
27,
18,
18,
10,
10,
1,
1,
10,
10,
17,
17,
13,
13,
9,
9,
5,
5,
3,
3,
4,
4,
6,
6,
5,
5,
0,
0,
1,
1,
1,
1,
0,
0,
-2,
-2,
-2,
-2,
0,
0,
3,
3,
5,
5,
5,
5,
4,
4,
4,
4,
4,
4,
4,
4,
5,
5,
2,
2,
1,
1,
5,
5,
6,
6,
10,
10,
13,
13,
9,
9,
5,
5,
2,
2,
-1,
-1,
1,
1,
-1,
-1,
1,
1,
6,
6,
5,
5,
0,
0,
2,
2,
0,
0,
6,
6,
7,
7,
0,
0,
-1,
-1,
0,
0,
2,
2,
5,
5,
6,
6,
1,
1,
-1,
-1,
4,
4,
12,
12,
9,
9,
2,
2,
2,
2,
5,
5,
14,
14,
24,
24,
28,
28,
19,
7,
8,
8,
6,
6,
13,
13,
18,
18,
19,
19,
15,
15,
13,
13,
11,
11,
6,
6,
0,
0,
3,
3,
6,
6,
7,
7,
5,
5,
4,
4,
1,
1,
1,
1,
2,
2,
3,
3,
4,
4,
8,
8,
6,
6,
-1,
-1,
2,
2,
4,
4,
5,
5,
1,
1,
3,
3,
6,
6,
6,
6,
4,
4,
1,
1,
2,
2,
5,
5,
5,
5,
2,
2,
0,
0,
6,
6,
12,
12,
14,
14,
13,
13,
14,
1,
2,
2,
2,
2,
3,
3,
3,
3,
3,
3,
2,
2,
4,
4,
1,
1,
0,
0,
7,
7,
13,
13,
10,
10,
4,
4,
0,
0,
2,
2,
2,
2,
0,
0,
2,
2,
-1,
-1,
3,
3,
6,
6,
6,
6,
4,
4,
0,
0,
0,
0,
6,
6,
6,
6,
3,
3,
-1,
-1,
-1,
-1,
0,
0,
0,
0,
2,
2,
6,
6,
9,
9,
2,
2,
2,
2,
5,
5,
5,
5,
5,
5,
5,
5,
3,
3,
0,
0,
2,
2,
1,
1,
6,
6,
11,
11,
5,
5,
3,
3,
9,
9,
13,
13,
12,
12,
9,
9,
1,
1,
0,
0,
-1,
-1,
1,
1,
2,
2,
4,
4,
5,
5,
6,
6,
5,
5,
1,
1,
0,
0,
5,
5,
15,
15,
22,
22,
24,
24,
18,
2,
4,
4,
8,
8,
14,
14,
19,
19,
21,
21,
20,
20,
15,
15,
9,
9,
1,
1,
4,
4,
12,
12,
11,
11,
4,
4,
2,
2,
2,
2,
2,
2,
2,
2,
2,
2,
4,
4,
5,
5,
5,
5,
5,
5,
4,
4,
1,
1,
0,
0,
-1,
-1,
4,
4,
4,
4,
4,
4,
2,
2,
-1,
-1,
-2,
-2,
0,
0,
1,
1,
0,
0,
1,
1,
3,
3,
1,
1,
0,
0,
2,
2,
1,
1,
2,
2,
4,
4,
0,
0,
4,
4,
4,
4,
4,
4,
5,
5,
2,
2,
2,
2,
2,
2,
2,
2,
0,
0,
4,
4,
6,
6,
6,
6,
5,
5,
4,
4,
2,
2,
0,
0,
6,
6,
4,
4,
0,
0,
0,
0,
2,
2,
3,
3,
2,
2,
1,
1,
4,
4,
4,
4,
0,
0,
6,
19,
18,
18,
17,
17,
10,
10,
6,
6,
3,
3,
1,
1,
2,
2,
4,
4,
1,
1,
10,
10,
18,
18,
20,
20,
22,
22,
21,
21,
17,
17,
8,
8,
1,
1,
5,
5,
7,
7,
5,
5,
6,
6,
12,
12,
13,
13,
9,
9,
7,
7,
12,
12,
15,
15,
12,
12,
7,
7,
4,
4,
6,
6,
6,
6,
1,
1,
10,
10,
18,
18,
23,
23,
25,
13,
13,
2,
3,
3,
0,
0,
-1,
-1,
4,
4,
8,
8,
6,
6,
1,
1,
2,
2,
10,
21,
20,
20,
18,
18,
13,
13,
10,
10,
2,
2,
3,
3,
10,
10,
17,
17,
21,
21,
21,
21,
16,
16,
10,
10,
3,
3,
6,
6,
12,
12,
9,
9,
8,
8,
6,
6,
6,
6,
5,
5,
5,
5,
2,
2,
2,
2,
1,
1,
0,
0,
2,
2,
7,
7,
9,
9,
6,
6,
3,
3,
1,
1,
6,
6,
10,
10,
6,
6,
2,
2,
0,
0,
4,
4,
6,
6,
1,
1,
0,
0,
0,
0,
1,
1,
1,
1,
2,
2,
3,
3,
6,
6,
7,
7,
2,
2,
8,
8,
5,
5,
6,
6,
16,
16,
15,
15,
9,
9,
5,
5,
5,
5,
2,
2,
0,
0,
2,
2,
3,
3,
4,
4,
1,
1,
-1,
-1,
-2,
-2,
0,
0,
-1,
-1,
2,
2,
0,
0,
0,
0,
0,
0,
2,
2,
1,
1,
0,
0,
-1,
-1,
-1,
-1,
2,
2,
5,
5,
2,
2,
1,
1,
0,
0,
4,
4,
4,
4,
0,
0,
1,
1,
1,
1,
2,
2,
2,
2,
0,
0,
-1,
-1,
-1,
-1,
2,
2,
2,
2,
1,
1,
6,
6,
13,
13,
15,
15,
13,
13,
6,
6,
2,
2,
6,
6,
6,
6,
4,
4,
0,
0,
6,
6,
12,
12,
18,
18,
22,
22,
18,
18,
8,
8,
1,
1,
2,
2,
0,
0,
0,
0,
-1,
-1,
0,
0,
3,
3,
4,
4,
3,
3,
2,
2,
1,
1,
0,
0,
0,
12,
11,
11,
19,
19,
17,
17,
15,
15,
12,
12,
12,
12,
9,
9,
1,
1,
3,
3,
10,
10,
14,
14,
17,
17,
18,
18,
16,
16,
12,
12,
10,
10,
6,
6,
-1,
-1,
2,
2,
6,
6,
10,
10,
16,
16,
14,
14,
8,
8,
6,
6,
2,
2,
5,
5,
3,
3,
1,
1,
8,
8,
13,
13,
10,
10,
4,
4,
2,
2,
5,
5,
4,
4,
2,
2,
4,
4,
5,
5,
4,
4,
2,
2,
0,
0,
5,
5,
2,
2,
0,
0,
1,
1,
0,
0,
0,
0,
-1,
-1,
0,
0,
0,
0,
1,
1,
2,
2,
-1,
-1,
2,
2,
4,
4,
5,
5,
4,
4,
1,
1,
8,
8,
6,
6,
4,
4,
7,
7,
6,
6,
1,
1,
3,
3,
12,
12,
12,
0,
2,
2,
8,
8,
8,
8,
6,
6,
0,
0,
6,
6,
9,
9,
10,
10,
2,
2,
0,
0,
3,
3,
9,
9,
13,
13,
17,
17,
18,
18,
10,
10,
3,
3,
2,
2,
8,
8,
10,
10,
8,
8,
4,
4,
4,
4,
8,
8,
13,
13,
13,
13,
8,
8,
1,
1,
2,
2,
5,
5,
8,
8,
6,
6,
3,
3,
2,
2,
1,
1,
2,
2,
6,
6,
11,
11,
16,
16,
4,
4,
5,
5,
1,
1,
3,
17,
16,
30,
29,
29,
22,
1,
2,
2,
7,
7,
11,
11,
7,
23,
23,
36,
36,
36,
34,
19,
20,
6,
6,
18,
17,
35,
34,
34,
36,
36,
29,
29,
24,
24,
20,
20,
16,
16,
17,
17,
20,
9,
9,
9,
12,
26,
25,
25,
33,
33,
34,
34,
25,
10,
10,
10,
2,
2,
2,
14,
13,
13,
22,
22,
27,
27,
21,
10,
10,
10,
9,
26,
26,
26,
34,
34,
30,
18,
19,
19,
12,
12,
5,
5,
3,
3,
1,
1,
-1,
-1,
4,
4,
5,
5,
3,
3,
2,
2,
3,
3,
5,
5,
7,
7,
6,
6,
7,
7,
5,
5,
3,
3,
2,
2,
0,
0,
2,
2,
6,
6,
14,
14,
17,
5,
6,
6,
0,
0,
6,
6,
10,
10,
16,
16,
24,
24,
22,
8,
8,
8,
1,
1,
9,
9,
14,
14,
12,
12,
8,
8,
6,
6,
6,
6,
7,
7,
6,
6,
5,
5,
6,
6,
6,
6,
2,
2,
0,
11,
10,
24,
23,
23,
25,
25,
16,
2,
4,
4,
-1,
-1,
3,
3,
6,
6,
10,
10,
10,
10,
4,
4,
6,
17,
16,
16,
17,
17,
9,
9,
3,
3,
10,
10,
18,
18,
20,
20,
14,
14,
5,
5,
-1,
-1,
1,
1,
4,
4,
9,
9,
9,
9,
4,
4,
0,
0,
0,
0,
5,
5,
10,
10,
11,
11,
10,
10,
4,
4,
2,
2,
2,
2,
0,
0,
3,
3,
4,
4,
6,
6,
6,
6,
4,
4,
1,
1,
0,
0,
1,
1,
-1,
-1,
1,
1,
1,
1,
0,
0,
5,
5,
6,
6,
3,
3,
2,
2,
2,
2,
0,
0,
0,
0,
1,
1,
4,
4,
13,
13,
11,
11,
2,
2,
6,
6,
10,
10,
9,
9,
6,
6,
4,
4,
6,
6,
6,
6,
3,
3,
7,
7,
10,
10,
6,
6,
1,
1,
4,
4,
7,
7,
11,
11,
14,
14,
15,
15,
16,
16,
18,
18,
11,
0,
1,
1,
11,
11,
12,
12,
7,
7,
6,
6,
6,
6,
4,
4,
3,
3,
-1,
-1,
-2,
-2,
0,
0,
2,
2,
1,
1,
5,
5,
0,
0,
9,
9,
17,
17,
15,
15,
5,
5,
2,
2,
6,
6,
8,
8,
11,
11,
16,
16,
15,
15,
9,
9,
2,
2,
2,
2,
2,
2,
0,
0,
0,
0,
2,
2,
6,
6,
3,
3,
2,
2,
8,
8,
15,
15,
17,
17,
16,
16,
10,
10,
3,
3,
2,
2,
4,
4,
2,
2,
3,
3,
5,
5,
6,
6,
3,
3,
0,
0,
1,
1,
0,
0,
2,
2,
3,
3,
5,
5,
4,
4,
6,
6,
9,
9,
8,
8,
1,
1,
6,
6,
10,
10,
20,
33,
33,
33,
29,
6,
7,
7,
4,
4,
8,
8,
6,
6,
6,
6,
9,
9,
11,
11,
13,
13,
9,
9,
5,
5,
3,
3,
1,
1,
4,
4,
5,
5,
6,
6,
2,
2,
-1,
-1,
2,
2,
10,
10,
16,
16,
11,
0,
1,
1,
5,
5,
5,
5,
7,
7,
8,
8,
4,
4,
-1,
-1,
0,
0,
1,
1,
3,
3,
3,
3,
4,
4,
3,
3,
1,
1,
3,
3,
7,
7,
10,
10,
8,
8,
3,
3,
-1,
-1,
2,
2,
5,
5,
5,
5,
2,
2,
1,
1,
1,
1,
2,
2,
6,
6,
0,
0,
6,
6,
6,
6,
6,
6,
5,
5,
5,
5,
10,
10,
11,
11,
6,
6,
2,
2,
6,
6,
9,
9,
2,
2,
1,
1,
2,
2,
2,
2,
2,
2,
1,
1,
4,
4,
7,
7,
6,
6,
6,
6,
8,
8,
3,
3,
3,
3,
10,
10,
12,
12,
7,
7,
5,
17,
16,
16,
17,
5,
6,
6,
0,
0,
6,
6,
9,
9,
10,
10,
9,
9,
7,
7,
6,
6,
6,
6,
7,
7,
8,
8,
2,
2,
6,
6,
12,
12,
10,
10,
8,
8,
6,
6,
4,
4,
1,
1,
3,
3,
6,
6,
9,
9,
8,
8,
1,
1,
2,
2,
5,
5,
6,
6,
9,
9,
7,
7,
4,
4,
1,
1,
0,
0,
2,
2,
6,
6,
4,
4,
3,
3,
7,
7,
5,
5,
0,
0,
6,
6,
10,
10,
6,
6,
3,
3,
1,
1,
1,
1,
0,
0,
2,
2,
0,
0,
2,
2,
7,
7,
5,
5,
5,
5,
1,
1,
6,
6,
6,
6,
3,
3,
1,
1,
2,
2,
5,
5,
4,
4,
2,
2,
-1,
-1,
1,
1,
2,
2,
1,
1,
0,
0,
-2,
-2,
-1,
-1,
1,
1,
2,
2,
-1,
-1,
1,
1,
5,
5,
5,
5,
0,
0,
8,
8,
10,
10,
1,
1,
-2,
-2,
2,
2,
3,
3,
6,
6,
4,
4,
3,
3,
5,
5,
6,
6,
6,
6,
3,
3,
2,
2,
8,
8,
8,
8,
2,
2,
0,
0,
0,
0,
0,
0,
0,
0,
-1,
-1,
2,
2,
2,
2,
0,
0,
3,
3,
3,
3,
-1,
-1,
1,
1,
1,
1,
2,
2,
0,
0,
6,
6,
10,
10,
3,
3,
9,
9,
14,
14,
12,
12,
8,
8,
0,
0,
1,
1,
-1,
-1,
5,
5,
10,
10,
9,
9,
2,
2,
3,
3,
10,
10,
12,
12,
11,
11,
8,
8,
6,
6,
3,
3,
2,
2,
3,
3,
5,
5,
2,
2,
1,
1,
2,
2,
0,
0,
4,
4,
8,
8,
5,
5,
0,
0,
0,
0,
2,
2,
2,
2,
1,
1,
4,
4,
4,
4,
2,
2,
0,
0,
1,
1,
5,
5,
4,
4,
1,
1,
1,
1,
5,
5,
12,
12,
12,
12,
4,
4,
1,
1,
-1,
-1,
2,
2,
5,
5,
3,
3,
6,
6,
4,
4,
6,
6,
3,
3,
2,
2,
1,
1,
0,
0,
2,
2,
2,
2,
0,
0,
1,
1,
3,
3,
6,
6,
6,
6,
2,
2,
-1,
-1,
2,
2,
9,
9,
11,
11,
4,
4,
0,
0,
9,
9,
14,
14,
10,
10,
2,
2,
-1,
-1,
1,
1,
-1,
-1,
2,
2,
6,
6,
5,
5,
3,
3,
3,
3,
2,
2,
-1,
-1,
0,
0,
0,
0,
2,
2,
3,
3,
4,
4,
4,
4,
0,
0,
0,
0,
3,
3,
2,
2,
1,
1,
2,
2,
3,
3,
4,
4,
4,
4,
1,
1,
1,
1,
1,
1,
1,
1,
1,
1,
0,
0,
2,
2,
5,
5,
5,
5,
1,
1,
2,
2,
3,
3,
-1,
-1,
1,
1,
-1,
-1,
0,
0,
2,
2,
1,
1,
-2,
-2,
0,
0,
2,
2,
5,
5,
7,
7,
2,
2,
2,
2,
0,
0,
2,
2,
6,
6,
1,
1,
-1,
-1,
-2,
-2,
1,
1,
1,
1,
1,
1,
0,
0,
0,
0,
1,
1,
2,
2,
1,
1,
0,
0,
0,
0,
0,
0,
1,
1,
3,
3,
4,
4,
0,
0,
1,
1,
2,
2,
0,
0,
4,
4,
7,
7,
11,
11,
8,
8,
2,
13,
12,
12,
18,
18,
12,
12,
6,
6,
3,
3,
0,
0,
6,
6,
9,
9,
6,
6,
6,
6,
