EMG_S2/DS0052.CSV

Memory Length,4000,
Trigger Level,-4.80000e+02,
Source,CH1,
Probe,1.0X,
Vertical Units,V,
Vertical Scale,1.00000e+00,
Vertical Position,0.00000e+00,
Horizontal Units,S,
Horizontal Scale,1.00000e-01,
Horizontal Position,0.0000000e+00,
Horizontal Mode,Roll Mode,
Waveform Last Dot Address,4000,
Sampling Period,4.00000e-04,
Firmware,V1.14,
Time, ,
Mode,Fast,
Waveform Data,
3,
3,
36,
5,
6,
32,
32,
50,
50,
50,
58,
58,
60,
60,
52,
41,
41,
28,
28,
14,
14,
1,
2,
2,
9,
9,
19,
19,
26,
26,
29,
29,
26,
26,
21,
21,
14,
14,
11,
11,
10,
10,
9,
9,
7,
7,
3,
3,
1,
1,
-1,
-1,
2,
2,
2,
2,
1,
1,
5,
5,
7,
7,
14,
14,
22,
22,
24,
24,
15,
15,
6,
6,
12,
12,
21,
21,
20,
20,
11,
11,
13,
13,
21,
21,
26,
26,
22,
22,
13,
1,
2,
13,
13,
30,
30,
30,
34,
34,
28,
28,
23,
23,
19,
19,
13,
13,
6,
6,
1,
1,
1,
1,
6,
6,
9,
9,
12,
12,
19,
19,
22,
22,
18,
18,
14,
14,
5,
5,
-1,
-1,
5,
5,
7,
7,
9,
9,
2,
2,
4,
4,
7,
7,
9,
9,
14,
14,
18,
18,
16,
16,
10,
10,
4,
4,
6,
6,
12,
12,
13,
13,
6,
6,
12,
23,
22,
22,
29,
29,
26,
9,
10,
10,
14,
29,
28,
28,
35,
35,
36,
24,
25,
11,
12,
1,
3,
3,
12,
12,
6,
6,
1,
1,
1,
1,
5,
5,
9,
9,
2,
2,
2,
2,
3,
3,
3,
3,
2,
2,
3,
3,
5,
5,
4,
4,
3,
3,
2,
2,
-1,
-1,
1,
1,
0,
0,
5,
5,
6,
6,
2,
2,
1,
1,
4,
4,
6,
6,
5,
5,
2,
2,
-2,
-2,
1,
1,
0,
0,
4,
4,
5,
5,
2,
2,
0,
0,
5,
5,
12,
12,
16,
16,
6,
6,
1,
1,
6,
6,
11,
11,
14,
14,
5,
5,
1,
1,
4,
4,
0,
0,
4,
4,
6,
6,
6,
6,
5,
5,
0,
0,
2,
2,
1,
1,
2,
2,
6,
6,
10,
10,
18,
18,
13,
13,
7,
7,
6,
6,
9,
9,
2,
20,
20,
42,
42,
42,
43,
43,
34,
17,
18,
1,
4,
4,
14,
14,
23,
23,
14,
14,
7,
7,
6,
6,
8,
8,
8,
8,
4,
4,
-1,
-1,
0,
12,
11,
11,
1,
44,
44,
63,
45,
24,
48,
63,
62,
62,
64,
64,
55,
36,
37,
11,
12,
12,
12,
26,
25,
25,
32,
32,
28,
13,
13,
1,
2,
2,
9,
9,
3,
3,
12,
12,
15,
15,
13,
13,
10,
10,
6,
6,
2,
2,
2,
2,
8,
8,
11,
11,
13,
13,
13,
13,
10,
10,
5,
5,
7,
7,
3,
3,
2,
2,
1,
1,
0,
0,
2,
2,
0,
0,
1,
1,
2,
2,
5,
5,
2,
2,
11,
11,
14,
14,
7,
7,
11,
11,
8,
8,
2,
16,
15,
15,
13,
13,
12,
12,
8,
8,
2,
2,
5,
5,
2,
41,
41,
61,
36,
63,
62,
62,
62,
62,
60,
23,
24,
6,
16,
40,
40,
40,
46,
46,
45,
45,
37,
37,
28,
16,
16,
16,
8,
8,
2,
2,
2,
2,
6,
6,
10,
10,
11,
11,
10,
10,
12,
12,
15,
15,
24,
37,
37,
37,
39,
20,
20,
2,
2,
2,
4,
4,
7,
7,
12,
12,
15,
15,
17,
17,
15,
15,
13,
13,
11,
11,
10,
10,
8,
8,
2,
2,
0,
0,
1,
1,
4,
4,
4,
4,
2,
2,
2,
2,
5,
5,
8,
8,
7,
7,
7,
7,
7,
7,
6,
6,
7,
7,
8,
8,
3,
3,
-1,
-1,
4,
4,
8,
8,
9,
9,
10,
10,
10,
10,
5,
5,
0,
0,
0,
0,
-2,
-2,
1,
1,
2,
2,
1,
1,
0,
0,
2,
2,
6,
6,
6,
6,
6,
6,
7,
7,
7,
7,
6,
6,
6,
6,
4,
4,
2,
2,
-1,
-1,
6,
20,
20,
34,
33,
33,
33,
33,
24,
11,
12,
1,
6,
27,
27,
55,
55,
66,
65,
65,
66,
45,
45,
6,
6,
31,
30,
44,
43,
43,
40,
40,
34,
34,
29,
29,
31,
31,
29,
29,
20,
20,
14,
2,
3,
3,
8,
8,
13,
13,
18,
18,
20,
20,
15,
15,
10,
10,
10,
10,
16,
29,
28,
28,
30,
16,
17,
17,
9,
9,
2,
2,
7,
7,
13,
13,
21,
21,
18,
18,
16,
16,
8,
8,
10,
10,
11,
11,
12,
12,
6,
6,
5,
5,
0,
17,
15,
27,
26,
13,
30,
62,
59,
25,
53,
53,
62,
62,
59,
41,
41,
41,
31,
12,
12,
12,
13,
34,
34,
48,
47,
47,
40,
40,
38,
26,
27,
27,
18,
18,
8,
8,
2,
16,
16,
16,
23,
23,
23,
23,
22,
22,
13,
1,
2,
2,
4,
4,
14,
14,
17,
4,
5,
5,
6,
22,
21,
35,
34,
34,
30,
9,
9,
9,
13,
25,
24,
24,
23,
12,
12,
12,
9,
9,
7,
7,
2,
2,
1,
1,
1,
1,
4,
4,
0,
0,
1,
1,
6,
6,
13,
13,
14,
1,
2,
2,
8,
8,
1,
1,
0,
0,
2,
2,
1,
1,
1,
1,
1,
1,
0,
0,
5,
5,
5,
5,
3,
3,
2,
2,
6,
6,
3,
3,
1,
1,
2,
2,
-1,
-1,
1,
1,
2,
2,
2,
2,
5,
5,
2,
2,
0,
0,
3,
3,
6,
6,
5,
5,
2,
2,
2,
2,
11,
11,
16,
16,
10,
10,
5,
5,
3,
3,
-1,
-1,
6,
6,
14,
14,
15,
15,
12,
12,
17,
17,
11,
11,
7,
7,
6,
6,
13,
13,
14,
14,
11,
11,
14,
14,
15,
15,
11,
11,
2,
2,
4,
4,
11,
11,
9,
9,
8,
8,
2,
2,
4,
4,
0,
0,
6,
6,
5,
5,
5,
5,
10,
10,
13,
13,
10,
10,
3,
3,
10,
10,
5,
5,
15,
15,
20,
20,
20,
20,
20,
20,
18,
18,
20,
20,
18,
18,
15,
15,
9,
62,
61,
18,
18,
38,
37,
37,
41,
41,
38,
25,
25,
12,
12,
1,
3,
14,
14,
26,
25,
37,
37,
37,
29,
15,
15,
15,
12,
12,
12,
12,
18,
18,
14,
1,
1,
1,
2,
20,
19,
33,
33,
33,
42,
42,
52,
52,
56,
40,
40,
8,
8,
8,
15,
33,
32,
32,
42,
42,
44,
44,
37,
26,
26,
8,
9,
9,
5,
5,
9,
9,
2,
2,
6,
6,
5,
5,
7,
7,
9,
9,
18,
56,
56,
56,
63,
29,
30,
11,
12,
12,
15,
15,
19,
19,
12,
1,
5,
20,
20,
62,
62,
20,
42,
42,
42,
53,
52,
52,
45,
20,
20,
4,
10,
29,
28,
28,
32,
32,
27,
7,
8,
8,
13,
13,
21,
21,
13,
2,
12,
30,
28,
28,
26,
11,
11,
11,
5,
5,
3,
3,
2,
2,
0,
0,
10,
23,
22,
37,
37,
37,
42,
26,
27,
27,
20,
20,
14,
1,
2,
14,
14,
27,
26,
26,
32,
32,
26,
14,
14,
2,
2,
2,
2,
2,
1,
1,
3,
3,
4,
4,
0,
0,
7,
7,
10,
10,
10,
10,
13,
13,
9,
9,
1,
20,
20,
39,
38,
52,
50,
50,
42,
26,
27,
7,
8,
8,
4,
4,
12,
12,
14,
14,
15,
30,
29,
29,
29,
29,
22,
22,
17,
17,
11,
11,
9,
9,
5,
5,
3,
3,
7,
7,
13,
13,
5,
5,
7,
7,
10,
10,
7,
28,
28,
28,
29,
29,
20,
8,
9,
9,
2,
2,
2,
2,
4,
4,
4,
4,
13,
13,
10,
10,
2,
2,
5,
5,
12,
12,
10,
10,
1,
1,
10,
10,
12,
12,
10,
10,
4,
4,
6,
6,
8,
8,
4,
4,
1,
1,
2,
2,
5,
5,
6,
6,
4,
4,
0,
0,
1,
1,
2,
2,
3,
3,
5,
5,
13,
13,
13,
13,
13,
13,
6,
6,
6,
6,
9,
9,
2,
19,
19,
19,
26,
9,
10,
10,
10,
24,
23,
23,
30,
30,
27,
27,
20,
8,
9,
9,
1,
1,
6,
6,
11,
11,
10,
10,
2,
2,
10,
10,
13,
2,
2,
2,
6,
30,
30,
58,
57,
57,
52,
28,
29,
13,
14,
1,
2,
2,
12,
26,
26,
26,
32,
32,
31,
31,
26,
26,
18,
18,
11,
11,
14,
14,
12,
12,
4,
4,
2,
2,
8,
8,
3,
3,
2,
2,
3,
3,
6,
6,
2,
22,
21,
46,
45,
57,
56,
41,
42,
15,
16,
2,
7,
21,
21,
21,
26,
26,
23,
23,
14,
14,
11,
11,
12,
12,
11,
11,
9,
9,
9,
9,
5,
5,
2,
2,
0,
0,
5,
5,
9,
9,
18,
18,
22,
22,
20,
9,
9,
9,
1,
1,
2,
2,
4,
4,
6,
6,
7,
7,
1,
1,
2,
2,
4,
4,
4,
4,
8,
8,
10,
10,
8,
8,
1,
14,
13,
29,
29,
29,
34,
17,
18,
1,
3,
3,
11,
22,
21,
21,
20,
7,
8,
8,
8,
8,
9,
9,
7,
7,
16,
16,
14,
14,
12,
12,
6,
6,
2,
2,
6,
6,
7,
7,
10,
10,
6,
6,
5,
5,
0,
0,
2,
2,
4,
22,
22,
39,
38,
38,
34,
23,
24,
6,
6,
6,
14,
29,
29,
29,
33,
33,
32,
32,
26,
26,
16,
5,
5,
5,
1,
1,
9,
9,
16,
16,
6,
6,
4,
4,
9,
9,
15,
15,
6,
6,
6,
6,
14,
14,
18,
18,
28,
28,
37,
37,
41,
41,
41,
26,
26,
5,
13,
30,
30,
30,
32,
32,
34,
34,
33,
33,
30,
30,
21,
21,
16,
16,
9,
9,
5,
5,
1,
1,
1,
1,
8,
19,
18,
18,
23,
23,
27,
27,
18,
0,
1,
1,
1,
1,
6,
6,
12,
12,
7,
7,
3,
3,
4,
4,
1,
1,
1,
1,
4,
4,
2,
2,
9,
9,
12,
12,
6,
6,
2,
2,
6,
6,
4,
4,
6,
6,
13,
13,
12,
12,
5,
5,
1,
1,
0,
0,
2,
2,
0,
0,
3,
3,
6,
6,
1,
1,
4,
4,
6,
6,
6,
6,
4,
4,
8,
23,
22,
22,
26,
8,
9,
9,
14,
36,
35,
46,
45,
45,
49,
49,
45,
45,
27,
27,
28,
5,
10,
38,
38,
50,
49,
49,
46,
31,
31,
16,
18,
18,
19,
31,
30,
30,
28,
14,
14,
1,
2,
18,
17,
17,
24,
24,
26,
26,
18,
18,
10,
10,
8,
8,
6,
6,
8,
8,
8,
8,
2,
2,
5,
20,
20,
20,
20,
20,
14,
1,
3,
3,
12,
26,
26,
49,
48,
48,
53,
22,
23,
1,
1,
1,
6,
6,
14,
3,
4,
4,
1,
20,
20,
33,
32,
32,
35,
35,
36,
36,
30,
30,
20,
20,
14,
14,
8,
8,
2,
2,
3,
3,
13,
13,
20,
20,
30,
41,
41,
41,
32,
32,
32,
32,
22,
22,
13,
13,
4,
4,
3,
3,
8,
8,
10,
10,
10,
10,
13,
13,
14,
14,
17,
17,
17,
17,
16,
16,
12,
12,
3,
3,
4,
24,
24,
24,
29,
29,
30,
6,
9,
26,
26,
9,
10,
10,
7,
7,
15,
15,
12,
12,
15,
15,
22,
22,
21,
21,
16,
16,
18,
3,
3,
21,
21,
47,
46,
46,
50,
23,
23,
6,
6,
6,
7,
18,
17,
17,
14,
14,
5,
5,
4,
4,
4,
4,
12,
23,
22,
22,
25,
14,
14,
1,
2,
2,
7,
7,
15,
15,
20,
20,
21,
21,
13,
1,
2,
2,
4,
4,
6,
19,
18,
18,
21,
9,
10,
10,
7,
26,
26,
26,
26,
26,
20,
2,
3,
19,
18,
18,
21,
10,
10,
10,
6,
6,
4,
4,
2,
2,
9,
22,
21,
21,
27,
27,
22,
22,
12,
1,
2,
2,
10,
10,
14,
14,
23,
23,
26,
26,
17,
3,
3,
3,
5,
5,
7,
7,
8,
8,
10,
10,
12,
12,
11,
11,
8,
8,
1,
1,
8,
8,
14,
14,
18,
18,
12,
12,
8,
8,
7,
7,
2,
2,
8,
8,
9,
9,
9,
9,
12,
12,
8,
8,
1,
1,
0,
0,
6,
6,
5,
20,
19,
33,
32,
46,
46,
46,
42,
6,
6,
19,
18,
18,
28,
39,
38,
38,
44,
44,
41,
41,
36,
23,
23,
2,
4,
22,
21,
45,
44,
44,
50,
50,
41,
27,
28,
9,
10,
10,
8,
8,
16,
16,
18,
18,
18,
18,
16,
16,
14,
14,
8,
8,
1,
1,
5,
5,
1,
1,
0,
0,
4,
4,
10,
10,
15,
15,
21,
21,
17,
3,
5,
5,
5,
5,
10,
10,
1,
1,
5,
5,
5,
5,
0,
0,
2,
2,
9,
9,
5,
5,
1,
1,
4,
4,
6,
6,
8,
8,
11,
11,
14,
14,
6,
6,
6,
6,
11,
11,
12,
12,
13,
13,
9,
9,
4,
4,
1,
1,
0,
0,
5,
5,
6,
6,
9,
9,
10,
10,
6,
6,
4,
4,
12,
12,
19,
19,
25,
13,
13,
2,
12,
23,
22,
22,
15,
2,
8,
34,
33,
47,
46,
46,
40,
7,
8,
25,
25,
46,
46,
46,
55,
55,
55,
55,
55,
42,
43,
7,
8,
53,
53,
64,
63,
63,
62,
34,
34,
13,
13,
2,
6,
17,
16,
16,
25,
25,
27,
27,
26,
14,
14,
1,
2,
13,
13,
13,
12,
1,
2,
2,
1,
1,
0,
0,
1,
1,
6,
6,
9,
9,
1,
1,
7,
7,
8,
8,
1,
1,
2,
2,
2,
2,
1,
1,
10,
10,
14,
14,
13,
1,
2,
2,
5,
18,
17,
28,
28,
28,
34,
23,
23,
5,
6,
6,
2,
2,
8,
8,
11,
11,
14,
14,
12,
12,
6,
6,
8,
8,
17,
6,
7,
7,
0,
0,
5,
5,
10,
10,
12,
12,
12,
12,
14,
14,
22,
22,
15,
15,
17,
2,
3,
21,
20,
31,
31,
31,
36,
36,
42,
42,
44,
44,
34,
15,
15,
4,
17,
51,
50,
50,
44,
44,
36,
36,
36,
36,
30,
11,
12,
1,
6,
6,
14,
14,
12,
12,
13,
13,
13,
13,
12,
12,
12,
12,
5,
5,
2,
2,
4,
4,
0,
0,
5,
5,
12,
12,
19,
6,
6,
6,
-1,
-1,
0,
0,
-1,
-1,
0,
0,
2,
2,
1,
1,
0,
0,
8,
8,
12,
12,
6,
6,
5,
22,
21,
33,
32,
32,
25,
2,
5,
26,
26,
41,
40,
40,
37,
13,
14,
2,
8,
21,
20,
20,
16,
16,
12,
12,
15,
15,
14,
14,
12,
12,
6,
6,
2,
2,
12,
12,
15,
15,
10,
10,
12,
12,
14,
3,
3,
3,
1,
1,
1,
1,
4,
4,
6,
6,
2,
2,
6,
6,
4,
4,
3,
3,
2,
2,
1,
1,
8,
8,
10,
10,
12,
12,
10,
10,
4,
4,
1,
1,
-1,
-1,
2,
13,
13,
13,
17,
5,
6,
6,
4,
4,
13,
13,
18,
18,
14,
1,
5,
20,
20,
20,
23,
23,
19,
7,
7,
7,
6,
6,
6,
6,
5,
5,
2,
2,
6,
6,
8,
8,
1,
1,
7,
7,
8,
8,
1,
1,
8,
8,
16,
16,
20,
20,
17,
1,
3,
3,
10,
10,
12,
12,
19,
19,
23,
23,
22,
22,
14,
14,
8,
8,
2,
2,
9,
21,
20,
20,
18,
18,
10,
10,
7,
7,
2,
2,
2,
2,
5,
5,
6,
6,
1,
1,
7,
7,
16,
16,
12,
12,
9,
9,
0,
0,
5,
24,
23,
23,
29,
29,
26,
26,
22,
22,
16,
2,
9,
33,
33,
33,
32,
32,
24,
24,
22,
22,
17,
17,
9,
9,
1,
12,
12,
12,
13,
1,
2,
2,
3,
3,
9,
9,
13,
13,
13,
13,
18,
18,
11,
11,
6,
6,
9,
9,
1,
1,
6,
6,
6,
6,
2,
2,
6,
6,
9,
9,
14,
14,
22,
22,
29,
29,
27,
13,
13,
1,
6,
25,
24,
43,
42,
53,
53,
30,
30,
2,
3,
3,
12,
12,
13,
13,
5,
5,
1,
1,
1,
1,
6,
6,
10,
10,
12,
12,
9,
9,
10,
10,
12,
12,
6,
6,
2,
2,
6,
18,
17,
30,
29,
29,
27,
9,
9,
9,
-1,
-1,
2,
14,
14,
30,
30,
30,
36,
36,
26,
3,
4,
29,
29,
49,
48,
60,
60,
38,
39,
5,
8,
26,
26,
26,
26,
14,
14,
2,
3,
3,
1,
1,
6,
18,
17,
17,
25,
25,
26,
26,
21,
21,
13,
1,
3,
3,
11,
24,
24,
38,
38,
38,
42,
42,
41,
30,
30,
5,
8,
40,
39,
50,
48,
23,
24,
3,
6,
19,
18,
18,
21,
10,
11,
11,
2,
2,
1,
1,
5,
5,
7,
7,
6,
6,
7,
7,
6,
6,
5,
5,
5,
5,
1,
1,
4,
4,
2,
2,
0,
0,
0,
0,
3,
3,
12,
12,
18,
18,
18,
18,
8,
8,
-1,
-1,
2,
2,
6,
6,
7,
7,
9,
9,
17,
17,
18,
18,
9,
9,
2,
19,
18,
34,
33,
22,
23,
3,
3,
3,
4,
4,
9,
9,
8,
8,
7,
7,
8,
8,
6,
6,
1,
1,
2,
2,
2,
2,
3,
3,
1,
1,
1,
1,
6,
6,
10,
10,
12,
12,
6,
6,
-1,
-1,
8,
28,
27,
43,
42,
28,
28,
14,
15,
15,
16,
2,
2,
15,
15,
15,
22,
22,
25,
25,
21,
21,
16,
16,
12,
12,
8,
8,
8,
8,
8,
8,
1,
1,
9,
9,
2,
13,
13,
13,
10,
10,
9,
34,
33,
55,
55,
55,
54,
31,
31,
4,
5,
5,
12,
12,
13,
13,
12,
12,
13,
13,
16,
16,
18,
18,
23,
23,
24,
24,
23,
23,
24,
24,
15,
15,
9,
9,
10,
28,
27,
27,
29,
29,
24,
24,
25,
25,
24,
24,
17,
4,
5,
5,
0,
0,
2,
2,
4,
4,
9,
9,
12,
12,
10,
10,
9,
9,
9,
9,
6,
6,
3,
3,
0,
0,
-1,
-1,
3,
3,
4,
4,
3,
14,
13,
13,
12,
12,
4,
4,
2,
2,
0,
0,
7,
7,
13,
13,
11,
11,
4,
4,
1,
1,
2,
2,
0,
0,
1,
1,
2,
2,
6,
6,
9,
9,
12,
12,
12,
12,
8,
8,
5,
5,
4,
4,
3,
3,
2,
2,
6,
6,
10,
10,
13,
13,
13,
13,
9,
9,
5,
5,
2,
2,
6,
6,
6,
6,
10,
10,
7,
7,
1,
1,
9,
9,
13,
13,
12,
12,
12,
12,
10,
10,
6,
6,
4,
4,
1,
1,
0,
0,
1,
1,
2,
2,
2,
2,
12,
12,
14,
14,
12,
12,
9,
9,
9,
37,
36,
36,
41,
41,
38,
38,
44,
44,
49,
28,
29,
3,
5,
23,
22,
22,
27,
27,
30,
30,
39,
39,
42,
42,
37,
37,
30,
30,
21,
8,
8,
8,
3,
3,
2,
2,
4,
4,
9,
9,
12,
12,
14,
14,
17,
17,
17,
17,
18,
18,
19,
19,
11,
11,
2,
2,
1,
1,
4,
4,
1,
1,
2,
2,
2,
2,
6,
6,
10,
10,
9,
9,
11,
11,
12,
12,
10,
10,
3,
18,
17,
17,
26,
26,
28,
28,
24,
24,
16,
16,
9,
9,
3,
15,
14,
14,
6,
6,
2,
2,
9,
9,
10,
10,
4,
4,
7,
7,
11,
11,
9,
9,
6,
6,
2,
2,
5,
5,
9,
21,
20,
20,
28,
13,
14,
0,
1,
1,
5,
5,
10,
10,
2,
2,
12,
26,
26,
26,
29,
18,
19,
5,
6,
6,
1,
1,
2,
2,
0,
0,
0,
0,
1,
1,
2,
2,
2,
2,
3,
3,
10,
10,
9,
9,
0,
0,
6,
6,
10,
10,
6,
6,
3,
3,
2,
16,
15,
15,
23,
23,
18,
18,
14,
14,
20,
20,
21,
21,
18,
7,
8,
8,
13,
29,
29,
29,
31,
31,
30,
30,
26,
26,
18,
18,
12,
12,
9,
9,
9,
9,
10,
10,
10,
10,
4,
4,
9,
21,
21,
21,
31,
52,
52,
52,
57,
39,
40,
10,
11,
11,
5,
5,
10,
10,
12,
12,
10,
10,
5,
5,
11,
11,
15,
15,
16,
5,
5,
5,
1,
1,
0,
0,
7,
7,
16,
16,
19,
19,
14,
14,
9,
9,
7,
7,
10,
10,
9,
9,
1,
17,
15,
41,
40,
61,
61,
48,
48,
15,
15,
3,
9,
9,
10,
10,
7,
7,
7,
7,
14,
14,
20,
20,
18,
18,
9,
9,
0,
0,
2,
2,
9,
9,
8,
8,
4,
4,
6,
17,
17,
29,
29,
29,
32,
32,
23,
9,
10,
10,
3,
3,
13,
13,
16,
16,
14,
14,
13,
13,
9,
9,
14,
14,
12,
12,
3,
3,
8,
8,
18,
18,
16,
16,
14,
14,
12,
12,
5,
5,
2,
2,
6,
6,
13,
13,
14,
14,
12,
12,
6,
6,
0,
0,
4,
4,
3,
3,
0,
0,
7,
7,
6,
6,
3,
3,
9,
9,
12,
12,
9,
9,
1,
1,
1,
1,
10,
10,
9,
9,
1,
12,
10,
10,
4,
4,
6,
6,
10,
10,
17,
17,
13,
1,
2,
21,
20,
20,
27,
27,
26,
26,
16,
1,
2,
20,
20,
20,
28,
28,
31,
31,
27,
4,
4,
17,
16,
16,
14,
0,
0,
0,
2,
2,
2,
2,
0,
16,
16,
27,
26,
26,
18,
2,
2,
2,
4,
4,
9,
9,
2,
14,
14,
14,
15,
15,
9,
9,
7,
7,
9,
9,
7,
7,
10,
10,
14,
14,
12,
12,
12,
12,
3,
3,
0,
0,
5,
5,
9,
9,
3,
3,
0,
0,
2,
2,
7,
7,
12,
12,
9,
9,
5,
5,
5,
5,
5,
5,
0,
0,
4,
4,
1,
1,
5,
5,
15,
15,
17,
17,
8,
8,
-1,
-1,
0,
0,
0,
0,
1,
1,
2,
2,
4,
4,
9,
9,
8,
8,
9,
9,
8,
8,
6,
6,
2,
2,
5,
5,
11,
11,
13,
13,
11,
11,
11,
11,
8,
8,
4,
4,
1,
1,
-1,
-1,
-1,
-1,
6,
6,
12,
12,
11,
11,
8,
8,
4,
4,
1,
1,
0,
0,
1,
1,
3,
3,
5,
5,
5,
5,
2,
2,
1,
1,
2,
2,
9,
9,
12,
12,
12,
1,
1,
20,
20,
33,
32,
32,
35,
20,
20,
8,
8,
8,
6,
19,
18,
18,
25,
25,
26,
15,
17,
4,
5,
5,
13,
13,
14,
1,
2,
2,
8,
8,
2,
2,
12,
12,
17,
17,
23,
23,
14,
2,
10,
23,
22,
22,
17,
5,
6,
6,
4,
4,
4,
4,
8,
8,
6,
6,
2,
2,
2,
2,
5,
5,
3,
3,
0,
0,
7,
7,
11,
11,
17,
17,
14,
2,
4,
4,
2,
2,
0,
0,
10,
25,
24,
24,
25,
25,
20,
7,
7,
7,
1,
12,
12,
12,
18,
18,
22,
22,
21,
21,
16,
16,
8,
8,
9,
9,
9,
9,
6,
6,
1,
1,
4,
4,
2,
2,
1,
1,
5,
5,
7,
7,
10,
10,
10,
10,
9,
9,
7,
7,
1,
1,
2,
2,
5,
5,
4,
4,
6,
18,
17,
17,
12,
1,
6,
22,
21,
21,
25,
14,
15,
2,
2,
2,
12,
25,
24,
24,
30,
30,
32,
20,
20,
1,
2,
16,
15,
26,
25,
25,
26,
26,
18,
18,
12,
12,
4,
4,
1,
1,
1,
1,
9,
9,
17,
17,
11,
11,
2,
2,
10,
30,
29,
43,
42,
42,
42,
24,
25,
11,
11,
11,
10,
29,
29,
29,
29,
29,
23,
23,
19,
4,
5,
5,
7,
7,
7,
7,
7,
7,
3,
3,
6,
6,
6,
6,
1,
1,
-1,
-1,
0,
0,
2,
2,
9,
20,
19,
19,
17,
17,
8,
8,
1,
1,
1,
1,
0,
0,
6,
6,
14,
14,
9,
9,
4,
4,
6,
6,
5,
5,
12,
24,
23,
12,
12,
1,
7,
7,
13,
13,
12,
12,
14,
14,
18,
18,
13,
13,
9,
9,
4,
4,
1,
1,
5,
5,
9,
9,
12,
12,
14,
14,
12,
12,
10,
10,
9,
9,
1,
1,
4,
4,
6,
6,
3,
3,
-1,
-1,
3,
3,
2,
2,
2,
2,
5,
5,
10,
10,
4,
4,
8,
24,
22,
35,
34,
34,
30,
5,
5,
5,
13,
13,
20,
20,
18,
18,
14,
14,
10,
10,
8,
8,
10,
10,
10,
10,
8,
8,
0,
0,
7,
7,
6,
6,
3,
3,
3,
3,
2,
2,
9,
9,
17,
17,
16,
16,
9,
9,
1,
1,
6,
6,
10,
10,
17,
17,
15,
1,
