EMG_S2/DS0067.CSV

Memory Length,4000,
Trigger Level,-4.80000e+02,
Source,CH1,
Probe,1.0X,
Vertical Units,V,
Vertical Scale,1.00000e+00,
Vertical Position,0.00000e+00,
Horizontal Units,S,
Horizontal Scale,1.00000e-01,
Horizontal Position,0.0000000e+00,
Horizontal Mode,Roll Mode,
Waveform Last Dot Address,4000,
Sampling Period,4.00000e-04,
Firmware,V1.14,
Time, ,
Mode,Fast,
Waveform Data,
1,
1,
2,
2,
6,
6,
6,
6,
5,
5,
5,
5,
6,
6,
5,
5,
3,
3,
6,
6,
9,
9,
2,
2,
5,
5,
9,
9,
9,
9,
10,
10,
9,
9,
16,
29,
29,
29,
35,
24,
24,
2,
3,
25,
25,
56,
56,
56,
64,
64,
65,
38,
39,
21,
22,
4,
4,
4,
8,
29,
29,
48,
48,
48,
53,
53,
48,
48,
41,
27,
28,
15,
15,
15,
7,
7,
0,
0,
6,
21,
21,
35,
34,
34,
38,
24,
24,
11,
12,
12,
8,
8,
8,
8,
2,
2,
8,
8,
7,
7,
11,
22,
22,
22,
18,
1,
2,
2,
10,
22,
22,
42,
42,
42,
41,
9,
10,
-1,
0,
0,
6,
6,
7,
7,
7,
18,
17,
17,
26,
26,
31,
31,
27,
27,
23,
23,
20,
20,
14,
14,
9,
9,
2,
2,
4,
4,
9,
9,
12,
12,
13,
13,
14,
14,
13,
13,
7,
7,
5,
5,
3,
3,
4,
4,
6,
6,
13,
13,
18,
18,
19,
19,
13,
13,
5,
5,
0,
12,
11,
11,
20,
20,
16,
16,
11,
11,
10,
10,
2,
2,
3,
3,
9,
9,
11,
11,
8,
8,
4,
4,
0,
0,
-1,
-1,
1,
1,
7,
7,
13,
13,
14,
14,
16,
16,
19,
19,
9,
9,
2,
2,
4,
4,
6,
6,
3,
3,
6,
6,
9,
9,
9,
9,
2,
2,
6,
18,
18,
18,
16,
5,
6,
6,
2,
2,
9,
9,
12,
12,
12,
12,
6,
6,
3,
3,
1,
1,
4,
4,
6,
6,
3,
3,
1,
1,
-1,
-1,
0,
0,
1,
1,
2,
2,
3,
3,
2,
2,
2,
2,
1,
1,
3,
3,
11,
11,
16,
16,
21,
21,
17,
5,
6,
6,
6,
6,
14,
14,
11,
11,
5,
5,
2,
2,
0,
0,
5,
20,
20,
20,
22,
22,
21,
21,
14,
1,
3,
26,
26,
52,
52,
52,
57,
43,
43,
14,
14,
3,
12,
27,
26,
26,
30,
30,
25,
25,
22,
22,
19,
19,
14,
14,
10,
10,
4,
4,
4,
4,
10,
10,
15,
15,
15,
15,
8,
8,
1,
1,
4,
4,
6,
6,
2,
2,
9,
9,
10,
10,
1,
1,
7,
7,
4,
4,
8,
19,
18,
18,
24,
24,
17,
1,
1,
1,
7,
7,
10,
10,
8,
8,
8,
8,
11,
11,
12,
12,
12,
12,
10,
10,
3,
3,
2,
2,
2,
2,
1,
1,
2,
2,
4,
4,
5,
5,
4,
4,
5,
5,
5,
5,
2,
2,
-1,
-1,
2,
2,
2,
2,
2,
2,
0,
0,
-1,
-1,
-1,
-1,
0,
0,
2,
2,
4,
4,
5,
5,
2,
13,
12,
12,
22,
22,
21,
21,
12,
0,
1,
1,
6,
6,
10,
10,
9,
25,
24,
44,
44,
44,
53,
39,
40,
5,
6,
6,
15,
30,
29,
29,
38,
38,
42,
42,
37,
37,
28,
28,
19,
19,
13,
13,
6,
6,
3,
3,
9,
9,
14,
14,
15,
15,
16,
16,
15,
15,
15,
15,
13,
13,
12,
12,
13,
13,
12,
12,
6,
6,
2,
2,
2,
2,
1,
1,
6,
6,
9,
9,
9,
9,
8,
8,
5,
5,
1,
1,
0,
0,
4,
4,
9,
9,
13,
13,
6,
6,
1,
1,
6,
6,
8,
8,
9,
9,
7,
7,
4,
4,
2,
2,
4,
4,
12,
12,
13,
0,
2,
2,
8,
8,
10,
10,
10,
10,
11,
11,
8,
8,
5,
5,
0,
0,
2,
2,
5,
5,
7,
7,
10,
10,
13,
13,
8,
8,
5,
5,
11,
11,
10,
10,
4,
4,
10,
10,
4,
4,
0,
0,
4,
4,
3,
3,
3,
3,
3,
3,
2,
2,
2,
2,
1,
1,
0,
0,
0,
0,
0,
0,
1,
1,
0,
0,
8,
8,
14,
14,
13,
13,
7,
7,
0,
16,
16,
40,
39,
39,
44,
28,
28,
8,
9,
9,
2,
2,
7,
7,
5,
5,
4,
19,
19,
19,
28,
28,
24,
24,
22,
22,
21,
9,
10,
10,
2,
2,
6,
6,
9,
9,
9,
9,
10,
10,
10,
10,
9,
9,
8,
8,
6,
6,
7,
7,
5,
5,
1,
1,
2,
2,
2,
2,
1,
1,
1,
1,
0,
0,
2,
2,
5,
5,
5,
5,
3,
20,
20,
20,
29,
29,
21,
1,
2,
2,
9,
9,
12,
12,
16,
16,
19,
19,
17,
17,
12,
12,
9,
9,
9,
9,
6,
6,
1,
1,
6,
6,
7,
7,
4,
4,
5,
5,
10,
10,
17,
17,
26,
26,
25,
12,
13,
0,
2,
2,
7,
7,
12,
12,
9,
9,
5,
5,
5,
5,
6,
6,
6,
6,
5,
5,
2,
2,
1,
1,
4,
4,
2,
2,
2,
2,
0,
0,
-1,
-1,
-1,
-1,
0,
0,
3,
3,
2,
2,
8,
8,
7,
7,
2,
15,
14,
14,
17,
17,
15,
15,
13,
13,
9,
9,
0,
0,
4,
4,
7,
7,
11,
11,
12,
12,
10,
10,
6,
6,
14,
14,
21,
21,
18,
1,
2,
16,
15,
29,
29,
48,
48,
48,
51,
51,
42,
18,
18,
2,
8,
8,
15,
26,
26,
26,
35,
35,
35,
35,
33,
33,
29,
29,
22,
22,
13,
0,
1,
1,
10,
10,
18,
18,
18,
18,
18,
18,
13,
13,
7,
7,
8,
8,
13,
13,
11,
11,
6,
6,
4,
4,
1,
1,
0,
0,
3,
3,
1,
1,
5,
5,
3,
3,
-1,
-1,
5,
5,
9,
9,
10,
10,
10,
10,
8,
8,
3,
3,
2,
2,
6,
6,
2,
2,
2,
2,
-1,
-1,
-1,
-1,
1,
1,
8,
8,
14,
14,
7,
7,
3,
3,
8,
8,
13,
13,
14,
14,
11,
11,
8,
8,
2,
16,
16,
28,
28,
28,
28,
28,
19,
2,
3,
3,
5,
5,
6,
6,
6,
6,
6,
6,
6,
6,
6,
6,
6,
6,
6,
6,
6,
6,
8,
8,
6,
6,
1,
1,
4,
4,
9,
9,
5,
5,
6,
6,
9,
9,
3,
3,
5,
5,
6,
6,
6,
6,
5,
18,
18,
29,
28,
28,
25,
14,
15,
1,
2,
2,
7,
7,
7,
7,
9,
9,
8,
8,
13,
13,
20,
20,
20,
20,
15,
15,
10,
10,
7,
7,
1,
1,
3,
3,
8,
8,
13,
13,
17,
17,
17,
17,
17,
17,
16,
16,
8,
8,
0,
0,
2,
2,
10,
10,
17,
17,
21,
9,
9,
9,
0,
0,
9,
9,
16,
16,
21,
21,
16,
4,
4,
4,
2,
2,
0,
0,
0,
0,
2,
2,
10,
10,
12,
12,
10,
10,
6,
6,
4,
4,
-1,
-1,
1,
1,
1,
1,
0,
0,
4,
4,
7,
7,
5,
5,
2,
2,
6,
23,
22,
22,
29,
29,
19,
6,
6,
6,
1,
1,
0,
0,
2,
2,
1,
1,
2,
2,
3,
3,
6,
18,
17,
17,
20,
20,
14,
14,
5,
5,
0,
0,
5,
5,
4,
4,
1,
1,
9,
28,
28,
52,
51,
51,
56,
44,
44,
20,
21,
4,
12,
33,
33,
33,
43,
43,
46,
46,
40,
40,
31,
31,
26,
12,
12,
0,
1,
1,
8,
8,
10,
10,
13,
13,
16,
16,
17,
17,
19,
19,
17,
17,
14,
14,
13,
13,
11,
11,
2,
2,
5,
5,
6,
6,
12,
12,
15,
15,
18,
18,
21,
21,
13,
1,
5,
26,
25,
42,
42,
42,
43,
43,
41,
25,
26,
6,
6,
17,
15,
36,
35,
35,
42,
42,
35,
35,
26,
26,
33,
33,
34,
14,
15,
1,
6,
21,
20,
20,
30,
30,
24,
24,
17,
17,
10,
10,
2,
2,
2,
2,
2,
2,
5,
5,
9,
9,
7,
7,
7,
7,
2,
2,
5,
5,
6,
6,
7,
7,
4,
4,
1,
1,
5,
5,
10,
10,
10,
10,
5,
5,
3,
3,
1,
1,
0,
0,
5,
5,
6,
6,
1,
1,
-1,
-1,
-1,
-1,
-1,
-1,
4,
4,
14,
14,
19,
19,
14,
0,
1,
1,
5,
5,
5,
5,
9,
9,
8,
8,
6,
6,
2,
2,
2,
2,
8,
8,
10,
10,
7,
7,
1,
1,
10,
22,
21,
21,
22,
22,
15,
15,
6,
6,
1,
1,
0,
0,
2,
2,
4,
4,
6,
6,
7,
7,
12,
12,
18,
18,
20,
20,
18,
6,
7,
7,
9,
26,
26,
38,
37,
24,
24,
11,
12,
12,
6,
6,
14,
14,
23,
23,
13,
1,
2,
2,
8,
8,
17,
32,
31,
31,
37,
37,
32,
32,
25,
13,
14,
1,
2,
18,
17,
17,
22,
22,
16,
16,
9,
9,
1,
1,
3,
3,
8,
8,
8,
8,
3,
3,
6,
6,
13,
13,
10,
10,
12,
12,
15,
15,
17,
17,
14,
14,
6,
6,
0,
0,
3,
3,
2,
2,
5,
5,
10,
10,
13,
13,
8,
8,
3,
3,
-1,
-1,
2,
2,
-1,
11,
10,
26,
25,
25,
29,
29,
25,
13,
13,
1,
7,
36,
35,
61,
60,
60,
65,
54,
54,
31,
31,
9,
10,
10,
7,
20,
18,
40,
40,
52,
50,
50,
48,
48,
40,
27,
28,
15,
16,
16,
7,
7,
1,
1,
4,
4,
14,
14,
20,
20,
19,
19,
25,
25,
28,
17,
18,
1,
2,
15,
15,
15,
24,
24,
18,
1,
2,
2,
12,
12,
21,
21,
24,
38,
37,
37,
35,
35,
29,
29,
28,
9,
10,
10,
15,
43,
42,
53,
52,
52,
49,
49,
44,
30,
31,
13,
14,
0,
2,
2,
6,
6,
7,
7,
9,
9,
11,
11,
6,
6,
0,
0,
8,
8,
9,
9,
1,
15,
14,
37,
37,
53,
53,
53,
58,
58,
52,
52,
44,
23,
24,
4,
9,
34,
34,
50,
49,
49,
55,
55,
51,
51,
44,
32,
33,
21,
22,
22,
13,
1,
2,
2,
7,
7,
15,
15,
20,
20,
26,
26,
26,
26,
25,
25,
16,
1,
2,
2,
0,
0,
2,
2,
1,
1,
3,
3,
8,
8,
6,
6,
1,
13,
12,
12,
20,
20,
12,
1,
5,
17,
16,
16,
16,
16,
12,
12,
3,
3,
6,
6,
13,
13,
12,
12,
10,
10,
7,
7,
2,
2,
1,
1,
6,
6,
2,
2,
11,
11,
9,
9,
4,
18,
18,
18,
28,
14,
14,
0,
2,
2,
4,
4,
1,
1,
2,
2,
0,
0,
3,
3,
9,
9,
9,
9,
0,
0,
9,
9,
8,
8,
3,
3,
13,
13,
8,
8,
0,
0,
6,
6,
1,
1,
6,
6,
5,
5,
2,
16,
16,
16,
18,
18,
10,
10,
2,
2,
2,
2,
6,
6,
9,
9,
14,
14,
15,
15,
7,
7,
5,
5,
6,
6,
0,
0,
0,
0,
4,
4,
6,
6,
14,
14,
22,
22,
18,
5,
6,
6,
4,
4,
10,
10,
14,
14,
18,
18,
10,
10,
1,
1,
5,
5,
4,
4,
1,
1,
0,
0,
3,
3,
1,
1,
1,
1,
8,
8,
9,
9,
3,
3,
2,
2,
0,
0,
5,
17,
16,
16,
26,
26,
19,
19,
10,
10,
8,
8,
1,
23,
23,
49,
49,
62,
62,
50,
50,
32,
32,
5,
5,
52,
51,
64,
63,
63,
65,
65,
65,
65,
59,
13,
13,
25,
25,
55,
54,
54,
63,
63,
64,
64,
64,
64,
56,
37,
37,
18,
19,
19,
10,
10,
1,
1,
8,
8,
13,
13,
14,
14,
18,
18,
22,
22,
30,
44,
43,
43,
50,
50,
45,
23,
23,
12,
12,
12,
9,
9,
4,
4,
4,
4,
14,
14,
19,
19,
25,
25,
25,
25,
22,
22,
17,
17,
13,
13,
10,
10,
9,
9,
5,
5,
0,
0,
3,
3,
8,
8,
10,
10,
9,
9,
4,
4,
-1,
-1,
1,
1,
0,
0,
2,
2,
8,
8,
6,
6,
4,
19,
19,
42,
42,
59,
58,
58,
48,
17,
17,
1,
5,
19,
19,
35,
34,
46,
46,
46,
47,
47,
37,
22,
23,
8,
8,
8,
2,
2,
1,
1,
4,
4,
8,
8,
12,
12,
13,
13,
13,
13,
7,
7,
-1,
-1,
0,
0,
6,
18,
18,
18,
23,
3,
5,
16,
14,
3,
12,
28,
28,
28,
29,
14,
14,
2,
2,
20,
19,
19,
18,
1,
2,
2,
11,
11,
2,
16,
15,
15,
17,
17,
18,
18,
16,
16,
21,
21,
20,
20,
14,
14,
6,
6,
0,
0,
6,
6,
10,
10,
12,
12,
10,
10,
2,
2,
1,
1,
2,
2,
7,
7,
13,
13,
18,
18,
28,
28,
37,
37,
34,
16,
16,
1,
4,
16,
15,
15,
15,
15,
10,
10,
14,
14,
23,
23,
20,
20,
12,
12,
8,
8,
8,
8,
5,
5,
0,
0,
2,
2,
3,
3,
4,
4,
1,
1,
-1,
-1,
0,
0,
3,
3,
8,
8,
10,
10,
2,
2,
11,
29,
28,
28,
30,
30,
26,
26,
24,
24,
31,
18,
19,
2,
7,
24,
24,
24,
29,
29,
29,
29,
26,
26,
20,
20,
14,
2,
2,
2,
5,
5,
8,
8,
1,
1,
6,
6,
12,
12,
10,
10,
1,
18,
17,
35,
34,
34,
40,
40,
33,
13,
13,
13,
6,
6,
0,
0,
2,
2,
1,
14,
14,
30,
29,
29,
33,
33,
27,
14,
15,
15,
5,
5,
2,
2,
0,
0,
2,
2,
4,
4,
6,
6,
6,
6,
6,
6,
8,
8,
11,
11,
10,
10,
8,
8,
9,
9,
9,
9,
2,
2,
4,
4,
0,
0,
1,
1,
1,
1,
2,
2,
0,
0,
0,
0,
1,
1,
7,
7,
8,
8,
4,
4,
1,
1,
0,
0,
2,
2,
0,
0,
5,
5,
14,
14,
22,
22,
23,
23,
15,
15,
20,
20,
24,
5,
8,
56,
56,
56,
64,
64,
65,
65,
65,
12,
12,
31,
31,
58,
58,
58,
63,
63,
57,
42,
43,
43,
42,
42,
41,
41,
33,
33,
23,
11,
11,
11,
2,
2,
9,
22,
22,
22,
28,
28,
29,
29,
27,
27,
23,
23,
20,
20,
16,
16,
12,
12,
8,
8,
9,
9,
9,
9,
3,
3,
5,
5,
12,
12,
10,
10,
11,
11,
14,
14,
8,
8,
0,
0,
1,
1,
2,
2,
0,
0,
0,
0,
0,
0,
1,
1,
2,
2,
0,
0,
-1,
-1,
-1,
-1,
3,
3,
3,
3,
2,
2,
0,
0,
3,
3,
6,
6,
6,
6,
0,
0,
4,
4,
2,
2,
4,
4,
12,
12,
14,
14,
4,
4,
4,
4,
6,
6,
6,
6,
5,
5,
4,
4,
3,
3,
2,
2,
-1,
-1,
1,
1,
1,
1,
3,
3,
3,
3,
2,
2,
10,
10,
19,
19,
11,
11,
2,
2,
0,
0,
-1,
-1,
5,
5,
6,
6,
5,
5,
2,
2,
6,
6,
9,
9,
10,
10,
9,
9,
8,
8,
5,
5,
2,
2,
2,
2,
6,
6,
8,
8,
4,
4,
2,
2,
1,
1,
0,
0,
-1,
-1,
2,
2,
7,
7,
8,
8,
7,
7,
5,
5,
1,
1,
4,
20,
19,
19,
20,
20,
21,
21,
20,
20,
14,
14,
11,
11,
1,
1,
10,
10,
15,
15,
17,
17,
16,
16,
19,
19,
22,
22,
17,
5,
6,
6,
0,
0,
4,
4,
5,
5,
6,
6,
10,
10,
14,
14,
19,
19,
15,
2,
2,
2,
2,
2,
2,
2,
2,
2,
5,
5,
7,
7,
6,
6,
3,
3,
2,
2,
8,
8,
9,
9,
2,
2,
9,
9,
12,
0,
2,
2,
9,
20,
19,
19,
17,
17,
8,
8,
5,
5,
1,
1,
8,
8,
9,
9,
11,
11,
10,
10,
9,
9,
6,
6,
5,
5,
2,
2,
0,
0,
-1,
-1,
3,
3,
7,
7,
8,
8,
5,
5,
4,
4,
5,
5,
5,
5,
5,
5,
5,
5,
3,
3,
0,
0,
3,
3,
6,
6,
3,
3,
1,
1,
0,
0,
1,
1,
-1,
-1,
1,
1,
0,
0,
1,
1,
2,
2,
-1,
-1,
4,
4,
2,
2,
3,
3,
6,
6,
8,
8,
3,
3,
1,
1,
5,
5,
3,
3,
2,
2,
5,
5,
4,
4,
3,
3,
3,
3,
1,
1,
-1,
-1,
0,
0,
3,
3,
4,
4,
6,
6,
7,
7,
7,
7,
4,
4,
0,
0,
3,
3,
1,
1,
-1,
-1,
0,
0,
0,
0,
3,
3,
6,
6,
4,
4,
0,
0,
1,
1,
0,
0,
2,
2,
6,
6,
13,
13,
16,
16,
15,
15,
6,
6,
2,
2,
10,
10,
18,
18,
23,
23,
18,
4,
5,
5,
14,
14,
19,
2,
6,
29,
29,
29,
37,
26,
28,
4,
6,
20,
18,
18,
21,
21,
25,
25,
23,
23,
15,
15,
10,
10,
2,
2,
4,
4,
5,
5,
8,
8,
3,
3,
1,
1,
1,
1,
0,
0,
1,
1,
2,
2,
4,
4,
6,
6,
6,
6,
6,
6,
6,
6,
5,
5,
3,
3,
2,
2,
2,
2,
1,
1,
-1,
-1,
1,
1,
2,
2,
2,
2,
2,
2,
2,
2,
2,
2,
1,
1,
2,
2,
1,
1,
-1,
-1,
1,
1,
0,
0,
1,
1,
2,
2,
1,
1,
1,
1,
4,
4,
8,
8,
6,
6,
3,
3,
2,
2,
6,
6,
2,
2,
0,
0,
0,
0,
2,
2,
3,
3,
2,
2,
2,
2,
1,
1,
-1,
-1,
0,
0,
0,
0,
0,
0,
0,
0,
1,
1,
5,
5,
2,
2,
0,
0,
-1,
-1,
2,
2,
3,
3,
2,
2,
0,
0,
2,
2,
5,
5,
3,
3,
1,
1,
2,
2,
1,
1,
6,
6,
10,
10,
5,
5,
5,
5,
13,
13,
19,
19,
24,
24,
18,
2,
2,
2,
9,
9,
15,
15,
14,
14,
13,
13,
10,
10,
7,
7,
2,
2,
-1,
-1,
1,
1,
2,
2,
2,
2,
2,
2,
5,
5,
5,
5,
2,
2,
2,
2,
2,
2,
5,
5,
4,
4,
1,
1,
0,
0,
0,
0,
4,
4,
13,
13,
23,
23,
22,
5,
5,
5,
14,
14,
24,
24,
30,
30,
38,
26,
26,
4,
4,
4,
6,
6,
14,
14,
17,
17,
16,
16,
13,
13,
9,
9,
2,
2,
8,
8,
1,
1,
10,
10,
18,
18,
16,
16,
7,
7,
2,
2,
1,
1,
5,
5,
11,
11,
14,
14,
12,
12,
11,
11,
9,
9,
6,
6,
5,
5,
2,
2,
-1,
-1,
2,
2,
2,
2,
6,
6,
9,
9,
9,
9,
4,
4,
2,
2,
7,
7,
10,
10,
5,
5,
13,
13,
14,
14,
6,
6,
7,
23,
22,
22,
29,
10,
10,
-1,
0,
0,
-1,
-1,
2,
2,
9,
9,
6,
6,
2,
2,
0,
12,
12,
12,
18,
18,
22,
22,
20,
20,
13,
13,
3,
3,
4,
4,
2,
2,
0,
0,
0,
0,
1,
1,
6,
6,
7,
7,
5,
5,
0,
0,
1,
1,
4,
4,
4,
4,
8,
8,
15,
15,
17,
17,
18,
18,
16,
16,
16,
3,
4,
4,
8,
8,
16,
16,
19,
19,
18,
18,
20,
20,
22,
22,
21,
21,
12,
0,
1,
1,
4,
4,
5,
5,
4,
4,
4,
4,
5,
5,
12,
23,
23,
23,
28,
28,
30,
30,
26,
12,
13,
1,
4,
17,
17,
17,
22,
22,
22,
22,
20,
20,
17,
17,
13,
13,
8,
8,
1,
1,
5,
5,
7,
7,
3,
3,
1,
1,
2,
2,
2,
2,
3,
3,
2,
2,
4,
4,
3,
3,
5,
5,
2,
2,
-1,
-1,
2,
2,
1,
1,
0,
0,
2,
2,
2,
2,
10,
10,
7,
7,
0,
0,
0,
0,
6,
6,
14,
14,
15,
3,
4,
4,
6,
18,
17,
17,
22,
22,
22,
22,
20,
20,
14,
14,
9,
9,
2,
2,
1,
1,
7,
7,
10,
10,
10,
10,
10,
10,
9,
9,
9,
9,
8,
8,
7,
7,
2,
2,
-1,
-1,
1,
1,
-1,
-1,
0,
0,
-1,
-1,
0,
0,
2,
2,
4,
4,
5,
5,
0,
0,
2,
2,
8,
8,
9,
9,
12,
12,
14,
14,
13,
1,
3,
3,
2,
2,
10,
23,
22,
22,
29,
18,
18,
3,
3,
3,
2,
2,
0,
0,
7,
7,
13,
13,
15,
15,
16,
16,
13,
13,
11,
11,
5,
5,
4,
4,
0,
0,
6,
6,
12,
12,
13,
13,
13,
13,
14,
14,
11,
11,
4,
4,
1,
1,
3,
3,
4,
4,
5,
5,
5,
5,
4,
4,
2,
2,
1,
1,
-1,
-1,
1,
1,
3,
3,
2,
2,
1,
1,
0,
0,
0,
0,
1,
1,
2,
2,
2,
2,
0,
0,
0,
0,
0,
0,
0,
0,
0,
0,
0,
0,
0,
0,
0,
0,
-1,
-1,
0,
0,
-1,
-1,
-1,
-1,
0,
0,
0,
0,
1,
1,
0,
0,
-1,
-1,
-1,
-1,
-1,
-1,
0,
0,
-1,
-1,
0,
0,
0,
0,
0,
0,
1,
1,
0,
0,
1,
1,
5,
5,
3,
3,
1,
1,
0,
0,
4,
4,
4,
4,
0,
0,
0,
0,
3,
3,
6,
6,
2,
21,
20,
20,
26,
26,
21,
10,
10,
10,
6,
6,
13,
13,
10,
10,
9,
9,
16,
16,
22,
22,
14,
3,
3,
3,
4,
4,
12,
12,
15,
15,
18,
18,
14,
14,
11,
11,
2,
2,
10,
10,
12,
12,
10,
10,
6,
6,
1,
1,
1,
1,
2,
2,
2,
2,
-1,
-1,
2,
2,
3,
3,
2,
2,
9,
9,
3,
3,
8,
8,
17,
17,
20,
20,
16,
16,
10,
10,
5,
5,
1,
1,
2,
2,
4,
4,
5,
5,
5,
5,
4,
4,
2,
2,
2,
2,
6,
6,
7,
7,
4,
4,
2,
2,
5,
5,
10,
10,
10,
10,
2,
2,
1,
1,
0,
0,
0,
0,
1,
17,
16,
33,
32,
32,
36,
36,
40,
40,
32,
16,
17,
5,
5,
5,
6,
24,
23,
23,
32,
32,
31,
31,
26,
26,
22,
22,
17,
17,
13,
13,
13,
13,
9,
9,
6,
6,
0,
0,
3,
3,
6,
18,
17,
17,
25,
25,
25,
25,
17,
17,
9,
9,
2,
2,
3,
3,
6,
6,
10,
10,
8,
8,
2,
2,
10,
10,
11,
11,
10,
10,
17,
30,
30,
30,
30,
30,
20,
1,
2,
15,
14,
30,
29,
29,
39,
39,
40,
40,
34,
23,
24,
24,
14,
14,
8,
8,
0,
0,
6,
6,
10,
10,
14,
14,
16,
16,
18,
18,
17,
17,
13,
13,
11,
11,
10,
10,
8,
8,
6,
6,
1,
1,
9,
9,
15,
15,
10,
10,
3,
3,
1,
1,
7,
7,
14,
14,
15,
15,
14,
14,
5,
5,
3,
3,
10,
10,
11,
11,
10,
10,
14,
14,
14,
14,
10,
10,
7,
7,
5,
5,
1,
1,
4,
4,
13,
13,
16,
16,
14,
14,
7,
7,
1,
1,
1,
1,
2,
2,
1,
1,
0,
0,
5,
5,
0,
0,
10,
21,
21,
21,
21,
21,
12,
1,
5,
5,
14,
14,
16,
16,
11,
11,
8,
8,
8,
8,
9,
9,
14,
14,
18,
18,
24,
24,
18,
1,
2,
19,
19,
34,
33,
33,
29,
29,
28,
28,
31,
31,
33,
33,
26,
26,
18,
6,
6,
6,
2,
18,
18,
36,
34,
34,
42,
42,
37,
37,
29,
18,
19,
5,
5,
5,
0,
0,
1,
1,
-1,
-1,
2,
13,
12,
26,
25,
25,
23,
6,
6,
6,
7,
7,
5,
5,
2,
2,
5,
5,
9,
23,
22,
22,
22,
1,
2,
2,
4,
4,
6,
6,
6,
6,
1,
1,
10,
10,
12,
12,
8,
8,
3,
3,
3,
3,
12,
26,
26,
26,
23,
23,
15,
15,
13,
13,
10,
10,
2,
2,
6,
6,
6,
6,
6,
6,
7,
7,
5,
5,
2,
2,
1,
1,
2,
2,
3,
3,
4,
4,
3,
3,
3,
3,
2,
2,
3,
3,
2,
2,
1,
1,
2,
2,
1,
1,
0,
0,
0,
0,
0,
0,
-2,
-2,
-1,
-1,
0,
0,
0,
0,
0,
0,
-1,
-1,
1,
1,
4,
4,
7,
7,
10,
10,
4,
4,
6,
6,
12,
12,
10,
10,
1,
1,
4,
4,
10,
10,
8,
8,
2,
2,
4,
4,
11,
11,
12,
12,
7,
7,
3,
3,
0,
0,
-1,
-1,
-1,
-1,
-1,
-1,
0,
0,
1,
1,
2,
2,
2,
2,
2,
2,
2,
2,
5,
5,
6,
6,
4,
4,
