EMG_S2/DS0058.CSV

Memory Length,4000,
Trigger Level,-4.80000e+02,
Source,CH1,
Probe,1.0X,
Vertical Units,V,
Vertical Scale,1.00000e+00,
Vertical Position,0.00000e+00,
Horizontal Units,S,
Horizontal Scale,1.00000e-01,
Horizontal Position,0.0000000e+00,
Horizontal Mode,Roll Mode,
Waveform Last Dot Address,4000,
Sampling Period,4.00000e-04,
Firmware,V1.14,
Time, ,
Mode,Fast,
Waveform Data,
1,
1,
10,
25,
24,
13,
13,
1,
4,
4,
8,
8,
6,
6,
1,
1,
0,
0,
5,
5,
3,
3,
1,
1,
4,
4,
3,
3,
7,
7,
12,
1,
2,
2,
11,
11,
14,
14,
12,
12,
6,
6,
1,
1,
-1,
-1,
-1,
-1,
1,
1,
4,
4,
5,
5,
2,
2,
2,
2,
1,
1,
-1,
-1,
0,
0,
1,
1,
10,
10,
15,
15,
10,
10,
6,
6,
7,
7,
5,
5,
2,
2,
3,
3,
4,
4,
0,
0,
8,
8,
8,
8,
9,
9,
9,
9,
7,
7,
9,
9,
7,
7,
7,
7,
5,
5,
2,
2,
1,
1,
0,
0,
7,
7,
13,
13,
15,
2,
2,
2,
6,
6,
6,
6,
5,
5,
12,
39,
34,
61,
44,
63,
62,
62,
64,
30,
30,
2,
2,
2,
1,
1,
0,
0,
7,
20,
19,
19,
25,
25,
22,
22,
26,
26,
33,
33,
33,
33,
32,
18,
19,
2,
5,
20,
20,
20,
28,
14,
15,
4,
4,
4,
1,
1,
5,
5,
10,
10,
13,
13,
13,
13,
14,
14,
10,
10,
6,
6,
1,
1,
2,
2,
7,
7,
8,
8,
6,
6,
1,
1,
9,
9,
14,
1,
2,
13,
13,
13,
16,
16,
13,
13,
15,
15,
13,
13,
9,
9,
4,
4,
2,
2,
4,
4,
9,
9,
18,
32,
32,
32,
41,
41,
35,
15,
15,
0,
1,
1,
1,
1,
2,
13,
13,
26,
26,
26,
28,
28,
21,
21,
16,
16,
13,
13,
18,
18,
12,
-1,
1,
1,
5,
5,
7,
7,
9,
9,
6,
6,
6,
6,
8,
8,
10,
10,
6,
6,
5,
5,
6,
6,
4,
4,
4,
4,
5,
5,
5,
5,
0,
0,
1,
1,
0,
0,
1,
1,
2,
2,
5,
5,
1,
1,
10,
10,
8,
8,
7,
7,
6,
6,
6,
6,
1,
45,
28,
56,
56,
36,
36,
12,
13,
34,
32,
60,
44,
61,
61,
61,
63,
45,
46,
31,
33,
9,
10,
10,
10,
26,
26,
40,
40,
40,
50,
50,
45,
45,
39,
24,
24,
1,
2,
15,
15,
15,
21,
21,
21,
21,
14,
14,
7,
7,
6,
6,
8,
8,
12,
12,
10,
10,
6,
6,
6,
6,
4,
4,
0,
0,
5,
5,
10,
10,
9,
9,
6,
6,
0,
0,
-1,
-1,
3,
3,
4,
4,
4,
4,
-1,
-1,
1,
1,
1,
1,
2,
2,
-1,
-1,
-1,
-1,
0,
0,
7,
7,
12,
12,
14,
14,
10,
10,
11,
11,
13,
13,
5,
5,
0,
0,
3,
3,
7,
18,
18,
18,
14,
1,
1,
1,
6,
6,
5,
5,
1,
1,
8,
8,
9,
9,
2,
2,
6,
6,
13,
13,
8,
8,
14,
14,
9,
9,
7,
19,
18,
18,
19,
19,
18,
53,
53,
32,
60,
60,
63,
34,
34,
7,
7,
7,
11,
24,
24,
24,
29,
29,
34,
34,
30,
30,
23,
23,
18,
18,
17,
17,
9,
9,
0,
0,
6,
6,
6,
6,
12,
12,
19,
19,
26,
26,
21,
21,
25,
25,
17,
1,
2,
13,
13,
13,
18,
57,
56,
34,
56,
56,
62,
45,
45,
25,
25,
3,
3,
3,
10,
10,
15,
15,
17,
17,
15,
15,
12,
12,
10,
10,
10,
10,
9,
9,
6,
6,
2,
2,
1,
1,
1,
1,
4,
4,
6,
6,
4,
4,
4,
4,
8,
8,
13,
13,
10,
10,
4,
4,
13,
52,
52,
28,
32,
60,
59,
59,
64,
64,
63,
45,
46,
19,
20,
2,
3,
3,
1,
1,
5,
5,
13,
13,
23,
11,
12,
12,
3,
3,
6,
6,
15,
15,
21,
21,
20,
20,
16,
16,
13,
13,
7,
7,
6,
6,
7,
7,
5,
5,
1,
1,
0,
0,
6,
6,
14,
14,
13,
13,
10,
10,
10,
10,
5,
5,
4,
4,
2,
2,
2,
2,
5,
5,
5,
5,
3,
3,
2,
2,
0,
0,
6,
6,
13,
13,
14,
14,
13,
13,
6,
6,
1,
1,
6,
6,
10,
10,
12,
12,
10,
10,
8,
8,
1,
1,
1,
1,
2,
2,
-1,
-1,
2,
2,
12,
12,
18,
18,
14,
2,
3,
3,
6,
6,
14,
14,
16,
16,
10,
10,
1,
1,
0,
0,
2,
2,
0,
0,
2,
2,
2,
2,
3,
3,
1,
1,
2,
2,
0,
0,
3,
3,
4,
4,
8,
8,
12,
12,
9,
9,
1,
1,
4,
4,
12,
12,
21,
21,
27,
27,
25,
12,
13,
0,
1,
15,
14,
41,
40,
40,
40,
21,
21,
9,
10,
10,
2,
2,
2,
2,
8,
8,
10,
10,
12,
12,
14,
1,
2,
2,
0,
0,
7,
7,
6,
6,
2,
2,
0,
0,
5,
5,
4,
4,
3,
3,
8,
8,
2,
2,
9,
21,
20,
20,
16,
1,
2,
2,
7,
7,
14,
14,
9,
9,
0,
0,
3,
3,
6,
6,
8,
8,
6,
6,
2,
2,
9,
9,
10,
10,
6,
6,
5,
5,
2,
2,
0,
0,
9,
9,
11,
0,
1,
1,
3,
3,
3,
3,
11,
11,
5,
5,
2,
2,
0,
0,
2,
2,
2,
2,
-1,
-1,
1,
1,
3,
3,
2,
2,
5,
5,
4,
4,
3,
3,
12,
12,
8,
8,
2,
2,
2,
2,
4,
4,
4,
4,
0,
0,
4,
15,
15,
15,
18,
18,
15,
4,
4,
4,
8,
8,
10,
10,
14,
14,
20,
20,
26,
26,
18,
18,
16,
16,
13,
13,
10,
10,
5,
5,
0,
0,
7,
21,
20,
20,
21,
21,
18,
18,
18,
18,
18,
18,
18,
18,
12,
12,
4,
4,
1,
1,
3,
3,
10,
10,
19,
19,
22,
22,
18,
18,
12,
12,
6,
6,
5,
5,
2,
2,
1,
1,
3,
3,
2,
2,
7,
7,
1,
1,
0,
0,
7,
7,
12,
12,
8,
8,
10,
31,
31,
56,
44,
44,
35,
35,
36,
25,
26,
26,
18,
1,
2,
2,
12,
12,
14,
14,
13,
13,
9,
9,
9,
9,
11,
11,
12,
12,
9,
9,
1,
1,
7,
7,
16,
16,
14,
14,
6,
6,
0,
0,
1,
1,
3,
3,
0,
0,
1,
1,
6,
6,
2,
2,
0,
0,
2,
2,
6,
6,
8,
8,
8,
8,
12,
12,
15,
15,
14,
1,
3,
21,
21,
21,
30,
30,
30,
30,
22,
22,
12,
12,
2,
2,
11,
34,
34,
45,
44,
44,
36,
9,
9,
9,
9,
9,
15,
15,
15,
15,
20,
20,
21,
21,
16,
1,
1,
1,
9,
9,
18,
18,
26,
26,
27,
13,
14,
1,
6,
19,
18,
18,
21,
21,
16,
16,
8,
8,
1,
1,
4,
4,
6,
6,
0,
0,
1,
1,
-1,
-1,
3,
17,
16,
16,
18,
18,
9,
9,
0,
0,
0,
0,
0,
0,
4,
4,
7,
7,
6,
6,
5,
5,
6,
6,
7,
7,
5,
5,
5,
5,
10,
10,
7,
7,
6,
6,
8,
8,
8,
8,
5,
5,
7,
7,
13,
13,
10,
10,
6,
6,
5,
5,
2,
2,
8,
8,
9,
9,
5,
5,
1,
1,
0,
0,
3,
3,
1,
1,
0,
0,
2,
2,
8,
8,
5,
5,
2,
15,
14,
14,
24,
24,
20,
5,
6,
6,
3,
3,
10,
10,
14,
14,
13,
13,
15,
15,
18,
18,
18,
18,
9,
9,
9,
21,
20,
20,
29,
29,
28,
17,
17,
17,
9,
9,
4,
4,
-1,
-1,
-1,
-1,
7,
7,
14,
14,
17,
17,
18,
18,
20,
20,
15,
15,
13,
13,
6,
6,
4,
15,
14,
14,
16,
16,
12,
12,
5,
5,
3,
3,
0,
15,
14,
43,
43,
55,
54,
30,
30,
3,
3,
21,
20,
33,
32,
32,
34,
34,
33,
33,
28,
28,
19,
19,
10,
10,
4,
4,
3,
3,
2,
2,
2,
2,
6,
17,
16,
16,
21,
21,
21,
21,
14,
14,
11,
11,
10,
10,
6,
6,
2,
2,
5,
5,
4,
4,
2,
2,
0,
0,
1,
1,
4,
4,
6,
6,
8,
8,
8,
8,
6,
6,
5,
5,
0,
0,
0,
0,
5,
5,
2,
2,
1,
1,
4,
4,
4,
4,
6,
6,
6,
6,
7,
7,
10,
10,
13,
13,
12,
12,
12,
-1,
0,
0,
3,
3,
11,
11,
18,
3,
4,
4,
9,
9,
14,
14,
13,
0,
2,
16,
16,
16,
18,
18,
16,
16,
13,
13,
14,
14,
4,
4,
2,
2,
2,
2,
-1,
-1,
0,
0,
0,
0,
7,
7,
8,
8,
6,
6,
12,
12,
19,
19,
24,
24,
16,
3,
4,
4,
2,
2,
7,
7,
9,
9,
1,
1,
5,
5,
8,
8,
3,
3,
4,
17,
16,
16,
24,
24,
30,
30,
25,
12,
13,
1,
5,
21,
21,
37,
36,
36,
45,
29,
29,
5,
6,
21,
20,
20,
21,
21,
18,
18,
20,
20,
14,
14,
13,
13,
8,
8,
2,
14,
13,
13,
20,
20,
27,
27,
29,
29,
24,
5,
5,
5,
5,
5,
10,
10,
12,
12,
10,
10,
11,
11,
6,
6,
0,
0,
3,
3,
4,
4,
0,
0,
2,
2,
0,
0,
2,
2,
1,
1,
2,
2,
0,
0,
0,
0,
3,
3,
2,
2,
2,
2,
1,
1,
2,
2,
2,
2,
3,
3,
0,
0,
2,
2,
3,
3,
0,
0,
1,
1,
6,
6,
4,
4,
2,
2,
6,
6,
14,
14,
12,
12,
3,
3,
6,
6,
12,
12,
13,
13,
9,
9,
2,
2,
10,
10,
12,
12,
3,
3,
9,
9,
10,
10,
5,
5,
3,
3,
7,
7,
1,
1,
8,
8,
9,
9,
9,
9,
10,
10,
9,
9,
1,
1,
0,
0,
4,
4,
5,
16,
15,
29,
28,
28,
37,
37,
28,
28,
19,
8,
8,
8,
9,
24,
24,
24,
29,
29,
30,
30,
27,
27,
22,
6,
6,
6,
9,
9,
18,
18,
16,
16,
9,
9,
2,
2,
4,
4,
6,
6,
10,
10,
1,
1,
8,
8,
9,
9,
0,
11,
10,
10,
20,
20,
11,
0,
1,
1,
10,
10,
16,
16,
12,
12,
2,
2,
0,
11,
10,
10,
15,
15,
11,
11,
8,
8,
3,
3,
11,
25,
24,
24,
30,
8,
8,
8,
2,
2,
4,
4,
6,
6,
10,
10,
6,
6,
5,
5,
9,
9,
9,
9,
10,
10,
12,
12,
6,
6,
0,
0,
1,
1,
3,
3,
7,
7,
12,
12,
5,
57,
30,
62,
62,
48,
48,
25,
26,
9,
9,
9,
3,
14,
13,
13,
21,
21,
26,
26,
22,
9,
9,
9,
2,
2,
3,
3,
4,
4,
1,
1,
0,
0,
2,
2,
8,
8,
6,
6,
-1,
-1,
2,
2,
2,
2,
3,
3,
1,
1,
0,
0,
1,
1,
1,
1,
0,
0,
1,
1,
-1,
-1,
4,
4,
2,
2,
0,
0,
-1,
-1,
-1,
-1,
-1,
-1,
2,
2,
8,
8,
10,
10,
6,
6,
2,
2,
6,
6,
8,
8,
6,
6,
1,
1,
4,
4,
10,
10,
10,
10,
3,
3,
0,
0,
0,
0,
6,
6,
9,
9,
11,
11,
8,
8,
10,
10,
8,
8,
2,
2,
10,
24,
23,
23,
25,
8,
8,
8,
6,
6,
9,
9,
9,
9,
4,
4,
1,
1,
-1,
-1,
8,
8,
7,
7,
-1,
-1,
-1,
-1,
1,
1,
2,
2,
2,
2,
12,
12,
18,
18,
12,
12,
6,
6,
0,
0,
9,
9,
15,
15,
21,
21,
26,
26,
24,
6,
6,
6,
10,
10,
17,
17,
20,
20,
16,
16,
10,
10,
6,
6,
7,
7,
6,
6,
2,
14,
13,
13,
13,
13,
15,
15,
18,
18,
25,
25,
25,
12,
12,
12,
11,
25,
24,
24,
25,
25,
18,
18,
10,
10,
6,
6,
3,
3,
0,
0,
2,
2,
4,
4,
2,
2,
3,
3,
2,
2,
9,
9,
13,
13,
16,
16,
12,
12,
8,
8,
0,
0,
3,
16,
16,
16,
13,
1,
2,
2,
2,
2,
5,
5,
6,
6,
9,
9,
5,
5,
1,
1,
6,
6,
9,
9,
6,
6,
4,
4,
8,
8,
10,
10,
6,
6,
0,
0,
2,
2,
7,
7,
13,
13,
13,
13,
5,
5,
5,
5,
4,
4,
10,
28,
26,
26,
20,
1,
3,
14,
14,
14,
20,
6,
7,
7,
9,
20,
19,
19,
18,
18,
17,
2,
3,
15,
15,
15,
11,
11,
4,
4,
2,
2,
1,
1,
1,
1,
8,
8,
11,
11,
14,
14,
12,
12,
8,
8,
0,
15,
15,
28,
28,
28,
28,
28,
26,
26,
16,
1,
2,
2,
12,
12,
16,
16,
17,
17,
13,
13,
6,
6,
2,
2,
6,
6,
0,
0,
0,
0,
0,
0,
0,
0,
2,
2,
5,
5,
6,
6,
4,
4,
2,
2,
6,
6,
11,
11,
1,
13,
12,
12,
20,
20,
26,
26,
28,
28,
26,
26,
21,
21,
21,
7,
8,
8,
1,
19,
18,
18,
26,
26,
29,
29,
27,
27,
26,
26,
25,
25,
25,
25,
24,
8,
8,
8,
6,
18,
18,
18,
26,
38,
38,
38,
41,
41,
37,
8,
8,
8,
12,
12,
13,
13,
9,
9,
9,
9,
3,
3,
12,
12,
14,
1,
2,
2,
3,
3,
13,
13,
15,
15,
11,
11,
5,
5,
0,
0,
5,
5,
2,
2,
2,
2,
2,
2,
1,
1,
5,
5,
8,
8,
11,
11,
16,
16,
14,
1,
6,
17,
8,
8,
10,
10,
17,
17,
24,
24,
24,
10,
10,
10,
4,
17,
16,
16,
17,
17,
20,
33,
33,
33,
37,
21,
22,
8,
8,
8,
1,
12,
10,
10,
1,
12,
24,
24,
23,
23,
28,
28,
22,
22,
14,
14,
15,
15,
9,
9,
7,
7,
2,
2,
3,
3,
8,
8,
8,
8,
2,
2,
4,
4,
0,
13,
13,
13,
5,
17,
16,
16,
16,
16,
6,
6,
5,
5,
14,
14,
14,
14,
6,
6,
0,
0,
8,
8,
14,
14,
14,
14,
13,
13,
6,
6,
12,
1,
2,
2,
2,
2,
2,
2,
9,
24,
24,
24,
32,
32,
23,
23,
16,
5,
6,
6,
6,
6,
1,
1,
0,
0,
3,
3,
8,
8,
12,
12,
14,
14,
15,
15,
11,
11,
2,
2,
6,
6,
6,
6,
9,
9,
7,
7,
0,
0,
2,
2,
11,
11,
21,
32,
30,
13,
13,
1,
2,
14,
14,
14,
12,
0,
1,
1,
0,
0,
6,
6,
14,
26,
26,
26,
23,
6,
6,
6,
6,
6,
14,
14,
17,
17,
9,
9,
5,
5,
7,
7,
10,
10,
6,
6,
7,
7,
1,
1,
2,
2,
8,
8,
9,
9,
13,
13,
10,
10,
5,
5,
1,
1,
4,
4,
2,
2,
9,
9,
17,
3,
9,
9,
7,
52,
52,
28,
56,
44,
44,
32,
33,
33,
36,
36,
38,
27,
28,
28,
22,
1,
2,
2,
12,
33,
32,
52,
50,
50,
56,
56,
49,
37,
37,
37,
28,
17,
17,
1,
4,
17,
16,
36,
36,
36,
42,
42,
40,
40,
35,
35,
31,
15,
16,
16,
18,
18,
9,
9,
10,
22,
21,
21,
24,
24,
22,
22,
20,
20,
17,
17,
14,
14,
10,
10,
1,
1,
6,
6,
8,
8,
9,
9,
8,
8,
12,
12,
10,
10,
1,
1,
8,
8,
2,
2,
1,
1,
4,
4,
0,
0,
4,
4,
10,
10,
10,
10,
14,
14,
15,
2,
3,
3,
-1,
-1,
1,
1,
6,
6,
5,
5,
9,
9,
6,
6,
5,
5,
8,
8,
6,
6,
9,
9,
6,
6,
1,
1,
4,
4,
5,
5,
3,
3,
8,
8,
6,
6,
2,
2,
5,
5,
10,
10,
3,
3,
6,
23,
22,
22,
19,
19,
17,
17,
14,
14,
14,
14,
9,
9,
6,
6,
14,
14,
24,
24,
27,
27,
20,
20,
23,
23,
17,
3,
3,
3,
4,
4,
13,
13,
22,
22,
14,
14,
10,
10,
12,
12,
3,
3,
4,
4,
3,
18,
18,
18,
25,
25,
18,
4,
5,
5,
3,
16,
15,
34,
34,
34,
39,
28,
28,
12,
13,
13,
8,
38,
37,
37,
18,
61,
60,
41,
59,
59,
63,
63,
64,
64,
63,
41,
41,
5,
5,
29,
29,
42,
42,
61,
61,
16,
17,
17,
24,
24,
27,
27,
25,
25,
18,
18,
11,
11,
3,
3,
5,
5,
12,
12,
18,
18,
17,
17,
20,
20,
15,
1,
1,
1,
9,
9,
12,
12,
7,
7,
6,
6,
14,
14,
6,
6,
1,
1,
1,
1,
8,
8,
14,
2,
3,
3,
11,
26,
26,
26,
26,
26,
18,
18,
9,
9,
4,
4,
0,
0,
3,
3,
6,
6,
8,
8,
12,
12,
10,
10,
8,
8,
7,
7,
2,
2,
0,
0,
10,
10,
18,
18,
12,
12,
5,
5,
2,
2,
0,
0,
3,
3,
4,
4,
0,
0,
0,
0,
1,
1,
1,
1,
0,
0,
-1,
-1,
4,
4,
10,
10,
14,
14,
18,
18,
21,
21,
20,
20,
13,
0,
2,
14,
14,
30,
30,
42,
41,
41,
33,
13,
13,
2,
2,
2,
9,
9,
9,
9,
9,
9,
3,
3,
9,
9,
14,
1,
3,
18,
18,
18,
24,
24,
22,
22,
24,
24,
20,
6,
7,
7,
13,
30,
30,
53,
52,
65,
64,
49,
50,
7,
7,
26,
26,
45,
44,
44,
45,
45,
36,
36,
28,
9,
9,
9,
11,
24,
24,
24,
28,
17,
17,
1,
2,
2,
10,
10,
13,
13,
12,
12,
14,
14,
8,
8,
0,
0,
1,
1,
5,
5,
9,
9,
9,
9,
13,
13,
18,
18,
24,
24,
22,
22,
14,
14,
10,
10,
2,
2,
0,
14,
14,
25,
24,
24,
24,
24,
24,
24,
24,
24,
16,
16,
6,
6,
-1,
-1,
3,
3,
9,
9,
14,
14,
17,
17,
12,
12,
9,
9,
4,
4,
0,
0,
4,
4,
8,
8,
5,
5,
1,
1,
0,
0,
7,
7,
7,
7,
0,
0,
5,
5,
10,
10,
10,
10,
4,
4,
13,
13,
17,
30,
30,
30,
30,
30,
22,
3,
4,
15,
14,
14,
20,
20,
24,
24,
26,
26,
29,
29,
27,
27,
20,
20,
11,
11,
4,
4,
12,
12,
14,
14,
10,
10,
9,
9,
14,
14,
15,
15,
13,
13,
16,
16,
13,
13,
11,
11,
12,
12,
13,
13,
9,
9,
8,
22,
21,
21,
23,
23,
18,
18,
13,
13,
13,
13,
10,
10,
5,
5,
6,
6,
2,
18,
17,
33,
32,
32,
36,
19,
20,
1,
3,
19,
18,
18,
24,
24,
20,
20,
14,
14,
9,
9,
5,
5,
3,
3,
1,
1,
5,
5,
7,
7,
11,
11,
15,
15,
14,
14,
6,
6,
1,
1,
1,
1,
0,
0,
-1,
-1,
0,
0,
3,
3,
1,
1,
0,
0,
3,
3,
2,
2,
0,
0,
-1,
-1,
1,
1,
5,
5,
0,
0,
1,
1,
5,
5,
3,
3,
6,
6,
5,
5,
1,
1,
5,
5,
4,
4,
5,
5,
14,
28,
26,
26,
31,
14,
14,
14,
15,
15,
22,
22,
22,
22,
26,
26,
23,
23,
17,
17,
13,
13,
12,
12,
13,
13,
7,
7,
5,
5,
14,
14,
17,
17,
17,
17,
16,
16,
10,
10,
7,
7,
14,
14,
20,
20,
11,
11,
5,
5,
6,
6,
0,
0,
5,
5,
9,
9,
15,
15,
18,
18,
12,
1,
2,
2,
1,
14,
13,
13,
19,
6,
7,
7,
2,
2,
5,
5,
9,
9,
15,
15,
12,
12,
5,
5,
5,
5,
14,
14,
12,
12,
8,
8,
3,
3,
4,
4,
12,
12,
12,
12,
10,
10,
6,
6,
0,
0,
2,
13,
13,
13,
22,
22,
18,
7,
7,
7,
2,
2,
2,
2,
9,
9,
18,
18,
14,
14,
7,
7,
10,
22,
21,
8,
8,
8,
5,
5,
13,
13,
6,
6,
-1,
-1,
2,
2,
6,
6,
5,
5,
11,
11,
6,
6,
13,
13,
17,
17,
10,
10,
7,
7,
17,
17,
14,
1,
1,
1,
10,
10,
13,
13,
10,
10,
9,
9,
9,
9,
8,
8,
4,
4,
6,
6,
14,
14,
23,
23,
26,
26,
22,
22,
14,
14,
7,
7,
0,
12,
12,
12,
17,
17,
8,
8,
0,
0,
5,
5,
13,
13,
9,
9,
1,
1,
0,
0,
2,
2,
3,
3,
9,
9,
6,
6,
6,
6,
4,
4,
6,
6,
5,
5,
3,
17,
16,
16,
25,
25,
24,
24,
21,
6,
6,
6,
9,
9,
15,
15,
20,
20,
25,
25,
21,
21,
14,
14,
5,
5,
2,
2,
9,
9,
12,
12,
4,
15,
14,
14,
23,
23,
30,
30,
30,
30,
30,
30,
26,
2,
3,
3,
13,
13,
18,
18,
21,
21,
18,
18,
12,
12,
5,
5,
1,
1,
6,
6,
5,
5,
5,
5,
10,
10,
14,
14,
8,
8,
2,
22,
21,
34,
33,
33,
29,
29,
22,
6,
7,
7,
9,
9,
15,
15,
12,
12,
6,
6,
5,
5,
12,
12,
17,
17,
19,
19,
18,
18,
11,
11,
8,
8,
3,
3,
1,
1,
10,
28,
28,
41,
41,
41,
44,
27,
28,
17,
18,
18,
14,
14,
5,
5,
0,
0,
10,
33,
32,
32,
42,
42,
36,
25,
26,
26,
20,
20,
14,
1,
2,
22,
21,
32,
32,
32,
31,
31,
36,
21,
22,
9,
10,
10,
4,
15,
14,
14,
22,
22,
23,
23,
23,
12,
13,
1,
5,
5,
14,
14,
12,
12,
8,
8,
0,
0,
2,
2,
-1,
-1,
1,
1,
7,
7,
14,
14,
6,
6,
1,
1,
-1,
-1,
0,
0,
3,
3,
7,
7,
8,
8,
11,
11,
19,
19,
26,
10,
11,
11,
9,
9,
18,
18,
17,
17,
18,
18,
20,
20,
21,
21,
23,
23,
30,
30,
23,
5,
5,
5,
7,
19,
18,
18,
24,
24,
30,
42,
41,
41,
40,
29,
30,
14,
14,
1,
2,
2,
12,
12,
14,
14,
13,
13,
15,
15,
16,
16,
14,
14,
16,
16,
17,
17,
13,
13,
9,
9,
9,
9,
0,
0,
5,
5,
13,
13,
14,
14,
6,
6,
2,
2,
3,
3,
2,
2,
0,
0,
4,
4,
3,
3,
0,
0,
0,
0,
4,
4,
2,
2,
8,
8,
5,
5,
3,
3,
5,
5,
10,
10,
5,
5,
5,
5,
10,
10,
11,
11,
2,
2,
0,
0,
1,
1,
0,
0,
3,
3,
2,
2,
2,
13,
12,
12,
19,
30,
29,
29,
22,
2,
2,
2,
12,
12,
16,
16,
18,
18,
20,
20,
18,
18,
15,
15,
13,
13,
3,
3,
6,
6,
11,
11,
16,
16,
14,
14,
8,
8,
-1,
-1,
6,
6,
4,
4,
2,
2,
0,
0,
1,
1,
6,
6,
10,
10,
14,
14,
18,
18,
25,
14,
14,
1,
2,
20,
19,
36,
36,
47,
46,
46,
42,
22,
22,
2,
4,
26,
25,
39,
38,
38,
46,
33,
33,
10,
10,
10,
1,
1,
5,
5,
10,
10,
1,
1,
2,
2,
6,
6,
4,
4,
1,
14,
13,
13,
15,
15,
7,
7,
12,
12,
2,
2,
1,
19,
18,
7,
8,
8,
4,
4,
5,
5,
9,
9,
8,
8,
5,
5,
1,
58,
57,
32,
57,
57,
55,
44,
45,
33,
34,
22,
22,
6,
6,
6,
4,
4,
2,
2,
1,
1,
8,
8,
11,
11,
8,
8,
6,
6,
14,
26,
25,
25,
30,
17,
17,
1,
1,
1,
5,
5,
8,
8,
6,
6,
4,
4,
3,
3,
6,
6,
6,
6,
1,
1,
4,
4,
2,
2,
12,
12,
14,
14,
11,
11,
14,
14,
14,
14,
8,
8,
4,
17,
16,
16,
20,
20,
18,
18,
13,
2,
3,
3,
1,
1,
1,
1,
5,
5,
-1,
-1,
6,
6,
12,
12,
17,
17,
16,
16,
13,
0,
1,
1,
6,
6,
8,
8,
8,
8,
0,
0,
5,
5,
5,
5,
4,
23,
22,
22,
29,
29,
20,
20,
13,
1,
2,
16,
16,
40,
40,
61,
59,
47,
48,
28,
28,
28,
18,
3,
8,
29,
29,
41,
40,
40,
42,
42,
45,
45,
35,
16,
16,
1,
1,
1,
5,
5,
6,
6,
15,
15,
22,
22,
22,
22,
20,
20,
14,
14,
6,
6,
2,
2,
2,
2,
0,
0,
4,
4,
9,
9,
12,
12,
9,
9,
