EMG_S2/DS0056.CSV

Memory Length,4000,
Trigger Level,-4.80000e+02,
Source,CH1,
Probe,1.0X,
Vertical Units,V,
Vertical Scale,1.00000e+00,
Vertical Position,0.00000e+00,
Horizontal Units,S,
Horizontal Scale,1.00000e-01,
Horizontal Position,0.0000000e+00,
Horizontal Mode,Roll Mode,
Waveform Last Dot Address,4000,
Sampling Period,4.00000e-04,
Firmware,V1.14,
Time, ,
Mode,Fast,
Waveform Data,
2,
2,
0,
0,
0,
0,
2,
2,
6,
6,
10,
10,
10,
10,
3,
3,
3,
3,
4,
4,
1,
1,
5,
5,
3,
3,
0,
0,
0,
0,
0,
0,
3,
3,
8,
8,
3,
3,
2,
2,
2,
2,
0,
0,
2,
2,
2,
2,
2,
2,
0,
0,
4,
4,
2,
2,
-1,
-1,
1,
1,
2,
2,
-1,
-1,
1,
1,
3,
3,
5,
5,
6,
6,
2,
2,
2,
2,
6,
6,
8,
8,
6,
6,
9,
9,
6,
6,
2,
2,
0,
0,
1,
1,
-1,
-1,
2,
2,
1,
1,
-1,
-1,
2,
2,
10,
10,
16,
16,
17,
6,
6,
6,
7,
23,
21,
21,
30,
30,
25,
7,
7,
7,
12,
25,
24,
24,
23,
23,
14,
1,
2,
2,
9,
9,
17,
17,
17,
17,
10,
10,
2,
2,
8,
8,
6,
6,
10,
10,
6,
6,
0,
0,
0,
0,
1,
1,
1,
1,
0,
0,
1,
1,
0,
0,
-1,
-1,
1,
1,
4,
4,
6,
6,
6,
6,
4,
4,
1,
1,
1,
1,
1,
1,
1,
1,
1,
1,
1,
1,
2,
2,
1,
1,
0,
0,
0,
0,
3,
3,
6,
6,
1,
1,
2,
2,
2,
2,
2,
2,
1,
1,
2,
2,
1,
1,
2,
2,
5,
5,
0,
0,
-1,
-1,
-1,
-1,
0,
0,
7,
7,
7,
7,
4,
4,
2,
2,
8,
8,
11,
11,
17,
17,
18,
18,
11,
11,
6,
6,
1,
1,
2,
2,
4,
4,
11,
11,
16,
16,
18,
18,
16,
16,
13,
2,
4,
4,
1,
1,
0,
0,
0,
0,
1,
1,
0,
0,
2,
2,
8,
8,
14,
14,
14,
2,
2,
2,
2,
2,
9,
9,
7,
7,
8,
8,
2,
2,
1,
1,
4,
4,
4,
4,
3,
3,
5,
5,
13,
13,
15,
15,
13,
13,
7,
7,
14,
28,
28,
28,
30,
30,
24,
11,
12,
1,
6,
17,
17,
17,
22,
22,
24,
24,
22,
22,
15,
4,
4,
4,
1,
1,
6,
6,
5,
5,
1,
1,
2,
2,
8,
8,
9,
9,
6,
6,
9,
9,
7,
7,
4,
4,
10,
10,
14,
14,
12,
12,
9,
9,
3,
3,
2,
2,
4,
4,
7,
7,
9,
9,
7,
7,
7,
7,
10,
10,
12,
12,
5,
5,
0,
0,
0,
0,
0,
0,
-1,
-1,
0,
0,
5,
5,
2,
2,
2,
13,
13,
13,
15,
15,
14,
14,
9,
9,
4,
4,
1,
1,
0,
0,
0,
0,
7,
18,
17,
17,
19,
19,
13,
13,
6,
6,
3,
14,
14,
14,
21,
21,
19,
19,
13,
13,
8,
8,
5,
5,
2,
2,
4,
4,
10,
10,
16,
16,
22,
22,
18,
18,
15,
15,
6,
6,
4,
4,
8,
8,
8,
8,
10,
10,
9,
9,
3,
3,
4,
4,
6,
6,
6,
6,
5,
5,
4,
4,
0,
0,
0,
0,
6,
6,
11,
11,
17,
17,
18,
18,
8,
8,
7,
24,
23,
23,
31,
31,
30,
30,
24,
12,
12,
0,
1,
1,
7,
7,
6,
6,
6,
6,
4,
4,
0,
0,
0,
0,
6,
6,
7,
7,
4,
4,
12,
40,
39,
58,
57,
57,
58,
44,
45,
5,
6,
26,
26,
26,
35,
35,
37,
37,
32,
32,
28,
28,
23,
23,
21,
21,
18,
18,
16,
16,
7,
7,
8,
24,
24,
24,
25,
14,
15,
15,
11,
11,
7,
7,
5,
5,
0,
0,
6,
6,
14,
14,
20,
20,
17,
17,
11,
11,
2,
2,
1,
1,
4,
4,
9,
9,
5,
5,
8,
8,
8,
8,
6,
6,
1,
1,
2,
2,
10,
10,
6,
6,
8,
22,
22,
22,
31,
31,
31,
31,
30,
13,
13,
1,
6,
6,
12,
12,
20,
20,
26,
26,
26,
26,
26,
26,
27,
27,
21,
6,
6,
6,
1,
13,
12,
29,
28,
28,
32,
32,
24,
24,
14,
2,
3,
3,
-1,
-1,
2,
2,
3,
3,
5,
5,
8,
8,
16,
16,
17,
17,
10,
10,
6,
6,
2,
2,
0,
0,
6,
6,
8,
8,
5,
5,
1,
1,
1,
1,
5,
5,
8,
8,
9,
9,
6,
6,
11,
11,
14,
14,
10,
10,
5,
5,
4,
4,
6,
6,
6,
6,
9,
9,
14,
14,
15,
15,
12,
12,
4,
4,
-1,
-1,
6,
20,
18,
18,
20,
6,
7,
7,
1,
1,
6,
6,
7,
7,
2,
2,
3,
3,
8,
8,
6,
6,
0,
0,
4,
4,
4,
4,
5,
5,
5,
5,
5,
5,
5,
5,
6,
6,
6,
6,
2,
2,
0,
0,
4,
4,
6,
6,
6,
6,
6,
6,
8,
8,
8,
8,
9,
9,
7,
7,
3,
3,
0,
0,
5,
5,
9,
9,
3,
3,
-1,
-1,
5,
5,
6,
6,
4,
4,
1,
1,
3,
3,
1,
1,
-1,
-1,
0,
0,
0,
0,
2,
2,
4,
4,
2,
2,
0,
0,
0,
0,
5,
5,
5,
5,
0,
0,
2,
2,
5,
5,
8,
8,
9,
9,
5,
5,
2,
2,
1,
1,
2,
2,
1,
1,
3,
3,
4,
4,
5,
5,
3,
3,
4,
4,
1,
1,
4,
4,
9,
9,
6,
6,
2,
2,
1,
1,
0,
0,
2,
2,
1,
1,
5,
5,
1,
12,
12,
23,
22,
22,
27,
14,
15,
0,
1,
1,
9,
9,
16,
28,
28,
28,
24,
24,
16,
16,
12,
1,
3,
3,
12,
12,
15,
15,
12,
12,
10,
10,
9,
9,
2,
2,
2,
2,
6,
6,
1,
1,
0,
0,
0,
0,
2,
2,
3,
3,
1,
1,
2,
2,
3,
3,
3,
3,
0,
0,
0,
0,
6,
6,
8,
8,
6,
6,
1,
1,
4,
4,
8,
8,
8,
8,
6,
6,
2,
17,
17,
29,
29,
29,
22,
10,
10,
10,
5,
18,
17,
17,
22,
22,
17,
17,
13,
13,
9,
9,
4,
4,
1,
1,
1,
1,
0,
0,
1,
1,
0,
0,
2,
2,
0,
0,
2,
2,
9,
9,
9,
9,
8,
8,
12,
12,
15,
15,
9,
9,
2,
2,
2,
2,
9,
9,
10,
10,
13,
13,
9,
9,
4,
4,
-1,
-1,
2,
2,
6,
6,
15,
15,
21,
21,
25,
25,
18,
2,
5,
17,
16,
16,
21,
21,
23,
23,
22,
22,
14,
14,
6,
6,
3,
3,
0,
0,
4,
4,
6,
6,
5,
5,
0,
0,
4,
4,
13,
13,
13,
13,
11,
11,
10,
10,
9,
9,
5,
5,
1,
1,
2,
2,
10,
10,
13,
13,
14,
14,
10,
10,
2,
2,
10,
10,
13,
13,
10,
10,
5,
5,
0,
0,
6,
19,
18,
18,
23,
23,
24,
4,
5,
25,
24,
39,
39,
39,
39,
28,
29,
15,
16,
1,
1,
15,
14,
14,
22,
22,
25,
25,
24,
24,
20,
20,
16,
16,
12,
12,
6,
6,
0,
0,
5,
5,
8,
8,
11,
11,
10,
10,
2,
2,
1,
1,
2,
2,
6,
6,
7,
7,
12,
12,
18,
18,
22,
22,
23,
23,
15,
15,
7,
7,
2,
14,
14,
14,
23,
23,
30,
30,
28,
28,
18,
18,
13,
13,
4,
4,
6,
6,
9,
9,
5,
5,
2,
2,
0,
0,
4,
4,
6,
6,
9,
9,
10,
10,
10,
10,
9,
9,
12,
12,
18,
18,
17,
1,
3,
16,
15,
29,
28,
28,
30,
30,
28,
28,
20,
7,
8,
8,
2,
14,
14,
14,
18,
18,
17,
17,
12,
12,
7,
7,
6,
6,
7,
7,
8,
8,
6,
6,
0,
0,
4,
4,
5,
5,
6,
6,
4,
4,
1,
1,
1,
1,
5,
5,
8,
8,
6,
6,
2,
2,
3,
3,
6,
6,
4,
4,
2,
2,
6,
6,
7,
7,
8,
8,
5,
5,
5,
20,
19,
19,
27,
27,
23,
9,
10,
10,
4,
4,
2,
2,
0,
0,
0,
0,
1,
1,
10,
10,
15,
15,
17,
17,
13,
13,
9,
9,
9,
9,
8,
8,
1,
1,
-1,
-1,
0,
0,
-1,
-1,
2,
2,
3,
3,
1,
1,
4,
4,
10,
10,
15,
15,
18,
18,
17,
17,
10,
10,
3,
3,
1,
1,
2,
2,
0,
0,
7,
7,
8,
8,
0,
0,
4,
4,
4,
4,
0,
0,
8,
8,
18,
18,
25,
25,
26,
26,
24,
13,
14,
1,
2,
2,
11,
25,
25,
25,
29,
29,
25,
25,
15,
15,
7,
7,
1,
1,
6,
6,
5,
5,
1,
1,
2,
2,
3,
3,
4,
4,
3,
3,
3,
3,
3,
3,
7,
7,
10,
10,
13,
13,
10,
10,
2,
2,
2,
2,
6,
6,
8,
8,
12,
12,
12,
12,
10,
10,
5,
5,
0,
0,
1,
1,
2,
2,
1,
1,
0,
0,
0,
0,
5,
5,
9,
9,
9,
9,
13,
13,
22,
22,
23,
23,
14,
1,
2,
2,
9,
9,
16,
16,
18,
18,
15,
15,
9,
9,
10,
10,
16,
16,
10,
10,
1,
14,
13,
13,
17,
17,
11,
11,
7,
7,
3,
3,
1,
1,
0,
0,
2,
2,
1,
1,
-1,
-1,
1,
1,
-1,
-1,
-1,
-1,
-1,
-1,
2,
2,
2,
2,
-1,
-1,
3,
3,
6,
6,
6,
6,
1,
1,
1,
1,
5,
5,
6,
6,
10,
10,
10,
10,
3,
3,
-1,
-1,
0,
0,
2,
2,
6,
6,
6,
6,
5,
5,
3,
3,
6,
6,
5,
5,
5,
5,
4,
4,
2,
2,
4,
4,
2,
2,
6,
6,
9,
9,
7,
7,
5,
5,
2,
2,
1,
1,
1,
1,
3,
3,
2,
2,
2,
2,
1,
1,
1,
1,
2,
2,
5,
5,
3,
3,
4,
4,
10,
10,
11,
11,
1,
1,
1,
1,
-1,
-1,
2,
2,
1,
1,
3,
3,
5,
5,
3,
3,
1,
1,
-1,
-1,
-1,
-1,
-1,
-1,
0,
0,
2,
2,
2,
2,
2,
2,
-1,
-1,
3,
3,
11,
11,
15,
15,
18,
18,
18,
18,
14,
1,
2,
2,
9,
9,
17,
17,
22,
22,
18,
18,
16,
16,
13,
13,
6,
6,
7,
7,
1,
1,
6,
6,
8,
8,
11,
11,
11,
11,
10,
10,
4,
4,
0,
0,
0,
0,
1,
1,
6,
6,
6,
6,
5,
5,
2,
2,
-1,
-1,
3,
3,
2,
2,
2,
2,
2,
2,
2,
2,
0,
0,
0,
0,
0,
0,
0,
0,
1,
1,
4,
4,
9,
9,
6,
6,
0,
0,
3,
3,
2,
2,
6,
6,
16,
16,
26,
26,
20,
20,
10,
10,
2,
2,
1,
1,
6,
6,
6,
6,
6,
6,
6,
6,
15,
15,
18,
18,
18,
18,
16,
16,
14,
14,
5,
5,
2,
2,
7,
7,
9,
9,
12,
12,
15,
15,
18,
18,
18,
18,
13,
13,
6,
6,
1,
1,
4,
4,
9,
9,
11,
11,
4,
4,
6,
6,
13,
13,
13,
13,
10,
10,
2,
2,
5,
5,
14,
14,
16,
16,
14,
14,
8,
8,
5,
5,
7,
7,
10,
10,
11,
11,
6,
6,
5,
18,
17,
17,
26,
26,
28,
28,
20,
8,
9,
9,
1,
1,
9,
9,
8,
8,
1,
1,
2,
2,
6,
6,
5,
5,
1,
1,
1,
1,
1,
1,
8,
8,
14,
14,
20,
20,
18,
18,
13,
13,
4,
4,
0,
0,
-1,
-1,
-1,
-1,
1,
1,
6,
6,
14,
14,
19,
19,
18,
18,
15,
15,
11,
11,
1,
1,
3,
3,
6,
6,
0,
0,
9,
9,
12,
12,
14,
14,
10,
10,
5,
5,
14,
14,
19,
19,
20,
20,
14,
14,
6,
6,
1,
1,
-1,
-1,
6,
6,
6,
6,
4,
4,
1,
1,
6,
6,
9,
9,
7,
7,
0,
0,
1,
1,
1,
1,
1,
1,
4,
4,
10,
10,
13,
13,
11,
11,
1,
1,
2,
2,
4,
4,
6,
6,
6,
6,
3,
3,
0,
0,
4,
4,
6,
6,
10,
10,
13,
13,
8,
8,
2,
2,
3,
3,
0,
0,
4,
4,
12,
12,
15,
15,
16,
16,
13,
13,
8,
8,
7,
7,
6,
6,
1,
1,
6,
6,
16,
16,
16,
16,
8,
8,
4,
4,
1,
1,
0,
0,
-1,
-1,
6,
6,
12,
12,
9,
9,
6,
6,
5,
5,
2,
2,
8,
8,
10,
10,
9,
9,
5,
5,
2,
2,
6,
6,
1,
1,
2,
2,
-1,
-1,
-1,
-1,
-1,
-1,
2,
2,
2,
2,
5,
5,
9,
9,
9,
9,
0,
0,
9,
9,
15,
15,
17,
17,
17,
17,
14,
14,
5,
5,
2,
2,
7,
7,
13,
13,
19,
19,
18,
5,
6,
6,
2,
2,
6,
6,
8,
8,
10,
10,
12,
12,
8,
8,
3,
3,
5,
5,
4,
4,
4,
4,
4,
4,
3,
3,
1,
1,
4,
4,
2,
2,
1,
1,
1,
1,
3,
3,
1,
1,
2,
2,
4,
4,
2,
2,
0,
0,
0,
0,
1,
1,
1,
1,
-1,
-1,
2,
2,
-1,
-1,
-1,
-1,
1,
1,
2,
2,
5,
5,
5,
5,
2,
2,
4,
4,
5,
5,
14,
25,
25,
25,
28,
17,
18,
2,
3,
16,
15,
15,
18,
18,
11,
11,
10,
10,
17,
17,
25,
25,
26,
26,
18,
1,
2,
13,
12,
12,
13,
13,
6,
6,
1,
1,
2,
2,
0,
0,
2,
2,
9,
9,
12,
12,
18,
18,
17,
17,
15,
15,
7,
7,
0,
0,
2,
2,
2,
2,
2,
2,
0,
0,
-1,
-1,
0,
0,
1,
1,
6,
6,
15,
15,
16,
16,
8,
8,
4,
4,
4,
4,
12,
12,
9,
9,
8,
8,
6,
6,
1,
1,
-1,
-1,
0,
0,
-1,
-1,
4,
4,
2,
2,
1,
1,
0,
0,
0,
0,
3,
3,
2,
2,
0,
0,
0,
0,
0,
0,
5,
5,
3,
3,
3,
3,
2,
2,
-1,
-1,
5,
5,
14,
14,
20,
20,
20,
20,
12,
12,
11,
11,
2,
2,
8,
8,
6,
6,
0,
0,
6,
6,
9,
9,
5,
5,
8,
19,
19,
19,
23,
23,
21,
21,
21,
21,
23,
23,
20,
20,
14,
1,
2,
2,
7,
19,
19,
30,
29,
29,
30,
30,
26,
26,
19,
19,
14,
14,
11,
11,
7,
7,
5,
5,
13,
13,
18,
18,
21,
21,
13,
0,
2,
2,
10,
10,
11,
11,
6,
6,
1,
1,
3,
3,
2,
2,
2,
2,
1,
1,
5,
5,
10,
10,
5,
5,
10,
28,
28,
28,
35,
35,
32,
21,
21,
9,
10,
10,
9,
29,
29,
29,
26,
26,
18,
18,
14,
14,
21,
21,
30,
30,
25,
11,
12,
1,
3,
16,
16,
28,
28,
28,
28,
28,
24,
24,
25,
25,
22,
10,
10,
10,
2,
2,
1,
15,
14,
25,
23,
23,
23,
23,
22,
22,
24,
24,
22,
9,
10,
10,
2,
2,
9,
9,
15,
15,
16,
16,
14,
14,
16,
16,
13,
13,
4,
4,
2,
14,
14,
14,
16,
16,
16,
16,
9,
9,
1,
1,
0,
0,
0,
0,
-1,
-1,
3,
3,
5,
5,
3,
3,
5,
5,
8,
8,
11,
11,
15,
15,
16,
16,
11,
11,
1,
15,
14,
25,
24,
24,
21,
21,
12,
12,
8,
8,
6,
6,
4,
4,
4,
4,
2,
2,
1,
1,
5,
5,
10,
10,
8,
8,
5,
5,
2,
2,
0,
0,
1,
1,
-1,
-1,
0,
0,
4,
4,
3,
3,
4,
4,
4,
4,
2,
2,
1,
1,
2,
2,
9,
9,
10,
10,
1,
1,
8,
8,
13,
13,
11,
11,
10,
10,
7,
7,
5,
5,
0,
0,
8,
19,
18,
37,
36,
36,
41,
26,
26,
4,
5,
5,
10,
23,
23,
23,
30,
30,
29,
29,
28,
28,
25,
25,
17,
17,
8,
8,
1,
1,
5,
5,
9,
9,
13,
13,
19,
19,
21,
21,
22,
22,
18,
6,
7,
7,
2,
2,
6,
6,
7,
7,
6,
6,
3,
3,
0,
0,
4,
4,
4,
4,
6,
6,
8,
8,
9,
9,
4,
4,
3,
3,
12,
12,
10,
10,
2,
2,
3,
3,
1,
1,
0,
0,
4,
4,
8,
8,
7,
7,
2,
2,
4,
4,
6,
6,
2,
2,
7,
7,
9,
9,
5,
5,
1,
1,
9,
9,
13,
13,
16,
16,
9,
9,
2,
2,
8,
8,
10,
10,
7,
7,
0,
0,
3,
3,
6,
6,
6,
6,
5,
5,
6,
6,
8,
8,
4,
4,
1,
1,
5,
5,
8,
8,
5,
5,
1,
1,
5,
5,
11,
11,
13,
13,
18,
18,
21,
21,
18,
18,
10,
10,
1,
1,
10,
23,
23,
23,
28,
28,
23,
23,
14,
14,
4,
4,
-1,
-1,
2,
2,
6,
6,
8,
8,
9,
9,
8,
8,
6,
6,
3,
3,
3,
3,
2,
2,
1,
1,
0,
0,
1,
1,
6,
6,
9,
9,
10,
10,
11,
11,
10,
10,
6,
6,
2,
2,
1,
1,
8,
8,
12,
12,
13,
13,
12,
12,
12,
12,
10,
10,
1,
1,
8,
8,
14,
14,
18,
18,
20,
20,
21,
21,
21,
21,
14,
1,
2,
2,
10,
10,
18,
18,
23,
23,
21,
21,
12,
12,
5,
5,
4,
4,
1,
1,
0,
0,
0,
0,
4,
4,
4,
4,
3,
3,
3,
14,
14,
27,
26,
26,
28,
13,
13,
1,
2,
2,
11,
11,
6,
6,
8,
24,
24,
24,
18,
1,
3,
18,
17,
17,
21,
21,
21,
21,
13,
13,
6,
6,
1,
1,
0,
0,
1,
1,
3,
3,
6,
6,
5,
5,
0,
0,
3,
3,
4,
4,
2,
2,
0,
0,
5,
5,
6,
6,
6,
6,
6,
6,
8,
8,
8,
8,
5,
5,
1,
1,
0,
0,
0,
0,
0,
0,
2,
2,
5,
5,
5,
5,
4,
4,
2,
2,
2,
2,
0,
0,
1,
1,
0,
0,
3,
3,
6,
6,
9,
9,
9,
9,
8,
8,
3,
3,
2,
2,
10,
10,
16,
16,
12,
12,
12,
12,
9,
9,
0,
0,
6,
6,
10,
10,
9,
9,
7,
7,
5,
5,
5,
5,
4,
4,
4,
4,
8,
8,
10,
10,
5,
5,
0,
0,
1,
1,
3,
3,
5,
5,
9,
9,
10,
10,
6,
6,
5,
5,
4,
4,
1,
1,
1,
1,
1,
1,
1,
1,
2,
2,
3,
3,
6,
6,
9,
9,
6,
6,
6,
6,
5,
5,
0,
0,
1,
1,
4,
4,
6,
6,
6,
6,
5,
5,
6,
6,
0,
0,
3,
3,
7,
7,
14,
14,
21,
21,
22,
22,
23,
23,
19,
6,
6,
6,
8,
23,
23,
23,
28,
28,
26,
26,
23,
23,
18,
18,
9,
9,
2,
2,
2,
2,
1,
1,
6,
6,
10,
10,
10,
10,
5,
5,
0,
0,
0,
0,
1,
1,
3,
3,
5,
5,
8,
8,
14,
14,
18,
18,
14,
14,
11,
11,
10,
10,
7,
7,
2,
13,
13,
13,
13,
13,
9,
9,
8,
8,
8,
8,
6,
6,
6,
6,
11,
11,
14,
14,
11,
11,
2,
2,
7,
7,
12,
12,
12,
12,
15,
15,
13,
13,
3,
3,
1,
1,
2,
2,
1,
1,
2,
2,
3,
3,
4,
4,
2,
2,
1,
1,
1,
1,
3,
3,
4,
4,
2,
2,
2,
2,
1,
1,
-1,
-1,
0,
0,
4,
4,
6,
6,
1,
1,
5,
5,
6,
6,
6,
6,
4,
4,
2,
2,
2,
2,
0,
0,
-1,
-1,
0,
0,
0,
0,
6,
6,
9,
9,
14,
14,
11,
11,
8,
8,
5,
5,
0,
11,
10,
10,
18,
18,
24,
24,
29,
29,
22,
22,
13,
13,
9,
9,
10,
10,
18,
18,
19,
19,
14,
14,
19,
19,
10,
10,
7,
7,
6,
6,
10,
10,
10,
10,
5,
5,
2,
2,
2,
2,
6,
6,
2,
2,
4,
4,
6,
6,
7,
7,
4,
4,
2,
2,
4,
4,
3,
3,
2,
2,
4,
4,
0,
0,
-1,
-1,
1,
1,
2,
2,
2,
2,
6,
6,
6,
6,
3,
3,
2,
2,
2,
2,
5,
5,
0,
0,
2,
2,
4,
4,
1,
1,
3,
3,
7,
7,
11,
11,
9,
9,
9,
9,
2,
2,
-1,
-1,
1,
1,
-1,
-1,
2,
2,
9,
9,
7,
7,
4,
4,
5,
19,
18,
18,
18,
18,
17,
6,
6,
6,
4,
4,
0,
0,
0,
0,
4,
4,
4,
4,
6,
6,
1,
1,
0,
0,
5,
5,
-1,
-1,
1,
1,
0,
0,
1,
12,
12,
25,
25,
25,
30,
30,
22,
9,
9,
9,
2,
2,
10,
10,
19,
19,
21,
21,
21,
21,
16,
16,
9,
9,
9,
9,
5,
5,
0,
0,
5,
5,
6,
6,
3,
3,
3,
3,
4,
4,
1,
1,
-1,
-1,
1,
1,
4,
4,
9,
9,
17,
17,
26,
26,
28,
28,
28,
28,
20,
9,
9,
9,
6,
24,
24,
24,
32,
32,
36,
36,
28,
28,
25,
13,
14,
14,
9,
9,
1,
1,
2,
2,
9,
9,
13,
13,
12,
12,
14,
14,
8,
8,
10,
10,
5,
5,
4,
4,
2,
2,
7,
7,
12,
12,
12,
12,
7,
7,
5,
5,
1,
1,
3,
3,
12,
12,
17,
17,
18,
18,
15,
15,
12,
12,
10,
10,
6,
6,
6,
6,
8,
8,
6,
6,
2,
13,
13,
28,
28,
28,
37,
37,
34,
34,
26,
26,
21,
21,
24,
24,
22,
8,
8,
8,
17,
34,
33,
33,
36,
36,
36,
36,
38,
13,
13,
13,
20,
20,
11,
11,
13,
13,
6,
6,
2,
2,
4,
4,
9,
9,
15,
15,
21,
21,
23,
23,
19,
19,
18,
18,
14,
14,
8,
8,
5,
5,
1,
1,
0,
0,
1,
1,
2,
2,
-1,
-1,
0,
0,
1,
1,
5,
5,
7,
7,
7,
7,
6,
6,
4,
4,
5,
5,
4,
4,
2,
2,
0,
0,
2,
2,
9,
9,
9,
9,
2,
2,
0,
0,
0,
0,
0,
0,
0,
0,
1,
1,
4,
4,
2,
2,
0,
0,
0,
0,
4,
4,
2,
2,
0,
0,
1,
1,
0,
0,
-1,
-1,
0,
0,
0,
0,
1,
1,
-1,
-1,
0,
0,
4,
4,
1,
1,
1,
1,
5,
5,
5,
5,
2,
2,
2,
2,
-1,
-1,
1,
1,
0,
0,
-1,
-1,
2,
2,
-1,
-1,
1,
1,
1,
1,
-1,
-1,
0,
0,
1,
1,
1,
1,
3,
3,
2,
2,
-1,
-1,
3,
3,
-1,
-1,
2,
2,
5,
5,
7,
7,
2,
2,
3,
3,
1,
1,
5,
5,
6,
6,
4,
4,
1,
1,
6,
6,
10,
10,
4,
4,
4,
4,
6,
6,
6,
6,
2,
2,
1,
1,
2,
2,
6,
6,
1,
1,
6,
6,
3,
3,
1,
1,
2,
2,
0,
0,
4,
4,
2,
2,
2,
2,
6,
6,
11,
11,
14,
14,
22,
22,
25,
6,
7,
7,
9,
9,
12,
12,
10,
10,
18,
18,
23,
23,
20,
8,
9,
9,
6,
6,
6,
6,
5,
5,
1,
1,
1,
1,
8,
8,
12,
12,
16,
16,
17,
17,
13,
13,
9,
9,
6,
6,
2,
2,
0,
0,
2,
2,
6,
6,
3,
3,
0,
0,
1,
1,
0,
0,
1,
1,
2,
2,
-1,
-1,
2,
2,
3,
3,
2,
2,
4,
4,
1,
1,
0,
0,
0,
0,
2,
2,
0,
0,
1,
1,
6,
6,
9,
9,
6,
6,
1,
1,
6,
6,
9,
9,
9,
9,
5,
5,
0,
0,
0,
0,
1,
1,
-2,
-2,
6,
6,
14,
14,
17,
17,
12,
12,
5,
5,
2,
2,
-1,
-1,
5,
5,
12,
12,
12,
12,
13,
13,
16,
16,
18,
18,
14,
2,
3,
16,
16,
34,
34,
34,
37,
25,
25,
8,
8,
8,
0,
0,
4,
4,
9,
9,
13,
13,
14,
14,
12,
12,
9,
9,
6,
6,
2,
2,
5,
5,
8,
8,
6,
6,
5,
5,
4,
4,
2,
2,
2,
2,
0,
0,
0,
0,
1,
1,
2,
2,
0,
0,
1,
1,
4,
4,
3,
3,
3,
3,
0,
0,
5,
5,
9,
9,
8,
8,
9,
9,
5,
5,
1,
1,
1,
1,
5,
5,
8,
8,
16,
16,
14,
14,
9,
9,
2,
2,
9,
9,
10,
10,
9,
9,
7,
7,
5,
5,
1,
1,
0,
0,
-1,
-1,
1,
1,
1,
1,
