EMG_S2/DS0044.CSV

Memory Length,4000,
Trigger Level,-4.80000e+02,
Source,CH1,
Probe,1.0X,
Vertical Units,V,
Vertical Scale,1.00000e+00,
Vertical Position,0.00000e+00,
Horizontal Units,S,
Horizontal Scale,1.00000e-01,
Horizontal Position,0.0000000e+00,
Horizontal Mode,Roll Mode,
Waveform Last Dot Address,4000,
Sampling Period,4.00000e-04,
Firmware,V1.14,
Time, ,
Mode,Fast,
Waveform Data,
2,
2,
-1,
-1,
1,
1,
5,
5,
6,
6,
7,
7,
6,
6,
-1,
-1,
4,
4,
8,
8,
9,
9,
4,
4,
0,
0,
3,
3,
5,
5,
6,
6,
9,
9,
8,
8,
7,
7,
2,
2,
4,
4,
10,
10,
14,
14,
8,
8,
1,
1,
6,
6,
1,
1,
5,
5,
6,
6,
5,
5,
3,
3,
2,
2,
-1,
-1,
6,
6,
8,
8,
8,
8,
9,
9,
6,
6,
4,
4,
0,
0,
2,
2,
6,
6,
9,
9,
9,
9,
9,
9,
8,
8,
5,
5,
1,
1,
0,
0,
2,
2,
3,
3,
5,
5,
6,
6,
9,
9,
11,
11,
9,
9,
2,
2,
5,
5,
14,
14,
21,
21,
25,
25,
17,
5,
6,
6,
0,
0,
2,
2,
8,
8,
17,
17,
24,
24,
25,
25,
15,
2,
3,
3,
4,
4,
9,
9,
13,
13,
10,
10,
6,
6,
8,
8,
9,
9,
14,
14,
17,
17,
12,
1,
2,
2,
8,
8,
17,
17,
17,
17,
8,
8,
5,
5,
5,
5,
2,
2,
1,
1,
5,
5,
7,
7,
8,
8,
4,
4,
5,
5,
10,
10,
10,
10,
9,
9,
7,
7,
2,
17,
16,
16,
22,
22,
24,
24,
21,
21,
12,
1,
3,
14,
13,
13,
17,
17,
16,
16,
8,
8,
0,
0,
1,
1,
0,
0,
-1,
-1,
4,
4,
6,
6,
9,
9,
7,
7,
6,
6,
2,
2,
1,
1,
5,
5,
10,
10,
12,
12,
9,
9,
6,
6,
0,
0,
4,
4,
4,
4,
0,
0,
0,
0,
2,
2,
4,
4,
5,
5,
2,
2,
5,
5,
6,
6,
5,
5,
6,
6,
2,
2,
1,
1,
0,
0,
1,
1,
1,
1,
1,
1,
2,
2,
4,
4,
5,
5,
4,
4,
3,
3,
1,
1,
0,
0,
-1,
-1,
1,
1,
1,
1,
-1,
-1,
2,
2,
4,
4,
3,
3,
1,
1,
0,
0,
1,
1,
2,
2,
2,
2,
2,
2,
3,
3,
0,
0,
-1,
-1,
1,
1,
2,
2,
4,
4,
4,
4,
2,
2,
0,
0,
-1,
-1,
0,
0,
0,
0,
0,
0,
0,
0,
-1,
-1,
0,
0,
1,
1,
4,
4,
3,
3,
4,
4,
4,
4,
0,
0,
3,
3,
5,
5,
1,
1,
1,
1,
0,
0,
3,
3,
7,
7,
5,
5,
3,
3,
3,
3,
6,
6,
9,
9,
10,
10,
6,
6,
1,
1,
5,
5,
9,
9,
9,
9,
9,
9,
10,
10,
9,
9,
7,
7,
5,
5,
0,
0,
1,
1,
3,
3,
3,
3,
4,
4,
1,
1,
5,
5,
8,
8,
7,
7,
4,
4,
0,
0,
0,
0,
2,
2,
6,
6,
7,
7,
6,
6,
6,
6,
4,
4,
4,
4,
12,
12,
15,
15,
13,
13,
8,
8,
5,
5,
0,
0,
4,
4,
9,
9,
15,
15,
18,
18,
14,
1,
1,
1,
5,
5,
11,
11,
9,
9,
2,
2,
2,
2,
5,
5,
7,
7,
5,
5,
1,
1,
6,
6,
9,
9,
8,
8,
3,
3,
2,
2,
0,
0,
0,
0,
0,
0,
0,
0,
0,
0,
-1,
-1,
1,
1,
3,
3,
6,
6,
8,
8,
9,
9,
8,
8,
5,
5,
1,
1,
0,
0,
1,
1,
0,
0,
1,
1,
1,
1,
2,
2,
3,
3,
2,
2,
1,
1,
3,
3,
1,
1,
0,
0,
1,
1,
2,
2,
2,
2,
-1,
-1,
-1,
-1,
-1,
-1,
-1,
-1,
-1,
-1,
-1,
-1,
-1,
-1,
-1,
-1,
2,
2,
0,
0,
2,
2,
3,
3,
13,
13,
9,
9,
7,
7,
3,
3,
5,
5,
7,
7,
6,
6,
2,
2,
0,
0,
2,
2,
2,
2,
4,
4,
7,
7,
7,
7,
7,
7,
8,
8,
7,
7,
7,
7,
2,
2,
2,
2,
1,
1,
0,
0,
-1,
-1,
1,
1,
1,
1,
2,
2,
1,
1,
2,
2,
1,
1,
-1,
-1,
3,
3,
1,
1,
0,
0,
1,
1,
1,
1,
0,
0,
0,
0,
3,
3,
2,
2,
2,
2,
0,
0,
-1,
-1,
2,
2,
5,
5,
-1,
-1,
6,
6,
9,
9,
10,
10,
8,
8,
3,
3,
0,
0,
5,
5,
10,
10,
3,
3,
4,
4,
7,
7,
3,
3,
2,
2,
1,
1,
0,
0,
2,
2,
1,
1,
1,
1,
3,
3,
0,
0,
4,
4,
4,
4,
3,
3,
4,
4,
2,
2,
2,
2,
0,
0,
1,
1,
2,
2,
3,
3,
4,
4,
5,
5,
5,
5,
5,
5,
2,
2,
3,
3,
1,
1,
0,
0,
1,
1,
-1,
-1,
3,
3,
4,
4,
7,
7,
10,
10,
12,
12,
10,
10,
5,
5,
1,
14,
14,
28,
28,
28,
33,
33,
35,
35,
25,
10,
10,
10,
3,
15,
14,
26,
25,
25,
29,
29,
29,
29,
25,
25,
18,
18,
13,
13,
7,
7,
4,
4,
12,
12,
18,
18,
16,
16,
17,
17,
15,
15,
13,
13,
8,
8,
7,
7,
3,
3,
5,
5,
10,
10,
9,
9,
10,
10,
8,
8,
2,
2,
2,
2,
2,
2,
2,
2,
3,
3,
2,
2,
2,
2,
2,
2,
2,
2,
0,
0,
-2,
-2,
0,
0,
-1,
-1,
-1,
-1,
-1,
-1,
1,
1,
1,
1,
0,
0,
2,
2,
1,
1,
-2,
-2,
4,
4,
11,
11,
10,
10,
6,
6,
-1,
-1,
6,
6,
14,
14,
16,
16,
11,
11,
3,
3,
0,
0,
5,
5,
6,
6,
5,
5,
1,
1,
2,
2,
2,
2,
3,
3,
2,
2,
4,
4,
6,
6,
8,
8,
4,
4,
2,
14,
14,
14,
18,
18,
17,
17,
12,
12,
8,
8,
4,
4,
1,
1,
5,
5,
6,
6,
8,
8,
8,
8,
8,
8,
6,
6,
1,
1,
1,
1,
1,
1,
-1,
-1,
1,
1,
-1,
-1,
-1,
-1,
-1,
-1,
0,
0,
3,
3,
8,
8,
8,
8,
6,
6,
2,
2,
0,
0,
2,
2,
1,
1,
2,
2,
4,
4,
2,
2,
1,
1,
6,
6,
6,
6,
5,
5,
5,
5,
0,
0,
3,
3,
4,
4,
8,
8,
15,
15,
21,
21,
13,
1,
2,
15,
15,
15,
25,
25,
34,
34,
41,
41,
36,
12,
12,
12,
13,
27,
26,
26,
30,
30,
29,
29,
25,
25,
17,
17,
10,
10,
4,
4,
1,
1,
0,
0,
-1,
-1,
3,
3,
7,
7,
13,
13,
13,
13,
11,
11,
10,
10,
9,
9,
9,
9,
7,
7,
4,
4,
0,
0,
1,
1,
3,
3,
5,
5,
3,
3,
0,
0,
2,
2,
3,
3,
1,
1,
1,
1,
3,
3,
8,
8,
12,
12,
3,
3,
10,
10,
17,
17,
15,
15,
14,
14,
10,
10,
2,
2,
11,
11,
17,
17,
20,
20,
18,
18,
14,
14,
9,
9,
5,
5,
0,
0,
3,
3,
6,
6,
9,
9,
10,
10,
10,
10,
11,
11,
9,
9,
6,
6,
6,
6,
5,
5,
4,
4,
2,
2,
-1,
-1,
0,
0,
-1,
-1,
1,
1,
3,
3,
4,
4,
6,
6,
6,
6,
2,
2,
0,
0,
0,
0,
2,
2,
1,
1,
1,
1,
1,
1,
4,
4,
4,
4,
2,
2,
1,
1,
1,
1,
1,
1,
0,
0,
2,
2,
5,
5,
5,
5,
2,
2,
3,
3,
10,
10,
12,
12,
11,
11,
6,
6,
1,
1,
7,
7,
10,
10,
6,
6,
1,
1,
0,
0,
-1,
-1,
2,
2,
4,
4,
0,
0,
2,
2,
6,
6,
8,
8,
13,
13,
14,
14,
11,
0,
1,
1,
7,
7,
14,
14,
19,
19,
17,
17,
10,
-1,
0,
0,
3,
3,
3,
3,
7,
7,
8,
8,
8,
8,
10,
10,
14,
14,
19,
19,
13,
0,
2,
2,
8,
8,
14,
14,
16,
16,
12,
12,
6,
6,
6,
6,
1,
1,
2,
2,
0,
0,
0,
0,
0,
0,
-1,
-1,
1,
1,
1,
1,
1,
1,
2,
2,
4,
4,
4,
4,
2,
2,
4,
4,
6,
6,
6,
6,
5,
5,
6,
6,
4,
4,
2,
2,
9,
9,
9,
9,
10,
10,
10,
10,
5,
5,
0,
0,
-1,
-1,
3,
3,
7,
7,
13,
13,
22,
22,
20,
20,
10,
10,
1,
1,
7,
7,
16,
16,
18,
18,
16,
16,
14,
14,
13,
13,
12,
12,
9,
9,
1,
1,
8,
8,
13,
13,
14,
14,
17,
17,
20,
20,
19,
19,
14,
14,
10,
10,
1,
1,
5,
5,
9,
9,
9,
9,
10,
10,
8,
8,
8,
8,
9,
9,
3,
3,
0,
0,
2,
2,
2,
2,
0,
0,
-1,
-1,
-1,
-1,
1,
1,
1,
1,
1,
1,
4,
4,
6,
6,
6,
6,
6,
6,
-1,
-1,
3,
3,
5,
5,
1,
1,
2,
2,
9,
9,
14,
14,
12,
12,
5,
5,
4,
4,
6,
6,
1,
1,
10,
10,
13,
13,
11,
11,
9,
9,
10,
10,
12,
12,
15,
15,
15,
15,
15,
15,
13,
0,
1,
12,
12,
24,
24,
41,
41,
41,
46,
46,
46,
32,
34,
10,
10,
10,
1,
1,
5,
5,
4,
4,
0,
0,
6,
28,
28,
46,
46,
46,
49,
49,
40,
40,
30,
17,
18,
6,
6,
6,
2,
2,
12,
12,
20,
20,
25,
25,
23,
23,
20,
20,
18,
18,
15,
15,
17,
17,
13,
13,
8,
8,
6,
6,
5,
5,
4,
4,
2,
2,
0,
0,
4,
4,
9,
9,
10,
10,
9,
9,
10,
10,
10,
10,
10,
10,
9,
9,
5,
5,
2,
2,
0,
0,
2,
2,
2,
2,
3,
3,
4,
4,
4,
4,
2,
2,
3,
3,
2,
2,
1,
1,
0,
0,
0,
0,
0,
0,
0,
0,
1,
1,
0,
0,
10,
10,
14,
14,
13,
13,
11,
11,
7,
7,
4,
4,
12,
12,
14,
14,
13,
13,
10,
10,
4,
4,
0,
0,
1,
1,
2,
2,
0,
0,
1,
1,
2,
2,
0,
0,
3,
3,
4,
4,
2,
2,
-1,
-1,
2,
2,
9,
9,
13,
13,
10,
10,
1,
14,
14,
28,
27,
27,
31,
31,
28,
28,
22,
22,
13,
1,
1,
1,
6,
6,
11,
11,
12,
12,
14,
14,
18,
18,
19,
19,
18,
18,
15,
15,
10,
10,
6,
6,
1,
1,
1,
1,
2,
2,
2,
2,
3,
3,
9,
9,
13,
13,
14,
14,
14,
14,
9,
9,
3,
3,
0,
0,
0,
0,
2,
2,
4,
4,
6,
6,
6,
6,
2,
2,
1,
1,
4,
4,
5,
5,
7,
7,
10,
10,
9,
9,
6,
6,
4,
4,
2,
2,
0,
0,
2,
2,
5,
5,
5,
5,
6,
6,
2,
2,
2,
2,
2,
2,
3,
3,
1,
1,
0,
0,
-1,
-1,
-1,
-1,
-2,
-2,
0,
0,
1,
1,
0,
0,
0,
0,
0,
0,
-1,
-1,
0,
0,
-2,
-2,
0,
0,
2,
2,
1,
1,
1,
1,
0,
0,
2,
2,
4,
4,
4,
4,
1,
1,
2,
2,
8,
8,
6,
6,
0,
0,
0,
0,
1,
1,
-1,
-1,
2,
2,
6,
6,
8,
8,
11,
11,
15,
15,
18,
18,
14,
14,
5,
5,
4,
4,
8,
8,
14,
14,
22,
22,
23,
23,
21,
21,
15,
15,
9,
9,
4,
4,
0,
0,
6,
6,
9,
9,
12,
12,
12,
12,
14,
14,
16,
16,
14,
14,
10,
10,
4,
4,
0,
0,
1,
1,
1,
1,
2,
2,
2,
2,
1,
1,
2,
2,
2,
2,
1,
1,
1,
1,
2,
2,
3,
3,
1,
1,
-2,
-2,
1,
1,
0,
0,
1,
1,
1,
1,
-1,
-1,
0,
0,
3,
3,
6,
6,
5,
5,
0,
0,
0,
0,
0,
0,
2,
2,
3,
3,
3,
3,
3,
3,
2,
2,
2,
2,
1,
1,
6,
6,
11,
11,
12,
12,
8,
8,
5,
5,
2,
2,
1,
1,
2,
2,
3,
3,
5,
5,
5,
5,
6,
6,
5,
5,
2,
2,
-1,
-1,
1,
1,
1,
1,
0,
0,
-1,
-1,
0,
0,
1,
1,
3,
3,
3,
3,
2,
2,
2,
2,
1,
1,
-2,
-2,
0,
0,
1,
1,
-1,
-1,
1,
1,
-1,
-1,
1,
1,
3,
3,
2,
2,
0,
0,
-1,
-1,
0,
0,
1,
1,
2,
2,
0,
0,
5,
5,
14,
14,
18,
18,
21,
21,
19,
7,
7,
7,
7,
7,
16,
16,
20,
20,
21,
21,
14,
14,
11,
11,
10,
10,
7,
7,
2,
2,
1,
1,
5,
5,
9,
9,
10,
10,
9,
9,
6,
6,
5,
5,
8,
8,
6,
6,
6,
6,
10,
10,
14,
14,
7,
7,
0,
0,
10,
10,
13,
13,
9,
9,
6,
6,
3,
3,
0,
0,
0,
0,
2,
2,
0,
0,
1,
1,
4,
4,
1,
1,
2,
2,
8,
8,
6,
6,
2,
2,
0,
0,
2,
2,
5,
5,
6,
6,
8,
8,
7,
7,
3,
3,
0,
0,
-1,
-1,
0,
0,
1,
1,
1,
1,
2,
2,
-1,
-1,
0,
0,
1,
1,
2,
2,
0,
0,
-1,
-1,
-1,
-1,
-1,
-1,
1,
1,
2,
2,
2,
2,
0,
0,
-1,
-1,
-1,
-1,
0,
0,
-1,
-1,
0,
0,
1,
1,
2,
2,
5,
5,
4,
4,
1,
1,
1,
1,
1,
1,
0,
0,
6,
6,
7,
7,
6,
6,
4,
4,
4,
4,
2,
2,
1,
1,
-1,
-1,
7,
7,
15,
15,
22,
22,
17,
5,
6,
6,
0,
0,
4,
4,
6,
6,
6,
6,
8,
8,
10,
10,
8,
8,
6,
6,
3,
3,
1,
1,
0,
0,
1,
1,
1,
1,
2,
2,
2,
2,
6,
6,
7,
7,
6,
6,
5,
5,
2,
2,
1,
1,
-1,
-1,
3,
3,
8,
8,
7,
7,
2,
2,
1,
1,
2,
2,
3,
3,
0,
0,
3,
16,
15,
15,
21,
21,
27,
27,
32,
32,
25,
4,
4,
4,
11,
22,
22,
22,
26,
26,
28,
28,
29,
29,
26,
26,
20,
20,
13,
13,
5,
5,
3,
3,
10,
10,
14,
14,
16,
16,
15,
15,
14,
14,
13,
13,
10,
10,
8,
8,
6,
6,
6,
6,
4,
4,
-1,
-1,
-1,
-1,
1,
1,
4,
4,
5,
5,
8,
8,
4,
4,
1,
1,
1,
1,
4,
4,
2,
2,
2,
2,
0,
0,
4,
4,
8,
8,
9,
9,
8,
8,
3,
3,
0,
0,
1,
1,
5,
5,
11,
11,
15,
15,
13,
13,
4,
4,
2,
2,
6,
6,
8,
8,
4,
4,
1,
1,
0,
0,
2,
2,
1,
1,
2,
2,
4,
4,
3,
3,
2,
2,
0,
0,
0,
0,
3,
3,
5,
5,
5,
5,
4,
4,
0,
0,
0,
0,
2,
2,
8,
8,
8,
8,
2,
2,
5,
5,
10,
10,
12,
12,
13,
13,
9,
9,
1,
12,
11,
11,
16,
16,
16,
16,
15,
15,
14,
14,
14,
14,
6,
6,
2,
2,
10,
10,
18,
18,
18,
18,
17,
17,
12,
12,
9,
9,
5,
5,
2,
2,
0,
0,
2,
2,
6,
6,
9,
9,
9,
9,
8,
8,
7,
7,
6,
6,
6,
6,
3,
3,
3,
3,
6,
6,
8,
8,
1,
1,
4,
4,
9,
9,
15,
15,
17,
17,
12,
0,
1,
1,
8,
8,
11,
11,
10,
10,
9,
9,
7,
7,
9,
9,
6,
6,
5,
5,
1,
1,
9,
9,
18,
18,
20,
20,
13,
1,
2,
2,
2,
2,
6,
6,
6,
6,
8,
8,
9,
9,
7,
7,
5,
5,
0,
0,
1,
1,
2,
2,
3,
3,
2,
2,
0,
0,
2,
2,
1,
1,
0,
0,
3,
3,
6,
6,
7,
7,
8,
8,
6,
6,
5,
5,
5,
5,
5,
5,
1,
1,
1,
1,
4,
4,
6,
6,
8,
8,
8,
8,
6,
6,
3,
3,
0,
0,
1,
1,
4,
4,
7,
7,
5,
5,
2,
2,
0,
0,
0,
0,
0,
0,
1,
1,
2,
2,
2,
2,
0,
0,
-1,
-1,
0,
0,
1,
1,
-1,
-1,
0,
0,
-1,
-1,
-1,
-1,
0,
0,
0,
0,
4,
4,
3,
3,
3,
3,
0,
0,
-1,
-1,
1,
1,
4,
4,
4,
4,
5,
5,
5,
5,
6,
6,
6,
6,
7,
7,
2,
2,
-1,
-1,
0,
0,
0,
0,
2,
2,
6,
6,
6,
6,
3,
3,
2,
2,
3,
3,
2,
2,
0,
0,
1,
1,
2,
2,
5,
5,
5,
5,
0,
0,
5,
5,
0,
0,
5,
5,
9,
9,
7,
7,
6,
6,
3,
3,
1,
1,
4,
4,
4,
4,
2,
2,
6,
6,
4,
4,
3,
3,
4,
4,
2,
2,
2,
2,
2,
2,
-1,
-1,
4,
4,
6,
6,
10,
10,
11,
11,
10,
10,
9,
9,
1,
1,
2,
2,
6,
6,
8,
8,
6,
6,
5,
5,
3,
3,
1,
1,
5,
5,
5,
5,
1,
1,
3,
3,
5,
5,
3,
3,
0,
0,
5,
5,
9,
9,
10,
10,
5,
5,
2,
2,
1,
1,
1,
1,
-1,
-1,
1,
1,
0,
0,
-1,
-1,
-1,
-1,
3,
3,
4,
4,
6,
6,
4,
4,
1,
1,
-1,
-1,
0,
0,
3,
3,
6,
6,
7,
7,
5,
5,
2,
2,
0,
0,
1,
1,
3,
3,
1,
1,
0,
0,
-1,
-1,
-1,
-1,
0,
0,
0,
0,
-1,
-1,
3,
3,
6,
6,
8,
8,
7,
7,
6,
6,
3,
3,
2,
2,
6,
6,
10,
10,
16,
16,
18,
18,
14,
14,
5,
5,
5,
16,
15,
15,
22,
22,
26,
26,
27,
27,
22,
10,
10,
10,
5,
19,
18,
18,
22,
22,
22,
22,
20,
20,
15,
15,
11,
11,
7,
7,
1,
1,
1,
1,
4,
4,
3,
3,
6,
6,
8,
8,
10,
10,
12,
12,
17,
17,
15,
15,
13,
13,
12,
12,
11,
11,
10,
10,
5,
5,
6,
6,
15,
15,
17,
17,
18,
18,
21,
21,
21,
21,
14,
14,
6,
6,
1,
1,
8,
8,
12,
12,
16,
16,
14,
14,
8,
8,
6,
6,
5,
5,
3,
3,
-1,
-1,
2,
2,
2,
2,
2,
2,
4,
4,
2,
2,
1,
1,
-1,
-1,
0,
0,
0,
0,
-1,
-1,
-1,
-1,
1,
1,
-1,
-1,
4,
4,
5,
5,
4,
4,
6,
6,
9,
9,
8,
8,
1,
1,
8,
8,
14,
14,
17,
17,
16,
16,
8,
8,
4,
4,
3,
14,
13,
27,
26,
37,
37,
37,
39,
39,
31,
14,
15,
1,
2,
25,
24,
40,
39,
39,
41,
41,
37,
37,
30,
30,
20,
9,
9,
9,
0,
0,
6,
6,
14,
14,
20,
20,
22,
22,
18,
18,
14,
14,
10,
10,
6,
6,
3,
3,
1,
1,
0,
0,
0,
0,
1,
1,
3,
3,
3,
3,
4,
4,
0,
0,
2,
2,
5,
5,
5,
5,
2,
2,
2,
2,
3,
3,
11,
11,
13,
13,
9,
9,
1,
1,
5,
5,
5,
5,
6,
6,
6,
6,
0,
0,
5,
5,
6,
6,
5,
5,
1,
1,
7,
7,
9,
9,
3,
3,
2,
2,
5,
5,
3,
3,
0,
0,
0,
0,
0,
0,
2,
2,
2,
2,
0,
0,
-1,
-1,
-1,
-1,
0,
0,
2,
2,
2,
2,
0,
0,
6,
6,
9,
9,
9,
9,
8,
8,
6,
6,
0,
0,
2,
2,
6,
6,
9,
9,
8,
8,
6,
6,
6,
6,
2,
2,
2,
2,
8,
8,
10,
10,
7,
7,
2,
2,
0,
0,
2,
2,
5,
5,
6,
6,
1,
1,
6,
6,
9,
9,
3,
3,
0,
0,
0,
0,
-1,
-1,
1,
1,
0,
0,
2,
2,
-1,
-1,
5,
5,
3,
3,
2,
2,
7,
7,
8,
8,
1,
1,
8,
8,
14,
14,
12,
12,
5,
5,
2,
2,
9,
9,
14,
14,
15,
15,
13,
13,
11,
11,
5,
5,
5,
5,
13,
13,
16,
16,
14,
14,
8,
8,
1,
1,
1,
1,
4,
4,
5,
5,
2,
2,
0,
0,
-1,
-1,
0,
0,
0,
0,
1,
1,
2,
2,
3,
3,
4,
4,
6,
6,
9,
9,
8,
8,
4,
4,
1,
1,
4,
4,
12,
12,
18,
18,
26,
26,
23,
8,
9,
9,
13,
35,
34,
49,
49,
61,
61,
61,
57,
33,
33,
4,
5,
32,
32,
51,
50,
50,
55,
55,
50,
50,
41,
30,
31,
18,
18,
6,
6,
6,
4,
4,
13,
13,
18,
18,
22,
22,
24,
24,
21,
21,
18,
18,
17,
17,
13,
13,
8,
8,
4,
4,
2,
2,
1,
1,
3,
3,
2,
2,
0,
0,
2,
2,
6,
6,
10,
10,
11,
11,
9,
9,
2,
2,
1,
1,
1,
1,
2,
2,
5,
5,
5,
5,
5,
5,
6,
6,
1,
1,
3,
3,
6,
6,
6,
6,
5,
5,
2,
2,
2,
2,
2,
2,
2,
2,
4,
4,
5,
5,
2,
2,
1,
1,
1,
1,
3,
3,
4,
4,
2,
2,
0,
0,
0,
0,
-1,
-1,
0,
0,
1,
1,
1,
1,
-1,
-1,
0,
0,
0,
0,
-1,
-1,
-1,
-1,
-1,
-1,
0,
0,
0,
0,
0,
0,
1,
1,
0,
0,
0,
0,
-1,
-1,
0,
0,
1,
1,
3,
3,
4,
4,
5,
5,
5,
5,
3,
3,
2,
2,
0,
0,
5,
5,
5,
5,
5,
5,
4,
4,
2,
2,
0,
0,
2,
2,
2,
2,
0,
0,
3,
3,
8,
8,
4,
4,
2,
13,
13,
13,
20,
20,
25,
25,
21,
21,
12,
12,
3,
3,
8,
8,
17,
17,
21,
21,
20,
20,
17,
17,
14,
14,
9,
9,
4,
4,
0,
0,
5,
5,
8,
8,
12,
12,
12,
12,
12,
12,
7,
7,
5,
5,
4,
4,
5,
5,
3,
3,
1,
1,
6,
6,
9,
9,
6,
6,
9,
9,
14,
14,
15,
2,
2,
2,
9,
21,
20,
32,
32,
32,
33,
22,
22,
6,
6,
6,
2,
2,
4,
4,
7,
7,
14,
14,
14,
14,
13,
13,
15,
15,
16,
16,
14,
14,
10,
10,
6,
6,
2,
2,
1,
1,
5,
5,
8,
8,
8,
8,
9,
9,
8,
8,
10,
10,
10,
10,
7,
7,
5,
5,
5,
5,
5,
5,
4,
4,
1,
1,
3,
3,
5,
5,
7,
7,
6,
6,
2,
2,
2,
2,
6,
6,
8,
8,
5,
5,
1,
1,
1,
1,
0,
0,
2,
2,
1,
1,
0,
0,
-1,
-1,
1,
1,
5,
5,
10,
10,
9,
9,
6,
6,
4,
4,
3,
3,
1,
1,
2,
2,
6,
6,
7,
7,
6,
6,
5,
5,
6,
6,
3,
3,
2,
2,
2,
2,
1,
1,
1,
1,
1,
1,
0,
0,
-1,
-1,
0,
0,
1,
1,
0,
0,
-1,
-1,
0,
0,
2,
2,
4,
4,
4,
4,
4,
4,
3,
3,
1,
1,
0,
0,
1,
1,
4,
4,
4,
4,
1,
1,
5,
5,
5,
5,
3,
3,
1,
1,
7,
7,
12,
24,
23,
23,
29,
29,
25,
12,
12,
1,
2,
17,
16,
27,
26,
26,
29,
29,
25,
25,
19,
19,
12,
12,
4,
4,
3,
3,
2,
2,
5,
5,
7,
7,
9,
9,
9,
9,
8,
8,
8,
8,
7,
7,
8,
8,
6,
6,
7,
7,
7,
7,
5,
5,
2,
2,
1,
1,
5,
5,
6,
6,
9,
9,
10,
10,
6,
6,
5,
5,
0,
0,
6,
6,
14,
14,
18,
6,
6,
6,
9,
20,
20,
20,
21,
21,
12,
12,
6,
6,
6,
18,
17,
17,
21,
21,
22,
22,
16,
16,
8,
8,
4,
4,
0,
0,
5,
5,
11,
11,
18,
18,
18,
18,
16,
16,
11,
11,
7,
7,
6,
6,
4,
4,
1,
1,
7,
7,
13,
13,
13,
13,
14,
14,
13,
13,
7,
7,
7,
7,
9,
9,
3,
3,
2,
2,
8,
8,
11,
11,
5,
5,
3,
14,
14,
14,
14,
14,
5,
5,
4,
4,
10,
10,
13,
13,
5,
5,
0,
0,
9,
20,
19,
6,
7,
7,
10,
10,
10,
10,
7,
7,
8,
8,
10,
10,
12,
12,
11,
11,
7,
7,
1,
1,
2,
2,
6,
6,
9,
9,
12,
12,
13,
13,
12,
12,
10,
10,
7,
7,
6,
6,
5,
5,
