EMG_S2/DS0078.CSV

Memory Length,4000,
Trigger Level,-4.80000e+02,
Source,CH1,
Probe,1.0X,
Vertical Units,V,
Vertical Scale,1.00000e+00,
Vertical Position,0.00000e+00,
Horizontal Units,S,
Horizontal Scale,1.00000e-01,
Horizontal Position,0.0000000e+00,
Horizontal Mode,Roll Mode,
Waveform Last Dot Address,4000,
Sampling Period,4.00000e-04,
Firmware,V1.14,
Time, ,
Mode,Fast,
Waveform Data,
1,
1,
6,
6,
5,
5,
5,
5,
9,
9,
8,
8,
9,
9,
8,
8,
4,
4,
2,
2,
5,
5,
7,
7,
8,
8,
5,
5,
0,
0,
2,
2,
5,
5,
8,
8,
6,
6,
4,
4,
5,
5,
6,
6,
7,
7,
7,
7,
8,
8,
6,
6,
1,
1,
2,
2,
4,
4,
5,
5,
4,
4,
0,
0,
0,
0,
0,
0,
1,
1,
0,
0,
1,
1,
0,
0,
5,
5,
5,
5,
4,
4,
0,
0,
2,
2,
5,
5,
6,
6,
9,
9,
5,
5,
1,
1,
3,
3,
5,
5,
5,
5,
0,
0,
0,
0,
0,
0,
0,
0,
5,
5,
4,
4,
1,
1,
5,
5,
2,
2,
-1,
-1,
5,
5,
10,
10,
8,
8,
6,
6,
2,
2,
0,
0,
2,
2,
6,
6,
8,
8,
6,
6,
6,
6,
5,
5,
4,
4,
1,
1,
3,
3,
6,
6,
6,
6,
5,
5,
4,
4,
2,
2,
2,
2,
-1,
-1,
0,
0,
1,
1,
2,
2,
1,
1,
-1,
-1,
1,
1,
4,
4,
5,
5,
4,
4,
1,
1,
1,
1,
2,
2,
2,
2,
2,
2,
1,
1,
1,
1,
-2,
-2,
0,
0,
0,
0,
2,
2,
4,
4,
1,
1,
0,
0,
1,
1,
0,
0,
8,
8,
18,
18,
24,
24,
26,
13,
14,
1,
6,
21,
21,
36,
35,
47,
46,
46,
52,
52,
46,
17,
17,
2,
2,
2,
5,
24,
23,
41,
40,
40,
37,
37,
29,
29,
25,
25,
22,
22,
17,
17,
12,
12,
5,
5,
1,
1,
6,
6,
10,
10,
15,
15,
19,
19,
18,
18,
16,
16,
14,
14,
13,
13,
9,
9,
1,
1,
2,
2,
4,
4,
1,
1,
0,
0,
0,
0,
1,
1,
2,
2,
2,
2,
3,
3,
4,
4,
2,
2,
2,
2,
0,
0,
-1,
-1,
-2,
-2,
1,
1,
2,
2,
0,
0,
4,
4,
5,
5,
5,
5,
3,
3,
0,
0,
0,
0,
4,
4,
6,
6,
2,
2,
2,
2,
2,
2,
0,
0,
7,
7,
9,
9,
7,
7,
7,
7,
5,
5,
0,
0,
4,
4,
4,
4,
2,
2,
4,
4,
6,
6,
7,
7,
2,
2,
2,
2,
3,
3,
1,
1,
3,
3,
2,
2,
2,
2,
4,
4,
1,
1,
3,
3,
3,
3,
1,
1,
-1,
-1,
-2,
-2,
3,
3,
-1,
-1,
-1,
-1,
-2,
-2,
1,
1,
0,
0,
2,
2,
4,
4,
3,
3,
0,
0,
-1,
-1,
0,
0,
0,
0,
-1,
-1,
0,
0,
2,
2,
2,
2,
3,
3,
2,
2,
2,
2,
0,
0,
1,
1,
2,
2,
2,
2,
0,
0,
3,
3,
3,
3,
5,
5,
6,
6,
4,
4,
0,
0,
0,
0,
0,
0,
0,
0,
1,
1,
4,
4,
3,
3,
2,
2,
2,
2,
-1,
-1,
2,
2,
4,
4,
5,
5,
5,
5,
6,
6,
2,
2,
-1,
-1,
1,
1,
1,
1,
1,
1,
1,
1,
1,
1,
1,
1,
2,
2,
0,
0,
1,
1,
2,
2,
1,
1,
1,
1,
6,
6,
8,
8,
6,
6,
2,
2,
0,
0,
4,
4,
2,
13,
12,
23,
23,
23,
32,
32,
33,
33,
29,
29,
19,
1,
2,
21,
20,
31,
31,
31,
29,
29,
26,
26,
28,
28,
23,
23,
17,
17,
10,
10,
3,
3,
4,
4,
9,
9,
8,
21,
21,
21,
22,
22,
24,
24,
20,
20,
12,
12,
5,
5,
0,
0,
-1,
-1,
4,
4,
9,
9,
12,
12,
13,
13,
0,
0,
0,
0,
3,
3,
5,
5,
5,
5,
3,
3,
-1,
-1,
1,
1,
1,
1,
-1,
-1,
-2,
-2,
1,
1,
1,
1,
0,
0,
1,
1,
0,
0,
1,
1,
4,
4,
4,
4,
2,
2,
1,
1,
4,
4,
1,
1,
6,
6,
12,
12,
13,
13,
8,
8,
3,
3,
2,
2,
7,
7,
7,
7,
8,
8,
6,
6,
6,
6,
6,
6,
2,
2,
1,
1,
0,
0,
3,
3,
6,
6,
8,
8,
8,
8,
6,
6,
2,
2,
1,
1,
-1,
-1,
4,
4,
6,
6,
0,
0,
1,
1,
6,
6,
0,
0,
6,
6,
7,
7,
5,
5,
0,
0,
0,
0,
2,
2,
0,
0,
5,
5,
11,
11,
14,
14,
13,
13,
4,
4,
0,
0,
1,
1,
6,
6,
10,
10,
7,
7,
5,
5,
6,
6,
9,
9,
8,
8,
1,
1,
4,
4,
12,
12,
12,
12,
6,
6,
1,
1,
-1,
-1,
0,
0,
5,
5,
6,
6,
1,
1,
1,
1,
4,
4,
5,
5,
2,
2,
-1,
-1,
2,
2,
2,
2,
3,
3,
1,
1,
6,
6,
6,
6,
2,
2,
0,
0,
2,
2,
6,
6,
0,
0,
9,
9,
11,
11,
9,
9,
14,
14,
22,
22,
19,
7,
8,
8,
0,
0,
7,
7,
10,
10,
14,
14,
21,
21,
21,
21,
17,
17,
12,
12,
5,
5,
0,
0,
-1,
-1,
6,
6,
9,
9,
9,
9,
10,
10,
10,
10,
12,
12,
11,
11,
8,
8,
2,
2,
1,
1,
2,
2,
4,
4,
4,
4,
2,
2,
3,
3,
2,
2,
2,
2,
-1,
-1,
-1,
-1,
1,
1,
1,
1,
1,
1,
0,
0,
2,
2,
0,
0,
5,
5,
6,
6,
4,
4,
1,
1,
-1,
-1,
-1,
-1,
1,
1,
2,
2,
1,
1,
-1,
-1,
0,
0,
1,
1,
1,
1,
2,
2,
4,
4,
0,
0,
2,
2,
5,
5,
2,
2,
2,
2,
-1,
-1,
0,
0,
0,
0,
2,
2,
2,
2,
1,
1,
0,
0,
0,
0,
-1,
-1,
-1,
-1,
-1,
-1,
0,
0,
4,
4,
5,
5,
0,
0,
7,
19,
19,
19,
13,
0,
2,
2,
11,
11,
16,
16,
14,
14,
4,
4,
2,
2,
4,
4,
2,
2,
2,
13,
12,
23,
23,
23,
19,
1,
2,
2,
10,
10,
17,
17,
19,
19,
19,
19,
15,
15,
8,
8,
2,
2,
2,
2,
0,
0,
2,
2,
4,
4,
6,
6,
9,
9,
8,
8,
5,
5,
5,
5,
6,
6,
6,
6,
6,
6,
6,
6,
4,
4,
2,
2,
3,
3,
4,
4,
5,
17,
17,
29,
29,
29,
28,
14,
14,
1,
2,
2,
11,
11,
20,
20,
20,
20,
22,
22,
22,
22,
21,
10,
11,
0,
2,
13,
13,
13,
22,
22,
21,
21,
20,
20,
15,
15,
9,
9,
4,
4,
-1,
-1,
0,
0,
2,
2,
4,
4,
6,
6,
7,
7,
8,
8,
9,
9,
10,
10,
9,
9,
3,
3,
2,
2,
-1,
-1,
0,
0,
4,
4,
5,
5,
3,
3,
0,
0,
2,
2,
0,
0,
-1,
-1,
2,
2,
8,
8,
5,
5,
1,
1,
8,
8,
6,
6,
2,
2,
1,
1,
0,
0,
0,
0,
0,
0,
-1,
-1,
-1,
-1,
0,
0,
1,
1,
0,
0,
-1,
-1,
2,
2,
3,
3,
2,
2,
0,
0,
0,
0,
1,
1,
3,
3,
2,
2,
3,
3,
0,
0,
-1,
-1,
0,
0,
-1,
-1,
-1,
-1,
0,
0,
-1,
-1,
0,
0,
1,
1,
-1,
-1,
-1,
-1,
-2,
-2,
1,
1,
2,
2,
2,
2,
0,
0,
0,
0,
0,
0,
0,
0,
2,
2,
5,
5,
5,
5,
3,
3,
0,
0,
5,
5,
5,
5,
1,
1,
-1,
-1,
4,
4,
5,
5,
8,
8,
5,
5,
4,
4,
4,
4,
2,
2,
6,
6,
5,
5,
5,
5,
4,
4,
2,
2,
1,
1,
5,
5,
12,
12,
12,
12,
9,
9,
3,
3,
6,
6,
15,
28,
27,
27,
32,
32,
29,
17,
18,
3,
4,
4,
5,
5,
10,
10,
15,
15,
18,
18,
18,
18,
14,
14,
12,
12,
14,
14,
13,
13,
8,
8,
5,
5,
0,
0,
6,
6,
14,
14,
24,
24,
33,
33,
33,
33,
28,
28,
20,
9,
9,
9,
5,
20,
19,
19,
27,
27,
29,
29,
26,
26,
18,
18,
12,
12,
6,
6,
2,
2,
4,
4,
6,
6,
8,
8,
9,
9,
8,
8,
8,
8,
7,
7,
6,
6,
4,
4,
4,
4,
4,
4,
4,
4,
3,
3,
1,
1,
2,
2,
2,
2,
-1,
-1,
1,
1,
1,
1,
0,
0,
1,
1,
2,
2,
2,
2,
3,
3,
3,
3,
5,
5,
3,
3,
1,
1,
1,
1,
2,
2,
8,
8,
10,
10,
10,
10,
5,
5,
0,
0,
-1,
-1,
2,
2,
5,
5,
5,
5,
0,
0,
-1,
-1,
3,
3,
4,
4,
2,
2,
1,
1,
0,
0,
-1,
-1,
1,
1,
2,
2,
1,
1,
2,
2,
2,
2,
-1,
-1,
1,
1,
0,
0,
1,
1,
1,
1,
1,
1,
-1,
-1,
-1,
-1,
0,
0,
2,
2,
4,
4,
4,
4,
2,
2,
-1,
-1,
-1,
-1,
0,
0,
0,
0,
-1,
-1,
-1,
-1,
0,
0,
1,
1,
3,
3,
10,
10,
10,
10,
1,
1,
1,
1,
2,
2,
2,
2,
6,
6,
9,
9,
10,
10,
8,
8,
4,
4,
-1,
-1,
0,
0,
2,
2,
6,
6,
10,
10,
6,
6,
4,
4,
5,
5,
0,
0,
2,
2,
2,
2,
1,
1,
-1,
-1,
2,
2,
2,
2,
2,
2,
2,
2,
7,
7,
9,
9,
3,
3,
8,
8,
9,
9,
2,
2,
5,
19,
18,
18,
18,
1,
2,
13,
13,
13,
21,
21,
17,
17,
10,
10,
11,
11,
16,
16,
7,
7,
12,
24,
24,
24,
25,
25,
20,
20,
12,
12,
6,
6,
2,
2,
0,
0,
2,
2,
0,
0,
4,
4,
10,
10,
12,
12,
7,
7,
2,
15,
15,
35,
34,
49,
48,
48,
52,
38,
38,
8,
9,
9,
16,
29,
29,
29,
32,
32,
27,
27,
17,
17,
12,
12,
10,
10,
8,
8,
8,
8,
5,
5,
0,
0,
6,
6,
8,
8,
8,
8,
9,
9,
14,
14,
19,
19,
14,
1,
6,
17,
17,
17,
10,
-1,
0,
0,
7,
7,
9,
9,
3,
3,
2,
2,
2,
2,
0,
0,
7,
7,
5,
5,
1,
1,
0,
0,
3,
3,
6,
6,
6,
6,
8,
8,
11,
11,
10,
10,
10,
10,
8,
8,
2,
14,
13,
13,
21,
21,
21,
21,
14,
14,
4,
4,
3,
3,
7,
7,
8,
8,
5,
5,
5,
5,
2,
2,
0,
0,
2,
2,
2,
2,
2,
2,
1,
1,
1,
1,
1,
1,
0,
0,
2,
2,
1,
1,
-1,
-1,
0,
0,
0,
0,
-1,
-1,
-1,
-1,
0,
0,
3,
3,
5,
5,
5,
5,
5,
5,
1,
1,
1,
1,
4,
4,
3,
3,
2,
2,
9,
22,
22,
33,
32,
32,
34,
34,
26,
2,
3,
27,
26,
51,
50,
63,
62,
62,
64,
64,
63,
42,
43,
8,
9,
27,
27,
46,
46,
46,
52,
52,
52,
52,
45,
45,
37,
25,
25,
10,
10,
10,
3,
15,
14,
14,
18,
18,
15,
15,
13,
13,
12,
12,
6,
6,
1,
1,
5,
5,
2,
2,
-1,
-1,
-1,
-1,
9,
9,
18,
30,
30,
30,
37,
37,
36,
36,
26,
6,
6,
6,
14,
35,
35,
35,
42,
42,
40,
25,
25,
13,
14,
3,
4,
4,
2,
2,
0,
0,
2,
2,
3,
3,
2,
2,
2,
2,
6,
6,
10,
10,
12,
12,
10,
10,
9,
9,
4,
4,
0,
0,
3,
3,
3,
3,
1,
1,
-1,
-1,
6,
18,
18,
18,
20,
9,
9,
9,
10,
26,
26,
40,
39,
52,
50,
50,
44,
12,
12,
12,
20,
32,
32,
32,
33,
33,
30,
30,
29,
29,
22,
22,
14,
14,
10,
10,
4,
4,
-1,
-1,
3,
3,
8,
8,
14,
14,
22,
22,
24,
24,
20,
20,
14,
14,
6,
6,
3,
3,
-1,
-1,
2,
2,
5,
5,
6,
6,
4,
4,
2,
2,
3,
3,
4,
4,
7,
7,
10,
10,
12,
12,
7,
7,
2,
2,
0,
0,
4,
4,
12,
12,
20,
20,
30,
30,
33,
33,
29,
15,
15,
2,
10,
22,
21,
21,
28,
28,
32,
32,
34,
34,
34,
34,
29,
13,
13,
13,
5,
5,
10,
27,
27,
27,
33,
33,
28,
16,
17,
17,
25,
38,
37,
37,
32,
32,
41,
41,
41,
12,
12,
27,
26,
58,
58,
58,
64,
64,
60,
42,
42,
24,
25,
6,
6,
6,
3,
3,
1,
1,
2,
2,
3,
3,
0,
12,
11,
36,
36,
51,
50,
37,
37,
20,
20,
20,
11,
11,
4,
4,
2,
2,
6,
6,
14,
25,
24,
24,
28,
17,
18,
2,
7,
34,
34,
45,
44,
28,
28,
15,
16,
1,
2,
14,
14,
14,
24,
24,
24,
24,
21,
21,
20,
20,
21,
21,
15,
4,
5,
5,
0,
0,
2,
2,
5,
5,
8,
8,
7,
7,
10,
10,
14,
14,
13,
13,
9,
9,
5,
5,
2,
2,
1,
1,
3,
3,
1,
1,
2,
2,
7,
7,
8,
8,
0,
0,
5,
5,
7,
7,
7,
7,
7,
7,
6,
6,
6,
6,
1,
1,
-1,
-1,
1,
1,
1,
1,
3,
3,
3,
3,
1,
1,
2,
2,
4,
4,
4,
4,
1,
1,
1,
1,
0,
0,
2,
2,
-1,
-1,
1,
1,
4,
4,
6,
6,
11,
11,
15,
15,
7,
7,
2,
2,
3,
3,
8,
20,
18,
18,
25,
25,
18,
1,
2,
13,
13,
13,
17,
17,
15,
15,
17,
17,
10,
10,
1,
13,
12,
12,
14,
27,
26,
26,
26,
15,
16,
16,
21,
21,
12,
0,
2,
2,
7,
7,
9,
9,
9,
21,
21,
35,
34,
34,
36,
36,
30,
19,
19,
19,
10,
10,
1,
1,
6,
6,
11,
11,
18,
18,
18,
18,
16,
16,
13,
13,
14,
14,
14,
14,
10,
10,
6,
6,
3,
3,
2,
2,
-1,
-1,
1,
1,
0,
0,
0,
0,
0,
0,
2,
2,
6,
6,
8,
8,
4,
4,
0,
0,
2,
2,
2,
2,
3,
3,
1,
1,
5,
5,
14,
14,
12,
0,
1,
1,
9,
9,
17,
17,
20,
20,
20,
20,
12,
0,
2,
2,
5,
5,
3,
3,
4,
4,
6,
6,
8,
8,
6,
6,
4,
4,
10,
10,
14,
2,
3,
3,
5,
5,
2,
2,
1,
24,
24,
37,
37,
26,
26,
2,
3,
3,
10,
10,
14,
14,
14,
14,
14,
14,
8,
8,
0,
0,
7,
7,
14,
14,
14,
14,
10,
10,
2,
2,
0,
0,
7,
7,
9,
9,
6,
6,
1,
1,
1,
1,
10,
10,
7,
7,
1,
1,
6,
6,
7,
7,
6,
6,
5,
5,
5,
5,
2,
2,
1,
1,
3,
3,
6,
6,
6,
6,
6,
6,
0,
0,
6,
6,
14,
14,
20,
20,
25,
25,
17,
3,
3,
3,
8,
20,
19,
19,
22,
22,
18,
18,
18,
18,
17,
17,
8,
8,
6,
21,
21,
21,
28,
28,
24,
24,
31,
31,
24,
2,
3,
3,
12,
12,
17,
17,
20,
20,
20,
20,
11,
11,
5,
5,
9,
9,
11,
11,
7,
7,
2,
2,
2,
2,
6,
6,
6,
6,
6,
6,
8,
8,
12,
12,
12,
12,
10,
10,
7,
7,
2,
2,
2,
2,
6,
6,
6,
6,
4,
4,
0,
0,
6,
6,
12,
12,
13,
13,
5,
5,
5,
5,
10,
10,
11,
11,
8,
8,
5,
5,
2,
2,
3,
3,
0,
0,
0,
0,
2,
2,
5,
5,
5,
5,
3,
3,
2,
2,
-1,
-1,
0,
0,
-1,
-1,
0,
0,
-1,
-1,
2,
2,
5,
5,
4,
4,
1,
1,
1,
1,
1,
1,
0,
0,
1,
1,
2,
2,
5,
5,
2,
2,
4,
4,
8,
8,
5,
5,
1,
1,
0,
0,
0,
0,
7,
7,
10,
10,
2,
2,
11,
11,
8,
8,
10,
31,
30,
42,
42,
30,
30,
30,
27,
9,
10,
10,
13,
30,
29,
29,
32,
32,
29,
29,
27,
27,
21,
21,
14,
14,
6,
6,
4,
4,
5,
5,
0,
0,
5,
5,
12,
12,
13,
13,
14,
14,
17,
17,
16,
16,
11,
11,
6,
6,
1,
1,
2,
2,
2,
2,
2,
2,
1,
1,
1,
1,
5,
5,
8,
8,
4,
4,
2,
2,
6,
6,
8,
8,
9,
9,
7,
7,
6,
6,
3,
3,
1,
1,
1,
1,
1,
1,
2,
2,
4,
4,
4,
4,
4,
4,
0,
0,
2,
2,
8,
8,
17,
17,
26,
26,
24,
24,
17,
17,
11,
0,
1,
12,
10,
10,
17,
17,
18,
18,
17,
17,
13,
13,
9,
9,
5,
5,
1,
1,
4,
4,
4,
4,
1,
1,
0,
0,
1,
1,
2,
2,
2,
2,
2,
2,
1,
1,
1,
1,
2,
2,
3,
3,
5,
5,
5,
5,
2,
2,
1,
1,
0,
0,
1,
1,
2,
2,
2,
2,
2,
2,
-1,
-1,
-1,
-1,
1,
1,
0,
0,
0,
0,
-1,
-1,
0,
0,
0,
0,
-1,
-1,
-1,
-1,
3,
3,
3,
3,
4,
4,
2,
2,
4,
4,
1,
1,
1,
1,
2,
2,
2,
2,
1,
1,
-1,
-1,
-1,
-1,
0,
0,
4,
4,
5,
5,
3,
3,
0,
0,
2,
2,
1,
1,
-1,
-1,
-1,
-1,
2,
2,
3,
3,
2,
2,
4,
4,
2,
2,
1,
1,
1,
1,
3,
3,
4,
4,
2,
2,
1,
1,
-1,
-1,
2,
2,
6,
6,
10,
10,
10,
10,
9,
9,
5,
5,
3,
3,
6,
6,
6,
6,
8,
8,
11,
11,
10,
10,
8,
8,
3,
3,
0,
0,
1,
1,
2,
2,
5,
5,
3,
3,
-1,
-1,
0,
0,
2,
2,
8,
8,
13,
13,
12,
12,
12,
12,
10,
10,
6,
6,
8,
8,
4,
4,
2,
14,
14,
35,
35,
61,
60,
60,
65,
40,
41,
8,
8,
8,
12,
29,
28,
43,
43,
43,
47,
47,
38,
20,
20,
20,
10,
10,
7,
7,
2,
2,
2,
2,
6,
6,
6,
6,
4,
4,
3,
3,
5,
5,
3,
3,
6,
6,
14,
14,
20,
20,
17,
17,
12,
12,
10,
10,
6,
6,
2,
2,
10,
10,
10,
10,
7,
7,
12,
12,
14,
14,
10,
10,
8,
8,
6,
6,
3,
3,
0,
0,
1,
1,
7,
7,
12,
12,
12,
12,
17,
17,
18,
18,
10,
10,
2,
2,
1,
1,
1,
1,
1,
1,
5,
5,
8,
8,
10,
10,
11,
11,
11,
11,
9,
9,
6,
6,
2,
2,
-1,
-1,
2,
2,
4,
4,
5,
5,
6,
6,
6,
6,
6,
6,
6,
6,
6,
6,
3,
3,
2,
2,
-1,
-1,
1,
1,
-1,
-1,
-2,
-2,
-1,
-1,
0,
0,
0,
0,
2,
2,
2,
2,
4,
4,
1,
1,
-1,
-1,
-1,
-1,
1,
1,
3,
3,
2,
2,
-1,
-1,
0,
0,
1,
1,
1,
1,
-1,
-1,
-1,
-1,
0,
0,
2,
2,
3,
3,
2,
2,
1,
1,
-1,
-1,
-1,
-1,
0,
0,
2,
2,
1,
1,
0,
0,
0,
0,
-1,
-1,
1,
1,
-1,
-1,
1,
1,
3,
3,
1,
1,
4,
4,
6,
6,
6,
6,
7,
7,
6,
6,
0,
0,
6,
6,
11,
11,
7,
7,
1,
1,
6,
6,
6,
6,
5,
5,
6,
6,
6,
6,
2,
2,
-1,
-1,
7,
7,
9,
9,
6,
6,
1,
1,
1,
1,
2,
2,
0,
0,
0,
0,
0,
0,
0,
0,
5,
5,
-1,
-1,
2,
2,
0,
0,
0,
0,
2,
2,
9,
9,
10,
10,
8,
8,
2,
2,
2,
2,
2,
2,
2,
2,
4,
4,
1,
1,
0,
0,
-1,
-1,
4,
4,
7,
7,
4,
4,
-1,
-1,
2,
2,
4,
4,
5,
5,
6,
6,
1,
1,
2,
2,
1,
1,
0,
0,
0,
0,
6,
6,
10,
10,
9,
9,
2,
2,
1,
1,
6,
6,
9,
9,
11,
11,
5,
5,
1,
1,
3,
3,
4,
4,
3,
3,
3,
3,
1,
1,
6,
6,
14,
14,
14,
2,
2,
2,
8,
8,
14,
14,
22,
22,
28,
28,
20,
3,
3,
3,
8,
8,
13,
13,
11,
11,
8,
8,
9,
9,
11,
11,
6,
6,
3,
3,
5,
5,
2,
2,
2,
2,
-1,
-1,
-1,
-1,
0,
0,
0,
0,
1,
1,
1,
1,
1,
1,
3,
3,
4,
4,
3,
3,
3,
3,
4,
4,
1,
1,
0,
0,
0,
0,
0,
0,
-1,
-1,
1,
1,
1,
1,
2,
2,
0,
0,
2,
2,
1,
1,
4,
4,
5,
5,
3,
3,
2,
2,
3,
3,
4,
4,
1,
1,
2,
2,
6,
6,
5,
5,
5,
5,
4,
4,
1,
1,
0,
0,
4,
4,
6,
6,
7,
7,
3,
3,
0,
0,
5,
5,
8,
8,
10,
10,
10,
10,
5,
5,
1,
1,
4,
4,
8,
8,
8,
8,
6,
6,
3,
3,
1,
1,
0,
0,
-1,
-1,
2,
2,
5,
5,
4,
4,
2,
2,
-1,
-1,
0,
0,
-2,
-2,
3,
3,
4,
4,
0,
0,
1,
1,
-1,
-1,
-1,
-1,
-1,
-1,
-1,
-1,
-1,
-1,
2,
2,
2,
2,
-1,
-1,
0,
0,
1,
1,
2,
2,
1,
1,
-1,
-1,
0,
0,
2,
2,
5,
5,
1,
1,
2,
2,
5,
5,
4,
4,
9,
9,
9,
9,
1,
1,
6,
6,
9,
9,
2,
2,
2,
2,
5,
5,
9,
9,
6,
6,
1,
1,
5,
5,
4,
4,
1,
1,
1,
1,
5,
5,
3,
3,
0,
0,
-1,
-1,
-1,
-1,
-1,
-1,
0,
0,
0,
0,
2,
2,
0,
0,
6,
6,
15,
15,
16,
16,
6,
6,
3,
3,
0,
0,
2,
2,
0,
0,
2,
2,
8,
8,
13,
13,
14,
14,
8,
8,
2,
2,
4,
4,
3,
3,
2,
2,
1,
1,
0,
0,
1,
1,
-1,
-1,
-1,
-1,
0,
0,
1,
1,
2,
2,
4,
4,
13,
13,
23,
37,
35,
35,
42,
25,
26,
4,
9,
25,
24,
24,
28,
28,
29,
29,
26,
26,
23,
23,
15,
15,
7,
7,
2,
2,
1,
1,
7,
7,
11,
11,
14,
14,
12,
12,
9,
9,
6,
6,
2,
2,
-1,
-1,
-1,
-1,
-1,
-1,
1,
1,
0,
0,
1,
1,
1,
1,
0,
0,
0,
0,
0,
0,
1,
1,
1,
1,
0,
0,
3,
3,
3,
3,
0,
0,
-1,
-1,
-1,
-1,
-1,
-1,
1,
1,
1,
1,
0,
0,
1,
1,
1,
1,
5,
5,
6,
6,
4,
4,
0,
0,
6,
6,
7,
7,
6,
6,
4,
4,
1,
1,
0,
0,
2,
2,
-1,
-1,
1,
1,
2,
2,
1,
1,
4,
4,
6,
6,
6,
6,
5,
5,
6,
6,
0,
0,
8,
8,
12,
12,
10,
10,
14,
14,
11,
11,
10,
10,
6,
6,
0,
0,
3,
3,
6,
6,
14,
25,
24,
24,
21,
9,
10,
10,
2,
2,
10,
10,
19,
19,
26,
26,
28,
6,
6,
6,
10,
10,
14,
14,
13,
13,
9,
9,
2,
2,
0,
0,
3,
3,
6,
6,
4,
4,
3,
3,
0,
0,
3,
3,
7,
7,
8,
8,
4,
4,
2,
2,
2,
2,
0,
0,
-1,
-1,
2,
2,
3,
3,
-1,
-1,
0,
0,
-1,
-1,
2,
2,
3,
3,
5,
5,
2,
2,
0,
0,
0,
0,
1,
1,
6,
6,
8,
8,
3,
3,
2,
2,
2,
2,
1,
1,
0,
0,
2,
2,
1,
1,
1,
1,
1,
1,
3,
3,
8,
8,
8,
8,
3,
3,
0,
0,
6,
6,
9,
9,
10,
10,
7,
7,
2,
2,
2,
2,
6,
6,
10,
10,
9,
9,
5,
5,
1,
1,
3,
3,
6,
6,
8,
8,
5,
5,
3,
3,
7,
7,
4,
4,
0,
0,
0,
0,
1,
1,
2,
2,
2,
2,
4,
4,
5,
5,
5,
5,
1,
1,
0,
0,
0,
0,
5,
5,
9,
9,
10,
10,
6,
6,
2,
2,
1,
1,
-2,
-2,
2,
2,
7,
7,
11,
11,
9,
9,
3,
3,
0,
0,
1,
1,
1,
1,
2,
2,
0,
0,
0,
0,
1,
1,
3,
3,
4,
4,
5,
5,
5,
5,
6,
6,
2,
2,
3,
3,
7,
7,
7,
7,
14,
14,
16,
16,
15,
2,
3,
3,
