EMG_S2/DS0073.CSV

Memory Length,4000,
Trigger Level,-4.80000e+02,
Source,CH1,
Probe,1.0X,
Vertical Units,V,
Vertical Scale,1.00000e+00,
Vertical Position,0.00000e+00,
Horizontal Units,S,
Horizontal Scale,1.00000e-01,
Horizontal Position,0.0000000e+00,
Horizontal Mode,Roll Mode,
Waveform Last Dot Address,4000,
Sampling Period,4.00000e-04,
Firmware,V1.14,
Time, ,
Mode,Fast,
Waveform Data,
1,
1,
1,
1,
7,
7,
12,
12,
7,
7,
1,
1,
5,
5,
13,
13,
13,
1,
2,
13,
13,
13,
14,
14,
7,
7,
2,
2,
4,
4,
6,
6,
2,
2,
0,
0,
1,
1,
1,
1,
0,
0,
2,
2,
4,
4,
6,
6,
5,
5,
2,
2,
1,
1,
9,
9,
13,
13,
14,
14,
13,
13,
4,
4,
6,
20,
19,
19,
22,
22,
25,
25,
23,
12,
12,
1,
2,
2,
9,
9,
14,
14,
18,
18,
17,
17,
10,
10,
1,
1,
6,
6,
8,
8,
5,
5,
2,
2,
1,
1,
6,
6,
10,
10,
4,
4,
-1,
-1,
0,
0,
1,
1,
3,
3,
2,
2,
2,
2,
1,
1,
0,
0,
-1,
-1,
-1,
-1,
1,
1,
1,
1,
1,
1,
1,
1,
1,
1,
-1,
-1,
-2,
-2,
-1,
-1,
0,
0,
-1,
-1,
-1,
-1,
1,
1,
0,
0,
2,
2,
2,
2,
2,
2,
-1,
-1,
1,
1,
2,
2,
1,
1,
1,
1,
-1,
-1,
1,
1,
3,
3,
2,
2,
-1,
-1,
2,
2,
1,
1,
3,
3,
5,
5,
6,
6,
4,
4,
1,
1,
1,
1,
1,
1,
3,
3,
3,
3,
2,
2,
0,
0,
3,
3,
2,
2,
2,
2,
4,
4,
0,
0,
2,
2,
4,
4,
6,
6,
6,
6,
5,
5,
6,
6,
6,
6,
2,
2,
0,
0,
2,
2,
0,
0,
1,
1,
2,
2,
1,
1,
2,
2,
6,
6,
7,
7,
2,
2,
1,
1,
1,
1,
0,
0,
0,
0,
3,
3,
4,
4,
4,
4,
4,
4,
2,
2,
2,
2,
3,
3,
2,
2,
3,
3,
3,
3,
2,
2,
0,
0,
0,
0,
0,
0,
0,
0,
0,
0,
1,
1,
5,
5,
12,
23,
22,
22,
22,
10,
10,
10,
1,
1,
9,
21,
21,
39,
38,
51,
50,
50,
46,
20,
20,
1,
2,
2,
9,
9,
18,
30,
30,
30,
36,
36,
35,
35,
29,
29,
21,
21,
12,
12,
2,
2,
4,
4,
8,
8,
10,
10,
12,
12,
13,
13,
13,
13,
13,
13,
12,
12,
9,
9,
6,
6,
4,
4,
1,
1,
-1,
-1,
-1,
-1,
-1,
-1,
-1,
-1,
0,
0,
2,
2,
6,
6,
6,
6,
2,
2,
0,
0,
0,
0,
-1,
-1,
0,
0,
-1,
-1,
0,
0,
-1,
-1,
-1,
-1,
0,
0,
0,
0,
0,
0,
0,
0,
0,
0,
-1,
-1,
-1,
-1,
0,
0,
1,
1,
1,
1,
2,
2,
1,
1,
0,
0,
4,
4,
9,
9,
10,
10,
11,
11,
6,
6,
4,
4,
12,
12,
11,
11,
8,
8,
1,
1,
4,
4,
5,
5,
2,
2,
2,
2,
-1,
-1,
0,
0,
7,
19,
18,
18,
25,
25,
22,
22,
17,
17,
12,
12,
3,
3,
8,
19,
18,
18,
25,
25,
28,
28,
24,
11,
11,
11,
4,
4,
0,
0,
1,
1,
4,
4,
5,
5,
8,
8,
7,
7,
8,
8,
6,
6,
5,
5,
2,
2,
4,
4,
6,
6,
6,
6,
6,
6,
5,
5,
2,
2,
3,
3,
2,
2,
-1,
-1,
6,
6,
7,
7,
7,
7,
6,
6,
5,
5,
3,
3,
3,
3,
1,
1,
-1,
-1,
0,
0,
1,
1,
2,
2,
2,
2,
-1,
-1,
1,
1,
2,
2,
2,
2,
3,
3,
0,
0,
0,
0,
-1,
-1,
0,
0,
4,
4,
4,
4,
3,
3,
0,
0,
5,
5,
8,
8,
2,
2,
0,
0,
0,
0,
0,
0,
-1,
-1,
2,
2,
5,
5,
8,
8,
4,
4,
7,
7,
3,
3,
2,
16,
16,
28,
28,
28,
28,
28,
26,
26,
23,
23,
13,
1,
3,
3,
11,
11,
17,
17,
18,
18,
16,
16,
13,
13,
13,
13,
14,
14,
14,
14,
9,
9,
0,
0,
4,
4,
6,
6,
6,
6,
5,
5,
3,
3,
3,
3,
3,
3,
4,
15,
14,
14,
22,
22,
22,
22,
14,
1,
5,
21,
21,
21,
24,
24,
17,
17,
12,
12,
4,
4,
5,
5,
8,
8,
7,
7,
4,
4,
0,
0,
2,
2,
6,
6,
5,
5,
5,
5,
6,
6,
5,
5,
1,
1,
-1,
-1,
4,
4,
0,
15,
14,
34,
32,
32,
38,
38,
29,
4,
6,
28,
27,
27,
28,
28,
18,
18,
17,
17,
12,
12,
4,
4,
2,
2,
4,
4,
1,
1,
3,
3,
5,
5,
6,
6,
5,
5,
0,
0,
6,
6,
10,
10,
13,
13,
11,
11,
2,
2,
0,
0,
2,
2,
3,
3,
2,
2,
0,
0,
1,
1,
4,
4,
6,
6,
2,
2,
2,
2,
7,
7,
13,
13,
13,
13,
7,
7,
-1,
12,
12,
31,
31,
31,
39,
39,
35,
16,
16,
4,
5,
5,
3,
3,
1,
1,
1,
1,
10,
23,
22,
36,
36,
36,
37,
37,
29,
18,
19,
8,
8,
8,
2,
2,
12,
12,
10,
10,
14,
14,
14,
14,
9,
9,
8,
8,
12,
12,
15,
15,
10,
10,
1,
1,
1,
1,
-1,
-1,
1,
1,
2,
2,
2,
2,
2,
2,
2,
2,
1,
1,
2,
2,
1,
1,
0,
0,
-1,
-1,
2,
2,
0,
0,
0,
0,
2,
2,
2,
2,
0,
0,
1,
1,
-1,
-1,
-2,
-2,
-1,
-1,
0,
0,
1,
1,
0,
0,
2,
2,
2,
2,
2,
2,
2,
2,
4,
4,
6,
6,
7,
7,
13,
13,
15,
15,
14,
0,
1,
12,
12,
12,
22,
22,
28,
28,
33,
33,
33,
20,
20,
1,
1,
1,
9,
20,
19,
19,
25,
25,
25,
25,
21,
21,
18,
18,
17,
17,
14,
0,
1,
1,
2,
2,
4,
4,
6,
6,
9,
9,
11,
11,
6,
6,
7,
7,
14,
14,
14,
14,
19,
19,
27,
27,
24,
10,
10,
10,
13,
29,
29,
29,
28,
28,
20,
20,
14,
14,
10,
10,
9,
9,
2,
2,
2,
2,
8,
8,
13,
13,
9,
9,
3,
3,
2,
2,
6,
6,
7,
7,
2,
2,
0,
0,
6,
6,
12,
12,
18,
18,
17,
17,
16,
16,
13,
13,
7,
7,
0,
0,
6,
6,
10,
10,
11,
11,
13,
13,
15,
15,
13,
13,
14,
14,
18,
18,
14,
2,
3,
3,
5,
5,
8,
8,
11,
26,
25,
25,
24,
11,
12,
0,
2,
2,
-1,
-1,
6,
6,
12,
12,
21,
21,
24,
24,
2,
2,
8,
24,
23,
23,
30,
30,
30,
30,
29,
29,
26,
26,
17,
5,
5,
5,
1,
1,
9,
9,
12,
12,
13,
13,
13,
13,
12,
12,
10,
10,
10,
10,
13,
13,
9,
9,
6,
6,
5,
5,
0,
0,
5,
5,
12,
12,
6,
6,
2,
2,
4,
4,
4,
4,
2,
2,
6,
6,
4,
4,
0,
0,
2,
2,
3,
3,
0,
0,
-1,
-1,
-1,
-1,
1,
1,
1,
1,
4,
4,
3,
3,
2,
2,
4,
4,
4,
4,
1,
1,
5,
5,
1,
1,
3,
3,
10,
10,
12,
12,
9,
9,
1,
1,
0,
0,
2,
2,
4,
4,
1,
1,
2,
2,
7,
7,
8,
8,
9,
9,
10,
10,
9,
9,
4,
4,
2,
18,
17,
32,
31,
31,
30,
14,
15,
15,
5,
5,
1,
1,
0,
0,
4,
4,
12,
12,
18,
18,
20,
20,
18,
18,
12,
12,
2,
2,
6,
6,
9,
9,
5,
5,
2,
2,
5,
5,
4,
4,
2,
2,
0,
0,
1,
1,
0,
0,
-1,
-1,
-1,
-1,
0,
0,
2,
2,
3,
3,
0,
0,
4,
4,
3,
3,
0,
0,
6,
22,
21,
39,
38,
38,
46,
19,
19,
5,
18,
38,
38,
38,
32,
17,
18,
5,
6,
6,
4,
4,
7,
7,
2,
2,
1,
1,
8,
8,
10,
10,
3,
3,
-1,
-1,
1,
1,
2,
2,
0,
0,
1,
1,
6,
6,
8,
8,
7,
7,
4,
4,
6,
6,
10,
10,
10,
10,
7,
7,
5,
5,
4,
4,
1,
1,
4,
4,
2,
2,
1,
1,
5,
5,
6,
6,
10,
10,
8,
8,
3,
3,
0,
0,
1,
1,
6,
6,
9,
9,
13,
13,
20,
20,
20,
20,
14,
1,
2,
2,
6,
6,
5,
5,
5,
5,
4,
4,
4,
4,
6,
6,
5,
5,
5,
5,
3,
3,
4,
4,
2,
2,
4,
4,
8,
8,
8,
8,
5,
5,
1,
1,
5,
5,
10,
10,
13,
13,
14,
14,
11,
11,
2,
2,
0,
0,
-1,
-1,
4,
16,
15,
15,
16,
16,
13,
13,
10,
10,
9,
9,
5,
5,
3,
3,
9,
9,
1,
13,
13,
13,
6,
6,
10,
10,
17,
17,
18,
18,
9,
9,
1,
1,
3,
3,
-1,
-1,
4,
4,
3,
3,
0,
0,
1,
1,
3,
3,
1,
1,
6,
6,
11,
11,
12,
12,
12,
12,
10,
10,
3,
28,
28,
53,
53,
53,
56,
56,
50,
30,
30,
3,
5,
20,
19,
19,
28,
28,
29,
29,
24,
24,
21,
21,
21,
21,
21,
21,
18,
18,
16,
16,
12,
12,
6,
6,
2,
2,
11,
11,
15,
15,
14,
14,
12,
12,
11,
11,
13,
13,
12,
12,
9,
9,
2,
2,
1,
1,
5,
5,
1,
1,
5,
5,
7,
7,
7,
7,
6,
6,
3,
3,
9,
9,
14,
14,
10,
10,
17,
17,
10,
10,
10,
21,
20,
20,
14,
3,
12,
29,
29,
29,
34,
34,
37,
37,
36,
36,
30,
30,
21,
4,
5,
5,
8,
19,
18,
18,
25,
25,
30,
30,
29,
29,
19,
8,
9,
9,
4,
4,
3,
3,
1,
1,
0,
0,
1,
1,
4,
4,
6,
6,
6,
6,
5,
5,
5,
5,
5,
5,
3,
3,
0,
0,
2,
2,
6,
6,
10,
10,
5,
5,
2,
2,
-1,
-1,
3,
3,
2,
2,
1,
1,
1,
1,
1,
1,
2,
2,
0,
0,
-1,
-1,
2,
2,
2,
2,
3,
3,
8,
8,
5,
5,
2,
2,
8,
8,
14,
14,
15,
15,
15,
15,
12,
12,
4,
4,
1,
1,
2,
2,
4,
4,
4,
4,
3,
3,
2,
2,
2,
2,
1,
1,
4,
4,
10,
25,
25,
25,
29,
29,
21,
3,
3,
3,
8,
8,
16,
16,
21,
21,
25,
25,
30,
30,
30,
30,
36,
36,
45,
45,
40,
15,
16,
2,
9,
30,
30,
48,
48,
48,
54,
54,
50,
50,
41,
30,
30,
18,
18,
7,
8,
8,
1,
1,
10,
10,
18,
18,
22,
22,
22,
22,
24,
24,
23,
23,
19,
19,
14,
14,
6,
6,
3,
3,
0,
0,
0,
0,
1,
1,
2,
2,
2,
2,
-1,
-1,
4,
4,
8,
8,
9,
9,
10,
10,
9,
9,
5,
5,
0,
0,
2,
2,
5,
5,
3,
3,
0,
0,
0,
0,
0,
0,
0,
0,
-1,
-1,
0,
0,
1,
1,
0,
0,
0,
0,
0,
0,
0,
0,
1,
1,
2,
2,
4,
4,
1,
1,
1,
1,
2,
2,
5,
5,
7,
7,
10,
10,
17,
17,
14,
14,
7,
7,
2,
2,
2,
25,
25,
41,
41,
41,
47,
36,
36,
24,
25,
25,
20,
20,
21,
8,
8,
8,
9,
31,
30,
45,
45,
45,
54,
54,
50,
50,
40,
26,
27,
13,
13,
1,
2,
2,
6,
6,
15,
15,
21,
21,
23,
23,
23,
23,
22,
22,
19,
19,
18,
18,
14,
14,
11,
11,
8,
8,
4,
4,
-1,
-1,
6,
6,
14,
14,
21,
21,
17,
5,
5,
5,
1,
1,
6,
6,
9,
9,
13,
13,
11,
11,
5,
5,
5,
5,
5,
5,
7,
7,
10,
10,
8,
8,
4,
4,
5,
5,
0,
0,
1,
1,
3,
3,
5,
5,
8,
8,
4,
4,
0,
0,
-2,
-2,
-1,
-1,
0,
0,
0,
0,
-1,
-1,
-1,
-1,
5,
5,
7,
7,
6,
6,
4,
4,
4,
4,
3,
3,
9,
9,
13,
13,
18,
18,
18,
18,
13,
1,
3,
3,
5,
5,
14,
29,
28,
28,
28,
17,
18,
1,
2,
2,
11,
29,
29,
48,
48,
48,
46,
22,
22,
4,
5,
5,
0,
0,
7,
25,
25,
36,
34,
34,
39,
39,
34,
18,
19,
5,
5,
5,
3,
3,
-1,
-1,
2,
2,
5,
5,
7,
7,
10,
10,
13,
13,
16,
16,
17,
17,
14,
14,
11,
11,
9,
9,
7,
7,
6,
6,
3,
3,
0,
0,
4,
4,
7,
7,
8,
8,
7,
7,
5,
5,
5,
5,
5,
5,
4,
4,
5,
5,
6,
6,
4,
4,
0,
0,
1,
1,
5,
5,
9,
9,
13,
13,
13,
13,
6,
6,
-1,
-1,
2,
2,
3,
3,
3,
3,
2,
2,
5,
5,
2,
2,
1,
1,
3,
3,
0,
0,
3,
3,
2,
2,
0,
0,
-2,
-2,
2,
2,
2,
2,
3,
3,
3,
3,
2,
2,
5,
5,
12,
12,
13,
13,
7,
7,
4,
4,
5,
5,
3,
3,
8,
8,
15,
15,
17,
17,
8,
8,
2,
2,
7,
7,
12,
12,
10,
10,
1,
1,
1,
1,
5,
5,
9,
9,
8,
8,
2,
2,
2,
2,
1,
1,
4,
4,
10,
10,
10,
10,
8,
8,
6,
6,
6,
6,
4,
4,
7,
19,
18,
18,
25,
25,
15,
2,
6,
27,
27,
41,
41,
41,
46,
25,
26,
2,
2,
2,
12,
12,
20,
33,
32,
32,
37,
37,
34,
34,
30,
30,
20,
20,
11,
11,
13,
13,
7,
7,
1,
24,
24,
49,
49,
60,
60,
60,
61,
45,
45,
16,
17,
2,
9,
28,
27,
27,
35,
35,
34,
34,
26,
26,
16,
16,
8,
8,
1,
1,
7,
7,
10,
10,
1,
16,
14,
29,
29,
29,
23,
23,
13,
13,
8,
8,
3,
3,
2,
2,
4,
4,
5,
5,
6,
6,
5,
5,
3,
3,
2,
2,
2,
2,
-1,
-1,
0,
0,
-1,
-1,
-1,
-1,
0,
0,
0,
0,
0,
0,
3,
3,
5,
5,
2,
2,
0,
0,
-1,
-1,
-2,
-2,
-1,
-1,
-2,
-2,
-1,
-1,
-2,
-2,
0,
0,
0,
0,
1,
1,
-1,
-1,
-1,
-1,
0,
0,
1,
1,
0,
0,
0,
0,
-1,
-1,
0,
0,
1,
1,
2,
2,
1,
1,
-1,
-1,
1,
1,
-1,
-1,
1,
1,
0,
0,
0,
0,
0,
0,
0,
0,
2,
2,
4,
4,
6,
6,
7,
7,
5,
5,
3,
3,
2,
2,
1,
1,
3,
3,
6,
6,
8,
8,
6,
6,
6,
6,
4,
4,
1,
1,
0,
0,
-1,
-1,
0,
0,
0,
0,
2,
2,
2,
2,
4,
4,
2,
2,
0,
0,
9,
26,
26,
37,
36,
36,
28,
13,
13,
0,
1,
1,
11,
23,
22,
22,
25,
25,
18,
18,
10,
10,
1,
1,
2,
2,
10,
10,
14,
14,
10,
10,
5,
5,
14,
14,
10,
10,
2,
2,
2,
2,
4,
4,
1,
1,
2,
2,
5,
5,
3,
3,
0,
0,
4,
4,
5,
5,
2,
2,
8,
8,
14,
14,
13,
13,
6,
6,
6,
6,
13,
13,
14,
1,
5,
5,
12,
12,
18,
18,
16,
16,
16,
16,
16,
16,
17,
17,
12,
0,
1,
1,
1,
1,
8,
8,
15,
15,
17,
17,
23,
23,
29,
29,
25,
25,
20,
4,
4,
4,
8,
8,
17,
17,
21,
21,
21,
21,
20,
20,
16,
16,
13,
13,
7,
7,
0,
0,
6,
6,
11,
11,
9,
9,
6,
6,
4,
4,
6,
6,
7,
7,
6,
6,
6,
6,
5,
5,
5,
5,
2,
2,
0,
0,
2,
2,
4,
4,
3,
3,
9,
9,
10,
10,
5,
5,
2,
2,
2,
2,
1,
1,
10,
10,
14,
14,
14,
14,
9,
9,
6,
6,
2,
2,
3,
3,
9,
9,
13,
13,
12,
12,
7,
7,
4,
4,
2,
2,
-1,
-1,
0,
0,
2,
2,
2,
2,
4,
4,
6,
6,
5,
5,
2,
2,
2,
2,
-1,
-1,
-1,
-1,
0,
0,
-1,
-1,
-1,
-1,
0,
0,
1,
1,
3,
3,
1,
1,
0,
0,
0,
0,
1,
1,
2,
2,
1,
1,
0,
0,
1,
1,
-1,
-1,
1,
1,
2,
2,
4,
4,
3,
3,
0,
0,
4,
4,
7,
7,
5,
5,
2,
2,
3,
3,
1,
1,
-1,
-1,
0,
0,
1,
1,
0,
0,
-1,
-1,
-1,
-1,
-1,
-1,
-1,
-1,
0,
0,
2,
2,
1,
1,
5,
5,
2,
2,
2,
2,
0,
0,
2,
2,
4,
4,
3,
3,
2,
2,
1,
1,
9,
9,
13,
13,
18,
18,
21,
21,
11,
11,
9,
28,
27,
27,
34,
34,
30,
14,
14,
1,
2,
18,
18,
18,
22,
22,
15,
15,
6,
6,
9,
25,
24,
24,
26,
26,
18,
18,
9,
9,
2,
2,
12,
12,
19,
19,
29,
29,
26,
15,
15,
15,
9,
9,
4,
4,
2,
2,
4,
4,
10,
10,
18,
18,
18,
18,
14,
3,
4,
4,
1,
1,
2,
2,
2,
2,
2,
2,
4,
4,
2,
2,
10,
10,
15,
15,
14,
14,
6,
6,
1,
1,
6,
6,
6,
6,
9,
9,
9,
9,
5,
5,
2,
2,
6,
6,
5,
5,
6,
6,
6,
6,
0,
0,
5,
5,
9,
9,
9,
9,
1,
1,
1,
1,
2,
2,
1,
1,
3,
3,
2,
2,
4,
4,
2,
2,
1,
1,
4,
4,
6,
6,
3,
3,
0,
0,
6,
6,
14,
14,
16,
16,
10,
10,
2,
2,
-1,
-1,
1,
1,
2,
2,
9,
9,
12,
12,
11,
11,
11,
11,
6,
6,
0,
0,
6,
6,
2,
2,
0,
0,
2,
2,
-1,
-1,
2,
2,
6,
6,
8,
8,
7,
7,
3,
3,
7,
21,
21,
21,
25,
25,
22,
22,
17,
17,
16,
16,
10,
10,
2,
2,
2,
2,
12,
12,
22,
22,
22,
22,
21,
21,
17,
17,
11,
11,
7,
7,
1,
1,
4,
4,
7,
7,
9,
9,
7,
7,
8,
8,
8,
8,
3,
3,
1,
1,
1,
1,
2,
2,
4,
4,
6,
6,
9,
9,
10,
10,
10,
10,
6,
6,
4,
4,
1,
1,
6,
6,
10,
10,
12,
12,
11,
11,
11,
11,
10,
10,
9,
9,
6,
6,
2,
2,
1,
1,
1,
1,
1,
1,
-1,
-1,
8,
8,
10,
10,
12,
12,
11,
11,
10,
10,
8,
8,
6,
6,
2,
2,
1,
1,
5,
5,
7,
7,
7,
7,
6,
6,
5,
5,
2,
2,
-1,
-1,
0,
0,
-1,
-1,
1,
1,
2,
2,
2,
2,
2,
2,
1,
1,
0,
0,
0,
0,
1,
1,
2,
2,
1,
1,
1,
1,
0,
0,
6,
6,
8,
8,
11,
11,
12,
12,
14,
14,
14,
14,
6,
6,
12,
28,
28,
28,
30,
30,
26,
26,
16,
1,
2,
2,
10,
10,
16,
16,
14,
14,
21,
21,
25,
25,
18,
5,
6,
6,
6,
6,
12,
12,
12,
12,
13,
13,
6,
6,
1,
1,
2,
2,
5,
5,
0,
0,
4,
4,
5,
5,
4,
4,
2,
2,
-1,
-1,
6,
6,
14,
14,
10,
10,
5,
5,
3,
3,
4,
4,
0,
0,
1,
1,
5,
5,
3,
3,
0,
0,
-1,
-1,
1,
1,
6,
6,
7,
7,
2,
2,
2,
2,
0,
0,
1,
1,
6,
6,
8,
8,
2,
2,
1,
1,
1,
1,
8,
8,
15,
15,
19,
19,
17,
3,
4,
4,
6,
19,
19,
19,
25,
25,
22,
22,
14,
14,
10,
10,
5,
5,
0,
0,
2,
2,
5,
5,
4,
4,
6,
6,
7,
7,
10,
10,
13,
13,
13,
13,
13,
13,
9,
9,
2,
2,
-1,
-1,
1,
1,
1,
1,
4,
4,
6,
6,
6,
6,
4,
4,
6,
6,
6,
6,
5,
5,
2,
2,
1,
1,
0,
0,
-1,
-1,
-1,
-1,
2,
2,
8,
8,
13,
13,
15,
15,
16,
16,
6,
6,
2,
2,
6,
6,
8,
8,
8,
8,
8,
8,
6,
6,
4,
4,
2,
2,
0,
0,
3,
3,
7,
7,
6,
6,
2,
2,
0,
0,
1,
1,
-2,
-2,
1,
1,
2,
2,
4,
4,
2,
2,
1,
1,
2,
2,
2,
2,
0,
0,
1,
1,
1,
1,
-1,
-1,
2,
2,
2,
2,
2,
2,
1,
1,
1,
1,
3,
3,
6,
6,
6,
6,
5,
5,
2,
2,
0,
0,
1,
1,
2,
2,
1,
1,
0,
0,
1,
1,
2,
2,
4,
4,
3,
3,
1,
1,
-1,
-1,
3,
3,
3,
3,
5,
5,
9,
9,
9,
9,
8,
8,
6,
6,
1,
1,
7,
7,
10,
10,
10,
10,
6,
6,
1,
1,
2,
2,
8,
8,
12,
12,
8,
8,
1,
1,
7,
7,
10,
10,
9,
9,
12,
12,
9,
9,
0,
0,
5,
5,
12,
12,
16,
16,
18,
18,
16,
4,
4,
4,
2,
2,
7,
7,
12,
12,
12,
12,
10,
10,
5,
5,
5,
5,
7,
7,
1,
1,
9,
21,
21,
21,
24,
24,
17,
17,
8,
8,
0,
0,
8,
8,
14,
14,
18,
18,
13,
0,
1,
1,
1,
1,
2,
2,
3,
3,
2,
2,
0,
0,
0,
0,
1,
1,
1,
1,
-2,
-2,
-1,
-1,
0,
0,
-1,
-1,
-1,
-1,
-1,
-1,
0,
0,
-1,
-1,
-1,
-1,
0,
0,
0,
0,
0,
0,
2,
2,
2,
2,
2,
2,
3,
3,
4,
4,
1,
1,
5,
5,
13,
13,
18,
18,
13,
0,
1,
1,
6,
6,
16,
16,
23,
23,
22,
22,
17,
17,
11,
0,
2,
2,
8,
8,
10,
10,
9,
9,
13,
13,
17,
17,
14,
14,
8,
8,
5,
5,
1,
1,
2,
2,
5,
5,
7,
7,
6,
6,
3,
3,
5,
5,
2,
2,
0,
0,
4,
4,
9,
9,
9,
9,
12,
12,
12,
1,
2,
2,
8,
8,
8,
8,
4,
4,
1,
1,
1,
1,
-2,
-2,
-1,
-1,
2,
2,
6,
6,
9,
9,
8,
8,
6,
6,
6,
6,
5,
5,
1,
1,
2,
2,
-1,
-1,
5,
5,
14,
14,
21,
21,
23,
23,
23,
23,
25,
25,
18,
1,
2,
2,
11,
11,
20,
20,
25,
25,
22,
22,
20,
20,
22,
22,
21,
21,
16,
1,
2,
14,
14,
33,
32,
32,
39,
26,
27,
10,
10,
10,
5,
5,
2,
2,
8,
8,
6,
6,
3,
3,
8,
8,
4,
4,
1,
1,
7,
18,
18,
18,
21,
21,
14,
14,
5,
5,
2,
2,
9,
9,
10,
10,
13,
13,
13,
13,
11,
11,
4,
4,
2,
2,
5,
5,
5,
5,
5,
5,
4,
4,
0,
0,
1,
1,
1,
1,
-1,
-1,
5,
5,
4,
4,
-2,
-2,
0,
0,
1,
1,
-1,
-1,
-1,
-1,
1,
1,
4,
4,
12,
12,
20,
20,
14,
14,
6,
6,
4,
20,
20,
31,
30,
30,
30,
16,
16,
1,
1,
12,
12,
24,
24,
24,
30,
30,
28,
15,
15,
2,
6,
6,
13,
13,
14,
14,
12,
12,
7,
7,
7,
7,
5,
5,
5,
5,
5,
5,
2,
2,
5,
5,
11,
11,
15,
15,
14,
14,
8,
8,
2,
2,
7,
7,
2,
2,
5,
5,
5,
5,
7,
7,
5,
5,
1,
1,
5,
20,
19,
36,
36,
53,
53,
53,
56,
27,
28,
6,
15,
46,
45,
57,
56,
56,
53,
42,
44,
31,
32,
18,
19,
8,
9,
9,
1,
1,
5,
5,
9,
9,
14,
14,
18,
18,
19,
19,
20,
20,
21,
21,
22,
22,
17,
17,
9,
9,
6,
6,
2,
2,
0,
0,
2,
2,
4,
4,
5,
5,
6,
6,
6,
6,
7,
7,
7,
7,
7,
7,
8,
8,
6,
6,
1,
1,
0,
0,
2,
2,
3,
3,
3,
3,
2,
2,
-1,
-1,
1,
1,
0,
0,
0,
0,
-1,
-1,
-2,
-2,
0,
0,
-1,
-1,
2,
2,
4,
4,
2,
2,
2,
2,
2,
2,
5,
5,
3,
3,
4,
4,
-1,
-1,
1,
1,
2,
2,
2,
2,
1,
1,
3,
3,
5,
5,
4,
4,
2,
2,
2,
2,
0,
0,
5,
5,
11,
11,
10,
10,
5,
5,
0,
0,
4,
4,
6,
6,
9,
9,
7,
7,
2,
2,
3,
3,
8,
8,
11,
11,
13,
13,
8,
8,
2,
2,
-1,
-1,
1,
1,
